{"lemmaList": [{"lemmaId": 12810964, "lemmaTitle": "小儿糖原贮积病Ⅱ型", "lemmaCroppedTitle": "小儿糖原贮积病Ⅱ型", "lemmaDesc": "小儿糖原贮积病Ⅱ型（GSD-Ⅱ）即酸性麦芽糖酶缺陷病，属常染色体隐性遗传性疾病。...", "lemmaUrl": "http://baike.baidu.com/item/%E5%B0%8F%E5%84%BF%E7%B3%96%E5%8E%9F%E8%B4%AE%E7%A7%AF%E7%97%85%E2%85%A1%E5%9E%8B/12810964", "lemmaPic": []}, {"lemmaId": 12000420, "lemmaTitle": "泛发性特发性毛细血管扩张症", "lemmaCroppedTitle": "泛发性特发性毛细血管扩张症", "lemmaDesc": "泛发性特发性毛细血管扩张症是指以四肢和躯干大面积小静脉和毛细血管扩张，其他皮肤损...", "lemmaUrl": "http://baike.baidu.com/item/%E6%B3%9B%E5%8F%91%E6%80%A7%E7%89%B9%E5%8F%91%E6%80%A7%E6%AF%9B%E7%BB%86%E8%A1%80%E7%AE%A1%E6%89%A9%E5%BC%A0%E7%97%87/12000420", "lemmaPic": []}, {"lemmaId": 12676708, "lemmaTitle": "小儿慢性淋巴细胞性甲状腺炎", "lemmaCroppedTitle": "小儿慢性淋巴细胞性甲状腺炎", "lemmaDesc": "小儿慢性淋巴细胞性甲状腺炎（CLT）又称自身免疫性甲状腺炎，是一种以自身甲状腺组...", "lemmaUrl": "http://baike.baidu.com/item/%E5%B0%8F%E5%84%BF%E6%85%A2%E6%80%A7%E6%B7%8B%E5%B7%B4%E7%BB%86%E8%83%9E%E6%80%A7%E7%94%B2%E7%8A%B6%E8%85%BA%E7%82%8E/12676708", "lemmaPic": []}, {"lemmaId": 12676730, "lemmaTitle": "胰腺囊性纤维性变", "lemmaCroppedTitle": "胰腺囊性纤维性变", "lemmaDesc": "胰腺囊性纤维性变是一种常染色体隐性遗传性疾病。国外统计本病的发生率每1000～5...", "lemmaUrl": "http://baike.baidu.com/item/%E8%83%B0%E8%85%BA%E5%9B%8A%E6%80%A7%E7%BA%A4%E7%BB%B4%E6%80%A7%E5%8F%98/12676730", "lemmaPic": []}, {"lemmaId": 7254831, "lemmaTitle": "皮层性多汗症", "lemmaCroppedTitle": "皮层性多汗症", "lemmaDesc": "皮层性多汗症是多汗症的一种，这种多汗与大脑皮层活动相关。包括情绪多汗症、掌跖多汗...", "lemmaUrl": "http://baike.baidu.com/item/%E7%9A%AE%E5%B1%82%E6%80%A7%E5%A4%9A%E6%B1%97%E7%97%87/7254831", "lemmaPic": []}, {"lemmaId": 12676710, "lemmaTitle": "小儿甲状腺癌", "lemmaCroppedTitle": "小儿甲状腺癌", "lemmaDesc": "小儿甲状腺癌一般是指发生在15岁以下小儿中的甲状腺癌，与成人甲状腺癌相比，具有癌...", "lemmaUrl": "http://baike.baidu.com/item/%E5%B0%8F%E5%84%BF%E7%94%B2%E7%8A%B6%E8%85%BA%E7%99%8C/12676710", "lemmaPic": []}, {"lemmaId": 12677247, "lemmaTitle": "食管受压性吞咽困难", "lemmaCroppedTitle": "食管受压性吞咽困难", "lemmaDesc": "食管受压性吞咽困难是因主动脉弓衍化血管的异常而至食管、气管受压，临床出现以吞咽困...", "lemmaUrl": "http://baike.baidu.com/item/%E9%A3%9F%E7%AE%A1%E5%8F%97%E5%8E%8B%E6%80%A7%E5%90%9E%E5%92%BD%E5%9B%B0%E9%9A%BE/12677247", "lemmaPic": []}, {"lemmaId": 12676971, "lemmaTitle": "心脏乳头样弹性纤维瘤", "lemmaCroppedTitle": "心脏乳头样弹性纤维瘤", "lemmaDesc": "心脏乳头样弹性纤维瘤（cardiac papillary elastofibro...", "lemmaUrl": "http://baike.baidu.com/item/%E5%BF%83%E8%84%8F%E4%B9%B3%E5%A4%B4%E6%A0%B7%E5%BC%B9%E6%80%A7%E7%BA%A4%E7%BB%B4%E7%98%A4/12676971", "lemmaPic": []}, {"lemmaId": 12677399, "lemmaTitle": "婴儿闷热综合症", "lemmaCroppedTitle": "婴儿闷热综合症", "lemmaDesc": "所谓的“婴儿闷热综合症”主要是由于把宝宝捂的过紧，盖的太多而导致被窝内温度过高，...", "lemmaUrl": "http://baike.baidu.com/item/%E5%A9%B4%E5%84%BF%E9%97%B7%E7%83%AD%E7%BB%BC%E5%90%88%E7%97%87/12677399", "lemmaPic": []}, {"lemmaId": 18277603, "lemmaTitle": "肿瘤放射性粒子植入治疗", "lemmaCroppedTitle": "肿瘤放射性粒子植入治疗", "lemmaDesc": "放射性粒子组织间永久植入治疗肿瘤是指通过影像学引导技术（超声、CT/MRI）将具...", "lemmaUrl": "http://baike.baidu.com/item/%E8%82%BF%E7%98%A4%E6%94%BE%E5%B0%84%E6%80%A7%E7%B2%92%E5%AD%90%E6%A4%8D%E5%85%A5%E6%B2%BB%E7%96%97/18277603", "lemmaPic": []}, {"lemmaId": 9889478, "lemmaTitle": "西方马型脑炎", "lemmaCroppedTitle": "西方马型脑炎", "lemmaDesc": "西方马型脑炎的规范名称是西方马脑炎（western equine encepha...", "lemmaUrl": "http://baike.baidu.com/item/%E8%A5%BF%E6%96%B9%E9%A9%AC%E5%9E%8B%E8%84%91%E7%82%8E/9889478", "lemmaPic": []}, {"lemmaId": 17659727, "lemmaTitle": "儿童分离性焦虑症", "lemmaCroppedTitle": "儿童分离性焦虑症", "lemmaDesc": "儿童分离性焦虑症是指儿童对其依恋对象分离感到过度焦虑。是儿童时期较常见的一种情绪...", "lemmaUrl": "http://baike.baidu.com/item/%E5%84%BF%E7%AB%A5%E5%88%86%E7%A6%BB%E6%80%A7%E7%84%A6%E8%99%91%E7%97%87/17659727", "lemmaPic": []}, {"lemmaId": 16972622, "lemmaTitle": "脑动脉栓塞", "lemmaCroppedTitle": "脑动脉栓塞", "lemmaDesc": "脑栓塞是指因异常的固态、液态、气态物体（被称作栓子）沿血循环进入脑动脉系统，引起...", "lemmaUrl": "http://baike.baidu.com/item/%E8%84%91%E5%8A%A8%E8%84%89%E6%A0%93%E5%A1%9E/16972622", "lemmaPic": []}, {"lemmaId": 17659713, "lemmaTitle": "经前紧张征", "lemmaCroppedTitle": "经前紧张征", "lemmaDesc": "经前紧张征即经前期综合征（PMS），是指反复在黄体期出现周期性以情感、行为和躯体...", "lemmaUrl": "http://baike.baidu.com/item/%E7%BB%8F%E5%89%8D%E7%B4%A7%E5%BC%A0%E5%BE%81/17659713", "lemmaPic": []}, {"lemmaId": 12676547, "lemmaTitle": "小儿黄疸肝脏色素沉着综合征", "lemmaCroppedTitle": "小儿黄疸肝脏色素沉着综合征", "lemmaDesc": "黄疸肝脏色素沉着综合征又称Dubin-Johnson综合征、Dubin-Spri...", "lemmaUrl": "http://baike.baidu.com/item/%E5%B0%8F%E5%84%BF%E9%BB%84%E7%96%B8%E8%82%9D%E8%84%8F%E8%89%B2%E7%B4%A0%E6%B2%89%E7%9D%80%E7%BB%BC%E5%90%88%E5%BE%81/12676547", "lemmaPic": []}, {"lemmaId": 10085583, "lemmaTitle": "鼻咽脊索瘤", "lemmaCroppedTitle": "鼻咽脊索瘤", "lemmaDesc": "鼻咽脊索瘤是较少见的先天性低度恶性肿瘤。肿瘤细胞起源于胚胎脊索的残余组织。可发生...", "lemmaUrl": "http://baike.baidu.com/item/%E9%BC%BB%E5%92%BD%E8%84%8A%E7%B4%A2%E7%98%A4/10085583", "lemmaPic": []}, {"lemmaId": 12676660, "lemmaTitle": "小儿急性髓样白血病", "lemmaCroppedTitle": "小儿急性髓样白血病", "lemmaDesc": "本词条由:湖南省儿童医院 血液内科  \t李婉丽  (主任医师)\t\t\t\t\t\t\t\t\t...", "lemmaUrl": "http://baike.baidu.com/item/%E5%B0%8F%E5%84%BF%E6%80%A5%E6%80%A7%E9%AB%93%E6%A0%B7%E7%99%BD%E8%A1%80%E7%97%85/12676660", "lemmaPic": []}, {"lemmaId": 12000421, "lemmaTitle": "煤炭工肺尘埃沉着病", "lemmaCroppedTitle": "煤炭工肺尘埃沉着病", "lemmaDesc": "煤炭工肺尘埃沉着病系指煤矿工人长期吸入生产环境中粉尘所引起的肺部病变的总称。包括...", "lemmaUrl": "http://baike.baidu.com/item/%E7%85%A4%E7%82%AD%E5%B7%A5%E8%82%BA%E5%B0%98%E5%9F%83%E6%B2%89%E7%9D%80%E7%97%85/12000421", "lemmaPic": []}, {"lemmaId": 7254101, "lemmaTitle": "寰椎沟环畸形", "lemmaCroppedTitle": "寰椎沟环畸形", "lemmaDesc": "沟环畸形在寰椎上并非罕见。但由于此种畸形引起椎动脉第三段（Ⅴ-Ⅲ）受压并出现椎动...", "lemmaUrl": "http://baike.baidu.com/item/%E5%AF%B0%E6%A4%8E%E6%B2%9F%E7%8E%AF%E7%95%B8%E5%BD%A2/7254101", "lemmaPic": []}, {"lemmaId": 12676521, "lemmaTitle": "小儿原发型肺结核", "lemmaCroppedTitle": "小儿原发型肺结核", "lemmaDesc": "原发型肺结核是原发性结核病中最常见者，为结核菌初次侵入肺部后发生的原发感染，是小...", "lemmaUrl": "http://baike.baidu.com/item/%E5%B0%8F%E5%84%BF%E5%8E%9F%E5%8F%91%E5%9E%8B%E8%82%BA%E7%BB%93%E6%A0%B8/12676521", "lemmaPic": []}, {"lemmaId": 2839286, "lemmaTitle": "小儿嗜血流感杆菌肺炎", "lemmaCroppedTitle": "小儿嗜血流感杆菌肺炎", "lemmaDesc": "嗜血流感杆菌肺炎是由嗜血流感杆菌所引起。多见于4岁以下婴幼儿，偶见于新生儿及成人...", "lemmaUrl": "http://baike.baidu.com/item/%E5%B0%8F%E5%84%BF%E5%97%9C%E8%A1%80%E6%B5%81%E6%84%9F%E6%9D%86%E8%8F%8C%E8%82%BA%E7%82%8E/2839286", "lemmaPic": []}, {"lemmaId": 12676685, "lemmaTitle": "小儿多发性硬化", "lemmaCroppedTitle": "小儿多发性硬化", "lemmaDesc": "多发性硬化为一种累及中枢神经系统白质的自身免疫性脱髓鞘性疾病，以病灶播散、多发，...", "lemmaUrl": "http://baike.baidu.com/item/%E5%B0%8F%E5%84%BF%E5%A4%9A%E5%8F%91%E6%80%A7%E7%A1%AC%E5%8C%96/12676685", "lemmaPic": []}, {"lemmaId": 7254504, "lemmaTitle": "先天性髋关节外展挛缩和骨盆倾斜", "lemmaCroppedTitle": "先天性髋关节外展挛缩和骨盆倾斜", "lemmaDesc": "先天性髋关节外展挛缩伴骨盆倾斜是一种姿势畸形，主要表现为双下肢不等长。虽然发病较...", "lemmaUrl": "http://baike.baidu.com/item/%E5%85%88%E5%A4%A9%E6%80%A7%E9%AB%8B%E5%85%B3%E8%8A%82%E5%A4%96%E5%B1%95%E6%8C%9B%E7%BC%A9%E5%92%8C%E9%AA%A8%E7%9B%86%E5%80%BE%E6%96%9C/7254504", "lemmaPic": []}, {"lemmaId": 6425032, "lemmaTitle": "黏脂贮积症Ⅱ型", "lemmaCroppedTitle": "黏脂贮积症Ⅱ型", "lemmaDesc": "又称包涵体细胞病，其临床特征更像Hurler综合征，表现为出生时就有明显的临床和...", "lemmaUrl": "http://baike.baidu.com/item/%E9%BB%8F%E8%84%82%E8%B4%AE%E7%A7%AF%E7%97%87%E2%85%A1%E5%9E%8B/6425032", "lemmaPic": []}, {"lemmaId": 12428563, "lemmaTitle": "小儿面部红斑侏儒综合征", "lemmaCroppedTitle": "小儿面部红斑侏儒综合征", "lemmaDesc": "又称侏儒面部毛细管扩张综合征；布鲁姆(bloom)综合征；先天性毛细血管扩张红斑...", "lemmaUrl": "http://baike.baidu.com/item/%E5%B0%8F%E5%84%BF%E9%9D%A2%E9%83%A8%E7%BA%A2%E6%96%91%E4%BE%8F%E5%84%92%E7%BB%BC%E5%90%88%E5%BE%81/12428563", "lemmaPic": []}, {"lemmaId": 12676762, "lemmaTitle": "老年人稳定型心绞痛", "lemmaCroppedTitle": "老年人稳定型心绞痛", "lemmaDesc": "稳定型心绞痛是临床常见的一种心绞痛，主要是在体力活动时病变冠脉血流量不能代偿性增...", "lemmaUrl": "http://baike.baidu.com/item/%E8%80%81%E5%B9%B4%E4%BA%BA%E7%A8%B3%E5%AE%9A%E5%9E%8B%E5%BF%83%E7%BB%9E%E7%97%9B/12676762", "lemmaPic": []}, {"lemmaId": 12700745, "lemmaTitle": "塞扎里综合征", "lemmaCroppedTitle": "塞扎里综合征", "lemmaDesc": "近年来证实该病是由于T淋巴细胞肿瘤性增生的结果，故称之为T细胞淋巴瘤性红皮病，或...", "lemmaUrl": "http://baike.baidu.com/item/%E5%A1%9E%E6%89%8E%E9%87%8C%E7%BB%BC%E5%90%88%E5%BE%81/12700745", "lemmaPic": []}, {"lemmaId": 6425369, "lemmaTitle": "胰多肽瘤", "lemmaCroppedTitle": "胰多肽瘤", "lemmaDesc": "胰多肽瘤是消化道内分泌肿瘤之一，主要发生在胰腺内分泌细胞中含有胰多肽（PP）的细...", "lemmaUrl": "http://baike.baidu.com/item/%E8%83%B0%E5%A4%9A%E8%82%BD%E7%98%A4/6425369", "lemmaPic": []}, {"lemmaId": 12676516, "lemmaTitle": "小儿大动脉炎", "lemmaCroppedTitle": "小儿大动脉炎", "lemmaDesc": "大动脉炎是指主动脉及其主要分支及肺动脉的慢性进行性非特异性炎变，以引起不同部位的...", "lemmaUrl": "http://baike.baidu.com/item/%E5%B0%8F%E5%84%BF%E5%A4%A7%E5%8A%A8%E8%84%89%E7%82%8E/12676516", "lemmaPic": []}, {"lemmaId": 12676644, "lemmaTitle": "小儿预激综合征", "lemmaCroppedTitle": "小儿预激综合征", "lemmaDesc": "预激综合征又称吾-巴-怀综合征。系心房与心室间存在附加传导束，又称房室旁道，使部...", "lemmaUrl": "http://baike.baidu.com/item/%E5%B0%8F%E5%84%BF%E9%A2%84%E6%BF%80%E7%BB%BC%E5%90%88%E5%BE%81/12676644", "lemmaPic": []}, {"lemmaId": 17659767, "lemmaTitle": "小儿口吃", "lemmaCroppedTitle": "小儿口吃", "lemmaDesc": "口吃俗称结巴，是正常言语说话障碍，并非生理缺陷或发音器官的疾病。患有口吃的儿童，...", "lemmaUrl": "http://baike.baidu.com/item/%E5%B0%8F%E5%84%BF%E5%8F%A3%E5%90%83/17659767", "lemmaPic": []}, {"lemmaId": 5368497, "lemmaTitle": "小儿慢性充血性脾肿大", "lemmaCroppedTitle": "小儿慢性充血性脾肿大", "lemmaDesc": "小儿慢性充血性脾肿大，又称门静脉高压症或班替综合征，是一种原因不明、充血性慢性进...", "lemmaUrl": "http://baike.baidu.com/item/%E5%B0%8F%E5%84%BF%E6%85%A2%E6%80%A7%E5%85%85%E8%A1%80%E6%80%A7%E8%84%BE%E8%82%BF%E5%A4%A7/5368497", "lemmaPic": []}, {"lemmaId": 12639855, "lemmaTitle": "小儿特发性肺纤维化", "lemmaCroppedTitle": "小儿特发性肺纤维化", "lemmaDesc": "规范名称为特发性间质性肺炎。这是一组原因不明的间质性疾病，主要表现为弥漫性的肺泡...", "lemmaUrl": "http://baike.baidu.com/item/%E5%B0%8F%E5%84%BF%E7%89%B9%E5%8F%91%E6%80%A7%E8%82%BA%E7%BA%A4%E7%BB%B4%E5%8C%96/12639855", "lemmaPic": []}, {"lemmaId": 18277619, "lemmaTitle": "肢体断离伤", "lemmaCroppedTitle": "肢体断离伤", "lemmaDesc": "离断肢体的现场处理是否得当，对以后的治疗至关重要。因为断肢（指）再植工作在我国以...", "lemmaUrl": "http://baike.baidu.com/item/%E8%82%A2%E4%BD%93%E6%96%AD%E7%A6%BB%E4%BC%A4/18277619", "lemmaPic": []}, {"lemmaId": 10295876, "lemmaTitle": "急性光气中毒", "lemmaCroppedTitle": "急性光气中毒", "lemmaDesc": "急性光气中毒是短期内吸入较大量的光气引起的以急性呼吸系统损害为主的全身性疾病，极...", "lemmaUrl": "http://baike.baidu.com/item/%E6%80%A5%E6%80%A7%E5%85%89%E6%B0%94%E4%B8%AD%E6%AF%92/10295876", "lemmaPic": []}, {"lemmaId": 12676637, "lemmaTitle": "小儿心房扑动", "lemmaCroppedTitle": "小儿心房扑动", "lemmaDesc": "小儿心房扑动（AF）简称房扑，从胎儿期到各年龄组均可发病，虽不多见，但病情较重，...", "lemmaUrl": "http://baike.baidu.com/item/%E5%B0%8F%E5%84%BF%E5%BF%83%E6%88%BF%E6%89%91%E5%8A%A8/12676637", "lemmaPic": []}, {"lemmaId": 12428482, "lemmaTitle": "老年人自发性气胸", "lemmaCroppedTitle": "老年人自发性气胸", "lemmaDesc": "胸膜因病变发生破裂，胸膜腔与大气沟通，气流进入胸膜腔形成胸膜腔积气，称之为气胸。...", "lemmaUrl": "http://baike.baidu.com/item/%E8%80%81%E5%B9%B4%E4%BA%BA%E8%87%AA%E5%8F%91%E6%80%A7%E6%B0%94%E8%83%B8/12428482", "lemmaPic": []}, {"lemmaId": 12021741, "lemmaTitle": "视网膜下膜", "lemmaCroppedTitle": "视网膜下膜", "lemmaDesc": "视网膜下膜（SRM），是视网膜外表面的细胞增生性膜，为视网膜周围膜的一种成分。S...", "lemmaUrl": "http://baike.baidu.com/item/%E8%A7%86%E7%BD%91%E8%86%9C%E4%B8%8B%E8%86%9C/12021741", "lemmaPic": []}, {"lemmaId": 12649298, "lemmaTitle": "更年期失眠症", "lemmaCroppedTitle": "更年期失眠症", "lemmaDesc": "更年期失眠症是中老年妇女的常见病之一。更年期失眠是更年期卵巢雌激素分泌逐渐减少及...", "lemmaUrl": "http://baike.baidu.com/item/%E6%9B%B4%E5%B9%B4%E6%9C%9F%E5%A4%B1%E7%9C%A0%E7%97%87/12649298", "lemmaPic": []}, {"lemmaId": 12676601, "lemmaTitle": "小儿继发性腹膜炎", "lemmaCroppedTitle": "小儿继发性腹膜炎", "lemmaDesc": "小儿继发性腹膜炎是指腹腔内器官炎症穿孔、损伤破裂，血运障碍、坏死或手术污染所引起...", "lemmaUrl": "http://baike.baidu.com/item/%E5%B0%8F%E5%84%BF%E7%BB%A7%E5%8F%91%E6%80%A7%E8%85%B9%E8%86%9C%E7%82%8E/12676601", "lemmaPic": []}, {"lemmaId": 12676524, "lemmaTitle": "小儿肠系膜淋巴结结核", "lemmaCroppedTitle": "小儿肠系膜淋巴结结核", "lemmaDesc": "肠系膜淋巴结结核在小儿较多见。可能为肠道原发复合征的部分表现，肠原发灶可很快被吸...", "lemmaUrl": "http://baike.baidu.com/item/%E5%B0%8F%E5%84%BF%E8%82%A0%E7%B3%BB%E8%86%9C%E6%B7%8B%E5%B7%B4%E7%BB%93%E7%BB%93%E6%A0%B8/12676524", "lemmaPic": []}, {"lemmaId": 12677161, "lemmaTitle": "生殖道肿瘤", "lemmaCroppedTitle": "生殖道肿瘤", "lemmaDesc": "妇女最常见的起源于生殖道的皮肤转移癌为卵巢，其次为子宫内膜和子宫颈。骨盆区和脐部...", "lemmaUrl": "http://baike.baidu.com/item/%E7%94%9F%E6%AE%96%E9%81%93%E8%82%BF%E7%98%A4/12677161", "lemmaPic": []}, {"lemmaId": 3439201, "lemmaTitle": "肱骨投掷骨折", "lemmaCroppedTitle": "肱骨投掷骨折", "lemmaDesc": "投掷是一项暴发性的高速度田径运动。其运动主要发生在肩、肘关节，但需上肢、下肢及躯...", "lemmaUrl": "http://baike.baidu.com/item/%E8%82%B1%E9%AA%A8%E6%8A%95%E6%8E%B7%E9%AA%A8%E6%8A%98/3439201", "lemmaPic": []}, {"lemmaId": 12676594, "lemmaTitle": "小儿糖吸收不良", "lemmaCroppedTitle": "小儿糖吸收不良", "lemmaDesc": "糖吸收不良主要是小肠黏膜缺乏特异性双糖酶，使食物中双糖不能充分被水解为单糖影响其...", "lemmaUrl": "http://baike.baidu.com/item/%E5%B0%8F%E5%84%BF%E7%B3%96%E5%90%B8%E6%94%B6%E4%B8%8D%E8%89%AF/12676594", "lemmaPic": []}, {"lemmaId": 12630019, "lemmaTitle": "小儿脑水肿与颅内高压综合征", "lemmaCroppedTitle": "小儿脑水肿与颅内高压综合征", "lemmaDesc": "颅内高压综合征是由多种原因造成颅内容物的总容积增加，或由先天性畸形造成颅腔容积狭...", "lemmaUrl": "http://baike.baidu.com/item/%E5%B0%8F%E5%84%BF%E8%84%91%E6%B0%B4%E8%82%BF%E4%B8%8E%E9%A2%85%E5%86%85%E9%AB%98%E5%8E%8B%E7%BB%BC%E5%90%88%E5%BE%81/12630019", "lemmaPic": []}, {"lemmaId": 12676591, "lemmaTitle": "小儿肠吸收不良综合征", "lemmaCroppedTitle": "小儿肠吸收不良综合征", "lemmaDesc": "小儿肠吸收不良综合征指小肠消化及（或）吸收功能减退，使肠腔内一种或多种营养成分不...", "lemmaUrl": "http://baike.baidu.com/item/%E5%B0%8F%E5%84%BF%E8%82%A0%E5%90%B8%E6%94%B6%E4%B8%8D%E8%89%AF%E7%BB%BC%E5%90%88%E5%BE%81/12676591", "lemmaPic": []}, {"lemmaId": 7254491, "lemmaTitle": "先天性肘关节融合", "lemmaCroppedTitle": "先天性肘关节融合", "lemmaDesc": "先天性肘关节融合很罕见，可单独出现，也可与其他畸形同时存在，如尺骨缺如、腕骨、掌...", "lemmaUrl": "http://baike.baidu.com/item/%E5%85%88%E5%A4%A9%E6%80%A7%E8%82%98%E5%85%B3%E8%8A%82%E8%9E%8D%E5%90%88/7254491", "lemmaPic": []}, {"lemmaId": 750238, "lemmaTitle": "进行性骨干发育不全", "lemmaCroppedTitle": "进行性骨干发育不全", "lemmaDesc": "进行性骨干发育不良（PDD）又称增殖性骨膜炎、对称性硬化性厚骨症、Engelma...", "lemmaUrl": "http://baike.baidu.com/item/%E8%BF%9B%E8%A1%8C%E6%80%A7%E9%AA%A8%E5%B9%B2%E5%8F%91%E8%82%B2%E4%B8%8D%E5%85%A8/750238", "lemmaPic": []}, {"lemmaId": 5743329, "lemmaTitle": "咽喉部外伤", "lemmaCroppedTitle": "咽喉部外伤", "lemmaDesc": "咽喉部外伤常为颈部外伤所累及，常合并颈段气管、食管伤。咽喉与甲状腺，颈部大血管、...", "lemmaUrl": "http://baike.baidu.com/item/%E5%92%BD%E5%96%89%E9%83%A8%E5%A4%96%E4%BC%A4/5743329", "lemmaPic": []}, {"lemmaId": 10520891, "lemmaTitle": "星形病毒胃肠炎", "lemmaCroppedTitle": "星形病毒胃肠炎", "lemmaDesc": "星形病毒胃肠炎由星形病毒感染引起。7岁以下儿童多见，常爆发流行。起病急，临床主要...", "lemmaUrl": "http://baike.baidu.com/item/%E6%98%9F%E5%BD%A2%E7%97%85%E6%AF%92%E8%83%83%E8%82%A0%E7%82%8E/10520891", "lemmaPic": []}, {"lemmaId": 12676487, "lemmaTitle": "喉部钝挫伤", "lemmaCroppedTitle": "喉部钝挫伤", "lemmaDesc": "喉部钝挫伤又名喉部闭合性损伤。当合并有多发性创伤时，如头部、胸部、腹部等，由于病...", "lemmaUrl": "http://baike.baidu.com/item/%E5%96%89%E9%83%A8%E9%92%9D%E6%8C%AB%E4%BC%A4/12676487", "lemmaPic": []}, {"lemmaId": 12000413, "lemmaTitle": "萎缩性毛发角化病", "lemmaCroppedTitle": "萎缩性毛发角化病", "lemmaDesc": "萎缩性毛发角化病是一组遗传性缺陷病，主要特点是毛发角化后形成局部萎缩性改变。本病...", "lemmaUrl": "http://baike.baidu.com/item/%E8%90%8E%E7%BC%A9%E6%80%A7%E6%AF%9B%E5%8F%91%E8%A7%92%E5%8C%96%E7%97%85/12000413", "lemmaPic": []}, {"lemmaId": 12630020, "lemmaTitle": "小儿脑白质海绵状变性综合征", "lemmaCroppedTitle": "小儿脑白质海绵状变性综合征", "lemmaDesc": "小儿脑白质海绵状变性综合征是一种常染色体隐性遗传性疾病，主要以进行性头围增大和神...", "lemmaUrl": "http://baike.baidu.com/item/%E5%B0%8F%E5%84%BF%E8%84%91%E7%99%BD%E8%B4%A8%E6%B5%B7%E7%BB%B5%E7%8A%B6%E5%8F%98%E6%80%A7%E7%BB%BC%E5%90%88%E5%BE%81/12630020", "lemmaPic": []}, {"lemmaId": 12428478, "lemmaTitle": "急性失血所致贫血", "lemmaCroppedTitle": "急性失血所致贫血", "lemmaDesc": "急性失血所致贫血是指人体快速大量出血引起的贫血。可以表现为外出血以及内出血两种，...", "lemmaUrl": "http://baike.baidu.com/item/%E6%80%A5%E6%80%A7%E5%A4%B1%E8%A1%80%E6%89%80%E8%87%B4%E8%B4%AB%E8%A1%80/12428478", "lemmaPic": []}, {"lemmaId": 6440830, "lemmaTitle": "小儿维斯科特-奥尔德里奇综合征", "lemmaCroppedTitle": "小儿维斯科特-奥尔德里奇综合征", "lemmaDesc": "维斯科特-奥尔德里奇综合征（WAS）即湿疹、血小板减少伴免疫缺陷综合征，是一种少...", "lemmaUrl": "http://baike.baidu.com/item/%E5%B0%8F%E5%84%BF%E7%BB%B4%E6%96%AF%E7%A7%91%E7%89%B9-%E5%A5%A5%E5%B0%94%E5%BE%B7%E9%87%8C%E5%A5%87%E7%BB%BC%E5%90%88%E5%BE%81/6440830", "lemmaPic": []}, {"lemmaId": 7260024, "lemmaTitle": "小儿心面综合征", "lemmaCroppedTitle": "小儿心面综合征", "lemmaDesc": "小儿心面综合征又称非对称性哭泣面容、先天性嘴角降肌发育不良综合征。1969年，C...", "lemmaUrl": "http://baike.baidu.com/item/%E5%B0%8F%E5%84%BF%E5%BF%83%E9%9D%A2%E7%BB%BC%E5%90%88%E5%BE%81/7260024", "lemmaPic": []}, {"lemmaId": 7252878, "lemmaTitle": "外阴急性蜂窝织炎", "lemmaCroppedTitle": "外阴急性蜂窝织炎", "lemmaDesc": "外阴急性蜂窝织炎由皮肤或软组织损伤引起的皮肤和皮下组织的弥漫性化脓性炎，细菌从皮...", "lemmaUrl": "http://baike.baidu.com/item/%E5%A4%96%E9%98%B4%E6%80%A5%E6%80%A7%E8%9C%82%E7%AA%9D%E7%BB%87%E7%82%8E/7252878", "lemmaPic": []}, {"lemmaId": 12677092, "lemmaTitle": "小儿副流感病毒肺炎", "lemmaCroppedTitle": "小儿副流感病毒肺炎", "lemmaDesc": "小儿副流感病毒肺炎是由副流感病毒引起的严重肺部感染，副流感病毒肺炎是一种严重的间...", "lemmaUrl": "http://baike.baidu.com/item/%E5%B0%8F%E5%84%BF%E5%89%AF%E6%B5%81%E6%84%9F%E7%97%85%E6%AF%92%E8%82%BA%E7%82%8E/12677092", "lemmaPic": []}, {"lemmaId": 8243738, "lemmaTitle": "小儿潮红综合征", "lemmaCroppedTitle": "小儿潮红综合征", "lemmaDesc": "鲭鱼类中毒所致潮红综合征（flushing syndrome），是指食用鲭鱼后，...", "lemmaUrl": "http://baike.baidu.com/item/%E5%B0%8F%E5%84%BF%E6%BD%AE%E7%BA%A2%E7%BB%BC%E5%90%88%E5%BE%81/8243738", "lemmaPic": []}, {"lemmaId": 18277612, "lemmaTitle": "口腔颌面部外伤", "lemmaCroppedTitle": "口腔颌面部外伤", "lemmaDesc": "口腔颌面部的范围包括口腔、眼眶的下外侧方、耳前下方、颊部、唇部、下巴及颈部的上面...", "lemmaUrl": "http://baike.baidu.com/item/%E5%8F%A3%E8%85%94%E9%A2%8C%E9%9D%A2%E9%83%A8%E5%A4%96%E4%BC%A4/18277612", "lemmaPic": []}, {"lemmaId": 4630802, "lemmaTitle": "皮肤滤泡中心淋巴瘤", "lemmaCroppedTitle": "皮肤滤泡中心淋巴瘤", "lemmaDesc": "皮肤滤泡中心淋巴瘤是原发于皮肤的B细胞淋巴瘤，由于皮肤生发中心细胞肿瘤性增生所致...", "lemmaUrl": "http://baike.baidu.com/item/%E7%9A%AE%E8%82%A4%E6%BB%A4%E6%B3%A1%E4%B8%AD%E5%BF%83%E6%B7%8B%E5%B7%B4%E7%98%A4/4630802", "lemmaPic": []}, {"lemmaId": 10166218, "lemmaTitle": "小儿不对称身材-矮小-性发育异常综合征", "lemmaCroppedTitle": "小儿不对称身材-矮小-性发育异常综合征", "lemmaDesc": "小儿不对称身材-矮小-性发育异常综合征又称Silver综合征、Russell-S...", "lemmaUrl": "http://baike.baidu.com/item/%E5%B0%8F%E5%84%BF%E4%B8%8D%E5%AF%B9%E7%A7%B0%E8%BA%AB%E6%9D%90-%E7%9F%AE%E5%B0%8F-%E6%80%A7%E5%8F%91%E8%82%B2%E5%BC%82%E5%B8%B8%E7%BB%BC%E5%90%88%E5%BE%81/10166218", "lemmaPic": []}, {"lemmaId": 12676649, "lemmaTitle": "小儿巨幼细胞性贫血", "lemmaCroppedTitle": "小儿巨幼细胞性贫血", "lemmaDesc": "巨幼细胞性贫血是一种因叶酸或（和）维生素B12缺乏引起的营养性贫血，属于血液系统...", "lemmaUrl": "http://baike.baidu.com/item/%E5%B0%8F%E5%84%BF%E5%B7%A8%E5%B9%BC%E7%BB%86%E8%83%9E%E6%80%A7%E8%B4%AB%E8%A1%80/12676649", "lemmaPic": []}, {"lemmaId": 12676694, "lemmaTitle": "小儿急性播散性脑脊髓炎", "lemmaCroppedTitle": "小儿急性播散性脑脊髓炎", "lemmaDesc": "急性播散性脑脊髓炎（ADEM）又称感染后脑脊髓炎、预防接种后脑脊髓炎，系指继发于...", "lemmaUrl": "http://baike.baidu.com/item/%E5%B0%8F%E5%84%BF%E6%80%A5%E6%80%A7%E6%92%AD%E6%95%A3%E6%80%A7%E8%84%91%E8%84%8A%E9%AB%93%E7%82%8E/12676694", "lemmaPic": []}, {"lemmaId": 12677118, "lemmaTitle": "小儿水杨酸盐类中毒", "lemmaCroppedTitle": "小儿水杨酸盐类中毒", "lemmaDesc": "临床常用的水杨酸盐类药物有阿司匹林（醋柳酸、乙酰水杨酸）、复方阿司匹林、水杨酸钠...", "lemmaUrl": "http://baike.baidu.com/item/%E5%B0%8F%E5%84%BF%E6%B0%B4%E6%9D%A8%E9%85%B8%E7%9B%90%E7%B1%BB%E4%B8%AD%E6%AF%92/12677118", "lemmaPic": []}, {"lemmaId": 9295081, "lemmaTitle": "先天性颅锁骨发育不全", "lemmaCroppedTitle": "先天性颅锁骨发育不全", "lemmaDesc": "先天性颅锁骨发育不全是一种先天性全身性膜性骨骨化不全以颅顶骨与锁骨发育障碍为主要...", "lemmaUrl": "http://baike.baidu.com/item/%E5%85%88%E5%A4%A9%E6%80%A7%E9%A2%85%E9%94%81%E9%AA%A8%E5%8F%91%E8%82%B2%E4%B8%8D%E5%85%A8/9295081", "lemmaPic": []}, {"lemmaId": 13883790, "lemmaTitle": "烧伤复合伤", "lemmaCroppedTitle": "烧伤复合伤", "lemmaDesc": "人员同时或相继受到两种以上（含两种）不同性质致伤因素的作用而发生两种以上的损伤，...", "lemmaUrl": "http://baike.baidu.com/item/%E7%83%A7%E4%BC%A4%E5%A4%8D%E5%90%88%E4%BC%A4/13883790", "lemmaPic": []}, {"lemmaId": 12093314, "lemmaTitle": "肺钩虫病", "lemmaCroppedTitle": "肺钩虫病", "lemmaDesc": "肺钩虫病是一种寄生虫感染的疾病。由钩虫丝状蚴经皮肤或黏膜侵入人体。农田作业是感染...", "lemmaUrl": "http://baike.baidu.com/item/%E8%82%BA%E9%92%A9%E8%99%AB%E7%97%85/12093314", "lemmaPic": []}, {"lemmaId": 7253752, "lemmaTitle": "小儿抗利尿激素分泌异常综合征", "lemmaCroppedTitle": "小儿抗利尿激素分泌异常综合征", "lemmaDesc": "抗利尿激素分泌异常综合征（SIADH）是指当血浆渗透浓度、血钠正常或低下时，抗利...", "lemmaUrl": "http://baike.baidu.com/item/%E5%B0%8F%E5%84%BF%E6%8A%97%E5%88%A9%E5%B0%BF%E6%BF%80%E7%B4%A0%E5%88%86%E6%B3%8C%E5%BC%82%E5%B8%B8%E7%BB%BC%E5%90%88%E5%BE%81/7253752", "lemmaPic": []}, {"lemmaId": 5654615, "lemmaTitle": "间质性膀胱炎、局限性外阴炎和脱屑性阴道炎综合征", "lemmaCroppedTitle": "间质性膀胱炎、局限性外阴炎和脱屑性阴道炎综合征", "lemmaDesc": "间质性膀胱炎、局限性外阴炎和脱屑性阴道炎是一种少见的综合征，患者有泌尿系统症状如...", "lemmaUrl": "http://baike.baidu.com/item/%E9%97%B4%E8%B4%A8%E6%80%A7%E8%86%80%E8%83%B1%E7%82%8E%E3%80%81%E5%B1%80%E9%99%90%E6%80%A7%E5%A4%96%E9%98%B4%E7%82%8E%E5%92%8C%E8%84%B1%E5%B1%91%E6%80%A7%E9%98%B4%E9%81%93%E7%82%8E%E7%BB%BC%E5%90%88%E5%BE%81/5654615", "lemmaPic": []}, {"lemmaId": 12630000, "lemmaTitle": "汞接触性皮炎", "lemmaCroppedTitle": "汞接触性皮炎", "lemmaDesc": "接触性皮炎是皮肤或黏膜单次或多次接触外源性物质后，在接触部位甚至以外的部位发生的...", "lemmaUrl": "http://baike.baidu.com/item/%E6%B1%9E%E6%8E%A5%E8%A7%A6%E6%80%A7%E7%9A%AE%E7%82%8E/12630000", "lemmaPic": []}, {"lemmaId": 7253254, "lemmaTitle": "梅毒性骨软骨炎", "lemmaCroppedTitle": "梅毒性骨软骨炎", "lemmaDesc": "梅毒的病原菌为梅毒螺旋体，其中60%的患者可有骨与关节损害。梅毒螺旋体主要经性接...", "lemmaUrl": "http://baike.baidu.com/item/%E6%A2%85%E6%AF%92%E6%80%A7%E9%AA%A8%E8%BD%AF%E9%AA%A8%E7%82%8E/7253254", "lemmaPic": []}, {"lemmaId": 7254003, "lemmaTitle": "非闭塞性肠系膜血管缺血", "lemmaCroppedTitle": "非闭塞性肠系膜血管缺血", "lemmaDesc": "非闭塞性肠系膜血管缺血是一种由肠系膜上动脉痉挛所引起的急性肠缺血，病死率高。本病...", "lemmaUrl": "http://baike.baidu.com/item/%E9%9D%9E%E9%97%AD%E5%A1%9E%E6%80%A7%E8%82%A0%E7%B3%BB%E8%86%9C%E8%A1%80%E7%AE%A1%E7%BC%BA%E8%A1%80/7254003", "lemmaPic": []}, {"lemmaId": 12676704, "lemmaTitle": "小儿球形细胞脑白质营养不良", "lemmaCroppedTitle": "小儿球形细胞脑白质营养不良", "lemmaDesc": "小儿球形细胞脑白质营养不良即球形细胞型白质营养不良（GLD），又名Krabbe白...", "lemmaUrl": "http://baike.baidu.com/item/%E5%B0%8F%E5%84%BF%E7%90%83%E5%BD%A2%E7%BB%86%E8%83%9E%E8%84%91%E7%99%BD%E8%B4%A8%E8%90%A5%E5%85%BB%E4%B8%8D%E8%89%AF/12676704", "lemmaPic": []}, {"lemmaId": 12676736, "lemmaTitle": "螺菌病", "lemmaCroppedTitle": "螺菌病", "lemmaDesc": "螺菌病又名鸡螺旋体病，小螺菌鼠咬热。鼠咬热原系鼠类传染病，为鼠类或其他啮齿动物咬...", "lemmaUrl": "http://baike.baidu.com/item/%E8%9E%BA%E8%8F%8C%E7%97%85/12676736", "lemmaPic": []}, {"lemmaId": 12676638, "lemmaTitle": "小儿心房颤动", "lemmaCroppedTitle": "小儿心房颤动", "lemmaDesc": "心房颤动（AF）简称房颤，是室上性心律失常最严重的类型。系心房各部分心肌纤维毫不...", "lemmaUrl": "http://baike.baidu.com/item/%E5%B0%8F%E5%84%BF%E5%BF%83%E6%88%BF%E9%A2%A4%E5%8A%A8/12676638", "lemmaPic": []}, {"lemmaId": 5303339, "lemmaTitle": "肛门疼痛", "lemmaCroppedTitle": "肛门疼痛", "lemmaDesc": "肛门疼痛是指肛门及直肠周围以疼痛为主的的一种症状。肛门处神经丰富，感觉敏锐，受到...", "lemmaUrl": "http://baike.baidu.com/item/%E8%82%9B%E9%97%A8%E7%96%BC%E7%97%9B/5303339", "lemmaPic": []}, {"lemmaId": 6425270, "lemmaTitle": "腹腔内脏动脉慢性闭塞", "lemmaCroppedTitle": "腹腔内脏动脉慢性闭塞", "lemmaDesc": "胃肠道的营养动脉主要是腹腔动脉、肠系膜上动脉和肠系膜下动脉3支。当其发生慢性闭塞...", "lemmaUrl": "http://baike.baidu.com/item/%E8%85%B9%E8%85%94%E5%86%85%E8%84%8F%E5%8A%A8%E8%84%89%E6%85%A2%E6%80%A7%E9%97%AD%E5%A1%9E/6425270", "lemmaPic": []}, {"lemmaId": 12428473, "lemmaTitle": "反射性神经障碍症", "lemmaCroppedTitle": "反射性神经障碍症", "lemmaDesc": "反射性神经障碍症又名躯体性神经病，系由于富于交感神经的周围神经受轻微的损伤后反射...", "lemmaUrl": "http://baike.baidu.com/item/%E5%8F%8D%E5%B0%84%E6%80%A7%E7%A5%9E%E7%BB%8F%E9%9A%9C%E7%A2%8D%E7%97%87/12428473", "lemmaPic": []}, {"lemmaId": 12428717, "lemmaTitle": "小儿脊柱裂", "lemmaCroppedTitle": "小儿脊柱裂", "lemmaDesc": "脊柱裂是妊娠早期，胚胎发育时，神经管闭合过程受到影响而至脊椎管的一部分没有完全闭...", "lemmaUrl": "http://baike.baidu.com/item/%E5%B0%8F%E5%84%BF%E8%84%8A%E6%9F%B1%E8%A3%82/12428717", "lemmaPic": []}, {"lemmaId": 12810986, "lemmaTitle": "草地趾", "lemmaCroppedTitle": "草地趾", "lemmaDesc": "Bowers和Martin研究发现穿着柔软足球鞋的足球运动员在人工草皮上比赛时，...", "lemmaUrl": "http://baike.baidu.com/item/%E8%8D%89%E5%9C%B0%E8%B6%BE/12810986", "lemmaPic": []}, {"lemmaId": 12428743, "lemmaTitle": "小儿软骨外胚层发育不全综合征", "lemmaCroppedTitle": "小儿软骨外胚层发育不全综合征", "lemmaDesc": "软骨外胚层发育不全综合征又称Ellis-van Creveld综合征、先天性软骨...", "lemmaUrl": "http://baike.baidu.com/item/%E5%B0%8F%E5%84%BF%E8%BD%AF%E9%AA%A8%E5%A4%96%E8%83%9A%E5%B1%82%E5%8F%91%E8%82%B2%E4%B8%8D%E5%85%A8%E7%BB%BC%E5%90%88%E5%BE%81/12428743", "lemmaPic": []}, {"lemmaId": 18277594, "lemmaTitle": "听神经瘤致耳鸣", "lemmaCroppedTitle": "听神经瘤致耳鸣", "lemmaDesc": "听力与语言是人类相互交流和认识世界的重要手段，然而，耳病和听力障碍的阴霾却袭扰着...", "lemmaUrl": "http://baike.baidu.com/item/%E5%90%AC%E7%A5%9E%E7%BB%8F%E7%98%A4%E8%87%B4%E8%80%B3%E9%B8%A3/18277594", "lemmaPic": []}, {"lemmaId": 4623450, "lemmaTitle": "微囊肿附属器癌", "lemmaCroppedTitle": "微囊肿附属器癌", "lemmaDesc": "微囊肿附属器癌又称硬化性汗腺导管癌、恶性汗管癌，是一种具有局部侵袭生长的恶性附属...", "lemmaUrl": "http://baike.baidu.com/item/%E5%BE%AE%E5%9B%8A%E8%82%BF%E9%99%84%E5%B1%9E%E5%99%A8%E7%99%8C/4623450", "lemmaPic": []}, {"lemmaId": 12677410, "lemmaTitle": "跟骨骨刺综合征", "lemmaCroppedTitle": "跟骨骨刺综合征", "lemmaDesc": "跟骨骨刺综合症是由于牵拉骨膜上的足底筋膜引起的跟骨下区域的足跟痛，在X线上有或无...", "lemmaUrl": "http://baike.baidu.com/item/%E8%B7%9F%E9%AA%A8%E9%AA%A8%E5%88%BA%E7%BB%BC%E5%90%88%E5%BE%81/12677410", "lemmaPic": []}, {"lemmaId": 7254247, "lemmaTitle": "短骨骨干结核", "lemmaCroppedTitle": "短骨骨干结核", "lemmaDesc": "手足短骨骨干结核较为常见。患者多为10岁以下儿童，成年人和老年人少见，病变也常多...", "lemmaUrl": "http://baike.baidu.com/item/%E7%9F%AD%E9%AA%A8%E9%AA%A8%E5%B9%B2%E7%BB%93%E6%A0%B8/7254247", "lemmaPic": []}, {"lemmaId": 12676648, "lemmaTitle": "小儿继发性免疫性血小板减少性紫癜", "lemmaCroppedTitle": "小儿继发性免疫性血小板减少性紫癜", "lemmaDesc": "由于免疫介导的继发性血小板减少性紫癜种类较多，如药物性免疫性血小板减少症，其他免...", "lemmaUrl": "http://baike.baidu.com/item/%E5%B0%8F%E5%84%BF%E7%BB%A7%E5%8F%91%E6%80%A7%E5%85%8D%E7%96%AB%E6%80%A7%E8%A1%80%E5%B0%8F%E6%9D%BF%E5%87%8F%E5%B0%91%E6%80%A7%E7%B4%AB%E7%99%9C/12676648", "lemmaPic": []}, {"lemmaId": 12677107, "lemmaTitle": "小儿急性胆囊炎与胆管炎", "lemmaCroppedTitle": "小儿急性胆囊炎与胆管炎", "lemmaDesc": "小儿急性胆囊炎与胆管炎是因为胆汁滞留与细菌感染引起的胆囊与胆管的炎症性疾病。", "lemmaUrl": "http://baike.baidu.com/item/%E5%B0%8F%E5%84%BF%E6%80%A5%E6%80%A7%E8%83%86%E5%9B%8A%E7%82%8E%E4%B8%8E%E8%83%86%E7%AE%A1%E7%82%8E/12677107", "lemmaPic": []}, {"lemmaId": 12677097, "lemmaTitle": "小儿纵隔囊肿及肿瘤", "lemmaCroppedTitle": "小儿纵隔囊肿及肿瘤", "lemmaDesc": "纵隔也是小儿胸内肿瘤最常见的部位。纵隔上至第一肋骨下达横膈，前有胸骨后有椎体，而...", "lemmaUrl": "http://baike.baidu.com/item/%E5%B0%8F%E5%84%BF%E7%BA%B5%E9%9A%94%E5%9B%8A%E8%82%BF%E5%8F%8A%E8%82%BF%E7%98%A4/12677097", "lemmaPic": []}, {"lemmaId": 12810959, "lemmaTitle": "小儿手-心畸形综合征", "lemmaCroppedTitle": "小儿手-心畸形综合征", "lemmaDesc": "小儿手-心畸形综合征即心血管-肢体综合征，又称霍-奥（Holt-Oram）综合征...", "lemmaUrl": "http://baike.baidu.com/item/%E5%B0%8F%E5%84%BF%E6%89%8B-%E5%BF%83%E7%95%B8%E5%BD%A2%E7%BB%BC%E5%90%88%E5%BE%81/12810959", "lemmaPic": []}, {"lemmaId": 12676641, "lemmaTitle": "小儿尖端扭转型室性心动过速", "lemmaCroppedTitle": "小儿尖端扭转型室性心动过速", "lemmaDesc": "尖端扭转型室性心动过速（TDP）简称尖端扭转型室速，是一种特殊类型的多形态快速性...", "lemmaUrl": "http://baike.baidu.com/item/%E5%B0%8F%E5%84%BF%E5%B0%96%E7%AB%AF%E6%89%AD%E8%BD%AC%E5%9E%8B%E5%AE%A4%E6%80%A7%E5%BF%83%E5%8A%A8%E8%BF%87%E9%80%9F/12676641", "lemmaPic": []}, {"lemmaId": 6425191, "lemmaTitle": "外阴卵黄囊瘤", "lemmaCroppedTitle": "外阴卵黄囊瘤", "lemmaDesc": "卵黄囊瘤也称卵巢内胚窦瘤，是一种多见的恶化程度高的卵巢恶性肿瘤。该肿瘤发生在卵巢...", "lemmaUrl": "http://baike.baidu.com/item/%E5%A4%96%E9%98%B4%E5%8D%B5%E9%BB%84%E5%9B%8A%E7%98%A4/6425191", "lemmaPic": []}, {"lemmaId": 12677527, "lemmaTitle": "老年烧伤", "lemmaCroppedTitle": "老年烧伤", "lemmaDesc": "老年烧伤是指60岁以上人群的被热力（包括热液，蒸气、高温气体、火焰，电能、化学物...", "lemmaUrl": "http://baike.baidu.com/item/%E8%80%81%E5%B9%B4%E7%83%A7%E4%BC%A4/12677527", "lemmaPic": []}, {"lemmaId": 7676724, "lemmaTitle": "厥脱", "lemmaCroppedTitle": "厥脱", "lemmaDesc": "厥脱，中医病证名。指元气耗竭，阴阳离决之危症。是内科常见之急症。可因邪毒内陷，或...", "lemmaUrl": "http://baike.baidu.com/item/%E5%8E%A5%E8%84%B1/7676724", "lemmaPic": []}, {"lemmaId": 12428533, "lemmaTitle": "小儿结节性硬化综合征", "lemmaCroppedTitle": "小儿结节性硬化综合征", "lemmaDesc": "结节性硬化综合征又称结节性脑硬化Bourneville病 本病可归类于神经皮肤综...", "lemmaUrl": "http://baike.baidu.com/item/%E5%B0%8F%E5%84%BF%E7%BB%93%E8%8A%82%E6%80%A7%E7%A1%AC%E5%8C%96%E7%BB%BC%E5%90%88%E5%BE%81/12428533", "lemmaPic": []}, {"lemmaId": 12676526, "lemmaTitle": "小儿狂犬病", "lemmaCroppedTitle": "小儿狂犬病", "lemmaDesc": "小儿狂犬病是由狂犬病毒引起的一种人畜共患的中枢神经系统急性传染病，因狂犬病患者有...", "lemmaUrl": "http://baike.baidu.com/item/%E5%B0%8F%E5%84%BF%E7%8B%82%E7%8A%AC%E7%97%85/12676526", "lemmaPic": []}, {"lemmaId": 12676650, "lemmaTitle": "小儿巨大血小板综合征", "lemmaCroppedTitle": "小儿巨大血小板综合征", "lemmaDesc": "巨大血小板综合征（giant platelet syndrome）又称Berna...", "lemmaUrl": "http://baike.baidu.com/item/%E5%B0%8F%E5%84%BF%E5%B7%A8%E5%A4%A7%E8%A1%80%E5%B0%8F%E6%9D%BF%E7%BB%BC%E5%90%88%E5%BE%81/12676650", "lemmaPic": []}, {"lemmaId": 7254914, "lemmaTitle": "进行性肥厚性间质性神经炎", "lemmaCroppedTitle": "进行性肥厚性间质性神经炎", "lemmaDesc": "进行性肥厚性间质性神经炎是一种少见的遗传性周围神经疾病，遗传性周围神经病是一组由...", "lemmaUrl": "http://baike.baidu.com/item/%E8%BF%9B%E8%A1%8C%E6%80%A7%E8%82%A5%E5%8E%9A%E6%80%A7%E9%97%B4%E8%B4%A8%E6%80%A7%E7%A5%9E%E7%BB%8F%E7%82%8E/7254914", "lemmaPic": []}, {"lemmaId": 12676570, "lemmaTitle": "小儿多器官功能障碍综合征", "lemmaCroppedTitle": "小儿多器官功能障碍综合征", "lemmaDesc": "小儿多器官功能衰竭综合征是指在发病24小时以上，有2个或2个以上器官或系统以连锁...", "lemmaUrl": "http://baike.baidu.com/item/%E5%B0%8F%E5%84%BF%E5%A4%9A%E5%99%A8%E5%AE%98%E5%8A%9F%E8%83%BD%E9%9A%9C%E7%A2%8D%E7%BB%BC%E5%90%88%E5%BE%81/12676570", "lemmaPic": []}, {"lemmaId": 5865413, "lemmaTitle": "乳房肥大症", "lemmaCroppedTitle": "乳房肥大症", "lemmaDesc": "乳房肥大症，即巨乳症。是指由于乳房过度发育所导致的体积过度增大，超过体重的3%，...", "lemmaUrl": "http://baike.baidu.com/item/%E4%B9%B3%E6%88%BF%E8%82%A5%E5%A4%A7%E7%97%87/5865413", "lemmaPic": []}], "total": 7246, "totalPage": 73, "page": 67, "fromLemma": 0}