{"lemmaList": [{"lemmaId": 376086, "lemmaTitle": "乳房肿块", "lemmaCroppedTitle": "乳房肿块", "lemmaDesc": "乳房肿块是乳房疾病的常见体征。女性的乳房本身就是凹凸不平的，许多妇女自己发现的肿...", "lemmaUrl": "http://baike.baidu.com/item/%E4%B9%B3%E6%88%BF%E8%82%BF%E5%9D%97/376086", "lemmaPic": []}, {"lemmaId": 489775, "lemmaTitle": "休克", "lemmaCroppedTitle": "休克", "lemmaDesc": "休克（shock）是机体遭受强烈的致病因素侵袭后，由于有效循环血量锐减，组织血流...", "lemmaUrl": "http://baike.baidu.com/item/%E4%BC%91%E5%85%8B/489775", "lemmaPic": []}, {"lemmaId": 382543, "lemmaTitle": "人工授精", "lemmaCroppedTitle": "人工授精", "lemmaDesc": "人工授精（AI）是指采用非性交的方式将精子递送到女性生殖道中以达到使女子受孕目的...", "lemmaUrl": "http://baike.baidu.com/item/%E4%BA%BA%E5%B7%A5%E6%8E%88%E7%B2%BE/382543", "lemmaPic": []}, {"lemmaId": 1453299, "lemmaTitle": "畸胎瘤", "lemmaCroppedTitle": "畸胎瘤", "lemmaDesc": "畸胎瘤是卵巢生殖细胞肿瘤中常见的一种，来源于生殖细胞，分为成熟畸胎瘤（即良性畸胎...", "lemmaUrl": "http://baike.baidu.com/item/%E7%95%B8%E8%83%8E%E7%98%A4/1453299", "lemmaPic": []}, {"lemmaId": 107833, "lemmaTitle": "妊娠反应", "lemmaCroppedTitle": "妊娠反应", "lemmaDesc": "绝大部分妊娠（50%～90%）都有恶心和呕吐的发生，一般从妊娠6～8周开始，到1...", "lemmaUrl": "http://baike.baidu.com/item/%E5%A6%8A%E5%A8%A0%E5%8F%8D%E5%BA%94/107833", "lemmaPic": []}, {"lemmaId": 507827, "lemmaTitle": "疖", "lemmaCroppedTitle": "疖", "lemmaDesc": "疖是一种化脓性毛囊及毛囊深部周围组织的感染，相邻近的多个毛囊感染、炎症融合形成的...", "lemmaUrl": "http://baike.baidu.com/item/%E7%96%96/507827", "lemmaPic": []}, {"lemmaId": 881242, "lemmaTitle": "睡眠", "lemmaCroppedTitle": "睡眠", "lemmaDesc": "睡眠是生命的需要，所以人不能没有睡眠，而且每天缺少的睡眠还要补上，否则会受到惩罚...", "lemmaUrl": "http://baike.baidu.com/item/%E7%9D%A1%E7%9C%A0/881242", "lemmaPic": []}, {"lemmaId": 2606048, "lemmaTitle": "弱视", "lemmaCroppedTitle": "弱视", "lemmaDesc": "眼球无明显器质性病变，而单眼或双眼矫正视力仍达不到0.8者称为弱视。目前，我国弱...", "lemmaUrl": "http://baike.baidu.com/item/%E5%BC%B1%E8%A7%86/2606048", "lemmaPic": []}, {"lemmaId": 1444811, "lemmaTitle": "妊娠糖尿病", "lemmaCroppedTitle": "妊娠糖尿病", "lemmaDesc": "妊娠前已有糖尿病的患者妊娠，称糖尿病合并妊娠；另一种为妊娠前糖代谢正常或有潜在糖...", "lemmaUrl": "http://baike.baidu.com/item/%E5%A6%8A%E5%A8%A0%E7%B3%96%E5%B0%BF%E7%97%85/1444811", "lemmaPic": []}, {"lemmaId": 4783538, "lemmaTitle": "肾盂肾炎", "lemmaCroppedTitle": "肾盂肾炎", "lemmaDesc": "肾盂肾炎（pyelonephritis）是由致病微生物引起的肾盂和肾实质炎症，常...", "lemmaUrl": "http://baike.baidu.com/item/%E8%82%BE%E7%9B%82%E8%82%BE%E7%82%8E/4783538", "lemmaPic": []}, {"lemmaId": 6493534, "lemmaTitle": "热射病", "lemmaCroppedTitle": "热射病", "lemmaDesc": "热射病（中暑）是指因高温引起的人体体温调节功能失调，体内热量过度积蓄，从而引发神...", "lemmaUrl": "http://baike.baidu.com/item/%E7%83%AD%E5%B0%84%E7%97%85/6493534", "lemmaPic": []}, {"lemmaId": 5985641, "lemmaTitle": "乳房疼痛", "lemmaCroppedTitle": "乳房疼痛", "lemmaDesc": "乳房的感觉受肋间神经及3、4颈神经支配，一旦这些神经受到侵犯就会引起疼痛，所以乳...", "lemmaUrl": "http://baike.baidu.com/item/%E4%B9%B3%E6%88%BF%E7%96%BC%E7%97%9B/5985641", "lemmaPic": []}, {"lemmaId": 5102145, "lemmaTitle": "嗜睡症", "lemmaCroppedTitle": "嗜睡症", "lemmaDesc": "嗜睡症是指白天睡眠过多，这种睡眠过多并非由于睡眠不足，或者酒精、药物、躯体疾病所...", "lemmaUrl": "http://baike.baidu.com/item/%E5%97%9C%E7%9D%A1%E7%97%87/5102145", "lemmaPic": []}, {"lemmaId": 2039, "lemmaTitle": "子宫内膜癌", "lemmaCroppedTitle": "子宫内膜癌", "lemmaDesc": "子宫内膜癌是发生于子宫内膜的一组上皮性恶性肿瘤，好发于围绝经期和绝经后女性。子宫...", "lemmaUrl": "http://baike.baidu.com/item/%E5%AD%90%E5%AE%AB%E5%86%85%E8%86%9C%E7%99%8C/2039", "lemmaPic": []}, {"lemmaId": 10681129, "lemmaTitle": "肋间神经痛", "lemmaCroppedTitle": "肋间神经痛", "lemmaDesc": "肋间神经痛是患者的主观症状。肋间神经由胸脊髓向两侧发出经肋间到胸前壁，支配相应胸...", "lemmaUrl": "http://baike.baidu.com/item/%E8%82%8B%E9%97%B4%E7%A5%9E%E7%BB%8F%E7%97%9B/10681129", "lemmaPic": []}, {"lemmaId": 7341157, "lemmaTitle": "脾肾阳虚", "lemmaCroppedTitle": "脾肾阳虚", "lemmaDesc": "脾肾阳虚，中医证候名。多由于体质虚弱而感受寒邪较重，或久病耗损脾肾之阳气，或久泻...", "lemmaUrl": "http://baike.baidu.com/item/%E8%84%BE%E8%82%BE%E9%98%B3%E8%99%9A/7341157", "lemmaPic": []}, {"lemmaId": 10875642, "lemmaTitle": "小儿腹泻", "lemmaCroppedTitle": "小儿腹泻", "lemmaDesc": "小儿腹泻，是多病原、多因素引起的以腹泻为主的一组疾病。主要特点为大便次数增多和性...", "lemmaUrl": "http://baike.baidu.com/item/%E5%B0%8F%E5%84%BF%E8%85%B9%E6%B3%BB/10875642", "lemmaPic": []}, {"lemmaId": 2250913, "lemmaTitle": "丙型病毒性肝炎", "lemmaCroppedTitle": "丙型病毒性肝炎", "lemmaDesc": "丙型病毒性肝炎，简称为丙型肝炎、丙肝，是一种由丙型肝炎病毒（HCV）感染引起的病...", "lemmaUrl": "http://baike.baidu.com/item/%E4%B8%99%E5%9E%8B%E7%97%85%E6%AF%92%E6%80%A7%E8%82%9D%E7%82%8E/2250913", "lemmaPic": []}, {"lemmaId": 8456761, "lemmaTitle": "肠易激综合征", "lemmaCroppedTitle": "肠易激综合征", "lemmaDesc": "肠易激综合征（irritable bowel syndrome，IBS）是一组持...", "lemmaUrl": "http://baike.baidu.com/item/%E8%82%A0%E6%98%93%E6%BF%80%E7%BB%BC%E5%90%88%E5%BE%81/8456761", "lemmaPic": []}, {"lemmaId": 1087041, "lemmaTitle": "不孕不育", "lemmaCroppedTitle": "不孕不育", "lemmaDesc": "不孕不育分为不孕症和不育症。育龄夫妇同居一年以上，有正常性生活，在没有采用任何避...", "lemmaUrl": "http://baike.baidu.com/item/%E4%B8%8D%E5%AD%95%E4%B8%8D%E8%82%B2/1087041", "lemmaPic": []}, {"lemmaId": 3412014, "lemmaTitle": "大便干燥", "lemmaCroppedTitle": "大便干燥", "lemmaDesc": "大便干燥多见于中老年人，主要表现为大便困难，便秘，甚至大便带血等，这与饮食和不良...", "lemmaUrl": "http://baike.baidu.com/item/%E5%A4%A7%E4%BE%BF%E5%B9%B2%E7%87%A5/3412014", "lemmaPic": []}, {"lemmaId": 9475626, "lemmaTitle": "引产", "lemmaCroppedTitle": "引产", "lemmaDesc": "引产是指妊娠12周后，因母体或胎儿方面的原因，须用人工方法诱发子宫收缩而结束妊娠...", "lemmaUrl": "http://baike.baidu.com/item/%E5%BC%95%E4%BA%A7/9475626", "lemmaPic": []}, {"lemmaId": 3788661, "lemmaTitle": "急性胰腺炎", "lemmaCroppedTitle": "急性胰腺炎", "lemmaDesc": "急性胰腺炎是多种病因导致胰酶在胰腺内被激活后引起胰腺组织自身消化、水肿、出血甚至...", "lemmaUrl": "http://baike.baidu.com/item/%E6%80%A5%E6%80%A7%E8%83%B0%E8%85%BA%E7%82%8E/3788661", "lemmaPic": []}, {"lemmaId": 1470175, "lemmaTitle": "克罗恩病", "lemmaCroppedTitle": "克罗恩病", "lemmaDesc": "克罗恩病是一种原因不明的肠道炎症性疾病，在胃肠道的任何部位均可发生，但好发于末端...", "lemmaUrl": "http://baike.baidu.com/item/%E5%85%8B%E7%BD%97%E6%81%A9%E7%97%85/1470175", "lemmaPic": []}, {"lemmaId": 2218433, "lemmaTitle": "溃疡性结肠炎", "lemmaCroppedTitle": "溃疡性结肠炎", "lemmaDesc": "溃疡性结肠炎是一种病因尚不十分清楚的结肠和直肠慢性非特异性炎症性疾病，病变局限于...", "lemmaUrl": "http://baike.baidu.com/item/%E6%BA%83%E7%96%A1%E6%80%A7%E7%BB%93%E8%82%A0%E7%82%8E/2218433", "lemmaPic": []}, {"lemmaId": 1376171, "lemmaTitle": "风湿性心脏病", "lemmaCroppedTitle": "风湿性心脏病", "lemmaDesc": "风湿性心脏病简称风心病，是指由于风湿热活动，累及心脏瓣膜而造成的心脏瓣膜病变。表...", "lemmaUrl": "http://baike.baidu.com/item/%E9%A3%8E%E6%B9%BF%E6%80%A7%E5%BF%83%E8%84%8F%E7%97%85/1376171", "lemmaPic": []}, {"lemmaId": 2374129, "lemmaTitle": "臭汗症", "lemmaCroppedTitle": "臭汗症", "lemmaDesc": "是指分泌的汗液有特殊的臭味或汗液经分解后产生臭味。臭汗症多见于多汗、汗液不易蒸发...", "lemmaUrl": "http://baike.baidu.com/item/%E8%87%AD%E6%B1%97%E7%97%87/2374129", "lemmaPic": []}, {"lemmaId": 727468, "lemmaTitle": "百日咳", "lemmaCroppedTitle": "百日咳", "lemmaDesc": "百日咳是一种由百日咳杆菌引起的急性呼吸道传染病，自从广泛实施百日咳菌苗免疫接种后...", "lemmaUrl": "http://baike.baidu.com/item/%E7%99%BE%E6%97%A5%E5%92%B3/727468", "lemmaPic": []}, {"lemmaId": 538042, "lemmaTitle": "慢性鼻炎", "lemmaCroppedTitle": "慢性鼻炎", "lemmaDesc": "慢性鼻炎是鼻黏膜及黏膜下层的慢性炎症。其主要特点是炎症持续三个月以上或反复发作，...", "lemmaUrl": "http://baike.baidu.com/item/%E6%85%A2%E6%80%A7%E9%BC%BB%E7%82%8E/538042", "lemmaPic": []}, {"lemmaId": 3192967, "lemmaTitle": "神经性耳鸣", "lemmaCroppedTitle": "神经性耳鸣", "lemmaDesc": "神经性耳鸣又称感音神经性耳鸣，其强调的是患者的主观感受。指人们在没有任何外界刺激...", "lemmaUrl": "http://baike.baidu.com/item/%E7%A5%9E%E7%BB%8F%E6%80%A7%E8%80%B3%E9%B8%A3/3192967", "lemmaPic": {"width": 444, "height": 337, "url": "https://gss3.bdstatic.com/-Po3dSag_xI4khGkpoWK1HF6hhy/baike/w%3D168/sign=c0a9f9694b36acaf59e092fa44d88d03/2cf5e0fe9925bc315726bbc85edf8db1cb137062.jpg"}}, {"lemmaId": 2635742, "lemmaTitle": "鸡胸", "lemmaCroppedTitle": "鸡胸", "lemmaDesc": "鸡胸（pectus carinatum）又称鸽胸。胸骨向前隆起畸形，状如鸡、鸽子...", "lemmaUrl": "http://baike.baidu.com/item/%E9%B8%A1%E8%83%B8/2635742", "lemmaPic": []}, {"lemmaId": 11043122, "lemmaTitle": "胃肠功能紊乱", "lemmaCroppedTitle": "胃肠功能紊乱", "lemmaDesc": "胃肠功能紊乱又称胃肠神经官能症，在排除器质性病变前提下，精神因素为本病发生的主要...", "lemmaUrl": "http://baike.baidu.com/item/%E8%83%83%E8%82%A0%E5%8A%9F%E8%83%BD%E7%B4%8A%E4%B9%B1/11043122", "lemmaPic": []}, {"lemmaId": 9509569, "lemmaTitle": "鼻塞", "lemmaCroppedTitle": "鼻塞", "lemmaDesc": "鼻塞是常见的症状之一，最常见的原因包括鼻炎、鼻窦炎、鼻息肉、鼻中隔偏曲、鼻腔鼻窦...", "lemmaUrl": "http://baike.baidu.com/item/%E9%BC%BB%E5%A1%9E/9509569", "lemmaPic": []}, {"lemmaId": 702113, "lemmaTitle": "心肌梗死", "lemmaCroppedTitle": "心肌梗死", "lemmaDesc": "心肌梗死是急性、持续性缺血缺氧（冠状动脉功能不全）所引起的心肌坏死。临床上多有剧...", "lemmaUrl": "http://baike.baidu.com/item/%E5%BF%83%E8%82%8C%E6%A2%97%E6%AD%BB/702113", "lemmaPic": []}, {"lemmaId": 370963, "lemmaTitle": "伤寒", "lemmaCroppedTitle": "伤寒", "lemmaDesc": "伤寒杆菌造成之伤寒病，在伤寒流行季节和地区患者有持续性高热（40～41℃）为时1...", "lemmaUrl": "http://baike.baidu.com/item/%E4%BC%A4%E5%AF%92/370963", "lemmaPic": []}, {"lemmaId": 754344, "lemmaTitle": "骨折", "lemmaCroppedTitle": "骨折", "lemmaDesc": "骨折是指骨结构的连续性完全或部分断裂。多见于儿童及老年人，中青年人也时有发生。病...", "lemmaUrl": "http://baike.baidu.com/item/%E9%AA%A8%E6%8A%98/754344", "lemmaPic": []}, {"lemmaId": 263368, "lemmaTitle": "慢性肾小球肾炎", "lemmaCroppedTitle": "慢性肾小球肾炎", "lemmaDesc": "慢性肾小球肾炎简称慢性肾炎，系指蛋白尿、血尿、高血压、水肿为基本临床表现，起病方...", "lemmaUrl": "http://baike.baidu.com/item/%E6%85%A2%E6%80%A7%E8%82%BE%E5%B0%8F%E7%90%83%E8%82%BE%E7%82%8E/263368", "lemmaPic": []}, {"lemmaId": 2166811, "lemmaTitle": "产后抑郁症", "lemmaCroppedTitle": "产后抑郁症", "lemmaDesc": "产后抑郁症（postpartum depression）是指女性于产褥期出现明显...", "lemmaUrl": "http://baike.baidu.com/item/%E4%BA%A7%E5%90%8E%E6%8A%91%E9%83%81%E7%97%87/2166811", "lemmaPic": []}, {"lemmaId": 3444918, "lemmaTitle": "苯丙酮尿症", "lemmaCroppedTitle": "苯丙酮尿症", "lemmaDesc": "苯丙酮尿症（PKU）是一种常见的氨基酸代谢病，是由于苯丙氨酸（PA）代谢途径中的...", "lemmaUrl": "http://baike.baidu.com/item/%E8%8B%AF%E4%B8%99%E9%85%AE%E5%B0%BF%E7%97%87/3444918", "lemmaPic": []}, {"lemmaId": 2217025, "lemmaTitle": "妇科疾病", "lemmaCroppedTitle": "妇科疾病", "lemmaDesc": "女性生殖系统的疾病即为妇科疾病，包括外阴疾病、阴道疾病、子宫疾病、输卵管疾病、卵...", "lemmaUrl": "http://baike.baidu.com/item/%E5%A6%87%E7%A7%91%E7%96%BE%E7%97%85/2217025", "lemmaPic": []}, {"lemmaId": 1849902, "lemmaTitle": "胆碱能性荨麻疹", "lemmaCroppedTitle": "胆碱能性荨麻疹", "lemmaDesc": "主要由于运动、受热、精神紧张、进食热饮或酒精饮料后，躯体深部温度上升，促使乙酰胆...", "lemmaUrl": "http://baike.baidu.com/item/%E8%83%86%E7%A2%B1%E8%83%BD%E6%80%A7%E8%8D%A8%E9%BA%BB%E7%96%B9/1849902", "lemmaPic": []}, {"lemmaId": 5294748, "lemmaTitle": "动脉粥样硬化", "lemmaCroppedTitle": "动脉粥样硬化", "lemmaDesc": "动脉粥样硬化（atherosclerosis，AS）是冠心病、脑梗死、外周血管病...", "lemmaUrl": "http://baike.baidu.com/item/%E5%8A%A8%E8%84%89%E7%B2%A5%E6%A0%B7%E7%A1%AC%E5%8C%96/5294748", "lemmaPic": []}, {"lemmaId": 790109, "lemmaTitle": "体温", "lemmaCroppedTitle": "体温", "lemmaDesc": "健康人的体温是相对恒定的，当体温超过正常体温的最高限度时称为发热，就是平常人们所...", "lemmaUrl": "http://baike.baidu.com/item/%E4%BD%93%E6%B8%A9/790109", "lemmaPic": []}, {"lemmaId": 6000925, "lemmaTitle": "阳痿病", "lemmaCroppedTitle": "阳痿病", "lemmaDesc": "阳痿又称勃起功能障碍，是指在有性欲要求时，阴茎不能勃起或勃起不坚，或者虽然有勃起...", "lemmaUrl": "http://baike.baidu.com/item/%E9%98%B3%E7%97%BF%E7%97%85/6000925", "lemmaPic": []}, {"lemmaId": 5055569, "lemmaTitle": "肾病综合征", "lemmaCroppedTitle": "肾病综合征", "lemmaDesc": "肾病综合征（NS）可由多种病因引起，以肾小球基膜通透性增加，表现为大量蛋白尿、低...", "lemmaUrl": "http://baike.baidu.com/item/%E8%82%BE%E7%97%85%E7%BB%BC%E5%90%88%E5%BE%81/5055569", "lemmaPic": []}, {"lemmaId": 765255, "lemmaTitle": "牙髓炎", "lemmaCroppedTitle": "牙髓炎", "lemmaDesc": "牙髓炎是指发生于牙髓组织的炎性病变。牙髓是主要包含神经血管的疏松结缔组织，位于牙...", "lemmaUrl": "http://baike.baidu.com/item/%E7%89%99%E9%AB%93%E7%82%8E/765255", "lemmaPic": []}, {"lemmaId": 1014268, "lemmaTitle": "前置胎盘", "lemmaCroppedTitle": "前置胎盘", "lemmaDesc": "妊娠28周后，胎盘附着于子宫下段，甚至胎盘下缘达到或覆盖宫颈内口，其位置低于胎先...", "lemmaUrl": "http://baike.baidu.com/item/%E5%89%8D%E7%BD%AE%E8%83%8E%E7%9B%98/1014268", "lemmaPic": []}, {"lemmaId": 2086206, "lemmaTitle": "蜘蛛痣", "lemmaCroppedTitle": "蜘蛛痣", "lemmaDesc": "蜘蛛痣（spider angioma）是一种特发性毛细血管扩张症，为皮肤小动脉分...", "lemmaUrl": "http://baike.baidu.com/item/%E8%9C%98%E8%9B%9B%E7%97%A3/2086206", "lemmaPic": []}, {"lemmaId": 245562, "lemmaTitle": "肾病", "lemmaCroppedTitle": "肾病", "lemmaDesc": "肾病，肾脏的各种病证。慢性肾脏病(CKD）定义：各种原因引起的慢性肾脏结构和功能...", "lemmaUrl": "http://baike.baidu.com/item/%E8%82%BE%E7%97%85/245562", "lemmaPic": []}, {"lemmaId": 924357, "lemmaTitle": "急性白血病", "lemmaCroppedTitle": "急性白血病", "lemmaDesc": "急性白血病（acute leukemia，AL）是造血干细胞的恶性克隆性疾病，发...", "lemmaUrl": "http://baike.baidu.com/item/%E6%80%A5%E6%80%A7%E7%99%BD%E8%A1%80%E7%97%85/924357", "lemmaPic": []}, {"lemmaId": 7445911, "lemmaTitle": "拖延症", "lemmaCroppedTitle": "拖延症", "lemmaDesc": "拖延症是指自我调节失败，在能够预料后果有害的情况下，仍然把计划要做的事情往后推迟...", "lemmaUrl": "http://baike.baidu.com/item/%E6%8B%96%E5%BB%B6%E7%97%87/7445911", "lemmaPic": []}, {"lemmaId": 1163153, "lemmaTitle": "脊髓灰质炎", "lemmaCroppedTitle": "脊髓灰质炎", "lemmaDesc": "脊髓灰质炎是由脊髓灰质炎病毒引起的严重危害儿童健康的急性传染病，脊髓灰质炎病毒为...", "lemmaUrl": "http://baike.baidu.com/item/%E8%84%8A%E9%AB%93%E7%81%B0%E8%B4%A8%E7%82%8E/1163153", "lemmaPic": []}, {"lemmaId": 5358309, "lemmaTitle": "鼻中隔偏曲", "lemmaCroppedTitle": "鼻中隔偏曲", "lemmaDesc": "鼻中隔向一侧或两侧弯曲，或鼻中隔一侧或两侧局部突起，引起鼻腔、鼻窦生理功能障碍并...", "lemmaUrl": "http://baike.baidu.com/item/%E9%BC%BB%E4%B8%AD%E9%9A%94%E5%81%8F%E6%9B%B2/5358309", "lemmaPic": []}, {"lemmaId": 1328516, "lemmaTitle": "甲状腺炎", "lemmaCroppedTitle": "甲状腺炎", "lemmaDesc": "甲状腺炎（thyroiditis）是由各种原因导致的一类累及甲状腺的异质性疾病。...", "lemmaUrl": "http://baike.baidu.com/item/%E7%94%B2%E7%8A%B6%E8%85%BA%E7%82%8E/1328516", "lemmaPic": []}, {"lemmaId": 2320893, "lemmaTitle": "支原体肺炎", "lemmaCroppedTitle": "支原体肺炎", "lemmaDesc": "支原体肺炎是肺炎支原体引起的急性呼吸道感染伴肺炎，过去称为“原发性非典型肺炎”的...", "lemmaUrl": "http://baike.baidu.com/item/%E6%94%AF%E5%8E%9F%E4%BD%93%E8%82%BA%E7%82%8E/2320893", "lemmaPic": []}, {"lemmaId": 8078124, "lemmaTitle": "口角炎", "lemmaCroppedTitle": "口角炎", "lemmaDesc": "口角炎俗称“烂嘴角”，表现为口角潮红、起疱、皲裂、糜烂、结痂、脱屑等。患者张口易...", "lemmaUrl": "http://baike.baidu.com/item/%E5%8F%A3%E8%A7%92%E7%82%8E/8078124", "lemmaPic": []}, {"lemmaId": 5054160, "lemmaTitle": "川崎病", "lemmaCroppedTitle": "川崎病", "lemmaDesc": "川崎病又称皮肤黏膜淋巴结综合征（MCLS），是一种以全身血管炎变为主要病理的急性...", "lemmaUrl": "http://baike.baidu.com/item/%E5%B7%9D%E5%B4%8E%E7%97%85/5054160", "lemmaPic": []}, {"lemmaId": 480761, "lemmaTitle": "结石", "lemmaCroppedTitle": "结石", "lemmaDesc": "人体或动物体内的导管腔中或腔性器官（如肾脏、输尿管、胆囊或膀胱等）的腔中形成的固...", "lemmaUrl": "http://baike.baidu.com/item/%E7%BB%93%E7%9F%B3/480761", "lemmaPic": []}, {"lemmaId": 236465, "lemmaTitle": "近视眼", "lemmaCroppedTitle": "近视眼", "lemmaDesc": "在调节放松的状态下，平行光线经眼球屈光系统后聚焦在视网膜之前，称为近视。近视眼也...", "lemmaUrl": "http://baike.baidu.com/item/%E8%BF%91%E8%A7%86%E7%9C%BC/236465", "lemmaPic": []}, {"lemmaId": 5965116, "lemmaTitle": "妊娠期糖尿病", "lemmaCroppedTitle": "妊娠期糖尿病", "lemmaDesc": "妊娠期间的糖尿病有两种情况，一种为妊娠前已确诊患糖尿病，称“糖尿病合并妊娠”；另...", "lemmaUrl": "http://baike.baidu.com/item/%E5%A6%8A%E5%A8%A0%E6%9C%9F%E7%B3%96%E5%B0%BF%E7%97%85/5965116", "lemmaPic": []}, {"lemmaId": 7329436, "lemmaTitle": "睾丸癌", "lemmaCroppedTitle": "睾丸癌", "lemmaDesc": "睾丸肿瘤（tumor of testis）是泌尿外科中常见的肿瘤之一。睾丸肿瘤分...", "lemmaUrl": "http://baike.baidu.com/item/%E7%9D%BE%E4%B8%B8%E7%99%8C/7329436", "lemmaPic": []}, {"lemmaId": 2692289, "lemmaTitle": "肋软骨炎", "lemmaCroppedTitle": "肋软骨炎", "lemmaDesc": "肋软骨炎（costal chondritis）又称Tieze病或Tieze（泰齐...", "lemmaUrl": "http://baike.baidu.com/item/%E8%82%8B%E8%BD%AF%E9%AA%A8%E7%82%8E/2692289", "lemmaPic": []}, {"lemmaId": 3473288, "lemmaTitle": "子宫内膜增生", "lemmaCroppedTitle": "子宫内膜增生", "lemmaDesc": "子宫内膜增生具有一定的癌变倾向，故被列为癌前病变。但根据长期观察，绝大数子宫内膜...", "lemmaUrl": "http://baike.baidu.com/item/%E5%AD%90%E5%AE%AB%E5%86%85%E8%86%9C%E5%A2%9E%E7%94%9F/3473288", "lemmaPic": []}, {"lemmaId": 1229507, "lemmaTitle": "甲状腺瘤", "lemmaCroppedTitle": "甲状腺瘤", "lemmaDesc": "甲状腺瘤是最常见的良性肿瘤，多发生于40岁以下女性。由于甲状腺瘤可引起甲亢发生，...", "lemmaUrl": "http://baike.baidu.com/item/%E7%94%B2%E7%8A%B6%E8%85%BA%E7%98%A4/1229507", "lemmaPic": []}, {"lemmaId": 10590292, "lemmaTitle": "皮下脂肪瘤", "lemmaCroppedTitle": "皮下脂肪瘤", "lemmaDesc": "皮下脂肪瘤即浅表脂肪瘤，是一种由成熟脂肪组织构成并发生于表浅（皮下）的软组织良性...", "lemmaUrl": "http://baike.baidu.com/item/%E7%9A%AE%E4%B8%8B%E8%84%82%E8%82%AA%E7%98%A4/10590292", "lemmaPic": []}, {"lemmaId": 1617311, "lemmaTitle": "窦性心动过速", "lemmaCroppedTitle": "窦性心动过速", "lemmaDesc": "在成年人当由窦房结所控制的心律其频率超过每分钟100次时称为窦性心动过速。这是最...", "lemmaUrl": "http://baike.baidu.com/item/%E7%AA%A6%E6%80%A7%E5%BF%83%E5%8A%A8%E8%BF%87%E9%80%9F/1617311", "lemmaPic": []}, {"lemmaId": 3103346, "lemmaTitle": "手癣", "lemmaCroppedTitle": "手癣", "lemmaDesc": "中医病名，出自《外科正宗》。《医宗金鉴・外科心法要诀》中描述：“……初起紫白斑点...", "lemmaUrl": "http://baike.baidu.com/item/%E6%89%8B%E7%99%A3/3103346", "lemmaPic": []}, {"lemmaId": 2255384, "lemmaTitle": "心律失常", "lemmaCroppedTitle": "心律失常", "lemmaDesc": "心律失常（arrhythmia）是由于窦房结激动异常或激动产生于窦房结以外，激动...", "lemmaUrl": "http://baike.baidu.com/item/%E5%BF%83%E5%BE%8B%E5%A4%B1%E5%B8%B8/2255384", "lemmaPic": []}, {"lemmaId": 1382177, "lemmaTitle": "接触性皮炎", "lemmaCroppedTitle": "接触性皮炎", "lemmaDesc": "接触性皮炎是皮肤或黏膜单次或多次接触外源性物质后，在接触部位甚至以外的部位发生的...", "lemmaUrl": "http://baike.baidu.com/item/%E6%8E%A5%E8%A7%A6%E6%80%A7%E7%9A%AE%E7%82%8E/1382177", "lemmaPic": []}, {"lemmaId": 5241774, "lemmaTitle": "肛周脓肿", "lemmaCroppedTitle": "肛周脓肿", "lemmaDesc": "肛周脓肿，又称肛管直肠周围脓肿，中医称为肛痈。肛周脓肿是发生于肛门、肛管和直肠周...", "lemmaUrl": "http://baike.baidu.com/item/%E8%82%9B%E5%91%A8%E8%84%93%E8%82%BF/5241774", "lemmaPic": []}, {"lemmaId": 1246701, "lemmaTitle": "瘙痒症", "lemmaCroppedTitle": "瘙痒症", "lemmaDesc": "瘙痒是一种仅有皮肤瘙痒而无原发性皮肤损害的皮肤病症状。根据皮肤瘙痒的范围及部位，...", "lemmaUrl": "http://baike.baidu.com/item/%E7%98%99%E7%97%92%E7%97%87/1246701", "lemmaPic": []}, {"lemmaId": 4145257, "lemmaTitle": "精囊炎", "lemmaCroppedTitle": "精囊炎", "lemmaDesc": "精囊炎常与前列腺炎同时发生，多由于逆行感染所致。致病菌多为金黄色葡萄球菌、溶血性...", "lemmaUrl": "http://baike.baidu.com/item/%E7%B2%BE%E5%9B%8A%E7%82%8E/4145257", "lemmaPic": []}, {"lemmaId": 716379, "lemmaTitle": "急性阑尾炎", "lemmaCroppedTitle": "急性阑尾炎", "lemmaDesc": "急性阑尾炎是外科常见病，居各种急腹症的首位。转移性右下腹痛及阑尾点压痛、反跳痛为...", "lemmaUrl": "http://baike.baidu.com/item/%E6%80%A5%E6%80%A7%E9%98%91%E5%B0%BE%E7%82%8E/716379", "lemmaPic": []}, {"lemmaId": 9208217, "lemmaTitle": "肛门息肉", "lemmaCroppedTitle": "肛门息肉", "lemmaDesc": "肛门息肉是指肛管或直肠黏膜上带蒂圆形或椭圆形肿物，可突入肠腔上下移动。其蒂的大部...", "lemmaUrl": "http://baike.baidu.com/item/%E8%82%9B%E9%97%A8%E6%81%AF%E8%82%89/9208217", "lemmaPic": []}, {"lemmaId": 7850782, "lemmaTitle": "慢性盆腔炎", "lemmaCroppedTitle": "慢性盆腔炎", "lemmaDesc": "慢性盆腔炎是指女性内生殖器及其周围结缔组织、盆腔腹膜的慢性炎症。常为急性盆腔炎未...", "lemmaUrl": "http://baike.baidu.com/item/%E6%85%A2%E6%80%A7%E7%9B%86%E8%85%94%E7%82%8E/7850782", "lemmaPic": []}, {"lemmaId": 2251235, "lemmaTitle": "病毒性心肌炎", "lemmaCroppedTitle": "病毒性心肌炎", "lemmaDesc": "病毒性心肌炎是指病毒感染引起的心肌局限性或弥漫性的急性或慢性炎症病变，属于感染性...", "lemmaUrl": "http://baike.baidu.com/item/%E7%97%85%E6%AF%92%E6%80%A7%E5%BF%83%E8%82%8C%E7%82%8E/2251235", "lemmaPic": []}, {"lemmaId": 10083015, "lemmaTitle": "子宫腺肌症", "lemmaCroppedTitle": "子宫腺肌症", "lemmaDesc": "子宫腺肌病是子宫内膜腺体和间质侵入子宫肌层形成弥漫或局限性的病变，与子宫内膜异位...", "lemmaUrl": "http://baike.baidu.com/item/%E5%AD%90%E5%AE%AB%E8%85%BA%E8%82%8C%E7%97%87/10083015", "lemmaPic": []}, {"lemmaId": 10771426, "lemmaTitle": "双相障碍", "lemmaCroppedTitle": "双相障碍", "lemmaDesc": "双相障碍属于心境障碍的一种类型，英文名称为Bipolar Disorder（BP...", "lemmaUrl": "http://baike.baidu.com/item/%E5%8F%8C%E7%9B%B8%E9%9A%9C%E7%A2%8D/10771426", "lemmaPic": {"width": 800, "height": 450, "url": "https://gss1.bdstatic.com/-vo3dSag_xI4khGkpoWK1HF6hhy/baike/w%3D168/sign=185c1fca31f33a879e6d041cfe5d1018/b90e7bec54e736d1e24b10f290504fc2d46269f4.jpg"}}, {"lemmaId": 5085460, "lemmaTitle": "低钾血症", "lemmaCroppedTitle": "低钾血症", "lemmaDesc": "血清钾（K+）浓度在3.5～5.5mmol/L，平均4.2mmol/L。通常血清...", "lemmaUrl": "http://baike.baidu.com/item/%E4%BD%8E%E9%92%BE%E8%A1%80%E7%97%87/5085460", "lemmaPic": []}, {"lemmaId": 4075660, "lemmaTitle": "炭疽病", "lemmaCroppedTitle": "炭疽病", "lemmaDesc": "炭疽是由炭疽杆菌所致，一种人畜共患的急性传染病。人因接触病畜及其产品及食用病畜的...", "lemmaUrl": "http://baike.baidu.com/item/%E7%82%AD%E7%96%BD%E7%97%85/4075660", "lemmaPic": []}, {"lemmaId": 1264231, "lemmaTitle": "乳头内陷", "lemmaCroppedTitle": "乳头内陷", "lemmaDesc": "乳头不能凸出而是向内凹陷，称为乳头内陷。乳头内陷的程度因人而异，轻者仅表现为不同...", "lemmaUrl": "http://baike.baidu.com/item/%E4%B9%B3%E5%A4%B4%E5%86%85%E9%99%B7/1264231", "lemmaPic": []}, {"lemmaId": 2494253, "lemmaTitle": "手足癣", "lemmaCroppedTitle": "手足癣", "lemmaDesc": "手足癣是指皮肤癣菌侵犯指趾、趾间、掌跖部所引起的感染。在游泳池及公共浴室中穿公用...", "lemmaUrl": "http://baike.baidu.com/item/%E6%89%8B%E8%B6%B3%E7%99%A3/2494253", "lemmaPic": []}, {"lemmaId": 1176595, "lemmaTitle": "咽喉痛", "lemmaCroppedTitle": "咽喉痛", "lemmaDesc": "咽喉痛是一种最常见的病症，它多发于一年中的寒冷季节，感冒、扁桃体炎、鼻窦炎、百日...", "lemmaUrl": "http://baike.baidu.com/item/%E5%92%BD%E5%96%89%E7%97%9B/1176595", "lemmaPic": []}, {"lemmaId": 6196520, "lemmaTitle": "糖尿病足", "lemmaCroppedTitle": "糖尿病足", "lemmaDesc": "足部是糖尿病这个多系统疾病的一个复杂的靶器官。糖尿病患者因周围神经病变与外周血管...", "lemmaUrl": "http://baike.baidu.com/item/%E7%B3%96%E5%B0%BF%E7%97%85%E8%B6%B3/6196520", "lemmaPic": []}, {"lemmaId": 2129500, "lemmaTitle": "子宫囊肿", "lemmaCroppedTitle": "子宫囊肿", "lemmaDesc": "子宫囊肿并不是妇产科学所涉及的专业术语，通常所说的子宫囊肿多是指宫颈囊肿，是慢性...", "lemmaUrl": "http://baike.baidu.com/item/%E5%AD%90%E5%AE%AB%E5%9B%8A%E8%82%BF/2129500", "lemmaPic": []}, {"lemmaId": 10774123, "lemmaTitle": "筋膜炎", "lemmaCroppedTitle": "筋膜炎", "lemmaDesc": "筋膜炎（fasciitis）又称纤维织炎（fibrositis），是一个综合的概...", "lemmaUrl": "http://baike.baidu.com/item/%E7%AD%8B%E8%86%9C%E7%82%8E/10774123", "lemmaPic": []}, {"lemmaId": 1403561, "lemmaTitle": "传染性软疣", "lemmaCroppedTitle": "传染性软疣", "lemmaDesc": "是由传染性软疣病毒感染引起的一种传染性皮肤病。皮损表现为特征性有蜡样光泽的丘疹或...", "lemmaUrl": "http://baike.baidu.com/item/%E4%BC%A0%E6%9F%93%E6%80%A7%E8%BD%AF%E7%96%A3/1403561", "lemmaPic": []}, {"lemmaId": 88088, "lemmaTitle": "溶血性贫血", "lemmaCroppedTitle": "溶血性贫血", "lemmaDesc": "溶血性贫血（hemolytic anemia）是由于红细胞破坏速率增加（寿命缩短...", "lemmaUrl": "http://baike.baidu.com/item/%E6%BA%B6%E8%A1%80%E6%80%A7%E8%B4%AB%E8%A1%80/88088", "lemmaPic": []}, {"lemmaId": 2965604, "lemmaTitle": "扁平足", "lemmaCroppedTitle": "扁平足", "lemmaDesc": "足弓是人类脚的重要结构。有了足弓，使足富有弹性。即可吸收地面对脚的冲击力量，又可...", "lemmaUrl": "http://baike.baidu.com/item/%E6%89%81%E5%B9%B3%E8%B6%B3/2965604", "lemmaPic": []}, {"lemmaId": 10370582, "lemmaTitle": "出血热", "lemmaCroppedTitle": "出血热", "lemmaDesc": "出血热即流行性出血热又称肾综合征出血热，是危害人类健康的重要传染病，是由流行性出...", "lemmaUrl": "http://baike.baidu.com/item/%E5%87%BA%E8%A1%80%E7%83%AD/10370582", "lemmaPic": []}, {"lemmaId": 3312131, "lemmaTitle": "自然流产", "lemmaCroppedTitle": "自然流产", "lemmaDesc": "自然状态（非人为目的造成）发生的流产称为自然流产。在所有临床确认的妊娠中，自然流...", "lemmaUrl": "http://baike.baidu.com/item/%E8%87%AA%E7%84%B6%E6%B5%81%E4%BA%A7/3312131", "lemmaPic": []}, {"lemmaId": 10575299, "lemmaTitle": "直肠炎", "lemmaCroppedTitle": "直肠炎", "lemmaDesc": "广义而言，发生在直肠的炎症均可称为直肠炎。常见的直肠炎主要表现为肛门下坠感、腹泻...", "lemmaUrl": "http://baike.baidu.com/item/%E7%9B%B4%E8%82%A0%E7%82%8E/10575299", "lemmaPic": []}, {"lemmaId": 8409355, "lemmaTitle": "外阴炎", "lemmaCroppedTitle": "外阴炎", "lemmaDesc": "外阴炎是由于病原体侵犯或受到各种不良刺激引起的外阴发炎，可独立存在，更多时与阴道...", "lemmaUrl": "http://baike.baidu.com/item/%E5%A4%96%E9%98%B4%E7%82%8E/8409355", "lemmaPic": []}, {"lemmaId": 19306498, "lemmaTitle": "寨卡病毒", "lemmaCroppedTitle": "寨卡病毒", "lemmaDesc": "非洲的埃博拉疫情还没有完全结束，美洲就出现了一种虫媒病毒的暴发流行，这种虫媒病毒...", "lemmaUrl": "http://baike.baidu.com/item/%E5%AF%A8%E5%8D%A1%E7%97%85%E6%AF%92/19306498", "lemmaPic": []}, {"lemmaId": 3117307, "lemmaTitle": "酒糟鼻", "lemmaCroppedTitle": "酒糟鼻", "lemmaDesc": "酒渣鼻，又称玫瑰痤疮，是一种主要发生于面部中央的红斑和毛细血管扩张的慢性炎症性皮...", "lemmaUrl": "http://baike.baidu.com/item/%E9%85%92%E7%B3%9F%E9%BC%BB/3117307", "lemmaPic": []}, {"lemmaId": 5120081, "lemmaTitle": "勃起功能障碍", "lemmaCroppedTitle": "勃起功能障碍", "lemmaDesc": "勃起功能障碍（erectile dysfunction，ED）是最常见的一种男性...", "lemmaUrl": "http://baike.baidu.com/item/%E5%8B%83%E8%B5%B7%E5%8A%9F%E8%83%BD%E9%9A%9C%E7%A2%8D/5120081", "lemmaPic": []}, {"lemmaId": 989876, "lemmaTitle": "重症肌无力", "lemmaCroppedTitle": "重症肌无力", "lemmaDesc": "重症肌无力（MG）是一种由神经-肌肉接头处传递功能障碍所引起的自身免疫性疾病，临...", "lemmaUrl": "http://baike.baidu.com/item/%E9%87%8D%E7%97%87%E8%82%8C%E6%97%A0%E5%8A%9B/989876", "lemmaPic": []}, {"lemmaId": 729584, "lemmaTitle": "卵巢早衰", "lemmaCroppedTitle": "卵巢早衰", "lemmaDesc": "卵巢早衰（POF）是指卵巢功能衰竭所导致的40岁之前即闭经的现象。特点是原发或继...", "lemmaUrl": "http://baike.baidu.com/item/%E5%8D%B5%E5%B7%A2%E6%97%A9%E8%A1%B0/729584", "lemmaPic": []}, {"lemmaId": 9644447, "lemmaTitle": "脐带绕颈", "lemmaCroppedTitle": "脐带绕颈", "lemmaDesc": "脐带绕颈在产科门诊十分常见，约占分娩总数20%～25%。发生原因与脐带过长、胎儿...", "lemmaUrl": "http://baike.baidu.com/item/%E8%84%90%E5%B8%A6%E7%BB%95%E9%A2%88/9644447", "lemmaPic": []}, {"lemmaId": 6295392, "lemmaTitle": "癫痫病", "lemmaCroppedTitle": "癫痫病", "lemmaDesc": "癫痫是慢性反复发作性短暂脑功能失调综合征。以脑神经元异常放电引起反复痫性发作为特...", "lemmaUrl": "http://baike.baidu.com/item/%E7%99%AB%E7%97%AB%E7%97%85/6295392", "lemmaPic": []}], "total": 7246, "totalPage": 73, "page": 4, "fromLemma": 0}