{"lemmaList": [{"lemmaId": 5718, "lemmaTitle": "黑眼圈", "lemmaCroppedTitle": "黑眼圈", "lemmaDesc": "黑眼圈是由于熬夜，情绪波动大，眼疲劳、衰老导致眼部皮肤血管血流速度过于缓慢形成滞...", "lemmaUrl": "http://baike.baidu.com/item/%E9%BB%91%E7%9C%BC%E5%9C%88/5718", "lemmaPic": []}, {"lemmaId": 8734413, "lemmaTitle": "盆腔积液", "lemmaCroppedTitle": "盆腔积液", "lemmaDesc": "盆腔积液（pelvic effusion）是一种表现而不是一种疾病，确切地说是影...", "lemmaUrl": "http://baike.baidu.com/item/%E7%9B%86%E8%85%94%E7%A7%AF%E6%B6%B2/8734413", "lemmaPic": []}, {"lemmaId": 1477052, "lemmaTitle": "尿道炎", "lemmaCroppedTitle": "尿道炎", "lemmaDesc": "尿道炎是一种常见病，指尿道黏膜的炎症,女性好发。临床上可分为急性和慢性、非特异性...", "lemmaUrl": "http://baike.baidu.com/item/%E5%B0%BF%E9%81%93%E7%82%8E/1477052", "lemmaPic": []}, {"lemmaId": 4678833, "lemmaTitle": "便血", "lemmaCroppedTitle": "便血", "lemmaDesc": "血液从肛门排出，粪便颜色呈鲜红、暗红或柏油样（黑便），均称为便血。便血只是一个症...", "lemmaUrl": "http://baike.baidu.com/item/%E4%BE%BF%E8%A1%80/4678833", "lemmaPic": []}, {"lemmaId": 6590071, "lemmaTitle": "结肠炎", "lemmaCroppedTitle": "结肠炎", "lemmaDesc": "结肠炎（colitis）是指各种原因引起的结肠炎症性病变。可由细菌、真菌、病毒、...", "lemmaUrl": "http://baike.baidu.com/item/%E7%BB%93%E8%82%A0%E7%82%8E/6590071", "lemmaPic": []}, {"lemmaId": 45846, "lemmaTitle": "失眠", "lemmaCroppedTitle": "失眠", "lemmaDesc": "常见病症是入睡困难、睡眠质量下降和睡眠时间减少，记忆力、注意力下降等。现在临床医...", "lemmaUrl": "http://baike.baidu.com/item/%E5%A4%B1%E7%9C%A0/45846", "lemmaPic": []}, {"lemmaId": 509398, "lemmaTitle": "宫颈炎", "lemmaCroppedTitle": "宫颈炎", "lemmaDesc": "宫颈炎（cervicitis）是妇科常见疾病之一，多见于育龄妇女，为宫颈受损伤和...", "lemmaUrl": "http://baike.baidu.com/item/%E5%AE%AB%E9%A2%88%E7%82%8E/509398", "lemmaPic": []}, {"lemmaId": 1143343, "lemmaTitle": "胆囊息肉", "lemmaCroppedTitle": "胆囊息肉", "lemmaDesc": "胆囊息肉（gallbladder polyps）是指胆囊壁向腔内呈息肉样突起的一...", "lemmaUrl": "http://baike.baidu.com/item/%E8%83%86%E5%9B%8A%E6%81%AF%E8%82%89/1143343", "lemmaPic": []}, {"lemmaId": 763480, "lemmaTitle": "心肌炎", "lemmaCroppedTitle": "心肌炎", "lemmaDesc": "心肌炎是指各种原因引起的心肌的炎症性病变。多种因素如感染、物理和化学因素均可引起...", "lemmaUrl": "http://baike.baidu.com/item/%E5%BF%83%E8%82%8C%E7%82%8E/763480", "lemmaPic": []}, {"lemmaId": 1247696, "lemmaTitle": "结膜炎", "lemmaCroppedTitle": "结膜炎", "lemmaDesc": "结膜炎症性疾病根据病情及病程，可分为急性、亚急性和慢性三类；根据病因又可分为细菌...", "lemmaUrl": "http://baike.baidu.com/item/%E7%BB%93%E8%86%9C%E7%82%8E/1247696", "lemmaPic": []}, {"lemmaId": 1823506, "lemmaTitle": "慢性胃炎", "lemmaCroppedTitle": "慢性胃炎", "lemmaDesc": "慢性胃炎系指不同病因引起的各种慢性胃黏膜炎性病变，是一种常见病，其发病率在各种胃...", "lemmaUrl": "http://baike.baidu.com/item/%E6%85%A2%E6%80%A7%E8%83%83%E7%82%8E/1823506", "lemmaPic": []}, {"lemmaId": 771825, "lemmaTitle": "胆结石", "lemmaCroppedTitle": "胆结石", "lemmaDesc": "胆结石又称胆石症，是指胆道系统包括胆囊或胆管内发生结石的疾病；胆道感染是属于常见...", "lemmaUrl": "http://baike.baidu.com/item/%E8%83%86%E7%BB%93%E7%9F%B3/771825", "lemmaPic": []}, {"lemmaId": 787167, "lemmaTitle": "精液", "lemmaCroppedTitle": "精液", "lemmaDesc": "精液（semen）指雄性动物或人类男性在射精时（通常处于性高潮状态），从尿道中射...", "lemmaUrl": "http://baike.baidu.com/item/%E7%B2%BE%E6%B6%B2/787167", "lemmaPic": []}, {"lemmaId": 1822884, "lemmaTitle": "包皮过长", "lemmaCroppedTitle": "包皮过长", "lemmaDesc": "包皮过长是指包皮覆盖尿道口，但能上翻，露出尿道口和阴茎头。本病与遗传有关，可分为...", "lemmaUrl": "http://baike.baidu.com/item/%E5%8C%85%E7%9A%AE%E8%BF%87%E9%95%BF/1822884", "lemmaPic": []}, {"lemmaId": 1386890, "lemmaTitle": "鼻咽癌", "lemmaCroppedTitle": "鼻咽癌", "lemmaDesc": "鼻咽癌是指发生于鼻咽腔顶部和侧壁的恶性肿瘤。是我国高发恶性肿瘤之一，发病率为耳鼻...", "lemmaUrl": "http://baike.baidu.com/item/%E9%BC%BB%E5%92%BD%E7%99%8C/1386890", "lemmaPic": []}, {"lemmaId": 2120710, "lemmaTitle": "肠炎", "lemmaCroppedTitle": "肠炎", "lemmaDesc": "肠炎是细菌、病毒、真菌和寄生虫等引起的小肠炎和结肠炎。临床表现主要有腹痛、腹泻、...", "lemmaUrl": "http://baike.baidu.com/item/%E8%82%A0%E7%82%8E/2120710", "lemmaPic": []}, {"lemmaId": 87596, "lemmaTitle": "麻疹", "lemmaCroppedTitle": "麻疹", "lemmaDesc": "麻疹是儿童最常见的急性呼吸道传染病之一，其传染性很强，在人口密集而未普种疫苗的地...", "lemmaUrl": "http://baike.baidu.com/item/%E9%BA%BB%E7%96%B9/87596", "lemmaPic": []}, {"lemmaId": 533970, "lemmaTitle": "鼻窦炎", "lemmaCroppedTitle": "鼻窦炎", "lemmaDesc": "一个或多个鼻窦发生炎症称为鼻窦炎，累及的鼻窦包括：上颌窦、筛窦、额窦和蝶窦，这是...", "lemmaUrl": "http://baike.baidu.com/item/%E9%BC%BB%E7%AA%A6%E7%82%8E/533970", "lemmaPic": []}, {"lemmaId": 674996, "lemmaTitle": "灰指甲", "lemmaCroppedTitle": "灰指甲", "lemmaDesc": "灰指甲（甲癣）是皮肤癣菌侵犯甲板所致的病变，是一种发生于指（趾）甲及甲下的真菌病...", "lemmaUrl": "http://baike.baidu.com/item/%E7%81%B0%E6%8C%87%E7%94%B2/674996", "lemmaPic": []}, {"lemmaId": 2258925, "lemmaTitle": "排卵期出血", "lemmaCroppedTitle": "排卵期出血", "lemmaDesc": "在有规律的两次月经中期，即排卵期，由于排卵所致的雌激素水平短暂下降，使部分女性的...", "lemmaUrl": "http://baike.baidu.com/item/%E6%8E%92%E5%8D%B5%E6%9C%9F%E5%87%BA%E8%A1%80/2258925", "lemmaPic": []}, {"lemmaId": 603357, "lemmaTitle": "脂溢性皮炎", "lemmaCroppedTitle": "脂溢性皮炎", "lemmaDesc": "脂溢性皮炎又称脂溢性湿疹，是发生在皮脂腺丰富部位的一种慢性丘疹鳞屑性炎症性皮肤病...", "lemmaUrl": "http://baike.baidu.com/item/%E8%84%82%E6%BA%A2%E6%80%A7%E7%9A%AE%E7%82%8E/603357", "lemmaPic": []}, {"lemmaId": 1458421, "lemmaTitle": "登革热", "lemmaCroppedTitle": "登革热", "lemmaDesc": "登革热（dengue）是登革病毒经蚊媒传播引起的急性虫媒传染病。登革病毒感染后可...", "lemmaUrl": "http://baike.baidu.com/item/%E7%99%BB%E9%9D%A9%E7%83%AD/1458421", "lemmaPic": []}, {"lemmaId": 9353700, "lemmaTitle": "支原体感染", "lemmaCroppedTitle": "支原体感染", "lemmaDesc": "支原体是细胞外生存的最小微生物，是一类缺乏细胞壁的原核细胞型微生物，大小一般在0...", "lemmaUrl": "http://baike.baidu.com/item/%E6%94%AF%E5%8E%9F%E4%BD%93%E6%84%9F%E6%9F%93/9353700", "lemmaPic": []}, {"lemmaId": 4801087, "lemmaTitle": "甲型H1N1流感", "lemmaCroppedTitle": "甲型H1N1流感", "lemmaDesc": "甲型H1N1流感为急性呼吸道传染病，其病原体是一种新型的甲型H1N1流感病毒，在...", "lemmaUrl": "http://baike.baidu.com/item/%E7%94%B2%E5%9E%8BH1N1%E6%B5%81%E6%84%9F/4801087", "lemmaPic": []}, {"lemmaId": 2193261, "lemmaTitle": "腹泻", "lemmaCroppedTitle": "腹泻", "lemmaDesc": "腹泻（diarrhea）是一种常见症状，俗称“拉肚子”，是指排便次数明显超过平日...", "lemmaUrl": "http://baike.baidu.com/item/%E8%85%B9%E6%B3%BB/2193261", "lemmaPic": []}, {"lemmaId": 268153, "lemmaTitle": "尿频", "lemmaCroppedTitle": "尿频", "lemmaDesc": "正常成人白天排尿4～6次，夜间0～2次，次数明显增多称尿频。尿频既可以是生理性、...", "lemmaUrl": "http://baike.baidu.com/item/%E5%B0%BF%E9%A2%91/268153", "lemmaPic": []}, {"lemmaId": 353501, "lemmaTitle": "过敏性紫癜", "lemmaCroppedTitle": "过敏性紫癜", "lemmaDesc": "过敏性紫癜（anaphylactoid purpura），即Henoch-Sch...", "lemmaUrl": "http://baike.baidu.com/item/%E8%BF%87%E6%95%8F%E6%80%A7%E7%B4%AB%E7%99%9C/353501", "lemmaPic": []}, {"lemmaId": 6335443, "lemmaTitle": "阴虚", "lemmaCroppedTitle": "阴虚", "lemmaDesc": "阴虚，为中医名词术语。是指由于阴液不足，不能滋润，不能制阳引起的一系列病理变化及...", "lemmaUrl": "http://baike.baidu.com/item/%E9%98%B4%E8%99%9A/6335443", "lemmaPic": []}, {"lemmaId": 1667961, "lemmaTitle": "精索静脉曲张", "lemmaCroppedTitle": "精索静脉曲张", "lemmaDesc": "精索静脉曲张（varicocele，VC）是一种血管病变，指精索内蔓状静脉丛的异...", "lemmaUrl": "http://baike.baidu.com/item/%E7%B2%BE%E7%B4%A2%E9%9D%99%E8%84%89%E6%9B%B2%E5%BC%A0/1667961", "lemmaPic": []}, {"lemmaId": 2405253, "lemmaTitle": "脂肪瘤", "lemmaCroppedTitle": "脂肪瘤", "lemmaDesc": "脂肪瘤（Lipoma）是一种常见的软组织良性肿瘤，由成熟脂肪细胞构成，可发生于身...", "lemmaUrl": "http://baike.baidu.com/item/%E8%84%82%E8%82%AA%E7%98%A4/2405253", "lemmaPic": []}, {"lemmaId": 3774996, "lemmaTitle": "婴儿湿疹", "lemmaCroppedTitle": "婴儿湿疹", "lemmaDesc": "婴儿湿疹（infantile eczema），中医称之为“奶癣”或“胎敛疮”，是...", "lemmaUrl": "http://baike.baidu.com/item/%E5%A9%B4%E5%84%BF%E6%B9%BF%E7%96%B9/3774996", "lemmaPic": []}, {"lemmaId": 2255315, "lemmaTitle": "心绞痛", "lemmaCroppedTitle": "心绞痛", "lemmaDesc": "心绞痛（angina pectoris）是冠状动脉供血不足，心肌急剧的暂时缺血与...", "lemmaUrl": "http://baike.baidu.com/item/%E5%BF%83%E7%BB%9E%E7%97%9B/2255315", "lemmaPic": []}, {"lemmaId": 10862841, "lemmaTitle": "早孕反应", "lemmaCroppedTitle": "早孕反应", "lemmaDesc": "早孕反应是指在妊娠早期（停经六周左右），孕妇体内绒毛膜促性腺激素（HCG）增多，...", "lemmaUrl": "http://baike.baidu.com/item/%E6%97%A9%E5%AD%95%E5%8F%8D%E5%BA%94/10862841", "lemmaPic": []}, {"lemmaId": 2878436, "lemmaTitle": "肛裂", "lemmaCroppedTitle": "肛裂", "lemmaDesc": "\t\t\t\t\t\t\t\t\t\t\t肛是肛管，裂是裂开，肛裂（anal fissure）是消化...", "lemmaUrl": "http://baike.baidu.com/item/%E8%82%9B%E8%A3%82/2878436", "lemmaPic": []}, {"lemmaId": 1799018, "lemmaTitle": "子宫内膜异位症", "lemmaCroppedTitle": "子宫内膜异位症", "lemmaDesc": "子宫内膜异位症（endometriosis）是指有活性的内膜细胞种植在子宫内膜以...", "lemmaUrl": "http://baike.baidu.com/item/%E5%AD%90%E5%AE%AB%E5%86%85%E8%86%9C%E5%BC%82%E4%BD%8D%E7%97%87/1799018", "lemmaPic": []}, {"lemmaId": 1568123, "lemmaTitle": "麦粒肿", "lemmaCroppedTitle": "麦粒肿", "lemmaDesc": "麦粒肿又称针眼、睑腺炎，是睫毛毛囊附近的皮脂腺或睑板腺的急性化脓性炎症。麦粒肿分...", "lemmaUrl": "http://baike.baidu.com/item/%E9%BA%A6%E7%B2%92%E8%82%BF/1568123", "lemmaPic": []}, {"lemmaId": 699158, "lemmaTitle": "神经性皮炎", "lemmaCroppedTitle": "神经性皮炎", "lemmaDesc": "神经性皮炎又称慢性单纯性苔藓。是以阵发性皮肤瘙痒和皮肤苔藓化为特征的慢性皮肤病。...", "lemmaUrl": "http://baike.baidu.com/item/%E7%A5%9E%E7%BB%8F%E6%80%A7%E7%9A%AE%E7%82%8E/699158", "lemmaPic": []}, {"lemmaId": 940362, "lemmaTitle": "异位妊娠", "lemmaCroppedTitle": "异位妊娠", "lemmaDesc": "孕卵在子宫腔外着床发育的异常妊娠过程。也称“宫外孕”。以输卵管妊娠最常见。病因常...", "lemmaUrl": "http://baike.baidu.com/item/%E5%BC%82%E4%BD%8D%E5%A6%8A%E5%A8%A0/940362", "lemmaPic": []}, {"lemmaId": 629320, "lemmaTitle": "败血症", "lemmaCroppedTitle": "败血症", "lemmaDesc": "败血症（septicemia）是指致病菌或条件致病菌侵入血循环，并在血中生长繁殖...", "lemmaUrl": "http://baike.baidu.com/item/%E8%B4%A5%E8%A1%80%E7%97%87/629320", "lemmaPic": []}, {"lemmaId": 2813397, "lemmaTitle": "龟头炎", "lemmaCroppedTitle": "龟头炎", "lemmaDesc": "龟头炎（balanitis）即阴茎头炎，指龟头部由外伤、刺激或感染等因素引起的炎...", "lemmaUrl": "http://baike.baidu.com/item/%E9%BE%9F%E5%A4%B4%E7%82%8E/2813397", "lemmaPic": []}, {"lemmaId": 959775, "lemmaTitle": "疣", "lemmaCroppedTitle": "疣", "lemmaDesc": "疣是由人类乳头瘤病毒引起的一种皮肤表面赘生物。多见于儿童及青年，潜伏期为1～3个...", "lemmaUrl": "http://baike.baidu.com/item/%E7%96%A3/959775", "lemmaPic": []}, {"lemmaId": 1440194, "lemmaTitle": "葡萄胎", "lemmaCroppedTitle": "葡萄胎", "lemmaDesc": "葡萄胎是指妊娠后胎盘绒毛滋养细胞增生，间质高度水肿，形成大小不一的水泡，水泡间相...", "lemmaUrl": "http://baike.baidu.com/item/%E8%91%A1%E8%90%84%E8%83%8E/1440194", "lemmaPic": []}, {"lemmaId": 1252536, "lemmaTitle": "焦虑症", "lemmaCroppedTitle": "焦虑症", "lemmaDesc": "焦虑症（anxiety），又称为焦虑性神经症，是神经症这一大类疾病中最常见的一种...", "lemmaUrl": "http://baike.baidu.com/item/%E7%84%A6%E8%99%91%E7%97%87/1252536", "lemmaPic": []}, {"lemmaId": 2974030, "lemmaTitle": "腱鞘炎", "lemmaCroppedTitle": "腱鞘炎", "lemmaDesc": "腱鞘就是套在肌腱外面的双层套管样密闭的滑膜管，是保护肌腱的滑液鞘。它分两层包绕着...", "lemmaUrl": "http://baike.baidu.com/item/%E8%85%B1%E9%9E%98%E7%82%8E/2974030", "lemmaPic": []}, {"lemmaId": 94167, "lemmaTitle": "血型", "lemmaCroppedTitle": "血型", "lemmaDesc": "血型是指血液成分（包括红细胞、白细胞、血小板）表面的抗原类型。通常所说的血型是指...", "lemmaUrl": "http://baike.baidu.com/item/%E8%A1%80%E5%9E%8B/94167", "lemmaPic": []}, {"lemmaId": 1343568, "lemmaTitle": "宫颈柱状上皮异位", "lemmaCroppedTitle": "宫颈柱状上皮异位", "lemmaDesc": "宫颈糜烂曾经是一个困扰了很多女性的一个疾病。去做体检，几乎是十有八九会被诊断为宫...", "lemmaUrl": "http://baike.baidu.com/item/%E5%AE%AB%E9%A2%88%E6%9F%B1%E7%8A%B6%E4%B8%8A%E7%9A%AE%E5%BC%82%E4%BD%8D/1343568", "lemmaPic": []}, {"lemmaId": 8901426, "lemmaTitle": "心肌缺血", "lemmaCroppedTitle": "心肌缺血", "lemmaDesc": "心肌缺血（myocardial ischemia）是指心脏的血液灌注减少，导致心...", "lemmaUrl": "http://baike.baidu.com/item/%E5%BF%83%E8%82%8C%E7%BC%BA%E8%A1%80/8901426", "lemmaPic": []}, {"lemmaId": 8024520, "lemmaTitle": "复发性阿弗他溃疡", "lemmaCroppedTitle": "复发性阿弗他溃疡", "lemmaDesc": "复发性阿弗他溃疡，又称复发性阿弗他口炎、复发性口腔溃疡、复发性口疮，是口腔黏膜疾...", "lemmaUrl": "http://baike.baidu.com/item/%E5%A4%8D%E5%8F%91%E6%80%A7%E9%98%BF%E5%BC%97%E4%BB%96%E6%BA%83%E7%96%A1/8024520", "lemmaPic": []}, {"lemmaId": 97776, "lemmaTitle": "拔火罐", "lemmaCroppedTitle": "拔火罐", "lemmaDesc": "拔罐是以罐为工具，利用燃火、抽气等方法产生负压，使之吸附于体表，造成局部瘀血，以...", "lemmaUrl": "http://baike.baidu.com/item/%E6%8B%94%E7%81%AB%E7%BD%90/97776", "lemmaPic": []}, {"lemmaId": 2608, "lemmaTitle": "多囊卵巢综合征", "lemmaCroppedTitle": "多囊卵巢综合征", "lemmaDesc": "多囊卵巢综合征（PCOS）是生育年龄妇女常见的一种复杂的内分泌及代谢异常所致的疾...", "lemmaUrl": "http://baike.baidu.com/item/%E5%A4%9A%E5%9B%8A%E5%8D%B5%E5%B7%A2%E7%BB%BC%E5%90%88%E5%BE%81/2608", "lemmaPic": []}, {"lemmaId": 509035, "lemmaTitle": "牙周炎", "lemmaCroppedTitle": "牙周炎", "lemmaDesc": "牙周炎主要是由局部因素引起的牙周支持组织的慢性炎症。发病年龄以35岁以后较为多见...", "lemmaUrl": "http://baike.baidu.com/item/%E7%89%99%E5%91%A8%E7%82%8E/509035", "lemmaPic": []}, {"lemmaId": 63782, "lemmaTitle": "骨质增生", "lemmaCroppedTitle": "骨质增生", "lemmaDesc": "骨质增生症又称为增生性骨关节炎、骨性关节炎（OA）、退变性关节病、老年性关节炎、...", "lemmaUrl": "http://baike.baidu.com/item/%E9%AA%A8%E8%B4%A8%E5%A2%9E%E7%94%9F/63782", "lemmaPic": []}, {"lemmaId": 2252719, "lemmaTitle": "冠状动脉粥样硬化性心脏病", "lemmaCroppedTitle": "冠状动脉粥样硬化性心脏病", "lemmaDesc": "冠状动脉粥样硬化性心脏病是冠状动脉血管发生动脉粥样硬化病变而引起血管腔狭窄或阻塞...", "lemmaUrl": "http://baike.baidu.com/item/%E5%86%A0%E7%8A%B6%E5%8A%A8%E8%84%89%E7%B2%A5%E6%A0%B7%E7%A1%AC%E5%8C%96%E6%80%A7%E5%BF%83%E8%84%8F%E7%97%85/2252719", "lemmaPic": []}, {"lemmaId": 248056, "lemmaTitle": "白内障", "lemmaCroppedTitle": "白内障", "lemmaDesc": "凡是各种原因如老化，遗传、局部营养障碍、免疫与代谢异常，外伤、中毒、辐射等，都能...", "lemmaUrl": "http://baike.baidu.com/item/%E7%99%BD%E5%86%85%E9%9A%9C/248056", "lemmaPic": []}, {"lemmaId": 499364, "lemmaTitle": "疥疮", "lemmaCroppedTitle": "疥疮", "lemmaDesc": "疥疮是由疥螨在人体皮肤表皮层内引起的接触性传染性皮肤病。可在家庭及接触者之间传播...", "lemmaUrl": "http://baike.baidu.com/item/%E7%96%A5%E7%96%AE/499364", "lemmaPic": []}, {"lemmaId": 9336045, "lemmaTitle": "肌萎缩侧索硬化", "lemmaCroppedTitle": "肌萎缩侧索硬化", "lemmaDesc": "肌萎缩侧索硬化（ALS）也叫运动神经元病（MND），后一名称英国常用，法国又叫夏...", "lemmaUrl": "http://baike.baidu.com/item/%E8%82%8C%E8%90%8E%E7%BC%A9%E4%BE%A7%E7%B4%A2%E7%A1%AC%E5%8C%96/9336045", "lemmaPic": []}, {"lemmaId": 957242, "lemmaTitle": "食管癌", "lemmaCroppedTitle": "食管癌", "lemmaDesc": "食管癌是常见的消化道肿瘤，全世界每年约有30万人死于食管癌。其发病率和死亡率各国...", "lemmaUrl": "http://baike.baidu.com/item/%E9%A3%9F%E7%AE%A1%E7%99%8C/957242", "lemmaPic": []}, {"lemmaId": 2410147, "lemmaTitle": "慢性前列腺炎", "lemmaCroppedTitle": "慢性前列腺炎", "lemmaDesc": "慢性前列腺炎（Chronic prostatitis）指各种病因引起前列腺组织的...", "lemmaUrl": "http://baike.baidu.com/item/%E6%85%A2%E6%80%A7%E5%89%8D%E5%88%97%E8%85%BA%E7%82%8E/2410147", "lemmaPic": []}, {"lemmaId": 8256336, "lemmaTitle": "上呼吸道感染", "lemmaCroppedTitle": "上呼吸道感染", "lemmaDesc": "上呼吸道感染简称上感，又称普通感冒。是包括鼻腔、咽或喉部急性炎症的总称。广义的上...", "lemmaUrl": "http://baike.baidu.com/item/%E4%B8%8A%E5%91%BC%E5%90%B8%E9%81%93%E6%84%9F%E6%9F%93/8256336", "lemmaPic": []}, {"lemmaId": 602060, "lemmaTitle": "风疹", "lemmaCroppedTitle": "风疹", "lemmaDesc": "风疹（rubella）是由风疹病毒（RV）引起的急性呼吸道传染病，包括先天性感染...", "lemmaUrl": "http://baike.baidu.com/item/%E9%A3%8E%E7%96%B9/602060", "lemmaPic": []}, {"lemmaId": 661, "lemmaTitle": "支气管哮喘", "lemmaCroppedTitle": "支气管哮喘", "lemmaDesc": "支气管哮喘（bronchial asthma）是由多种细胞（如嗜酸性粒细胞、肥大...", "lemmaUrl": "http://baike.baidu.com/item/%E6%94%AF%E6%B0%94%E7%AE%A1%E5%93%AE%E5%96%98/661", "lemmaPic": []}, {"lemmaId": 7383517, "lemmaTitle": "阴茎短小", "lemmaCroppedTitle": "阴茎短小", "lemmaDesc": "一般成年男性的阴茎长度在软的时候是5～6厘米，勃起时长度是疲软时的2倍。如果阴茎...", "lemmaUrl": "http://baike.baidu.com/item/%E9%98%B4%E8%8C%8E%E7%9F%AD%E5%B0%8F/7383517", "lemmaPic": []}, {"lemmaId": 311, "lemmaTitle": "自闭症", "lemmaCroppedTitle": "自闭症", "lemmaDesc": "自闭症是一个医学名词，又称孤独症，被归类为一种由于神经系统失调导致的发育障碍，其...", "lemmaUrl": "http://baike.baidu.com/item/%E8%87%AA%E9%97%AD%E7%97%87/311", "lemmaPic": []}, {"lemmaId": 4865011, "lemmaTitle": "阿尔茨海默病", "lemmaCroppedTitle": "阿尔茨海默病", "lemmaDesc": "阿尔茨海默病（AD）是一种起病隐匿的进行性发展的神经系统退行性疾病。临床上以记忆...", "lemmaUrl": "http://baike.baidu.com/item/%E9%98%BF%E5%B0%94%E8%8C%A8%E6%B5%B7%E9%BB%98%E7%97%85/4865011", "lemmaPic": []}, {"lemmaId": 9547507, "lemmaTitle": "阴虚火旺", "lemmaCroppedTitle": "阴虚火旺", "lemmaDesc": "阴虚火旺（hyperactivity of fire due to yin de...", "lemmaUrl": "http://baike.baidu.com/item/%E9%98%B4%E8%99%9A%E7%81%AB%E6%97%BA/9547507", "lemmaPic": []}, {"lemmaId": 1422220, "lemmaTitle": "性冷淡", "lemmaCroppedTitle": "性冷淡", "lemmaDesc": "性冷淡是指性欲缺乏，通俗地讲即对性生活无兴趣，也有说是性欲减退。性冷淡与性快感缺...", "lemmaUrl": "http://baike.baidu.com/item/%E6%80%A7%E5%86%B7%E6%B7%A1/1422220", "lemmaPic": []}, {"lemmaId": 786309, "lemmaTitle": "前列腺增生", "lemmaCroppedTitle": "前列腺增生", "lemmaDesc": "前列腺增生（hyperplasia of prostate），常称作良性前列腺增...", "lemmaUrl": "http://baike.baidu.com/item/%E5%89%8D%E5%88%97%E8%85%BA%E5%A2%9E%E7%94%9F/786309", "lemmaPic": []}, {"lemmaId": 658362, "lemmaTitle": "中风", "lemmaCroppedTitle": "中风", "lemmaDesc": "中风，中医病名，有外风和内风之分，外风因感受外邪（风邪）所致，在《伤寒论》名曰中...", "lemmaUrl": "http://baike.baidu.com/item/%E4%B8%AD%E9%A3%8E/658362", "lemmaPic": []}, {"lemmaId": 555355, "lemmaTitle": "扁桃体炎", "lemmaCroppedTitle": "扁桃体炎", "lemmaDesc": "扁桃体炎可分为急性扁桃体炎和慢性扁桃体炎。患急性传染病（如猩红热、麻疹、流感、白...", "lemmaUrl": "http://baike.baidu.com/item/%E6%89%81%E6%A1%83%E4%BD%93%E7%82%8E/555355", "lemmaPic": []}, {"lemmaId": 102011, "lemmaTitle": "麻风病", "lemmaCroppedTitle": "麻风病", "lemmaDesc": "麻风是由麻风杆菌引起的一种慢性传染病，主要病变在皮肤和周围神经。临床表现为麻木性...", "lemmaUrl": "http://baike.baidu.com/item/%E9%BA%BB%E9%A3%8E%E7%97%85/102011", "lemmaPic": []}, {"lemmaId": 194927, "lemmaTitle": "类风湿关节炎", "lemmaCroppedTitle": "类风湿关节炎", "lemmaDesc": "类风湿关节炎（RA）是一种病因未明的慢性、以炎性滑膜炎为主的系统性疾病。其特征是...", "lemmaUrl": "http://baike.baidu.com/item/%E7%B1%BB%E9%A3%8E%E6%B9%BF%E5%85%B3%E8%8A%82%E7%82%8E/194927", "lemmaPic": []}, {"lemmaId": 1765326, "lemmaTitle": "血管瘤", "lemmaCroppedTitle": "血管瘤", "lemmaDesc": "血管瘤（hemangioma）是由胚胎期间成血管细胞增生而形成的常见于皮肤和软组...", "lemmaUrl": "http://baike.baidu.com/item/%E8%A1%80%E7%AE%A1%E7%98%A4/1765326", "lemmaPic": []}, {"lemmaId": 108428, "lemmaTitle": "脑出血", "lemmaCroppedTitle": "脑出血", "lemmaDesc": "脑出血（cerebral hemorrhage）是指非外伤性脑实质内血管破裂引起...", "lemmaUrl": "http://baike.baidu.com/item/%E8%84%91%E5%87%BA%E8%A1%80/108428", "lemmaPic": []}, {"lemmaId": 369918, "lemmaTitle": "肝炎", "lemmaCroppedTitle": "肝炎", "lemmaDesc": "肝炎是肝脏炎症的统称。通常是指由多种致病因素--如病毒、细菌、寄生虫、化学毒物、...", "lemmaUrl": "http://baike.baidu.com/item/%E8%82%9D%E7%82%8E/369918", "lemmaPic": []}, {"lemmaId": 1001, "lemmaTitle": "胰腺癌", "lemmaCroppedTitle": "胰腺癌", "lemmaDesc": "胰腺癌是一种恶性程度很高，诊断和治疗都很困难的消化道恶性肿瘤，约90%为起源于腺...", "lemmaUrl": "http://baike.baidu.com/item/%E8%83%B0%E8%85%BA%E7%99%8C/1001", "lemmaPic": []}, {"lemmaId": 5415589, "lemmaTitle": "十二指肠溃疡", "lemmaCroppedTitle": "十二指肠溃疡", "lemmaDesc": "十二指肠溃疡是我国人群中常见病、多发病之一，是消化性溃疡的常见类型。好发于气候变...", "lemmaUrl": "http://baike.baidu.com/item/%E5%8D%81%E4%BA%8C%E6%8C%87%E8%82%A0%E6%BA%83%E7%96%A1/5415589", "lemmaPic": []}, {"lemmaId": 321460, "lemmaTitle": "飞蚊症", "lemmaCroppedTitle": "飞蚊症", "lemmaDesc": "指眼前有飘动的小黑影，尤其看白色明亮的背景时更明显，还可能伴有闪光感。", "lemmaUrl": "http://baike.baidu.com/item/%E9%A3%9E%E8%9A%8A%E7%97%87/321460", "lemmaPic": []}, {"lemmaId": 2410816, "lemmaTitle": "玫瑰糠疹", "lemmaCroppedTitle": "玫瑰糠疹", "lemmaDesc": "玫瑰糠疹是常见的炎症性皮肤病，好发于躯干和四肢近端大小不等，数目不定玫瑰色斑片，...", "lemmaUrl": "http://baike.baidu.com/item/%E7%8E%AB%E7%91%B0%E7%B3%A0%E7%96%B9/2410816", "lemmaPic": []}, {"lemmaId": 1404388, "lemmaTitle": "幼儿急疹", "lemmaCroppedTitle": "幼儿急疹", "lemmaDesc": "幼儿急疹（exanthema subitum，ES）又称婴儿玫瑰疹（roseol...", "lemmaUrl": "http://baike.baidu.com/item/%E5%B9%BC%E5%84%BF%E6%80%A5%E7%96%B9/1404388", "lemmaPic": []}, {"lemmaId": 10006451, "lemmaTitle": "肾囊肿", "lemmaCroppedTitle": "肾囊肿", "lemmaDesc": "肾囊肿是成年人肾脏最常见的一种结构异常，可以为单侧或双侧，一个或多个，直径一般2...", "lemmaUrl": "http://baike.baidu.com/item/%E8%82%BE%E5%9B%8A%E8%82%BF/10006451", "lemmaPic": []}, {"lemmaId": 10482803, "lemmaTitle": "腰疼", "lemmaCroppedTitle": "腰疼", "lemmaDesc": "腰疼是一种十分常见的病症，主要表现为腰脊或脊两旁部位的急性或慢性疼痛。", "lemmaUrl": "http://baike.baidu.com/item/%E8%85%B0%E7%96%BC/10482803", "lemmaPic": []}, {"lemmaId": 1807917, "lemmaTitle": "胎动", "lemmaCroppedTitle": "胎动", "lemmaDesc": "胎动（Fetal movement），是指胎儿在子宫腔里的活动冲击到子宫壁的动作...", "lemmaUrl": "http://baike.baidu.com/item/%E8%83%8E%E5%8A%A8/1807917", "lemmaPic": []}, {"lemmaId": 9874978, "lemmaTitle": "药物流产", "lemmaCroppedTitle": "药物流产", "lemmaDesc": "药物流产又称药流，是指用米非司酮片加米索前列醇药物口服终止早期妊娠。近年来已广泛...", "lemmaUrl": "http://baike.baidu.com/item/%E8%8D%AF%E7%89%A9%E6%B5%81%E4%BA%A7/9874978", "lemmaPic": []}, {"lemmaId": 9769218, "lemmaTitle": "外阴瘙痒", "lemmaCroppedTitle": "外阴瘙痒", "lemmaDesc": "外阴瘙痒是妇科疾病中很常见的一种症状，外阴是特别敏感的部位，妇科多种病变及外来刺...", "lemmaUrl": "http://baike.baidu.com/item/%E5%A4%96%E9%98%B4%E7%98%99%E7%97%92/9769218", "lemmaPic": []}, {"lemmaId": 2250763, "lemmaTitle": "乙型病毒性肝炎", "lemmaCroppedTitle": "乙型病毒性肝炎", "lemmaDesc": "乙型病毒性肝炎（viral hepatitis type B）是由乙型肝炎病毒引...", "lemmaUrl": "http://baike.baidu.com/item/%E4%B9%99%E5%9E%8B%E7%97%85%E6%AF%92%E6%80%A7%E8%82%9D%E7%82%8E/2250763", "lemmaPic": []}, {"lemmaId": 8465650, "lemmaTitle": "糖尿病并发症", "lemmaCroppedTitle": "糖尿病并发症", "lemmaDesc": "糖尿病是一组由多病因引起的以慢性高血糖为特征的终身性代谢性疾病。长期血糖增高，大...", "lemmaUrl": "http://baike.baidu.com/item/%E7%B3%96%E5%B0%BF%E7%97%85%E5%B9%B6%E5%8F%91%E7%97%87/8465650", "lemmaPic": []}, {"lemmaId": 877131, "lemmaTitle": "落枕", "lemmaCroppedTitle": "落枕", "lemmaDesc": "落枕或称“失枕”，是一种常见病，好发于青壮年，以冬春季多见。落枕的常见发病经过是...", "lemmaUrl": "http://baike.baidu.com/item/%E8%90%BD%E6%9E%95/877131", "lemmaPic": []}, {"lemmaId": 1077402, "lemmaTitle": "肝火旺", "lemmaCroppedTitle": "肝火旺", "lemmaDesc": "肝火旺是中医特有的病名，是肝的阳气亢盛表现出来的热象。这里的肝并非指西医解剖学上...", "lemmaUrl": "http://baike.baidu.com/item/%E8%82%9D%E7%81%AB%E6%97%BA/1077402", "lemmaPic": []}, {"lemmaId": 813652, "lemmaTitle": "肺气肿", "lemmaCroppedTitle": "肺气肿", "lemmaDesc": "肺气肿是指终末细支气管远端的气道弹性减退，过度膨胀、充气和肺容积增大或同时伴有气...", "lemmaUrl": "http://baike.baidu.com/item/%E8%82%BA%E6%B0%94%E8%82%BF/813652", "lemmaPic": []}, {"lemmaId": 526526, "lemmaTitle": "散光", "lemmaCroppedTitle": "散光", "lemmaDesc": "散光（astigmatism）是眼睛的一种屈光不正常表现，与角膜的弧度有关。平行...", "lemmaUrl": "http://baike.baidu.com/item/%E6%95%A3%E5%85%89/526526", "lemmaPic": []}, {"lemmaId": 3157213, "lemmaTitle": "胃病", "lemmaCroppedTitle": "胃病", "lemmaDesc": "胃病，是许多与胃相关疾病的统称。它们有相似的症状，如上腹胃脘部不适、疼痛、饭后饱...", "lemmaUrl": "http://baike.baidu.com/item/%E8%83%83%E7%97%85/3157213", "lemmaPic": []}, {"lemmaId": 3893216, "lemmaTitle": "牙龈肿痛", "lemmaCroppedTitle": "牙龈肿痛", "lemmaDesc": "牙龈（gingiva）是指覆盖于牙槽突表面和牙颈部周围的口腔黏膜上皮及其下方的结...", "lemmaUrl": "http://baike.baidu.com/item/%E7%89%99%E9%BE%88%E8%82%BF%E7%97%9B/3893216", "lemmaPic": []}, {"lemmaId": 101491, "lemmaTitle": "附件炎", "lemmaCroppedTitle": "附件炎", "lemmaDesc": "女性内生殖器官中，输卵管、卵巢被称为附件。附件炎是指输卵管和卵巢的炎症。但输卵管...", "lemmaUrl": "http://baike.baidu.com/item/%E9%99%84%E4%BB%B6%E7%82%8E/101491", "lemmaPic": []}, {"lemmaId": 7253892, "lemmaTitle": "小儿唐氏综合征", "lemmaCroppedTitle": "小儿唐氏综合征", "lemmaDesc": "唐氏综合征即21-三体综合征，又称先天愚型或Down综合征，是由染色体异常（多了...", "lemmaUrl": "http://baike.baidu.com/item/%E5%B0%8F%E5%84%BF%E5%94%90%E6%B0%8F%E7%BB%BC%E5%90%88%E5%BE%81/7253892", "lemmaPic": []}, {"lemmaId": 2482887, "lemmaTitle": "梦魇", "lemmaCroppedTitle": "梦魇", "lemmaDesc": "梦魇俗称鬼压床，指在睡眠时，因梦中受惊吓而喊叫；或觉得有什么东西压在身上，不能动...", "lemmaUrl": "http://baike.baidu.com/item/%E6%A2%A6%E9%AD%87/2482887", "lemmaPic": []}, {"lemmaId": 1598678, "lemmaTitle": "结肠癌", "lemmaCroppedTitle": "结肠癌", "lemmaDesc": "结肠癌是常见的发生于结肠部位的消化道恶性肿瘤，好发于直肠与乙状结肠交界处，以40...", "lemmaUrl": "http://baike.baidu.com/item/%E7%BB%93%E8%82%A0%E7%99%8C/1598678", "lemmaPic": []}, {"lemmaId": 1648282, "lemmaTitle": "地中海贫血", "lemmaCroppedTitle": "地中海贫血", "lemmaDesc": "地中海贫血又称海洋性贫血，是一组遗传性溶血性贫血。其特点是由于珠蛋白基因的缺陷使...", "lemmaUrl": "http://baike.baidu.com/item/%E5%9C%B0%E4%B8%AD%E6%B5%B7%E8%B4%AB%E8%A1%80/1648282", "lemmaPic": []}, {"lemmaId": 15723, "lemmaTitle": "宿醉", "lemmaCroppedTitle": "宿醉", "lemmaDesc": "宿醉(hangover)，属于轻型急性酒精中毒，指由于短时间摄入大量酒精或含酒精...", "lemmaUrl": "http://baike.baidu.com/item/%E5%AE%BF%E9%86%89/15723", "lemmaPic": []}, {"lemmaId": 10283934, "lemmaTitle": "胸膜炎", "lemmaCroppedTitle": "胸膜炎", "lemmaDesc": "胸膜炎（pleurisy）是指由致病因素（通常为病毒或细菌）刺激胸膜所致的胸膜炎...", "lemmaUrl": "http://baike.baidu.com/item/%E8%83%B8%E8%86%9C%E7%82%8E/10283934", "lemmaPic": []}, {"lemmaId": 111943, "lemmaTitle": "气胸", "lemmaCroppedTitle": "气胸", "lemmaDesc": "气胸（pneumothorax）是指气体进入胸膜腔，造成积气状态，称为气胸。多因...", "lemmaUrl": "http://baike.baidu.com/item/%E6%B0%94%E8%83%B8/111943", "lemmaPic": []}], "total": 7246, "totalPage": 73, "page": 1, "fromLemma": 0}