{"lemmaList": [{"lemmaId": 3837409, "lemmaTitle": "多发性内分泌肿瘤综合征Ⅰ型", "lemmaCroppedTitle": "多发性内分泌肿瘤综合征Ⅰ型", "lemmaDesc": "多发性内分泌肿瘤综合征（MEN）：是一种累及多种内分泌器官的伴有常染色体显性遗传...", "lemmaUrl": "http://baike.baidu.com/item/%E5%A4%9A%E5%8F%91%E6%80%A7%E5%86%85%E5%88%86%E6%B3%8C%E8%82%BF%E7%98%A4%E7%BB%BC%E5%90%88%E5%BE%81%E2%85%A0%E5%9E%8B/3837409", "lemmaPic": []}, {"lemmaId": 4877221, "lemmaTitle": "散发性克汀病", "lemmaCroppedTitle": "散发性克汀病", "lemmaDesc": "散发性克汀病又称呆小病，见于非甲状腺肿流行地区。各国发病率不一，美国1987年报...", "lemmaUrl": "http://baike.baidu.com/item/%E6%95%A3%E5%8F%91%E6%80%A7%E5%85%8B%E6%B1%80%E7%97%85/4877221", "lemmaPic": []}, {"lemmaId": 10067276, "lemmaTitle": "色素性青光眼", "lemmaCroppedTitle": "色素性青光眼", "lemmaDesc": "色素性青光眼（PG）为中周部虹膜后凹并与晶状体悬韧带接触、摩擦导致虹膜后表面色素...", "lemmaUrl": "http://baike.baidu.com/item/%E8%89%B2%E7%B4%A0%E6%80%A7%E9%9D%92%E5%85%89%E7%9C%BC/10067276", "lemmaPic": []}, {"lemmaId": 4872924, "lemmaTitle": "胆囊管综合征", "lemmaCroppedTitle": "胆囊管综合征", "lemmaDesc": "胆囊管综合征系指胆囊管的不完全性、非结石性、机械性梗阻，引起胆汁排出不畅、胆囊内...", "lemmaUrl": "http://baike.baidu.com/item/%E8%83%86%E5%9B%8A%E7%AE%A1%E7%BB%BC%E5%90%88%E5%BE%81/4872924", "lemmaPic": []}, {"lemmaId": 768533, "lemmaTitle": "枢椎椎体骨折", "lemmaCroppedTitle": "枢椎椎体骨折", "lemmaDesc": "枢椎椎体骨折的报道不多，实际上这种损伤并非不常见。在本病的病例中，Ⅰ型骨折的患者...", "lemmaUrl": "http://baike.baidu.com/item/%E6%9E%A2%E6%A4%8E%E6%A4%8E%E4%BD%93%E9%AA%A8%E6%8A%98/768533", "lemmaPic": []}, {"lemmaId": 1098749, "lemmaTitle": "链杆菌病", "lemmaCroppedTitle": "链杆菌病", "lemmaDesc": "链杆菌病又名念珠状链杆菌性鼠咬热，由念珠状链杆菌所致者表现不规则发热，多有关节炎...", "lemmaUrl": "http://baike.baidu.com/item/%E9%93%BE%E6%9D%86%E8%8F%8C%E7%97%85/1098749", "lemmaPic": []}, {"lemmaId": 10232092, "lemmaTitle": "肝胆管结石病", "lemmaCroppedTitle": "肝胆管结石病", "lemmaDesc": "肝胆管结石病也称肝内胆管结石或原发性肝胆管结石，一般特指始发于肝内胆管系统的结石...", "lemmaUrl": "http://baike.baidu.com/item/%E8%82%9D%E8%83%86%E7%AE%A1%E7%BB%93%E7%9F%B3%E7%97%85/10232092", "lemmaPic": []}, {"lemmaId": 2163136, "lemmaTitle": "颈肋综合征", "lemmaCroppedTitle": "颈肋综合征", "lemmaDesc": "颈肋普遍存在于鱼类和爬行类动物，而在人类已经退化，颈肋是人体内一种异常解剖结构的...", "lemmaUrl": "http://baike.baidu.com/item/%E9%A2%88%E8%82%8B%E7%BB%BC%E5%90%88%E5%BE%81/2163136", "lemmaPic": []}, {"lemmaId": 7344412, "lemmaTitle": "颅内脊索瘤", "lemmaCroppedTitle": "颅内脊索瘤", "lemmaDesc": "脊索瘤是一种较为少见的原发性肿瘤，起源于胚胎残余的脊索组织，可发生在任何年龄，其...", "lemmaUrl": "http://baike.baidu.com/item/%E9%A2%85%E5%86%85%E8%84%8A%E7%B4%A2%E7%98%A4/7344412", "lemmaPic": []}, {"lemmaId": 8470477, "lemmaTitle": "丹毒丝菌病", "lemmaCroppedTitle": "丹毒丝菌病", "lemmaDesc": "丹毒丝菌病由红斑丹毒丝菌感染所致，临床表现最多的常为类丹毒型，是一种急性的但进展...", "lemmaUrl": "http://baike.baidu.com/item/%E4%B8%B9%E6%AF%92%E4%B8%9D%E8%8F%8C%E7%97%85/8470477", "lemmaPic": []}, {"lemmaId": 5086737, "lemmaTitle": "腰部慢性劳损", "lemmaCroppedTitle": "腰部慢性劳损", "lemmaDesc": "腰部慢性劳损实为腰部肌及其附着点筋膜、甚或骨膜的慢性损伤性炎症，为腰痛常见原因。...", "lemmaUrl": "http://baike.baidu.com/item/%E8%85%B0%E9%83%A8%E6%85%A2%E6%80%A7%E5%8A%B3%E6%8D%9F/5086737", "lemmaPic": []}, {"lemmaId": 393886, "lemmaTitle": "性兴奋障碍", "lemmaCroppedTitle": "性兴奋障碍", "lemmaDesc": "性兴奋障碍是指患者难以产生或维持进行满意的性交所需要的正常生理反应。在男性表现为...", "lemmaUrl": "http://baike.baidu.com/item/%E6%80%A7%E5%85%B4%E5%A5%8B%E9%9A%9C%E7%A2%8D/393886", "lemmaPic": []}, {"lemmaId": 12000424, "lemmaTitle": "黏膜相关淋巴组织淋巴瘤", "lemmaCroppedTitle": "黏膜相关淋巴组织淋巴瘤", "lemmaDesc": "黏膜相关淋巴组织（MALT）淋巴瘤是起源于黏膜相关淋巴组织的B细胞淋巴瘤，属非霍...", "lemmaUrl": "http://baike.baidu.com/item/%E9%BB%8F%E8%86%9C%E7%9B%B8%E5%85%B3%E6%B7%8B%E5%B7%B4%E7%BB%84%E7%BB%87%E6%B7%8B%E5%B7%B4%E7%98%A4/12000424", "lemmaPic": []}, {"lemmaId": 2203847, "lemmaTitle": "新生儿紫癜", "lemmaCroppedTitle": "新生儿紫癜", "lemmaDesc": "新生儿紫癜是指新生儿期的出血性疾患，不能视为一种独立性疾病，病因复杂。此病多见于...", "lemmaUrl": "http://baike.baidu.com/item/%E6%96%B0%E7%94%9F%E5%84%BF%E7%B4%AB%E7%99%9C/2203847", "lemmaPic": []}, {"lemmaId": 12810977, "lemmaTitle": "锤状趾、槌状趾、爪形趾", "lemmaCroppedTitle": "锤状趾、槌状趾、爪形趾", "lemmaDesc": "锤状趾是临床上最常见足趾畸形，是指跖趾关节和远侧趾间关节伸直而近侧趾间关节屈曲，...", "lemmaUrl": "http://baike.baidu.com/item/%E9%94%A4%E7%8A%B6%E8%B6%BE%E3%80%81%E6%A7%8C%E7%8A%B6%E8%B6%BE%E3%80%81%E7%88%AA%E5%BD%A2%E8%B6%BE/12810977", "lemmaPic": []}, {"lemmaId": 1979937, "lemmaTitle": "神经系统遗传病", "lemmaCroppedTitle": "神经系统遗传病", "lemmaDesc": "神经系统遗传性疾病是由于生殖细胞或受精卵遗传物质的数量、结构或功能改变，使发育的...", "lemmaUrl": "http://baike.baidu.com/item/%E7%A5%9E%E7%BB%8F%E7%B3%BB%E7%BB%9F%E9%81%97%E4%BC%A0%E7%97%85/1979937", "lemmaPic": []}, {"lemmaId": 2601011, "lemmaTitle": "乙状窦血栓性静脉炎", "lemmaCroppedTitle": "乙状窦血栓性静脉炎", "lemmaDesc": "乙状窦血栓性静脉炎是伴有血栓形成的乙状窦静脉炎，为常见的耳源性颅内并发症。", "lemmaUrl": "http://baike.baidu.com/item/%E4%B9%99%E7%8A%B6%E7%AA%A6%E8%A1%80%E6%A0%93%E6%80%A7%E9%9D%99%E8%84%89%E7%82%8E/2601011", "lemmaPic": []}, {"lemmaId": 8156982, "lemmaTitle": "骨的恶性纤维组织细胞瘤", "lemmaCroppedTitle": "骨的恶性纤维组织细胞瘤", "lemmaDesc": "恶性纤维组织细胞瘤（MFH）常发生于深层软组织，原发于骨内者少见。过去，骨的恶性...", "lemmaUrl": "http://baike.baidu.com/item/%E9%AA%A8%E7%9A%84%E6%81%B6%E6%80%A7%E7%BA%A4%E7%BB%B4%E7%BB%84%E7%BB%87%E7%BB%86%E8%83%9E%E7%98%A4/8156982", "lemmaPic": []}, {"lemmaId": 11036319, "lemmaTitle": "持久性隆起性红斑", "lemmaCroppedTitle": "持久性隆起性红斑", "lemmaDesc": "是一种罕见的皮肤小血管炎，临床表现以好发于肢体伸侧、持续存在的紫红色或棕红色丘疹...", "lemmaUrl": "http://baike.baidu.com/item/%E6%8C%81%E4%B9%85%E6%80%A7%E9%9A%86%E8%B5%B7%E6%80%A7%E7%BA%A2%E6%96%91/11036319", "lemmaPic": []}, {"lemmaId": 2908295, "lemmaTitle": "裂沟舌", "lemmaCroppedTitle": "裂沟舌", "lemmaDesc": "裂沟舌又称阴囊舌、裂纹舌、沟纹舌。往往合并地图舌，易患传染性口角炎，并在Down...", "lemmaUrl": "http://baike.baidu.com/item/%E8%A3%82%E6%B2%9F%E8%88%8C/2908295", "lemmaPic": []}, {"lemmaId": 4002516, "lemmaTitle": "婴幼儿型内斜视", "lemmaCroppedTitle": "婴幼儿型内斜视", "lemmaDesc": "婴幼儿型内斜视是指出生后6个月内发病的内斜视。又称先天性内斜视。也有人称为先天性...", "lemmaUrl": "http://baike.baidu.com/item/%E5%A9%B4%E5%B9%BC%E5%84%BF%E5%9E%8B%E5%86%85%E6%96%9C%E8%A7%86/4002516", "lemmaPic": []}, {"lemmaId": 10652089, "lemmaTitle": "高度房室传导阻滞", "lemmaCroppedTitle": "高度房室传导阻滞", "lemmaDesc": "高度房室传导阻滞是指房室传导比例超过2：1的房室传导阻滞，表现为3：1、4：1、...", "lemmaUrl": "http://baike.baidu.com/item/%E9%AB%98%E5%BA%A6%E6%88%BF%E5%AE%A4%E4%BC%A0%E5%AF%BC%E9%98%BB%E6%BB%9E/10652089", "lemmaPic": []}, {"lemmaId": 10809519, "lemmaTitle": "乳发", "lemmaCroppedTitle": "乳发", "lemmaDesc": "乳发指乳房或胸肌之内易于腐烂坏死的化脓性感染。男女均可发病，多由胃腑湿火相凝而致...", "lemmaUrl": "http://baike.baidu.com/item/%E4%B9%B3%E5%8F%91/10809519", "lemmaPic": []}, {"lemmaId": 3517473, "lemmaTitle": "松毛虫皮炎", "lemmaCroppedTitle": "松毛虫皮炎", "lemmaDesc": "松毛虫皮炎是指接触松毛虫体的毒毛后引起的一种急性皮炎，常伴有关节损害，多见于参加...", "lemmaUrl": "http://baike.baidu.com/item/%E6%9D%BE%E6%AF%9B%E8%99%AB%E7%9A%AE%E7%82%8E/3517473", "lemmaPic": []}, {"lemmaId": 6000407, "lemmaTitle": "久疟", "lemmaCroppedTitle": "久疟", "lemmaDesc": "中医病证，指发作日久不愈之疟疾。疟疾又名疟、疟病、久疟、瘴疟。以往来寒热，休作有...", "lemmaUrl": "http://baike.baidu.com/item/%E4%B9%85%E7%96%9F/6000407", "lemmaPic": []}, {"lemmaId": 5086500, "lemmaTitle": "进行性脊髓性肌萎缩症", "lemmaCroppedTitle": "进行性脊髓性肌萎缩症", "lemmaDesc": "为运动神经元疾病，变性限于脊髓前角α运动神经元。特点是进行肌萎缩和肌软弱，通常自...", "lemmaUrl": "http://baike.baidu.com/item/%E8%BF%9B%E8%A1%8C%E6%80%A7%E8%84%8A%E9%AB%93%E6%80%A7%E8%82%8C%E8%90%8E%E7%BC%A9%E7%97%87/5086500", "lemmaPic": []}, {"lemmaId": 2312144, "lemmaTitle": "大肠恶性淋巴瘤", "lemmaCroppedTitle": "大肠恶性淋巴瘤", "lemmaDesc": "恶性淋巴瘤是起源于淋巴网状组织的一种恶性肿瘤。大肠恶性淋巴瘤起病隐匿，早期缺乏特...", "lemmaUrl": "http://baike.baidu.com/item/%E5%A4%A7%E8%82%A0%E6%81%B6%E6%80%A7%E6%B7%8B%E5%B7%B4%E7%98%A4/2312144", "lemmaPic": []}, {"lemmaId": 5054101, "lemmaTitle": "皮下脂质肉芽肿病", "lemmaCroppedTitle": "皮下脂质肉芽肿病", "lemmaDesc": "皮下脂质肉芽肿病，又名Rothmann-Makai综合征。1984年首次报告，1...", "lemmaUrl": "http://baike.baidu.com/item/%E7%9A%AE%E4%B8%8B%E8%84%82%E8%B4%A8%E8%82%89%E8%8A%BD%E8%82%BF%E7%97%85/5054101", "lemmaPic": []}, {"lemmaId": 5623204, "lemmaTitle": "小儿胆道蛔虫症", "lemmaCroppedTitle": "小儿胆道蛔虫症", "lemmaDesc": "胆道蛔虫症是蛔虫钻入胆道引起的疾病。胆道蛔虫症是人类尤其是儿童常见的寄生虫病。在...", "lemmaUrl": "http://baike.baidu.com/item/%E5%B0%8F%E5%84%BF%E8%83%86%E9%81%93%E8%9B%94%E8%99%AB%E7%97%87/5623204", "lemmaPic": []}, {"lemmaId": 2093521, "lemmaTitle": "黑色丘疹性皮肤病", "lemmaCroppedTitle": "黑色丘疹性皮肤病", "lemmaDesc": "黑色丘疹性皮肤病可能是表皮痣的一种。多发于黑人，以7岁至青春期好发，成人发病少见...", "lemmaUrl": "http://baike.baidu.com/item/%E9%BB%91%E8%89%B2%E4%B8%98%E7%96%B9%E6%80%A7%E7%9A%AE%E8%82%A4%E7%97%85/2093521", "lemmaPic": []}, {"lemmaId": 5053444, "lemmaTitle": "单纯性肺嗜酸粒细胞浸润症", "lemmaCroppedTitle": "单纯性肺嗜酸粒细胞浸润症", "lemmaDesc": "吕弗琉于1932年首先描述本病，故又名吕弗琉综合征。其特点为游走性肺部浸润伴外周...", "lemmaUrl": "http://baike.baidu.com/item/%E5%8D%95%E7%BA%AF%E6%80%A7%E8%82%BA%E5%97%9C%E9%85%B8%E7%B2%92%E7%BB%86%E8%83%9E%E6%B5%B8%E6%B6%A6%E7%97%87/5053444", "lemmaPic": []}, {"lemmaId": 821411, "lemmaTitle": "肘关节结核", "lemmaCroppedTitle": "肘关节结核", "lemmaDesc": "肘关节结核较常见，在上肢三大关节中居首位，患者以青壮年多见，无明显性别差异，双侧...", "lemmaUrl": "http://baike.baidu.com/item/%E8%82%98%E5%85%B3%E8%8A%82%E7%BB%93%E6%A0%B8/821411", "lemmaPic": []}, {"lemmaId": 2908370, "lemmaTitle": "小儿心内膜弹力纤维增生症", "lemmaCroppedTitle": "小儿心内膜弹力纤维增生症", "lemmaDesc": "小儿心内膜弹力纤维增生症（endomyocardial fibroelastos...", "lemmaUrl": "http://baike.baidu.com/item/%E5%B0%8F%E5%84%BF%E5%BF%83%E5%86%85%E8%86%9C%E5%BC%B9%E5%8A%9B%E7%BA%A4%E7%BB%B4%E5%A2%9E%E7%94%9F%E7%97%87/2908370", "lemmaPic": []}, {"lemmaId": 4894714, "lemmaTitle": "重症肌无力样综合征", "lemmaCroppedTitle": "重症肌无力样综合征", "lemmaDesc": "重症肌无力样综合征是指各种因素导致神经-肌肉接头（NMJ）突触后膜上乙酰胆碱受体...", "lemmaUrl": "http://baike.baidu.com/item/%E9%87%8D%E7%97%87%E8%82%8C%E6%97%A0%E5%8A%9B%E6%A0%B7%E7%BB%BC%E5%90%88%E5%BE%81/4894714", "lemmaPic": []}, {"lemmaId": 3220791, "lemmaTitle": "产力异常性难产", "lemmaCroppedTitle": "产力异常性难产", "lemmaDesc": "产力异常指子宫收缩力异常，常致难产。子宫收缩力异常可以是原发性的，也可以是由于产...", "lemmaUrl": "http://baike.baidu.com/item/%E4%BA%A7%E5%8A%9B%E5%BC%82%E5%B8%B8%E6%80%A7%E9%9A%BE%E4%BA%A7/3220791", "lemmaPic": []}, {"lemmaId": 9236028, "lemmaTitle": "免疫介导性肾脏病", "lemmaCroppedTitle": "免疫介导性肾脏病", "lemmaDesc": "免疫介导性肾脏病是指由机体免疫功能异常导致的肾小球、血管和小管间质等损伤的疾病。...", "lemmaUrl": "http://baike.baidu.com/item/%E5%85%8D%E7%96%AB%E4%BB%8B%E5%AF%BC%E6%80%A7%E8%82%BE%E8%84%8F%E7%97%85/9236028", "lemmaPic": []}, {"lemmaId": 12093411, "lemmaTitle": "无症状性血尿或（和）蛋白尿", "lemmaCroppedTitle": "无症状性血尿或（和）蛋白尿", "lemmaDesc": "无症状性血尿和（或）蛋白尿，既往国内称为隐匿型肾小球肾炎，系指无水肿、高血压及肾...", "lemmaUrl": "http://baike.baidu.com/item/%E6%97%A0%E7%97%87%E7%8A%B6%E6%80%A7%E8%A1%80%E5%B0%BF%E6%88%96%EF%BC%88%E5%92%8C%EF%BC%89%E8%9B%8B%E7%99%BD%E5%B0%BF/12093411", "lemmaPic": []}, {"lemmaId": 5243106, "lemmaTitle": "内分泌性眼球突出", "lemmaCroppedTitle": "内分泌性眼球突出", "lemmaDesc": "内分泌性眼球突出包括甲状腺相关、肢端肥大症相关和肾上腺皮质功能亢进相关，但临床上...", "lemmaUrl": "http://baike.baidu.com/item/%E5%86%85%E5%88%86%E6%B3%8C%E6%80%A7%E7%9C%BC%E7%90%83%E7%AA%81%E5%87%BA/5243106", "lemmaPic": []}, {"lemmaId": 10729190, "lemmaTitle": "齿状突发育畸形", "lemmaCroppedTitle": "齿状突发育畸形", "lemmaDesc": "齿状突发育畸形可分为齿突发育不良、齿状突分离（齿突骨）和齿状突缺如三种，其中齿状...", "lemmaUrl": "http://baike.baidu.com/item/%E9%BD%BF%E7%8A%B6%E7%AA%81%E5%8F%91%E8%82%B2%E7%95%B8%E5%BD%A2/10729190", "lemmaPic": []}, {"lemmaId": 1535750, "lemmaTitle": "肥大性龈炎", "lemmaCroppedTitle": "肥大性龈炎", "lemmaDesc": "肥大性龈炎是牙龈组织受到长期局部刺激所引起的慢性炎症。表现以牙龈明显炎性肿胀、增...", "lemmaUrl": "http://baike.baidu.com/item/%E8%82%A5%E5%A4%A7%E6%80%A7%E9%BE%88%E7%82%8E/1535750", "lemmaPic": []}, {"lemmaId": 6638414, "lemmaTitle": "膀胱鳞状细胞癌", "lemmaCroppedTitle": "膀胱鳞状细胞癌", "lemmaDesc": "起源于膀胱黏膜的上皮性恶性肿瘤，显微镜下癌细胞为单一的鳞状细胞表型，简称膀胱鳞癌...", "lemmaUrl": "http://baike.baidu.com/item/%E8%86%80%E8%83%B1%E9%B3%9E%E7%8A%B6%E7%BB%86%E8%83%9E%E7%99%8C/6638414", "lemmaPic": []}, {"lemmaId": 6861488, "lemmaTitle": "视网膜下新生血管膜", "lemmaCroppedTitle": "视网膜下新生血管膜", "lemmaDesc": "黄斑部视网膜下新生血管膜，是由多种病因所致的脉络膜新生血管芽穿越Bruch膜并在...", "lemmaUrl": "http://baike.baidu.com/item/%E8%A7%86%E7%BD%91%E8%86%9C%E4%B8%8B%E6%96%B0%E7%94%9F%E8%A1%80%E7%AE%A1%E8%86%9C/6861488", "lemmaPic": []}, {"lemmaId": 2095350, "lemmaTitle": "肝动脉瘤", "lemmaCroppedTitle": "肝动脉瘤", "lemmaDesc": "肝动脉瘤是肝动脉及其分支扩张形成的动脉瘤，发病率在内脏动脉瘤中居第二位，多为单发...", "lemmaUrl": "http://baike.baidu.com/item/%E8%82%9D%E5%8A%A8%E8%84%89%E7%98%A4/2095350", "lemmaPic": []}, {"lemmaId": 245457, "lemmaTitle": "近端肾小管性酸中毒", "lemmaCroppedTitle": "近端肾小管性酸中毒", "lemmaDesc": "近端肾小管性酸中毒（PRTA）又称Ⅱ型PRTA。本病是由于近端肾小管重吸收HCO...", "lemmaUrl": "http://baike.baidu.com/item/%E8%BF%91%E7%AB%AF%E8%82%BE%E5%B0%8F%E7%AE%A1%E6%80%A7%E9%85%B8%E4%B8%AD%E6%AF%92/245457", "lemmaPic": []}, {"lemmaId": 1122977, "lemmaTitle": "中毒性弱视", "lemmaCroppedTitle": "中毒性弱视", "lemmaDesc": "本病分为烟酒中毒性和药物中毒性视神经病变，而烟酒中毒性视神经病变又称烟酒中毒性弱...", "lemmaUrl": "http://baike.baidu.com/item/%E4%B8%AD%E6%AF%92%E6%80%A7%E5%BC%B1%E8%A7%86/1122977", "lemmaPic": []}, {"lemmaId": 5554251, "lemmaTitle": "结直肠血管瘤", "lemmaCroppedTitle": "结直肠血管瘤", "lemmaDesc": "结直肠血管瘤是一种先天性非遗传性疾病，临床少见。因其非进行性生长的特点，通常认为...", "lemmaUrl": "http://baike.baidu.com/item/%E7%BB%93%E7%9B%B4%E8%82%A0%E8%A1%80%E7%AE%A1%E7%98%A4/5554251", "lemmaPic": []}, {"lemmaId": 5358915, "lemmaTitle": "小儿慢性肾功能衰竭", "lemmaCroppedTitle": "小儿慢性肾功能衰竭", "lemmaDesc": "慢性肾功能衰竭简称慢性肾衰，由于肾单位受到破坏而减少，致使肾脏排泄调节功能和内分...", "lemmaUrl": "http://baike.baidu.com/item/%E5%B0%8F%E5%84%BF%E6%85%A2%E6%80%A7%E8%82%BE%E5%8A%9F%E8%83%BD%E8%A1%B0%E7%AB%AD/5358915", "lemmaPic": []}, {"lemmaId": 6093365, "lemmaTitle": "肠道气囊肿症", "lemmaCroppedTitle": "肠道气囊肿症", "lemmaDesc": "肠道气囊肿症是指在肠道黏膜下或浆膜上存在很多气囊的一种少见疾病。气囊肿最多见于小...", "lemmaUrl": "http://baike.baidu.com/item/%E8%82%A0%E9%81%93%E6%B0%94%E5%9B%8A%E8%82%BF%E7%97%87/6093365", "lemmaPic": []}, {"lemmaId": 10334808, "lemmaTitle": "多发脑梗死性痴呆", "lemmaCroppedTitle": "多发脑梗死性痴呆", "lemmaDesc": "多发脑梗死性痴呆（MID）是血管性痴呆最常见的类型，占39.4%。由于反复发生卒...", "lemmaUrl": "http://baike.baidu.com/item/%E5%A4%9A%E5%8F%91%E8%84%91%E6%A2%97%E6%AD%BB%E6%80%A7%E7%97%B4%E5%91%86/10334808", "lemmaPic": []}, {"lemmaId": 4406976, "lemmaTitle": "原发性脾淋巴瘤", "lemmaCroppedTitle": "原发性脾淋巴瘤", "lemmaDesc": "原发性脾脏淋巴瘤（PSL）是一种罕见的恶性淋巴瘤表现形式。病变只涉及脾脏和脾门淋...", "lemmaUrl": "http://baike.baidu.com/item/%E5%8E%9F%E5%8F%91%E6%80%A7%E8%84%BE%E6%B7%8B%E5%B7%B4%E7%98%A4/4406976", "lemmaPic": []}, {"lemmaId": 3881303, "lemmaTitle": "面肌瘫痪", "lemmaCroppedTitle": "面肌瘫痪", "lemmaDesc": "颜面肌分表情肌和咀嚼肌两部分，前者由面神经支配，后者由三叉神经运动支支配。此处所...", "lemmaUrl": "http://baike.baidu.com/item/%E9%9D%A2%E8%82%8C%E7%98%AB%E7%97%AA/3881303", "lemmaPic": []}, {"lemmaId": 2487733, "lemmaTitle": "小儿分离性焦虑症", "lemmaCroppedTitle": "小儿分离性焦虑症", "lemmaDesc": "小儿分离性焦虑症是儿童时期较常见的一种情绪障碍，离开家或亲人时出现发作性紧张、莫...", "lemmaUrl": "http://baike.baidu.com/item/%E5%B0%8F%E5%84%BF%E5%88%86%E7%A6%BB%E6%80%A7%E7%84%A6%E8%99%91%E7%97%87/2487733", "lemmaPic": []}, {"lemmaId": 584423, "lemmaTitle": "卵巢宫内膜样肿瘤", "lemmaCroppedTitle": "卵巢宫内膜样肿瘤", "lemmaDesc": "卵巢宫内膜样肿瘤的组织结构具有子宫内膜上皮和（或）间质相似的特点，可来自异位的子...", "lemmaUrl": "http://baike.baidu.com/item/%E5%8D%B5%E5%B7%A2%E5%AE%AB%E5%86%85%E8%86%9C%E6%A0%B7%E8%82%BF%E7%98%A4/584423", "lemmaPic": []}, {"lemmaId": 9399839, "lemmaTitle": "肺螨病", "lemmaCroppedTitle": "肺螨病", "lemmaDesc": "肺螨病是由嗜肺螨类随空气、水和食物侵入机体，经呼吸道并寄生于肺部而引起的肺寄生虫...", "lemmaUrl": "http://baike.baidu.com/item/%E8%82%BA%E8%9E%A8%E7%97%85/9399839", "lemmaPic": []}, {"lemmaId": 6460840, "lemmaTitle": "后天性三尖瓣关闭不全", "lemmaCroppedTitle": "后天性三尖瓣关闭不全", "lemmaDesc": "三尖瓣关闭不全可有相对性和器质性两种。相对性者，瓣膜本身并无病变，而是右心室肥大...", "lemmaUrl": "http://baike.baidu.com/item/%E5%90%8E%E5%A4%A9%E6%80%A7%E4%B8%89%E5%B0%96%E7%93%A3%E5%85%B3%E9%97%AD%E4%B8%8D%E5%85%A8/6460840", "lemmaPic": []}, {"lemmaId": 7850299, "lemmaTitle": "手部伸肌腱损伤", "lemmaCroppedTitle": "手部伸肌腱损伤", "lemmaDesc": "手部的肌腱系统大致上可以分为屈肌腱系统和伸肌腱系统，伸肌腱系统又可大致分为伸腕肌...", "lemmaUrl": "http://baike.baidu.com/item/%E6%89%8B%E9%83%A8%E4%BC%B8%E8%82%8C%E8%85%B1%E6%8D%9F%E4%BC%A4/7850299", "lemmaPic": []}, {"lemmaId": 12677365, "lemmaTitle": "吸烟中毒症", "lemmaCroppedTitle": "吸烟中毒症", "lemmaDesc": "吸烟中毒症是指因长期吸烟对人体所造成的种种病变，也可称“尼古丁中毒症”。", "lemmaUrl": "http://baike.baidu.com/item/%E5%90%B8%E7%83%9F%E4%B8%AD%E6%AF%92%E7%97%87/12677365", "lemmaPic": []}, {"lemmaId": 5085578, "lemmaTitle": "复合型酸碱失衡", "lemmaCroppedTitle": "复合型酸碱失衡", "lemmaDesc": "混合性酸碱平衡失常是指同时存在两种或两种以上的单纯性酸碱平衡失常。混合性酸碱失常...", "lemmaUrl": "http://baike.baidu.com/item/%E5%A4%8D%E5%90%88%E5%9E%8B%E9%85%B8%E7%A2%B1%E5%A4%B1%E8%A1%A1/5085578", "lemmaPic": []}, {"lemmaId": 894948, "lemmaTitle": "上颌后缩", "lemmaCroppedTitle": "上颌后缩", "lemmaDesc": "上颌后缩主要是指上颌后缩，下颌位置基本正常，前牙反牙合，后牙近中合。上颌后缩是由...", "lemmaUrl": "http://baike.baidu.com/item/%E4%B8%8A%E9%A2%8C%E5%90%8E%E7%BC%A9/894948", "lemmaPic": []}, {"lemmaId": 1607982, "lemmaTitle": "痰积", "lemmaCroppedTitle": "痰积", "lemmaDesc": "积聚是由于体虚复感外邪，情志饮食所伤，以及它病日久不愈等原因引起的，以正气亏虚，...", "lemmaUrl": "http://baike.baidu.com/item/%E7%97%B0%E7%A7%AF/1607982", "lemmaPic": []}, {"lemmaId": 10336264, "lemmaTitle": "骨外骨肉瘤", "lemmaCroppedTitle": "骨外骨肉瘤", "lemmaDesc": "骨外骨肉瘤是指发生在骨组织以外的骨肉瘤，为少见的软组织肿瘤。本病好发于40岁以上...", "lemmaUrl": "http://baike.baidu.com/item/%E9%AA%A8%E5%A4%96%E9%AA%A8%E8%82%89%E7%98%A4/10336264", "lemmaPic": []}, {"lemmaId": 5085731, "lemmaTitle": "骨包囊虫病", "lemmaCroppedTitle": "骨包囊虫病", "lemmaDesc": "骨包囊虫病是指细粒棘球绦虫的幼虫（棘球蚴）寄生于骨骼中的寄生虫病。该病发生于畜牧...", "lemmaUrl": "http://baike.baidu.com/item/%E9%AA%A8%E5%8C%85%E5%9B%8A%E8%99%AB%E7%97%85/5085731", "lemmaPic": []}, {"lemmaId": 7839595, "lemmaTitle": "中毒性眩晕", "lemmaCroppedTitle": "中毒性眩晕", "lemmaDesc": "眩晕是指身体对于空间关系的定向感觉障碍或平衡感觉障碍的一种运动错觉，病人感到外境...", "lemmaUrl": "http://baike.baidu.com/item/%E4%B8%AD%E6%AF%92%E6%80%A7%E7%9C%A9%E6%99%95/7839595", "lemmaPic": []}, {"lemmaId": 3992762, "lemmaTitle": "嗜酸粒细胞白血病", "lemmaCroppedTitle": "嗜酸粒细胞白血病", "lemmaDesc": "嗜酸粒细胞白血病是一种罕见的白血病，其特征为外周血及骨髓中嗜酸粒细胞明显增多，且...", "lemmaUrl": "http://baike.baidu.com/item/%E5%97%9C%E9%85%B8%E7%B2%92%E7%BB%86%E8%83%9E%E7%99%BD%E8%A1%80%E7%97%85/3992762", "lemmaPic": []}, {"lemmaId": 10778438, "lemmaTitle": "下颌下间隙感染", "lemmaCroppedTitle": "下颌下间隙感染", "lemmaDesc": "颌下间隙感染是指颌下间隙急性化脓性感染，主要临床表现有颌下区丰满，淋巴结肿、压痛...", "lemmaUrl": "http://baike.baidu.com/item/%E4%B8%8B%E9%A2%8C%E4%B8%8B%E9%97%B4%E9%9A%99%E6%84%9F%E6%9F%93/10778438", "lemmaPic": []}, {"lemmaId": 2728137, "lemmaTitle": "手部肌腱损伤", "lemmaCroppedTitle": "手部肌腱损伤", "lemmaDesc": "手部肌腱损伤多为开放性，以切割伤较多，常合并指神经伤或骨折等，也可有闭合性撕裂。...", "lemmaUrl": "http://baike.baidu.com/item/%E6%89%8B%E9%83%A8%E8%82%8C%E8%85%B1%E6%8D%9F%E4%BC%A4/2728137", "lemmaPic": []}, {"lemmaId": 6451454, "lemmaTitle": "肺动静脉瘤", "lemmaCroppedTitle": "肺动静脉瘤", "lemmaDesc": "肺动静脉瘤，为先天性肺血管畸形血管扩大迂曲或形成海绵状血管瘤，肺动脉血液不经过肺...", "lemmaUrl": "http://baike.baidu.com/item/%E8%82%BA%E5%8A%A8%E9%9D%99%E8%84%89%E7%98%A4/6451454", "lemmaPic": []}, {"lemmaId": 8470366, "lemmaTitle": "混合性厌氧菌感染", "lemmaCroppedTitle": "混合性厌氧菌感染", "lemmaDesc": "混合性厌氧菌感染指数以百计的存在于皮肤、口腔、肠道和阴道的非产芽胞的正常厌氧菌群...", "lemmaUrl": "http://baike.baidu.com/item/%E6%B7%B7%E5%90%88%E6%80%A7%E5%8E%8C%E6%B0%A7%E8%8F%8C%E6%84%9F%E6%9F%93/8470366", "lemmaPic": []}, {"lemmaId": 3356232, "lemmaTitle": "妊娠合并肾病综合征", "lemmaCroppedTitle": "妊娠合并肾病综合征", "lemmaDesc": "妊娠合并肾病综合征，是妊娠期高血压疾病高危妊娠常见的并发症。患者可出现高蛋白尿、...", "lemmaUrl": "http://baike.baidu.com/item/%E5%A6%8A%E5%A8%A0%E5%90%88%E5%B9%B6%E8%82%BE%E7%97%85%E7%BB%BC%E5%90%88%E5%BE%81/3356232", "lemmaPic": []}, {"lemmaId": 9271105, "lemmaTitle": "脑型疟疾", "lemmaCroppedTitle": "脑型疟疾", "lemmaDesc": "脑型疟疾是一种常见而且严重的中枢神经系统感染，在发展中国家，脑型疟疾是导致死亡和...", "lemmaUrl": "http://baike.baidu.com/item/%E8%84%91%E5%9E%8B%E7%96%9F%E7%96%BE/9271105", "lemmaPic": []}, {"lemmaId": 2558198, "lemmaTitle": "疼痛性眼肌麻痹", "lemmaCroppedTitle": "疼痛性眼肌麻痹", "lemmaDesc": "疼痛性眼肌麻痹是一种海绵窦及其附近的非特异性慢性炎症，以球后剧痛和眼肌麻痹为其特...", "lemmaUrl": "http://baike.baidu.com/item/%E7%96%BC%E7%97%9B%E6%80%A7%E7%9C%BC%E8%82%8C%E9%BA%BB%E7%97%B9/2558198", "lemmaPic": []}, {"lemmaId": 2908187, "lemmaTitle": "小儿先天性主动脉瓣狭窄", "lemmaCroppedTitle": "小儿先天性主动脉瓣狭窄", "lemmaDesc": "先天性主动脉瓣狭窄，约占先天性心脏病发病率的第6位，是胚胎期主动脉瓣互相融合呈多...", "lemmaUrl": "http://baike.baidu.com/item/%E5%B0%8F%E5%84%BF%E5%85%88%E5%A4%A9%E6%80%A7%E4%B8%BB%E5%8A%A8%E8%84%89%E7%93%A3%E7%8B%AD%E7%AA%84/2908187", "lemmaPic": []}, {"lemmaId": 10226320, "lemmaTitle": "感染性湿疹", "lemmaCroppedTitle": "感染性湿疹", "lemmaDesc": "感染性湿疹，曾称传染性湿疹样皮炎，是在感染性病灶基础上发生的一种局限性急性湿疹样...", "lemmaUrl": "http://baike.baidu.com/item/%E6%84%9F%E6%9F%93%E6%80%A7%E6%B9%BF%E7%96%B9/10226320", "lemmaPic": []}, {"lemmaId": 3909762, "lemmaTitle": "踝关节结核", "lemmaCroppedTitle": "踝关节结核", "lemmaDesc": "踝关节周围软组织较少，踝部脓肿极易穿破皮肤，形成窦道，长期发生混合感染，窦道可以...", "lemmaUrl": "http://baike.baidu.com/item/%E8%B8%9D%E5%85%B3%E8%8A%82%E7%BB%93%E6%A0%B8/3909762", "lemmaPic": []}, {"lemmaId": 8849918, "lemmaTitle": "进行性脂肪营养不良", "lemmaCroppedTitle": "进行性脂肪营养不良", "lemmaDesc": "进行性脂肪营养不良是一种罕见的以脂肪组织代谢障碍为特征的自主神经系统疾病。临床及...", "lemmaUrl": "http://baike.baidu.com/item/%E8%BF%9B%E8%A1%8C%E6%80%A7%E8%84%82%E8%82%AA%E8%90%A5%E5%85%BB%E4%B8%8D%E8%89%AF/8849918", "lemmaPic": []}, {"lemmaId": 5120459, "lemmaTitle": "左心室双出口", "lemmaCroppedTitle": "左心室双出口", "lemmaDesc": "左心室双出口涵义为两根大动脉均起源于左心室，两根动脉开口位于同一平面，双侧圆锥及...", "lemmaUrl": "http://baike.baidu.com/item/%E5%B7%A6%E5%BF%83%E5%AE%A4%E5%8F%8C%E5%87%BA%E5%8F%A3/5120459", "lemmaPic": []}, {"lemmaId": 5317186, "lemmaTitle": "化学性眼外伤", "lemmaCroppedTitle": "化学性眼外伤", "lemmaDesc": "化学性眼外伤是由于化学物质接触眼部引起的眼部组织损伤。最常见为酸性和碱性烧伤，化...", "lemmaUrl": "http://baike.baidu.com/item/%E5%8C%96%E5%AD%A6%E6%80%A7%E7%9C%BC%E5%A4%96%E4%BC%A4/5317186", "lemmaPic": []}, {"lemmaId": 3598145, "lemmaTitle": "玻璃体猪囊虫病", "lemmaCroppedTitle": "玻璃体猪囊虫病", "lemmaDesc": "猪囊绦虫的囊尾蚴随血流经过脉络膜血管进入视网膜下，然后进入玻璃体内，形成玻璃体猪...", "lemmaUrl": "http://baike.baidu.com/item/%E7%8E%BB%E7%92%83%E4%BD%93%E7%8C%AA%E5%9B%8A%E8%99%AB%E7%97%85/3598145", "lemmaPic": []}, {"lemmaId": 6984560, "lemmaTitle": "棉尘肺", "lemmaCroppedTitle": "棉尘肺", "lemmaDesc": "棉尘肺又称棉尘症或棉屑沉着症。是由于吸入棉尘、亚麻尘、软木尘引起支气管收缩和肺功...", "lemmaUrl": "http://baike.baidu.com/item/%E6%A3%89%E5%B0%98%E8%82%BA/6984560", "lemmaPic": []}, {"lemmaId": 9450584, "lemmaTitle": "慢性化脓性胸膜炎", "lemmaCroppedTitle": "慢性化脓性胸膜炎", "lemmaDesc": "急性脓胸经过4～6周治疗脓腔未见消失，脓液稠厚并有大量沉积物，提示脓胸已进入慢性...", "lemmaUrl": "http://baike.baidu.com/item/%E6%85%A2%E6%80%A7%E5%8C%96%E8%84%93%E6%80%A7%E8%83%B8%E8%86%9C%E7%82%8E/9450584", "lemmaPic": []}, {"lemmaId": 4476103, "lemmaTitle": "海绵状淋巴管瘤", "lemmaCroppedTitle": "海绵状淋巴管瘤", "lemmaDesc": "海绵状淋巴管瘤是由原始淋巴管发育增生形成的肿物，是一种先天性发育畸形，属于错构瘤...", "lemmaUrl": "http://baike.baidu.com/item/%E6%B5%B7%E7%BB%B5%E7%8A%B6%E6%B7%8B%E5%B7%B4%E7%AE%A1%E7%98%A4/4476103", "lemmaPic": []}, {"lemmaId": 1001552, "lemmaTitle": "大脑凸面脑膜瘤", "lemmaCroppedTitle": "大脑凸面脑膜瘤", "lemmaDesc": "起源于大脑凸面的脑膜瘤，其发病率仅次于矢状窦旁脑膜瘤，约占颅内脑膜瘤的25%。在...", "lemmaUrl": "http://baike.baidu.com/item/%E5%A4%A7%E8%84%91%E5%87%B8%E9%9D%A2%E8%84%91%E8%86%9C%E7%98%A4/1001552", "lemmaPic": []}, {"lemmaId": 10112515, "lemmaTitle": "脑室内脑膜瘤", "lemmaCroppedTitle": "脑室内脑膜瘤", "lemmaDesc": "脑室内脑膜瘤起源于脑室系统的脉络丛组织。临床上属于少见的脑膜瘤类型，其中又以起源...", "lemmaUrl": "http://baike.baidu.com/item/%E8%84%91%E5%AE%A4%E5%86%85%E8%84%91%E8%86%9C%E7%98%A4/10112515", "lemmaPic": []}, {"lemmaId": 12021738, "lemmaTitle": "卵巢内胚窦瘤", "lemmaCroppedTitle": "卵巢内胚窦瘤", "lemmaDesc": "卵巢内胚窦瘤又称卵黄囊瘤是卵巢恶性生殖细胞瘤（OGCT）中最常见的类型之一。多发...", "lemmaUrl": "http://baike.baidu.com/item/%E5%8D%B5%E5%B7%A2%E5%86%85%E8%83%9A%E7%AA%A6%E7%98%A4/12021738", "lemmaPic": []}, {"lemmaId": 5120646, "lemmaTitle": "冠状动脉异位起源", "lemmaCroppedTitle": "冠状动脉异位起源", "lemmaDesc": "冠状动脉异位起源于肺动脉和主动脉，源于颈总动脉和无名动脉者极为罕见，且常伴有严重...", "lemmaUrl": "http://baike.baidu.com/item/%E5%86%A0%E7%8A%B6%E5%8A%A8%E8%84%89%E5%BC%82%E4%BD%8D%E8%B5%B7%E6%BA%90/5120646", "lemmaPic": []}, {"lemmaId": 3555524, "lemmaTitle": "原发性肠系膜肿瘤", "lemmaCroppedTitle": "原发性肠系膜肿瘤", "lemmaDesc": "原发性肠系膜肿瘤十分罕见，以囊性为多。囊性、实性肿瘤的比例为2：1，囊性大多为良...", "lemmaUrl": "http://baike.baidu.com/item/%E5%8E%9F%E5%8F%91%E6%80%A7%E8%82%A0%E7%B3%BB%E8%86%9C%E8%82%BF%E7%98%A4/3555524", "lemmaPic": []}, {"lemmaId": 13883816, "lemmaTitle": "电弧烧伤", "lemmaCroppedTitle": "电弧烧伤", "lemmaDesc": "是电流通过空气介质，或电路短路时产生强大的弧光和火花致伤，电子流没有通过机体。弧...", "lemmaUrl": "http://baike.baidu.com/item/%E7%94%B5%E5%BC%A7%E7%83%A7%E4%BC%A4/13883816", "lemmaPic": []}, {"lemmaId": 10133562, "lemmaTitle": "失盐性肾炎", "lemmaCroppedTitle": "失盐性肾炎", "lemmaDesc": "失盐性肾炎是各种原因引起的肾小球-肾小管对钠的滤过和重吸收的失平衡，造成尿中大量...", "lemmaUrl": "http://baike.baidu.com/item/%E5%A4%B1%E7%9B%90%E6%80%A7%E8%82%BE%E7%82%8E/10133562", "lemmaPic": []}, {"lemmaId": 6108161, "lemmaTitle": "脑膨出和脑脊膜膨出", "lemmaCroppedTitle": "脑膨出和脑脊膜膨出", "lemmaDesc": "脑膨出和脑脊膜膨出是囊性颅裂的两种类型。彭出物含有脑组织，或部分扩张的脑室等。其...", "lemmaUrl": "http://baike.baidu.com/item/%E8%84%91%E8%86%A8%E5%87%BA%E5%92%8C%E8%84%91%E8%84%8A%E8%86%9C%E8%86%A8%E5%87%BA/6108161", "lemmaPic": []}, {"lemmaId": 3498435, "lemmaTitle": "卵巢透明细胞肿瘤", "lemmaCroppedTitle": "卵巢透明细胞肿瘤", "lemmaDesc": "卵巢透明细胞肿瘤是指来自米勒管上皮的肿瘤，组织学上见于阴道、子宫颈、子宫内膜和阔...", "lemmaUrl": "http://baike.baidu.com/item/%E5%8D%B5%E5%B7%A2%E9%80%8F%E6%98%8E%E7%BB%86%E8%83%9E%E8%82%BF%E7%98%A4/3498435", "lemmaPic": []}, {"lemmaId": 5903736, "lemmaTitle": "输卵管癌三联症", "lemmaCroppedTitle": "输卵管癌三联症", "lemmaDesc": "输卵管癌的恶性程度很高，不易早期诊断。在临床上最常见的症状为阴道排液、腹痛、盆腔...", "lemmaUrl": "http://baike.baidu.com/item/%E8%BE%93%E5%8D%B5%E7%AE%A1%E7%99%8C%E4%B8%89%E8%81%94%E7%97%87/5903736", "lemmaPic": []}, {"lemmaId": 7254674, "lemmaTitle": "胸与腰椎爆裂骨折", "lemmaCroppedTitle": "胸与腰椎爆裂骨折", "lemmaDesc": "胸与腰椎是人体的中枢支柱，胸腰椎交界处活动较多，是较易产生损伤的部位，高处坠落伤...", "lemmaUrl": "http://baike.baidu.com/item/%E8%83%B8%E4%B8%8E%E8%85%B0%E6%A4%8E%E7%88%86%E8%A3%82%E9%AA%A8%E6%8A%98/7254674", "lemmaPic": []}, {"lemmaId": 5054697, "lemmaTitle": "先天性全丙种球蛋白低下血症", "lemmaCroppedTitle": "先天性全丙种球蛋白低下血症", "lemmaDesc": "先天性全丙种球蛋白低下血症是性联隐性遗传性疾病，其缺陷在于前B细胞分化为B细胞的...", "lemmaUrl": "http://baike.baidu.com/item/%E5%85%88%E5%A4%A9%E6%80%A7%E5%85%A8%E4%B8%99%E7%A7%8D%E7%90%83%E8%9B%8B%E7%99%BD%E4%BD%8E%E4%B8%8B%E8%A1%80%E7%97%87/5054697", "lemmaPic": []}, {"lemmaId": 6520375, "lemmaTitle": "灭虫灵中毒", "lemmaCroppedTitle": "灭虫灵中毒", "lemmaDesc": "灭虫灵是一种广谱驱肠虫药，可治钩虫、蛔虫及鞭虫病，以对钩虫效果更好。中毒多由于误...", "lemmaUrl": "http://baike.baidu.com/item/%E7%81%AD%E8%99%AB%E7%81%B5%E4%B8%AD%E6%AF%92/6520375", "lemmaPic": []}, {"lemmaId": 2208183, "lemmaTitle": "急性非特异性睾丸炎", "lemmaCroppedTitle": "急性非特异性睾丸炎", "lemmaDesc": "急性非特异性睾丸炎为细菌侵及睾丸所致，感染途径以逆行感染（由输精管或附睾侵入）为...", "lemmaUrl": "http://baike.baidu.com/item/%E6%80%A5%E6%80%A7%E9%9D%9E%E7%89%B9%E5%BC%82%E6%80%A7%E7%9D%BE%E4%B8%B8%E7%82%8E/2208183", "lemmaPic": []}, {"lemmaId": 917517, "lemmaTitle": "先天性声带发育不良", "lemmaCroppedTitle": "先天性声带发育不良", "lemmaDesc": "先天性声带发育不良是指声带发育不良或缺如，而喉室带活动或发育过度而代替声带发音者...", "lemmaUrl": "http://baike.baidu.com/item/%E5%85%88%E5%A4%A9%E6%80%A7%E5%A3%B0%E5%B8%A6%E5%8F%91%E8%82%B2%E4%B8%8D%E8%89%AF/917517", "lemmaPic": []}, {"lemmaId": 8856660, "lemmaTitle": "胸导管损伤", "lemmaCroppedTitle": "胸导管损伤", "lemmaDesc": "胸导管位于后胸壁胸膜外，胸部穿透伤或钝性创伤均可损伤胸导管。如胸膜同时破裂，乳糜...", "lemmaUrl": "http://baike.baidu.com/item/%E8%83%B8%E5%AF%BC%E7%AE%A1%E6%8D%9F%E4%BC%A4/8856660", "lemmaPic": []}, {"lemmaId": 5510588, "lemmaTitle": "构音障碍康复", "lemmaCroppedTitle": "构音障碍康复", "lemmaDesc": "构音障碍评估的主要内容包括呼吸功能评估、共鸣功能评估、发声器官功能评估（包括主观...", "lemmaUrl": "http://baike.baidu.com/item/%E6%9E%84%E9%9F%B3%E9%9A%9C%E7%A2%8D%E5%BA%B7%E5%A4%8D/5510588", "lemmaPic": []}, {"lemmaId": 12428903, "lemmaTitle": "新生儿糖尿病", "lemmaCroppedTitle": "新生儿糖尿病", "lemmaDesc": "糖尿病是由多种病因（异源）引起的一种内分泌-代谢障碍综合征，其共同特点是体内胰岛...", "lemmaUrl": "http://baike.baidu.com/item/%E6%96%B0%E7%94%9F%E5%84%BF%E7%B3%96%E5%B0%BF%E7%97%85/12428903", "lemmaPic": []}, {"lemmaId": 6425292, "lemmaTitle": "肠系膜上动脉血栓形成", "lemmaCroppedTitle": "肠系膜上动脉血栓形成", "lemmaDesc": "肠系膜上动脉血栓形成多在严重动脉硬化性闭塞的基础上逐渐发生的。起病隐匿，多发生于...", "lemmaUrl": "http://baike.baidu.com/item/%E8%82%A0%E7%B3%BB%E8%86%9C%E4%B8%8A%E5%8A%A8%E8%84%89%E8%A1%80%E6%A0%93%E5%BD%A2%E6%88%90/6425292", "lemmaPic": []}], "total": 7246, "totalPage": 73, "page": 44, "fromLemma": 0}