{"lemmaList": [{"lemmaId": 9446710, "lemmaTitle": "茶毛虫皮炎", "lemmaCroppedTitle": "茶毛虫皮炎", "lemmaDesc": "是指人体皮肤接触茶毛虫的毒毛后发生的一种急性皮炎。毒毛刺入皮肤后数分钟至数小时，...", "lemmaUrl": "http://baike.baidu.com/item/%E8%8C%B6%E6%AF%9B%E8%99%AB%E7%9A%AE%E7%82%8E/9446710", "lemmaPic": []}, {"lemmaId": 10973588, "lemmaTitle": "热带型肺嗜酸性粒细胞肺炎", "lemmaCroppedTitle": "热带型肺嗜酸性粒细胞肺炎", "lemmaDesc": "热带型肺嗜酸性粒细胞肺炎的临床表现为发热、不适、厌食、体重减轻、阵发性干咳和哮喘...", "lemmaUrl": "http://baike.baidu.com/item/%E7%83%AD%E5%B8%A6%E5%9E%8B%E8%82%BA%E5%97%9C%E9%85%B8%E6%80%A7%E7%B2%92%E7%BB%86%E8%83%9E%E8%82%BA%E7%82%8E/10973588", "lemmaPic": []}, {"lemmaId": 2138968, "lemmaTitle": "Austin型幼儿脑硫脂病", "lemmaCroppedTitle": "Austin型幼儿脑硫脂病", "lemmaDesc": "Austin型幼儿脑硫脂病也称Austin型异染性脑白质营养不良，是脑硫脂病和黏...", "lemmaUrl": "http://baike.baidu.com/item/Austin%E5%9E%8B%E5%B9%BC%E5%84%BF%E8%84%91%E7%A1%AB%E8%84%82%E7%97%85/2138968", "lemmaPic": []}, {"lemmaId": 12630026, "lemmaTitle": "小儿颅脑损伤", "lemmaCroppedTitle": "小儿颅脑损伤", "lemmaDesc": "颅脑损伤是引起儿童死亡和致残的最常见的原因。儿童时期活动多，自我保护能力较差，容...", "lemmaUrl": "http://baike.baidu.com/item/%E5%B0%8F%E5%84%BF%E9%A2%85%E8%84%91%E6%8D%9F%E4%BC%A4/12630026", "lemmaPic": []}, {"lemmaId": 9211774, "lemmaTitle": "布氏杆菌红斑", "lemmaCroppedTitle": "布氏杆菌红斑", "lemmaDesc": "布氏杆菌红斑，又称为接触性布氏菌病或布氏杆菌皮炎，是一种急性红斑样损害性皮肤病。...", "lemmaUrl": "http://baike.baidu.com/item/%E5%B8%83%E6%B0%8F%E6%9D%86%E8%8F%8C%E7%BA%A2%E6%96%91/9211774", "lemmaPic": []}, {"lemmaId": 5259715, "lemmaTitle": "胞内分枝杆菌感染", "lemmaCroppedTitle": "胞内分枝杆菌感染", "lemmaDesc": "胞内分枝杆菌感染为鸟分枝或胞内分枝杆菌感染所致。主要表现为慢性肺部感染，儿童表现...", "lemmaUrl": "http://baike.baidu.com/item/%E8%83%9E%E5%86%85%E5%88%86%E6%9E%9D%E6%9D%86%E8%8F%8C%E6%84%9F%E6%9F%93/5259715", "lemmaPic": []}, {"lemmaId": 3956879, "lemmaTitle": "单发性毛鞘瘤", "lemmaCroppedTitle": "单发性毛鞘瘤", "lemmaDesc": "单发性毛鞘瘤为颜面部特别是鼻和颊部发生的单发性小丘疹，直径3～8mm，无特征性临...", "lemmaUrl": "http://baike.baidu.com/item/%E5%8D%95%E5%8F%91%E6%80%A7%E6%AF%9B%E9%9E%98%E7%98%A4/3956879", "lemmaPic": []}, {"lemmaId": 2404790, "lemmaTitle": "气管前间隙感染", "lemmaCroppedTitle": "气管前间隙感染", "lemmaDesc": "气管前间隙位于气管前筋膜与气管之间，这里的感染多继发于喉咽、食管的损伤和甲状腺炎...", "lemmaUrl": "http://baike.baidu.com/item/%E6%B0%94%E7%AE%A1%E5%89%8D%E9%97%B4%E9%9A%99%E6%84%9F%E6%9F%93/2404790", "lemmaPic": []}, {"lemmaId": 1250565, "lemmaTitle": "小儿右肺中叶综合征", "lemmaCroppedTitle": "小儿右肺中叶综合征", "lemmaDesc": "右肺中叶综合征即中叶综合征，又称中叶-舌部综合征、右肺中叶不张综合征、急性暂时性...", "lemmaUrl": "http://baike.baidu.com/item/%E5%B0%8F%E5%84%BF%E5%8F%B3%E8%82%BA%E4%B8%AD%E5%8F%B6%E7%BB%BC%E5%90%88%E5%BE%81/1250565", "lemmaPic": []}, {"lemmaId": 8668024, "lemmaTitle": "先天性结肠狭窄和闭锁", "lemmaCroppedTitle": "先天性结肠狭窄和闭锁", "lemmaDesc": "先天性结肠闭锁与狭窄较为少见，目前尚缺乏系统全面的报道，仅限于个别病例报道。在消...", "lemmaUrl": "http://baike.baidu.com/item/%E5%85%88%E5%A4%A9%E6%80%A7%E7%BB%93%E8%82%A0%E7%8B%AD%E7%AA%84%E5%92%8C%E9%97%AD%E9%94%81/8668024", "lemmaPic": []}, {"lemmaId": 9875356, "lemmaTitle": "基底核钙化症", "lemmaCroppedTitle": "基底核钙化症", "lemmaDesc": "基底核钙化症即特发性基底核钙化又称Fahr病，由多种原因引起两侧对称性基底核钙化...", "lemmaUrl": "http://baike.baidu.com/item/%E5%9F%BA%E5%BA%95%E6%A0%B8%E9%92%99%E5%8C%96%E7%97%87/9875356", "lemmaPic": []}, {"lemmaId": 4651408, "lemmaTitle": "小儿囊性纤维性变", "lemmaCroppedTitle": "小儿囊性纤维性变", "lemmaDesc": "囊性纤维性变（CF）又称黏滞病或黏液黏稠病，是儿童和成人的一种全身外分泌腺功能紊...", "lemmaUrl": "http://baike.baidu.com/item/%E5%B0%8F%E5%84%BF%E5%9B%8A%E6%80%A7%E7%BA%A4%E7%BB%B4%E6%80%A7%E5%8F%98/4651408", "lemmaPic": []}, {"lemmaId": 4847321, "lemmaTitle": "妊娠合并多囊肾", "lemmaCroppedTitle": "妊娠合并多囊肾", "lemmaDesc": "多囊肾是遗传性疾病，其病变特点是双肾实质有广泛的囊肿形成，系胚胎发育过程中肾小管...", "lemmaUrl": "http://baike.baidu.com/item/%E5%A6%8A%E5%A8%A0%E5%90%88%E5%B9%B6%E5%A4%9A%E5%9B%8A%E8%82%BE/4847321", "lemmaPic": []}, {"lemmaId": 5222489, "lemmaTitle": "迪厄拉富瓦病", "lemmaCroppedTitle": "迪厄拉富瓦病", "lemmaDesc": "迪厄拉富瓦病又称Dieulafoy病变，是由黏膜下恒径动脉和浅表性黏膜糜烂构成，...", "lemmaUrl": "http://baike.baidu.com/item/%E8%BF%AA%E5%8E%84%E6%8B%89%E5%AF%8C%E7%93%A6%E7%97%85/5222489", "lemmaPic": []}, {"lemmaId": 6002827, "lemmaTitle": "风轮赤豆", "lemmaCroppedTitle": "风轮赤豆", "lemmaDesc": "风轮赤豆是因黑睛上有颗粒样小疱突起，且有赤脉追随牵绊，色红如赤小豆之状而得名。《...", "lemmaUrl": "http://baike.baidu.com/item/%E9%A3%8E%E8%BD%AE%E8%B5%A4%E8%B1%86/6002827", "lemmaPic": []}, {"lemmaId": 13883817, "lemmaTitle": "持续性性兴奋综合征", "lemmaCroppedTitle": "持续性性兴奋综合征", "lemmaDesc": "持续性性兴奋综合征（PSAS），是一种女性性综合征，患者会在没有任何外来性刺激或...", "lemmaUrl": "http://baike.baidu.com/item/%E6%8C%81%E7%BB%AD%E6%80%A7%E6%80%A7%E5%85%B4%E5%A5%8B%E7%BB%BC%E5%90%88%E5%BE%81/13883817", "lemmaPic": []}, {"lemmaId": 759427, "lemmaTitle": "浸渍足", "lemmaCroppedTitle": "浸渍足", "lemmaDesc": "浸渍足又名战壕足、海船足，是由于双下肢长期静止暴露于寒冷、潮湿环境中，局部血液循...", "lemmaUrl": "http://baike.baidu.com/item/%E6%B5%B8%E6%B8%8D%E8%B6%B3/759427", "lemmaPic": []}, {"lemmaId": 914290, "lemmaTitle": "淋球菌性腹膜炎", "lemmaCroppedTitle": "淋球菌性腹膜炎", "lemmaDesc": "淋球菌性腹膜炎是由于淋球菌的上行感染导致的腹膜感染。淋球菌性腹膜炎多继发于患者自...", "lemmaUrl": "http://baike.baidu.com/item/%E6%B7%8B%E7%90%83%E8%8F%8C%E6%80%A7%E8%85%B9%E8%86%9C%E7%82%8E/914290", "lemmaPic": []}, {"lemmaId": 4478583, "lemmaTitle": "大面积脑梗死", "lemmaCroppedTitle": "大面积脑梗死", "lemmaDesc": "大面积脑梗死（large area cerebral infarction）通常...", "lemmaUrl": "http://baike.baidu.com/item/%E5%A4%A7%E9%9D%A2%E7%A7%AF%E8%84%91%E6%A2%97%E6%AD%BB/4478583", "lemmaPic": {"width": 320, "height": 360, "url": "https://gss2.bdstatic.com/9fo3dSag_xI4khGkpoWK1HF6hhy/baike/w%3D168/sign=a0e505d768224f4a5799771531f69044/d439b6003af33a87fb4e73ebc35c10385343b51b.jpg"}}, {"lemmaId": 12093324, "lemmaTitle": "小儿高IgE综合征", "lemmaCroppedTitle": "小儿高IgE综合征", "lemmaDesc": "小儿高IgE综合征可能是由于T细胞缺陷，部分γ-干扰素生成减少，从而影响IgE生...", "lemmaUrl": "http://baike.baidu.com/item/%E5%B0%8F%E5%84%BF%E9%AB%98IgE%E7%BB%BC%E5%90%88%E5%BE%81/12093324", "lemmaPic": []}, {"lemmaId": 2963535, "lemmaTitle": "小儿蓝尿布综合征", "lemmaCroppedTitle": "小儿蓝尿布综合征", "lemmaDesc": "蓝尿布综合征又名蓝色尿综合征、伴肾结石及尿蓝母尿症的高钙血症、蓝襁褓综合征、Dr...", "lemmaUrl": "http://baike.baidu.com/item/%E5%B0%8F%E5%84%BF%E8%93%9D%E5%B0%BF%E5%B8%83%E7%BB%BC%E5%90%88%E5%BE%81/2963535", "lemmaPic": []}, {"lemmaId": 9919659, "lemmaTitle": "血色病性骨关节病", "lemmaCroppedTitle": "血色病性骨关节病", "lemmaDesc": "血色病性骨关节病是由于铁代谢异常引起体内铁含量过高，沉积于各内脏和器官而产生各种...", "lemmaUrl": "http://baike.baidu.com/item/%E8%A1%80%E8%89%B2%E7%97%85%E6%80%A7%E9%AA%A8%E5%85%B3%E8%8A%82%E7%97%85/9919659", "lemmaPic": []}, {"lemmaId": 10437468, "lemmaTitle": "肺孢子丝菌病", "lemmaCroppedTitle": "肺孢子丝菌病", "lemmaDesc": "肺孢子丝菌病是由申克孢子丝菌引起的肺部慢性真菌病，是常见的深部真菌病之一。", "lemmaUrl": "http://baike.baidu.com/item/%E8%82%BA%E5%AD%A2%E5%AD%90%E4%B8%9D%E8%8F%8C%E7%97%85/10437468", "lemmaPic": []}, {"lemmaId": 2468632, "lemmaTitle": "小儿丁型病毒性肝炎", "lemmaCroppedTitle": "小儿丁型病毒性肝炎", "lemmaDesc": "丁型病毒性肝炎（简称丁肝）是由丁型肝炎病毒（HDV）引起。常感染乙型肝炎病毒（H...", "lemmaUrl": "http://baike.baidu.com/item/%E5%B0%8F%E5%84%BF%E4%B8%81%E5%9E%8B%E7%97%85%E6%AF%92%E6%80%A7%E8%82%9D%E7%82%8E/2468632", "lemmaPic": []}, {"lemmaId": 3548904, "lemmaTitle": "肾性氨基酸尿", "lemmaCroppedTitle": "肾性氨基酸尿", "lemmaDesc": "肾性氨基酸尿是一组以近端肾小管对氨基酸转运障碍为主以致尿中排出大量氨基酸的肾小管...", "lemmaUrl": "http://baike.baidu.com/item/%E8%82%BE%E6%80%A7%E6%B0%A8%E5%9F%BA%E9%85%B8%E5%B0%BF/3548904", "lemmaPic": []}, {"lemmaId": 6643104, "lemmaTitle": "晶状体相关葡萄膜炎", "lemmaCroppedTitle": "晶状体相关葡萄膜炎", "lemmaDesc": "晶状体相关葡萄膜炎在文献中有多种名称，它们或是基于发病机制、或是基于病理特点，但...", "lemmaUrl": "http://baike.baidu.com/item/%E6%99%B6%E7%8A%B6%E4%BD%93%E7%9B%B8%E5%85%B3%E8%91%A1%E8%90%84%E8%86%9C%E7%82%8E/6643104", "lemmaPic": []}, {"lemmaId": 10696073, "lemmaTitle": "甲状旁腺功能亢进性心肌病", "lemmaCroppedTitle": "甲状旁腺功能亢进性心肌病", "lemmaDesc": "甲状旁腺功能亢进（甲旁亢）是甲状旁腺激素（PTH）分泌过多引起的高血钙及低血磷为...", "lemmaUrl": "http://baike.baidu.com/item/%E7%94%B2%E7%8A%B6%E6%97%81%E8%85%BA%E5%8A%9F%E8%83%BD%E4%BA%A2%E8%BF%9B%E6%80%A7%E5%BF%83%E8%82%8C%E7%97%85/10696073", "lemmaPic": []}, {"lemmaId": 4196385, "lemmaTitle": "皮肤行为症", "lemmaCroppedTitle": "皮肤行为症", "lemmaDesc": "皮肤行为症为精神状态异常所致的疾病，是一种皮肤的神经官能症。患者多采用自身损伤皮...", "lemmaUrl": "http://baike.baidu.com/item/%E7%9A%AE%E8%82%A4%E8%A1%8C%E4%B8%BA%E7%97%87/4196385", "lemmaPic": []}, {"lemmaId": 5325345, "lemmaTitle": "铜绿假单胞菌性角膜炎", "lemmaCroppedTitle": "铜绿假单胞菌性角膜炎", "lemmaDesc": "铜绿假单胞菌性角膜炎是一种极为严重的急性化脓性角膜炎，具有典型革兰阴性杆菌所引起...", "lemmaUrl": "http://baike.baidu.com/item/%E9%93%9C%E7%BB%BF%E5%81%87%E5%8D%95%E8%83%9E%E8%8F%8C%E6%80%A7%E8%A7%92%E8%86%9C%E7%82%8E/5325345", "lemmaPic": []}, {"lemmaId": 12676587, "lemmaTitle": "小儿慢性胰腺炎", "lemmaCroppedTitle": "小儿慢性胰腺炎", "lemmaDesc": "小儿慢性胰腺炎是指胰腺局部或弥漫性的慢性、进行性炎症。该病具有进行性、持续性及不...", "lemmaUrl": "http://baike.baidu.com/item/%E5%B0%8F%E5%84%BF%E6%85%A2%E6%80%A7%E8%83%B0%E8%85%BA%E7%82%8E/12676587", "lemmaPic": []}, {"lemmaId": 9130015, "lemmaTitle": "小儿食管异物", "lemmaCroppedTitle": "小儿食管异物", "lemmaDesc": "小儿食管异物是因儿童喜将物品含在口中玩耍，误吞而造成食管异物。常见的异物为硬币、...", "lemmaUrl": "http://baike.baidu.com/item/%E5%B0%8F%E5%84%BF%E9%A3%9F%E7%AE%A1%E5%BC%82%E7%89%A9/9130015", "lemmaPic": []}, {"lemmaId": 13554313, "lemmaTitle": "睾丸间质细胞瘤", "lemmaCroppedTitle": "睾丸间质细胞瘤", "lemmaDesc": "由正常发育和演化的间质细胞成分构成的睾丸肿瘤。2004年世界卫生组织WHO《泌尿...", "lemmaUrl": "http://baike.baidu.com/item/%E7%9D%BE%E4%B8%B8%E9%97%B4%E8%B4%A8%E7%BB%86%E8%83%9E%E7%98%A4/13554313", "lemmaPic": []}, {"lemmaId": 3957031, "lemmaTitle": "婴儿纤维错构瘤", "lemmaCroppedTitle": "婴儿纤维错构瘤", "lemmaDesc": "婴儿纤维错构瘤为发生于2岁以下幼儿的一种纤维性增生。为单个真皮或皮下组织内坚实性...", "lemmaUrl": "http://baike.baidu.com/item/%E5%A9%B4%E5%84%BF%E7%BA%A4%E7%BB%B4%E9%94%99%E6%9E%84%E7%98%A4/3957031", "lemmaPic": []}, {"lemmaId": 9825550, "lemmaTitle": "足跟瘀斑", "lemmaCroppedTitle": "足跟瘀斑", "lemmaDesc": "足跟淤斑又称黑踵病，为发生于足跟部的皮下出血性黑色小斑点。本病皮损不典型时易被误...", "lemmaUrl": "http://baike.baidu.com/item/%E8%B6%B3%E8%B7%9F%E7%98%80%E6%96%91/9825550", "lemmaPic": []}, {"lemmaId": 8148472, "lemmaTitle": "系统性红斑狼疮伴发的葡萄膜炎", "lemmaCroppedTitle": "系统性红斑狼疮伴发的葡萄膜炎", "lemmaDesc": "系统性红斑狼疮（SLE）是一种自身免疫性结缔组织病，主要由免疫复合物所介导，典型...", "lemmaUrl": "http://baike.baidu.com/item/%E7%B3%BB%E7%BB%9F%E6%80%A7%E7%BA%A2%E6%96%91%E7%8B%BC%E7%96%AE%E4%BC%B4%E5%8F%91%E7%9A%84%E8%91%A1%E8%90%84%E8%86%9C%E7%82%8E/8148472", "lemmaPic": []}, {"lemmaId": 9280719, "lemmaTitle": "左心室恶性施万瘤", "lemmaCroppedTitle": "左心室恶性施万瘤", "lemmaDesc": "恶性施万瘤又称神经源性肉瘤、恶性神经膜瘤或神经纤维肉瘤。多发生于四肢，如原发于左...", "lemmaUrl": "http://baike.baidu.com/item/%E5%B7%A6%E5%BF%83%E5%AE%A4%E6%81%B6%E6%80%A7%E6%96%BD%E4%B8%87%E7%98%A4/9280719", "lemmaPic": []}, {"lemmaId": 3993186, "lemmaTitle": "喉气管食管裂", "lemmaCroppedTitle": "喉气管食管裂", "lemmaDesc": "喉气管食管裂系少见的先天性异常，由于勺状软骨的两侧原基未能融合及食管气管隔未能向...", "lemmaUrl": "http://baike.baidu.com/item/%E5%96%89%E6%B0%94%E7%AE%A1%E9%A3%9F%E7%AE%A1%E8%A3%82/3993186", "lemmaPic": []}, {"lemmaId": 8342068, "lemmaTitle": "膈下食管憩室", "lemmaCroppedTitle": "膈下食管憩室", "lemmaDesc": "膈下食管憩室是发生于腹内食管的憩室样改变，多发自胃食管结合部远端2厘米内，位于腹...", "lemmaUrl": "http://baike.baidu.com/item/%E8%86%88%E4%B8%8B%E9%A3%9F%E7%AE%A1%E6%86%A9%E5%AE%A4/8342068", "lemmaPic": []}, {"lemmaId": 3042261, "lemmaTitle": "职业性硬皮病", "lemmaCroppedTitle": "职业性硬皮病", "lemmaDesc": "本病指因长期反复接触氯乙烯及其聚合物等化学物质而引起的肢端硬皮病样改变。部分患者...", "lemmaUrl": "http://baike.baidu.com/item/%E8%81%8C%E4%B8%9A%E6%80%A7%E7%A1%AC%E7%9A%AE%E7%97%85/3042261", "lemmaPic": []}, {"lemmaId": 10455295, "lemmaTitle": "颈椎椎体爆裂骨折", "lemmaCroppedTitle": "颈椎椎体爆裂骨折", "lemmaDesc": "颈椎椎体爆裂骨折较少见，多属不稳定型。多由纵向垂直压缩暴力所致，好发于颈5、6椎...", "lemmaUrl": "http://baike.baidu.com/item/%E9%A2%88%E6%A4%8E%E6%A4%8E%E4%BD%93%E7%88%86%E8%A3%82%E9%AA%A8%E6%8A%98/10455295", "lemmaPic": []}, {"lemmaId": 10689868, "lemmaTitle": "回旋状脉络膜视网膜萎缩", "lemmaCroppedTitle": "回旋状脉络膜视网膜萎缩", "lemmaDesc": "回旋状脉络膜视网膜萎缩是一种遗传性、与氨基酸代谢障碍有关的疾病。通常从赤道部开始...", "lemmaUrl": "http://baike.baidu.com/item/%E5%9B%9E%E6%97%8B%E7%8A%B6%E8%84%89%E7%BB%9C%E8%86%9C%E8%A7%86%E7%BD%91%E8%86%9C%E8%90%8E%E7%BC%A9/10689868", "lemmaPic": []}, {"lemmaId": 620770, "lemmaTitle": "人为脂膜炎", "lemmaCroppedTitle": "人为脂膜炎", "lemmaDesc": "人为脂膜炎系人为因素造成的局限性脂膜炎。通常是由物理性因素所致的脂膜炎症。目前多...", "lemmaUrl": "http://baike.baidu.com/item/%E4%BA%BA%E4%B8%BA%E8%84%82%E8%86%9C%E7%82%8E/620770", "lemmaPic": []}, {"lemmaId": 6274741, "lemmaTitle": "先天性肠狭窄", "lemmaCroppedTitle": "先天性肠狭窄", "lemmaDesc": "先天性肠狭窄的发病率远较肠闭锁低，二者比为1：19。一般多位于十二指肠，约占50...", "lemmaUrl": "http://baike.baidu.com/item/%E5%85%88%E5%A4%A9%E6%80%A7%E8%82%A0%E7%8B%AD%E7%AA%84/6274741", "lemmaPic": []}, {"lemmaId": 2095092, "lemmaTitle": "先天性短结肠", "lemmaCroppedTitle": "先天性短结肠", "lemmaDesc": "先天性短结肠亦称先天性袋状结肠或袋状结肠综合征，为罕见的肠道发育畸形。多为生后即...", "lemmaUrl": "http://baike.baidu.com/item/%E5%85%88%E5%A4%A9%E6%80%A7%E7%9F%AD%E7%BB%93%E8%82%A0/2095092", "lemmaPic": []}, {"lemmaId": 4371680, "lemmaTitle": "单纯疱疹病毒性巩膜炎", "lemmaCroppedTitle": "单纯疱疹病毒性巩膜炎", "lemmaDesc": "单纯疱疹病毒（HSV）感染可引起巩膜炎或巩膜外层炎。巩膜外层炎是由于活动性HSV...", "lemmaUrl": "http://baike.baidu.com/item/%E5%8D%95%E7%BA%AF%E7%96%B1%E7%96%B9%E7%97%85%E6%AF%92%E6%80%A7%E5%B7%A9%E8%86%9C%E7%82%8E/4371680", "lemmaPic": []}, {"lemmaId": 486365, "lemmaTitle": "妊娠合并甲状旁腺功能亢进", "lemmaCroppedTitle": "妊娠合并甲状旁腺功能亢进", "lemmaDesc": "妊娠合并甲状旁腺功能亢进是孕妇甲状旁腺激素分泌过多而发生的一系列钙磷代谢紊乱的罕...", "lemmaUrl": "http://baike.baidu.com/item/%E5%A6%8A%E5%A8%A0%E5%90%88%E5%B9%B6%E7%94%B2%E7%8A%B6%E6%97%81%E8%85%BA%E5%8A%9F%E8%83%BD%E4%BA%A2%E8%BF%9B/486365", "lemmaPic": []}, {"lemmaId": 741437, "lemmaTitle": "小儿眼耳脊椎综合征", "lemmaCroppedTitle": "小儿眼耳脊椎综合征", "lemmaDesc": "小儿眼-耳-脊椎综合征（OAVS），又称Goldenhar综合征、下颌面骨发育不...", "lemmaUrl": "http://baike.baidu.com/item/%E5%B0%8F%E5%84%BF%E7%9C%BC%E8%80%B3%E8%84%8A%E6%A4%8E%E7%BB%BC%E5%90%88%E5%BE%81/741437", "lemmaPic": []}, {"lemmaId": 16972614, "lemmaTitle": "多系统萎缩症", "lemmaCroppedTitle": "多系统萎缩症", "lemmaDesc": "多系统萎缩（MSA）是一组原因不明的神经系统多部位进行性萎缩的变性疾病或综合征。...", "lemmaUrl": "http://baike.baidu.com/item/%E5%A4%9A%E7%B3%BB%E7%BB%9F%E8%90%8E%E7%BC%A9%E7%97%87/16972614", "lemmaPic": []}, {"lemmaId": 12676624, "lemmaTitle": "小儿气胸", "lemmaCroppedTitle": "小儿气胸", "lemmaDesc": "小儿气胸指胸膜腔内蓄积有气体，若同时有脓液存在，则称为脓气胸，二者病因与临床表现...", "lemmaUrl": "http://baike.baidu.com/item/%E5%B0%8F%E5%84%BF%E6%B0%94%E8%83%B8/12676624", "lemmaPic": []}, {"lemmaId": 7148967, "lemmaTitle": "创伤窒息综合征", "lemmaCroppedTitle": "创伤窒息综合征", "lemmaDesc": "创伤窒息综合征是闭合性胸部伤中一种较为少见的综合征，其发生率占胸部伤的2%～8%...", "lemmaUrl": "http://baike.baidu.com/item/%E5%88%9B%E4%BC%A4%E7%AA%92%E6%81%AF%E7%BB%BC%E5%90%88%E5%BE%81/7148967", "lemmaPic": []}, {"lemmaId": 10645648, "lemmaTitle": "肥胖性心肌病", "lemmaCroppedTitle": "肥胖性心肌病", "lemmaDesc": "肥胖是一组常见的代谢性疾病。肥胖是指体重超过理想体重的20%，超过理想体重的20...", "lemmaUrl": "http://baike.baidu.com/item/%E8%82%A5%E8%83%96%E6%80%A7%E5%BF%83%E8%82%8C%E7%97%85/10645648", "lemmaPic": []}, {"lemmaId": 412235, "lemmaTitle": "非火器性颅脑开放伤", "lemmaCroppedTitle": "非火器性颅脑开放伤", "lemmaDesc": "非火器性颅脑开放伤的致伤因素较多，可概括为打击伤和碰撞伤两大类。前者是指由锐器或...", "lemmaUrl": "http://baike.baidu.com/item/%E9%9D%9E%E7%81%AB%E5%99%A8%E6%80%A7%E9%A2%85%E8%84%91%E5%BC%80%E6%94%BE%E4%BC%A4/412235", "lemmaPic": []}, {"lemmaId": 798698, "lemmaTitle": "肺部粪类圆线虫病", "lemmaCroppedTitle": "肺部粪类圆线虫病", "lemmaDesc": "肺粪类圆线虫病是由粪类圆线虫的丝状蚴侵入皮肤或黏膜后经淋巴管或静脉系统、右心而至...", "lemmaUrl": "http://baike.baidu.com/item/%E8%82%BA%E9%83%A8%E7%B2%AA%E7%B1%BB%E5%9C%86%E7%BA%BF%E8%99%AB%E7%97%85/798698", "lemmaPic": []}, {"lemmaId": 879858, "lemmaTitle": "妊娠合并动脉导管未闭", "lemmaCroppedTitle": "妊娠合并动脉导管未闭", "lemmaDesc": "动脉导管未闭（PDA）是一种常见的先天性心血管畸形。动脉导管是连接肺动脉和降主动...", "lemmaUrl": "http://baike.baidu.com/item/%E5%A6%8A%E5%A8%A0%E5%90%88%E5%B9%B6%E5%8A%A8%E8%84%89%E5%AF%BC%E7%AE%A1%E6%9C%AA%E9%97%AD/879858", "lemmaPic": []}, {"lemmaId": 4662876, "lemmaTitle": "良性淋巴细胞血管炎和肉芽肿病", "lemmaCroppedTitle": "良性淋巴细胞血管炎和肉芽肿病", "lemmaDesc": "良性淋巴细胞血管炎和肉芽肿病（BLAG）于1977年由Saldana等提出，它是...", "lemmaUrl": "http://baike.baidu.com/item/%E8%89%AF%E6%80%A7%E6%B7%8B%E5%B7%B4%E7%BB%86%E8%83%9E%E8%A1%80%E7%AE%A1%E7%82%8E%E5%92%8C%E8%82%89%E8%8A%BD%E8%82%BF%E7%97%85/4662876", "lemmaPic": []}, {"lemmaId": 12630001, "lemmaTitle": "甲疾病", "lemmaCroppedTitle": "甲疾病", "lemmaDesc": "甲包括甲床、甲周和甲板。甲病是以上三部分病变的总称，可由先天性或后天性，全身性疾...", "lemmaUrl": "http://baike.baidu.com/item/%E7%94%B2%E7%96%BE%E7%97%85/12630001", "lemmaPic": []}, {"lemmaId": 1657486, "lemmaTitle": "非梭状芽胞杆菌肌坏死", "lemmaCroppedTitle": "非梭状芽胞杆菌肌坏死", "lemmaDesc": "化脓性肌炎或肌肉坏死大多由厌氧产气荚膜梭状芽孢杆菌引起，但也可由消化链球菌引起，...", "lemmaUrl": "http://baike.baidu.com/item/%E9%9D%9E%E6%A2%AD%E7%8A%B6%E8%8A%BD%E8%83%9E%E6%9D%86%E8%8F%8C%E8%82%8C%E5%9D%8F%E6%AD%BB/1657486", "lemmaPic": []}, {"lemmaId": 7254330, "lemmaTitle": "肌肉肌腱单位的急性损伤", "lemmaCroppedTitle": "肌肉肌腱单位的急性损伤", "lemmaDesc": "本词条由：大庆油田总医院   骨科   刘常胜 (主任医师)   审核肌肉肌腱单...", "lemmaUrl": "http://baike.baidu.com/item/%E8%82%8C%E8%82%89%E8%82%8C%E8%85%B1%E5%8D%95%E4%BD%8D%E7%9A%84%E6%80%A5%E6%80%A7%E6%8D%9F%E4%BC%A4/7254330", "lemmaPic": []}, {"lemmaId": 10147375, "lemmaTitle": "眼眶平滑肌瘤", "lemmaCroppedTitle": "眼眶平滑肌瘤", "lemmaDesc": "眼眶平滑肌瘤是平滑肌细胞构成的良性肿瘤，多发生于含有平滑肌的组织器官，子宫和胃肠...", "lemmaUrl": "http://baike.baidu.com/item/%E7%9C%BC%E7%9C%B6%E5%B9%B3%E6%BB%91%E8%82%8C%E7%98%A4/10147375", "lemmaPic": []}, {"lemmaId": 4640773, "lemmaTitle": "四肢瘫康复", "lemmaCroppedTitle": "四肢瘫康复", "lemmaDesc": "四肢瘫指创伤或疾病致椎管内的颈段脊髓神经组织受损，而造成运动、感觉及大小便功能障...", "lemmaUrl": "http://baike.baidu.com/item/%E5%9B%9B%E8%82%A2%E7%98%AB%E5%BA%B7%E5%A4%8D/4640773", "lemmaPic": []}, {"lemmaId": 12428403, "lemmaTitle": "先天性胆管囊状扩张", "lemmaCroppedTitle": "先天性胆管囊状扩张", "lemmaDesc": "先天性胆管囊状扩张是一种伴有胆汁淤积的外科胆道疾病。1723年Vater报告了首...", "lemmaUrl": "http://baike.baidu.com/item/%E5%85%88%E5%A4%A9%E6%80%A7%E8%83%86%E7%AE%A1%E5%9B%8A%E7%8A%B6%E6%89%A9%E5%BC%A0/12428403", "lemmaPic": []}, {"lemmaId": 10557111, "lemmaTitle": "胎儿乙醇综合征", "lemmaCroppedTitle": "胎儿乙醇综合征", "lemmaDesc": "胎儿乙醇综合征，即胎儿酒精综合征（FAS），指母亲在妊娠期间嗜酒，从而造成胎儿在...", "lemmaUrl": "http://baike.baidu.com/item/%E8%83%8E%E5%84%BF%E4%B9%99%E9%86%87%E7%BB%BC%E5%90%88%E5%BE%81/10557111", "lemmaPic": []}, {"lemmaId": 4610017, "lemmaTitle": "小儿埃博拉病毒病", "lemmaCroppedTitle": "小儿埃博拉病毒病", "lemmaDesc": "埃博拉病毒病即埃波拉出血热，是由埃波拉病毒引起的急性传染病，至今为止仅在非洲少数...", "lemmaUrl": "http://baike.baidu.com/item/%E5%B0%8F%E5%84%BF%E5%9F%83%E5%8D%9A%E6%8B%89%E7%97%85%E6%AF%92%E7%97%85/4610017", "lemmaPic": []}, {"lemmaId": 12000405, "lemmaTitle": "水电解质紊乱伴发的精神障碍", "lemmaCroppedTitle": "水电解质紊乱伴发的精神障碍", "lemmaDesc": "水、电解质紊乱可伴发精神障碍。躯体中水分约占60%，脑内水分含量可达75%～80...", "lemmaUrl": "http://baike.baidu.com/item/%E6%B0%B4%E7%94%B5%E8%A7%A3%E8%B4%A8%E7%B4%8A%E4%B9%B1%E4%BC%B4%E5%8F%91%E7%9A%84%E7%B2%BE%E7%A5%9E%E9%9A%9C%E7%A2%8D/12000405", "lemmaPic": []}, {"lemmaId": 722991, "lemmaTitle": "胸内肾", "lemmaCroppedTitle": "胸内肾", "lemmaDesc": "胸内肾罕见，是指部分或全部肾穿过横膈进入后纵隔。它不同于腹腔器官和肾同时进入胸腔...", "lemmaUrl": "http://baike.baidu.com/item/%E8%83%B8%E5%86%85%E8%82%BE/722991", "lemmaPic": []}, {"lemmaId": 3129827, "lemmaTitle": "结膜结核病", "lemmaCroppedTitle": "结膜结核病", "lemmaDesc": "结膜结核病是由结核杆菌感染所致的结膜炎症，临床上比较少见。它分为原发性和继发性两...", "lemmaUrl": "http://baike.baidu.com/item/%E7%BB%93%E8%86%9C%E7%BB%93%E6%A0%B8%E7%97%85/3129827", "lemmaPic": []}, {"lemmaId": 4653360, "lemmaTitle": "婴儿腹部远心性脂肪营养不良", "lemmaCroppedTitle": "婴儿腹部远心性脂肪营养不良", "lemmaDesc": "婴儿腹部远心性脂肪营养不良为一种好发于婴儿腹部及腹股沟的限局性皮肤及皮下脂肪萎缩...", "lemmaUrl": "http://baike.baidu.com/item/%E5%A9%B4%E5%84%BF%E8%85%B9%E9%83%A8%E8%BF%9C%E5%BF%83%E6%80%A7%E8%84%82%E8%82%AA%E8%90%A5%E5%85%BB%E4%B8%8D%E8%89%AF/4653360", "lemmaPic": []}, {"lemmaId": 7859546, "lemmaTitle": "脉络膜缺血", "lemmaCroppedTitle": "脉络膜缺血", "lemmaDesc": "本病可能为脉络膜毛细血管前小动脉对不同原因发生的非特异性炎症反应，可为周身血管反...", "lemmaUrl": "http://baike.baidu.com/item/%E8%84%89%E7%BB%9C%E8%86%9C%E7%BC%BA%E8%A1%80/7859546", "lemmaPic": []}, {"lemmaId": 5433605, "lemmaTitle": "单眼双上转肌麻痹", "lemmaCroppedTitle": "单眼双上转肌麻痹", "lemmaDesc": "单眼双上转肌麻痹是指一眼的上直肌和下斜肌同时麻痹。临床表现为患眼下斜视，多合并水...", "lemmaUrl": "http://baike.baidu.com/item/%E5%8D%95%E7%9C%BC%E5%8F%8C%E4%B8%8A%E8%BD%AC%E8%82%8C%E9%BA%BB%E7%97%B9/5433605", "lemmaPic": []}, {"lemmaId": 2066463, "lemmaTitle": "小儿播散性脂肪肉芽肿综合征", "lemmaCroppedTitle": "小儿播散性脂肪肉芽肿综合征", "lemmaDesc": "播散性脂肪肉芽肿综合征（Dissemination lipogranulome ...", "lemmaUrl": "http://baike.baidu.com/item/%E5%B0%8F%E5%84%BF%E6%92%AD%E6%95%A3%E6%80%A7%E8%84%82%E8%82%AA%E8%82%89%E8%8A%BD%E8%82%BF%E7%BB%BC%E5%90%88%E5%BE%81/2066463", "lemmaPic": []}, {"lemmaId": 12700752, "lemmaTitle": "良性幼年黑素瘤", "lemmaCroppedTitle": "良性幼年黑素瘤", "lemmaDesc": "良性幼年黑素瘤是指一种后天性良性肿瘤，由Spitz在1948年首次描述，又称为S...", "lemmaUrl": "http://baike.baidu.com/item/%E8%89%AF%E6%80%A7%E5%B9%BC%E5%B9%B4%E9%BB%91%E7%B4%A0%E7%98%A4/12700752", "lemmaPic": []}, {"lemmaId": 6183635, "lemmaTitle": "肺良性淋巴细胞血管炎和肉芽肿病", "lemmaCroppedTitle": "肺良性淋巴细胞血管炎和肉芽肿病", "lemmaDesc": "肺良性淋巴细胞血管炎和肉芽肿病（BLAG）于1977年由Saldana等提出，是...", "lemmaUrl": "http://baike.baidu.com/item/%E8%82%BA%E8%89%AF%E6%80%A7%E6%B7%8B%E5%B7%B4%E7%BB%86%E8%83%9E%E8%A1%80%E7%AE%A1%E7%82%8E%E5%92%8C%E8%82%89%E8%8A%BD%E8%82%BF%E7%97%85/6183635", "lemmaPic": []}, {"lemmaId": 12982153, "lemmaTitle": "原发性旁路性高胆红素血症", "lemmaCroppedTitle": "原发性旁路性高胆红素血症", "lemmaDesc": "原发性旁路性高胆红素血症即Israel综合征，是一罕见的高非结合（间接）胆红素血...", "lemmaUrl": "http://baike.baidu.com/item/%E5%8E%9F%E5%8F%91%E6%80%A7%E6%97%81%E8%B7%AF%E6%80%A7%E9%AB%98%E8%83%86%E7%BA%A2%E7%B4%A0%E8%A1%80%E7%97%87/12982153", "lemmaPic": []}, {"lemmaId": 3271508, "lemmaTitle": "杜波组织胞浆菌病", "lemmaCroppedTitle": "杜波组织胞浆菌病", "lemmaDesc": "杜波组织胞浆菌病是由荚膜组织胞浆菌杜波变种引起的原发于皮肤、皮下组织及骨组织的肉...", "lemmaUrl": "http://baike.baidu.com/item/%E6%9D%9C%E6%B3%A2%E7%BB%84%E7%BB%87%E8%83%9E%E6%B5%86%E8%8F%8C%E7%97%85/3271508", "lemmaPic": []}, {"lemmaId": 2287271, "lemmaTitle": "内脏血吸虫炎", "lemmaCroppedTitle": "内脏血吸虫炎", "lemmaDesc": "内脏血吸虫炎的表现可能开始于在尾蚴污染的水源中游泳后足部及其他部位出现的轻微红斑...", "lemmaUrl": "http://baike.baidu.com/item/%E5%86%85%E8%84%8F%E8%A1%80%E5%90%B8%E8%99%AB%E7%82%8E/2287271", "lemmaPic": []}, {"lemmaId": 3327135, "lemmaTitle": "小儿急性间歇性卟啉病", "lemmaCroppedTitle": "小儿急性间歇性卟啉病", "lemmaDesc": "急性间歇性卟啉病（AIP）是常染色体显性遗传性疾病。1911年，由Gunther...", "lemmaUrl": "http://baike.baidu.com/item/%E5%B0%8F%E5%84%BF%E6%80%A5%E6%80%A7%E9%97%B4%E6%AD%87%E6%80%A7%E5%8D%9F%E5%95%89%E7%97%85/3327135", "lemmaPic": []}, {"lemmaId": 12428592, "lemmaTitle": "小儿房室传导阻滞", "lemmaCroppedTitle": "小儿房室传导阻滞", "lemmaDesc": "房室传导阻滞又称房室阻滞，指房室间正常传导途径发生传导延迟，部分或全部阻滞。房室...", "lemmaUrl": "http://baike.baidu.com/item/%E5%B0%8F%E5%84%BF%E6%88%BF%E5%AE%A4%E4%BC%A0%E5%AF%BC%E9%98%BB%E6%BB%9E/12428592", "lemmaPic": []}, {"lemmaId": 3826401, "lemmaTitle": "珠蛋白生成障碍性贫血视网膜病变", "lemmaCroppedTitle": "珠蛋白生成障碍性贫血视网膜病变", "lemmaDesc": "珠蛋白生成障碍性贫血又称镰状细胞贫血，是一种血红蛋白遗传缺陷病，可致视网膜病变，...", "lemmaUrl": "http://baike.baidu.com/item/%E7%8F%A0%E8%9B%8B%E7%99%BD%E7%94%9F%E6%88%90%E9%9A%9C%E7%A2%8D%E6%80%A7%E8%B4%AB%E8%A1%80%E8%A7%86%E7%BD%91%E8%86%9C%E7%97%85%E5%8F%98/3826401", "lemmaPic": []}, {"lemmaId": 10929921, "lemmaTitle": "脊髓分裂症", "lemmaCroppedTitle": "脊髓分裂症", "lemmaDesc": "在胚胎时期，由于脊髓或者椎管发育畸形，使脊髓分裂为两半，称为脊髓分裂症。多见于婴...", "lemmaUrl": "http://baike.baidu.com/item/%E8%84%8A%E9%AB%93%E5%88%86%E8%A3%82%E7%97%87/10929921", "lemmaPic": []}, {"lemmaId": 4616703, "lemmaTitle": "小儿淀粉样变性病", "lemmaCroppedTitle": "小儿淀粉样变性病", "lemmaDesc": "小儿淀粉样变性病是淀粉样蛋白沉积于多种组织、器官引起多脏器功能障碍的全身性疾病。...", "lemmaUrl": "http://baike.baidu.com/item/%E5%B0%8F%E5%84%BF%E6%B7%80%E7%B2%89%E6%A0%B7%E5%8F%98%E6%80%A7%E7%97%85/4616703", "lemmaPic": []}, {"lemmaId": 3929119, "lemmaTitle": "米氏链球菌肺炎", "lemmaCroppedTitle": "米氏链球菌肺炎", "lemmaDesc": "米氏链球菌是链球菌属中的一类，它又分为β-溶血性咽峡链球菌，α或β-溶血性的星座...", "lemmaUrl": "http://baike.baidu.com/item/%E7%B1%B3%E6%B0%8F%E9%93%BE%E7%90%83%E8%8F%8C%E8%82%BA%E7%82%8E/3929119", "lemmaPic": []}, {"lemmaId": 7555305, "lemmaTitle": "玻璃体疝", "lemmaCroppedTitle": "玻璃体疝", "lemmaDesc": "玻璃体疝指玻璃体经瞳孔向前房凸出。常见于白内障囊内摘除术后，白内障囊外摘除时发生...", "lemmaUrl": "http://baike.baidu.com/item/%E7%8E%BB%E7%92%83%E4%BD%93%E7%96%9D/7555305", "lemmaPic": []}, {"lemmaId": 4620195, "lemmaTitle": "小儿多发性肾小管功能障碍综合征", "lemmaCroppedTitle": "小儿多发性肾小管功能障碍综合征", "lemmaDesc": "小儿多发性肾小管功能障碍综合征（Lignac Fanconi syndrome）...", "lemmaUrl": "http://baike.baidu.com/item/%E5%B0%8F%E5%84%BF%E5%A4%9A%E5%8F%91%E6%80%A7%E8%82%BE%E5%B0%8F%E7%AE%A1%E5%8A%9F%E8%83%BD%E9%9A%9C%E7%A2%8D%E7%BB%BC%E5%90%88%E5%BE%81/4620195", "lemmaPic": []}, {"lemmaId": 3934338, "lemmaTitle": "神思间病", "lemmaCroppedTitle": "神思间病", "lemmaDesc": "神思间病泛指精神、神经活动特别是思维意识活动失常的一类病证。", "lemmaUrl": "http://baike.baidu.com/item/%E7%A5%9E%E6%80%9D%E9%97%B4%E7%97%85/3934338", "lemmaPic": []}, {"lemmaId": 7926161, "lemmaTitle": "胸腺类癌", "lemmaCroppedTitle": "胸腺类癌", "lemmaDesc": "胸腺神经内分泌细胞肿瘤分为两大类，一类是胸腺类癌，另一类是胸腺小细胞癌。胸腺神经...", "lemmaUrl": "http://baike.baidu.com/item/%E8%83%B8%E8%85%BA%E7%B1%BB%E7%99%8C/7926161", "lemmaPic": []}, {"lemmaId": 8414479, "lemmaTitle": "奈瑟卡他球菌肺炎", "lemmaCroppedTitle": "奈瑟卡他球菌肺炎", "lemmaDesc": "奈瑟卡他球菌，是一种不同于卡他布兰汉菌的革兰阴性双球菌。已知该菌可引起多种疾病，...", "lemmaUrl": "http://baike.baidu.com/item/%E5%A5%88%E7%91%9F%E5%8D%A1%E4%BB%96%E7%90%83%E8%8F%8C%E8%82%BA%E7%82%8E/8414479", "lemmaPic": []}, {"lemmaId": 3933555, "lemmaTitle": "锑末沉着症", "lemmaCroppedTitle": "锑末沉着症", "lemmaDesc": "高浓度金属锑及其氧化物可产生刺激作用引起结膜炎、角膜炎、鼻炎、咽炎、支气管炎及化...", "lemmaUrl": "http://baike.baidu.com/item/%E9%94%91%E6%9C%AB%E6%B2%89%E7%9D%80%E7%97%87/3933555", "lemmaPic": []}, {"lemmaId": 7253528, "lemmaTitle": "心肌梗死并发二尖瓣关闭不全", "lemmaCroppedTitle": "心肌梗死并发二尖瓣关闭不全", "lemmaDesc": "心肌梗死病变累及乳头肌可产生程度不等的二尖瓣关闭不全。冠状动脉粥样硬化性心脏病人...", "lemmaUrl": "http://baike.baidu.com/item/%E5%BF%83%E8%82%8C%E6%A2%97%E6%AD%BB%E5%B9%B6%E5%8F%91%E4%BA%8C%E5%B0%96%E7%93%A3%E5%85%B3%E9%97%AD%E4%B8%8D%E5%85%A8/7253528", "lemmaPic": []}, {"lemmaId": 2390942, "lemmaTitle": "黏脂贮积症Ⅳ型", "lemmaCroppedTitle": "黏脂贮积症Ⅳ型", "lemmaDesc": "Kohn（1975）研究了5例犹太病人，发现一种黏脂病的变异型。同年，Merin...", "lemmaUrl": "http://baike.baidu.com/item/%E9%BB%8F%E8%84%82%E8%B4%AE%E7%A7%AF%E7%97%87%E2%85%A3%E5%9E%8B/2390942", "lemmaPic": []}, {"lemmaId": 2989985, "lemmaTitle": "面瘫唇肿裂纹舌综合征", "lemmaCroppedTitle": "面瘫唇肿裂纹舌综合征", "lemmaDesc": "面瘫-唇肿-裂纹舌综合征是1928年Melkersson和1930年Rosent...", "lemmaUrl": "http://baike.baidu.com/item/%E9%9D%A2%E7%98%AB%E5%94%87%E8%82%BF%E8%A3%82%E7%BA%B9%E8%88%8C%E7%BB%BC%E5%90%88%E5%BE%81/2989985", "lemmaPic": []}, {"lemmaId": 9345249, "lemmaTitle": "先天性肺不发育或发育不全", "lemmaCroppedTitle": "先天性肺不发育或发育不全", "lemmaDesc": "先天性肺不发育和肺发育不全是胚胎发育过程中肺芽发育产生障碍所致。发病率较低，因放...", "lemmaUrl": "http://baike.baidu.com/item/%E5%85%88%E5%A4%A9%E6%80%A7%E8%82%BA%E4%B8%8D%E5%8F%91%E8%82%B2%E6%88%96%E5%8F%91%E8%82%B2%E4%B8%8D%E5%85%A8/9345249", "lemmaPic": []}, {"lemmaId": 1968415, "lemmaTitle": "耳内脑膜脑疝", "lemmaCroppedTitle": "耳内脑膜脑疝", "lemmaDesc": "耳内脑膜脑疝是指多种原因引起鼓室乳突部骨质缺损，使脑膜脑实质疝入鼓室或乳突腔内。...", "lemmaUrl": "http://baike.baidu.com/item/%E8%80%B3%E5%86%85%E8%84%91%E8%86%9C%E8%84%91%E7%96%9D/1968415", "lemmaPic": []}, {"lemmaId": 7253478, "lemmaTitle": "三尖瓣畸形", "lemmaCroppedTitle": "三尖瓣畸形", "lemmaDesc": "三尖瓣畸形是很少见的畸形，很少孤立出现，多与其他畸形合并存在。三尖瓣畸形可分为以...", "lemmaUrl": "http://baike.baidu.com/item/%E4%B8%89%E5%B0%96%E7%93%A3%E7%95%B8%E5%BD%A2/7253478", "lemmaPic": []}, {"lemmaId": 466311, "lemmaTitle": "小儿出血性疾病", "lemmaCroppedTitle": "小儿出血性疾病", "lemmaDesc": "小儿出血性疾病是指正常止血功能发生了障碍而引起的以出血为主要表现的疾病的总称，临...", "lemmaUrl": "http://baike.baidu.com/item/%E5%B0%8F%E5%84%BF%E5%87%BA%E8%A1%80%E6%80%A7%E7%96%BE%E7%97%85/466311", "lemmaPic": []}, {"lemmaId": 966854, "lemmaTitle": "银屑病关节炎性巩膜炎", "lemmaCroppedTitle": "银屑病关节炎性巩膜炎", "lemmaDesc": "银屑病性关节炎（PsA）是以银屑病（皮肤和（或）指甲）、关节炎（周围关节和（或）...", "lemmaUrl": "http://baike.baidu.com/item/%E9%93%B6%E5%B1%91%E7%97%85%E5%85%B3%E8%8A%82%E7%82%8E%E6%80%A7%E5%B7%A9%E8%86%9C%E7%82%8E/966854", "lemmaPic": []}, {"lemmaId": 1301866, "lemmaTitle": "小儿结节性甲状腺肿", "lemmaCroppedTitle": "小儿结节性甲状腺肿", "lemmaDesc": "小儿结节性甲状腺肿指肿大的甲状腺组织为单个或多发性结节（2个结节以上），多数属腺...", "lemmaUrl": "http://baike.baidu.com/item/%E5%B0%8F%E5%84%BF%E7%BB%93%E8%8A%82%E6%80%A7%E7%94%B2%E7%8A%B6%E8%85%BA%E8%82%BF/1301866", "lemmaPic": []}, {"lemmaId": 8366654, "lemmaTitle": "鼻疽假单胞菌肺炎", "lemmaCroppedTitle": "鼻疽假单胞菌肺炎", "lemmaDesc": "假单胞菌属细菌是一组革兰阴性无芽胞杆菌。本属细菌种类很多，可达200余种，鼻疽假...", "lemmaUrl": "http://baike.baidu.com/item/%E9%BC%BB%E7%96%BD%E5%81%87%E5%8D%95%E8%83%9E%E8%8F%8C%E8%82%BA%E7%82%8E/8366654", "lemmaPic": []}, {"lemmaId": 9298478, "lemmaTitle": "小儿慢性粒细胞白血病", "lemmaCroppedTitle": "小儿慢性粒细胞白血病", "lemmaDesc": "儿童慢性粒细胞性白血病（childhood chronicmyeloid leu...", "lemmaUrl": "http://baike.baidu.com/item/%E5%B0%8F%E5%84%BF%E6%85%A2%E6%80%A7%E7%B2%92%E7%BB%86%E8%83%9E%E7%99%BD%E8%A1%80%E7%97%85/9298478", "lemmaPic": []}, {"lemmaId": 2908468, "lemmaTitle": "幼年型类天疱疮", "lemmaCroppedTitle": "幼年型类天疱疮", "lemmaDesc": "类天疱疮是指一种获得性自身免疫性大疱性皮肤疾病，半数幼年型类天疱疮的发病年龄小于...", "lemmaUrl": "http://baike.baidu.com/item/%E5%B9%BC%E5%B9%B4%E5%9E%8B%E7%B1%BB%E5%A4%A9%E7%96%B1%E7%96%AE/2908468", "lemmaPic": []}, {"lemmaId": 11049257, "lemmaTitle": "常现丝虫病", "lemmaCroppedTitle": "常现丝虫病", "lemmaDesc": "常现丝虫病，又称常现棘唇线虫病，系由常现丝虫寄生于体腔（胸腔、腹腔和心包）、肠系...", "lemmaUrl": "http://baike.baidu.com/item/%E5%B8%B8%E7%8E%B0%E4%B8%9D%E8%99%AB%E7%97%85/11049257", "lemmaPic": []}], "total": 7246, "totalPage": 73, "page": 61, "fromLemma": 0}