{"lemmaList": [{"lemmaId": 2829462, "lemmaTitle": "皮样囊肿", "lemmaCroppedTitle": "皮样囊肿", "lemmaDesc": "皮样囊肿属先天性疾患，是一种错构瘤，常位于皮下，偶见于黏膜下或体内器官。囊肿位置...", "lemmaUrl": "http://baike.baidu.com/item/%E7%9A%AE%E6%A0%B7%E5%9B%8A%E8%82%BF/2829462", "lemmaPic": []}, {"lemmaId": 9993231, "lemmaTitle": "颅内血肿", "lemmaCroppedTitle": "颅内血肿", "lemmaDesc": "由于创伤等原因，当脑内的或者脑组织和颅骨之间的血管破裂之后，血液集聚于脑内或者脑...", "lemmaUrl": "http://baike.baidu.com/item/%E9%A2%85%E5%86%85%E8%A1%80%E8%82%BF/9993231", "lemmaPic": []}, {"lemmaId": 2826644, "lemmaTitle": "昏厥", "lemmaCroppedTitle": "昏厥", "lemmaDesc": "昏厥是以突然昏倒，不省人事为特征的内科急症。", "lemmaUrl": "http://baike.baidu.com/item/%E6%98%8F%E5%8E%A5/2826644", "lemmaPic": []}, {"lemmaId": 10502022, "lemmaTitle": "鼻前庭炎", "lemmaCroppedTitle": "鼻前庭炎", "lemmaDesc": "鼻前庭炎是鼻前庭皮肤的弥漫性炎症，可分为急性和慢性两种。", "lemmaUrl": "http://baike.baidu.com/item/%E9%BC%BB%E5%89%8D%E5%BA%AD%E7%82%8E/10502022", "lemmaPic": []}, {"lemmaId": 1502386, "lemmaTitle": "解离症", "lemmaCroppedTitle": "解离症", "lemmaDesc": "解离症，对大家来说这是一种较为陌生的精神疾病。一般来说，解离症的发生率也较其他疾...", "lemmaUrl": "http://baike.baidu.com/item/%E8%A7%A3%E7%A6%BB%E7%97%87/1502386", "lemmaPic": []}, {"lemmaId": 3155476, "lemmaTitle": "胃泌素瘤", "lemmaCroppedTitle": "胃泌素瘤", "lemmaDesc": "胃泌素瘤是一种胃肠胰神经内分泌肿瘤，以难治性、反复发作或不典型部位的消化性溃疡、...", "lemmaUrl": "http://baike.baidu.com/item/%E8%83%83%E6%B3%8C%E7%B4%A0%E7%98%A4/3155476", "lemmaPic": []}, {"lemmaId": 6873691, "lemmaTitle": "肛周炎", "lemmaCroppedTitle": "肛周炎", "lemmaDesc": "肛周炎是指肛门出现痒、痛、分泌物增多以至于发生皮肤糜烂、溃疡、皮肤丘疹和苔藓样改...", "lemmaUrl": "http://baike.baidu.com/item/%E8%82%9B%E5%91%A8%E7%82%8E/6873691", "lemmaPic": {"width": 1055, "height": 1102, "url": "https://gss3.bdstatic.com/7Po3dSag_xI4khGkpoWK1HF6hhy/baike/w%3D168/sign=fabf64b8b2b7d0a27bc9009bf3ee760d/f2deb48f8c5494eea79407132df5e0fe99257e01.jpg"}}, {"lemmaId": 1051926, "lemmaTitle": "妊娠合并巨幼红细胞性贫血", "lemmaCroppedTitle": "妊娠合并巨幼红细胞性贫血", "lemmaDesc": "妊娠期对叶酸需求量增加。正常妊娠每天最低需食物叶酸500～600μg，以供胎儿需...", "lemmaUrl": "http://baike.baidu.com/item/%E5%A6%8A%E5%A8%A0%E5%90%88%E5%B9%B6%E5%B7%A8%E5%B9%BC%E7%BA%A2%E7%BB%86%E8%83%9E%E6%80%A7%E8%B4%AB%E8%A1%80/1051926", "lemmaPic": []}, {"lemmaId": 6397772, "lemmaTitle": "新生儿泪囊炎", "lemmaCroppedTitle": "新生儿泪囊炎", "lemmaDesc": "新生儿泪囊炎又称先天性泪囊炎，是由于鼻泪管下端开口处的胚胎残膜在发育过程中不退缩...", "lemmaUrl": "http://baike.baidu.com/item/%E6%96%B0%E7%94%9F%E5%84%BF%E6%B3%AA%E5%9B%8A%E7%82%8E/6397772", "lemmaPic": []}, {"lemmaId": 913163, "lemmaTitle": "抽动秽语综合征", "lemmaCroppedTitle": "抽动秽语综合征", "lemmaDesc": "抽动秽语综合征又称Tourette综合征（TS）或慢性多发性抽动等。是指以不自主...", "lemmaUrl": "http://baike.baidu.com/item/%E6%8A%BD%E5%8A%A8%E7%A7%BD%E8%AF%AD%E7%BB%BC%E5%90%88%E5%BE%81/913163", "lemmaPic": []}, {"lemmaId": 1101903, "lemmaTitle": "会厌炎", "lemmaCroppedTitle": "会厌炎", "lemmaDesc": "急性会厌炎又称急性声门上喉炎，是一种危及生命的严重感染，可引起喉阻塞而窒息死亡。...", "lemmaUrl": "http://baike.baidu.com/item/%E4%BC%9A%E5%8E%8C%E7%82%8E/1101903", "lemmaPic": []}, {"lemmaId": 6837199, "lemmaTitle": "尿妊娠试验", "lemmaCroppedTitle": "尿妊娠试验", "lemmaDesc": "尿妊娠试验也就是俗称的早早孕试验，它是通过检测尿中是否含有一定的人绒毛膜促性腺激...", "lemmaUrl": "http://baike.baidu.com/item/%E5%B0%BF%E5%A6%8A%E5%A8%A0%E8%AF%95%E9%AA%8C/6837199", "lemmaPic": []}, {"lemmaId": 8083241, "lemmaTitle": "烟酸缺乏症", "lemmaCroppedTitle": "烟酸缺乏症", "lemmaDesc": "烟酸缺乏症又称糙皮病，是因烟酸类维生素缺乏，临床以皮炎、舌炎、肠炎、精神异常及周...", "lemmaUrl": "http://baike.baidu.com/item/%E7%83%9F%E9%85%B8%E7%BC%BA%E4%B9%8F%E7%97%87/8083241", "lemmaPic": []}, {"lemmaId": 359516, "lemmaTitle": "镉中毒", "lemmaCroppedTitle": "镉中毒", "lemmaDesc": "镉中毒主要是吸入镉烟尘或镉化合物粉尘引起。一次大量吸入可引起急性肺炎和肺水肿；慢...", "lemmaUrl": "http://baike.baidu.com/item/%E9%95%89%E4%B8%AD%E6%AF%92/359516", "lemmaPic": []}, {"lemmaId": 3145713, "lemmaTitle": "减压病", "lemmaCroppedTitle": "减压病", "lemmaDesc": "减压病是由于高压环境作业后减压不当，体内原已溶解的气体超过了过饱和界限，在血管内...", "lemmaUrl": "http://baike.baidu.com/item/%E5%87%8F%E5%8E%8B%E7%97%85/3145713", "lemmaPic": []}, {"lemmaId": 10335061, "lemmaTitle": "新生儿惊厥", "lemmaCroppedTitle": "新生儿惊厥", "lemmaDesc": "惊厥是大脑皮质功能的暂时紊乱引起脑细胞异常放电。表现为全身或局部骨骼肌群突然发生...", "lemmaUrl": "http://baike.baidu.com/item/%E6%96%B0%E7%94%9F%E5%84%BF%E6%83%8A%E5%8E%A5/10335061", "lemmaPic": []}, {"lemmaId": 3345514, "lemmaTitle": "口周皮炎", "lemmaCroppedTitle": "口周皮炎", "lemmaDesc": "口周皮炎是发生在上唇、颏、鼻唇沟、鼻等处的以红斑、丘疹、鳞屑为主要表现的炎症性皮...", "lemmaUrl": "http://baike.baidu.com/item/%E5%8F%A3%E5%91%A8%E7%9A%AE%E7%82%8E/3345514", "lemmaPic": []}, {"lemmaId": 5241699, "lemmaTitle": "肠道菌群失调症", "lemmaCroppedTitle": "肠道菌群失调症", "lemmaDesc": "健康人的胃肠道内寄居着种类繁多的微生物，这些微生物称为肠道菌群。肠道菌群按一定的...", "lemmaUrl": "http://baike.baidu.com/item/%E8%82%A0%E9%81%93%E8%8F%8C%E7%BE%A4%E5%A4%B1%E8%B0%83%E7%97%87/5241699", "lemmaPic": []}, {"lemmaId": 9751545, "lemmaTitle": "直肠腺癌", "lemmaCroppedTitle": "直肠腺癌", "lemmaDesc": "直肠腺癌属于直肠癌的一种，是指齿状线以上至乙状结肠与直肠移行部之间的腺癌，占结直...", "lemmaUrl": "http://baike.baidu.com/item/%E7%9B%B4%E8%82%A0%E8%85%BA%E7%99%8C/9751545", "lemmaPic": []}, {"lemmaId": 4994838, "lemmaTitle": "先天性脊柱裂", "lemmaCroppedTitle": "先天性脊柱裂", "lemmaDesc": "脊柱裂是脊椎管的一部分没有完全闭合的状态，是一种常见的先天性神经管畸形（无脑儿、...", "lemmaUrl": "http://baike.baidu.com/item/%E5%85%88%E5%A4%A9%E6%80%A7%E8%84%8A%E6%9F%B1%E8%A3%82/4994838", "lemmaPic": []}, {"lemmaId": 4987120, "lemmaTitle": "乳腺导管扩张症", "lemmaCroppedTitle": "乳腺导管扩张症", "lemmaDesc": "乳腺导管扩张症是一种并不少见的良性疾病，常见于中、老年女性，发病高峰年龄为50-...", "lemmaUrl": "http://baike.baidu.com/item/%E4%B9%B3%E8%85%BA%E5%AF%BC%E7%AE%A1%E6%89%A9%E5%BC%A0%E7%97%87/4987120", "lemmaPic": []}, {"lemmaId": 6197064, "lemmaTitle": "口炎", "lemmaCroppedTitle": "口炎", "lemmaDesc": "口炎是口腔黏膜的炎症，可波及颊黏膜、舌、齿龈、上腭等处。在小儿时期较多见，尤其是...", "lemmaUrl": "http://baike.baidu.com/item/%E5%8F%A3%E7%82%8E/6197064", "lemmaPic": []}, {"lemmaId": 7914389, "lemmaTitle": "前庭神经元炎", "lemmaCroppedTitle": "前庭神经元炎", "lemmaDesc": "前庭神经元炎系因前庭神经元受累所致的一种突发性眩晕疾病，为末梢神经炎的一种。病变...", "lemmaUrl": "http://baike.baidu.com/item/%E5%89%8D%E5%BA%AD%E7%A5%9E%E7%BB%8F%E5%85%83%E7%82%8E/7914389", "lemmaPic": []}, {"lemmaId": 9873907, "lemmaTitle": "膀胱过度活动症", "lemmaCroppedTitle": "膀胱过度活动症", "lemmaDesc": "膀胱过度活动症（OAB）是一种以尿急症状为特征的症候群，常伴有尿频和夜尿症状，可...", "lemmaUrl": "http://baike.baidu.com/item/%E8%86%80%E8%83%B1%E8%BF%87%E5%BA%A6%E6%B4%BB%E5%8A%A8%E7%97%87/9873907", "lemmaPic": []}, {"lemmaId": 10851450, "lemmaTitle": "目赤", "lemmaCroppedTitle": "目赤", "lemmaDesc": "目赤是指眼结膜充血，俗称火眼，多由于风火、肝火或阴虚火旺所致。常见于中医学的暴风...", "lemmaUrl": "http://baike.baidu.com/item/%E7%9B%AE%E8%B5%A4/10851450", "lemmaPic": []}, {"lemmaId": 3779340, "lemmaTitle": "囊肿性痤疮", "lemmaCroppedTitle": "囊肿性痤疮", "lemmaDesc": "囊肿性痤疮是一种重度（Ⅳ级）痤疮（俗称&quot;青春痘&quot;），表现为大...", "lemmaUrl": "http://baike.baidu.com/item/%E5%9B%8A%E8%82%BF%E6%80%A7%E7%97%A4%E7%96%AE/3779340", "lemmaPic": []}, {"lemmaId": 4152634, "lemmaTitle": "髋关节炎", "lemmaCroppedTitle": "髋关节炎", "lemmaDesc": "髋关节炎通常是指由于髋关节面长期负重不均衡所致的关节软骨变性或骨质结构改变的一类...", "lemmaUrl": "http://baike.baidu.com/item/%E9%AB%8B%E5%85%B3%E8%8A%82%E7%82%8E/4152634", "lemmaPic": []}, {"lemmaId": 3143176, "lemmaTitle": "智力低下", "lemmaCroppedTitle": "智力低下", "lemmaDesc": "智力低下发生在发育时期内，一般智力功能明显低于同龄水平，同时伴有适应性行为缺陷的...", "lemmaUrl": "http://baike.baidu.com/item/%E6%99%BA%E5%8A%9B%E4%BD%8E%E4%B8%8B/3143176", "lemmaPic": []}, {"lemmaId": 3592881, "lemmaTitle": "韧带损伤", "lemmaCroppedTitle": "韧带损伤", "lemmaDesc": "韧带连接骨与骨，为明显的纤维组织，或附于骨的表面或与关节囊的外层融合，以加强关节...", "lemmaUrl": "http://baike.baidu.com/item/%E9%9F%A7%E5%B8%A6%E6%8D%9F%E4%BC%A4/3592881", "lemmaPic": []}, {"lemmaId": 1712001, "lemmaTitle": "肺动脉栓塞", "lemmaCroppedTitle": "肺动脉栓塞", "lemmaDesc": "肺动脉栓塞（PE）是指内源性或外源性栓子堵塞肺动脉或其分支引起肺循环障碍的临床和...", "lemmaUrl": "http://baike.baidu.com/item/%E8%82%BA%E5%8A%A8%E8%84%89%E6%A0%93%E5%A1%9E/1712001", "lemmaPic": []}, {"lemmaId": 8856638, "lemmaTitle": "牙龈增生", "lemmaCroppedTitle": "牙龈增生", "lemmaDesc": "牙龈增生指牙龈组织的细胞成分增多所致的牙龈体积增大，可见于牙菌斑生物膜引起的牙龈...", "lemmaUrl": "http://baike.baidu.com/item/%E7%89%99%E9%BE%88%E5%A2%9E%E7%94%9F/8856638", "lemmaPic": []}, {"lemmaId": 3841204, "lemmaTitle": "子宫畸形", "lemmaCroppedTitle": "子宫畸形", "lemmaDesc": "子宫畸形，又称子宫发育异常，是一种先天性疾患，也是生殖器官畸形中最常见的一种。有...", "lemmaUrl": "http://baike.baidu.com/item/%E5%AD%90%E5%AE%AB%E7%95%B8%E5%BD%A2/3841204", "lemmaPic": []}, {"lemmaId": 11003873, "lemmaTitle": "肺痈", "lemmaCroppedTitle": "肺痈", "lemmaDesc": "肺痈是指由于热毒瘀结于肺，以致肺叶生疮，肉败血腐，形成脓疡，以发热，咳嗽，胸痛，...", "lemmaUrl": "http://baike.baidu.com/item/%E8%82%BA%E7%97%88/11003873", "lemmaPic": []}, {"lemmaId": 3720936, "lemmaTitle": "外耳湿疹", "lemmaCroppedTitle": "外耳湿疹", "lemmaDesc": "湿疹是指由多种内外因素引起的变态反应性多形性皮炎，组织学上表现为细胞浸润，有浆液...", "lemmaUrl": "http://baike.baidu.com/item/%E5%A4%96%E8%80%B3%E6%B9%BF%E7%96%B9/3720936", "lemmaPic": []}, {"lemmaId": 3694038, "lemmaTitle": "局部麻醉", "lemmaCroppedTitle": "局部麻醉", "lemmaDesc": "局部麻醉也称部位麻醉，是指在患者神志清醒状态下，将局麻药应用于身体局部，使机体某...", "lemmaUrl": "http://baike.baidu.com/item/%E5%B1%80%E9%83%A8%E9%BA%BB%E9%86%89/3694038", "lemmaPic": []}, {"lemmaId": 5360328, "lemmaTitle": "小儿厌食症", "lemmaCroppedTitle": "小儿厌食症", "lemmaDesc": "小儿厌食症是指小儿（主要是3～6岁）较长期食欲减退或食欲缺乏为主的症状。它是一种...", "lemmaUrl": "http://baike.baidu.com/item/%E5%B0%8F%E5%84%BF%E5%8E%8C%E9%A3%9F%E7%97%87/5360328", "lemmaPic": []}, {"lemmaId": 2254120, "lemmaTitle": "三尖瓣关闭不全", "lemmaCroppedTitle": "三尖瓣关闭不全", "lemmaDesc": "最常见病因为继发于右心室扩张、瓣环扩大的功能性关闭不全，原发病常为风湿性二尖瓣病...", "lemmaUrl": "http://baike.baidu.com/item/%E4%B8%89%E5%B0%96%E7%93%A3%E5%85%B3%E9%97%AD%E4%B8%8D%E5%85%A8/2254120", "lemmaPic": []}, {"lemmaId": 10304793, "lemmaTitle": "胆管炎", "lemmaCroppedTitle": "胆管炎", "lemmaDesc": "胆道炎症以胆管炎症为主者称胆管炎，以胆囊炎症为主者称胆囊炎。两者常同时发生，多是...", "lemmaUrl": "http://baike.baidu.com/item/%E8%83%86%E7%AE%A1%E7%82%8E/10304793", "lemmaPic": []}, {"lemmaId": 7962434, "lemmaTitle": "先天性肾上腺皮质增生症", "lemmaCroppedTitle": "先天性肾上腺皮质增生症", "lemmaDesc": "先天性肾上腺皮质增生症（CAH）是较常见的常染色体隐性遗传病，由于皮质激素合成过...", "lemmaUrl": "http://baike.baidu.com/item/%E5%85%88%E5%A4%A9%E6%80%A7%E8%82%BE%E4%B8%8A%E8%85%BA%E7%9A%AE%E8%B4%A8%E5%A2%9E%E7%94%9F%E7%97%87/7962434", "lemmaPic": []}, {"lemmaId": 8854402, "lemmaTitle": "桡神经损伤", "lemmaCroppedTitle": "桡神经损伤", "lemmaDesc": "桡神经在肱骨中下1/3处贴近骨干，此处肱骨骨折时桡神经易受损伤。骨痂生长过多和桡...", "lemmaUrl": "http://baike.baidu.com/item/%E6%A1%A1%E7%A5%9E%E7%BB%8F%E6%8D%9F%E4%BC%A4/8854402", "lemmaPic": []}, {"lemmaId": 10025462, "lemmaTitle": "退行性关节炎", "lemmaCroppedTitle": "退行性关节炎", "lemmaDesc": "退行性关节炎发生于老年的特发性、慢性进行性疾病。病理特点为局灶性关节软骨的退行性...", "lemmaUrl": "http://baike.baidu.com/item/%E9%80%80%E8%A1%8C%E6%80%A7%E5%85%B3%E8%8A%82%E7%82%8E/10025462", "lemmaPic": []}, {"lemmaId": 9335483, "lemmaTitle": "阴茎异常勃起症", "lemmaCroppedTitle": "阴茎异常勃起症", "lemmaDesc": "阴茎异常勃起（ED）是指在非刺激条件下引起的阴茎持续勃起，或性高潮后也不疲软，这...", "lemmaUrl": "http://baike.baidu.com/item/%E9%98%B4%E8%8C%8E%E5%BC%82%E5%B8%B8%E5%8B%83%E8%B5%B7%E7%97%87/9335483", "lemmaPic": []}, {"lemmaId": 2352294, "lemmaTitle": "Brenneman综合征", "lemmaCroppedTitle": "Brenneman综合征", "lemmaDesc": "Brenneman综合征于1921年由Brenneman首先报道。又名咽喉病毒感...", "lemmaUrl": "http://baike.baidu.com/item/Brenneman%E7%BB%BC%E5%90%88%E5%BE%81/2352294", "lemmaPic": []}, {"lemmaId": 10189357, "lemmaTitle": "华支睾吸虫病", "lemmaCroppedTitle": "华支睾吸虫病", "lemmaDesc": "华支睾吸虫病是由华支睾吸虫寄生于人体肝内胆管所引起的寄生虫病。人类常因食用未经煮...", "lemmaUrl": "http://baike.baidu.com/item/%E5%8D%8E%E6%94%AF%E7%9D%BE%E5%90%B8%E8%99%AB%E7%97%85/10189357", "lemmaPic": []}, {"lemmaId": 5358707, "lemmaTitle": "小儿缺铁性贫血", "lemmaCroppedTitle": "小儿缺铁性贫血", "lemmaDesc": "是婴幼儿时期最常见的一种贫血。其发生的根本病因是体内铁缺乏，致使血红蛋白合成减少...", "lemmaUrl": "http://baike.baidu.com/item/%E5%B0%8F%E5%84%BF%E7%BC%BA%E9%93%81%E6%80%A7%E8%B4%AB%E8%A1%80/5358707", "lemmaPic": []}, {"lemmaId": 7763361, "lemmaTitle": "多发性神经炎", "lemmaCroppedTitle": "多发性神经炎", "lemmaDesc": "多发性神经炎，以往称为末梢神经炎，是指各种不同病因引起的全身多数周围神经的对称性...", "lemmaUrl": "http://baike.baidu.com/item/%E5%A4%9A%E5%8F%91%E6%80%A7%E7%A5%9E%E7%BB%8F%E7%82%8E/7763361", "lemmaPic": []}, {"lemmaId": 9995016, "lemmaTitle": "症瘕", "lemmaCroppedTitle": "症瘕", "lemmaDesc": "妇科症瘕为腹中结块的病。坚硬不移动，痛有定处为“症”；聚散无常，痛无定处为“瘕”...", "lemmaUrl": "http://baike.baidu.com/item/%E7%97%87%E7%98%95/9995016", "lemmaPic": []}, {"lemmaId": 1631695, "lemmaTitle": "胸椎病", "lemmaCroppedTitle": "胸椎病", "lemmaDesc": "胸椎病是脊柱病中常见的疾病之一，主要是由于胸椎退行性增生造成，以下位胸椎居多见。...", "lemmaUrl": "http://baike.baidu.com/item/%E8%83%B8%E6%A4%8E%E7%97%85/1631695", "lemmaPic": []}, {"lemmaId": 8111299, "lemmaTitle": "季节性鼻炎", "lemmaCroppedTitle": "季节性鼻炎", "lemmaDesc": "每到花粉播散季节便开始发病，每年发病季节基本一致，这种鼻炎叫季节性鼻炎。季节性鼻...", "lemmaUrl": "http://baike.baidu.com/item/%E5%AD%A3%E8%8A%82%E6%80%A7%E9%BC%BB%E7%82%8E/8111299", "lemmaPic": []}, {"lemmaId": 11055565, "lemmaTitle": "中气下陷", "lemmaCroppedTitle": "中气下陷", "lemmaDesc": "中医病证名，亦指中医病机。中气下陷，属气陷证的一种，多由气虚发展而来，是指脾气虚...", "lemmaUrl": "http://baike.baidu.com/item/%E4%B8%AD%E6%B0%94%E4%B8%8B%E9%99%B7/11055565", "lemmaPic": []}, {"lemmaId": 5064587, "lemmaTitle": "骨筋膜室综合征", "lemmaCroppedTitle": "骨筋膜室综合征", "lemmaDesc": "骨筋膜室是由骨、骨间膜、肌间隔及深筋膜所构成。骨筋膜室综合征是指骨筋膜室内的肌肉...", "lemmaUrl": "http://baike.baidu.com/item/%E9%AA%A8%E7%AD%8B%E8%86%9C%E5%AE%A4%E7%BB%BC%E5%90%88%E5%BE%81/5064587", "lemmaPic": []}, {"lemmaId": 240618, "lemmaTitle": "面部吸脂", "lemmaCroppedTitle": "面部吸脂", "lemmaDesc": "吸脂术，全称为脂肪抽吸术，是利用负压吸引和（或）超声波、高频电场等物理化学手段，...", "lemmaUrl": "http://baike.baidu.com/item/%E9%9D%A2%E9%83%A8%E5%90%B8%E8%84%82/240618", "lemmaPic": []}, {"lemmaId": 3062680, "lemmaTitle": "过敏性紫癜肾炎", "lemmaCroppedTitle": "过敏性紫癜肾炎", "lemmaDesc": "过敏性紫癜肾炎系指过敏性紫癜以坏死性小血管炎为主要病理改变的全身性疾病引起的肾损...", "lemmaUrl": "http://baike.baidu.com/item/%E8%BF%87%E6%95%8F%E6%80%A7%E7%B4%AB%E7%99%9C%E8%82%BE%E7%82%8E/3062680", "lemmaPic": []}, {"lemmaId": 1403357, "lemmaTitle": "阿米巴痢疾", "lemmaCroppedTitle": "阿米巴痢疾", "lemmaDesc": "阿米巴痢疾是由溶组织内阿米巴寄生于结肠内引起的疾病，常称为肠阿米巴病或阿米巴结肠...", "lemmaUrl": "http://baike.baidu.com/item/%E9%98%BF%E7%B1%B3%E5%B7%B4%E7%97%A2%E7%96%BE/1403357", "lemmaPic": []}, {"lemmaId": 9695397, "lemmaTitle": "无菌性炎症", "lemmaCroppedTitle": "无菌性炎症", "lemmaDesc": "具有血管系统的活体组织对损伤因子所发生的防御反应为炎症。炎症，就是平时人们所说的...", "lemmaUrl": "http://baike.baidu.com/item/%E6%97%A0%E8%8F%8C%E6%80%A7%E7%82%8E%E7%97%87/9695397", "lemmaPic": []}, {"lemmaId": 1506112, "lemmaTitle": "维生素缺乏症", "lemmaCroppedTitle": "维生素缺乏症", "lemmaDesc": "维生素是维持人和动物机体健康所必需的一类营养素，为低分子有机化合物，它们绝大多数...", "lemmaUrl": "http://baike.baidu.com/item/%E7%BB%B4%E7%94%9F%E7%B4%A0%E7%BC%BA%E4%B9%8F%E7%97%87/1506112", "lemmaPic": []}, {"lemmaId": 1682704, "lemmaTitle": "颈型颈椎病", "lemmaCroppedTitle": "颈型颈椎病", "lemmaDesc": "颈型颈椎病也称局部型颈椎病，具有头、肩、颈、臂的疼痛及相应的压痛点，X线片上没有...", "lemmaUrl": "http://baike.baidu.com/item/%E9%A2%88%E5%9E%8B%E9%A2%88%E6%A4%8E%E7%97%85/1682704", "lemmaPic": []}, {"lemmaId": 3272820, "lemmaTitle": "病毒性感染", "lemmaCroppedTitle": "病毒性感染", "lemmaDesc": "能在人体寄生繁殖，并能致病的病毒引起的传染病。主要表现有发热、头痛、全身不适等全...", "lemmaUrl": "http://baike.baidu.com/item/%E7%97%85%E6%AF%92%E6%80%A7%E6%84%9F%E6%9F%93/3272820", "lemmaPic": []}, {"lemmaId": 2533283, "lemmaTitle": "喉痹", "lemmaCroppedTitle": "喉痹", "lemmaDesc": "喉痹，中医耳鼻喉科疾病咽喉病名词。是指以咽部红肿疼痛，或干燥、异物感，或咽痒不适...", "lemmaUrl": "http://baike.baidu.com/item/%E5%96%89%E7%97%B9/2533283", "lemmaPic": []}, {"lemmaId": 9004938, "lemmaTitle": "心阳虚", "lemmaCroppedTitle": "心阳虚", "lemmaDesc": "心阳虚证是指心之阳气不足，虚寒内生所引起，临床以胸闷胸痛，心悸冷汗，恶寒肢冷为主...", "lemmaUrl": "http://baike.baidu.com/item/%E5%BF%83%E9%98%B3%E8%99%9A/9004938", "lemmaPic": []}, {"lemmaId": 5359046, "lemmaTitle": "小儿急性支气管炎", "lemmaCroppedTitle": "小儿急性支气管炎", "lemmaDesc": "急性支气管炎是指由于各种致病原引起的支气管黏膜炎症，由于气管常同时受累，故也称为...", "lemmaUrl": "http://baike.baidu.com/item/%E5%B0%8F%E5%84%BF%E6%80%A5%E6%80%A7%E6%94%AF%E6%B0%94%E7%AE%A1%E7%82%8E/5359046", "lemmaPic": []}, {"lemmaId": 2255007, "lemmaTitle": "细菌性肺炎", "lemmaCroppedTitle": "细菌性肺炎", "lemmaDesc": "细菌性肺炎是最常见的肺炎，也是最常见的感染性疾病之一，它主要包括肺炎链球菌、金黄...", "lemmaUrl": "http://baike.baidu.com/item/%E7%BB%86%E8%8F%8C%E6%80%A7%E8%82%BA%E7%82%8E/2255007", "lemmaPic": []}, {"lemmaId": 2861426, "lemmaTitle": "嗜酸性粒细胞增多症", "lemmaCroppedTitle": "嗜酸性粒细胞增多症", "lemmaDesc": "嗜酸性粒细胞是白细胞的组成部分，与其他粒细胞一样来源于骨髓的造血干细胞，在粒细胞...", "lemmaUrl": "http://baike.baidu.com/item/%E5%97%9C%E9%85%B8%E6%80%A7%E7%B2%92%E7%BB%86%E8%83%9E%E5%A2%9E%E5%A4%9A%E7%97%87/2861426", "lemmaPic": []}, {"lemmaId": 7991114, "lemmaTitle": "新生儿巨细胞病毒感染", "lemmaCroppedTitle": "新生儿巨细胞病毒感染", "lemmaDesc": "新生儿巨细胞病毒感染是人巨细胞病毒（HCMV）引起的一种全身性感染综合征。因受染...", "lemmaUrl": "http://baike.baidu.com/item/%E6%96%B0%E7%94%9F%E5%84%BF%E5%B7%A8%E7%BB%86%E8%83%9E%E7%97%85%E6%AF%92%E6%84%9F%E6%9F%93/7991114", "lemmaPic": []}, {"lemmaId": 4262334, "lemmaTitle": "老年皮肤瘙痒症", "lemmaCroppedTitle": "老年皮肤瘙痒症", "lemmaDesc": "老年皮肤瘙痒症是临床上常见的皮肤病之一，分全身性和局限性两种，多见于老年人。局限...", "lemmaUrl": "http://baike.baidu.com/item/%E8%80%81%E5%B9%B4%E7%9A%AE%E8%82%A4%E7%98%99%E7%97%92%E7%97%87/4262334", "lemmaPic": []}, {"lemmaId": 5120191, "lemmaTitle": "神经源性膀胱", "lemmaCroppedTitle": "神经源性膀胱", "lemmaDesc": "控制排尿功能的中枢神经系统或周围神经受到损害而引起的膀胱尿道功能障碍称为神经原性...", "lemmaUrl": "http://baike.baidu.com/item/%E7%A5%9E%E7%BB%8F%E6%BA%90%E6%80%A7%E8%86%80%E8%83%B1/5120191", "lemmaPic": []}, {"lemmaId": 479013, "lemmaTitle": "神经内分泌肿瘤", "lemmaCroppedTitle": "神经内分泌肿瘤", "lemmaDesc": "神经内分泌肿瘤是起源于神经内分泌细胞的肿瘤。神经内分泌细胞是机体内具有神经内分泌...", "lemmaUrl": "http://baike.baidu.com/item/%E7%A5%9E%E7%BB%8F%E5%86%85%E5%88%86%E6%B3%8C%E8%82%BF%E7%98%A4/479013", "lemmaPic": []}, {"lemmaId": 10095136, "lemmaTitle": "玻璃体后脱离", "lemmaCroppedTitle": "玻璃体后脱离", "lemmaDesc": "玻璃体后脱离（PVD）指玻璃体后皮质从视网膜内表面分离，通常在玻璃体液化的基础上...", "lemmaUrl": "http://baike.baidu.com/item/%E7%8E%BB%E7%92%83%E4%BD%93%E5%90%8E%E8%84%B1%E7%A6%BB/10095136", "lemmaPic": []}, {"lemmaId": 5085415, "lemmaTitle": "低渗性脱水", "lemmaCroppedTitle": "低渗性脱水", "lemmaDesc": "水和钠同时缺失，但缺水少于缺钠，血清钠低于正常范围，细胞外液呈低渗状态。机体减少...", "lemmaUrl": "http://baike.baidu.com/item/%E4%BD%8E%E6%B8%97%E6%80%A7%E8%84%B1%E6%B0%B4/5085415", "lemmaPic": []}, {"lemmaId": 10968534, "lemmaTitle": "心虚", "lemmaCroppedTitle": "心虚", "lemmaDesc": "病证名。出自《素问・脏气法时论》。泛指心之阴、阳、气、血不足的各种病证。一般症状...", "lemmaUrl": "http://baike.baidu.com/item/%E5%BF%83%E8%99%9A/10968534", "lemmaPic": []}, {"lemmaId": 7736239, "lemmaTitle": "宫颈疾病", "lemmaCroppedTitle": "宫颈疾病", "lemmaDesc": "宫颈是女性内生殖器的一部分，宫颈疾病系指宫颈区域发生的各种病变，包括炎症、损伤、...", "lemmaUrl": "http://baike.baidu.com/item/%E5%AE%AB%E9%A2%88%E7%96%BE%E7%97%85/7736239", "lemmaPic": []}, {"lemmaId": 9992452, "lemmaTitle": "脑干损伤", "lemmaCroppedTitle": "脑干损伤", "lemmaDesc": "脑干损伤是一种严重的，甚至是致命的损伤，约有10%～20%的重型颅脑损伤伴有脑干...", "lemmaUrl": "http://baike.baidu.com/item/%E8%84%91%E5%B9%B2%E6%8D%9F%E4%BC%A4/9992452", "lemmaPic": []}, {"lemmaId": 545167, "lemmaTitle": "电击伤", "lemmaCroppedTitle": "电击伤", "lemmaDesc": "是指人体与电源直接接触后电流进入人体，造成机体组织损伤和功能障碍，临床上除表现在...", "lemmaUrl": "http://baike.baidu.com/item/%E7%94%B5%E5%87%BB%E4%BC%A4/545167", "lemmaPic": []}, {"lemmaId": 8326955, "lemmaTitle": "双胎输血综合征", "lemmaCroppedTitle": "双胎输血综合征", "lemmaDesc": "双胎输血综合征（TTTs）是双胎妊娠中的一种严重并发症，围产儿死亡率极高，未经治...", "lemmaUrl": "http://baike.baidu.com/item/%E5%8F%8C%E8%83%8E%E8%BE%93%E8%A1%80%E7%BB%BC%E5%90%88%E5%BE%81/8326955", "lemmaPic": []}, {"lemmaId": 2598927, "lemmaTitle": "过期妊娠", "lemmaCroppedTitle": "过期妊娠", "lemmaDesc": "妊娠达到或超过42周，称为过期妊娠。其发生率占妊娠总数的5%～12%。过期妊娠的...", "lemmaUrl": "http://baike.baidu.com/item/%E8%BF%87%E6%9C%9F%E5%A6%8A%E5%A8%A0/2598927", "lemmaPic": []}, {"lemmaId": 10057311, "lemmaTitle": "甲亢性心脏病", "lemmaCroppedTitle": "甲亢性心脏病", "lemmaDesc": "甲状腺功能亢进心脏病（甲亢心）是由于甲状腺病态地分泌过量的甲状腺激素对心脏直接毒...", "lemmaUrl": "http://baike.baidu.com/item/%E7%94%B2%E4%BA%A2%E6%80%A7%E5%BF%83%E8%84%8F%E7%97%85/10057311", "lemmaPic": []}, {"lemmaId": 6445800, "lemmaTitle": "恶性高血压", "lemmaCroppedTitle": "恶性高血压", "lemmaDesc": "恶性高血压病也称急进型高血压病，较少见，多见于青壮年。可由缓进型高血压恶化而来，...", "lemmaUrl": "http://baike.baidu.com/item/%E6%81%B6%E6%80%A7%E9%AB%98%E8%A1%80%E5%8E%8B/6445800", "lemmaPic": {"width": 200, "height": 200, "url": "https://gss0.bdstatic.com/94o3dSag_xI4khGkpoWK1HF6hhy/baike/w%3D168/sign=0052987cad4bd11304cdb33462aea488/dbb44aed2e738bd47bdbce3ea18b87d6267ff9c3.jpg"}}, {"lemmaId": 1165592, "lemmaTitle": "孕期阴道炎", "lemmaCroppedTitle": "孕期阴道炎", "lemmaDesc": "孕期由于激素水平的变化，阴道的酸碱度容易产生相应的变化，所以这期间容易患阴道炎，...", "lemmaUrl": "http://baike.baidu.com/item/%E5%AD%95%E6%9C%9F%E9%98%B4%E9%81%93%E7%82%8E/1165592", "lemmaPic": []}, {"lemmaId": 8817740, "lemmaTitle": "张力性气胸", "lemmaCroppedTitle": "张力性气胸", "lemmaDesc": "张力性气胸是指较大的肺气泡破裂或较大较深的肺裂伤或支气管破裂，裂口与胸膜腔相通，...", "lemmaUrl": "http://baike.baidu.com/item/%E5%BC%A0%E5%8A%9B%E6%80%A7%E6%B0%94%E8%83%B8/8817740", "lemmaPic": []}, {"lemmaId": 5983051, "lemmaTitle": "肝气犯胃", "lemmaCroppedTitle": "肝气犯胃", "lemmaDesc": "肝气犯胃又名肝胃不和证、肝胃气滞证。是肝失疏泄，横逆犯胃，胃失和降所表现的证候。...", "lemmaUrl": "http://baike.baidu.com/item/%E8%82%9D%E6%B0%94%E7%8A%AF%E8%83%83/5983051", "lemmaPic": []}, {"lemmaId": 10711783, "lemmaTitle": "肾气不固", "lemmaCroppedTitle": "肾气不固", "lemmaDesc": "肾气不固证又称下元不固，是肾气虚衰，封藏失职的一种病理变化。临床上以精关不固而遗...", "lemmaUrl": "http://baike.baidu.com/item/%E8%82%BE%E6%B0%94%E4%B8%8D%E5%9B%BA/10711783", "lemmaPic": []}, {"lemmaId": 1108655, "lemmaTitle": "结节性硬化症", "lemmaCroppedTitle": "结节性硬化症", "lemmaDesc": "结节性硬化症（TSC）又称Bourneville病，是一种常染色体显性遗传的神经...", "lemmaUrl": "http://baike.baidu.com/item/%E7%BB%93%E8%8A%82%E6%80%A7%E7%A1%AC%E5%8C%96%E7%97%87/1108655", "lemmaPic": []}, {"lemmaId": 2352374, "lemmaTitle": "手湿疹", "lemmaCroppedTitle": "手湿疹", "lemmaDesc": "手湿疹是指局限于手部的湿疹，临床上较为常见。病因较为复杂，外因方面常与职业接触有...", "lemmaUrl": "http://baike.baidu.com/item/%E6%89%8B%E6%B9%BF%E7%96%B9/2352374", "lemmaPic": []}, {"lemmaId": 8992141, "lemmaTitle": "腓总神经损伤", "lemmaCroppedTitle": "腓总神经损伤", "lemmaDesc": "腓总神经损伤常因外伤引起，主要表现为足下垂，走路呈跨越步态；踝关节不能背伸及外翻...", "lemmaUrl": "http://baike.baidu.com/item/%E8%85%93%E6%80%BB%E7%A5%9E%E7%BB%8F%E6%8D%9F%E4%BC%A4/8992141", "lemmaPic": []}, {"lemmaId": 4017878, "lemmaTitle": "急性髓细胞白血病", "lemmaCroppedTitle": "急性髓细胞白血病", "lemmaDesc": "急性髓细胞性白血病（Acute myeloid leukemia，AML）是髓系...", "lemmaUrl": "http://baike.baidu.com/item/%E6%80%A5%E6%80%A7%E9%AB%93%E7%BB%86%E8%83%9E%E7%99%BD%E8%A1%80%E7%97%85/4017878", "lemmaPic": []}, {"lemmaId": 5241217, "lemmaTitle": "婴儿脐疝", "lemmaCroppedTitle": "婴儿脐疝", "lemmaDesc": "脐疝是一种发育缺陷，为婴儿常见疾病，在未成熟儿中发病率显著增加，尤其在体重低于1...", "lemmaUrl": "http://baike.baidu.com/item/%E5%A9%B4%E5%84%BF%E8%84%90%E7%96%9D/5241217", "lemmaPic": []}, {"lemmaId": 5077689, "lemmaTitle": "瘿瘤", "lemmaCroppedTitle": "瘿瘤", "lemmaDesc": "瘿瘤又称甲状腺肿瘤。甲状腺肿瘤是常见的头颈外科疾病。女性的发病率比男性高2～4倍...", "lemmaUrl": "http://baike.baidu.com/item/%E7%98%BF%E7%98%A4/5077689", "lemmaPic": []}, {"lemmaId": 6701007, "lemmaTitle": "骨关节病", "lemmaCroppedTitle": "骨关节病", "lemmaDesc": "退行性骨关节病又称骨关节炎、退行性关节炎、老年性关节炎、肥大性关节炎，它是一种退...", "lemmaUrl": "http://baike.baidu.com/item/%E9%AA%A8%E5%85%B3%E8%8A%82%E7%97%85/6701007", "lemmaPic": []}, {"lemmaId": 5210587, "lemmaTitle": "呛奶", "lemmaCroppedTitle": "呛奶", "lemmaDesc": "当婴儿吃奶过程或吐奶后，奶汁误入了气道，叫做“呛奶”。多数婴儿在吃奶时如果奶汁流...", "lemmaUrl": "http://baike.baidu.com/item/%E5%91%9B%E5%A5%B6/5210587", "lemmaPic": []}, {"lemmaId": 5085371, "lemmaTitle": "气性坏疽", "lemmaCroppedTitle": "气性坏疽", "lemmaDesc": "气性坏疽是火器伤中最为严重、发展最快的并发症之一，如不及时诊治，可丧失肢体或危及...", "lemmaUrl": "http://baike.baidu.com/item/%E6%B0%94%E6%80%A7%E5%9D%8F%E7%96%BD/5085371", "lemmaPic": []}, {"lemmaId": 458690, "lemmaTitle": "后循环缺血", "lemmaCroppedTitle": "后循环缺血", "lemmaDesc": "后循环缺血是指后循环的颈动脉系统短暂性缺血发作（TIA）和脑梗死。其同义词包括椎...", "lemmaUrl": "http://baike.baidu.com/item/%E5%90%8E%E5%BE%AA%E7%8E%AF%E7%BC%BA%E8%A1%80/458690", "lemmaPic": []}, {"lemmaId": 3678191, "lemmaTitle": "肝包虫病", "lemmaCroppedTitle": "肝包虫病", "lemmaDesc": "肝包虫病是牧区较常见的寄生虫，也称肝棘球蚴病。在中国主要流行于畜牧业发达的新疆、...", "lemmaUrl": "http://baike.baidu.com/item/%E8%82%9D%E5%8C%85%E8%99%AB%E7%97%85/3678191", "lemmaPic": []}, {"lemmaId": 820445, "lemmaTitle": "皮脂腺痣", "lemmaCroppedTitle": "皮脂腺痣", "lemmaDesc": "皮脂腺痣是由皮脂腺构成的一种错构瘤，又称器官样痣。皮脂腺痣较为常见，多于出生时或...", "lemmaUrl": "http://baike.baidu.com/item/%E7%9A%AE%E8%84%82%E8%85%BA%E7%97%A3/820445", "lemmaPic": []}, {"lemmaId": 3715171, "lemmaTitle": "溃疡性直肠炎", "lemmaCroppedTitle": "溃疡性直肠炎", "lemmaDesc": "慢性非特异性溃疡性病变局限于直肠时称为溃疡性直肠炎。血性腹泻是最常见的早期症状。...", "lemmaUrl": "http://baike.baidu.com/item/%E6%BA%83%E7%96%A1%E6%80%A7%E7%9B%B4%E8%82%A0%E7%82%8E/3715171", "lemmaPic": []}, {"lemmaId": 8466735, "lemmaTitle": "空气栓塞", "lemmaCroppedTitle": "空气栓塞", "lemmaDesc": "空气栓塞是一种起源于肺的气体栓子阻塞脑血管引起的疾病，通常因在周围压力降低时（如...", "lemmaUrl": "http://baike.baidu.com/item/%E7%A9%BA%E6%B0%94%E6%A0%93%E5%A1%9E/8466735", "lemmaPic": []}, {"lemmaId": 1673316, "lemmaTitle": "男性乳房肥大症", "lemmaCroppedTitle": "男性乳房肥大症", "lemmaDesc": "男性乳房肥大症又称男子女性型乳房，是指男性在不同时期、不同年龄阶段因不同原因，出...", "lemmaUrl": "http://baike.baidu.com/item/%E7%94%B7%E6%80%A7%E4%B9%B3%E6%88%BF%E8%82%A5%E5%A4%A7%E7%97%87/1673316", "lemmaPic": []}, {"lemmaId": 7828745, "lemmaTitle": "先天性喉喘鸣", "lemmaCroppedTitle": "先天性喉喘鸣", "lemmaDesc": "先天性喉喘鸣是指婴儿出生后发生的吸气性喉鸣，可伴吸气性三凹征，即吸气时胸骨上窝、...", "lemmaUrl": "http://baike.baidu.com/item/%E5%85%88%E5%A4%A9%E6%80%A7%E5%96%89%E5%96%98%E9%B8%A3/7828745", "lemmaPic": []}, {"lemmaId": 1115853, "lemmaTitle": "血卟啉病", "lemmaCroppedTitle": "血卟啉病", "lemmaDesc": "血卟啉病原称紫质病，属少见病，大多是因遗传缺陷造成血红素合成途径中有关的酶缺乏导...", "lemmaUrl": "http://baike.baidu.com/item/%E8%A1%80%E5%8D%9F%E5%95%89%E7%97%85/1115853", "lemmaPic": []}, {"lemmaId": 8079610, "lemmaTitle": "HELLP综合征", "lemmaCroppedTitle": "HELLP综合征", "lemmaDesc": "HELLP综合征以溶血、肝酶升高和血小板减少为特点，是妊娠期高血压疾病的严重并发...", "lemmaUrl": "http://baike.baidu.com/item/HELLP%E7%BB%BC%E5%90%88%E5%BE%81/8079610", "lemmaPic": []}, {"lemmaId": 9179090, "lemmaTitle": "脑动脉血管瘤", "lemmaCroppedTitle": "脑动脉血管瘤", "lemmaDesc": "脑动脉血管瘤指的是颅内动脉瘤，病程隐匿，起病突然,一旦发病,死、残率极高,因而被...", "lemmaUrl": "http://baike.baidu.com/item/%E8%84%91%E5%8A%A8%E8%84%89%E8%A1%80%E7%AE%A1%E7%98%A4/9179090", "lemmaPic": []}], "total": 7246, "totalPage": 73, "page": 16, "fromLemma": 0}