{"lemmaList": [{"lemmaId": 5278580, "lemmaTitle": "先天性青光眼", "lemmaCroppedTitle": "先天性青光眼", "lemmaDesc": "先天性青光眼（congenital glaucoma；buphthalmos）是...", "lemmaUrl": "http://baike.baidu.com/item/%E5%85%88%E5%A4%A9%E6%80%A7%E9%9D%92%E5%85%89%E7%9C%BC/5278580", "lemmaPic": []}, {"lemmaId": 735597, "lemmaTitle": "酒精性心肌病", "lemmaCroppedTitle": "酒精性心肌病", "lemmaDesc": "酒精性心肌病的发病与长期大量的酒精摄入有密切关系，多发生于30～55岁的男性，通...", "lemmaUrl": "http://baike.baidu.com/item/%E9%85%92%E7%B2%BE%E6%80%A7%E5%BF%83%E8%82%8C%E7%97%85/735597", "lemmaPic": []}, {"lemmaId": 650742, "lemmaTitle": "品行障碍", "lemmaCroppedTitle": "品行障碍", "lemmaDesc": "品行障碍指18岁以下儿童青少年期出现的持久性反社会型行为、攻击性行为和对立违抗行...", "lemmaUrl": "http://baike.baidu.com/item/%E5%93%81%E8%A1%8C%E9%9A%9C%E7%A2%8D/650742", "lemmaPic": []}, {"lemmaId": 169792, "lemmaTitle": "膝眼", "lemmaCroppedTitle": "膝眼", "lemmaDesc": "本穴为经外奇穴，位于膝盖下的凹陷处，形似膝盖的眼睛，故名。《千金方》云：膝眼“在...", "lemmaUrl": "http://baike.baidu.com/item/%E8%86%9D%E7%9C%BC/169792", "lemmaPic": []}, {"lemmaId": 3280648, "lemmaTitle": "光泽苔藓", "lemmaCroppedTitle": "光泽苔藓", "lemmaDesc": "本病是一种原因尚未明确的较少见的无自觉症状的慢性炎症性丘疹性皮肤病。具有特殊的临...", "lemmaUrl": "http://baike.baidu.com/item/%E5%85%89%E6%B3%BD%E8%8B%94%E8%97%93/3280648", "lemmaPic": []}, {"lemmaId": 6744475, "lemmaTitle": "脂溢性湿疹", "lemmaCroppedTitle": "脂溢性湿疹", "lemmaDesc": "本病又称为脂溢性皮炎。是在皮脂溢出部位的一种慢性丘疹鳞屑性、浅表性炎症性皮肤病，...", "lemmaUrl": "http://baike.baidu.com/item/%E8%84%82%E6%BA%A2%E6%80%A7%E6%B9%BF%E7%96%B9/6744475", "lemmaPic": []}, {"lemmaId": 10647408, "lemmaTitle": "足下垂", "lemmaCroppedTitle": "足下垂", "lemmaDesc": "足下垂是骨外科体征之一。患者坐位，两下肢自然悬垂，如见足处于跖屈位且完全不能主动...", "lemmaUrl": "http://baike.baidu.com/item/%E8%B6%B3%E4%B8%8B%E5%9E%82/10647408", "lemmaPic": []}, {"lemmaId": 2608358, "lemmaTitle": "冷球蛋白血症", "lemmaCroppedTitle": "冷球蛋白血症", "lemmaDesc": "当血中含有冷球蛋白时便称为冷球蛋白血症。冷球蛋白是指温度低于30℃时易自发形成沉...", "lemmaUrl": "http://baike.baidu.com/item/%E5%86%B7%E7%90%83%E8%9B%8B%E7%99%BD%E8%A1%80%E7%97%87/2608358", "lemmaPic": []}, {"lemmaId": 8499505, "lemmaTitle": "小儿血管瘤", "lemmaCroppedTitle": "小儿血管瘤", "lemmaDesc": "血管瘤是婴儿最常见的良性肿瘤，发生率4%～5%，女性发病率约为男性的3倍。血管瘤...", "lemmaUrl": "http://baike.baidu.com/item/%E5%B0%8F%E5%84%BF%E8%A1%80%E7%AE%A1%E7%98%A4/8499505", "lemmaPic": []}, {"lemmaId": 9162824, "lemmaTitle": "疱疹样皮炎", "lemmaCroppedTitle": "疱疹样皮炎", "lemmaDesc": "疱疹样皮炎是一种较为少见的慢性良性复发性大疱性皮肤病，病因不明。它的特点是反复发...", "lemmaUrl": "http://baike.baidu.com/item/%E7%96%B1%E7%96%B9%E6%A0%B7%E7%9A%AE%E7%82%8E/9162824", "lemmaPic": []}, {"lemmaId": 10361399, "lemmaTitle": "膝关节创伤性滑膜炎", "lemmaCroppedTitle": "膝关节创伤性滑膜炎", "lemmaDesc": "膝关节是全身关节中滑膜面积最大的关节，滑膜反应也最明显。膝关节创伤性滑膜炎是指膝...", "lemmaUrl": "http://baike.baidu.com/item/%E8%86%9D%E5%85%B3%E8%8A%82%E5%88%9B%E4%BC%A4%E6%80%A7%E6%BB%91%E8%86%9C%E7%82%8E/10361399", "lemmaPic": []}, {"lemmaId": 9937557, "lemmaTitle": "溶血性尿毒症综合征", "lemmaCroppedTitle": "溶血性尿毒症综合征", "lemmaDesc": "溶血性尿毒症综合征（HUS）是一类原因不明的急性血管内溶血性贫血伴肾功能衰竭的综...", "lemmaUrl": "http://baike.baidu.com/item/%E6%BA%B6%E8%A1%80%E6%80%A7%E5%B0%BF%E6%AF%92%E7%97%87%E7%BB%BC%E5%90%88%E5%BE%81/9937557", "lemmaPic": []}, {"lemmaId": 9824911, "lemmaTitle": "钱币状湿疹", "lemmaCroppedTitle": "钱币状湿疹", "lemmaDesc": "钱币状湿疹又称钱币状湿疹性皮炎或盘状湿疹。皮损呈散在的硬币大小的圆形红色斑片，其...", "lemmaUrl": "http://baike.baidu.com/item/%E9%92%B1%E5%B8%81%E7%8A%B6%E6%B9%BF%E7%96%B9/9824911", "lemmaPic": []}, {"lemmaId": 5457102, "lemmaTitle": "颈椎管狭窄", "lemmaCroppedTitle": "颈椎管狭窄", "lemmaDesc": "构成颈椎管各解剖结构因发育性或退变因素造成骨性或纤维性退变引起一个或多个平面管腔...", "lemmaUrl": "http://baike.baidu.com/item/%E9%A2%88%E6%A4%8E%E7%AE%A1%E7%8B%AD%E7%AA%84/5457102", "lemmaPic": []}, {"lemmaId": 918237, "lemmaTitle": "急性出血坏死型胰腺炎", "lemmaCroppedTitle": "急性出血坏死型胰腺炎", "lemmaDesc": "急性出血坏死型胰腺炎是急性胰腺炎的一种类型，系由急性水肿型胰腺炎病变继续发展所致...", "lemmaUrl": "http://baike.baidu.com/item/%E6%80%A5%E6%80%A7%E5%87%BA%E8%A1%80%E5%9D%8F%E6%AD%BB%E5%9E%8B%E8%83%B0%E8%85%BA%E7%82%8E/918237", "lemmaPic": []}, {"lemmaId": 1497007, "lemmaTitle": "色素沉着绒毛结节性滑膜炎", "lemmaCroppedTitle": "色素沉着绒毛结节性滑膜炎", "lemmaDesc": "色素沉着绒毛结节性滑膜炎（PVNS）是滑膜的一种增生性病变，经常表现为局限的结节...", "lemmaUrl": "http://baike.baidu.com/item/%E8%89%B2%E7%B4%A0%E6%B2%89%E7%9D%80%E7%BB%92%E6%AF%9B%E7%BB%93%E8%8A%82%E6%80%A7%E6%BB%91%E8%86%9C%E7%82%8E/1497007", "lemmaPic": []}, {"lemmaId": 8531820, "lemmaTitle": "儿童精神分裂症", "lemmaCroppedTitle": "儿童精神分裂症", "lemmaDesc": "精神分裂症可发生于成年人和儿童，是儿童精神类疾病中较为常见的一种精神病。儿童精神...", "lemmaUrl": "http://baike.baidu.com/item/%E5%84%BF%E7%AB%A5%E7%B2%BE%E7%A5%9E%E5%88%86%E8%A3%82%E7%97%87/8531820", "lemmaPic": []}, {"lemmaId": 8531506, "lemmaTitle": "外伤性癫痫", "lemmaCroppedTitle": "外伤性癫痫", "lemmaDesc": "外伤性癫痫（traumatic epilepsy）指继发于颅脑损伤后的局限性或全...", "lemmaUrl": "http://baike.baidu.com/item/%E5%A4%96%E4%BC%A4%E6%80%A7%E7%99%AB%E7%97%AB/8531506", "lemmaPic": []}, {"lemmaId": 5656148, "lemmaTitle": "胸腰椎骨折", "lemmaCroppedTitle": "胸腰椎骨折", "lemmaDesc": "胸腰椎骨折是指由于外力造成胸腰椎骨质连续性的破坏。这是最常见的脊柱损伤。在青壮年...", "lemmaUrl": "http://baike.baidu.com/item/%E8%83%B8%E8%85%B0%E6%A4%8E%E9%AA%A8%E6%8A%98/5656148", "lemmaPic": []}, {"lemmaId": 2845912, "lemmaTitle": "牙缝", "lemmaCroppedTitle": "牙缝", "lemmaDesc": "牙缝是指牙与牙之间存在间隙，没有正常的邻接关系。牙缝容易塞牙，损伤牙周组织，引起...", "lemmaUrl": "http://baike.baidu.com/item/%E7%89%99%E7%BC%9D/2845912", "lemmaPic": []}, {"lemmaId": 2379151, "lemmaTitle": "传染性红斑", "lemmaCroppedTitle": "传染性红斑", "lemmaDesc": "又称“第五病”，是由人类细小病毒B19感染引起的一种病毒性皮肤病，皮疹以面颊部蝶...", "lemmaUrl": "http://baike.baidu.com/item/%E4%BC%A0%E6%9F%93%E6%80%A7%E7%BA%A2%E6%96%91/2379151", "lemmaPic": []}, {"lemmaId": 7044117, "lemmaTitle": "心脏压塞", "lemmaCroppedTitle": "心脏压塞", "lemmaDesc": "心脏压塞是指心包腔内液体增长的速度过快或积液量过大时，压迫心脏而限制心室舒张及血...", "lemmaUrl": "http://baike.baidu.com/item/%E5%BF%83%E8%84%8F%E5%8E%8B%E5%A1%9E/7044117", "lemmaPic": []}, {"lemmaId": 149633, "lemmaTitle": "肺错构瘤", "lemmaCroppedTitle": "肺错构瘤", "lemmaDesc": "肺错构瘤是正常肺组织因胚胎发育异常，导致肺正常组织的不正常组合所构成的瘤样畸形。...", "lemmaUrl": "http://baike.baidu.com/item/%E8%82%BA%E9%94%99%E6%9E%84%E7%98%A4/149633", "lemmaPic": []}, {"lemmaId": 2081797, "lemmaTitle": "肾小球疾病", "lemmaCroppedTitle": "肾小球疾病", "lemmaDesc": "肾小球疾病是病因、发病机制、临床表现、病理改变、病程和预后不尽相同的主要累及双肾...", "lemmaUrl": "http://baike.baidu.com/item/%E8%82%BE%E5%B0%8F%E7%90%83%E7%96%BE%E7%97%85/2081797", "lemmaPic": []}, {"lemmaId": 2054284, "lemmaTitle": "新生儿湿肺", "lemmaCroppedTitle": "新生儿湿肺", "lemmaDesc": "新生儿湿肺又称新生儿暂时性呼吸困难或第Ⅱ型呼吸窘迫综合征，是一种自限性疾病。出生...", "lemmaUrl": "http://baike.baidu.com/item/%E6%96%B0%E7%94%9F%E5%84%BF%E6%B9%BF%E8%82%BA/2054284", "lemmaPic": []}, {"lemmaId": 2824795, "lemmaTitle": "心脏粘液瘤", "lemmaCroppedTitle": "心脏粘液瘤", "lemmaDesc": "大约7%是家族性的，典型黏液瘤为孤立的单个，表面光滑、球形、大小各异、直径1～8...", "lemmaUrl": "http://baike.baidu.com/item/%E5%BF%83%E8%84%8F%E7%B2%98%E6%B6%B2%E7%98%A4/2824795", "lemmaPic": []}, {"lemmaId": 584123, "lemmaTitle": "卵巢浆液性肿瘤", "lemmaCroppedTitle": "卵巢浆液性肿瘤", "lemmaDesc": "卵巢浆液性肿瘤是介于良性腺瘤与癌之间的具有恶性潜能的卵巢上皮性肿瘤。其特点可见囊...", "lemmaUrl": "http://baike.baidu.com/item/%E5%8D%B5%E5%B7%A2%E6%B5%86%E6%B6%B2%E6%80%A7%E8%82%BF%E7%98%A4/584123", "lemmaPic": []}, {"lemmaId": 2657553, "lemmaTitle": "感音神经性聋", "lemmaCroppedTitle": "感音神经性聋", "lemmaDesc": "感音神经性聋是指耳蜗螺旋器病变，不能将声波变为神经兴奋，或神经及其中枢途径发生障...", "lemmaUrl": "http://baike.baidu.com/item/%E6%84%9F%E9%9F%B3%E7%A5%9E%E7%BB%8F%E6%80%A7%E8%81%8B/2657553", "lemmaPic": []}, {"lemmaId": 10954359, "lemmaTitle": "系统性血管炎", "lemmaCroppedTitle": "系统性血管炎", "lemmaDesc": "血管炎是一组以血管的炎症与破坏为主要病理改变的异质性疾病，其临床表现因受累血管的...", "lemmaUrl": "http://baike.baidu.com/item/%E7%B3%BB%E7%BB%9F%E6%80%A7%E8%A1%80%E7%AE%A1%E7%82%8E/10954359", "lemmaPic": []}, {"lemmaId": 1940492, "lemmaTitle": "急性间质性肺炎", "lemmaCroppedTitle": "急性间质性肺炎", "lemmaDesc": "急性间质性肺炎（acute interstitial pneumonia，AIP...", "lemmaUrl": "http://baike.baidu.com/item/%E6%80%A5%E6%80%A7%E9%97%B4%E8%B4%A8%E6%80%A7%E8%82%BA%E7%82%8E/1940492", "lemmaPic": []}, {"lemmaId": 5952509, "lemmaTitle": "颞下颌关节病", "lemmaCroppedTitle": "颞下颌关节病", "lemmaDesc": "颞下颌关节病指累及颞下颌关节和（或）咀嚼肌系统，引起关节疼痛、弹响及张口受限等一...", "lemmaUrl": "http://baike.baidu.com/item/%E9%A2%9E%E4%B8%8B%E9%A2%8C%E5%85%B3%E8%8A%82%E7%97%85/5952509", "lemmaPic": []}, {"lemmaId": 8817516, "lemmaTitle": "开放性气胸", "lemmaCroppedTitle": "开放性气胸", "lemmaDesc": "胸膜腔内积气称为气胸，创伤性气胸发生率在钝性伤中占15%～50%，在穿透性伤中占...", "lemmaUrl": "http://baike.baidu.com/item/%E5%BC%80%E6%94%BE%E6%80%A7%E6%B0%94%E8%83%B8/8817516", "lemmaPic": []}, {"lemmaId": 2829329, "lemmaTitle": "脉络膜黑色素瘤", "lemmaCroppedTitle": "脉络膜黑色素瘤", "lemmaDesc": "脉络膜黑色素瘤是一种常见的眼内恶性肿瘤，多见于40～60岁，与性别或眼别无关，可...", "lemmaUrl": "http://baike.baidu.com/item/%E8%84%89%E7%BB%9C%E8%86%9C%E9%BB%91%E8%89%B2%E7%B4%A0%E7%98%A4/2829329", "lemmaPic": []}, {"lemmaId": 8117323, "lemmaTitle": "六指症", "lemmaCroppedTitle": "六指症", "lemmaDesc": "多指畸形是中国人最常见的手部先天畸形之一，凡以长在大拇指旁边最为多见，是一种遗传...", "lemmaUrl": "http://baike.baidu.com/item/%E5%85%AD%E6%8C%87%E7%97%87/8117323", "lemmaPic": []}, {"lemmaId": 5124829, "lemmaTitle": "大肠梗阻", "lemmaCroppedTitle": "大肠梗阻", "lemmaDesc": "大肠梗阻（LBO）是一组需要尽早鉴别并积极干预的急症。发病原因依年龄而异，分为机...", "lemmaUrl": "http://baike.baidu.com/item/%E5%A4%A7%E8%82%A0%E6%A2%97%E9%98%BB/5124829", "lemmaPic": []}, {"lemmaId": 10006981, "lemmaTitle": "颌骨骨髓炎", "lemmaCroppedTitle": "颌骨骨髓炎", "lemmaDesc": "因颌骨受感染而引起的一种疾病，累及范围常包括骨膜、骨皮质以及骨髓组织，常见的有化...", "lemmaUrl": "http://baike.baidu.com/item/%E9%A2%8C%E9%AA%A8%E9%AA%A8%E9%AB%93%E7%82%8E/10006981", "lemmaPic": []}, {"lemmaId": 10006092, "lemmaTitle": "血管母细胞瘤", "lemmaCroppedTitle": "血管母细胞瘤", "lemmaDesc": "血管母细胞瘤是由脑神经和脊髓神经所产生的一种高度血管分化的良性肿瘤。大多数的血管...", "lemmaUrl": "http://baike.baidu.com/item/%E8%A1%80%E7%AE%A1%E6%AF%8D%E7%BB%86%E8%83%9E%E7%98%A4/10006092", "lemmaPic": []}, {"lemmaId": 4929259, "lemmaTitle": "气管肿瘤", "lemmaCroppedTitle": "气管肿瘤", "lemmaDesc": "气管肿瘤有良性肿瘤和恶性肿瘤两大类。儿童期的气管肿瘤绝大部分（90%）为良性，成...", "lemmaUrl": "http://baike.baidu.com/item/%E6%B0%94%E7%AE%A1%E8%82%BF%E7%98%A4/4929259", "lemmaPic": []}, {"lemmaId": 6595763, "lemmaTitle": "渗出性中耳炎", "lemmaCroppedTitle": "渗出性中耳炎", "lemmaDesc": "渗出性中耳炎是以鼓室积液及听力下降为主要特征的中耳非化脓性炎症。儿童发病率较高，...", "lemmaUrl": "http://baike.baidu.com/item/%E6%B8%97%E5%87%BA%E6%80%A7%E4%B8%AD%E8%80%B3%E7%82%8E/6595763", "lemmaPic": []}, {"lemmaId": 907632, "lemmaTitle": "胃黏膜脱垂", "lemmaCroppedTitle": "胃黏膜脱垂", "lemmaDesc": "胃黏膜脱垂是由于异常松弛的胃黏膜逆行突入食管或向前通过幽门管脱入十二指肠球部，临...", "lemmaUrl": "http://baike.baidu.com/item/%E8%83%83%E9%BB%8F%E8%86%9C%E8%84%B1%E5%9E%82/907632", "lemmaPic": []}, {"lemmaId": 5361097, "lemmaTitle": "流行性斑疹伤寒", "lemmaCroppedTitle": "流行性斑疹伤寒", "lemmaDesc": "流行性斑疹伤寒又称虱传斑疹伤寒或“典型斑疹伤寒”，患流行性斑疹伤寒后数月至数年，...", "lemmaUrl": "http://baike.baidu.com/item/%E6%B5%81%E8%A1%8C%E6%80%A7%E6%96%91%E7%96%B9%E4%BC%A4%E5%AF%92/5361097", "lemmaPic": []}, {"lemmaId": 7670454, "lemmaTitle": "广州管圆线虫病", "lemmaCroppedTitle": "广州管圆线虫病", "lemmaDesc": "广州管圆线虫病是我国较常见的一种蠕虫蚴移行症，病原体为广州管圆线虫幼虫或成虫早期...", "lemmaUrl": "http://baike.baidu.com/item/%E5%B9%BF%E5%B7%9E%E7%AE%A1%E5%9C%86%E7%BA%BF%E8%99%AB%E7%97%85/7670454", "lemmaPic": []}, {"lemmaId": 870448, "lemmaTitle": "急性附件炎", "lemmaCroppedTitle": "急性附件炎", "lemmaDesc": "急性附件炎为输卵管、卵巢两者的感染性炎症。多发生于生育年龄的妇女。在急性盆腔炎中...", "lemmaUrl": "http://baike.baidu.com/item/%E6%80%A5%E6%80%A7%E9%99%84%E4%BB%B6%E7%82%8E/870448", "lemmaPic": []}, {"lemmaId": 9841471, "lemmaTitle": "大头瘟", "lemmaCroppedTitle": "大头瘟", "lemmaDesc": "大头瘟是因感受天行邪毒侵犯三阳经络而引起的以头面{红肿痛、发热为主要特征的温疫病...", "lemmaUrl": "http://baike.baidu.com/item/%E5%A4%A7%E5%A4%B4%E7%98%9F/9841471", "lemmaPic": []}, {"lemmaId": 10051656, "lemmaTitle": "儿童股骨头坏死", "lemmaCroppedTitle": "儿童股骨头坏死", "lemmaDesc": "儿童股骨头坏死，又称股骨头骨骺软骨炎、股骨头无菌性坏死或扁平髋。是儿童常见的原因...", "lemmaUrl": "http://baike.baidu.com/item/%E5%84%BF%E7%AB%A5%E8%82%A1%E9%AA%A8%E5%A4%B4%E5%9D%8F%E6%AD%BB/10051656", "lemmaPic": []}, {"lemmaId": 9882233, "lemmaTitle": "咽白喉", "lemmaCroppedTitle": "咽白喉", "lemmaDesc": "咽白喉为白喉杆菌引起的急性传染病，潜伏期短，传播较快，患者多是1～7岁儿童。本病...", "lemmaUrl": "http://baike.baidu.com/item/%E5%92%BD%E7%99%BD%E5%96%89/9882233", "lemmaPic": []}, {"lemmaId": 6810760, "lemmaTitle": "斯蒂尔病", "lemmaCroppedTitle": "斯蒂尔病", "lemmaDesc": "斯蒂尔病是一种少见的类风湿关节炎，临床表现类似于全身起病型的幼年型类风湿关节炎。...", "lemmaUrl": "http://baike.baidu.com/item/%E6%96%AF%E8%92%82%E5%B0%94%E7%97%85/6810760", "lemmaPic": []}, {"lemmaId": 1794753, "lemmaTitle": "子宫内膜间质肉瘤", "lemmaCroppedTitle": "子宫内膜间质肉瘤", "lemmaDesc": "子宫内膜间质肉瘤是来源于子宫内膜间质细胞的肿瘤。根据肿瘤的组织学和临床特征将其分...", "lemmaUrl": "http://baike.baidu.com/item/%E5%AD%90%E5%AE%AB%E5%86%85%E8%86%9C%E9%97%B4%E8%B4%A8%E8%82%89%E7%98%A4/1794753", "lemmaPic": []}, {"lemmaId": 10060094, "lemmaTitle": "下肢淋巴水肿", "lemmaCroppedTitle": "下肢淋巴水肿", "lemmaDesc": "由于淋巴液回流障碍引起局部水肿，称为淋巴水肿。由于某些原因可导致淋巴液在皮下组织...", "lemmaUrl": "http://baike.baidu.com/item/%E4%B8%8B%E8%82%A2%E6%B7%8B%E5%B7%B4%E6%B0%B4%E8%82%BF/10060094", "lemmaPic": []}, {"lemmaId": 5363206, "lemmaTitle": "舒张性心力衰竭", "lemmaCroppedTitle": "舒张性心力衰竭", "lemmaDesc": "舒张性心衰（DHF）是由于左心室舒张期主动松弛能力受损和心肌顺应性降低，心肌细胞...", "lemmaUrl": "http://baike.baidu.com/item/%E8%88%92%E5%BC%A0%E6%80%A7%E5%BF%83%E5%8A%9B%E8%A1%B0%E7%AB%AD/5363206", "lemmaPic": []}, {"lemmaId": 9335437, "lemmaTitle": "慢性肾上腺皮质功能减退", "lemmaCroppedTitle": "慢性肾上腺皮质功能减退", "lemmaDesc": "慢性肾上腺皮质功能减退分为原发及继发性两类，原发性者又称阿狄森病，是由于自身免疫...", "lemmaUrl": "http://baike.baidu.com/item/%E6%85%A2%E6%80%A7%E8%82%BE%E4%B8%8A%E8%85%BA%E7%9A%AE%E8%B4%A8%E5%8A%9F%E8%83%BD%E5%87%8F%E9%80%80/9335437", "lemmaPic": []}, {"lemmaId": 6397736, "lemmaTitle": "麻痹性斜视", "lemmaCroppedTitle": "麻痹性斜视", "lemmaDesc": "由支配眼球运动的神经核、神经以及眼外肌本身麻痹所致的斜视，称为麻痹性斜视。伴有眼...", "lemmaUrl": "http://baike.baidu.com/item/%E9%BA%BB%E7%97%B9%E6%80%A7%E6%96%9C%E8%A7%86/6397736", "lemmaPic": []}, {"lemmaId": 5567071, "lemmaTitle": "参脉针", "lemmaCroppedTitle": "参脉针", "lemmaDesc": "参脉针是参麦注射液的简称。是在中医古验方“生脉散”的基础上，用现代科学技术研制成...", "lemmaUrl": "http://baike.baidu.com/item/%E5%8F%82%E8%84%89%E9%92%88/5567071", "lemmaPic": []}, {"lemmaId": 2515500, "lemmaTitle": "糖原累积症", "lemmaCroppedTitle": "糖原累积症", "lemmaDesc": "糖原累积症又称糖原贮积症、糖原贮积病，是少见的一组常染色体相关的隐性遗传病，患者...", "lemmaUrl": "http://baike.baidu.com/item/%E7%B3%96%E5%8E%9F%E7%B4%AF%E7%A7%AF%E7%97%87/2515500", "lemmaPic": []}, {"lemmaId": 7513843, "lemmaTitle": "连续性肢端皮炎", "lemmaCroppedTitle": "连续性肢端皮炎", "lemmaDesc": "又名Hallopeau连续性肢端皮炎，是一种慢性、复发性、无菌性脓疱性皮肤病，以...", "lemmaUrl": "http://baike.baidu.com/item/%E8%BF%9E%E7%BB%AD%E6%80%A7%E8%82%A2%E7%AB%AF%E7%9A%AE%E7%82%8E/7513843", "lemmaPic": []}, {"lemmaId": 5249824, "lemmaTitle": "儿童睡眠障碍", "lemmaCroppedTitle": "儿童睡眠障碍", "lemmaDesc": "睡眠是生命中的一个重要生理过程，人的一生中有三分之一的时间在睡眠中度过。在儿童，...", "lemmaUrl": "http://baike.baidu.com/item/%E5%84%BF%E7%AB%A5%E7%9D%A1%E7%9C%A0%E9%9A%9C%E7%A2%8D/5249824", "lemmaPic": []}, {"lemmaId": 8198578, "lemmaTitle": "肝阴不足", "lemmaCroppedTitle": "肝阴不足", "lemmaDesc": "病证名。指肝脏阴液亏虚的证候。多由气郁化火，肝病及温热病后期耗伤肝阴，或肾阴不足...", "lemmaUrl": "http://baike.baidu.com/item/%E8%82%9D%E9%98%B4%E4%B8%8D%E8%B6%B3/8198578", "lemmaPic": []}, {"lemmaId": 5316459, "lemmaTitle": "高弓足", "lemmaCroppedTitle": "高弓足", "lemmaDesc": "高弓足是常见的足部畸形，多为神经肌肉性疾病引起的前足固定性跖屈，从而使足纵弓增高...", "lemmaUrl": "http://baike.baidu.com/item/%E9%AB%98%E5%BC%93%E8%B6%B3/5316459", "lemmaPic": []}, {"lemmaId": 973069, "lemmaTitle": "中暑衰竭", "lemmaCroppedTitle": "中暑衰竭", "lemmaDesc": "中暑衰竭是指因出汗所致的过多液体和电解质丢失，而引起的低血容量和电解质失衡。当天...", "lemmaUrl": "http://baike.baidu.com/item/%E4%B8%AD%E6%9A%91%E8%A1%B0%E7%AB%AD/973069", "lemmaPic": []}, {"lemmaId": 2193502, "lemmaTitle": "腹内疝", "lemmaCroppedTitle": "腹内疝", "lemmaDesc": "腹内脏器自其原来的位置，经过腹腔内一个正常或异常的孔道或裂隙脱位到一个异常的腔隙...", "lemmaUrl": "http://baike.baidu.com/item/%E8%85%B9%E5%86%85%E7%96%9D/2193502", "lemmaPic": []}, {"lemmaId": 3367500, "lemmaTitle": "腕舟骨骨折", "lemmaCroppedTitle": "腕舟骨骨折", "lemmaDesc": "腕舟骨是近排腕骨中最桡侧的一块，由于其独特的解剖形态和生物力学特点，使其成为各腕...", "lemmaUrl": "http://baike.baidu.com/item/%E8%85%95%E8%88%9F%E9%AA%A8%E9%AA%A8%E6%8A%98/3367500", "lemmaPic": []}, {"lemmaId": 8110956, "lemmaTitle": "常年性鼻炎", "lemmaCroppedTitle": "常年性鼻炎", "lemmaDesc": "常年性鼻炎又称常年性变应性鼻炎，为变应性鼻炎的一种。变应性鼻炎是指特异性个体接触...", "lemmaUrl": "http://baike.baidu.com/item/%E5%B8%B8%E5%B9%B4%E6%80%A7%E9%BC%BB%E7%82%8E/8110956", "lemmaPic": []}, {"lemmaId": 10230648, "lemmaTitle": "精囊囊肿", "lemmaCroppedTitle": "精囊囊肿", "lemmaDesc": "精囊囊肿为精囊的良性病变，多发生在性功能旺盛期，根据发生的来源可分为先天性和后天...", "lemmaUrl": "http://baike.baidu.com/item/%E7%B2%BE%E5%9B%8A%E5%9B%8A%E8%82%BF/10230648", "lemmaPic": []}, {"lemmaId": 8357883, "lemmaTitle": "精浊", "lemmaCroppedTitle": "精浊", "lemmaDesc": "精浊是尿道口常有精液溢出的生殖系炎症性疾病。其特点是尿频、尿急、尿痛，尿道口常有...", "lemmaUrl": "http://baike.baidu.com/item/%E7%B2%BE%E6%B5%8A/8357883", "lemmaPic": []}, {"lemmaId": 7966188, "lemmaTitle": "肺炎衣原体肺炎", "lemmaCroppedTitle": "肺炎衣原体肺炎", "lemmaDesc": "衣原体肺炎是由衣原体引起的肺炎，衣原体分为沙眼衣原体（CT）、肺炎衣原体（CP）...", "lemmaUrl": "http://baike.baidu.com/item/%E8%82%BA%E7%82%8E%E8%A1%A3%E5%8E%9F%E4%BD%93%E8%82%BA%E7%82%8E/7966188", "lemmaPic": []}, {"lemmaId": 4622816, "lemmaTitle": "小儿苯丙酮尿症", "lemmaCroppedTitle": "小儿苯丙酮尿症", "lemmaDesc": "小儿苯丙酮尿症是由于苯丙氨酸代谢途径中，酶缺陷所导致的较为常见的一种常染色体隐性...", "lemmaUrl": "http://baike.baidu.com/item/%E5%B0%8F%E5%84%BF%E8%8B%AF%E4%B8%99%E9%85%AE%E5%B0%BF%E7%97%87/4622816", "lemmaPic": []}, {"lemmaId": 10456379, "lemmaTitle": "悬雍垂过长症", "lemmaCroppedTitle": "悬雍垂过长症", "lemmaDesc": "悬雍垂过长症是由于鼻窦、鼻咽、口咽、扁桃体慢性炎症刺激，导致悬雍垂发炎，使其肌肉...", "lemmaUrl": "http://baike.baidu.com/item/%E6%82%AC%E9%9B%8D%E5%9E%82%E8%BF%87%E9%95%BF%E7%97%87/10456379", "lemmaPic": []}, {"lemmaId": 5718957, "lemmaTitle": "新生儿坏死性小肠结肠炎", "lemmaCroppedTitle": "新生儿坏死性小肠结肠炎", "lemmaDesc": "新生儿坏死性小肠结肠炎（NEC）为一种获得性疾病，是多种原因引起的肠黏膜损害，使...", "lemmaUrl": "http://baike.baidu.com/item/%E6%96%B0%E7%94%9F%E5%84%BF%E5%9D%8F%E6%AD%BB%E6%80%A7%E5%B0%8F%E8%82%A0%E7%BB%93%E8%82%A0%E7%82%8E/5718957", "lemmaPic": []}, {"lemmaId": 2828889, "lemmaTitle": "视网膜中央动脉阻塞", "lemmaCroppedTitle": "视网膜中央动脉阻塞", "lemmaDesc": "视网膜中央动脉阻塞是导致突然失明的急症之一，由于动脉痉挛、栓子栓塞、动脉内膜炎或...", "lemmaUrl": "http://baike.baidu.com/item/%E8%A7%86%E7%BD%91%E8%86%9C%E4%B8%AD%E5%A4%AE%E5%8A%A8%E8%84%89%E9%98%BB%E5%A1%9E/2828889", "lemmaPic": []}, {"lemmaId": 2550282, "lemmaTitle": "气管食管瘘", "lemmaCroppedTitle": "气管食管瘘", "lemmaDesc": "气管食管瘘是食管发育异常或病变导致气管与食管之间出现瘘道。可为先天性或后天性，并...", "lemmaUrl": "http://baike.baidu.com/item/%E6%B0%94%E7%AE%A1%E9%A3%9F%E7%AE%A1%E7%98%98/2550282", "lemmaPic": []}, {"lemmaId": 7175200, "lemmaTitle": "血证", "lemmaCroppedTitle": "血证", "lemmaDesc": "血证是指由多种原因引起火热熏灼或气虚不摄，致使血液不循常道，或上溢于口鼻诸窍，或...", "lemmaUrl": "http://baike.baidu.com/item/%E8%A1%80%E8%AF%81/7175200", "lemmaPic": []}, {"lemmaId": 5322141, "lemmaTitle": "气管支气管异物", "lemmaCroppedTitle": "气管支气管异物", "lemmaDesc": "气管支气管异物是临床常见急症。异物可存留在喉咽腔、喉腔、气管和支气管内，引起声嘶...", "lemmaUrl": "http://baike.baidu.com/item/%E6%B0%94%E7%AE%A1%E6%94%AF%E6%B0%94%E7%AE%A1%E5%BC%82%E7%89%A9/5322141", "lemmaPic": []}, {"lemmaId": 8596855, "lemmaTitle": "乙醇中毒", "lemmaCroppedTitle": "乙醇中毒", "lemmaDesc": "乙醇即我们平常所说的酒精，为无色芳香易挥发性液体，广泛应用与工业、医药、家用制剂...", "lemmaUrl": "http://baike.baidu.com/item/%E4%B9%99%E9%86%87%E4%B8%AD%E6%AF%92/8596855", "lemmaPic": []}, {"lemmaId": 5361323, "lemmaTitle": "浸淫疮", "lemmaCroppedTitle": "浸淫疮", "lemmaDesc": "浸淫疮为遍发全身的瘙痒渗出性皮肤病。因其浸淫全身故名浸淫疮。以初生甚小如疥，瘙痒...", "lemmaUrl": "http://baike.baidu.com/item/%E6%B5%B8%E6%B7%AB%E7%96%AE/5361323", "lemmaPic": []}, {"lemmaId": 4626307, "lemmaTitle": "甲状腺功能亢进性心脏病", "lemmaCroppedTitle": "甲状腺功能亢进性心脏病", "lemmaDesc": "甲状腺功能亢进性心脏病是指在甲状腺功能亢进时，甲状腺素对心脏的直接或间接作用所致...", "lemmaUrl": "http://baike.baidu.com/item/%E7%94%B2%E7%8A%B6%E8%85%BA%E5%8A%9F%E8%83%BD%E4%BA%A2%E8%BF%9B%E6%80%A7%E5%BF%83%E8%84%8F%E7%97%85/4626307", "lemmaPic": []}, {"lemmaId": 1493403, "lemmaTitle": "动脉瘤样骨囊肿", "lemmaCroppedTitle": "动脉瘤样骨囊肿", "lemmaDesc": "动脉瘤样骨囊肿是一种良性单发骨肿瘤，特点是瘤内有均匀泡沫状透亮区。本症常发生在较...", "lemmaUrl": "http://baike.baidu.com/item/%E5%8A%A8%E8%84%89%E7%98%A4%E6%A0%B7%E9%AA%A8%E5%9B%8A%E8%82%BF/1493403", "lemmaPic": []}, {"lemmaId": 5320998, "lemmaTitle": "口腔单纯性疱疹", "lemmaCroppedTitle": "口腔单纯性疱疹", "lemmaDesc": "单纯疱疹是由单纯疱疹病毒引起的皮肤和黏膜疾病。据统计，世界上1/3以上的人群曾患...", "lemmaUrl": "http://baike.baidu.com/item/%E5%8F%A3%E8%85%94%E5%8D%95%E7%BA%AF%E6%80%A7%E7%96%B1%E7%96%B9/5320998", "lemmaPic": []}, {"lemmaId": 2053596, "lemmaTitle": "心肌梗死后综合征", "lemmaCroppedTitle": "心肌梗死后综合征", "lemmaDesc": "心肌梗死后综合征（PMIS）也称Dressler综合征：是指急性心肌梗死后数日至...", "lemmaUrl": "http://baike.baidu.com/item/%E5%BF%83%E8%82%8C%E6%A2%97%E6%AD%BB%E5%90%8E%E7%BB%BC%E5%90%88%E5%BE%81/2053596", "lemmaPic": []}, {"lemmaId": 3160286, "lemmaTitle": "亚临床甲状腺功能亢进", "lemmaCroppedTitle": "亚临床甲状腺功能亢进", "lemmaDesc": "亚临床甲状腺功能亢进简称亚临床甲亢，是指没有临床症状，或症状不确切、不特异，虽然...", "lemmaUrl": "http://baike.baidu.com/item/%E4%BA%9A%E4%B8%B4%E5%BA%8A%E7%94%B2%E7%8A%B6%E8%85%BA%E5%8A%9F%E8%83%BD%E4%BA%A2%E8%BF%9B/3160286", "lemmaPic": []}, {"lemmaId": 7554985, "lemmaTitle": "盖氏骨折", "lemmaCroppedTitle": "盖氏骨折", "lemmaDesc": "盖氏骨折为桡骨中下1/3骨折合并下尺桡关节脱位，是一种常见损伤。早在1929年称...", "lemmaUrl": "http://baike.baidu.com/item/%E7%9B%96%E6%B0%8F%E9%AA%A8%E6%8A%98/7554985", "lemmaPic": []}, {"lemmaId": 10025246, "lemmaTitle": "过度通气综合征", "lemmaCroppedTitle": "过度通气综合征", "lemmaDesc": "过度通气综合征(hyperventilation syndrome，HVS)是呼...", "lemmaUrl": "http://baike.baidu.com/item/%E8%BF%87%E5%BA%A6%E9%80%9A%E6%B0%94%E7%BB%BC%E5%90%88%E5%BE%81/10025246", "lemmaPic": []}, {"lemmaId": 10031551, "lemmaTitle": "喉息肉", "lemmaCroppedTitle": "喉息肉", "lemmaDesc": "息肉是最常见的喉部假性肿瘤。男性发病多于女性，以青壮年多见。息肉好发于声带游离缘...", "lemmaUrl": "http://baike.baidu.com/item/%E5%96%89%E6%81%AF%E8%82%89/10031551", "lemmaPic": []}, {"lemmaId": 3803168, "lemmaTitle": "乳房下垂矫正", "lemmaCroppedTitle": "乳房下垂矫正", "lemmaDesc": "乳房下垂矫正是通过手术提升下垂的乳头和乳腺组织至正常位置，重塑形态挺拔的乳房，是...", "lemmaUrl": "http://baike.baidu.com/item/%E4%B9%B3%E6%88%BF%E4%B8%8B%E5%9E%82%E7%9F%AB%E6%AD%A3/3803168", "lemmaPic": {"width": 350, "height": 351, "url": "https://gss3.bdstatic.com/-Po3dSag_xI4khGkpoWK1HF6hhy/baike/w%3D168/sign=b60a9e13e71190ef01fb96d9f61a9df7/810a19d8bc3eb13500c5f945a61ea8d3fc1f44c9.jpg"}}, {"lemmaId": 6735259, "lemmaTitle": "色素性荨麻疹", "lemmaCroppedTitle": "色素性荨麻疹", "lemmaDesc": "色素性荨麻疹也称斑丘疹型皮肤肥大细胞增生症，是皮肤肥大细胞增生病中最常见的类型，...", "lemmaUrl": "http://baike.baidu.com/item/%E8%89%B2%E7%B4%A0%E6%80%A7%E8%8D%A8%E9%BA%BB%E7%96%B9/6735259", "lemmaPic": []}, {"lemmaId": 6903719, "lemmaTitle": "骨炎", "lemmaCroppedTitle": "骨炎", "lemmaDesc": "骨炎目前多认为是一种慢性病毒性感染。不同部位骨头的炎症成因皆不同。其中致密性骨炎...", "lemmaUrl": "http://baike.baidu.com/item/%E9%AA%A8%E7%82%8E/6903719", "lemmaPic": []}, {"lemmaId": 7182448, "lemmaTitle": "心电图运动负荷试验", "lemmaCroppedTitle": "心电图运动负荷试验", "lemmaDesc": "心电图运动试验，亦有称心电图运动负荷试验，是通过一定量的运动增加心脏负荷，观察心...", "lemmaUrl": "http://baike.baidu.com/item/%E5%BF%83%E7%94%B5%E5%9B%BE%E8%BF%90%E5%8A%A8%E8%B4%9F%E8%8D%B7%E8%AF%95%E9%AA%8C/7182448", "lemmaPic": []}, {"lemmaId": 5281026, "lemmaTitle": "春季卡他性结膜炎", "lemmaCroppedTitle": "春季卡他性结膜炎", "lemmaDesc": "春季卡他性结膜炎是季节性强的双眼奇痒、睑结膜出现大而扁平的乳头、角膜缘附近结膜胶...", "lemmaUrl": "http://baike.baidu.com/item/%E6%98%A5%E5%AD%A3%E5%8D%A1%E4%BB%96%E6%80%A7%E7%BB%93%E8%86%9C%E7%82%8E/5281026", "lemmaPic": []}, {"lemmaId": 6457693, "lemmaTitle": "乳管内乳头状瘤", "lemmaCroppedTitle": "乳管内乳头状瘤", "lemmaDesc": "概述乳管内乳头状瘤多见于经产妇，40～50岁为多。75%病例发生在大乳管近乳头的...", "lemmaUrl": "http://baike.baidu.com/item/%E4%B9%B3%E7%AE%A1%E5%86%85%E4%B9%B3%E5%A4%B4%E7%8A%B6%E7%98%A4/6457693", "lemmaPic": []}, {"lemmaId": 9885262, "lemmaTitle": "原发性腹膜炎", "lemmaCroppedTitle": "原发性腹膜炎", "lemmaDesc": "原发性腹膜炎（primary peritonitis）是指腹腔内无感染灶、没有与...", "lemmaUrl": "http://baike.baidu.com/item/%E5%8E%9F%E5%8F%91%E6%80%A7%E8%85%B9%E8%86%9C%E7%82%8E/9885262", "lemmaPic": []}, {"lemmaId": 9905546, "lemmaTitle": "眼部肿瘤", "lemmaCroppedTitle": "眼部肿瘤", "lemmaDesc": "眼部肿瘤，是恶性肿瘤之一，临床分内眼肿瘤和外眼肿瘤。内眼肿瘤表现为瞳孔内有黄色白...", "lemmaUrl": "http://baike.baidu.com/item/%E7%9C%BC%E9%83%A8%E8%82%BF%E7%98%A4/9905546", "lemmaPic": []}, {"lemmaId": 5322511, "lemmaTitle": "鼻中隔穿孔", "lemmaCroppedTitle": "鼻中隔穿孔", "lemmaDesc": "鼻中隔穿孔指各种原因导致的鼻中隔贯穿两侧鼻腔的永久性穿孔。穿孔的形态、部位及大小...", "lemmaUrl": "http://baike.baidu.com/item/%E9%BC%BB%E4%B8%AD%E9%9A%94%E7%A9%BF%E5%AD%94/5322511", "lemmaPic": []}, {"lemmaId": 2602143, "lemmaTitle": "咽异感症", "lemmaCroppedTitle": "咽异感症", "lemmaDesc": "临床上，咽异感症常泛指除疼痛以外的各种咽部异常感觉，如球塞感、蚁行感等，患者大多...", "lemmaUrl": "http://baike.baidu.com/item/%E5%92%BD%E5%BC%82%E6%84%9F%E7%97%87/2602143", "lemmaPic": []}, {"lemmaId": 924022, "lemmaTitle": "化脓性汗腺炎", "lemmaCroppedTitle": "化脓性汗腺炎", "lemmaDesc": "化脓性汗腺炎是一种顶泌汗腺慢性化脓性炎症，主要发生于腋下、外生殖器、及肛周等处。...", "lemmaUrl": "http://baike.baidu.com/item/%E5%8C%96%E8%84%93%E6%80%A7%E6%B1%97%E8%85%BA%E7%82%8E/924022", "lemmaPic": []}, {"lemmaId": 1022360, "lemmaTitle": "细菌性角膜炎", "lemmaCroppedTitle": "细菌性角膜炎", "lemmaDesc": "细菌性角膜炎是因细菌感染而引起的化脓性角膜炎，又称细菌性角膜溃疡。病情多较危重，...", "lemmaUrl": "http://baike.baidu.com/item/%E7%BB%86%E8%8F%8C%E6%80%A7%E8%A7%92%E8%86%9C%E7%82%8E/1022360", "lemmaPic": []}, {"lemmaId": 5056621, "lemmaTitle": "残胃癌", "lemmaCroppedTitle": "残胃癌", "lemmaDesc": "消化性溃疡术后残胃可发生腺癌，多发生于手术10～15年之后，发生率一般为1%左右...", "lemmaUrl": "http://baike.baidu.com/item/%E6%AE%8B%E8%83%83%E7%99%8C/5056621", "lemmaPic": []}, {"lemmaId": 5087073, "lemmaTitle": "习惯性髌骨脱位", "lemmaCroppedTitle": "习惯性髌骨脱位", "lemmaDesc": "习惯性髌骨脱位多见于儿童，女性多于男性，多数无外伤史，大都具有股四头肌萎缩，每次...", "lemmaUrl": "http://baike.baidu.com/item/%E4%B9%A0%E6%83%AF%E6%80%A7%E9%AB%8C%E9%AA%A8%E8%84%B1%E4%BD%8D/5087073", "lemmaPic": []}, {"lemmaId": 8411676, "lemmaTitle": "肺炎衣原体感染", "lemmaCroppedTitle": "肺炎衣原体感染", "lemmaDesc": "肺炎衣原体感染是由肺炎衣原体引起的感染性疾病，主要引起成人及青少年的非典型肺炎，...", "lemmaUrl": "http://baike.baidu.com/item/%E8%82%BA%E7%82%8E%E8%A1%A3%E5%8E%9F%E4%BD%93%E6%84%9F%E6%9F%93/8411676", "lemmaPic": []}, {"lemmaId": 5210283, "lemmaTitle": "副溶血性弧菌食物中毒", "lemmaCroppedTitle": "副溶血性弧菌食物中毒", "lemmaDesc": "副溶血性弧菌食物中毒（又称食物中毒）是由于食用了被该菌污染的食品或者食用了含有该...", "lemmaUrl": "http://baike.baidu.com/item/%E5%89%AF%E6%BA%B6%E8%A1%80%E6%80%A7%E5%BC%A7%E8%8F%8C%E9%A3%9F%E7%89%A9%E4%B8%AD%E6%AF%92/5210283", "lemmaPic": []}, {"lemmaId": 10851989, "lemmaTitle": "壮阳固精", "lemmaCroppedTitle": "壮阳固精", "lemmaDesc": "对肾阳虚、精关不固、滑精证，采取补肾阳的中药或按摩的功法使肾阳复原、精固的方法，...", "lemmaUrl": "http://baike.baidu.com/item/%E5%A3%AE%E9%98%B3%E5%9B%BA%E7%B2%BE/10851989", "lemmaPic": []}, {"lemmaId": 11011831, "lemmaTitle": "自身免疫性胰腺炎", "lemmaCroppedTitle": "自身免疫性胰腺炎", "lemmaDesc": "自身免疫性胰腺炎（AIP）为良性、纤维炎症性慢性胰腺炎，有独特的临床表现、影像学...", "lemmaUrl": "http://baike.baidu.com/item/%E8%87%AA%E8%BA%AB%E5%85%8D%E7%96%AB%E6%80%A7%E8%83%B0%E8%85%BA%E7%82%8E/11011831", "lemmaPic": []}], "total": 7246, "totalPage": 73, "page": 24, "fromLemma": 0}