{"lemmaList": [{"lemmaId": 2724990, "lemmaTitle": "泌尿生殖系支原体感染", "lemmaCroppedTitle": "泌尿生殖系支原体感染", "lemmaDesc": "随着研究工作的不断深入和新型选择培养基的不断出现，支原体的新种类随之增多。迄今，...", "lemmaUrl": "http://baike.baidu.com/item/%E6%B3%8C%E5%B0%BF%E7%94%9F%E6%AE%96%E7%B3%BB%E6%94%AF%E5%8E%9F%E4%BD%93%E6%84%9F%E6%9F%93/2724990", "lemmaPic": []}, {"lemmaId": 4018992, "lemmaTitle": "原发性小肠溃疡", "lemmaCroppedTitle": "原发性小肠溃疡", "lemmaDesc": "原发性小肠溃疡亦称非特异性小肠溃疡、单纯性小肠溃疡，本病少见，主要特征为小肠有一...", "lemmaUrl": "http://baike.baidu.com/item/%E5%8E%9F%E5%8F%91%E6%80%A7%E5%B0%8F%E8%82%A0%E6%BA%83%E7%96%A1/4018992", "lemmaPic": []}, {"lemmaId": 1202000, "lemmaTitle": "原发性卵巢绒癌", "lemmaCroppedTitle": "原发性卵巢绒癌", "lemmaDesc": "卵巢绒癌是一种恶性程度极高的卵巢肿瘤。可分为妊娠性和非妊娠性绒癌。原发性卵巢绒癌...", "lemmaUrl": "http://baike.baidu.com/item/%E5%8E%9F%E5%8F%91%E6%80%A7%E5%8D%B5%E5%B7%A2%E7%BB%92%E7%99%8C/1202000", "lemmaPic": []}, {"lemmaId": 11003811, "lemmaTitle": "肺闭喘咳", "lemmaCroppedTitle": "肺闭喘咳", "lemmaDesc": "此症多见于小儿，中医认为是外邪壅阻于肺，肺气郁闭不宣，而出现以发热、咳嗽、气促、...", "lemmaUrl": "http://baike.baidu.com/item/%E8%82%BA%E9%97%AD%E5%96%98%E5%92%B3/11003811", "lemmaPic": []}, {"lemmaId": 2878803, "lemmaTitle": "梨状肌症候群", "lemmaCroppedTitle": "梨状肌症候群", "lemmaDesc": "梨状肌综合征亦称梨状肌损伤、梨状孔狭窄综合征、坐骨神经出口综合征等，是指因梨状肌...", "lemmaUrl": "http://baike.baidu.com/item/%E6%A2%A8%E7%8A%B6%E8%82%8C%E7%97%87%E5%80%99%E7%BE%A4/2878803", "lemmaPic": []}, {"lemmaId": 1167652, "lemmaTitle": "脊髓内出血", "lemmaCroppedTitle": "脊髓内出血", "lemmaDesc": "脊髓内出血系指脊髓组织实质内出血导致的神经功能损伤。本病比较少见，发病原因有外伤...", "lemmaUrl": "http://baike.baidu.com/item/%E8%84%8A%E9%AB%93%E5%86%85%E5%87%BA%E8%A1%80/1167652", "lemmaPic": []}, {"lemmaId": 3127476, "lemmaTitle": "泪囊肿瘤", "lemmaCroppedTitle": "泪囊肿瘤", "lemmaDesc": "泪囊肿瘤比较罕见，但其种类却不少，大多是原发性肿瘤；亦可由于眼眶、鼻腔和鼻旁窦肿...", "lemmaUrl": "http://baike.baidu.com/item/%E6%B3%AA%E5%9B%8A%E8%82%BF%E7%98%A4/3127476", "lemmaPic": []}, {"lemmaId": 6092675, "lemmaTitle": "吡唑酮类中毒", "lemmaCroppedTitle": "吡唑酮类中毒", "lemmaDesc": "     吡唑酮类药物是安替比林的衍生物，毒性较大，治疗剂量即可引起严重粒细胞减...", "lemmaUrl": "http://baike.baidu.com/item/%E5%90%A1%E5%94%91%E9%85%AE%E7%B1%BB%E4%B8%AD%E6%AF%92/6092675", "lemmaPic": []}, {"lemmaId": 10442689, "lemmaTitle": "鼻内翻性乳头状瘤", "lemmaCroppedTitle": "鼻内翻性乳头状瘤", "lemmaDesc": "内翻性乳头状瘤是鼻腔鼻窦常见的良性肿瘤之。该病属于乳头状瘤的一种，约占鼻腔鼻窦乳...", "lemmaUrl": "http://baike.baidu.com/item/%E9%BC%BB%E5%86%85%E7%BF%BB%E6%80%A7%E4%B9%B3%E5%A4%B4%E7%8A%B6%E7%98%A4/10442689", "lemmaPic": []}, {"lemmaId": 5056430, "lemmaTitle": "腹膜后脓肿", "lemmaCroppedTitle": "腹膜后脓肿", "lemmaDesc": "腹膜后间隙是位于后腹膜与腹横筋膜间的潜在间隙，其范围自横膈至盆底和腰方肌外侧缘与...", "lemmaUrl": "http://baike.baidu.com/item/%E8%85%B9%E8%86%9C%E5%90%8E%E8%84%93%E8%82%BF/5056430", "lemmaPic": []}, {"lemmaId": 2255125, "lemmaTitle": "哮喘性肺嗜酸粒细胞浸润症", "lemmaCroppedTitle": "哮喘性肺嗜酸粒细胞浸润症", "lemmaDesc": "本症是以反复发作哮喘为特征的嗜酸粒细胞浸润性肺病。多由曲霉菌感染引起，其发生与患...", "lemmaUrl": "http://baike.baidu.com/item/%E5%93%AE%E5%96%98%E6%80%A7%E8%82%BA%E5%97%9C%E9%85%B8%E7%B2%92%E7%BB%86%E8%83%9E%E6%B5%B8%E6%B6%A6%E7%97%87/2255125", "lemmaPic": []}, {"lemmaId": 8804959, "lemmaTitle": "脾-肝综合征", "lemmaCroppedTitle": "脾-肝综合征", "lemmaDesc": "脾-肝综合征是指具有脾大、贫血、肝硬化的一组病征，也称血栓静脉炎性脾大综合征、脾...", "lemmaUrl": "http://baike.baidu.com/item/%E8%84%BE-%E8%82%9D%E7%BB%BC%E5%90%88%E5%BE%81/8804959", "lemmaPic": []}, {"lemmaId": 10844270, "lemmaTitle": "白蛉热", "lemmaCroppedTitle": "白蛉热", "lemmaDesc": "白蛉热是一种传染病，病原体是一种滤过性病毒，传染媒介为白蛉。亚热带和地中海地区草...", "lemmaUrl": "http://baike.baidu.com/item/%E7%99%BD%E8%9B%89%E7%83%AD/10844270", "lemmaPic": []}, {"lemmaId": 2446440, "lemmaTitle": "CD30阳性皮肤T细胞淋巴瘤", "lemmaCroppedTitle": "CD30阳性皮肤T细胞淋巴瘤", "lemmaDesc": "CD30阳性皮肤T细胞淋巴瘤又称原发性CD30阳性皮肤T细胞淋巴瘤，为单发性或局...", "lemmaUrl": "http://baike.baidu.com/item/CD30%E9%98%B3%E6%80%A7%E7%9A%AE%E8%82%A4T%E7%BB%86%E8%83%9E%E6%B7%8B%E5%B7%B4%E7%98%A4/2446440", "lemmaPic": []}, {"lemmaId": 5399343, "lemmaTitle": "皮克病", "lemmaCroppedTitle": "皮克病", "lemmaDesc": "由于Pick在1892年首次报告，故被称为皮克病（pick病）。也可属皮质下痴呆...", "lemmaUrl": "http://baike.baidu.com/item/%E7%9A%AE%E5%85%8B%E7%97%85/5399343", "lemmaPic": []}, {"lemmaId": 5400569, "lemmaTitle": "上矢状窦血栓性静脉炎", "lemmaCroppedTitle": "上矢状窦血栓性静脉炎", "lemmaDesc": "上矢状窦血栓性静脉炎是指急性额窦炎、额部感染性外伤等使细菌经额部板障静脉或颞前板...", "lemmaUrl": "http://baike.baidu.com/item/%E4%B8%8A%E7%9F%A2%E7%8A%B6%E7%AA%A6%E8%A1%80%E6%A0%93%E6%80%A7%E9%9D%99%E8%84%89%E7%82%8E/5400569", "lemmaPic": []}, {"lemmaId": 8305712, "lemmaTitle": "尾痛症", "lemmaCroppedTitle": "尾痛症", "lemmaDesc": "在临床上时常可以见到的尾痛症，多见于女性，尤以中年妇女多见，其主要表现为尾骨及其...", "lemmaUrl": "http://baike.baidu.com/item/%E5%B0%BE%E7%97%9B%E7%97%87/8305712", "lemmaPic": []}, {"lemmaId": 9817943, "lemmaTitle": "胰腺假囊肿", "lemmaCroppedTitle": "胰腺假囊肿", "lemmaDesc": "胰腺假囊肿在临床上并非罕见，多继发于急慢性胰腺炎和胰腺损伤，由血液、胰液外渗以及...", "lemmaUrl": "http://baike.baidu.com/item/%E8%83%B0%E8%85%BA%E5%81%87%E5%9B%8A%E8%82%BF/9817943", "lemmaPic": []}, {"lemmaId": 893231, "lemmaTitle": "十二指肠静脉曲张", "lemmaCroppedTitle": "十二指肠静脉曲张", "lemmaDesc": "门静脉高压除常见食管胃底静脉曲张出血外，尚可引起十二指肠、膀胱、胆道等少见部位静...", "lemmaUrl": "http://baike.baidu.com/item/%E5%8D%81%E4%BA%8C%E6%8C%87%E8%82%A0%E9%9D%99%E8%84%89%E6%9B%B2%E5%BC%A0/893231", "lemmaPic": []}, {"lemmaId": 6495171, "lemmaTitle": "睑球粘连", "lemmaCroppedTitle": "睑球粘连", "lemmaDesc": "睑球粘连系眼睑与眼球发生粘着的病理状态。多发生于化学性（酸、碱）烧伤、热烧伤、爆...", "lemmaUrl": "http://baike.baidu.com/item/%E7%9D%91%E7%90%83%E7%B2%98%E8%BF%9E/6495171", "lemmaPic": []}, {"lemmaId": 7253736, "lemmaTitle": "小儿尿崩症", "lemmaCroppedTitle": "小儿尿崩症", "lemmaDesc": "尿崩症一般分为原发性尿崩症、继发性尿崩症及遗传性尿崩症三种，临床上按发病部位可分...", "lemmaUrl": "http://baike.baidu.com/item/%E5%B0%8F%E5%84%BF%E5%B0%BF%E5%B4%A9%E7%97%87/7253736", "lemmaPic": []}, {"lemmaId": 8384509, "lemmaTitle": "胃肠积液", "lemmaCroppedTitle": "胃肠积液", "lemmaDesc": "胃肠积液是因腹部手术后，或因胃反等病，脾胃受损，运化输布失常，导致水饮停聚于胃肠...", "lemmaUrl": "http://baike.baidu.com/item/%E8%83%83%E8%82%A0%E7%A7%AF%E6%B6%B2/8384509", "lemmaPic": []}, {"lemmaId": 5412789, "lemmaTitle": "鼻石", "lemmaCroppedTitle": "鼻石", "lemmaDesc": "鼻石，指鼻腔内外形不规则、质地坚硬的块状物。是由于异物、血块、痂皮等长期滞留鼻腔...", "lemmaUrl": "http://baike.baidu.com/item/%E9%BC%BB%E7%9F%B3/5412789", "lemmaPic": []}, {"lemmaId": 10017447, "lemmaTitle": "周围动脉瘤", "lemmaCroppedTitle": "周围动脉瘤", "lemmaDesc": "动脉瘤是由于动脉壁病变或损伤，形成的局限性膨出或梭型扩张性病变。以搏动性包块为主...", "lemmaUrl": "http://baike.baidu.com/item/%E5%91%A8%E5%9B%B4%E5%8A%A8%E8%84%89%E7%98%A4/10017447", "lemmaPic": []}, {"lemmaId": 9928502, "lemmaTitle": "腕关节结核", "lemmaCroppedTitle": "腕关节结核", "lemmaDesc": "腕关节结核约占全身骨关节结核患者的0.43%，在上肢三大关节中发病数居第二位，患...", "lemmaUrl": "http://baike.baidu.com/item/%E8%85%95%E5%85%B3%E8%8A%82%E7%BB%93%E6%A0%B8/9928502", "lemmaPic": []}, {"lemmaId": 452904, "lemmaTitle": "先天性环状束带", "lemmaCroppedTitle": "先天性环状束带", "lemmaDesc": "先天性环状束带又称先天性环状挛缩带、狭窄环综合征或Streeter畸形，属肢体软...", "lemmaUrl": "http://baike.baidu.com/item/%E5%85%88%E5%A4%A9%E6%80%A7%E7%8E%AF%E7%8A%B6%E6%9D%9F%E5%B8%A6/452904", "lemmaPic": []}, {"lemmaId": 9087925, "lemmaTitle": "暴发性痤疮", "lemmaCroppedTitle": "暴发性痤疮", "lemmaDesc": "本病是由囊肿性痤疮最严重的形式，临床表现为多发的毛囊性丘疹、脓疱、糜烂、溃疡，发...", "lemmaUrl": "http://baike.baidu.com/item/%E6%9A%B4%E5%8F%91%E6%80%A7%E7%97%A4%E7%96%AE/9087925", "lemmaPic": []}, {"lemmaId": 9639207, "lemmaTitle": "胰腺囊腺癌", "lemmaCroppedTitle": "胰腺囊腺癌", "lemmaDesc": "胰腺囊腺癌属于胰腺的增生性囊肿，可由胰腺囊腺瘤恶变而来。本病在临床上罕见，仅占胰...", "lemmaUrl": "http://baike.baidu.com/item/%E8%83%B0%E8%85%BA%E5%9B%8A%E8%85%BA%E7%99%8C/9639207", "lemmaPic": []}, {"lemmaId": 9847703, "lemmaTitle": "下颈椎不稳症", "lemmaCroppedTitle": "下颈椎不稳症", "lemmaDesc": "下颈椎不稳症是位于颈2～3椎节以下的颈椎椎节不稳定，本病可视为颈椎退变的一个过程...", "lemmaUrl": "http://baike.baidu.com/item/%E4%B8%8B%E9%A2%88%E6%A4%8E%E4%B8%8D%E7%A8%B3%E7%97%87/9847703", "lemmaPic": []}, {"lemmaId": 5470705, "lemmaTitle": "手外伤康复", "lemmaCroppedTitle": "手外伤康复", "lemmaDesc": "手外伤康复是在手外科的诊断和处理的基础上,针对手功能障碍的各种因素,例如瘢痕、挛...", "lemmaUrl": "http://baike.baidu.com/item/%E6%89%8B%E5%A4%96%E4%BC%A4%E5%BA%B7%E5%A4%8D/5470705", "lemmaPic": []}, {"lemmaId": 6519812, "lemmaTitle": "溃疡病大出血", "lemmaCroppedTitle": "溃疡病大出血", "lemmaDesc": "溃疡病大出血系指那种大量呕血或柏油样大便，血红蛋白值明显下降，以致发生休克前期或...", "lemmaUrl": "http://baike.baidu.com/item/%E6%BA%83%E7%96%A1%E7%97%85%E5%A4%A7%E5%87%BA%E8%A1%80/6519812", "lemmaPic": []}, {"lemmaId": 4599174, "lemmaTitle": "桡骨颈骨折", "lemmaCroppedTitle": "桡骨颈骨折", "lemmaDesc": "桡骨颈骨折并不多见，常与桡骨头骨折伴发，亦可单发，桡骨颈骨折主要是由于暴力引起，...", "lemmaUrl": "http://baike.baidu.com/item/%E6%A1%A1%E9%AA%A8%E9%A2%88%E9%AA%A8%E6%8A%98/4599174", "lemmaPic": []}, {"lemmaId": 9639086, "lemmaTitle": "医源性胆管损伤", "lemmaCroppedTitle": "医源性胆管损伤", "lemmaDesc": "医源性胆管损伤是指腹部手术时意外造成胆管损伤，通常是肝外胆管的损伤。主要见于胆道...", "lemmaUrl": "http://baike.baidu.com/item/%E5%8C%BB%E6%BA%90%E6%80%A7%E8%83%86%E7%AE%A1%E6%8D%9F%E4%BC%A4/9639086", "lemmaPic": []}, {"lemmaId": 944400, "lemmaTitle": "化脓性食管炎", "lemmaCroppedTitle": "化脓性食管炎", "lemmaDesc": "食管黏膜有破损的情况下，化脓性细菌侵入食管黏膜所导致的化脓性炎症。多继发于食管异...", "lemmaUrl": "http://baike.baidu.com/item/%E5%8C%96%E8%84%93%E6%80%A7%E9%A3%9F%E7%AE%A1%E7%82%8E/944400", "lemmaPic": []}, {"lemmaId": 821561, "lemmaTitle": "耻骨结核", "lemmaCroppedTitle": "耻骨结核", "lemmaDesc": "耻骨结核较少见，结核杆菌感染是引起本病的直接因素。常见于育龄妇女，不合并其他部位...", "lemmaUrl": "http://baike.baidu.com/item/%E8%80%BB%E9%AA%A8%E7%BB%93%E6%A0%B8/821561", "lemmaPic": []}, {"lemmaId": 5319067, "lemmaTitle": "气功所致精神障碍", "lemmaCroppedTitle": "气功所致精神障碍", "lemmaDesc": "气功是我国传统医学中健身治病的一种方法。通常做法是维持一定体位、姿势，或做某些动...", "lemmaUrl": "http://baike.baidu.com/item/%E6%B0%94%E5%8A%9F%E6%89%80%E8%87%B4%E7%B2%BE%E7%A5%9E%E9%9A%9C%E7%A2%8D/5319067", "lemmaPic": []}, {"lemmaId": 1051075, "lemmaTitle": "妊娠合并再生障碍性贫血", "lemmaCroppedTitle": "妊娠合并再生障碍性贫血", "lemmaDesc": "再生障碍性贫血（简称再障）是由于生物、化学、物理等多种因素导致造血组织功能减退或...", "lemmaUrl": "http://baike.baidu.com/item/%E5%A6%8A%E5%A8%A0%E5%90%88%E5%B9%B6%E5%86%8D%E7%94%9F%E9%9A%9C%E7%A2%8D%E6%80%A7%E8%B4%AB%E8%A1%80/1051075", "lemmaPic": []}, {"lemmaId": 10941366, "lemmaTitle": "小儿尿道下裂", "lemmaCroppedTitle": "小儿尿道下裂", "lemmaDesc": "尿道下裂是男性下尿路及外生殖器常见的先天性畸形，尿道开口在阴茎腹侧正常尿道口近端...", "lemmaUrl": "http://baike.baidu.com/item/%E5%B0%8F%E5%84%BF%E5%B0%BF%E9%81%93%E4%B8%8B%E8%A3%82/10941366", "lemmaPic": []}, {"lemmaId": 4333361, "lemmaTitle": "眼弓蛔虫病", "lemmaCroppedTitle": "眼弓蛔虫病", "lemmaDesc": "眼弓蛔虫病是由犬弓蛔虫或猫弓蛔虫的幼虫侵犯眼内组织引起的感染性疾病。幼虫可在周围...", "lemmaUrl": "http://baike.baidu.com/item/%E7%9C%BC%E5%BC%93%E8%9B%94%E8%99%AB%E7%97%85/4333361", "lemmaPic": []}, {"lemmaId": 5084994, "lemmaTitle": "后天性动静脉瘘", "lemmaCroppedTitle": "后天性动静脉瘘", "lemmaDesc": "由于外在因素导致的动脉和静脉之间存在异常通道，称为后天性动静脉瘘。由于动脉的血液...", "lemmaUrl": "http://baike.baidu.com/item/%E5%90%8E%E5%A4%A9%E6%80%A7%E5%8A%A8%E9%9D%99%E8%84%89%E7%98%98/5084994", "lemmaPic": []}, {"lemmaId": 7801577, "lemmaTitle": "色素性化妆品皮炎", "lemmaCroppedTitle": "色素性化妆品皮炎", "lemmaDesc": "色素性化妆品皮炎又称女子颜面黑变病。是化妆品成分引起的女性面部色素沉着反应，黄种...", "lemmaUrl": "http://baike.baidu.com/item/%E8%89%B2%E7%B4%A0%E6%80%A7%E5%8C%96%E5%A6%86%E5%93%81%E7%9A%AE%E7%82%8E/7801577", "lemmaPic": []}, {"lemmaId": 10137495, "lemmaTitle": "脉络膜病变", "lemmaCroppedTitle": "脉络膜病变", "lemmaDesc": "发生在脉络膜的病变。脉络膜呈暗褐色，占葡萄膜的后2/3，由纤维组织、小血管和毛细...", "lemmaUrl": "http://baike.baidu.com/item/%E8%84%89%E7%BB%9C%E8%86%9C%E7%97%85%E5%8F%98/10137495", "lemmaPic": []}, {"lemmaId": 3170649, "lemmaTitle": "非酒精性脂肪肝病", "lemmaCroppedTitle": "非酒精性脂肪肝病", "lemmaDesc": "非酒精性脂肪性肝病（NAFLD）是指除酒精外和其他明确的损肝因素所致的，以弥漫性...", "lemmaUrl": "http://baike.baidu.com/item/%E9%9D%9E%E9%85%92%E7%B2%BE%E6%80%A7%E8%84%82%E8%82%AA%E8%82%9D%E7%97%85/3170649", "lemmaPic": []}, {"lemmaId": 8357420, "lemmaTitle": "枸橼酸杆菌肺炎", "lemmaCroppedTitle": "枸橼酸杆菌肺炎", "lemmaDesc": "枸橼酸杆菌肺炎（Citrobacter pneumonia）是由枸橼酸杆菌感染引...", "lemmaUrl": "http://baike.baidu.com/item/%E6%9E%B8%E6%A9%BC%E9%85%B8%E6%9D%86%E8%8F%8C%E8%82%BA%E7%82%8E/8357420", "lemmaPic": []}, {"lemmaId": 8531406, "lemmaTitle": "外伤性硬脑膜下积液", "lemmaCroppedTitle": "外伤性硬脑膜下积液", "lemmaDesc": "又名外伤性硬脑膜下水瘤。是因颅脑损伤时，脑组织在颅腔内强烈移动，致使蛛网膜被撕破...", "lemmaUrl": "http://baike.baidu.com/item/%E5%A4%96%E4%BC%A4%E6%80%A7%E7%A1%AC%E8%84%91%E8%86%9C%E4%B8%8B%E7%A7%AF%E6%B6%B2/8531406", "lemmaPic": []}, {"lemmaId": 6643411, "lemmaTitle": "原发性急性闭角型青光眼", "lemmaCroppedTitle": "原发性急性闭角型青光眼", "lemmaDesc": "原发性急性闭角型青光眼（APACG）是指由于房角关闭引起眼压急性升高的一类青光眼...", "lemmaUrl": "http://baike.baidu.com/item/%E5%8E%9F%E5%8F%91%E6%80%A7%E6%80%A5%E6%80%A7%E9%97%AD%E8%A7%92%E5%9E%8B%E9%9D%92%E5%85%89%E7%9C%BC/6643411", "lemmaPic": []}, {"lemmaId": 10843192, "lemmaTitle": "子悬", "lemmaCroppedTitle": "子悬", "lemmaDesc": "子悬，指妊娠胸胁胀满，甚或喘急，烦躁不安者，又称胎上逼心。", "lemmaUrl": "http://baike.baidu.com/item/%E5%AD%90%E6%82%AC/10843192", "lemmaPic": []}, {"lemmaId": 7676807, "lemmaTitle": "瘀证", "lemmaCroppedTitle": "瘀证", "lemmaDesc": "瘀证，是指由于血液运行不畅，瘀积凝滞，或离经之血停积体内，或久病入络等所致的多种...", "lemmaUrl": "http://baike.baidu.com/item/%E7%98%80%E8%AF%81/7676807", "lemmaPic": []}, {"lemmaId": 9888099, "lemmaTitle": "假性醛固酮减少症", "lemmaCroppedTitle": "假性醛固酮减少症", "lemmaDesc": "假性醛固酮减少症是一种少见的失盐综合征，又称Cheek-Perry综合征，系Ch...", "lemmaUrl": "http://baike.baidu.com/item/%E5%81%87%E6%80%A7%E9%86%9B%E5%9B%BA%E9%85%AE%E5%87%8F%E5%B0%91%E7%97%87/9888099", "lemmaPic": []}, {"lemmaId": 9194214, "lemmaTitle": "口腔颌面部皮样、表皮样囊肿", "lemmaCroppedTitle": "口腔颌面部皮样、表皮样囊肿", "lemmaDesc": "胚胎发育时遗留于组织中的上皮细胞发展而成。口底皮样或表皮样囊肿，是因第一、第二对...", "lemmaUrl": "http://baike.baidu.com/item/%E5%8F%A3%E8%85%94%E9%A2%8C%E9%9D%A2%E9%83%A8%E7%9A%AE%E6%A0%B7%E3%80%81%E8%A1%A8%E7%9A%AE%E6%A0%B7%E5%9B%8A%E8%82%BF/9194214", "lemmaPic": []}, {"lemmaId": 6520612, "lemmaTitle": "拟除虫菊类农药中毒", "lemmaCroppedTitle": "拟除虫菊类农药中毒", "lemmaDesc": "溴氰菊酯又称凯素灵，为2.5%溴氰菊酯可湿性粉剂，敌杀死为2.5%溴氰菊酯乳油。...", "lemmaUrl": "http://baike.baidu.com/item/%E6%8B%9F%E9%99%A4%E8%99%AB%E8%8F%8A%E7%B1%BB%E5%86%9C%E8%8D%AF%E4%B8%AD%E6%AF%92/6520612", "lemmaPic": []}, {"lemmaId": 8532671, "lemmaTitle": "创伤性鼻出血", "lemmaCroppedTitle": "创伤性鼻出血", "lemmaDesc": "创伤性鼻出血是因各种外力因素引起的鼻出血，是一种常见的鼻部疾病。如挖鼻过深、喷嚏...", "lemmaUrl": "http://baike.baidu.com/item/%E5%88%9B%E4%BC%A4%E6%80%A7%E9%BC%BB%E5%87%BA%E8%A1%80/8532671", "lemmaPic": []}, {"lemmaId": 1200383, "lemmaTitle": "月经周期性精神病", "lemmaCroppedTitle": "月经周期性精神病", "lemmaDesc": "临床上不少妇女每在月经来潮前2周情绪不佳，焦虑烦躁，称为&amp;quot;经前...", "lemmaUrl": "http://baike.baidu.com/item/%E6%9C%88%E7%BB%8F%E5%91%A8%E6%9C%9F%E6%80%A7%E7%B2%BE%E7%A5%9E%E7%97%85/1200383", "lemmaPic": []}, {"lemmaId": 10577612, "lemmaTitle": "肉孢子虫病", "lemmaCroppedTitle": "肉孢子虫病", "lemmaDesc": "肉孢子虫病是一种广泛寄生于人类和哺乳动物、鸟类、爬行动物等细胞内的寄生虫病。其所...", "lemmaUrl": "http://baike.baidu.com/item/%E8%82%89%E5%AD%A2%E5%AD%90%E8%99%AB%E7%97%85/10577612", "lemmaPic": []}, {"lemmaId": 7222116, "lemmaTitle": "脓疱性细菌疹", "lemmaCroppedTitle": "脓疱性细菌疹", "lemmaDesc": "脓疱性细菌疹由Andrews于1941年报道，是机体对细菌性感染病灶所引起的一种...", "lemmaUrl": "http://baike.baidu.com/item/%E8%84%93%E7%96%B1%E6%80%A7%E7%BB%86%E8%8F%8C%E7%96%B9/7222116", "lemmaPic": []}, {"lemmaId": 2839120, "lemmaTitle": "大量羊水吸入", "lemmaCroppedTitle": "大量羊水吸入", "lemmaDesc": "胎儿在宫内或分娩过程中吸入较大量羊水，称大量羊水吸入，又称羊水吸入综合征。新生儿...", "lemmaUrl": "http://baike.baidu.com/item/%E5%A4%A7%E9%87%8F%E7%BE%8A%E6%B0%B4%E5%90%B8%E5%85%A5/2839120", "lemmaPic": []}, {"lemmaId": 4143267, "lemmaTitle": "躯体感觉障碍", "lemmaCroppedTitle": "躯体感觉障碍", "lemmaDesc": "躯体感觉障碍是指一种以持久的担心或相信各种躯体症状的优势观念为特征的神经症状。患...", "lemmaUrl": "http://baike.baidu.com/item/%E8%BA%AF%E4%BD%93%E6%84%9F%E8%A7%89%E9%9A%9C%E7%A2%8D/4143267", "lemmaPic": []}, {"lemmaId": 7360305, "lemmaTitle": "脾疳", "lemmaCroppedTitle": "脾疳", "lemmaDesc": "脾疳是由于乳食不节，先天不足或后天疾病以致脾胃受伤，运化失调引起。以形体消瘦、面...", "lemmaUrl": "http://baike.baidu.com/item/%E8%84%BE%E7%96%B3/7360305", "lemmaPic": []}, {"lemmaId": 2620387, "lemmaTitle": "肺组织细胞增生症", "lemmaCroppedTitle": "肺组织细胞增生症", "lemmaDesc": "肺组织细胞增生症即肺朗格汉斯组织细胞增生症（PLCH），以前被称为肺嗜酸性粒细胞...", "lemmaUrl": "http://baike.baidu.com/item/%E8%82%BA%E7%BB%84%E7%BB%87%E7%BB%86%E8%83%9E%E5%A2%9E%E7%94%9F%E7%97%87/2620387", "lemmaPic": []}, {"lemmaId": 4233141, "lemmaTitle": "肺假性淋巴瘤", "lemmaCroppedTitle": "肺假性淋巴瘤", "lemmaDesc": "肺假性淋巴瘤（PL），又称结节性淋巴组织样增生，是起源于在组织学上与真正的肺内淋...", "lemmaUrl": "http://baike.baidu.com/item/%E8%82%BA%E5%81%87%E6%80%A7%E6%B7%8B%E5%B7%B4%E7%98%A4/4233141", "lemmaPic": []}, {"lemmaId": 7253956, "lemmaTitle": "盆底腹膜疝", "lemmaCroppedTitle": "盆底腹膜疝", "lemmaDesc": "盆腔腹膜及腹腔脏器或组织，突入直肠生殖陷凹（直肠与阴道之间，或直肠与前列腺之间）...", "lemmaUrl": "http://baike.baidu.com/item/%E7%9B%86%E5%BA%95%E8%85%B9%E8%86%9C%E7%96%9D/7253956", "lemmaPic": []}, {"lemmaId": 5087936, "lemmaTitle": "肱骨远端全骺分离", "lemmaCroppedTitle": "肱骨远端全骺分离", "lemmaDesc": "肱骨远端全骺分离，是指经肱骨下端骨骺线水平，肱骨小头和滑车骨骺一起与肱骨干分离。...", "lemmaUrl": "http://baike.baidu.com/item/%E8%82%B1%E9%AA%A8%E8%BF%9C%E7%AB%AF%E5%85%A8%E9%AA%BA%E5%88%86%E7%A6%BB/5087936", "lemmaPic": []}, {"lemmaId": 2908058, "lemmaTitle": "小儿金葡菌性烫伤样皮肤综合征", "lemmaCroppedTitle": "小儿金葡菌性烫伤样皮肤综合征", "lemmaDesc": "小儿金葡菌性烫伤样皮肤综合征曾称新生儿剥脱样皮炎、金黄色葡萄球菌型中毒性表皮松解...", "lemmaUrl": "http://baike.baidu.com/item/%E5%B0%8F%E5%84%BF%E9%87%91%E8%91%A1%E8%8F%8C%E6%80%A7%E7%83%AB%E4%BC%A4%E6%A0%B7%E7%9A%AE%E8%82%A4%E7%BB%BC%E5%90%88%E5%BE%81/2908058", "lemmaPic": []}, {"lemmaId": 2839043, "lemmaTitle": "发疹性毳毛囊肿", "lemmaCroppedTitle": "发疹性毳毛囊肿", "lemmaDesc": "发疹性毳毛囊肿是1977年由Esterly等首先报告。常表现为胸部的毛囊性丘疹。...", "lemmaUrl": "http://baike.baidu.com/item/%E5%8F%91%E7%96%B9%E6%80%A7%E6%AF%B3%E6%AF%9B%E5%9B%8A%E8%82%BF/2839043", "lemmaPic": []}, {"lemmaId": 6357183, "lemmaTitle": "明癣", "lemmaCroppedTitle": "明癣", "lemmaDesc": "明癣是指由真菌引起的传染性皮肤病，多由股癣或花斑癣蔓延至肛门、会阴、臀部所致。属...", "lemmaUrl": "http://baike.baidu.com/item/%E6%98%8E%E7%99%A3/6357183", "lemmaPic": []}, {"lemmaId": 6520091, "lemmaTitle": "淋菌性肛门直肠炎", "lemmaCroppedTitle": "淋菌性肛门直肠炎", "lemmaDesc": "淋菌性肛门直肠炎主要见于男性同性恋，妇女则多由阴道自身感染所致。直肠淋球菌感染症...", "lemmaUrl": "http://baike.baidu.com/item/%E6%B7%8B%E8%8F%8C%E6%80%A7%E8%82%9B%E9%97%A8%E7%9B%B4%E8%82%A0%E7%82%8E/6520091", "lemmaPic": []}, {"lemmaId": 9904639, "lemmaTitle": "带状角膜病变", "lemmaCroppedTitle": "带状角膜病变", "lemmaDesc": "带状角膜病变是指一种角膜上皮下发生钙质沉着而引起的角膜病变，又称角膜带状混浊和钙...", "lemmaUrl": "http://baike.baidu.com/item/%E5%B8%A6%E7%8A%B6%E8%A7%92%E8%86%9C%E7%97%85%E5%8F%98/9904639", "lemmaPic": []}, {"lemmaId": 11064504, "lemmaTitle": "厚皮性骨膜病", "lemmaCroppedTitle": "厚皮性骨膜病", "lemmaDesc": "厚皮性骨膜病分为原发型和继发型。原发型多见于男性，临床表现为颜面、前额、头部皮肤...", "lemmaUrl": "http://baike.baidu.com/item/%E5%8E%9A%E7%9A%AE%E6%80%A7%E9%AA%A8%E8%86%9C%E7%97%85/11064504", "lemmaPic": []}, {"lemmaId": 2548829, "lemmaTitle": "踝扭伤", "lemmaCroppedTitle": "踝扭伤", "lemmaDesc": "踝外侧有3个韧带固定：前距外侧韧带，腓跟韧带和后距腓韧带。踝扭伤时前距腓韧带首先...", "lemmaUrl": "http://baike.baidu.com/item/%E8%B8%9D%E6%89%AD%E4%BC%A4/2548829", "lemmaPic": []}, {"lemmaId": 5086079, "lemmaTitle": "肋锁综合征", "lemmaCroppedTitle": "肋锁综合征", "lemmaDesc": "锁骨与第一肋骨之间的间隙较小，在解剖上是一个弱点，其间有通至上肢的神经血管束。如...", "lemmaUrl": "http://baike.baidu.com/item/%E8%82%8B%E9%94%81%E7%BB%BC%E5%90%88%E5%BE%81/5086079", "lemmaPic": []}, {"lemmaId": 2048588, "lemmaTitle": "硬脊膜外脓肿", "lemmaCroppedTitle": "硬脊膜外脓肿", "lemmaDesc": "硬脊膜外脓肿，是一种少见的疾病，临床上很容易造成误诊。硬脊膜外脓肿的好发因素包括...", "lemmaUrl": "http://baike.baidu.com/item/%E7%A1%AC%E8%84%8A%E8%86%9C%E5%A4%96%E8%84%93%E8%82%BF/2048588", "lemmaPic": []}, {"lemmaId": 9774965, "lemmaTitle": "镰刀菌病", "lemmaCroppedTitle": "镰刀菌病", "lemmaDesc": "镰刀菌病又称是由镰刀菌引起的皮肤、角膜或系统性感染。镰刀菌是一种腐生菌，与免疫力...", "lemmaUrl": "http://baike.baidu.com/item/%E9%95%B0%E5%88%80%E8%8F%8C%E7%97%85/9774965", "lemmaPic": []}, {"lemmaId": 5652692, "lemmaTitle": "新生儿弥散性血管内凝血", "lemmaCroppedTitle": "新生儿弥散性血管内凝血", "lemmaDesc": "弥散性血管内凝血（DIC）是一种由不同原因引起的，以全身血管内凝血系统激活为特征...", "lemmaUrl": "http://baike.baidu.com/item/%E6%96%B0%E7%94%9F%E5%84%BF%E5%BC%A5%E6%95%A3%E6%80%A7%E8%A1%80%E7%AE%A1%E5%86%85%E5%87%9D%E8%A1%80/5652692", "lemmaPic": []}, {"lemmaId": 8410615, "lemmaTitle": "单纯疱疹病毒肺炎", "lemmaCroppedTitle": "单纯疱疹病毒肺炎", "lemmaDesc": "单纯疱疹病毒肺炎是由单纯疱疹病毒（HSV）感染引起的肺炎。HSV感染常发生在上呼...", "lemmaUrl": "http://baike.baidu.com/item/%E5%8D%95%E7%BA%AF%E7%96%B1%E7%96%B9%E7%97%85%E6%AF%92%E8%82%BA%E7%82%8E/8410615", "lemmaPic": []}, {"lemmaId": 2067701, "lemmaTitle": "绝经期尿失禁", "lemmaCroppedTitle": "绝经期尿失禁", "lemmaDesc": "绝经期尿失禁是老年女性最普遍、影响生活质量的问题之一。女性从围绝经期至绝经期，逐...", "lemmaUrl": "http://baike.baidu.com/item/%E7%BB%9D%E7%BB%8F%E6%9C%9F%E5%B0%BF%E5%A4%B1%E7%A6%81/2067701", "lemmaPic": []}, {"lemmaId": 7350108, "lemmaTitle": "胸骨骨髓炎", "lemmaCroppedTitle": "胸骨骨髓炎", "lemmaDesc": "胸骨骨髓炎发病率低，特别是血源性骨髓炎非常少见，是骨科领域里非常难治的疾病。常见...", "lemmaUrl": "http://baike.baidu.com/item/%E8%83%B8%E9%AA%A8%E9%AA%A8%E9%AB%93%E7%82%8E/7350108", "lemmaPic": []}, {"lemmaId": 3933141, "lemmaTitle": "化脓性腱鞘炎", "lemmaCroppedTitle": "化脓性腱鞘炎", "lemmaDesc": "化脓性腱鞘炎大多由手指掌侧横纹部的刺伤引起，而血源性感染则较少见。鞘管内富有滑液...", "lemmaUrl": "http://baike.baidu.com/item/%E5%8C%96%E8%84%93%E6%80%A7%E8%85%B1%E9%9E%98%E7%82%8E/3933141", "lemmaPic": []}, {"lemmaId": 10335748, "lemmaTitle": "肾动脉血栓形成和栓塞", "lemmaCroppedTitle": "肾动脉血栓形成和栓塞", "lemmaDesc": "肾动脉血栓形成和栓塞是指肾动脉主干或较大分支由于血管壁或血液因素导致肾动脉腔内发...", "lemmaUrl": "http://baike.baidu.com/item/%E8%82%BE%E5%8A%A8%E8%84%89%E8%A1%80%E6%A0%93%E5%BD%A2%E6%88%90%E5%92%8C%E6%A0%93%E5%A1%9E/10335748", "lemmaPic": []}, {"lemmaId": 2120556, "lemmaTitle": "多发内生软骨瘤病", "lemmaCroppedTitle": "多发内生软骨瘤病", "lemmaDesc": "多发内生软骨瘤病是一种少见的非遗传性良性肿瘤，由多数不对称分布在骨内的软骨病灶及...", "lemmaUrl": "http://baike.baidu.com/item/%E5%A4%9A%E5%8F%91%E5%86%85%E7%94%9F%E8%BD%AF%E9%AA%A8%E7%98%A4%E7%97%85/2120556", "lemmaPic": []}, {"lemmaId": 3042870, "lemmaTitle": "学习技能发育障碍", "lemmaCroppedTitle": "学习技能发育障碍", "lemmaDesc": "学习技能发育障碍是指智力正常的儿童在阅读、书写、拼字、表达、计算等方面，心理过程...", "lemmaUrl": "http://baike.baidu.com/item/%E5%AD%A6%E4%B9%A0%E6%8A%80%E8%83%BD%E5%8F%91%E8%82%B2%E9%9A%9C%E7%A2%8D/3042870", "lemmaPic": []}, {"lemmaId": 13883819, "lemmaTitle": "13-三体综合征", "lemmaCroppedTitle": "13-三体综合征", "lemmaDesc": "13-三体综合征又称Patau综合征，为第二常见的常染色体病。在新生儿中发病率为...", "lemmaUrl": "http://baike.baidu.com/item/13-%E4%B8%89%E4%BD%93%E7%BB%BC%E5%90%88%E5%BE%81/13883819", "lemmaPic": []}, {"lemmaId": 6385072, "lemmaTitle": "外阴软纤维瘤", "lemmaCroppedTitle": "外阴软纤维瘤", "lemmaDesc": "外阴软纤维瘤是一种以纤维血管为核心、角化的鳞状上皮所覆盖的良性息肉肿块。常常较小...", "lemmaUrl": "http://baike.baidu.com/item/%E5%A4%96%E9%98%B4%E8%BD%AF%E7%BA%A4%E7%BB%B4%E7%98%A4/6385072", "lemmaPic": []}, {"lemmaId": 15181311, "lemmaTitle": "克雅病", "lemmaCroppedTitle": "克雅病", "lemmaDesc": "克雅病是一类侵犯人类和动物中枢神经系统的人畜共患性疾病，最早是在1920～192...", "lemmaUrl": "http://baike.baidu.com/item/%E5%85%8B%E9%9B%85%E7%97%85/15181311", "lemmaPic": []}, {"lemmaId": 2839374, "lemmaTitle": "新生儿Rh血型不合溶血病", "lemmaCroppedTitle": "新生儿Rh血型不合溶血病", "lemmaDesc": "新生儿溶血病属于同族免疫性溶血性贫血的一种，是指由血型抗体所致的免疫性溶血性贫血...", "lemmaUrl": "http://baike.baidu.com/item/%E6%96%B0%E7%94%9F%E5%84%BFRh%E8%A1%80%E5%9E%8B%E4%B8%8D%E5%90%88%E6%BA%B6%E8%A1%80%E7%97%85/2839374", "lemmaPic": []}, {"lemmaId": 2353360, "lemmaTitle": "梅毒性巩膜炎", "lemmaCroppedTitle": "梅毒性巩膜炎", "lemmaDesc": "梅毒性巩膜炎是由苍白密螺旋体引起的亚急性转慢性感染性疾病。梅毒主要通过性接触、血...", "lemmaUrl": "http://baike.baidu.com/item/%E6%A2%85%E6%AF%92%E6%80%A7%E5%B7%A9%E8%86%9C%E7%82%8E/2353360", "lemmaPic": []}, {"lemmaId": 4617271, "lemmaTitle": "小儿窦性心动过缓", "lemmaCroppedTitle": "小儿窦性心动过缓", "lemmaDesc": "小儿窦性心动过缓是指窦房结发出激动的频率低于正常的范围，为小常见心律失常，但多无...", "lemmaUrl": "http://baike.baidu.com/item/%E5%B0%8F%E5%84%BF%E7%AA%A6%E6%80%A7%E5%BF%83%E5%8A%A8%E8%BF%87%E7%BC%93/4617271", "lemmaPic": []}, {"lemmaId": 8363690, "lemmaTitle": "结核性宫颈炎", "lemmaCroppedTitle": "结核性宫颈炎", "lemmaDesc": "宫颈结核是女性生殖器结核的一种，而女性生殖器结核是由结核杆菌侵入机体后，在生殖器...", "lemmaUrl": "http://baike.baidu.com/item/%E7%BB%93%E6%A0%B8%E6%80%A7%E5%AE%AB%E9%A2%88%E7%82%8E/8363690", "lemmaPic": []}, {"lemmaId": 9204545, "lemmaTitle": "癌性神经肌病", "lemmaCroppedTitle": "癌性神经肌病", "lemmaDesc": "癌性神经肌病系指与癌肿转移浸润无关，而发生于癌肿原发病灶症状出现前后的特有的神经...", "lemmaUrl": "http://baike.baidu.com/item/%E7%99%8C%E6%80%A7%E7%A5%9E%E7%BB%8F%E8%82%8C%E7%97%85/9204545", "lemmaPic": []}, {"lemmaId": 10980603, "lemmaTitle": "嗜麦芽黄单胞菌肺炎", "lemmaCroppedTitle": "嗜麦芽黄单胞菌肺炎", "lemmaDesc": "嗜麦芽黄单孢菌又名嗜麦芽窄食单孢菌，为呼吸系统院内感染性疾病病原菌中的较常见的菌...", "lemmaUrl": "http://baike.baidu.com/item/%E5%97%9C%E9%BA%A6%E8%8A%BD%E9%BB%84%E5%8D%95%E8%83%9E%E8%8F%8C%E8%82%BA%E7%82%8E/10980603", "lemmaPic": []}, {"lemmaId": 1124928, "lemmaTitle": "基质性角膜炎", "lemmaCroppedTitle": "基质性角膜炎", "lemmaDesc": "基质性角膜炎是位于层内的炎症，属非溃疡性的深层角膜炎。指角膜基质内的弥漫性炎症浸...", "lemmaUrl": "http://baike.baidu.com/item/%E5%9F%BA%E8%B4%A8%E6%80%A7%E8%A7%92%E8%86%9C%E7%82%8E/1124928", "lemmaPic": []}, {"lemmaId": 3142884, "lemmaTitle": "缺血性肝炎", "lemmaCroppedTitle": "缺血性肝炎", "lemmaDesc": "缺血性肝炎系指严重低血压和低氧血症导致的可逆性肝小叶中央坏死，常由充血性心力衰竭...", "lemmaUrl": "http://baike.baidu.com/item/%E7%BC%BA%E8%A1%80%E6%80%A7%E8%82%9D%E7%82%8E/3142884", "lemmaPic": []}, {"lemmaId": 6853054, "lemmaTitle": "小儿重症肌无力", "lemmaCroppedTitle": "小儿重症肌无力", "lemmaDesc": "重症肌无力（MG）是一种神经肌肉接头间递质传递功能障碍的慢性病。目前已经明确，重...", "lemmaUrl": "http://baike.baidu.com/item/%E5%B0%8F%E5%84%BF%E9%87%8D%E7%97%87%E8%82%8C%E6%97%A0%E5%8A%9B/6853054", "lemmaPic": []}, {"lemmaId": 895812, "lemmaTitle": "颞骨岩部炎", "lemmaCroppedTitle": "颞骨岩部炎", "lemmaDesc": "颞骨岩部炎又称岩尖炎，岩锥炎，为颞骨岩部含气小房之化脓性感染，多发生于中年患者，...", "lemmaUrl": "http://baike.baidu.com/item/%E9%A2%9E%E9%AA%A8%E5%B2%A9%E9%83%A8%E7%82%8E/895812", "lemmaPic": []}, {"lemmaId": 6519708, "lemmaTitle": "奎宁中毒", "lemmaCroppedTitle": "奎宁中毒", "lemmaDesc": "奎宁中毒多因用量过大或特异质引起，静脉注射过快或药液浓度过度可致休克。孕妇或哺乳...", "lemmaUrl": "http://baike.baidu.com/item/%E5%A5%8E%E5%AE%81%E4%B8%AD%E6%AF%92/6519708", "lemmaPic": []}, {"lemmaId": 2908112, "lemmaTitle": "面部偏侧萎缩", "lemmaCroppedTitle": "面部偏侧萎缩", "lemmaDesc": "面部偏侧萎缩亦称Romberg病及进行性面部半侧萎缩症。是一种少见的皮肤、皮下组...", "lemmaUrl": "http://baike.baidu.com/item/%E9%9D%A2%E9%83%A8%E5%81%8F%E4%BE%A7%E8%90%8E%E7%BC%A9/2908112", "lemmaPic": []}, {"lemmaId": 3830664, "lemmaTitle": "外科皮脂腺囊肿", "lemmaCroppedTitle": "外科皮脂腺囊肿", "lemmaDesc": "皮脂腺囊肿俗称“粉瘤”，是指因皮脂腺导管阻塞后，腺体内因皮脂腺聚积而形成囊肿。这...", "lemmaUrl": "http://baike.baidu.com/item/%E5%A4%96%E7%A7%91%E7%9A%AE%E8%84%82%E8%85%BA%E5%9B%8A%E8%82%BF/3830664", "lemmaPic": []}, {"lemmaId": 10456009, "lemmaTitle": "咽部灼伤", "lemmaCroppedTitle": "咽部灼伤", "lemmaDesc": "咽部灼伤多同时累及喉，进入食管则出现食管灼伤。除局部症状外，还可引起全身复杂的病...", "lemmaUrl": "http://baike.baidu.com/item/%E5%92%BD%E9%83%A8%E7%81%BC%E4%BC%A4/10456009", "lemmaPic": []}, {"lemmaId": 5278733, "lemmaTitle": "视网膜色素上皮炎", "lemmaCroppedTitle": "视网膜色素上皮炎", "lemmaDesc": "视网膜色素上皮炎也称为Krill&amp;#39;s病。特征性的表现为在健康青壮...", "lemmaUrl": "http://baike.baidu.com/item/%E8%A7%86%E7%BD%91%E8%86%9C%E8%89%B2%E7%B4%A0%E4%B8%8A%E7%9A%AE%E7%82%8E/5278733", "lemmaPic": []}, {"lemmaId": 10590922, "lemmaTitle": "红细胞生成性原卟啉病", "lemmaCroppedTitle": "红细胞生成性原卟啉病", "lemmaDesc": "红细胞生成性原卟啉病是由于亚铁螯合酶活性低下，原卟啉原IV水平升高而引起的遗传性...", "lemmaUrl": "http://baike.baidu.com/item/%E7%BA%A2%E7%BB%86%E8%83%9E%E7%94%9F%E6%88%90%E6%80%A7%E5%8E%9F%E5%8D%9F%E5%95%89%E7%97%85/10590922", "lemmaPic": []}, {"lemmaId": 1336349, "lemmaTitle": "小儿46-XY单纯性腺发育不全综合征", "lemmaCroppedTitle": "小儿46-XY单纯性腺发育不全综合征", "lemmaDesc": "46-XY单纯性腺发育不全综合征即Harnden-Stewart综合征，又名Sw...", "lemmaUrl": "http://baike.baidu.com/item/%E5%B0%8F%E5%84%BF46-XY%E5%8D%95%E7%BA%AF%E6%80%A7%E8%85%BA%E5%8F%91%E8%82%B2%E4%B8%8D%E5%85%A8%E7%BB%BC%E5%90%88%E5%BE%81/1336349", "lemmaPic": []}], "total": 7246, "totalPage": 73, "page": 46, "fromLemma": 0}