{"lemmaList": [{"lemmaId": 5774652, "lemmaTitle": "股外侧皮神经卡压综合征", "lemmaCroppedTitle": "股外侧皮神经卡压综合征", "lemmaDesc": "股外侧皮神经卡压综合征是指股外侧皮神经在途经之处因某种致压因素卡压而引起的神经功...", "lemmaUrl": "http://baike.baidu.com/item/%E8%82%A1%E5%A4%96%E4%BE%A7%E7%9A%AE%E7%A5%9E%E7%BB%8F%E5%8D%A1%E5%8E%8B%E7%BB%BC%E5%90%88%E5%BE%81/5774652", "lemmaPic": []}, {"lemmaId": 10358468, "lemmaTitle": "胫骨结节骨软骨病", "lemmaCroppedTitle": "胫骨结节骨软骨病", "lemmaDesc": "胫骨结节骨软骨病又称胫骨结节骨骺炎或Osgood-Schlatter病，由Osg...", "lemmaUrl": "http://baike.baidu.com/item/%E8%83%AB%E9%AA%A8%E7%BB%93%E8%8A%82%E9%AA%A8%E8%BD%AF%E9%AA%A8%E7%97%85/10358468", "lemmaPic": []}, {"lemmaId": 4354520, "lemmaTitle": "产力", "lemmaCroppedTitle": "产力", "lemmaDesc": "产力即将胎儿及其附属物从子宫内逼出的力量，包括子宫收缩力（简称宫缩）、腹壁肌及膈...", "lemmaUrl": "http://baike.baidu.com/item/%E4%BA%A7%E5%8A%9B/4354520", "lemmaPic": []}, {"lemmaId": 5725980, "lemmaTitle": "纵隔畸胎瘤", "lemmaCroppedTitle": "纵隔畸胎瘤", "lemmaDesc": "临床上根据纵隔内器官及组织的投影简单地把纵隔分为前、中、后三部分。纵隔畸胎瘤多发...", "lemmaUrl": "http://baike.baidu.com/item/%E7%BA%B5%E9%9A%94%E7%95%B8%E8%83%8E%E7%98%A4/5725980", "lemmaPic": []}, {"lemmaId": 5058868, "lemmaTitle": "吉尔伯特综合征", "lemmaCroppedTitle": "吉尔伯特综合征", "lemmaDesc": "吉尔伯特综合征又名体质性肝功能不良、遗传性非溶血性高胆红素血症。男性多见，可发生...", "lemmaUrl": "http://baike.baidu.com/item/%E5%90%89%E5%B0%94%E4%BC%AF%E7%89%B9%E7%BB%BC%E5%90%88%E5%BE%81/5058868", "lemmaPic": []}, {"lemmaId": 10578421, "lemmaTitle": "肠阿米巴病", "lemmaCroppedTitle": "肠阿米巴病", "lemmaDesc": "肠阿米巴病又称阿米巴痢疾是由溶组织内阿米巴寄生于结肠引起的疾病，主要病变部位在近...", "lemmaUrl": "http://baike.baidu.com/item/%E8%82%A0%E9%98%BF%E7%B1%B3%E5%B7%B4%E7%97%85/10578421", "lemmaPic": []}, {"lemmaId": 537021, "lemmaTitle": "黏液纤维肉瘤", "lemmaCroppedTitle": "黏液纤维肉瘤", "lemmaDesc": "黏液纤维肉瘤包括一系列恶性成纤维细胞性病变，有不同程度的黏液样间质，多形性，并有...", "lemmaUrl": "http://baike.baidu.com/item/%E9%BB%8F%E6%B6%B2%E7%BA%A4%E7%BB%B4%E8%82%89%E7%98%A4/537021", "lemmaPic": []}, {"lemmaId": 5358499, "lemmaTitle": "同型胱氨酸尿症", "lemmaCroppedTitle": "同型胱氨酸尿症", "lemmaDesc": "同型胱氨酸尿症是蛋氨酸代谢过程中由于酶缺乏而引起的遗传性疾病，是一种少见的累及眼...", "lemmaUrl": "http://baike.baidu.com/item/%E5%90%8C%E5%9E%8B%E8%83%B1%E6%B0%A8%E9%85%B8%E5%B0%BF%E7%97%87/5358499", "lemmaPic": []}, {"lemmaId": 10095451, "lemmaTitle": "小肠破裂", "lemmaCroppedTitle": "小肠破裂", "lemmaDesc": "各种外力的作用所致的小肠穿孔称为小肠破裂。临床表现主要有腹痛、腹胀、腹膜炎，可伴...", "lemmaUrl": "http://baike.baidu.com/item/%E5%B0%8F%E8%82%A0%E7%A0%B4%E8%A3%82/10095451", "lemmaPic": []}, {"lemmaId": 5669081, "lemmaTitle": "唇病", "lemmaCroppedTitle": "唇病", "lemmaDesc": "唇病包括湿疹糜烂型唇炎、干燥脱屑型唇炎又名单纯性唇炎或剥脱性唇炎、腺型唇炎、肉芽...", "lemmaUrl": "http://baike.baidu.com/item/%E5%94%87%E7%97%85/5669081", "lemmaPic": []}, {"lemmaId": 580858, "lemmaTitle": "卵巢黏液性肿瘤", "lemmaCroppedTitle": "卵巢黏液性肿瘤", "lemmaDesc": "在卵巢上皮性肿瘤中仅次于浆液性肿瘤，良性较多，占77%～87%，交界性约10%其...", "lemmaUrl": "http://baike.baidu.com/item/%E5%8D%B5%E5%B7%A2%E9%BB%8F%E6%B6%B2%E6%80%A7%E8%82%BF%E7%98%A4/580858", "lemmaPic": []}, {"lemmaId": 2605433, "lemmaTitle": "小儿肝母细胞瘤", "lemmaCroppedTitle": "小儿肝母细胞瘤", "lemmaDesc": "小儿肝母细胞瘤是由肝脏胚基组织发生的肝脏恶性肿瘤。多发生于3岁以下婴幼儿。临床特...", "lemmaUrl": "http://baike.baidu.com/item/%E5%B0%8F%E5%84%BF%E8%82%9D%E6%AF%8D%E7%BB%86%E8%83%9E%E7%98%A4/2605433", "lemmaPic": []}, {"lemmaId": 5848244, "lemmaTitle": "阴蒂粘连", "lemmaCroppedTitle": "阴蒂粘连", "lemmaDesc": "阴蒂是位于阴道口及尿道口上方的一个组织，与女性的性反应能力有着密切关系。很多女性...", "lemmaUrl": "http://baike.baidu.com/item/%E9%98%B4%E8%92%82%E7%B2%98%E8%BF%9E/5848244", "lemmaPic": []}, {"lemmaId": 5054982, "lemmaTitle": "腹裂", "lemmaCroppedTitle": "腹裂", "lemmaDesc": "腹裂是先天性腹壁发育不全，在脐旁留有全层腹壁缺损、有内脏自缺损处脱出，是一种罕见...", "lemmaUrl": "http://baike.baidu.com/item/%E8%85%B9%E8%A3%82/5054982", "lemmaPic": []}, {"lemmaId": 922583, "lemmaTitle": "肠气囊肿", "lemmaCroppedTitle": "肠气囊肿", "lemmaDesc": "肠气囊肿（PCI）是胃肠道的黏膜下或浆膜下出现气性囊。临床主要发病在小肠和结肠，...", "lemmaUrl": "http://baike.baidu.com/item/%E8%82%A0%E6%B0%94%E5%9B%8A%E8%82%BF/922583", "lemmaPic": []}, {"lemmaId": 7802494, "lemmaTitle": "肠道病毒71型手足口病", "lemmaCroppedTitle": "肠道病毒71型手足口病", "lemmaDesc": "肠道病毒71型手足口病是由肠道病毒71型（简称EV71）感染所引起的一种急性传染...", "lemmaUrl": "http://baike.baidu.com/item/%E8%82%A0%E9%81%93%E7%97%85%E6%AF%9271%E5%9E%8B%E6%89%8B%E8%B6%B3%E5%8F%A3%E7%97%85/7802494", "lemmaPic": []}, {"lemmaId": 4272110, "lemmaTitle": "食管囊肿", "lemmaCroppedTitle": "食管囊肿", "lemmaDesc": "食管囊肿是位于中纵隔的囊性肿物，属于肠源性囊肿的一部分，系先天性胚胎发育过程中的...", "lemmaUrl": "http://baike.baidu.com/item/%E9%A3%9F%E7%AE%A1%E5%9B%8A%E8%82%BF/4272110", "lemmaPic": []}, {"lemmaId": 612032, "lemmaTitle": "克里格勒-纳贾尔综合征", "lemmaCroppedTitle": "克里格勒-纳贾尔综合征", "lemmaDesc": "克里格勒-纳贾尔综合征（CNS）又称为先天性葡萄糖醛酸转移酶缺乏症、先天性非梗阻...", "lemmaUrl": "http://baike.baidu.com/item/%E5%85%8B%E9%87%8C%E6%A0%BC%E5%8B%92-%E7%BA%B3%E8%B4%BE%E5%B0%94%E7%BB%BC%E5%90%88%E5%BE%81/612032", "lemmaPic": []}, {"lemmaId": 6618067, "lemmaTitle": "恶性脑膜瘤", "lemmaCroppedTitle": "恶性脑膜瘤", "lemmaDesc": "恶性脑膜瘤是指具有某些良性脑膜瘤的特点，逐渐发生恶性变化，呈恶性肿瘤的特点。表现...", "lemmaUrl": "http://baike.baidu.com/item/%E6%81%B6%E6%80%A7%E8%84%91%E8%86%9C%E7%98%A4/6618067", "lemmaPic": []}, {"lemmaId": 5320775, "lemmaTitle": "开合", "lemmaCroppedTitle": "开合", "lemmaDesc": "开合在临床上较少见，多见于恒牙期，指的是在正中合位及非正中合位时，上下颌部分牙齿...", "lemmaUrl": "http://baike.baidu.com/item/%E5%BC%80%E5%90%88/5320775", "lemmaPic": []}, {"lemmaId": 4307098, "lemmaTitle": "腹膜假黏液瘤", "lemmaCroppedTitle": "腹膜假黏液瘤", "lemmaDesc": "腹膜假黏液瘤（PMP）是发生在腹腔壁层、大网膜及肠壁浆膜面的低度恶性黏液性肿瘤。...", "lemmaUrl": "http://baike.baidu.com/item/%E8%85%B9%E8%86%9C%E5%81%87%E9%BB%8F%E6%B6%B2%E7%98%A4/4307098", "lemmaPic": []}, {"lemmaId": 5400616, "lemmaTitle": "脑损伤后综合征", "lemmaCroppedTitle": "脑损伤后综合征", "lemmaDesc": "脑外伤患者在急性创伤已恢复之后，仍有许多自觉症状长期不能消除，但临床上又没有确切...", "lemmaUrl": "http://baike.baidu.com/item/%E8%84%91%E6%8D%9F%E4%BC%A4%E5%90%8E%E7%BB%BC%E5%90%88%E5%BE%81/5400616", "lemmaPic": []}, {"lemmaId": 2546980, "lemmaTitle": "反射性交感神经营养不良综合征", "lemmaCroppedTitle": "反射性交感神经营养不良综合征", "lemmaDesc": "反射性交感神经营养不良综合征（RSDS）是以四肢远端严重疼痛伴自主神经功能紊乱为...", "lemmaUrl": "http://baike.baidu.com/item/%E5%8F%8D%E5%B0%84%E6%80%A7%E4%BA%A4%E6%84%9F%E7%A5%9E%E7%BB%8F%E8%90%A5%E5%85%BB%E4%B8%8D%E8%89%AF%E7%BB%BC%E5%90%88%E5%BE%81/2546980", "lemmaPic": []}, {"lemmaId": 3974473, "lemmaTitle": "假膜性小肠结肠炎", "lemmaCroppedTitle": "假膜性小肠结肠炎", "lemmaDesc": "假膜性小肠结肠炎（PMC）是一种主要侵犯结肠，也可累及小肠的急性黏膜坏死，纤维素...", "lemmaUrl": "http://baike.baidu.com/item/%E5%81%87%E8%86%9C%E6%80%A7%E5%B0%8F%E8%82%A0%E7%BB%93%E8%82%A0%E7%82%8E/3974473", "lemmaPic": []}, {"lemmaId": 12700750, "lemmaTitle": "红斑增生病", "lemmaCroppedTitle": "红斑增生病", "lemmaDesc": "本病又名增殖性红斑或红斑病，表现为黏膜上的鳞屑性红斑，是一种发生于黏膜上皮的癌前...", "lemmaUrl": "http://baike.baidu.com/item/%E7%BA%A2%E6%96%91%E5%A2%9E%E7%94%9F%E7%97%85/12700750", "lemmaPic": []}, {"lemmaId": 1507961, "lemmaTitle": "Shy-Drager综合征", "lemmaCroppedTitle": "Shy-Drager综合征", "lemmaDesc": "Shy-Drager综合征，又称Shy-Drager氏直立性低血压综合征，是指无...", "lemmaUrl": "http://baike.baidu.com/item/Shy-Drager%E7%BB%BC%E5%90%88%E5%BE%81/1507961", "lemmaPic": []}, {"lemmaId": 9184767, "lemmaTitle": "混合型颈椎病", "lemmaCroppedTitle": "混合型颈椎病", "lemmaDesc": "混合型颈椎病是指颈椎间盘及椎间关节退变及其继发改变，压迫或刺激了相邻的脊髓、神经...", "lemmaUrl": "http://baike.baidu.com/item/%E6%B7%B7%E5%90%88%E5%9E%8B%E9%A2%88%E6%A4%8E%E7%97%85/9184767", "lemmaPic": []}, {"lemmaId": 944969, "lemmaTitle": "大网膜肿瘤", "lemmaCroppedTitle": "大网膜肿瘤", "lemmaDesc": "大网膜肿瘤的良性瘤包括脂肪瘤、平滑肌瘤、血管瘤和神经纤维瘤等。恶性瘤有平滑肌肉瘤...", "lemmaUrl": "http://baike.baidu.com/item/%E5%A4%A7%E7%BD%91%E8%86%9C%E8%82%BF%E7%98%A4/944969", "lemmaPic": []}, {"lemmaId": 10187729, "lemmaTitle": "小儿心律失常", "lemmaCroppedTitle": "小儿心律失常", "lemmaDesc": "小儿心律失常可分为窦性心律失常（包括：窦性心动过速、窦性心动过缓、窦性心律不齐）...", "lemmaUrl": "http://baike.baidu.com/item/%E5%B0%8F%E5%84%BF%E5%BF%83%E5%BE%8B%E5%A4%B1%E5%B8%B8/10187729", "lemmaPic": []}, {"lemmaId": 1022002, "lemmaTitle": "增生性玻璃体视网膜病变", "lemmaCroppedTitle": "增生性玻璃体视网膜病变", "lemmaDesc": "增生性玻璃体视网膜病变（PVR）原是指孔源性视网膜脱离复位手术后视网膜表面和玻璃...", "lemmaUrl": "http://baike.baidu.com/item/%E5%A2%9E%E7%94%9F%E6%80%A7%E7%8E%BB%E7%92%83%E4%BD%93%E8%A7%86%E7%BD%91%E8%86%9C%E7%97%85%E5%8F%98/1022002", "lemmaPic": []}, {"lemmaId": 466913, "lemmaTitle": "高动力性循环", "lemmaCroppedTitle": "高动力性循环", "lemmaDesc": "高动力性循环亦称为高动力性循环状态，它是指成人静息状态时，心脏指数超过4L/（m...", "lemmaUrl": "http://baike.baidu.com/item/%E9%AB%98%E5%8A%A8%E5%8A%9B%E6%80%A7%E5%BE%AA%E7%8E%AF/466913", "lemmaPic": []}, {"lemmaId": 6494895, "lemmaTitle": "肱二头肌长头腱鞘炎", "lemmaCroppedTitle": "肱二头肌长头腱鞘炎", "lemmaDesc": "肱二头肌长头腱经肱骨结节间沟后进入肩峰下间隙前部，止于肩胛骨的盂上粗隆。该肌腱在...", "lemmaUrl": "http://baike.baidu.com/item/%E8%82%B1%E4%BA%8C%E5%A4%B4%E8%82%8C%E9%95%BF%E5%A4%B4%E8%85%B1%E9%9E%98%E7%82%8E/6494895", "lemmaPic": []}, {"lemmaId": 4901285, "lemmaTitle": "尾蚴性皮炎", "lemmaCroppedTitle": "尾蚴性皮炎", "lemmaDesc": "血吸虫尾蚴性皮炎简称尾蚴性皮炎是指禽、畜类血吸虫的尾蚴侵入人体皮肤引起的一种变态...", "lemmaUrl": "http://baike.baidu.com/item/%E5%B0%BE%E8%9A%B4%E6%80%A7%E7%9A%AE%E7%82%8E/4901285", "lemmaPic": []}, {"lemmaId": 977446, "lemmaTitle": "主动脉窦动脉瘤破裂", "lemmaCroppedTitle": "主动脉窦动脉瘤破裂", "lemmaDesc": "主动脉窦动脉瘤，是一种罕见的心血管先天性畸形，男性多于女性，是由于主动脉窦基底环...", "lemmaUrl": "http://baike.baidu.com/item/%E4%B8%BB%E5%8A%A8%E8%84%89%E7%AA%A6%E5%8A%A8%E8%84%89%E7%98%A4%E7%A0%B4%E8%A3%82/977446", "lemmaPic": []}, {"lemmaId": 3698454, "lemmaTitle": "上气道梗阻", "lemmaCroppedTitle": "上气道梗阻", "lemmaDesc": "上气道梗阻是一种由多种原因所致的上气道气流严重受阻的临床急症，其临床表现不具特异...", "lemmaUrl": "http://baike.baidu.com/item/%E4%B8%8A%E6%B0%94%E9%81%93%E6%A2%97%E9%98%BB/3698454", "lemmaPic": []}, {"lemmaId": 700331, "lemmaTitle": "膀胱颈挛缩", "lemmaCroppedTitle": "膀胱颈挛缩", "lemmaDesc": "膀胱颈挛缩为重要的膀胱颈部梗阻问题。所谓膀胱颈部系指尿道内口向尿道内延伸1～2c...", "lemmaUrl": "http://baike.baidu.com/item/%E8%86%80%E8%83%B1%E9%A2%88%E6%8C%9B%E7%BC%A9/700331", "lemmaPic": []}, {"lemmaId": 5120423, "lemmaTitle": "右心室双出口", "lemmaCroppedTitle": "右心室双出口", "lemmaDesc": "右心室双出口（DORV）系一系列复杂的先天性复杂心脏畸形，其广义的形态学表现可以...", "lemmaUrl": "http://baike.baidu.com/item/%E5%8F%B3%E5%BF%83%E5%AE%A4%E5%8F%8C%E5%87%BA%E5%8F%A3/5120423", "lemmaPic": []}, {"lemmaId": 3274047, "lemmaTitle": "右室心肌梗死", "lemmaCroppedTitle": "右室心肌梗死", "lemmaDesc": "右室心肌梗死一般是由右冠状动脉主干闭塞所致，往往在临床上同时合并有下壁或下后壁心...", "lemmaUrl": "http://baike.baidu.com/item/%E5%8F%B3%E5%AE%A4%E5%BF%83%E8%82%8C%E6%A2%97%E6%AD%BB/3274047", "lemmaPic": []}, {"lemmaId": 6003903, "lemmaTitle": "股骨髁上骨折", "lemmaCroppedTitle": "股骨髁上骨折", "lemmaDesc": "股骨髁上骨折为发生在股骨内外髁上5厘米以内的骨折，不应包括内外髁部骨折和髁间骨折...", "lemmaUrl": "http://baike.baidu.com/item/%E8%82%A1%E9%AA%A8%E9%AB%81%E4%B8%8A%E9%AA%A8%E6%8A%98/6003903", "lemmaPic": []}, {"lemmaId": 3640466, "lemmaTitle": "颈静脉球体瘤", "lemmaCroppedTitle": "颈静脉球体瘤", "lemmaDesc": "颈静脉球体瘤是一种起源于化学感受器的血管瘤样肿瘤，也称为非嗜铬性副神经瘤或化学感...", "lemmaUrl": "http://baike.baidu.com/item/%E9%A2%88%E9%9D%99%E8%84%89%E7%90%83%E4%BD%93%E7%98%A4/3640466", "lemmaPic": []}, {"lemmaId": 10900926, "lemmaTitle": "眶蜂窝织炎", "lemmaCroppedTitle": "眶蜂窝织炎", "lemmaDesc": "眶蜂窝织炎（orbital cellulitis）是眶内软组织的急性炎症，属于眼...", "lemmaUrl": "http://baike.baidu.com/item/%E7%9C%B6%E8%9C%82%E7%AA%9D%E7%BB%87%E7%82%8E/10900926", "lemmaPic": []}, {"lemmaId": 1125297, "lemmaTitle": "成神经细胞瘤", "lemmaCroppedTitle": "成神经细胞瘤", "lemmaDesc": "成神经细胞瘤曾称神经母细胞瘤，起源于原始的神经嵴细胞。成神经细胞瘤属于神经内分泌...", "lemmaUrl": "http://baike.baidu.com/item/%E6%88%90%E7%A5%9E%E7%BB%8F%E7%BB%86%E8%83%9E%E7%98%A4/1125297", "lemmaPic": []}, {"lemmaId": 2354475, "lemmaTitle": "小儿急性喉气管支气管炎", "lemmaCroppedTitle": "小儿急性喉气管支气管炎", "lemmaDesc": "急性喉气管支气管炎是指由病毒或细菌感染所致的喉、气管、支气管急性弥漫性炎症。以喉...", "lemmaUrl": "http://baike.baidu.com/item/%E5%B0%8F%E5%84%BF%E6%80%A5%E6%80%A7%E5%96%89%E6%B0%94%E7%AE%A1%E6%94%AF%E6%B0%94%E7%AE%A1%E7%82%8E/2354475", "lemmaPic": []}, {"lemmaId": 10137125, "lemmaTitle": "后葡萄膜炎", "lemmaCroppedTitle": "后葡萄膜炎", "lemmaDesc": "后葡萄膜炎又称脉络膜炎，因脉络膜和视网膜邻接，脉络膜发炎时往往波及视网膜，所以又...", "lemmaUrl": "http://baike.baidu.com/item/%E5%90%8E%E8%91%A1%E8%90%84%E8%86%9C%E7%82%8E/10137125", "lemmaPic": []}, {"lemmaId": 7332546, "lemmaTitle": "恐怖性焦虑障碍", "lemmaCroppedTitle": "恐怖性焦虑障碍", "lemmaDesc": "恐怖性焦虑障碍又称恐怖症或恐惧症。是一类以对某种特定的事物或情境产生强烈的、持续...", "lemmaUrl": "http://baike.baidu.com/item/%E6%81%90%E6%80%96%E6%80%A7%E7%84%A6%E8%99%91%E9%9A%9C%E7%A2%8D/7332546", "lemmaPic": []}, {"lemmaId": 10991228, "lemmaTitle": "痰疟", "lemmaCroppedTitle": "痰疟", "lemmaDesc": "痰疟在祖国医学领域里属疟疾之范畴，乃指感受疟邪，触发宿痰而病，好发于夏秋之间，其...", "lemmaUrl": "http://baike.baidu.com/item/%E7%97%B0%E7%96%9F/10991228", "lemmaPic": []}, {"lemmaId": 10987530, "lemmaTitle": "凉燥", "lemmaCroppedTitle": "凉燥", "lemmaDesc": "凉燥，中医名词。又名寒燥，属燥淫证候。凉燥之邪侵袭，犯表伤肺，以恶寒重，发热轻，...", "lemmaUrl": "http://baike.baidu.com/item/%E5%87%89%E7%87%A5/10987530", "lemmaPic": []}, {"lemmaId": 3403282, "lemmaTitle": "细菌性毛囊炎", "lemmaCroppedTitle": "细菌性毛囊炎", "lemmaDesc": "细菌性毛囊炎是指整个毛囊被细菌感染后发生的化脓性炎症。本病主要由葡萄球菌引起，临...", "lemmaUrl": "http://baike.baidu.com/item/%E7%BB%86%E8%8F%8C%E6%80%A7%E6%AF%9B%E5%9B%8A%E7%82%8E/3403282", "lemmaPic": []}, {"lemmaId": 6709599, "lemmaTitle": "新生儿持续性肺动脉高压", "lemmaCroppedTitle": "新生儿持续性肺动脉高压", "lemmaDesc": "新生儿持续性肺动脉高压是指出生后肺血管阻力持续性增高，肺动脉压超过体循环动脉压，...", "lemmaUrl": "http://baike.baidu.com/item/%E6%96%B0%E7%94%9F%E5%84%BF%E6%8C%81%E7%BB%AD%E6%80%A7%E8%82%BA%E5%8A%A8%E8%84%89%E9%AB%98%E5%8E%8B/6709599", "lemmaPic": []}, {"lemmaId": 11028315, "lemmaTitle": "毛舌", "lemmaCroppedTitle": "毛舌", "lemmaDesc": "毛舌是丝状乳头过长形成，呈黑色或黑褐色，主要位于舌体背中部和后部。", "lemmaUrl": "http://baike.baidu.com/item/%E6%AF%9B%E8%88%8C/11028315", "lemmaPic": []}, {"lemmaId": 394599, "lemmaTitle": "卓-艾氏综合征", "lemmaCroppedTitle": "卓-艾氏综合征", "lemmaDesc": "卓-艾氏综合征由胃窦G细胞增生或分泌胃泌素的肿瘤引起其特点是高胃泌素血症伴大量胃...", "lemmaUrl": "http://baike.baidu.com/item/%E5%8D%93-%E8%89%BE%E6%B0%8F%E7%BB%BC%E5%90%88%E5%BE%81/394599", "lemmaPic": []}, {"lemmaId": 968077, "lemmaTitle": "食管结核", "lemmaCroppedTitle": "食管结核", "lemmaDesc": "食管结核在临床极为少见，食管结核分为原发性和继发性两种类型，原发性食管结核指结核...", "lemmaUrl": "http://baike.baidu.com/item/%E9%A3%9F%E7%AE%A1%E7%BB%93%E6%A0%B8/968077", "lemmaPic": []}, {"lemmaId": 5242516, "lemmaTitle": "食管损伤", "lemmaCroppedTitle": "食管损伤", "lemmaDesc": "食管损伤是一种常由于器械或异物引起的以食管破裂、穿孔为主要病变的疾病，如不及时处...", "lemmaUrl": "http://baike.baidu.com/item/%E9%A3%9F%E7%AE%A1%E6%8D%9F%E4%BC%A4/5242516", "lemmaPic": []}, {"lemmaId": 5638193, "lemmaTitle": "先天性多指、趾畸形", "lemmaCroppedTitle": "先天性多指、趾畸形", "lemmaDesc": "多指或多趾是最常见的一种先天性畸形，但多指并伴发多趾畸形者，较为少见。多指多见于...", "lemmaUrl": "http://baike.baidu.com/item/%E5%85%88%E5%A4%A9%E6%80%A7%E5%A4%9A%E6%8C%87%E3%80%81%E8%B6%BE%E7%95%B8%E5%BD%A2/5638193", "lemmaPic": []}, {"lemmaId": 11006997, "lemmaTitle": "脉痹", "lemmaCroppedTitle": "脉痹", "lemmaDesc": "脉痹，中医病名。以寸口或趺阳脉伏，血压不对称，患肢疲乏、麻木或疼痛，下肢可见间歇...", "lemmaUrl": "http://baike.baidu.com/item/%E8%84%89%E7%97%B9/11006997", "lemmaPic": []}, {"lemmaId": 4310946, "lemmaTitle": "腹膜转移癌", "lemmaCroppedTitle": "腹膜转移癌", "lemmaDesc": "腹膜转移癌是癌细胞经血路腹膜转移或腹膜直接种植生长所致。多继发于腹腔内肝、胃、结...", "lemmaUrl": "http://baike.baidu.com/item/%E8%85%B9%E8%86%9C%E8%BD%AC%E7%A7%BB%E7%99%8C/4310946", "lemmaPic": []}, {"lemmaId": 5399229, "lemmaTitle": "高胡萝卜素血症", "lemmaCroppedTitle": "高胡萝卜素血症", "lemmaDesc": "高胡萝卜素血症（hypercarotenaemia）又称柑皮症，是一种因血内胡萝...", "lemmaUrl": "http://baike.baidu.com/item/%E9%AB%98%E8%83%A1%E8%90%9D%E5%8D%9C%E7%B4%A0%E8%A1%80%E7%97%87/5399229", "lemmaPic": []}, {"lemmaId": 10058344, "lemmaTitle": "慢性颌下腺炎", "lemmaCroppedTitle": "慢性颌下腺炎", "lemmaDesc": "慢性颌下腺炎多由结石引起，颌下区长期疼痛，局部肿块时大时小，进食时有肿胀感。挤压...", "lemmaUrl": "http://baike.baidu.com/item/%E6%85%A2%E6%80%A7%E9%A2%8C%E4%B8%8B%E8%85%BA%E7%82%8E/10058344", "lemmaPic": []}, {"lemmaId": 2252905, "lemmaTitle": "泌尿生殖系统支原体感染", "lemmaCroppedTitle": "泌尿生殖系统支原体感染", "lemmaDesc": "支原体为一类介于细菌和病毒之间的能够独立成长的原核微生物，主要存在于泌尿生殖道和...", "lemmaUrl": "http://baike.baidu.com/item/%E6%B3%8C%E5%B0%BF%E7%94%9F%E6%AE%96%E7%B3%BB%E7%BB%9F%E6%94%AF%E5%8E%9F%E4%BD%93%E6%84%9F%E6%9F%93/2252905", "lemmaPic": []}, {"lemmaId": 8571990, "lemmaTitle": "退行性脊柱炎", "lemmaCroppedTitle": "退行性脊柱炎", "lemmaDesc": "退行性脊柱炎又称肥大性脊柱炎、增生性脊柱炎、老年性脊柱炎、脊椎骨关节炎等，是指椎...", "lemmaUrl": "http://baike.baidu.com/item/%E9%80%80%E8%A1%8C%E6%80%A7%E8%84%8A%E6%9F%B1%E7%82%8E/8571990", "lemmaPic": []}, {"lemmaId": 6524726, "lemmaTitle": "肾上腺素中毒", "lemmaCroppedTitle": "肾上腺素中毒", "lemmaDesc": "肾上腺素和去甲肾上腺素为常用急救药物，过量则可引起中毒。少数患者对肾上腺素敏感性...", "lemmaUrl": "http://baike.baidu.com/item/%E8%82%BE%E4%B8%8A%E8%85%BA%E7%B4%A0%E4%B8%AD%E6%AF%92/6524726", "lemmaPic": []}, {"lemmaId": 2582657, "lemmaTitle": "退变性骶髂关节炎", "lemmaCroppedTitle": "退变性骶髂关节炎", "lemmaDesc": "在正常情况下，骶髂关节具有稳定的耳状关节面，在其周围又有坚强的韧带保护，一般外力...", "lemmaUrl": "http://baike.baidu.com/item/%E9%80%80%E5%8F%98%E6%80%A7%E9%AA%B6%E9%AB%82%E5%85%B3%E8%8A%82%E7%82%8E/2582657", "lemmaPic": []}, {"lemmaId": 11003834, "lemmaTitle": "肺咳", "lemmaCroppedTitle": "肺咳", "lemmaDesc": "肺咳，病证名。①因肺经病变，咳喘有声，甚则唾血之证。《素问.咳论》：“肺咳之状，...", "lemmaUrl": "http://baike.baidu.com/item/%E8%82%BA%E5%92%B3/11003834", "lemmaPic": []}, {"lemmaId": 5086309, "lemmaTitle": "脊椎骨骨髓炎", "lemmaCroppedTitle": "脊椎骨骨髓炎", "lemmaDesc": "脊椎骨骨髓炎即化脓性脊椎炎，化脓性脊椎炎是特殊部位骨髓炎中的一种，临床少见，占所...", "lemmaUrl": "http://baike.baidu.com/item/%E8%84%8A%E6%A4%8E%E9%AA%A8%E9%AA%A8%E9%AB%93%E7%82%8E/5086309", "lemmaPic": []}, {"lemmaId": 3541217, "lemmaTitle": "小儿化脓性脑膜炎", "lemmaCroppedTitle": "小儿化脓性脑膜炎", "lemmaDesc": "化脓性脑膜炎（简称化脑）是各种化脓性细菌引起的脑膜炎症，部分患儿病变累及脑实质，...", "lemmaUrl": "http://baike.baidu.com/item/%E5%B0%8F%E5%84%BF%E5%8C%96%E8%84%93%E6%80%A7%E8%84%91%E8%86%9C%E7%82%8E/3541217", "lemmaPic": []}, {"lemmaId": 13883814, "lemmaTitle": "孕期痔疮", "lemmaCroppedTitle": "孕期痔疮", "lemmaDesc": "孕期痔疮是指孕妇直肠末端黏膜下和肛管皮肤下静脉丛发生扩张和屈曲所形成的柔软静脉团...", "lemmaUrl": "http://baike.baidu.com/item/%E5%AD%95%E6%9C%9F%E7%97%94%E7%96%AE/13883814", "lemmaPic": []}, {"lemmaId": 283059, "lemmaTitle": "髌股关节软骨损伤", "lemmaCroppedTitle": "髌股关节软骨损伤", "lemmaDesc": "关节软骨损伤在运动性损伤中十分常见，但由于诊断比较困难，尤其是早期确诊在常规检查...", "lemmaUrl": "http://baike.baidu.com/item/%E9%AB%8C%E8%82%A1%E5%85%B3%E8%8A%82%E8%BD%AF%E9%AA%A8%E6%8D%9F%E4%BC%A4/283059", "lemmaPic": []}, {"lemmaId": 5637617, "lemmaTitle": "骶髂关节结核", "lemmaCroppedTitle": "骶髂关节结核", "lemmaDesc": "骶髂关节结核常由原发部位结核菌经血行引发感染，出现关节滑膜充血肿胀，结核肉芽组织...", "lemmaUrl": "http://baike.baidu.com/item/%E9%AA%B6%E9%AB%82%E5%85%B3%E8%8A%82%E7%BB%93%E6%A0%B8/5637617", "lemmaPic": []}, {"lemmaId": 5358990, "lemmaTitle": "小儿急性胰腺炎", "lemmaCroppedTitle": "小儿急性胰腺炎", "lemmaDesc": "急性胰腺炎是由于各种原因引起胰腺消化酶在胰腺内被激活，而发生胰腺自身消化的化学性...", "lemmaUrl": "http://baike.baidu.com/item/%E5%B0%8F%E5%84%BF%E6%80%A5%E6%80%A7%E8%83%B0%E8%85%BA%E7%82%8E/5358990", "lemmaPic": []}, {"lemmaId": 325466, "lemmaTitle": "牙列稀疏", "lemmaCroppedTitle": "牙列稀疏", "lemmaDesc": "牙列稀疏是指牙齿间出现的间隙。一般引起该现象的原因为：牙体形态小，颌骨形态正常；...", "lemmaUrl": "http://baike.baidu.com/item/%E7%89%99%E5%88%97%E7%A8%80%E7%96%8F/325466", "lemmaPic": []}, {"lemmaId": 3619127, "lemmaTitle": "放射性损伤", "lemmaCroppedTitle": "放射性损伤", "lemmaDesc": "机体全身或局部受到放射线外照射或放射性核素沾染时，皮肤首当其冲。皮肤受射线作用而...", "lemmaUrl": "http://baike.baidu.com/item/%E6%94%BE%E5%B0%84%E6%80%A7%E6%8D%9F%E4%BC%A4/3619127", "lemmaPic": []}, {"lemmaId": 4717219, "lemmaTitle": "荚膜组织胞浆菌病", "lemmaCroppedTitle": "荚膜组织胞浆菌病", "lemmaDesc": "荚膜组织胞浆菌病是由荚膜组织胞浆菌所引起的一种传染性很强的肉芽肿性疾病。常由呼吸...", "lemmaUrl": "http://baike.baidu.com/item/%E8%8D%9A%E8%86%9C%E7%BB%84%E7%BB%87%E8%83%9E%E6%B5%86%E8%8F%8C%E7%97%85/4717219", "lemmaPic": []}, {"lemmaId": 2547074, "lemmaTitle": "乳糜腹", "lemmaCroppedTitle": "乳糜腹", "lemmaDesc": "是腹腔内淋巴系统中的乳糜液异常漏出导致的腹腔内乳糜液积聚。此病少见，发病原因复杂...", "lemmaUrl": "http://baike.baidu.com/item/%E4%B9%B3%E7%B3%9C%E8%85%B9/2547074", "lemmaPic": []}, {"lemmaId": 4204154, "lemmaTitle": "鞍结节脑膜瘤", "lemmaCroppedTitle": "鞍结节脑膜瘤", "lemmaDesc": "鞍结节脑膜瘤（tuberculum sellae menigioma）占脑膜瘤的...", "lemmaUrl": "http://baike.baidu.com/item/%E9%9E%8D%E7%BB%93%E8%8A%82%E8%84%91%E8%86%9C%E7%98%A4/4204154", "lemmaPic": []}, {"lemmaId": 3771243, "lemmaTitle": "分水岭区脑梗死", "lemmaCroppedTitle": "分水岭区脑梗死", "lemmaDesc": "分水岭脑梗死（CWSI）是指相邻血管供血区之间分水岭区或边缘带的局部缺血。它可以...", "lemmaUrl": "http://baike.baidu.com/item/%E5%88%86%E6%B0%B4%E5%B2%AD%E5%8C%BA%E8%84%91%E6%A2%97%E6%AD%BB/3771243", "lemmaPic": []}, {"lemmaId": 2601785, "lemmaTitle": "咽旁脓肿", "lemmaCroppedTitle": "咽旁脓肿", "lemmaDesc": "咽旁脓肿为咽旁隙的化脓性炎症，早期为蜂窝织炎，再发展而形成脓肿。因咽旁隙的感染进...", "lemmaUrl": "http://baike.baidu.com/item/%E5%92%BD%E6%97%81%E8%84%93%E8%82%BF/2601785", "lemmaPic": []}, {"lemmaId": 12676683, "lemmaTitle": "小儿神经管畸形", "lemmaCroppedTitle": "小儿神经管畸形", "lemmaDesc": "小儿神经管畸形（DNT）是指患儿颅脑或脊柱的畸形，孕妇怀孕3个月之内，胚胎发育时...", "lemmaUrl": "http://baike.baidu.com/item/%E5%B0%8F%E5%84%BF%E7%A5%9E%E7%BB%8F%E7%AE%A1%E7%95%B8%E5%BD%A2/12676683", "lemmaPic": []}, {"lemmaId": 922793, "lemmaTitle": "惠普尔病", "lemmaCroppedTitle": "惠普尔病", "lemmaDesc": "惠普尔病是一种少见的系统性疾病。男女发病之比为（4～8）：1，以30～50岁发病...", "lemmaUrl": "http://baike.baidu.com/item/%E6%83%A0%E6%99%AE%E5%B0%94%E7%97%85/922793", "lemmaPic": []}, {"lemmaId": 5120886, "lemmaTitle": "原发性心脏肿瘤", "lemmaCroppedTitle": "原发性心脏肿瘤", "lemmaDesc": "原发性心脏肿瘤（primary cardiac tumor）是指原发于心脏各腔室...", "lemmaUrl": "http://baike.baidu.com/item/%E5%8E%9F%E5%8F%91%E6%80%A7%E5%BF%83%E8%84%8F%E8%82%BF%E7%98%A4/5120886", "lemmaPic": []}, {"lemmaId": 3270976, "lemmaTitle": "小儿动脉导管未闭", "lemmaCroppedTitle": "小儿动脉导管未闭", "lemmaDesc": "小儿动脉导管未闭（PDA）是动脉导管在出生后未闭合而持续开放的病理状态。在胎儿循...", "lemmaUrl": "http://baike.baidu.com/item/%E5%B0%8F%E5%84%BF%E5%8A%A8%E8%84%89%E5%AF%BC%E7%AE%A1%E6%9C%AA%E9%97%AD/3270976", "lemmaPic": []}, {"lemmaId": 4850148, "lemmaTitle": "鳄皮婴儿综合征", "lemmaCroppedTitle": "鳄皮婴儿综合征", "lemmaDesc": "鳄皮婴儿综合征又称Carini综合征、Seeligman综合征、层状鱼鳞癣综合征...", "lemmaUrl": "http://baike.baidu.com/item/%E9%B3%84%E7%9A%AE%E5%A9%B4%E5%84%BF%E7%BB%BC%E5%90%88%E5%BE%81/4850148", "lemmaPic": []}, {"lemmaId": 264184, "lemmaTitle": "肾实质性高血压", "lemmaCroppedTitle": "肾实质性高血压", "lemmaDesc": "肾实质性高血压是由于原发或继发性肾脏实质病变引起的高血压。一直被认为是最常见的继...", "lemmaUrl": "http://baike.baidu.com/item/%E8%82%BE%E5%AE%9E%E8%B4%A8%E6%80%A7%E9%AB%98%E8%A1%80%E5%8E%8B/264184", "lemmaPic": []}, {"lemmaId": 303709, "lemmaTitle": "产后精神病", "lemmaCroppedTitle": "产后精神病", "lemmaDesc": "产后精神病（PPD）亦称产褥期精神病，是指产后6周内发生的精神障碍。目前多数人认...", "lemmaUrl": "http://baike.baidu.com/item/%E4%BA%A7%E5%90%8E%E7%B2%BE%E7%A5%9E%E7%97%85/303709", "lemmaPic": []}, {"lemmaId": 768473, "lemmaTitle": "急性硬脑膜外血肿", "lemmaCroppedTitle": "急性硬脑膜外血肿", "lemmaDesc": "急性硬脑膜外血肿（acute epidural hematoma）是位于颅骨内板...", "lemmaUrl": "http://baike.baidu.com/item/%E6%80%A5%E6%80%A7%E7%A1%AC%E8%84%91%E8%86%9C%E5%A4%96%E8%A1%80%E8%82%BF/768473", "lemmaPic": []}, {"lemmaId": 10973521, "lemmaTitle": "肾胚胎瘤", "lemmaCroppedTitle": "肾胚胎瘤", "lemmaDesc": "肾胚胎瘤也称肾母细胞瘤或Wilms瘤，由肾内残留的胚基组织发展而来，多见于5岁以...", "lemmaUrl": "http://baike.baidu.com/item/%E8%82%BE%E8%83%9A%E8%83%8E%E7%98%A4/10973521", "lemmaPic": []}, {"lemmaId": 4320270, "lemmaTitle": "脾脏原发性恶性肿瘤", "lemmaCroppedTitle": "脾脏原发性恶性肿瘤", "lemmaDesc": "脾脏原发性恶性肿瘤临床上较脾脏良性肿瘤更为少见，据统计脾脏原发性恶性肿瘤仅占全部...", "lemmaUrl": "http://baike.baidu.com/item/%E8%84%BE%E8%84%8F%E5%8E%9F%E5%8F%91%E6%80%A7%E6%81%B6%E6%80%A7%E8%82%BF%E7%98%A4/4320270", "lemmaPic": []}, {"lemmaId": 1853209, "lemmaTitle": "妊娠合并系统性红斑狼疮", "lemmaCroppedTitle": "妊娠合并系统性红斑狼疮", "lemmaDesc": "系统性红斑狼疮（SLE）是一种常见的自身免疫性疾病，病因至今尚不十分清楚，但大多...", "lemmaUrl": "http://baike.baidu.com/item/%E5%A6%8A%E5%A8%A0%E5%90%88%E5%B9%B6%E7%B3%BB%E7%BB%9F%E6%80%A7%E7%BA%A2%E6%96%91%E7%8B%BC%E7%96%AE/1853209", "lemmaPic": []}, {"lemmaId": 8688473, "lemmaTitle": "膝关节内侧副韧带断裂", "lemmaCroppedTitle": "膝关节内侧副韧带断裂", "lemmaDesc": "膝关节内侧副韧带是膝关节重要的静力性稳定因素，其主要功能是限制作用和制导作用。当...", "lemmaUrl": "http://baike.baidu.com/item/%E8%86%9D%E5%85%B3%E8%8A%82%E5%86%85%E4%BE%A7%E5%89%AF%E9%9F%A7%E5%B8%A6%E6%96%AD%E8%A3%82/8688473", "lemmaPic": []}, {"lemmaId": 3685105, "lemmaTitle": "先天性直肠肛门畸形", "lemmaCroppedTitle": "先天性直肠肛门畸形", "lemmaDesc": "先天性直肠肛门畸形多见。其发病率在新生儿中为1：1500～5000，占消化道畸形...", "lemmaUrl": "http://baike.baidu.com/item/%E5%85%88%E5%A4%A9%E6%80%A7%E7%9B%B4%E8%82%A0%E8%82%9B%E9%97%A8%E7%95%B8%E5%BD%A2/3685105", "lemmaPic": []}, {"lemmaId": 117648, "lemmaTitle": "链球菌肺炎", "lemmaCroppedTitle": "链球菌肺炎", "lemmaDesc": "肺炎链球菌肺炎或称肺炎球菌肺炎，是由肺炎链球菌或称肺炎球菌所引起的肺炎，占社区获...", "lemmaUrl": "http://baike.baidu.com/item/%E9%93%BE%E7%90%83%E8%8F%8C%E8%82%BA%E7%82%8E/117648", "lemmaPic": []}, {"lemmaId": 907700, "lemmaTitle": "缺铁性吞咽困难", "lemmaCroppedTitle": "缺铁性吞咽困难", "lemmaDesc": "缺铁性吞咽困难，也称Plummer-Vinson综合征，是指食管腔内的一层薄的隔...", "lemmaUrl": "http://baike.baidu.com/item/%E7%BC%BA%E9%93%81%E6%80%A7%E5%90%9E%E5%92%BD%E5%9B%B0%E9%9A%BE/907700", "lemmaPic": []}, {"lemmaId": 9378660, "lemmaTitle": "甲减性心脏病", "lemmaCroppedTitle": "甲减性心脏病", "lemmaDesc": "甲状腺功能减退性心脏病（甲减心）是由于甲状腺素合成、分泌不足或生物效应不足而引起...", "lemmaUrl": "http://baike.baidu.com/item/%E7%94%B2%E5%87%8F%E6%80%A7%E5%BF%83%E8%84%8F%E7%97%85/9378660", "lemmaPic": []}, {"lemmaId": 869139, "lemmaTitle": "慢性蝶窦炎", "lemmaCroppedTitle": "慢性蝶窦炎", "lemmaDesc": "由于蝶窦位置较深，鼻镜检查照明不足，看不到其开口情况，再加蝶窦炎的症状不明确，因...", "lemmaUrl": "http://baike.baidu.com/item/%E6%85%A2%E6%80%A7%E8%9D%B6%E7%AA%A6%E7%82%8E/869139", "lemmaPic": []}, {"lemmaId": 5719196, "lemmaTitle": "新生儿流行性腹泻", "lemmaCroppedTitle": "新生儿流行性腹泻", "lemmaDesc": "新生儿流行性腹泻是指因感染所致的在产科婴儿室或医院新生儿病房中爆发流行的腹泻。由...", "lemmaUrl": "http://baike.baidu.com/item/%E6%96%B0%E7%94%9F%E5%84%BF%E6%B5%81%E8%A1%8C%E6%80%A7%E8%85%B9%E6%B3%BB/5719196", "lemmaPic": []}, {"lemmaId": 8110146, "lemmaTitle": "尿毒症性心包炎", "lemmaCroppedTitle": "尿毒症性心包炎", "lemmaDesc": "肾功能不全晚期，尿毒症性心包炎的发生率为40%～50%，多为纤维素性心包炎，伴有...", "lemmaUrl": "http://baike.baidu.com/item/%E5%B0%BF%E6%AF%92%E7%97%87%E6%80%A7%E5%BF%83%E5%8C%85%E7%82%8E/8110146", "lemmaPic": []}, {"lemmaId": 5754366, "lemmaTitle": "小颌畸形综合征", "lemmaCroppedTitle": "小颌畸形综合征", "lemmaDesc": "小颌畸形综合征是指以新生儿婴儿时期的先天性小颌畸形、舌下垂、腭裂及吸气性呼吸道阻...", "lemmaUrl": "http://baike.baidu.com/item/%E5%B0%8F%E9%A2%8C%E7%95%B8%E5%BD%A2%E7%BB%BC%E5%90%88%E5%BE%81/5754366", "lemmaPic": []}, {"lemmaId": 5614103, "lemmaTitle": "轻链病与轻链沉积病", "lemmaCroppedTitle": "轻链病与轻链沉积病", "lemmaDesc": "轻链病（LCD）与轻链沉积病（LCDD）是一种浆细胞异常增生性疾病。是由于异常的...", "lemmaUrl": "http://baike.baidu.com/item/%E8%BD%BB%E9%93%BE%E7%97%85%E4%B8%8E%E8%BD%BB%E9%93%BE%E6%B2%89%E7%A7%AF%E7%97%85/5614103", "lemmaPic": []}, {"lemmaId": 2294120, "lemmaTitle": "肺曲霉病", "lemmaCroppedTitle": "肺曲霉病", "lemmaDesc": "肺曲菌病致病菌主要为烟曲菌，少数为黄曲菌、土曲菌、黑曲菌，棒状曲菌、构巢曲菌及花...", "lemmaUrl": "http://baike.baidu.com/item/%E8%82%BA%E6%9B%B2%E9%9C%89%E7%97%85/2294120", "lemmaPic": []}, {"lemmaId": 8455908, "lemmaTitle": "胰岛功能性β细胞瘤", "lemmaCroppedTitle": "胰岛功能性β细胞瘤", "lemmaDesc": "胰岛β细胞瘤是由胰岛β细胞形成的具有分泌功能的腺瘤或癌。20～50岁多发，多单发...", "lemmaUrl": "http://baike.baidu.com/item/%E8%83%B0%E5%B2%9B%E5%8A%9F%E8%83%BD%E6%80%A7%CE%B2%E7%BB%86%E8%83%9E%E7%98%A4/8455908", "lemmaPic": []}, {"lemmaId": 2867982, "lemmaTitle": "女性膀胱颈梗阻", "lemmaCroppedTitle": "女性膀胱颈梗阻", "lemmaDesc": "女性膀胱颈梗阻又称膀胱颈硬化症、Marion病或膀胱颈挛缩。是老年女性多发病。年...", "lemmaUrl": "http://baike.baidu.com/item/%E5%A5%B3%E6%80%A7%E8%86%80%E8%83%B1%E9%A2%88%E6%A2%97%E9%98%BB/2867982", "lemmaPic": []}], "total": 7246, "totalPage": 73, "page": 35, "fromLemma": 0}