{"lemmaList": [{"lemmaId": 16970448, "lemmaTitle": "脊索肉瘤", "lemmaCroppedTitle": "脊索肉瘤", "lemmaDesc": "脊索瘤是局部的侵袭性或恶性肿瘤，主要好发于50～60岁的中老年，亦发生于其他年龄...", "lemmaUrl": "http://baike.baidu.com/item/%E8%84%8A%E7%B4%A2%E8%82%89%E7%98%A4/16970448", "lemmaPic": []}, {"lemmaId": 17659752, "lemmaTitle": "儿童肾性糖尿", "lemmaCroppedTitle": "儿童肾性糖尿", "lemmaDesc": "肾性糖尿是指在血糖浓度正常或低于正常肾糖阈的情况下，由近端肾小管对葡萄糖重吸收功...", "lemmaUrl": "http://baike.baidu.com/item/%E5%84%BF%E7%AB%A5%E8%82%BE%E6%80%A7%E7%B3%96%E5%B0%BF/17659752", "lemmaPic": []}, {"lemmaId": 19811338, "lemmaTitle": "气管畸形", "lemmaCroppedTitle": "气管畸形", "lemmaDesc": "气管畸形是一种少见但种类较多的疾病，包括先天性或获得性的气管支形态不规则、支气管...", "lemmaUrl": "http://baike.baidu.com/item/%E6%B0%94%E7%AE%A1%E7%95%B8%E5%BD%A2/19811338", "lemmaPic": []}, {"lemmaId": 17659700, "lemmaTitle": "箍趾病", "lemmaCroppedTitle": "箍趾病", "lemmaDesc": "箍趾病为指（趾）断症，或自发性指（趾）脱离症，又称自发性断趾病、阿洪病，系热带的...", "lemmaUrl": "http://baike.baidu.com/item/%E7%AE%8D%E8%B6%BE%E7%97%85/17659700", "lemmaPic": []}, {"lemmaId": 17659747, "lemmaTitle": "儿童家族性复发性血尿", "lemmaCroppedTitle": "儿童家族性复发性血尿", "lemmaDesc": "家族性复发性血尿又称家族性再发性血尿、良性家族性血尿、薄基膜肾病。是以反复血尿、...", "lemmaUrl": "http://baike.baidu.com/item/%E5%84%BF%E7%AB%A5%E5%AE%B6%E6%97%8F%E6%80%A7%E5%A4%8D%E5%8F%91%E6%80%A7%E8%A1%80%E5%B0%BF/17659747", "lemmaPic": []}, {"lemmaId": 17659757, "lemmaTitle": "儿童肾结核", "lemmaCroppedTitle": "儿童肾结核", "lemmaDesc": "肾结核是指结核杆菌自肺部或其他器官，经血行播散到肾脏，引起的继发性感染，是全身结...", "lemmaUrl": "http://baike.baidu.com/item/%E5%84%BF%E7%AB%A5%E8%82%BE%E7%BB%93%E6%A0%B8/17659757", "lemmaPic": []}, {"lemmaId": 18277502, "lemmaTitle": "先天性主动脉瓣窦瘤破裂", "lemmaCroppedTitle": "先天性主动脉瓣窦瘤破裂", "lemmaDesc": "动脉瓣窦瘤破裂是一种少见的先天性心脏病。在胚胎发育过程中，由于主动脉瓣窦的基部发...", "lemmaUrl": "http://baike.baidu.com/item/%E5%85%88%E5%A4%A9%E6%80%A7%E4%B8%BB%E5%8A%A8%E8%84%89%E7%93%A3%E7%AA%A6%E7%98%A4%E7%A0%B4%E8%A3%82/18277502", "lemmaPic": []}, {"lemmaId": 18277527, "lemmaTitle": "儿童韦格纳肉芽肿病", "lemmaCroppedTitle": "儿童韦格纳肉芽肿病", "lemmaDesc": "韦格纳肉芽肿病（WG）是一种坏死性肉芽肿性血管炎，属自身免疫性疾病。病变累及小动...", "lemmaUrl": "http://baike.baidu.com/item/%E5%84%BF%E7%AB%A5%E9%9F%A6%E6%A0%BC%E7%BA%B3%E8%82%89%E8%8A%BD%E8%82%BF%E7%97%85/18277527", "lemmaPic": []}, {"lemmaId": 17659731, "lemmaTitle": "儿童急进性肾小球肾炎", "lemmaCroppedTitle": "儿童急进性肾小球肾炎", "lemmaDesc": "急进性肾小球肾炎（RPGN），是一组病情发展急骤，以尿液改变（血尿、蛋白尿、管型...", "lemmaUrl": "http://baike.baidu.com/item/%E5%84%BF%E7%AB%A5%E6%80%A5%E8%BF%9B%E6%80%A7%E8%82%BE%E5%B0%8F%E7%90%83%E8%82%BE%E7%82%8E/17659731", "lemmaPic": []}, {"lemmaId": 19811227, "lemmaTitle": "骨盆直肠窝脓肿", "lemmaCroppedTitle": "骨盆直肠窝脓肿", "lemmaDesc": "骨盆直肠窝脓肿又称骨盆直肠间隙脓肿，较为少见，但很重要。多由肛腺脓肿或坐骨直肠间...", "lemmaUrl": "http://baike.baidu.com/item/%E9%AA%A8%E7%9B%86%E7%9B%B4%E8%82%A0%E7%AA%9D%E8%84%93%E8%82%BF/19811227", "lemmaPic": []}, {"lemmaId": 17659691, "lemmaTitle": "间歇性眼球突出", "lemmaCroppedTitle": "间歇性眼球突出", "lemmaDesc": "间歇性眼球突出症多为单侧性，左眼发病率高于右眼，男性患者多见。血管性疾病引起眼球...", "lemmaUrl": "http://baike.baidu.com/item/%E9%97%B4%E6%AD%87%E6%80%A7%E7%9C%BC%E7%90%83%E7%AA%81%E5%87%BA/17659691", "lemmaPic": []}, {"lemmaId": 19499892, "lemmaTitle": "福克斯-福代斯病", "lemmaCroppedTitle": "福克斯-福代斯病", "lemmaDesc": "福克斯-福代病（Fox-Fordyce Disease）亦称顶泌汗腺粟粒疹、大汗...", "lemmaUrl": "http://baike.baidu.com/item/%E7%A6%8F%E5%85%8B%E6%96%AF-%E7%A6%8F%E4%BB%A3%E6%96%AF%E7%97%85/19499892", "lemmaPic": []}, {"lemmaId": 17659698, "lemmaTitle": "心肌梗死并发左心室室壁瘤", "lemmaCroppedTitle": "心肌梗死并发左心室室壁瘤", "lemmaDesc": "心肌梗死并发左心室室壁瘤是左心室心肌梗死后，梗死区域出现室壁扩张变薄、心肌全层坏...", "lemmaUrl": "http://baike.baidu.com/item/%E5%BF%83%E8%82%8C%E6%A2%97%E6%AD%BB%E5%B9%B6%E5%8F%91%E5%B7%A6%E5%BF%83%E5%AE%A4%E5%AE%A4%E5%A3%81%E7%98%A4/17659698", "lemmaPic": []}, {"lemmaId": 17659755, "lemmaTitle": "儿童肾淀粉样变性", "lemmaCroppedTitle": "儿童肾淀粉样变性", "lemmaDesc": "肾淀粉样变性又称Muckle-Wells综合征，是淀粉样蛋白沉着于肾脏引起的肾脏...", "lemmaUrl": "http://baike.baidu.com/item/%E5%84%BF%E7%AB%A5%E8%82%BE%E6%B7%80%E7%B2%89%E6%A0%B7%E5%8F%98%E6%80%A7/17659755", "lemmaPic": []}, {"lemmaId": 18277471, "lemmaTitle": "Terrien边缘变性", "lemmaCroppedTitle": "Terrien边缘变性", "lemmaDesc": "Terrien边缘变性（TMD）又称边缘性角膜变性，是角膜边缘部变性的一种特殊类...", "lemmaUrl": "http://baike.baidu.com/item/Terrien%E8%BE%B9%E7%BC%98%E5%8F%98%E6%80%A7/18277471", "lemmaPic": []}, {"lemmaId": 18277490, "lemmaTitle": "儿童结节性多动脉炎", "lemmaCroppedTitle": "儿童结节性多动脉炎", "lemmaDesc": "结节性多动脉炎（PAN）是一种以中小动脉的节段性炎症与坏死为特征的飞肉芽肿性血管...", "lemmaUrl": "http://baike.baidu.com/item/%E5%84%BF%E7%AB%A5%E7%BB%93%E8%8A%82%E6%80%A7%E5%A4%9A%E5%8A%A8%E8%84%89%E7%82%8E/18277490", "lemmaPic": []}, {"lemmaId": 17659682, "lemmaTitle": "眼眶良性淋巴上皮病", "lemmaCroppedTitle": "眼眶良性淋巴上皮病", "lemmaDesc": "眼眶良性淋巴上皮病（BLL），旧名称mikulicz病，一般认为是泪腺与涎腺组织...", "lemmaUrl": "http://baike.baidu.com/item/%E7%9C%BC%E7%9C%B6%E8%89%AF%E6%80%A7%E6%B7%8B%E5%B7%B4%E4%B8%8A%E7%9A%AE%E7%97%85/17659682", "lemmaPic": []}, {"lemmaId": 17659754, "lemmaTitle": "儿童肾性贫血", "lemmaCroppedTitle": "儿童肾性贫血", "lemmaDesc": "肾性贫血是指由各种因素造成肾脏红细胞生成素（EPO）产生不足或尿毒症血浆中一些毒...", "lemmaUrl": "http://baike.baidu.com/item/%E5%84%BF%E7%AB%A5%E8%82%BE%E6%80%A7%E8%B4%AB%E8%A1%80/17659754", "lemmaPic": []}, {"lemmaId": 19772289, "lemmaTitle": "小儿病毒相关噬血细胞综合征", "lemmaCroppedTitle": "小儿病毒相关噬血细胞综合征", "lemmaDesc": "小儿病毒相关噬血细胞综合征，又称噬血细胞性淋巴组织细胞增生症，是免疫缺陷性疾病。...", "lemmaUrl": "http://baike.baidu.com/item/%E5%B0%8F%E5%84%BF%E7%97%85%E6%AF%92%E7%9B%B8%E5%85%B3%E5%99%AC%E8%A1%80%E7%BB%86%E8%83%9E%E7%BB%BC%E5%90%88%E5%BE%81/19772289", "lemmaPic": []}, {"lemmaId": 18277523, "lemmaTitle": "儿童近端肾小管酸中毒", "lemmaCroppedTitle": "儿童近端肾小管酸中毒", "lemmaDesc": "近端肾小管酸中毒是近端肾小管因各种继发因素（药物、毒物损伤、胱氨酸储积病，Wil...", "lemmaUrl": "http://baike.baidu.com/item/%E5%84%BF%E7%AB%A5%E8%BF%91%E7%AB%AF%E8%82%BE%E5%B0%8F%E7%AE%A1%E9%85%B8%E4%B8%AD%E6%AF%92/18277523", "lemmaPic": []}, {"lemmaId": 17659764, "lemmaTitle": "急性横结肠扭转", "lemmaCroppedTitle": "急性横结肠扭转", "lemmaDesc": "横结肠扭转是指横结肠袢的扭转，临床少见，常合并于其他先天性畸形。和横结肠系膜过长...", "lemmaUrl": "http://baike.baidu.com/item/%E6%80%A5%E6%80%A7%E6%A8%AA%E7%BB%93%E8%82%A0%E6%89%AD%E8%BD%AC/17659764", "lemmaPic": []}, {"lemmaId": 18277516, "lemmaTitle": "小儿巨大膀胱-输尿管综合征", "lemmaCroppedTitle": "小儿巨大膀胱-输尿管综合征", "lemmaDesc": "又名巨大膀胱并发巨大输尿管征，其特征为膀胱-输尿管巨大增粗。症状以尿路感染、血尿...", "lemmaUrl": "http://baike.baidu.com/item/%E5%B0%8F%E5%84%BF%E5%B7%A8%E5%A4%A7%E8%86%80%E8%83%B1-%E8%BE%93%E5%B0%BF%E7%AE%A1%E7%BB%BC%E5%90%88%E5%BE%81/18277516", "lemmaPic": []}, {"lemmaId": 18277522, "lemmaTitle": "小儿继发性血小板减少性紫癜", "lemmaCroppedTitle": "小儿继发性血小板减少性紫癜", "lemmaDesc": "继发性血小板减少性紫癜按发病原理可分为血小板生成减少、血小板分布异常、血小板破坏...", "lemmaUrl": "http://baike.baidu.com/item/%E5%B0%8F%E5%84%BF%E7%BB%A7%E5%8F%91%E6%80%A7%E8%A1%80%E5%B0%8F%E6%9D%BF%E5%87%8F%E5%B0%91%E6%80%A7%E7%B4%AB%E7%99%9C/18277522", "lemmaPic": []}, {"lemmaId": 17659745, "lemmaTitle": "儿童军团病肾病", "lemmaCroppedTitle": "儿童军团病肾病", "lemmaDesc": "军团病（LD）是由嗜肺军团杆菌引起的以肺炎为主症的急性感染性全身性疾病。军团菌感...", "lemmaUrl": "http://baike.baidu.com/item/%E5%84%BF%E7%AB%A5%E5%86%9B%E5%9B%A2%E7%97%85%E8%82%BE%E7%97%85/17659745", "lemmaPic": []}, {"lemmaId": 18277514, "lemmaTitle": "儿童范科尼综合征", "lemmaCroppedTitle": "儿童范科尼综合征", "lemmaDesc": "范科尼综合征（Fanconi）是一种以近端肾小管功能紊乱为特征的临床综合征。临床...", "lemmaUrl": "http://baike.baidu.com/item/%E5%84%BF%E7%AB%A5%E8%8C%83%E7%A7%91%E5%B0%BC%E7%BB%BC%E5%90%88%E5%BE%81/18277514", "lemmaPic": []}, {"lemmaId": 18277531, "lemmaTitle": "周身性脆性硬化症", "lemmaCroppedTitle": "周身性脆性硬化症", "lemmaDesc": "周身性脆性硬化症又称周身性致密性骨炎、弥漫性致密性骨病、局限性骨质增生、家族性弥...", "lemmaUrl": "http://baike.baidu.com/item/%E5%91%A8%E8%BA%AB%E6%80%A7%E8%84%86%E6%80%A7%E7%A1%AC%E5%8C%96%E7%97%87/18277531", "lemmaPic": []}, {"lemmaId": 17659744, "lemmaTitle": "儿童全远端型肾小管酸中毒", "lemmaCroppedTitle": "儿童全远端型肾小管酸中毒", "lemmaDesc": "肾小管性酸中毒（RTA）是由近端肾小管重吸收碳酸氢盐或远端肾小管排泌氢离子功能缺...", "lemmaUrl": "http://baike.baidu.com/item/%E5%84%BF%E7%AB%A5%E5%85%A8%E8%BF%9C%E7%AB%AF%E5%9E%8B%E8%82%BE%E5%B0%8F%E7%AE%A1%E9%85%B8%E4%B8%AD%E6%AF%92/17659744", "lemmaPic": []}, {"lemmaId": 18277483, "lemmaTitle": "炎症性肠病伴发葡萄膜炎", "lemmaCroppedTitle": "炎症性肠病伴发葡萄膜炎", "lemmaDesc": "炎症性肠道疾病包括溃疡性结肠炎和Crohn病两种类型，两种疾病均可引起或合并葡萄...", "lemmaUrl": "http://baike.baidu.com/item/%E7%82%8E%E7%97%87%E6%80%A7%E8%82%A0%E7%97%85%E4%BC%B4%E5%8F%91%E8%91%A1%E8%90%84%E8%86%9C%E7%82%8E/18277483", "lemmaPic": []}, {"lemmaId": 19488658, "lemmaTitle": "甲状舌管囊肿及瘘管", "lemmaCroppedTitle": "甲状舌管囊肿及瘘管", "lemmaDesc": "甲状舌管囊肿和瘘管（thyroglossal cyst and fistula）...", "lemmaUrl": "http://baike.baidu.com/item/%E7%94%B2%E7%8A%B6%E8%88%8C%E7%AE%A1%E5%9B%8A%E8%82%BF%E5%8F%8A%E7%98%98%E7%AE%A1/19488658", "lemmaPic": []}, {"lemmaId": 17659758, "lemmaTitle": "儿童肾静脉血栓形成", "lemmaCroppedTitle": "儿童肾静脉血栓形成", "lemmaDesc": "肾静脉血栓形成（RVT）是指肾静脉主干和（或）分支内血栓形成，导致肾静脉部分或全...", "lemmaUrl": "http://baike.baidu.com/item/%E5%84%BF%E7%AB%A5%E8%82%BE%E9%9D%99%E8%84%89%E8%A1%80%E6%A0%93%E5%BD%A2%E6%88%90/17659758", "lemmaPic": []}, {"lemmaId": 18277517, "lemmaTitle": "小儿急性粟粒型肺结核", "lemmaCroppedTitle": "小儿急性粟粒型肺结核", "lemmaDesc": "急性粟粒型肺结核或称急性血行播散型肺结核，是因大量结核杆菌突然从身体某个器官的结...", "lemmaUrl": "http://baike.baidu.com/item/%E5%B0%8F%E5%84%BF%E6%80%A5%E6%80%A7%E7%B2%9F%E7%B2%92%E5%9E%8B%E8%82%BA%E7%BB%93%E6%A0%B8/18277517", "lemmaPic": []}, {"lemmaId": 17659695, "lemmaTitle": "类风湿关节炎的肾损害", "lemmaCroppedTitle": "类风湿关节炎的肾损害", "lemmaDesc": "类风湿关节炎（RA）患者中可见多种不同的肾损害，既可以是疾病本身所引起，也可以是...", "lemmaUrl": "http://baike.baidu.com/item/%E7%B1%BB%E9%A3%8E%E6%B9%BF%E5%85%B3%E8%8A%82%E7%82%8E%E7%9A%84%E8%82%BE%E6%8D%9F%E5%AE%B3/17659695", "lemmaPic": []}, {"lemmaId": 19829169, "lemmaTitle": "混合型便秘", "lemmaCroppedTitle": "混合型便秘", "lemmaDesc": "混合型便秘（mixedconstipation，MC）（结肠慢传输型便秘+出口梗...", "lemmaUrl": "http://baike.baidu.com/item/%E6%B7%B7%E5%90%88%E5%9E%8B%E4%BE%BF%E7%A7%98/19829169", "lemmaPic": []}, {"lemmaId": 18277489, "lemmaTitle": "小儿持久性隆起性红斑", "lemmaCroppedTitle": "小儿持久性隆起性红斑", "lemmaDesc": "持久性隆起性红斑，曾称为细胞外胆固醇沉着综合征，细胞外胆固醇沉着症，又称Urba...", "lemmaUrl": "http://baike.baidu.com/item/%E5%B0%8F%E5%84%BF%E6%8C%81%E4%B9%85%E6%80%A7%E9%9A%86%E8%B5%B7%E6%80%A7%E7%BA%A2%E6%96%91/18277489", "lemmaPic": []}, {"lemmaId": 18277519, "lemmaTitle": "小儿慢性充血性脾肿大症", "lemmaCroppedTitle": "小儿慢性充血性脾肿大症", "lemmaDesc": "小儿慢性充血性脾肿大症，又称门静脉高压症或班替综合征（Banti综合征），是一种...", "lemmaUrl": "http://baike.baidu.com/item/%E5%B0%8F%E5%84%BF%E6%85%A2%E6%80%A7%E5%85%85%E8%A1%80%E6%80%A7%E8%84%BE%E8%82%BF%E5%A4%A7%E7%97%87/18277519", "lemmaPic": []}, {"lemmaId": 19484352, "lemmaTitle": "RetCam数字视网膜照相机", "lemmaCroppedTitle": "RetCam数字视网膜照相机", "lemmaDesc": "RetCam数字视网膜照相机(简称RetCam)可观察并准确记录婴幼儿视网膜图像...", "lemmaUrl": "http://baike.baidu.com/item/RetCam%E6%95%B0%E5%AD%97%E8%A7%86%E7%BD%91%E8%86%9C%E7%85%A7%E7%9B%B8%E6%9C%BA/19484352", "lemmaPic": []}, {"lemmaId": 19830498, "lemmaTitle": "小儿李斯特菌病", "lemmaCroppedTitle": "小儿李斯特菌病", "lemmaDesc": "小儿李斯特菌病（Listeriosis）是由单核细胞增多性李斯特菌感染引起的急性...", "lemmaUrl": "http://baike.baidu.com/item/%E5%B0%8F%E5%84%BF%E6%9D%8E%E6%96%AF%E7%89%B9%E8%8F%8C%E7%97%85/19830498", "lemmaPic": []}, {"lemmaId": 19488779, "lemmaTitle": "物理性变应性荨麻疹", "lemmaCroppedTitle": "物理性变应性荨麻疹", "lemmaDesc": "这是一种由寒冷、日光、热或轻微创伤等物理刺激所引起的变态反应性的症状和体征。多数...", "lemmaUrl": "http://baike.baidu.com/item/%E7%89%A9%E7%90%86%E6%80%A7%E5%8F%98%E5%BA%94%E6%80%A7%E8%8D%A8%E9%BA%BB%E7%96%B9/19488779", "lemmaPic": []}, {"lemmaId": 19499374, "lemmaTitle": "小儿军团菌病", "lemmaCroppedTitle": "小儿军团菌病", "lemmaDesc": "军团菌病（legionnaires&amp;#39; disease）即军团菌肺...", "lemmaUrl": "http://baike.baidu.com/item/%E5%B0%8F%E5%84%BF%E5%86%9B%E5%9B%A2%E8%8F%8C%E7%97%85/19499374", "lemmaPic": []}, {"lemmaId": 19773183, "lemmaTitle": "白细胞黏附缺陷症Ⅰ型", "lemmaCroppedTitle": "白细胞黏附缺陷症Ⅰ型", "lemmaDesc": "小儿的白细胞黏附缺陷症（leukocyte adhesion deficienc...", "lemmaUrl": "http://baike.baidu.com/item/%E7%99%BD%E7%BB%86%E8%83%9E%E9%BB%8F%E9%99%84%E7%BC%BA%E9%99%B7%E7%97%87%E2%85%A0%E5%9E%8B/19773183", "lemmaPic": []}, {"lemmaId": 19773187, "lemmaTitle": "白细胞黏附缺陷症Ⅱ型", "lemmaCroppedTitle": "白细胞黏附缺陷症Ⅱ型", "lemmaDesc": "白细胞黏附缺陷症（leukocyte adhesion deficiency，L...", "lemmaUrl": "http://baike.baidu.com/item/%E7%99%BD%E7%BB%86%E8%83%9E%E9%BB%8F%E9%99%84%E7%BC%BA%E9%99%B7%E7%97%87%E2%85%A1%E5%9E%8B/19773187", "lemmaPic": []}, {"lemmaId": 19773196, "lemmaTitle": "高黏稠综合征", "lemmaCroppedTitle": "高黏稠综合征", "lemmaDesc": "高黏稠综合征又称黏稠综合征、紫癜性高球蛋白综合征、Reimann综合征，是血液黏...", "lemmaUrl": "http://baike.baidu.com/item/%E9%AB%98%E9%BB%8F%E7%A8%A0%E7%BB%BC%E5%90%88%E5%BE%81/19773196", "lemmaPic": []}, {"lemmaId": 19772475, "lemmaTitle": "铜绿假单胞菌脑膜炎", "lemmaCroppedTitle": "铜绿假单胞菌脑膜炎", "lemmaDesc": "铜绿假单胞菌是假单胞菌属中的主要种别，也是临床上引起各种感染的主要致命病菌。铜绿...", "lemmaUrl": "http://baike.baidu.com/item/%E9%93%9C%E7%BB%BF%E5%81%87%E5%8D%95%E8%83%9E%E8%8F%8C%E8%84%91%E8%86%9C%E7%82%8E/19772475", "lemmaPic": []}, {"lemmaId": 19773207, "lemmaTitle": "雅克什雅贫血", "lemmaCroppedTitle": "雅克什雅贫血", "lemmaDesc": "曾称雅克什贫血（von Jaksch anemia），现称幼年型粒单细胞白血病和...", "lemmaUrl": "http://baike.baidu.com/item/%E9%9B%85%E5%85%8B%E4%BB%80%E9%9B%85%E8%B4%AB%E8%A1%80/19773207", "lemmaPic": []}, {"lemmaId": 13883792, "lemmaTitle": "行尸综合征", "lemmaCroppedTitle": "行尸综合征", "lemmaDesc": "行尸综合征是一种非常神秘的病症，患者会认为自己已死亡，或者失去身体中重要的部分，...", "lemmaUrl": "http://baike.baidu.com/item/%E8%A1%8C%E5%B0%B8%E7%BB%BC%E5%90%88%E5%BE%81/13883792", "lemmaPic": []}, {"lemmaId": 19828546, "lemmaTitle": "小儿痣样基底细胞癌综合征", "lemmaCroppedTitle": "小儿痣样基底细胞癌综合征", "lemmaDesc": "小儿痣样基底细胞癌综合征（Nevoid basal cell carcinoma...", "lemmaUrl": "http://baike.baidu.com/item/%E5%B0%8F%E5%84%BF%E7%97%A3%E6%A0%B7%E5%9F%BA%E5%BA%95%E7%BB%86%E8%83%9E%E7%99%8C%E7%BB%BC%E5%90%88%E5%BE%81/19828546", "lemmaPic": []}], "total": 7246, "totalPage": 73, "page": 72, "fromLemma": 0}