{"lemmaList": [{"lemmaId": 801872, "lemmaTitle": "苯中毒", "lemmaCroppedTitle": "苯中毒", "lemmaDesc": "苯中毒可分为急性苯中毒和慢性苯中毒。急性苯中毒是指口服含苯的有机溶剂或吸入高浓度...", "lemmaUrl": "http://baike.baidu.com/item/%E8%8B%AF%E4%B8%AD%E6%AF%92/801872", "lemmaPic": []}, {"lemmaId": 10343067, "lemmaTitle": "胸痹", "lemmaCroppedTitle": "胸痹", "lemmaDesc": "胸痹是指以胸部闷痛、甚则胸痛彻背，喘息不得卧为主要表现的一种疾病，轻者感觉胸闷，...", "lemmaUrl": "http://baike.baidu.com/item/%E8%83%B8%E7%97%B9/10343067", "lemmaPic": []}, {"lemmaId": 1686035, "lemmaTitle": "甲亢危象", "lemmaCroppedTitle": "甲亢危象", "lemmaDesc": "甲亢在病情没有被控制的情况下，由于一些应激的激发因素，使甲亢病情突然加重，出现了...", "lemmaUrl": "http://baike.baidu.com/item/%E7%94%B2%E4%BA%A2%E5%8D%B1%E8%B1%A1/1686035", "lemmaPic": []}, {"lemmaId": 9320851, "lemmaTitle": "输精管堵塞", "lemmaCroppedTitle": "输精管堵塞", "lemmaDesc": "精子排出须通过睾丸输出小管、附睾管、输精管、射精管及部分尿道，以上任何部位的阻塞...", "lemmaUrl": "http://baike.baidu.com/item/%E8%BE%93%E7%B2%BE%E7%AE%A1%E5%A0%B5%E5%A1%9E/9320851", "lemmaPic": []}, {"lemmaId": 2601538, "lemmaTitle": "花粉症", "lemmaCroppedTitle": "花粉症", "lemmaDesc": "该病又称枯草热，是患者对植物花粉过敏所引起，主要累及眼及上呼吸道。该病绝大部分由...", "lemmaUrl": "http://baike.baidu.com/item/%E8%8A%B1%E7%B2%89%E7%97%87/2601538", "lemmaPic": []}, {"lemmaId": 3904934, "lemmaTitle": "颈淋巴结炎", "lemmaCroppedTitle": "颈淋巴结炎", "lemmaDesc": "颈淋巴结炎分为急性颈淋巴结炎和慢性颈淋巴结炎。颈部急性淋巴结炎常见于儿童，多由上...", "lemmaUrl": "http://baike.baidu.com/item/%E9%A2%88%E6%B7%8B%E5%B7%B4%E7%BB%93%E7%82%8E/3904934", "lemmaPic": []}, {"lemmaId": 8211820, "lemmaTitle": "阴道癌", "lemmaCroppedTitle": "阴道癌", "lemmaDesc": "原发性阴道恶性肿瘤很罕见，约占女性生殖器官恶性肿瘤的1%。主要是鳞癌、腺癌，其他...", "lemmaUrl": "http://baike.baidu.com/item/%E9%98%B4%E9%81%93%E7%99%8C/8211820", "lemmaPic": []}, {"lemmaId": 3643671, "lemmaTitle": "矮小症", "lemmaCroppedTitle": "矮小症", "lemmaDesc": "矮小症是指儿童的身高低于同性别、同年龄、同种族儿童平均身高的2个标准差（-2SD...", "lemmaUrl": "http://baike.baidu.com/item/%E7%9F%AE%E5%B0%8F%E7%97%87/3643671", "lemmaPic": []}, {"lemmaId": 10778564, "lemmaTitle": "心脾两虚", "lemmaCroppedTitle": "心脾两虚", "lemmaDesc": "心脾两虚，是指心血不足和脾气虚弱共存的证候。以心悸怔忡、失眠多梦、健忘、食少、腹...", "lemmaUrl": "http://baike.baidu.com/item/%E5%BF%83%E8%84%BE%E4%B8%A4%E8%99%9A/10778564", "lemmaPic": []}, {"lemmaId": 6934372, "lemmaTitle": "子宫粘连", "lemmaCroppedTitle": "子宫粘连", "lemmaDesc": "子宫颈管粘连是指由于宫颈管黏膜受机械损伤后粘连，致使颈管狭窄或闭锁。子宫腔粘连是...", "lemmaUrl": "http://baike.baidu.com/item/%E5%AD%90%E5%AE%AB%E7%B2%98%E8%BF%9E/6934372", "lemmaPic": []}, {"lemmaId": 4269206, "lemmaTitle": "下肢动脉硬化闭塞症", "lemmaCroppedTitle": "下肢动脉硬化闭塞症", "lemmaDesc": "下肢动脉硬化闭塞症（PAD）是由于下肢动脉粥样硬化斑块形成，引起下肢动脉狭窄、闭...", "lemmaUrl": "http://baike.baidu.com/item/%E4%B8%8B%E8%82%A2%E5%8A%A8%E8%84%89%E7%A1%AC%E5%8C%96%E9%97%AD%E5%A1%9E%E7%97%87/4269206", "lemmaPic": []}, {"lemmaId": 1001878, "lemmaTitle": "神经鞘瘤", "lemmaCroppedTitle": "神经鞘瘤", "lemmaDesc": "本病又名许旺细胞瘤，是由周围神经的Schwann鞘（即神经鞘）所形成的肿瘤，亦有...", "lemmaUrl": "http://baike.baidu.com/item/%E7%A5%9E%E7%BB%8F%E9%9E%98%E7%98%A4/1001878", "lemmaPic": []}, {"lemmaId": 2003676, "lemmaTitle": "幼稚子宫", "lemmaCroppedTitle": "幼稚子宫", "lemmaDesc": "幼稚子宫也称子宫发育不良，是指子宫结构和形态正常，但体积较小，子宫颈相对较长，是...", "lemmaUrl": "http://baike.baidu.com/item/%E5%B9%BC%E7%A8%9A%E5%AD%90%E5%AE%AB/2003676", "lemmaPic": []}, {"lemmaId": 11050903, "lemmaTitle": "淋巴管炎", "lemmaCroppedTitle": "淋巴管炎", "lemmaDesc": "\t\t\t   \t\t\t淋巴管炎是由致病原（包括微生物、寄生虫）经皮肤黏膜裂伤、手术切...", "lemmaUrl": "http://baike.baidu.com/item/%E6%B7%8B%E5%B7%B4%E7%AE%A1%E7%82%8E/11050903", "lemmaPic": []}, {"lemmaId": 10821844, "lemmaTitle": "蜘蛛疮", "lemmaCroppedTitle": "蜘蛛疮", "lemmaDesc": "蜘蛛疮俗称带状疱疹，又名“缠腰火丹”、“蛇串疮”、“缠腰龙”，指皮肤上出现成簇水...", "lemmaUrl": "http://baike.baidu.com/item/%E8%9C%98%E8%9B%9B%E7%96%AE/10821844", "lemmaPic": []}, {"lemmaId": 11033249, "lemmaTitle": "躯体形式障碍", "lemmaCroppedTitle": "躯体形式障碍", "lemmaDesc": "躯体形式障碍是一种以持久地担心或相信各种躯体症状的优势观念为特征的神经症。患者因...", "lemmaUrl": "http://baike.baidu.com/item/%E8%BA%AF%E4%BD%93%E5%BD%A2%E5%BC%8F%E9%9A%9C%E7%A2%8D/11033249", "lemmaPic": []}, {"lemmaId": 1980536, "lemmaTitle": "上睑下垂", "lemmaCroppedTitle": "上睑下垂", "lemmaDesc": "上睑下垂（ptosis）系指提上睑肌和Müller平滑肌的功能不全或丧失，以致上...", "lemmaUrl": "http://baike.baidu.com/item/%E4%B8%8A%E7%9D%91%E4%B8%8B%E5%9E%82/1980536", "lemmaPic": []}, {"lemmaId": 1685865, "lemmaTitle": "斜颈", "lemmaCroppedTitle": "斜颈", "lemmaDesc": "斜颈可分为先天性肌性斜颈和先天性骨性斜颈。前者是由于一侧胸锁乳突肌挛缩引起的头颈...", "lemmaUrl": "http://baike.baidu.com/item/%E6%96%9C%E9%A2%88/1685865", "lemmaPic": []}, {"lemmaId": 1939526, "lemmaTitle": "盘状红斑狼疮", "lemmaCroppedTitle": "盘状红斑狼疮", "lemmaDesc": "盘状红斑狼疮（DLE）为慢性复发性疾病，盘状红斑狼疮皮疹呈持久性盘状红色斑片，多...", "lemmaUrl": "http://baike.baidu.com/item/%E7%9B%98%E7%8A%B6%E7%BA%A2%E6%96%91%E7%8B%BC%E7%96%AE/1939526", "lemmaPic": []}, {"lemmaId": 2775361, "lemmaTitle": "小儿急性肠系膜淋巴结炎", "lemmaCroppedTitle": "小儿急性肠系膜淋巴结炎", "lemmaDesc": "急性肠系膜淋巴结炎为小儿腹痛的常见病因之一，临床上易与急性阑尾炎相混淆，多见于7...", "lemmaUrl": "http://baike.baidu.com/item/%E5%B0%8F%E5%84%BF%E6%80%A5%E6%80%A7%E8%82%A0%E7%B3%BB%E8%86%9C%E6%B7%8B%E5%B7%B4%E7%BB%93%E7%82%8E/2775361", "lemmaPic": []}, {"lemmaId": 6872666, "lemmaTitle": "成人斯蒂尔病", "lemmaCroppedTitle": "成人斯蒂尔病", "lemmaDesc": "斯蒂尔病本是指系统型起病的幼年型关节炎，但相似的疾病也可发生于成年人，称为成人斯...", "lemmaUrl": "http://baike.baidu.com/item/%E6%88%90%E4%BA%BA%E6%96%AF%E8%92%82%E5%B0%94%E7%97%85/6872666", "lemmaPic": []}, {"lemmaId": 5400262, "lemmaTitle": "腹股沟肉芽肿", "lemmaCroppedTitle": "腹股沟肉芽肿", "lemmaDesc": "本病又称杜诺凡病，是一种慢性、轻度传染的性传播疾病，由肉芽肿荚膜杆菌引起，此菌在...", "lemmaUrl": "http://baike.baidu.com/item/%E8%85%B9%E8%82%A1%E6%B2%9F%E8%82%89%E8%8A%BD%E8%82%BF/5400262", "lemmaPic": []}, {"lemmaId": 2252681, "lemmaTitle": "感染性心内膜炎", "lemmaCroppedTitle": "感染性心内膜炎", "lemmaDesc": "感染性心内膜炎（IE）是指由细菌、真菌和其他微生物（如病毒、立克次体、衣原体、螺...", "lemmaUrl": "http://baike.baidu.com/item/%E6%84%9F%E6%9F%93%E6%80%A7%E5%BF%83%E5%86%85%E8%86%9C%E7%82%8E/2252681", "lemmaPic": []}, {"lemmaId": 3826431, "lemmaTitle": "股骨头缺血性坏死", "lemmaCroppedTitle": "股骨头缺血性坏死", "lemmaDesc": "股骨头缺血性坏死（AVN）又称股骨头坏死（ONFH）是股骨头血供中断或受损，引起...", "lemmaUrl": "http://baike.baidu.com/item/%E8%82%A1%E9%AA%A8%E5%A4%B4%E7%BC%BA%E8%A1%80%E6%80%A7%E5%9D%8F%E6%AD%BB/3826431", "lemmaPic": []}, {"lemmaId": 10535210, "lemmaTitle": "脑血栓后遗症", "lemmaCroppedTitle": "脑血栓后遗症", "lemmaDesc": "脑血栓是指在颅内外供应脑部的动脉血管壁发生病理性改变的基础上，在血流缓慢、血液成...", "lemmaUrl": "http://baike.baidu.com/item/%E8%84%91%E8%A1%80%E6%A0%93%E5%90%8E%E9%81%97%E7%97%87/10535210", "lemmaPic": []}, {"lemmaId": 10017222, "lemmaTitle": "腰椎椎管狭窄症", "lemmaCroppedTitle": "腰椎椎管狭窄症", "lemmaDesc": "腰椎椎管狭窄症，是指各种原因引起椎管各径线缩短，压迫硬膜囊、脊髓或神经根，从而导...", "lemmaUrl": "http://baike.baidu.com/item/%E8%85%B0%E6%A4%8E%E6%A4%8E%E7%AE%A1%E7%8B%AD%E7%AA%84%E7%97%87/10017222", "lemmaPic": []}, {"lemmaId": 5277649, "lemmaTitle": "前庭大腺炎", "lemmaCroppedTitle": "前庭大腺炎", "lemmaDesc": "前庭大腺位于两侧大阴唇后部，腺管开口于小阴唇内侧靠近处女膜处，因解剖部位发病部位...", "lemmaUrl": "http://baike.baidu.com/item/%E5%89%8D%E5%BA%AD%E5%A4%A7%E8%85%BA%E7%82%8E/5277649", "lemmaPic": []}, {"lemmaId": 7993757, "lemmaTitle": "胆总管结石", "lemmaCroppedTitle": "胆总管结石", "lemmaDesc": "胆总管结石是指位于胆总管内的结石，大多数位胆色素结石或以胆色素为主的混合结石，好...", "lemmaUrl": "http://baike.baidu.com/item/%E8%83%86%E6%80%BB%E7%AE%A1%E7%BB%93%E7%9F%B3/7993757", "lemmaPic": []}, {"lemmaId": 3439125, "lemmaTitle": "肩袖损伤", "lemmaCroppedTitle": "肩袖损伤", "lemmaDesc": "肩袖是覆盖于肩关节前、上、后方之肩胛下肌、冈上肌、冈下肌、小圆肌等肌腱组织的总称...", "lemmaUrl": "http://baike.baidu.com/item/%E8%82%A9%E8%A2%96%E6%8D%9F%E4%BC%A4/3439125", "lemmaPic": []}, {"lemmaId": 11011808, "lemmaTitle": "手足皲裂", "lemmaCroppedTitle": "手足皲裂", "lemmaDesc": "手足皲裂是指由各种原因引起的手足部皮肤干燥和裂纹，伴有疼痛，严重者可影响日常生活...", "lemmaUrl": "http://baike.baidu.com/item/%E6%89%8B%E8%B6%B3%E7%9A%B2%E8%A3%82/11011808", "lemmaPic": []}, {"lemmaId": 4929353, "lemmaTitle": "氯气中毒", "lemmaCroppedTitle": "氯气中毒", "lemmaDesc": "氯气中毒是在工作过程中，短期内吸入较大量氯气所致的以急性呼吸系统损害为主的全身性...", "lemmaUrl": "http://baike.baidu.com/item/%E6%B0%AF%E6%B0%94%E4%B8%AD%E6%AF%92/4929353", "lemmaPic": []}, {"lemmaId": 5278076, "lemmaTitle": "胎儿窘迫", "lemmaCroppedTitle": "胎儿窘迫", "lemmaDesc": "胎儿在宫内有缺氧征象，危及胎儿健康和生命，称为胎儿窘迫。胎儿窘迫是一种综合症状，...", "lemmaUrl": "http://baike.baidu.com/item/%E8%83%8E%E5%84%BF%E7%AA%98%E8%BF%AB/5278076", "lemmaPic": []}, {"lemmaId": 8080252, "lemmaTitle": "吉兰-巴雷综合征", "lemmaCroppedTitle": "吉兰-巴雷综合征", "lemmaDesc": "吉兰-巴雷综合征（GBS）又称格林巴利综合征，是以周围神经和神经根的脱髓鞘病变及...", "lemmaUrl": "http://baike.baidu.com/item/%E5%90%89%E5%85%B0-%E5%B7%B4%E9%9B%B7%E7%BB%BC%E5%90%88%E5%BE%81/8080252", "lemmaPic": []}, {"lemmaId": 2421954, "lemmaTitle": "慢性附睾炎", "lemmaCroppedTitle": "慢性附睾炎", "lemmaDesc": "慢性附睾炎是泌尿外科门诊常见病，对患者的生活质量存在明显影响。目前慢性附睾炎的定...", "lemmaUrl": "http://baike.baidu.com/item/%E6%85%A2%E6%80%A7%E9%99%84%E7%9D%BE%E7%82%8E/2421954", "lemmaPic": []}, {"lemmaId": 10844506, "lemmaTitle": "肠道寄生虫病", "lemmaCroppedTitle": "肠道寄生虫病", "lemmaDesc": "寄生虫在人体肠道内寄生而引起的疾病统称为肠道寄生虫病。常见的有原虫类和蠕虫类（包...", "lemmaUrl": "http://baike.baidu.com/item/%E8%82%A0%E9%81%93%E5%AF%84%E7%94%9F%E8%99%AB%E7%97%85/10844506", "lemmaPic": []}, {"lemmaId": 5400148, "lemmaTitle": "生殖器念珠菌病", "lemmaCroppedTitle": "生殖器念珠菌病", "lemmaDesc": "生殖器念珠菌病主要是由白色念珠菌感染所引起的一种常见的黏膜念珠菌病。可累及男女两...", "lemmaUrl": "http://baike.baidu.com/item/%E7%94%9F%E6%AE%96%E5%99%A8%E5%BF%B5%E7%8F%A0%E8%8F%8C%E7%97%85/5400148", "lemmaPic": []}, {"lemmaId": 1197613, "lemmaTitle": "痛风及高尿酸血症", "lemmaCroppedTitle": "痛风及高尿酸血症", "lemmaDesc": "痛风是一组嘌呤代谢紊乱所致的疾病，其临床特点为高尿酸血症及由此而引起的痛风性急性...", "lemmaUrl": "http://baike.baidu.com/item/%E7%97%9B%E9%A3%8E%E5%8F%8A%E9%AB%98%E5%B0%BF%E9%85%B8%E8%A1%80%E7%97%87/1197613", "lemmaPic": []}, {"lemmaId": 6048753, "lemmaTitle": "大便失禁", "lemmaCroppedTitle": "大便失禁", "lemmaDesc": "大便失禁即肛门失禁，是指粪便及气体不能随意控制，不自主地流出肛门外，为排便功能紊...", "lemmaUrl": "http://baike.baidu.com/item/%E5%A4%A7%E4%BE%BF%E5%A4%B1%E7%A6%81/6048753", "lemmaPic": []}, {"lemmaId": 5731717, "lemmaTitle": "感觉统合失调", "lemmaCroppedTitle": "感觉统合失调", "lemmaDesc": "感觉统合失调是指外部的感觉刺激信号无法在儿童的大脑神经系统进行有效的组合，而使机...", "lemmaUrl": "http://baike.baidu.com/item/%E6%84%9F%E8%A7%89%E7%BB%9F%E5%90%88%E5%A4%B1%E8%B0%83/5731717", "lemmaPic": []}, {"lemmaId": 7812939, "lemmaTitle": "印戒细胞癌", "lemmaCroppedTitle": "印戒细胞癌", "lemmaDesc": "根据世界卫生组织分类，印戒细胞癌（SRCC）是一种组织学分型，这种分型最初是源于...", "lemmaUrl": "http://baike.baidu.com/item/%E5%8D%B0%E6%88%92%E7%BB%86%E8%83%9E%E7%99%8C/7812939", "lemmaPic": {"width": 139, "height": 140, "url": "https://gss3.bdstatic.com/7Po3dSag_xI4khGkpoWK1HF6hhy/baike/w%3D168/sign=6aaada4002087bf47dec53efcad3575e/f31fbe096b63f6241c5fdc088744ebf81a4ca3bf.jpg"}}, {"lemmaId": 811405, "lemmaTitle": "氧中毒", "lemmaCroppedTitle": "氧中毒", "lemmaDesc": "氧是需氧型生物维持生命不可缺少的物质，但超过一定压力和时间的氧气吸入，会对机体起...", "lemmaUrl": "http://baike.baidu.com/item/%E6%B0%A7%E4%B8%AD%E6%AF%92/811405", "lemmaPic": []}, {"lemmaId": 10967191, "lemmaTitle": "心阴虚", "lemmaCroppedTitle": "心阴虚", "lemmaDesc": "心阴虚证是指阴液不足，心失所养，虚热内扰，以心烦、心悸、失眠及阴虚症状为主要表现...", "lemmaUrl": "http://baike.baidu.com/item/%E5%BF%83%E9%98%B4%E8%99%9A/10967191", "lemmaPic": []}, {"lemmaId": 1904701, "lemmaTitle": "输血反应", "lemmaCroppedTitle": "输血反应", "lemmaDesc": "输血反应是指在输血过程中或结束后，因输入血液或其制品或所用输注用具而产生的不良反...", "lemmaUrl": "http://baike.baidu.com/item/%E8%BE%93%E8%A1%80%E5%8F%8D%E5%BA%94/1904701", "lemmaPic": []}, {"lemmaId": 1470304, "lemmaTitle": "听神经瘤", "lemmaCroppedTitle": "听神经瘤", "lemmaDesc": "听神经瘤是指起源于听神经鞘的肿瘤，为良性肿瘤，确切的称谓应是听神经鞘瘤，是常见颅...", "lemmaUrl": "http://baike.baidu.com/item/%E5%90%AC%E7%A5%9E%E7%BB%8F%E7%98%A4/1470304", "lemmaPic": []}, {"lemmaId": 4954077, "lemmaTitle": "乳腺囊性增生病", "lemmaCroppedTitle": "乳腺囊性增生病", "lemmaDesc": "乳腺囊性增生病是以乳腺小叶小导管及末端导管高度扩张形成的囊肿为特征，伴有乳腺结构...", "lemmaUrl": "http://baike.baidu.com/item/%E4%B9%B3%E8%85%BA%E5%9B%8A%E6%80%A7%E5%A2%9E%E7%94%9F%E7%97%85/4954077", "lemmaPic": []}, {"lemmaId": 2099701, "lemmaTitle": "经前期综合症", "lemmaCroppedTitle": "经前期综合症", "lemmaDesc": "育龄妇女在应届月经前7～14天（即在月经周期的黄体期），反复出现一系列精神、行为...", "lemmaUrl": "http://baike.baidu.com/item/%E7%BB%8F%E5%89%8D%E6%9C%9F%E7%BB%BC%E5%90%88%E7%97%87/2099701", "lemmaPic": []}, {"lemmaId": 9818702, "lemmaTitle": "慢性膀胱炎", "lemmaCroppedTitle": "慢性膀胱炎", "lemmaDesc": "膀胱炎有特异性和非特异性细菌感染。前者指膀胱结核而言。非特异性膀胱炎系大肠杆菌、...", "lemmaUrl": "http://baike.baidu.com/item/%E6%85%A2%E6%80%A7%E8%86%80%E8%83%B1%E7%82%8E/9818702", "lemmaPic": []}, {"lemmaId": 10029536, "lemmaTitle": "少精症", "lemmaCroppedTitle": "少精症", "lemmaDesc": "少精症是指具有生育能力男性精液中的精子数目低于正常的一种病症。国际卫生组织规定，...", "lemmaUrl": "http://baike.baidu.com/item/%E5%B0%91%E7%B2%BE%E7%97%87/10029536", "lemmaPic": []}, {"lemmaId": 728686, "lemmaTitle": "慢性心力衰竭", "lemmaCroppedTitle": "慢性心力衰竭", "lemmaDesc": "心力衰竭是由于心肌梗死、心肌病、血流动力学负荷过重、炎症等任何原因引起的心肌损伤...", "lemmaUrl": "http://baike.baidu.com/item/%E6%85%A2%E6%80%A7%E5%BF%83%E5%8A%9B%E8%A1%B0%E7%AB%AD/728686", "lemmaPic": []}, {"lemmaId": 1375722, "lemmaTitle": "心包炎", "lemmaCroppedTitle": "心包炎", "lemmaDesc": "心包炎是指心包因细菌、病毒、自身免疫、物理、化学等因素而发生急性炎性反应和渗液，...", "lemmaUrl": "http://baike.baidu.com/item/%E5%BF%83%E5%8C%85%E7%82%8E/1375722", "lemmaPic": []}, {"lemmaId": 6744627, "lemmaTitle": "干性湿疹", "lemmaCroppedTitle": "干性湿疹", "lemmaDesc": "干性湿疹学名乏脂性湿疹，又称裂纹性湿疹。主要因皮肤水分脱失，皮脂分泌减少，干燥，...", "lemmaUrl": "http://baike.baidu.com/item/%E5%B9%B2%E6%80%A7%E6%B9%BF%E7%96%B9/6744627", "lemmaPic": []}, {"lemmaId": 4582025, "lemmaTitle": "骨折后遗症", "lemmaCroppedTitle": "骨折后遗症", "lemmaDesc": "骨折后遗症是指骨折治疗后或骨折愈合后遗留的并发症。常见的并发症有：关节僵硬或强直...", "lemmaUrl": "http://baike.baidu.com/item/%E9%AA%A8%E6%8A%98%E5%90%8E%E9%81%97%E7%97%87/4582025", "lemmaPic": []}, {"lemmaId": 10399926, "lemmaTitle": "慢性肺源性心脏病", "lemmaCroppedTitle": "慢性肺源性心脏病", "lemmaDesc": "慢性肺源性心脏病又称肺心病，是由肺组织、肺动脉血管或胸廓的慢性病变引起肺组织结构...", "lemmaUrl": "http://baike.baidu.com/item/%E6%85%A2%E6%80%A7%E8%82%BA%E6%BA%90%E6%80%A7%E5%BF%83%E8%84%8F%E7%97%85/10399926", "lemmaPic": []}, {"lemmaId": 5965240, "lemmaTitle": "急性短暂性精神障碍", "lemmaCroppedTitle": "急性短暂性精神障碍", "lemmaDesc": "凡是出现精神异常的症状或体征都可以称为精神障碍。根据病因可分为非器质性精神障碍、...", "lemmaUrl": "http://baike.baidu.com/item/%E6%80%A5%E6%80%A7%E7%9F%AD%E6%9A%82%E6%80%A7%E7%B2%BE%E7%A5%9E%E9%9A%9C%E7%A2%8D/5965240", "lemmaPic": []}, {"lemmaId": 10998466, "lemmaTitle": "雷诺综合征", "lemmaCroppedTitle": "雷诺综合征", "lemmaDesc": "雷诺综合征是由于寒冷或情绪激动引起发作性的手指（足趾）苍白、发紫然后变为潮红的一...", "lemmaUrl": "http://baike.baidu.com/item/%E9%9B%B7%E8%AF%BA%E7%BB%BC%E5%90%88%E5%BE%81/10998466", "lemmaPic": []}, {"lemmaId": 5119434, "lemmaTitle": "股骨粗隆间骨折", "lemmaCroppedTitle": "股骨粗隆间骨折", "lemmaDesc": "股骨粗隆间骨折常见于老年人。由于粗隆部血运丰富，骨折后极少不愈合，但甚易发生髋内...", "lemmaUrl": "http://baike.baidu.com/item/%E8%82%A1%E9%AA%A8%E7%B2%97%E9%9A%86%E9%97%B4%E9%AA%A8%E6%8A%98/5119434", "lemmaPic": []}, {"lemmaId": 5908390, "lemmaTitle": "鼻中隔弯曲", "lemmaCroppedTitle": "鼻中隔弯曲", "lemmaDesc": "鼻中隔弯曲也叫鼻中隔偏曲，凡鼻中隔偏离中线向一侧或两侧弯曲或局部形成突起，引起鼻...", "lemmaUrl": "http://baike.baidu.com/item/%E9%BC%BB%E4%B8%AD%E9%9A%94%E5%BC%AF%E6%9B%B2/5908390", "lemmaPic": []}, {"lemmaId": 7995371, "lemmaTitle": "不稳定型心绞痛", "lemmaCroppedTitle": "不稳定型心绞痛", "lemmaDesc": "不稳定型心绞痛，是介于劳累性稳定型心绞痛与急性心肌梗死和猝死之间的临床表现。主要...", "lemmaUrl": "http://baike.baidu.com/item/%E4%B8%8D%E7%A8%B3%E5%AE%9A%E5%9E%8B%E5%BF%83%E7%BB%9E%E7%97%9B/7995371", "lemmaPic": []}, {"lemmaId": 8622435, "lemmaTitle": "膝关节骨性关节炎", "lemmaCroppedTitle": "膝关节骨性关节炎", "lemmaDesc": "膝关节骨性关节炎是指由于膝关节软骨变性、骨质增生而引起的一种慢性骨关节疾患，又称...", "lemmaUrl": "http://baike.baidu.com/item/%E8%86%9D%E5%85%B3%E8%8A%82%E9%AA%A8%E6%80%A7%E5%85%B3%E8%8A%82%E7%82%8E/8622435", "lemmaPic": []}, {"lemmaId": 1477828, "lemmaTitle": "高胆红素血症", "lemmaCroppedTitle": "高胆红素血症", "lemmaDesc": "胆红素（Bilirubin）是血液中红细胞的血红素代谢后的废弃物。主要由血红蛋白...", "lemmaUrl": "http://baike.baidu.com/item/%E9%AB%98%E8%83%86%E7%BA%A2%E7%B4%A0%E8%A1%80%E7%97%87/1477828", "lemmaPic": []}, {"lemmaId": 10396432, "lemmaTitle": "反应性关节炎", "lemmaCroppedTitle": "反应性关节炎", "lemmaDesc": "反应性关节炎（ReA）是一种发生于某些特定部位（如肠道和泌尿生殖道）感染之后而出...", "lemmaUrl": "http://baike.baidu.com/item/%E5%8F%8D%E5%BA%94%E6%80%A7%E5%85%B3%E8%8A%82%E7%82%8E/10396432", "lemmaPic": []}, {"lemmaId": 2829310, "lemmaTitle": "视网膜母细胞瘤", "lemmaCroppedTitle": "视网膜母细胞瘤", "lemmaDesc": "视网膜母细胞瘤（Retinoblastoma, Rb）是一种来源于光感受器前体细...", "lemmaUrl": "http://baike.baidu.com/item/%E8%A7%86%E7%BD%91%E8%86%9C%E6%AF%8D%E7%BB%86%E8%83%9E%E7%98%A4/2829310", "lemmaPic": []}, {"lemmaId": 3685031, "lemmaTitle": "神经管畸形", "lemmaCroppedTitle": "神经管畸形", "lemmaDesc": "神经管畸形，又称神经管缺陷，是一种严重的畸形疾病，神经管就是胎儿的中枢神经系统。...", "lemmaUrl": "http://baike.baidu.com/item/%E7%A5%9E%E7%BB%8F%E7%AE%A1%E7%95%B8%E5%BD%A2/3685031", "lemmaPic": []}, {"lemmaId": 2322046, "lemmaTitle": "阻塞性肺气肿", "lemmaCroppedTitle": "阻塞性肺气肿", "lemmaDesc": "阻塞性肺气肿可分为局限性阻塞性肺气肿和弥漫性阻塞性肺气肿，现一般指慢性阻塞性肺疾...", "lemmaUrl": "http://baike.baidu.com/item/%E9%98%BB%E5%A1%9E%E6%80%A7%E8%82%BA%E6%B0%94%E8%82%BF/2322046", "lemmaPic": []}, {"lemmaId": 101262, "lemmaTitle": "大骨节病", "lemmaCroppedTitle": "大骨节病", "lemmaDesc": "大骨节病是指一种地方性、变形性骨关节病，国内又叫矮人病、算盘珠病等，国际医学界称...", "lemmaUrl": "http://baike.baidu.com/item/%E5%A4%A7%E9%AA%A8%E8%8A%82%E7%97%85/101262", "lemmaPic": []}, {"lemmaId": 5317855, "lemmaTitle": "急性脊髓炎", "lemmaCroppedTitle": "急性脊髓炎", "lemmaDesc": "急性脊髓炎是指各种自身免疫反应（多为感染后诱发，个别为疫苗接种后或隐源性原因）所...", "lemmaUrl": "http://baike.baidu.com/item/%E6%80%A5%E6%80%A7%E8%84%8A%E9%AB%93%E7%82%8E/5317855", "lemmaPic": []}, {"lemmaId": 5395240, "lemmaTitle": "尖锐物体恐惧症", "lemmaCroppedTitle": "尖锐物体恐惧症", "lemmaDesc": "尖锐物体恐惧症简称尖端恐惧症。尖端恐惧症属于物体恐惧症的一种。物体恐怖症是指在某...", "lemmaUrl": "http://baike.baidu.com/item/%E5%B0%96%E9%94%90%E7%89%A9%E4%BD%93%E6%81%90%E6%83%A7%E7%97%87/5395240", "lemmaPic": []}, {"lemmaId": 5277781, "lemmaTitle": "非特异性阴道炎", "lemmaCroppedTitle": "非特异性阴道炎", "lemmaDesc": "非特异性阴道炎是由物理、化学因素或一般病原菌，如变形杆菌、链球菌、葡萄球菌、大肠...", "lemmaUrl": "http://baike.baidu.com/item/%E9%9D%9E%E7%89%B9%E5%BC%82%E6%80%A7%E9%98%B4%E9%81%93%E7%82%8E/5277781", "lemmaPic": []}, {"lemmaId": 7616953, "lemmaTitle": "眼底病", "lemmaCroppedTitle": "眼底病", "lemmaDesc": "这是一个近代医学称谓。底（fundus），在医学上，是一个解剖术语，指一个有开口...", "lemmaUrl": "http://baike.baidu.com/item/%E7%9C%BC%E5%BA%95%E7%97%85/7616953", "lemmaPic": []}, {"lemmaId": 1170736, "lemmaTitle": "臂丛神经损伤", "lemmaCroppedTitle": "臂丛神经损伤", "lemmaDesc": "臂丛神经由颈C5～8与T1神经根组成，分支主要分布于上肢，有些小分支分布到胸上肢...", "lemmaUrl": "http://baike.baidu.com/item/%E8%87%82%E4%B8%9B%E7%A5%9E%E7%BB%8F%E6%8D%9F%E4%BC%A4/1170736", "lemmaPic": []}, {"lemmaId": 5565274, "lemmaTitle": "小儿过敏性鼻炎", "lemmaCroppedTitle": "小儿过敏性鼻炎", "lemmaDesc": "小儿过敏性鼻炎即小儿变应性鼻炎是变态反应性鼻炎的简称。变应性鼻炎是儿童极为常见的...", "lemmaUrl": "http://baike.baidu.com/item/%E5%B0%8F%E5%84%BF%E8%BF%87%E6%95%8F%E6%80%A7%E9%BC%BB%E7%82%8E/5565274", "lemmaPic": []}, {"lemmaId": 10420709, "lemmaTitle": "带下病", "lemmaCroppedTitle": "带下病", "lemmaDesc": "带下的量、色、质、味发生异常，或伴全身、局部症状者，称为“带下病”。本病可见于现...", "lemmaUrl": "http://baike.baidu.com/item/%E5%B8%A6%E4%B8%8B%E7%97%85/10420709", "lemmaPic": []}, {"lemmaId": 8488948, "lemmaTitle": "儿童弱视", "lemmaCroppedTitle": "儿童弱视", "lemmaDesc": "凡眼部无器质性病变、矫正视力低于0.9者称为弱视（amblyopia）。弱视是眼...", "lemmaUrl": "http://baike.baidu.com/item/%E5%84%BF%E7%AB%A5%E5%BC%B1%E8%A7%86/8488948", "lemmaPic": []}, {"lemmaId": 10925600, "lemmaTitle": "皮肤炭疽", "lemmaCroppedTitle": "皮肤炭疽", "lemmaDesc": "是一种由炭疽杆菌引起的人畜共患传染病，牛、羊、骆驼、骡等食草动物是其主要传染源。...", "lemmaUrl": "http://baike.baidu.com/item/%E7%9A%AE%E8%82%A4%E7%82%AD%E7%96%BD/10925600", "lemmaPic": []}, {"lemmaId": 10522961, "lemmaTitle": "主动脉夹层动脉瘤", "lemmaCroppedTitle": "主动脉夹层动脉瘤", "lemmaDesc": "主动脉夹层动脉瘤是一较为少见的致命性疾病，它的发生与多种疾病有关。高血压是主动脉...", "lemmaUrl": "http://baike.baidu.com/item/%E4%B8%BB%E5%8A%A8%E8%84%89%E5%A4%B9%E5%B1%82%E5%8A%A8%E8%84%89%E7%98%A4/10522961", "lemmaPic": []}, {"lemmaId": 8456097, "lemmaTitle": "系统性硬化症", "lemmaCroppedTitle": "系统性硬化症", "lemmaDesc": "系统性硬化症（SSc）也称为硬皮病，是一种以局限性或弥漫性皮肤增厚和纤维化为特征...", "lemmaUrl": "http://baike.baidu.com/item/%E7%B3%BB%E7%BB%9F%E6%80%A7%E7%A1%AC%E5%8C%96%E7%97%87/8456097", "lemmaPic": []}, {"lemmaId": 4523368, "lemmaTitle": "乳房湿疹", "lemmaCroppedTitle": "乳房湿疹", "lemmaDesc": "好发于乳头、乳晕及其周围，境界清楚，皮损呈棕红色，糜烂明显，间覆以鳞屑或薄痂，有...", "lemmaUrl": "http://baike.baidu.com/item/%E4%B9%B3%E6%88%BF%E6%B9%BF%E7%96%B9/4523368", "lemmaPic": []}, {"lemmaId": 130585, "lemmaTitle": "葡萄球菌感染", "lemmaCroppedTitle": "葡萄球菌感染", "lemmaDesc": "葡萄球菌感染是由葡萄球菌引起的感染，属革兰阳性球菌引起人和动物的化脓性感染。葡萄...", "lemmaUrl": "http://baike.baidu.com/item/%E8%91%A1%E8%90%84%E7%90%83%E8%8F%8C%E6%84%9F%E6%9F%93/130585", "lemmaPic": []}, {"lemmaId": 2045053, "lemmaTitle": "腺瘤", "lemmaCroppedTitle": "腺瘤", "lemmaDesc": "腺瘤为腺上皮发生的良性肿瘤。见于乳腺、垂体、甲状腺、卵巢等内分泌腺和胃、肠、肝等...", "lemmaUrl": "http://baike.baidu.com/item/%E8%85%BA%E7%98%A4/2045053", "lemmaPic": []}, {"lemmaId": 8853792, "lemmaTitle": "心脏传导阻滞", "lemmaCroppedTitle": "心脏传导阻滞", "lemmaDesc": "心脏传导阻滞是指冲动在心脏传导系统的任何部位的传导均可发生减慢或阻滞。如发生在窦...", "lemmaUrl": "http://baike.baidu.com/item/%E5%BF%83%E8%84%8F%E4%BC%A0%E5%AF%BC%E9%98%BB%E6%BB%9E/8853792", "lemmaPic": []}, {"lemmaId": 3054809, "lemmaTitle": "处女膜闭锁", "lemmaCroppedTitle": "处女膜闭锁", "lemmaDesc": "处女膜是位于阴道外口和会阴的交界处的膜性组织，正常处女膜分为有孔型、半月型、筛状...", "lemmaUrl": "http://baike.baidu.com/item/%E5%A4%84%E5%A5%B3%E8%86%9C%E9%97%AD%E9%94%81/3054809", "lemmaPic": []}, {"lemmaId": 10825419, "lemmaTitle": "白浊", "lemmaCroppedTitle": "白浊", "lemmaDesc": "白浊，又称尿精，系指在排尿后或排尿时从尿道口滴出白色浊物，可伴小便涩痛的一种病证...", "lemmaUrl": "http://baike.baidu.com/item/%E7%99%BD%E6%B5%8A/10825419", "lemmaPic": []}, {"lemmaId": 2103422, "lemmaTitle": "血管性水肿", "lemmaCroppedTitle": "血管性水肿", "lemmaDesc": "血管性水肿，又称血管神经性水肿、巨大性荨麻疹。血管性水肿的病变累及皮肤深层（包括...", "lemmaUrl": "http://baike.baidu.com/item/%E8%A1%80%E7%AE%A1%E6%80%A7%E6%B0%B4%E8%82%BF/2103422", "lemmaPic": []}, {"lemmaId": 9327726, "lemmaTitle": "掌跖脓疱病", "lemmaCroppedTitle": "掌跖脓疱病", "lemmaDesc": "掌跖脓疱病是指局限于掌跖部的慢性复发性疾病，以在红斑的基础上出现周期性的无菌性小...", "lemmaUrl": "http://baike.baidu.com/item/%E6%8E%8C%E8%B7%96%E8%84%93%E7%96%B1%E7%97%85/9327726", "lemmaPic": []}, {"lemmaId": 5087057, "lemmaTitle": "髋关节脱位", "lemmaCroppedTitle": "髋关节脱位", "lemmaDesc": "髋关节为杵臼关节，周围有坚韧的韧带以及强大的肌肉瓣保护，因而十分稳定。只有在间接...", "lemmaUrl": "http://baike.baidu.com/item/%E9%AB%8B%E5%85%B3%E8%8A%82%E8%84%B1%E4%BD%8D/5087057", "lemmaPic": []}, {"lemmaId": 10017498, "lemmaTitle": "腮腺肿瘤", "lemmaCroppedTitle": "腮腺肿瘤", "lemmaDesc": "腮腺位于外耳道的前下方，腮腺组织富含脂肪，与周围组织对比明显。腮腺区可发生多种类...", "lemmaUrl": "http://baike.baidu.com/item/%E8%85%AE%E8%85%BA%E8%82%BF%E7%98%A4/10017498", "lemmaPic": []}, {"lemmaId": 4301847, "lemmaTitle": "静脉血栓形成", "lemmaCroppedTitle": "静脉血栓形成", "lemmaDesc": "静脉血栓症有两种：一是血栓性静脉炎，它是指炎症为首发而血栓形成是继发的；另一个是...", "lemmaUrl": "http://baike.baidu.com/item/%E9%9D%99%E8%84%89%E8%A1%80%E6%A0%93%E5%BD%A2%E6%88%90/4301847", "lemmaPic": []}, {"lemmaId": 1645841, "lemmaTitle": "膜性肾病", "lemmaCroppedTitle": "膜性肾病", "lemmaDesc": "膜性肾病是一个病理形态学诊断名词，是导致成人肾病综合征的一个常见病因，其特征性的...", "lemmaUrl": "http://baike.baidu.com/item/%E8%86%9C%E6%80%A7%E8%82%BE%E7%97%85/1645841", "lemmaPic": []}, {"lemmaId": 1223463, "lemmaTitle": "视神经炎", "lemmaCroppedTitle": "视神经炎", "lemmaDesc": "视神经炎（optic neuritis）或视神经乳头炎，是视神经任何部位发炎的总...", "lemmaUrl": "http://baike.baidu.com/item/%E8%A7%86%E7%A5%9E%E7%BB%8F%E7%82%8E/1223463", "lemmaPic": []}, {"lemmaId": 5085060, "lemmaTitle": "恶性黑色素瘤", "lemmaCroppedTitle": "恶性黑色素瘤", "lemmaDesc": "性黑素瘤是由皮肤和其他器官黑素细胞产生的肿瘤。原发性黑素瘤均由表皮内的黑素细胞增...", "lemmaUrl": "http://baike.baidu.com/item/%E6%81%B6%E6%80%A7%E9%BB%91%E8%89%B2%E7%B4%A0%E7%98%A4/5085060", "lemmaPic": []}, {"lemmaId": 7776022, "lemmaTitle": "星形细胞瘤", "lemmaCroppedTitle": "星形细胞瘤", "lemmaDesc": "星形细胞瘤是指以星形胶质细胞所形成的肿瘤，据文献报道星形细胞肿瘤占颅内肿瘤的13...", "lemmaUrl": "http://baike.baidu.com/item/%E6%98%9F%E5%BD%A2%E7%BB%86%E8%83%9E%E7%98%A4/7776022", "lemmaPic": []}, {"lemmaId": 2547698, "lemmaTitle": "小儿肺炎支原体肺炎", "lemmaCroppedTitle": "小儿肺炎支原体肺炎", "lemmaDesc": "小儿肺炎支原体肺炎病原体为肺炎支原体，可散发或有小的流行，全年均可发病。多见于5...", "lemmaUrl": "http://baike.baidu.com/item/%E5%B0%8F%E5%84%BF%E8%82%BA%E7%82%8E%E6%94%AF%E5%8E%9F%E4%BD%93%E8%82%BA%E7%82%8E/2547698", "lemmaPic": []}, {"lemmaId": 10940252, "lemmaTitle": "亨廷顿氏舞蹈症", "lemmaCroppedTitle": "亨廷顿氏舞蹈症", "lemmaDesc": "亨廷顿舞蹈病(Huntington’s disease, HD)是一种罕见的常染...", "lemmaUrl": "http://baike.baidu.com/item/%E4%BA%A8%E5%BB%B7%E9%A1%BF%E6%B0%8F%E8%88%9E%E8%B9%88%E7%97%87/10940252", "lemmaPic": []}, {"lemmaId": 3841115, "lemmaTitle": "心源性哮喘", "lemmaCroppedTitle": "心源性哮喘", "lemmaDesc": "心源性哮喘是由于左心衰竭和急性肺水肿等引起的发作性气喘，其发作时的临床表现可与支...", "lemmaUrl": "http://baike.baidu.com/item/%E5%BF%83%E6%BA%90%E6%80%A7%E5%93%AE%E5%96%98/3841115", "lemmaPic": []}, {"lemmaId": 10972403, "lemmaTitle": "怔忡", "lemmaCroppedTitle": "怔忡", "lemmaDesc": "怔忡，为病名，首见于《济生方・惊悸怔忡健忘门》中“惊者，心卒动而不宁也；悸者,心...", "lemmaUrl": "http://baike.baidu.com/item/%E6%80%94%E5%BF%A1/10972403", "lemmaPic": []}, {"lemmaId": 2648008, "lemmaTitle": "骨髓纤维化", "lemmaCroppedTitle": "骨髓纤维化", "lemmaDesc": "骨髓纤维化（MF）简称髓纤。是一种由于骨髓造血组织中胶原增生，其纤维组织严重地影...", "lemmaUrl": "http://baike.baidu.com/item/%E9%AA%A8%E9%AB%93%E7%BA%A4%E7%BB%B4%E5%8C%96/2648008", "lemmaPic": []}, {"lemmaId": 1074448, "lemmaTitle": "阴道前壁膨出", "lemmaCroppedTitle": "阴道前壁膨出", "lemmaDesc": "阴道前壁膨出实际是膀胱和尿道膨出，常伴随排尿功能紊乱。轻度膨出一般无症状；严重脱...", "lemmaUrl": "http://baike.baidu.com/item/%E9%98%B4%E9%81%93%E5%89%8D%E5%A3%81%E8%86%A8%E5%87%BA/1074448", "lemmaPic": []}, {"lemmaId": 9504152, "lemmaTitle": "隐性脊柱裂", "lemmaCroppedTitle": "隐性脊柱裂", "lemmaDesc": "隐性脊柱裂是隐性椎管闭合不全中最为多见的一种，多见于腰骶部，有一个或数个椎骨的椎...", "lemmaUrl": "http://baike.baidu.com/item/%E9%9A%90%E6%80%A7%E8%84%8A%E6%9F%B1%E8%A3%82/9504152", "lemmaPic": []}, {"lemmaId": 1741433, "lemmaTitle": "认知障碍", "lemmaCroppedTitle": "认知障碍", "lemmaDesc": "认知是机体认识和获取知识的智能加工过程，涉及学习、记忆、语言、思维、精神、情感等...", "lemmaUrl": "http://baike.baidu.com/item/%E8%AE%A4%E7%9F%A5%E9%9A%9C%E7%A2%8D/1741433", "lemmaPic": []}, {"lemmaId": 4115300, "lemmaTitle": "牙龈红肿", "lemmaCroppedTitle": "牙龈红肿", "lemmaDesc": "牙龈红肿是指牙齿周围牙龈软组织充血发红、肿胀隆起。多见于牙菌斑生物膜引起的牙龈组...", "lemmaUrl": "http://baike.baidu.com/item/%E7%89%99%E9%BE%88%E7%BA%A2%E8%82%BF/4115300", "lemmaPic": []}], "total": 7246, "totalPage": 73, "page": 13, "fromLemma": 0}