{"lemmaList": [{"lemmaId": 5120308, "lemmaTitle": "听神经鞘瘤", "lemmaCroppedTitle": "听神经鞘瘤", "lemmaDesc": "听神经鞘瘤起源于听神经鞘，是一典型的神经鞘瘤，此瘤为常见的颅内肿瘤之一。本瘤好发...", "lemmaUrl": "http://baike.baidu.com/item/%E5%90%AC%E7%A5%9E%E7%BB%8F%E9%9E%98%E7%98%A4/5120308", "lemmaPic": []}, {"lemmaId": 10108692, "lemmaTitle": "毛囊瘤", "lemmaCroppedTitle": "毛囊瘤", "lemmaDesc": "毛囊瘤又称毛囊上皮瘤或毛囊痣，是一种源于毛囊组织的良性肿瘤。", "lemmaUrl": "http://baike.baidu.com/item/%E6%AF%9B%E5%9B%8A%E7%98%A4/10108692", "lemmaPic": []}, {"lemmaId": 8456058, "lemmaTitle": "混合结缔组织病", "lemmaCroppedTitle": "混合结缔组织病", "lemmaDesc": "混合结缔组织病（MCTD）是一种同时或不同时具有红斑狼疮、皮肌炎或多发性肌炎、硬...", "lemmaUrl": "http://baike.baidu.com/item/%E6%B7%B7%E5%90%88%E7%BB%93%E7%BC%94%E7%BB%84%E7%BB%87%E7%97%85/8456058", "lemmaPic": []}, {"lemmaId": 10639101, "lemmaTitle": "房室折返性心动过速", "lemmaCroppedTitle": "房室折返性心动过速", "lemmaDesc": "房室折返性心动过速（AVRT）的发生率仅次于房室结折返性心动过速（AVNRT），...", "lemmaUrl": "http://baike.baidu.com/item/%E6%88%BF%E5%AE%A4%E6%8A%98%E8%BF%94%E6%80%A7%E5%BF%83%E5%8A%A8%E8%BF%87%E9%80%9F/10639101", "lemmaPic": []}, {"lemmaId": 2095683, "lemmaTitle": "难治性心力衰竭", "lemmaCroppedTitle": "难治性心力衰竭", "lemmaDesc": "部分心衰患者虽经内科优化治疗，但休息时仍有症状，有心源性恶病质，且须长期、反复住...", "lemmaUrl": "http://baike.baidu.com/item/%E9%9A%BE%E6%B2%BB%E6%80%A7%E5%BF%83%E5%8A%9B%E8%A1%B0%E7%AB%AD/2095683", "lemmaPic": []}, {"lemmaId": 7301356, "lemmaTitle": "小儿类风湿病", "lemmaCroppedTitle": "小儿类风湿病", "lemmaDesc": "幼年型类风湿关节炎（JRA），是小儿时期一种常见的结缔组织病，以慢性关节炎为其主...", "lemmaUrl": "http://baike.baidu.com/item/%E5%B0%8F%E5%84%BF%E7%B1%BB%E9%A3%8E%E6%B9%BF%E7%97%85/7301356", "lemmaPic": []}, {"lemmaId": 4962116, "lemmaTitle": "胸椎管狭窄症", "lemmaCroppedTitle": "胸椎管狭窄症", "lemmaDesc": "胸椎管狭窄症是胸椎管横断面减小而产生的胸段脊髓压迫综合征，多见于中年男性，其病因...", "lemmaUrl": "http://baike.baidu.com/item/%E8%83%B8%E6%A4%8E%E7%AE%A1%E7%8B%AD%E7%AA%84%E7%97%87/4962116", "lemmaPic": []}, {"lemmaId": 1964240, "lemmaTitle": "疣状皮肤结核", "lemmaCroppedTitle": "疣状皮肤结核", "lemmaDesc": "疣状皮肤结核为结核杆菌侵害皮肤而引起的皮肤损害，是一种典型的外源性皮肤结核。疣状...", "lemmaUrl": "http://baike.baidu.com/item/%E7%96%A3%E7%8A%B6%E7%9A%AE%E8%82%A4%E7%BB%93%E6%A0%B8/1964240", "lemmaPic": []}, {"lemmaId": 3449598, "lemmaTitle": "上肢深静脉血栓形成", "lemmaCroppedTitle": "上肢深静脉血栓形成", "lemmaDesc": "上肢深静脉血栓形成是指上肢深静脉系统、颈内静脉、头臂干和上腔静脉血栓形成，肢深静...", "lemmaUrl": "http://baike.baidu.com/item/%E4%B8%8A%E8%82%A2%E6%B7%B1%E9%9D%99%E8%84%89%E8%A1%80%E6%A0%93%E5%BD%A2%E6%88%90/3449598", "lemmaPic": []}, {"lemmaId": 799648, "lemmaTitle": "舌扁平苔藓", "lemmaCroppedTitle": "舌扁平苔藓", "lemmaDesc": "扁平苔藓是一种皮肤黏膜慢性炎性疾病，是口腔黏膜的常见病之一。其病因可能与感染、精...", "lemmaUrl": "http://baike.baidu.com/item/%E8%88%8C%E6%89%81%E5%B9%B3%E8%8B%94%E8%97%93/799648", "lemmaPic": []}, {"lemmaId": 10835803, "lemmaTitle": "鼠咬热", "lemmaCroppedTitle": "鼠咬热", "lemmaDesc": "鼠咬热是一种由家鼠或其他啮齿动物咬伤所致的急性传染病。实为两种病原体各异、临床表...", "lemmaUrl": "http://baike.baidu.com/item/%E9%BC%A0%E5%92%AC%E7%83%AD/10835803", "lemmaPic": []}, {"lemmaId": 965374, "lemmaTitle": "志贺菌病", "lemmaCroppedTitle": "志贺菌病", "lemmaDesc": "志贺菌病又称细菌性痢疾（简称菌痢），是由志贺菌引起的一种常见肠道传染病，以往称细...", "lemmaUrl": "http://baike.baidu.com/item/%E5%BF%97%E8%B4%BA%E8%8F%8C%E7%97%85/965374", "lemmaPic": []}, {"lemmaId": 2003558, "lemmaTitle": "子宫内翻", "lemmaCroppedTitle": "子宫内翻", "lemmaDesc": "子宫内翻是指子宫底部向宫腔内陷入，甚至自宫颈翻出的病变，这是一种分娩期少见而严重...", "lemmaUrl": "http://baike.baidu.com/item/%E5%AD%90%E5%AE%AB%E5%86%85%E7%BF%BB/2003558", "lemmaPic": []}, {"lemmaId": 7701190, "lemmaTitle": "心房内传导阻滞", "lemmaCroppedTitle": "心房内传导阻滞", "lemmaDesc": "心房内传导阻滞是一种以P波增宽为主的心电图表现，P波时限超过0.12秒，波峰有切...", "lemmaUrl": "http://baike.baidu.com/item/%E5%BF%83%E6%88%BF%E5%86%85%E4%BC%A0%E5%AF%BC%E9%98%BB%E6%BB%9E/7701190", "lemmaPic": []}, {"lemmaId": 1004400, "lemmaTitle": "前房积血", "lemmaCroppedTitle": "前房积血", "lemmaDesc": "眼球损伤后虹膜血管渗透性增加或由于血管破裂出血，血液积聚在前房称外伤性前房积血。...", "lemmaUrl": "http://baike.baidu.com/item/%E5%89%8D%E6%88%BF%E7%A7%AF%E8%A1%80/1004400", "lemmaPic": []}, {"lemmaId": 6895319, "lemmaTitle": "酒精性脑萎缩", "lemmaCroppedTitle": "酒精性脑萎缩", "lemmaDesc": "酒精性脑萎缩指慢性酒精消耗所致的脑组织容积缩小和功能障碍，特指相对年轻酗酒者、临...", "lemmaUrl": "http://baike.baidu.com/item/%E9%85%92%E7%B2%BE%E6%80%A7%E8%84%91%E8%90%8E%E7%BC%A9/6895319", "lemmaPic": []}, {"lemmaId": 7940048, "lemmaTitle": "谵妄综合征", "lemmaCroppedTitle": "谵妄综合征", "lemmaDesc": "谵妄综合征是一组表现为广泛的认知障碍尤以意识障碍为主要特征的综合征。常因脑部弥漫...", "lemmaUrl": "http://baike.baidu.com/item/%E8%B0%B5%E5%A6%84%E7%BB%BC%E5%90%88%E5%BE%81/7940048", "lemmaPic": []}, {"lemmaId": 8829832, "lemmaTitle": "脑心综合征", "lemmaCroppedTitle": "脑心综合征", "lemmaDesc": "心脑综合征因急性脑病主要为脑出血，蛛网膜下腔出血（SAH）、急性颅脑外伤累及下丘...", "lemmaUrl": "http://baike.baidu.com/item/%E8%84%91%E5%BF%83%E7%BB%BC%E5%90%88%E5%BE%81/8829832", "lemmaPic": []}, {"lemmaId": 1282106, "lemmaTitle": "卵巢无性细胞瘤", "lemmaCroppedTitle": "卵巢无性细胞瘤", "lemmaDesc": "卵巢无性细胞瘤是反映原始生殖细胞的恶性肿瘤。病理形态及组织来源与睾丸精原细胞瘤很...", "lemmaUrl": "http://baike.baidu.com/item/%E5%8D%B5%E5%B7%A2%E6%97%A0%E6%80%A7%E7%BB%86%E8%83%9E%E7%98%A4/1282106", "lemmaPic": []}, {"lemmaId": 1506809, "lemmaTitle": "奶麻", "lemmaCroppedTitle": "奶麻", "lemmaDesc": "奶麻是婴幼儿时期的一种急性出疹性疾病。因感受风热时邪疫毒所致，以哺乳期婴儿骤起高...", "lemmaUrl": "http://baike.baidu.com/item/%E5%A5%B6%E9%BA%BB/1506809", "lemmaPic": []}, {"lemmaId": 4058974, "lemmaTitle": "致心律失常性右室心肌病", "lemmaCroppedTitle": "致心律失常性右室心肌病", "lemmaDesc": "致心律失常性右室心肌病（ARVC），又称致心律失常性右室发育不良，现以ARVD/...", "lemmaUrl": "http://baike.baidu.com/item/%E8%87%B4%E5%BF%83%E5%BE%8B%E5%A4%B1%E5%B8%B8%E6%80%A7%E5%8F%B3%E5%AE%A4%E5%BF%83%E8%82%8C%E7%97%85/4058974", "lemmaPic": []}, {"lemmaId": 7254992, "lemmaTitle": "新型隐球菌性脑膜炎", "lemmaCroppedTitle": "新型隐球菌性脑膜炎", "lemmaDesc": "新型隐球菌性脑膜炎（cryptococcal meningitis）是由新型隐球...", "lemmaUrl": "http://baike.baidu.com/item/%E6%96%B0%E5%9E%8B%E9%9A%90%E7%90%83%E8%8F%8C%E6%80%A7%E8%84%91%E8%86%9C%E7%82%8E/7254992", "lemmaPic": []}, {"lemmaId": 5317168, "lemmaTitle": "眼内异物", "lemmaCroppedTitle": "眼内异物", "lemmaDesc": "眼内异物是一种特殊的眼外伤，较一般眼球旁穿通伤有更大的危害性。异物进入眼球，除了...", "lemmaUrl": "http://baike.baidu.com/item/%E7%9C%BC%E5%86%85%E5%BC%82%E7%89%A9/5317168", "lemmaPic": []}, {"lemmaId": 843960, "lemmaTitle": "透明细胞软骨肉瘤", "lemmaCroppedTitle": "透明细胞软骨肉瘤", "lemmaDesc": "透明细胞软骨肉瘤与成软骨细胞瘤相似，是一种少见的亚型，恶性程度介于Ⅰ-Ⅱ级中心性...", "lemmaUrl": "http://baike.baidu.com/item/%E9%80%8F%E6%98%8E%E7%BB%86%E8%83%9E%E8%BD%AF%E9%AA%A8%E8%82%89%E7%98%A4/843960", "lemmaPic": []}, {"lemmaId": 2252120, "lemmaTitle": "肺出血－肾炎综合征", "lemmaCroppedTitle": "肺出血－肾炎综合征", "lemmaDesc": "肺出血-肾炎综合征可能系病毒感染和/或吸入某些化学性物质引起原发性肺损害。由于肺...", "lemmaUrl": "http://baike.baidu.com/item/%E8%82%BA%E5%87%BA%E8%A1%80%EF%BC%8D%E8%82%BE%E7%82%8E%E7%BB%BC%E5%90%88%E5%BE%81/2252120", "lemmaPic": []}, {"lemmaId": 5277835, "lemmaTitle": "眼球穿通伤", "lemmaCroppedTitle": "眼球穿通伤", "lemmaDesc": "眼球穿通伤是眼球遭受外界锐器刺伤或高速射出的异物碎屑穿破眼球壁而造成的组织损伤。...", "lemmaUrl": "http://baike.baidu.com/item/%E7%9C%BC%E7%90%83%E7%A9%BF%E9%80%9A%E4%BC%A4/5277835", "lemmaPic": []}, {"lemmaId": 2594056, "lemmaTitle": "咽部异物", "lemmaCroppedTitle": "咽部异物", "lemmaDesc": "咽部异物是耳鼻喉科常见急症之一，易被发现和取出。如处理不当，常延误病情，发生严重...", "lemmaUrl": "http://baike.baidu.com/item/%E5%92%BD%E9%83%A8%E5%BC%82%E7%89%A9/2594056", "lemmaPic": []}, {"lemmaId": 7253768, "lemmaTitle": "小儿生长激素缺乏症", "lemmaCroppedTitle": "小儿生长激素缺乏症", "lemmaDesc": "患儿因生长激素（GH）缺乏所导致的矮小，称为生长激素缺乏症，又称为垂体性侏儒症。...", "lemmaUrl": "http://baike.baidu.com/item/%E5%B0%8F%E5%84%BF%E7%94%9F%E9%95%BF%E6%BF%80%E7%B4%A0%E7%BC%BA%E4%B9%8F%E7%97%87/7253768", "lemmaPic": []}, {"lemmaId": 569825, "lemmaTitle": "阴道黑色素瘤", "lemmaCroppedTitle": "阴道黑色素瘤", "lemmaDesc": "阴道黑色素瘤是一种恶性肿瘤，阴道黑色素瘤被认为是来自于阴道黏膜的黑色素细胞，黑色...", "lemmaUrl": "http://baike.baidu.com/item/%E9%98%B4%E9%81%93%E9%BB%91%E8%89%B2%E7%B4%A0%E7%98%A4/569825", "lemmaPic": []}, {"lemmaId": 12810927, "lemmaTitle": "滤泡囊肿", "lemmaCroppedTitle": "滤泡囊肿", "lemmaDesc": "滤泡囊肿是由于卵泡上皮变性、卵泡壁结缔组织增生变厚、卵细胞死亡、卵泡液未被吸收或...", "lemmaUrl": "http://baike.baidu.com/item/%E6%BB%A4%E6%B3%A1%E5%9B%8A%E8%82%BF/12810927", "lemmaPic": []}, {"lemmaId": 10176924, "lemmaTitle": "水杨酸类中毒", "lemmaCroppedTitle": "水杨酸类中毒", "lemmaDesc": "临床常用的水杨酸类药物有阿司匹林（醋柳酸、乙酰水杨酸）、复方阿司匹林、水杨酸钠、...", "lemmaUrl": "http://baike.baidu.com/item/%E6%B0%B4%E6%9D%A8%E9%85%B8%E7%B1%BB%E4%B8%AD%E6%AF%92/10176924", "lemmaPic": []}, {"lemmaId": 3180227, "lemmaTitle": "先天性胫骨假关节", "lemmaCroppedTitle": "先天性胫骨假关节", "lemmaDesc": "先天性胫骨假关节（CPT）是一种罕见的疾病，其特征为胫骨节段性发育异常、无正常骨...", "lemmaUrl": "http://baike.baidu.com/item/%E5%85%88%E5%A4%A9%E6%80%A7%E8%83%AB%E9%AA%A8%E5%81%87%E5%85%B3%E8%8A%82/3180227", "lemmaPic": []}, {"lemmaId": 375339, "lemmaTitle": "灰奶", "lemmaCroppedTitle": "灰奶", "lemmaDesc": "乳汁分泌要经过三个自然阶段，每一阶段都各有其营养特点。开始时的乳汁带蓝色，蛋白质...", "lemmaUrl": "http://baike.baidu.com/item/%E7%81%B0%E5%A5%B6/375339", "lemmaPic": []}, {"lemmaId": 4670822, "lemmaTitle": "先天性巨结肠症", "lemmaCroppedTitle": "先天性巨结肠症", "lemmaDesc": "先天性巨肠是由于直肠或结肠远端的肠管持续痉挛，粪便淤滞的近端结肠，巨结肠肥厚、扩...", "lemmaUrl": "http://baike.baidu.com/item/%E5%85%88%E5%A4%A9%E6%80%A7%E5%B7%A8%E7%BB%93%E8%82%A0%E7%97%87/4670822", "lemmaPic": []}, {"lemmaId": 7453662, "lemmaTitle": "口腔红斑", "lemmaCroppedTitle": "口腔红斑", "lemmaDesc": "口腔红斑（oral erythroplakia），是口腔黏膜上出现鲜红色、天鹅绒...", "lemmaUrl": "http://baike.baidu.com/item/%E5%8F%A3%E8%85%94%E7%BA%A2%E6%96%91/7453662", "lemmaPic": []}, {"lemmaId": 4626020, "lemmaTitle": "继发性甲状旁腺功能亢进", "lemmaCroppedTitle": "继发性甲状旁腺功能亢进", "lemmaDesc": "继发性甲状旁腺功能亢进（SHPT，简称继发性甲旁亢），是指在慢性肾功能不全、肠吸...", "lemmaUrl": "http://baike.baidu.com/item/%E7%BB%A7%E5%8F%91%E6%80%A7%E7%94%B2%E7%8A%B6%E6%97%81%E8%85%BA%E5%8A%9F%E8%83%BD%E4%BA%A2%E8%BF%9B/4626020", "lemmaPic": []}, {"lemmaId": 5057968, "lemmaTitle": "阑尾肿瘤", "lemmaCroppedTitle": "阑尾肿瘤", "lemmaDesc": "阑尾肿瘤少见，一般无症状，常在腹部手术中或尸解时发现，前者以恶性者多，后者以良性...", "lemmaUrl": "http://baike.baidu.com/item/%E9%98%91%E5%B0%BE%E8%82%BF%E7%98%A4/5057968", "lemmaPic": []}, {"lemmaId": 3155119, "lemmaTitle": "自主性高功能性甲状腺腺瘤", "lemmaCroppedTitle": "自主性高功能性甲状腺腺瘤", "lemmaDesc": "自主性高功能性甲状腺腺瘤又称毒性腺瘤、自主性功能亢进性甲状腺腺瘤，是指由甲状腺内...", "lemmaUrl": "http://baike.baidu.com/item/%E8%87%AA%E4%B8%BB%E6%80%A7%E9%AB%98%E5%8A%9F%E8%83%BD%E6%80%A7%E7%94%B2%E7%8A%B6%E8%85%BA%E8%85%BA%E7%98%A4/3155119", "lemmaPic": []}, {"lemmaId": 9554527, "lemmaTitle": "幼年性黄色肉芽肿", "lemmaCroppedTitle": "幼年性黄色肉芽肿", "lemmaDesc": "幼年性黄色肉芽肿（JXG），又称痣性黄色内皮细胞瘤。是好发于皮肤、黏膜和眼的良性...", "lemmaUrl": "http://baike.baidu.com/item/%E5%B9%BC%E5%B9%B4%E6%80%A7%E9%BB%84%E8%89%B2%E8%82%89%E8%8A%BD%E8%82%BF/9554527", "lemmaPic": []}, {"lemmaId": 3419130, "lemmaTitle": "复发性流产", "lemmaCroppedTitle": "复发性流产", "lemmaDesc": "连续发生2次或2次以上的自然流产者称为复发性流产（RSA）。流产是指妊娠28周以...", "lemmaUrl": "http://baike.baidu.com/item/%E5%A4%8D%E5%8F%91%E6%80%A7%E6%B5%81%E4%BA%A7/3419130", "lemmaPic": []}, {"lemmaId": 10976014, "lemmaTitle": "噤口痢", "lemmaCroppedTitle": "噤口痢", "lemmaDesc": "噤口痢是属于痢疾之一。见《丹溪心法・痢》。亦称禁口痢。指患痢疾而见饮食不进，食入...", "lemmaUrl": "http://baike.baidu.com/item/%E5%99%A4%E5%8F%A3%E7%97%A2/10976014", "lemmaPic": []}, {"lemmaId": 2829123, "lemmaTitle": "视神经胶质瘤", "lemmaCroppedTitle": "视神经胶质瘤", "lemmaDesc": "视神经胶质瘤是发生于视神经内胶质细胞的良性肿瘤，可沿视神经向颅内蔓延。多发于学龄...", "lemmaUrl": "http://baike.baidu.com/item/%E8%A7%86%E7%A5%9E%E7%BB%8F%E8%83%B6%E8%B4%A8%E7%98%A4/2829123", "lemmaPic": []}, {"lemmaId": 10085654, "lemmaTitle": "胫骨骨折", "lemmaCroppedTitle": "胫骨骨折", "lemmaDesc": "胫骨骨折包括胫骨干骨折和胫骨平台骨折。胫骨平台骨折是膝关节创伤中最常见的骨折之一...", "lemmaUrl": "http://baike.baidu.com/item/%E8%83%AB%E9%AA%A8%E9%AA%A8%E6%8A%98/10085654", "lemmaPic": []}, {"lemmaId": 2908314, "lemmaTitle": "肝小静脉闭塞症", "lemmaCroppedTitle": "肝小静脉闭塞症", "lemmaDesc": "肝小静脉闭塞症（HVOD），又称窦状隙梗阻综合征，为肝循环的非血栓性梗阻，伴有小...", "lemmaUrl": "http://baike.baidu.com/item/%E8%82%9D%E5%B0%8F%E9%9D%99%E8%84%89%E9%97%AD%E5%A1%9E%E7%97%87/2908314", "lemmaPic": []}, {"lemmaId": 8022691, "lemmaTitle": "转移性肺癌", "lemmaCroppedTitle": "转移性肺癌", "lemmaDesc": "转移性肺癌系指任何部位的恶性肿瘤通过各种转移方式转移至肺部的肿瘤。约60%以上的...", "lemmaUrl": "http://baike.baidu.com/item/%E8%BD%AC%E7%A7%BB%E6%80%A7%E8%82%BA%E7%99%8C/8022691", "lemmaPic": []}, {"lemmaId": 2373063, "lemmaTitle": "畸形性骨炎", "lemmaCroppedTitle": "畸形性骨炎", "lemmaDesc": "畸形性骨炎是一种以局部骨组织破骨与成骨、骨吸收与重建、骨质疏松与钙化并存为病理特...", "lemmaUrl": "http://baike.baidu.com/item/%E7%95%B8%E5%BD%A2%E6%80%A7%E9%AA%A8%E7%82%8E/2373063", "lemmaPic": []}, {"lemmaId": 5086196, "lemmaTitle": "骶髂关节扭伤", "lemmaCroppedTitle": "骶髂关节扭伤", "lemmaDesc": "骶髂关节扭伤多因姿势不正，肌力失调骤然扭转而致。骶髂关节扭伤是因外力作用使该关节...", "lemmaUrl": "http://baike.baidu.com/item/%E9%AA%B6%E9%AB%82%E5%85%B3%E8%8A%82%E6%89%AD%E4%BC%A4/5086196", "lemmaPic": []}, {"lemmaId": 6468030, "lemmaTitle": "肺真菌病", "lemmaCroppedTitle": "肺真菌病", "lemmaDesc": "肺真菌病，是真菌（霉菌）所引起的肺病。从流行病学调查发现人体的真菌感染，很多个别...", "lemmaUrl": "http://baike.baidu.com/item/%E8%82%BA%E7%9C%9F%E8%8F%8C%E7%97%85/6468030", "lemmaPic": []}, {"lemmaId": 1351966, "lemmaTitle": "板层状鱼鳞病", "lemmaCroppedTitle": "板层状鱼鳞病", "lemmaDesc": "板层状鱼鳞病是一种常染色体隐性遗传疾病，患者出生时或不久之后全身被一层火棉胶样膜...", "lemmaUrl": "http://baike.baidu.com/item/%E6%9D%BF%E5%B1%82%E7%8A%B6%E9%B1%BC%E9%B3%9E%E7%97%85/1351966", "lemmaPic": []}, {"lemmaId": 5360146, "lemmaTitle": "维生素E缺乏病", "lemmaCroppedTitle": "维生素E缺乏病", "lemmaDesc": "维生素E缺乏病是由于血中维生素E含量低而引起，主要发生在婴儿，特别是早产儿。成人...", "lemmaUrl": "http://baike.baidu.com/item/%E7%BB%B4%E7%94%9F%E7%B4%A0E%E7%BC%BA%E4%B9%8F%E7%97%85/5360146", "lemmaPic": []}, {"lemmaId": 7832461, "lemmaTitle": "颌骨癌", "lemmaCroppedTitle": "颌骨癌", "lemmaDesc": "颌骨癌，来源于牙源性上皮和面突融合的上皮残余及囊肿和造釉细胞瘤恶变。临床表现为1...", "lemmaUrl": "http://baike.baidu.com/item/%E9%A2%8C%E9%AA%A8%E7%99%8C/7832461", "lemmaPic": []}, {"lemmaId": 8717560, "lemmaTitle": "运动治疗", "lemmaCroppedTitle": "运动治疗", "lemmaDesc": "运动治疗是为了缓解症状或改善功能，根据伤病的特点进行全身或局部的运动以达到治疗目...", "lemmaUrl": "http://baike.baidu.com/item/%E8%BF%90%E5%8A%A8%E6%B2%BB%E7%96%97/8717560", "lemmaPic": []}, {"lemmaId": 1642591, "lemmaTitle": "无症状性脑梗死", "lemmaCroppedTitle": "无症状性脑梗死", "lemmaDesc": "无症状脑梗死（asymptomatic cerebral infarction）...", "lemmaUrl": "http://baike.baidu.com/item/%E6%97%A0%E7%97%87%E7%8A%B6%E6%80%A7%E8%84%91%E6%A2%97%E6%AD%BB/1642591", "lemmaPic": []}, {"lemmaId": 8817386, "lemmaTitle": "非特异性肋软骨炎", "lemmaCroppedTitle": "非特异性肋软骨炎", "lemmaDesc": "非特异性肋软骨炎是肋软骨的非化脓性炎症，1921年由Tietze首先报道，故又称...", "lemmaUrl": "http://baike.baidu.com/item/%E9%9D%9E%E7%89%B9%E5%BC%82%E6%80%A7%E8%82%8B%E8%BD%AF%E9%AA%A8%E7%82%8E/8817386", "lemmaPic": []}, {"lemmaId": 10987819, "lemmaTitle": "神昏", "lemmaCroppedTitle": "神昏", "lemmaDesc": "又称昏愦，病证名。见于《伤寒明理论》。即指神识丧失，对环境刺激缺乏反应的症状。轻...", "lemmaUrl": "http://baike.baidu.com/item/%E7%A5%9E%E6%98%8F/10987819", "lemmaPic": []}, {"lemmaId": 6908663, "lemmaTitle": "小儿肥胖症", "lemmaCroppedTitle": "小儿肥胖症", "lemmaDesc": "医学上对体重超过按身长计算的平均标准体重20%的儿童，称为小儿肥胖症。超过20%...", "lemmaUrl": "http://baike.baidu.com/item/%E5%B0%8F%E5%84%BF%E8%82%A5%E8%83%96%E7%97%87/6908663", "lemmaPic": []}, {"lemmaId": 2596841, "lemmaTitle": "遗忘综合征", "lemmaCroppedTitle": "遗忘综合征", "lemmaDesc": "在19世纪，由俄国神经精神科医师Sergei Korsakoff率先描述了该综合...", "lemmaUrl": "http://baike.baidu.com/item/%E9%81%97%E5%BF%98%E7%BB%BC%E5%90%88%E5%BE%81/2596841", "lemmaPic": []}, {"lemmaId": 9205063, "lemmaTitle": "原发性椎管内肿瘤", "lemmaCroppedTitle": "原发性椎管内肿瘤", "lemmaDesc": "椎管内肿瘤指生长于脊髓本身及椎管内与脊髓相邻近的组织结构（如神经根，硬脊膜、椎管...", "lemmaUrl": "http://baike.baidu.com/item/%E5%8E%9F%E5%8F%91%E6%80%A7%E6%A4%8E%E7%AE%A1%E5%86%85%E8%82%BF%E7%98%A4/9205063", "lemmaPic": []}, {"lemmaId": 10975768, "lemmaTitle": "瘢痕癌", "lemmaCroppedTitle": "瘢痕癌", "lemmaDesc": "瘢痕癌是由各种原因所致皮肤瘢痕或瘢痕疙瘩发生癌变而形成的皮肤癌。瘢痕癌是在瘢痕或...", "lemmaUrl": "http://baike.baidu.com/item/%E7%98%A2%E7%97%95%E7%99%8C/10975768", "lemmaPic": []}, {"lemmaId": 9038201, "lemmaTitle": "进行性脊肌萎缩症", "lemmaCroppedTitle": "进行性脊肌萎缩症", "lemmaDesc": "进行性脊髓性肌萎缩症（SMA）又称脊髓性肌萎缩、脊肌萎缩症，是一类由脊髓前角运动...", "lemmaUrl": "http://baike.baidu.com/item/%E8%BF%9B%E8%A1%8C%E6%80%A7%E8%84%8A%E8%82%8C%E8%90%8E%E7%BC%A9%E7%97%87/9038201", "lemmaPic": []}, {"lemmaId": 7703308, "lemmaTitle": "阴茎损伤", "lemmaCroppedTitle": "阴茎损伤", "lemmaDesc": "阴茎有两条阴茎海绵体和一条尿道海绵体，外面被坚韧的白膜包绕，当有性刺激时，流入阴...", "lemmaUrl": "http://baike.baidu.com/item/%E9%98%B4%E8%8C%8E%E6%8D%9F%E4%BC%A4/7703308", "lemmaPic": []}, {"lemmaId": 5317454, "lemmaTitle": "幼年类风湿关节炎", "lemmaCroppedTitle": "幼年类风湿关节炎", "lemmaDesc": "幼年类风湿关节炎（JRA）是小儿时期一种常见的结缔组织病，以慢性关节炎为其主要特...", "lemmaUrl": "http://baike.baidu.com/item/%E5%B9%BC%E5%B9%B4%E7%B1%BB%E9%A3%8E%E6%B9%BF%E5%85%B3%E8%8A%82%E7%82%8E/5317454", "lemmaPic": []}, {"lemmaId": 8112047, "lemmaTitle": "药物性狼疮", "lemmaCroppedTitle": "药物性狼疮", "lemmaDesc": "药物性狼疮即药物诱发的狼疮，是指服用某些药物后引起的关节痛、皮疹、发热、浆膜炎，...", "lemmaUrl": "http://baike.baidu.com/item/%E8%8D%AF%E7%89%A9%E6%80%A7%E7%8B%BC%E7%96%AE/8112047", "lemmaPic": []}, {"lemmaId": 518936, "lemmaTitle": "耳疔", "lemmaCroppedTitle": "耳疔", "lemmaDesc": "耳疔是指发生于外耳道的疖肿，为外耳道皮肤毛囊或皮脂腺细菌感染，常见于外耳道软骨部...", "lemmaUrl": "http://baike.baidu.com/item/%E8%80%B3%E7%96%94/518936", "lemmaPic": []}, {"lemmaId": 5874628, "lemmaTitle": "新生儿肺不张", "lemmaCroppedTitle": "新生儿肺不张", "lemmaDesc": "新生儿肺不张应指出生后肺从未充盈过气体，而已经充气的肺组织失去原有的气体应称作肺...", "lemmaUrl": "http://baike.baidu.com/item/%E6%96%B0%E7%94%9F%E5%84%BF%E8%82%BA%E4%B8%8D%E5%BC%A0/5874628", "lemmaPic": []}, {"lemmaId": 768546, "lemmaTitle": "枢椎齿状突骨折", "lemmaCroppedTitle": "枢椎齿状突骨折", "lemmaDesc": "枢椎齿状骨折并非少见，在成人颈椎骨折脱位中占10%～15%，任何外伤后出现颈部持...", "lemmaUrl": "http://baike.baidu.com/item/%E6%9E%A2%E6%A4%8E%E9%BD%BF%E7%8A%B6%E7%AA%81%E9%AA%A8%E6%8A%98/768546", "lemmaPic": []}, {"lemmaId": 4663066, "lemmaTitle": "流感嗜血杆菌感染", "lemmaCroppedTitle": "流感嗜血杆菌感染", "lemmaDesc": "流感嗜血杆菌简称流感杆菌，是人类上呼吸道的正常菌群，属嗜血杆菌属，本属细菌因人工...", "lemmaUrl": "http://baike.baidu.com/item/%E6%B5%81%E6%84%9F%E5%97%9C%E8%A1%80%E6%9D%86%E8%8F%8C%E6%84%9F%E6%9F%93/4663066", "lemmaPic": []}, {"lemmaId": 820365, "lemmaTitle": "疱疹样湿疹", "lemmaCroppedTitle": "疱疹样湿疹", "lemmaDesc": "疱疹样湿疹是指在原有的皮肤病基础上感染单纯疱疹病毒或牛痘病毒而发生的一种皮肤病。...", "lemmaUrl": "http://baike.baidu.com/item/%E7%96%B1%E7%96%B9%E6%A0%B7%E6%B9%BF%E7%96%B9/820365", "lemmaPic": []}, {"lemmaId": 3014455, "lemmaTitle": "精神发育迟缓", "lemmaCroppedTitle": "精神发育迟缓", "lemmaDesc": "精神发育迟滞是指个体在发育阶段（通常指18岁以前），由生物学因素、心理社会因素等...", "lemmaUrl": "http://baike.baidu.com/item/%E7%B2%BE%E7%A5%9E%E5%8F%91%E8%82%B2%E8%BF%9F%E7%BC%93/3014455", "lemmaPic": []}, {"lemmaId": 5121806, "lemmaTitle": "血吸虫肠病", "lemmaCroppedTitle": "血吸虫肠病", "lemmaDesc": "血吸虫肠病是由血吸虫所引起的一种疾病。现在已知寄生在人体的血吸虫有5种：日本血吸...", "lemmaUrl": "http://baike.baidu.com/item/%E8%A1%80%E5%90%B8%E8%99%AB%E8%82%A0%E7%97%85/5121806", "lemmaPic": []}, {"lemmaId": 8503998, "lemmaTitle": "新生儿佝偻病", "lemmaCroppedTitle": "新生儿佝偻病", "lemmaDesc": "新生儿佝偻病是由于维生素D和(或)钙磷缺乏引发的钙磷代谢失常，并造成生长中的骨骼...", "lemmaUrl": "http://baike.baidu.com/item/%E6%96%B0%E7%94%9F%E5%84%BF%E4%BD%9D%E5%81%BB%E7%97%85/8503998", "lemmaPic": []}, {"lemmaId": 1427476, "lemmaTitle": "心动过速性心肌病", "lemmaCroppedTitle": "心动过速性心肌病", "lemmaDesc": "长期慢性心动过速或持续快速心脏起搏可引起心脏扩大和心功能不全等类似扩张型心肌病的...", "lemmaUrl": "http://baike.baidu.com/item/%E5%BF%83%E5%8A%A8%E8%BF%87%E9%80%9F%E6%80%A7%E5%BF%83%E8%82%8C%E7%97%85/1427476", "lemmaPic": []}, {"lemmaId": 6690001, "lemmaTitle": "肿瘤分子靶向治疗", "lemmaCroppedTitle": "肿瘤分子靶向治疗", "lemmaDesc": "分子靶向治疗其内涵丰富。简而言之，就是依据已知肿瘤发生中涉及的异常分子和基因，设...", "lemmaUrl": "http://baike.baidu.com/item/%E8%82%BF%E7%98%A4%E5%88%86%E5%AD%90%E9%9D%B6%E5%90%91%E6%B2%BB%E7%96%97/6690001", "lemmaPic": []}, {"lemmaId": 5087169, "lemmaTitle": "屈肌腱损伤", "lemmaCroppedTitle": "屈肌腱损伤", "lemmaDesc": "手部肌腱损伤多为开放性，以切割伤较多，常合并神经血管伤或骨关节损伤，也可发生闭合...", "lemmaUrl": "http://baike.baidu.com/item/%E5%B1%88%E8%82%8C%E8%85%B1%E6%8D%9F%E4%BC%A4/5087169", "lemmaPic": []}, {"lemmaId": 4628937, "lemmaTitle": "弥漫性恶性胸膜间皮瘤", "lemmaCroppedTitle": "弥漫性恶性胸膜间皮瘤", "lemmaDesc": "弥漫性恶性胸膜间皮瘤，以往被称为恶性间皮瘤。恶性间皮瘤是原发于胸膜、侵袭性高的恶...", "lemmaUrl": "http://baike.baidu.com/item/%E5%BC%A5%E6%BC%AB%E6%80%A7%E6%81%B6%E6%80%A7%E8%83%B8%E8%86%9C%E9%97%B4%E7%9A%AE%E7%98%A4/4628937", "lemmaPic": []}, {"lemmaId": 5280275, "lemmaTitle": "真菌性角膜溃疡", "lemmaCroppedTitle": "真菌性角膜溃疡", "lemmaDesc": "真菌性角膜溃疡是一种由真菌引起的致盲率极高的感染性角膜病变。随着抗菌素和糖皮质激...", "lemmaUrl": "http://baike.baidu.com/item/%E7%9C%9F%E8%8F%8C%E6%80%A7%E8%A7%92%E8%86%9C%E6%BA%83%E7%96%A1/5280275", "lemmaPic": []}, {"lemmaId": 5617760, "lemmaTitle": "外阴上皮内瘤变", "lemmaCroppedTitle": "外阴上皮内瘤变", "lemmaDesc": "外阴上皮内瘤变（VIN）是一组外阴病变，是外阴癌的前期病变。年轻患者的VIN常自...", "lemmaUrl": "http://baike.baidu.com/item/%E5%A4%96%E9%98%B4%E4%B8%8A%E7%9A%AE%E5%86%85%E7%98%A4%E5%8F%98/5617760", "lemmaPic": []}, {"lemmaId": 6425355, "lemmaTitle": "胰腺囊腺瘤", "lemmaCroppedTitle": "胰腺囊腺瘤", "lemmaDesc": "胰腺囊腺瘤是一种少见的胰腺外分泌肿瘤。约占胰腺肿瘤的0.6%。胰腺囊腺瘤生长缓慢...", "lemmaUrl": "http://baike.baidu.com/item/%E8%83%B0%E8%85%BA%E5%9B%8A%E8%85%BA%E7%98%A4/6425355", "lemmaPic": []}, {"lemmaId": 7819497, "lemmaTitle": "胸椎间盘突出症", "lemmaCroppedTitle": "胸椎间盘突出症", "lemmaDesc": "胸椎间盘突出症多见于40～50岁左右成年人，男性多于女性，但无明显种族差异，常见...", "lemmaUrl": "http://baike.baidu.com/item/%E8%83%B8%E6%A4%8E%E9%97%B4%E7%9B%98%E7%AA%81%E5%87%BA%E7%97%87/7819497", "lemmaPic": []}, {"lemmaId": 832535, "lemmaTitle": "气性坏疽病", "lemmaCroppedTitle": "气性坏疽病", "lemmaDesc": "气性坏疽病即气性坏疽，是火器伤中最为严重、发展最快的并发症之一，如不及时诊治，可...", "lemmaUrl": "http://baike.baidu.com/item/%E6%B0%94%E6%80%A7%E5%9D%8F%E7%96%BD%E7%97%85/832535", "lemmaPic": []}, {"lemmaId": 6060777, "lemmaTitle": "视网膜动脉阻塞", "lemmaCroppedTitle": "视网膜动脉阻塞", "lemmaDesc": "视网膜中央动脉为终末动脉，它的阻塞引起视网膜急性缺血，视力严重下降，是导致盲目的...", "lemmaUrl": "http://baike.baidu.com/item/%E8%A7%86%E7%BD%91%E8%86%9C%E5%8A%A8%E8%84%89%E9%98%BB%E5%A1%9E/6060777", "lemmaPic": []}, {"lemmaId": 5351901, "lemmaTitle": "巨细胞病毒性肺炎", "lemmaCroppedTitle": "巨细胞病毒性肺炎", "lemmaDesc": "巨细胞病毒（CMV）是以受感染细胞形成巨大的A型嗜酸性核内及胞质内包涵体为特征导...", "lemmaUrl": "http://baike.baidu.com/item/%E5%B7%A8%E7%BB%86%E8%83%9E%E7%97%85%E6%AF%92%E6%80%A7%E8%82%BA%E7%82%8E/5351901", "lemmaPic": []}, {"lemmaId": 8294203, "lemmaTitle": "囊状淋巴管瘤", "lemmaCroppedTitle": "囊状淋巴管瘤", "lemmaDesc": "囊状淋巴管瘤又称囊状水瘤，是由原始淋巴管发育增生形成的肿物，是一种先天性发育畸形...", "lemmaUrl": "http://baike.baidu.com/item/%E5%9B%8A%E7%8A%B6%E6%B7%8B%E5%B7%B4%E7%AE%A1%E7%98%A4/8294203", "lemmaPic": []}, {"lemmaId": 10357447, "lemmaTitle": "良性纤维组织细胞瘤", "lemmaCroppedTitle": "良性纤维组织细胞瘤", "lemmaDesc": "良性纤维组织细胞瘤是一种良性肿瘤，起源于组织细胞，类似于组织细胞纤维瘤和骨巨细胞...", "lemmaUrl": "http://baike.baidu.com/item/%E8%89%AF%E6%80%A7%E7%BA%A4%E7%BB%B4%E7%BB%84%E7%BB%87%E7%BB%86%E8%83%9E%E7%98%A4/10357447", "lemmaPic": []}, {"lemmaId": 6003580, "lemmaTitle": "骶尾部畸胎瘤", "lemmaCroppedTitle": "骶尾部畸胎瘤", "lemmaDesc": "骶尾部不仅容易发生畸胎瘤，而且是恶性变多见的部位。全部患者恶性的发生率为10%～...", "lemmaUrl": "http://baike.baidu.com/item/%E9%AA%B6%E5%B0%BE%E9%83%A8%E7%95%B8%E8%83%8E%E7%98%A4/6003580", "lemmaPic": []}, {"lemmaId": 8019369, "lemmaTitle": "妊娠合并缺铁性贫血", "lemmaCroppedTitle": "妊娠合并缺铁性贫血", "lemmaDesc": "缺铁性贫血是妊娠期最常见的一种贫血。正常非孕妇女，铁的微量排泄和代偿摄取量保持着...", "lemmaUrl": "http://baike.baidu.com/item/%E5%A6%8A%E5%A8%A0%E5%90%88%E5%B9%B6%E7%BC%BA%E9%93%81%E6%80%A7%E8%B4%AB%E8%A1%80/8019369", "lemmaPic": []}, {"lemmaId": 10017088, "lemmaTitle": "颅内低压综合征", "lemmaCroppedTitle": "颅内低压综合征", "lemmaDesc": "颅内低压综合征（intracranial hypotension syndrom...", "lemmaUrl": "http://baike.baidu.com/item/%E9%A2%85%E5%86%85%E4%BD%8E%E5%8E%8B%E7%BB%BC%E5%90%88%E5%BE%81/10017088", "lemmaPic": []}, {"lemmaId": 10777710, "lemmaTitle": "牙周萎缩", "lemmaCroppedTitle": "牙周萎缩", "lemmaDesc": "牙周萎缩是指牙周组织的退缩。牙周组织炎症消退后的萎缩，形成萎缩性牙周炎；随年龄的...", "lemmaUrl": "http://baike.baidu.com/item/%E7%89%99%E5%91%A8%E8%90%8E%E7%BC%A9/10777710", "lemmaPic": []}, {"lemmaId": 2075303, "lemmaTitle": "踝部急性韧带损伤", "lemmaCroppedTitle": "踝部急性韧带损伤", "lemmaDesc": "踝关节韧带损伤分为部分断裂和完全性断裂两类，前者称为踝关节的扭伤或捩伤，后者可发...", "lemmaUrl": "http://baike.baidu.com/item/%E8%B8%9D%E9%83%A8%E6%80%A5%E6%80%A7%E9%9F%A7%E5%B8%A6%E6%8D%9F%E4%BC%A4/2075303", "lemmaPic": []}, {"lemmaId": 10361660, "lemmaTitle": "月骨脱位", "lemmaCroppedTitle": "月骨脱位", "lemmaDesc": "月状骨形状特殊，掌侧宽背侧窄。近端与桡骨形成关节，远端与头状骨、一小部分钩骨形成...", "lemmaUrl": "http://baike.baidu.com/item/%E6%9C%88%E9%AA%A8%E8%84%B1%E4%BD%8D/10361660", "lemmaPic": []}, {"lemmaId": 1858395, "lemmaTitle": "胆囊良性肿瘤", "lemmaCroppedTitle": "胆囊良性肿瘤", "lemmaDesc": "胆囊良性肿瘤原属少见病。由于影像诊断技术的发展和应用尤其是B超技术在胆道外科的普...", "lemmaUrl": "http://baike.baidu.com/item/%E8%83%86%E5%9B%8A%E8%89%AF%E6%80%A7%E8%82%BF%E7%98%A4/1858395", "lemmaPic": []}, {"lemmaId": 2104130, "lemmaTitle": "手足发绀症", "lemmaCroppedTitle": "手足发绀症", "lemmaDesc": "手足发绀症是一种血管痉挛状态，特点为四肢皮肤呈持续、均匀的青紫色，伴有局部皮肤温...", "lemmaUrl": "http://baike.baidu.com/item/%E6%89%8B%E8%B6%B3%E5%8F%91%E7%BB%80%E7%97%87/2104130", "lemmaPic": []}, {"lemmaId": 5798887, "lemmaTitle": "遗传性对称性色素异常症", "lemmaCroppedTitle": "遗传性对称性色素异常症", "lemmaDesc": "遗传性对称性色素异常症，又称对称性肢端色素沉着、对称性点状和网状白斑病。遗传性对...", "lemmaUrl": "http://baike.baidu.com/item/%E9%81%97%E4%BC%A0%E6%80%A7%E5%AF%B9%E7%A7%B0%E6%80%A7%E8%89%B2%E7%B4%A0%E5%BC%82%E5%B8%B8%E7%97%87/5798887", "lemmaPic": []}, {"lemmaId": 700283, "lemmaTitle": "肾结核对侧肾积水", "lemmaCroppedTitle": "肾结核对侧肾积水", "lemmaDesc": "肾结核对侧肾积水是肾结核的晚期并发症，由膀胱，输尿管结核的梗阻性病变引起，主要通...", "lemmaUrl": "http://baike.baidu.com/item/%E8%82%BE%E7%BB%93%E6%A0%B8%E5%AF%B9%E4%BE%A7%E8%82%BE%E7%A7%AF%E6%B0%B4/700283", "lemmaPic": []}, {"lemmaId": 509212, "lemmaTitle": "肥大性脊椎炎", "lemmaCroppedTitle": "肥大性脊椎炎", "lemmaDesc": "所谓肥大性（增生性）脊椎炎，是指因脊椎退行性改变，或以退行性变为主，引起椎节骨与...", "lemmaUrl": "http://baike.baidu.com/item/%E8%82%A5%E5%A4%A7%E6%80%A7%E8%84%8A%E6%A4%8E%E7%82%8E/509212", "lemmaPic": []}, {"lemmaId": 1329983, "lemmaTitle": "涎腺癌", "lemmaCroppedTitle": "涎腺癌", "lemmaDesc": "涎腺癌是由涎腺上皮组织发生的恶性肿瘤，可来源于大涎腺、腮腺、颌下腺和舌下腺，也可...", "lemmaUrl": "http://baike.baidu.com/item/%E6%B6%8E%E8%85%BA%E7%99%8C/1329983", "lemmaPic": []}, {"lemmaId": 3668444, "lemmaTitle": "慢性进行性眼外肌麻痹", "lemmaCroppedTitle": "慢性进行性眼外肌麻痹", "lemmaDesc": "慢性进行性眼外肌麻痹是一种罕见的眼球运动障碍疾病，为慢性、进行性、双侧性病变，以...", "lemmaUrl": "http://baike.baidu.com/item/%E6%85%A2%E6%80%A7%E8%BF%9B%E8%A1%8C%E6%80%A7%E7%9C%BC%E5%A4%96%E8%82%8C%E9%BA%BB%E7%97%B9/3668444", "lemmaPic": []}, {"lemmaId": 2830869, "lemmaTitle": "外耳道真菌病", "lemmaCroppedTitle": "外耳道真菌病", "lemmaDesc": "外耳道真菌病是真菌侵入外耳道或外耳道内的条件致病性真菌，在适宜的条件下繁殖，引起...", "lemmaUrl": "http://baike.baidu.com/item/%E5%A4%96%E8%80%B3%E9%81%93%E7%9C%9F%E8%8F%8C%E7%97%85/2830869", "lemmaPic": []}, {"lemmaId": 5085968, "lemmaTitle": "退变性关节病", "lemmaCroppedTitle": "退变性关节病", "lemmaDesc": "退变性关节病又称退行性关节炎、增生性关节炎、骨关节病等，是由于关节长年累月磨损而...", "lemmaUrl": "http://baike.baidu.com/item/%E9%80%80%E5%8F%98%E6%80%A7%E5%85%B3%E8%8A%82%E7%97%85/5085968", "lemmaPic": []}, {"lemmaId": 6333385, "lemmaTitle": "神经性肌强直", "lemmaCroppedTitle": "神经性肌强直", "lemmaDesc": "神经性肌强直是指由周围神经病变引起的自发性、连续性、肌肉活动性疾病，是一种少见的...", "lemmaUrl": "http://baike.baidu.com/item/%E7%A5%9E%E7%BB%8F%E6%80%A7%E8%82%8C%E5%BC%BA%E7%9B%B4/6333385", "lemmaPic": []}], "total": 7246, "totalPage": 73, "page": 33, "fromLemma": 0}