{"lemmaList": [{"lemmaId": 10882741, "lemmaTitle": "慢性鼻窦炎", "lemmaCroppedTitle": "慢性鼻窦炎", "lemmaDesc": "慢性鼻窦炎为鼻窦的慢性化脓性炎症。较急性者多见，常为多个鼻窦同时受累。慢性鼻窦炎...", "lemmaUrl": "http://baike.baidu.com/item/%E6%85%A2%E6%80%A7%E9%BC%BB%E7%AA%A6%E7%82%8E/10882741", "lemmaPic": []}, {"lemmaId": 5059220, "lemmaTitle": "胆管癌", "lemmaCroppedTitle": "胆管癌", "lemmaDesc": "胆管癌是指源于肝外胆管包括肝门区至胆总管下端的胆管的恶性肿瘤。其病因可能与胆管结...", "lemmaUrl": "http://baike.baidu.com/item/%E8%83%86%E7%AE%A1%E7%99%8C/5059220", "lemmaPic": []}, {"lemmaId": 9302411, "lemmaTitle": "选择恐惧症", "lemmaCroppedTitle": "选择恐惧症", "lemmaDesc": "选择恐惧症，也称作选择困难症。选择恐惧，显而易见是不自信和逃避责任的心理，缺乏自...", "lemmaUrl": "http://baike.baidu.com/item/%E9%80%89%E6%8B%A9%E6%81%90%E6%83%A7%E7%97%87/9302411", "lemmaPic": []}, {"lemmaId": 6006722, "lemmaTitle": "肛门尖锐湿疣", "lemmaCroppedTitle": "肛门尖锐湿疣", "lemmaDesc": "肛门尖锐湿疣是感染人类乳头瘤病毒（HPV）引起的增生性疣状赘生物。主要通过性接触...", "lemmaUrl": "http://baike.baidu.com/item/%E8%82%9B%E9%97%A8%E5%B0%96%E9%94%90%E6%B9%BF%E7%96%A3/6006722", "lemmaPic": []}, {"lemmaId": 2150946, "lemmaTitle": "分离性障碍", "lemmaCroppedTitle": "分离性障碍", "lemmaDesc": "分离性障碍又称分离（转换）障碍，曾称癔症或歇斯底里症。分离性障碍是一类由精神因素...", "lemmaUrl": "http://baike.baidu.com/item/%E5%88%86%E7%A6%BB%E6%80%A7%E9%9A%9C%E7%A2%8D/2150946", "lemmaPic": []}, {"lemmaId": 4395163, "lemmaTitle": "横纹肌溶解综合征", "lemmaCroppedTitle": "横纹肌溶解综合征", "lemmaDesc": "横纹肌溶解综合征是指一系列影响横纹肌细胞膜、膜通道及其能量供应的多种遗传性或获得...", "lemmaUrl": "http://baike.baidu.com/item/%E6%A8%AA%E7%BA%B9%E8%82%8C%E6%BA%B6%E8%A7%A3%E7%BB%BC%E5%90%88%E5%BE%81/4395163", "lemmaPic": []}, {"lemmaId": 2433615, "lemmaTitle": "库欣综合征", "lemmaCroppedTitle": "库欣综合征", "lemmaDesc": "库欣综合征（Cushing syndrome，CS）又称皮质醇增多症（hyper...", "lemmaUrl": "http://baike.baidu.com/item/%E5%BA%93%E6%AC%A3%E7%BB%BC%E5%90%88%E5%BE%81/2433615", "lemmaPic": []}, {"lemmaId": 722829, "lemmaTitle": "地图舌", "lemmaCroppedTitle": "地图舌", "lemmaDesc": "地图舌是一种发生在舌黏膜浅层的慢性边缘剥脱性舌炎。由于它的病损表现在舌面的不同部...", "lemmaUrl": "http://baike.baidu.com/item/%E5%9C%B0%E5%9B%BE%E8%88%8C/722829", "lemmaPic": []}, {"lemmaId": 2250252, "lemmaTitle": "大叶性肺炎", "lemmaCroppedTitle": "大叶性肺炎", "lemmaDesc": "大叶性肺炎，又名肺炎球菌肺炎，是由肺炎双球菌等细菌感染引起的呈大叶性分布的肺部急...", "lemmaUrl": "http://baike.baidu.com/item/%E5%A4%A7%E5%8F%B6%E6%80%A7%E8%82%BA%E7%82%8E/2250252", "lemmaPic": []}, {"lemmaId": 3270216, "lemmaTitle": "运动神经元病", "lemmaCroppedTitle": "运动神经元病", "lemmaDesc": "运动神经元病（MND）是一组病因未明的选择性侵犯脊髓前角细胞、脑干运动神经元、皮...", "lemmaUrl": "http://baike.baidu.com/item/%E8%BF%90%E5%8A%A8%E7%A5%9E%E7%BB%8F%E5%85%83%E7%97%85/3270216", "lemmaPic": []}, {"lemmaId": 11017671, "lemmaTitle": "隐睾", "lemmaCroppedTitle": "隐睾", "lemmaDesc": "隐睾是指睾丸未下降至阴囊，包括睾丸下降不全和睾丸异位。临床上绝大多数隐睾为睾丸下...", "lemmaUrl": "http://baike.baidu.com/item/%E9%9A%90%E7%9D%BE/11017671", "lemmaPic": []}, {"lemmaId": 85437, "lemmaTitle": "胎儿", "lemmaCroppedTitle": "胎儿", "lemmaDesc": "胎儿，是指妊娠8周以后的胎体。妊娠4～8周娩出的胎体为胚胎。胚胎期重要器官逐渐形...", "lemmaUrl": "http://baike.baidu.com/item/%E8%83%8E%E5%84%BF/85437", "lemmaPic": []}, {"lemmaId": 5234241, "lemmaTitle": "睡眠瘫痪症", "lemmaCroppedTitle": "睡眠瘫痪症", "lemmaDesc": "有人在睡觉时，会出现一种睡眠障碍：睡眠处于半睡半醒的状况，同时还出现各种各样的幻...", "lemmaUrl": "http://baike.baidu.com/item/%E7%9D%A1%E7%9C%A0%E7%98%AB%E7%97%AA%E7%97%87/5234241", "lemmaPic": []}, {"lemmaId": 2237155, "lemmaTitle": "额窦炎", "lemmaCroppedTitle": "额窦炎", "lemmaDesc": "额窦炎可分为急性额窦炎和慢性额窦炎。急性额窦炎为急性化脓性鼻窦炎，即鼻窦黏膜的一...", "lemmaUrl": "http://baike.baidu.com/item/%E9%A2%9D%E7%AA%A6%E7%82%8E/2237155", "lemmaPic": []}, {"lemmaId": 10881560, "lemmaTitle": "前列腺结石", "lemmaCroppedTitle": "前列腺结石", "lemmaDesc": "前列腺结石是在前列腺腺泡和腺管内形成的真性结石，可小如粟米，大如豌豆，可呈圆形或...", "lemmaUrl": "http://baike.baidu.com/item/%E5%89%8D%E5%88%97%E8%85%BA%E7%BB%93%E7%9F%B3/10881560", "lemmaPic": []}, {"lemmaId": 5491449, "lemmaTitle": "溶血性黄疸", "lemmaCroppedTitle": "溶血性黄疸", "lemmaDesc": "黄疸是由于血清中胆红素升高致使皮肤、巩膜及黏膜发黄的症状和体征。正常胆红素最高为...", "lemmaUrl": "http://baike.baidu.com/item/%E6%BA%B6%E8%A1%80%E6%80%A7%E9%BB%84%E7%96%B8/5491449", "lemmaPic": []}, {"lemmaId": 1823616, "lemmaTitle": "晕厥", "lemmaCroppedTitle": "晕厥", "lemmaDesc": "晕厥是因各种原因导致一过性脑供血不足引起的意识障碍。", "lemmaUrl": "http://baike.baidu.com/item/%E6%99%95%E5%8E%A5/1823616", "lemmaPic": []}, {"lemmaId": 544496, "lemmaTitle": "烧伤", "lemmaCroppedTitle": "烧伤", "lemmaDesc": "一般指热力，包括热液（水、汤、油等）、蒸气、高温气体、火焰、炽热金属液体或固体（...", "lemmaUrl": "http://baike.baidu.com/item/%E7%83%A7%E4%BC%A4/544496", "lemmaPic": []}, {"lemmaId": 1800809, "lemmaTitle": "自身免疫性疾病", "lemmaCroppedTitle": "自身免疫性疾病", "lemmaDesc": "自身免疫性疾病是指机体对自身抗原发生免疫反应而导致自身组织损害所引起的疾病。许多...", "lemmaUrl": "http://baike.baidu.com/item/%E8%87%AA%E8%BA%AB%E5%85%8D%E7%96%AB%E6%80%A7%E7%96%BE%E7%97%85/1800809", "lemmaPic": []}, {"lemmaId": 5056307, "lemmaTitle": "慢性胰腺炎", "lemmaCroppedTitle": "慢性胰腺炎", "lemmaDesc": "慢性胰腺炎（Chronic Pancreatitis，CP）发病率逐年增加，是各...", "lemmaUrl": "http://baike.baidu.com/item/%E6%85%A2%E6%80%A7%E8%83%B0%E8%85%BA%E7%82%8E/5056307", "lemmaPic": []}, {"lemmaId": 2129452, "lemmaTitle": "前列腺囊肿", "lemmaCroppedTitle": "前列腺囊肿", "lemmaDesc": "前列腺囊肿是由于前列腺腺体先天性或后天性原因而发生囊样改变。先天性囊肿为副肾管退...", "lemmaUrl": "http://baike.baidu.com/item/%E5%89%8D%E5%88%97%E8%85%BA%E5%9B%8A%E8%82%BF/2129452", "lemmaPic": []}, {"lemmaId": 5085474, "lemmaTitle": "高钾血症", "lemmaCroppedTitle": "高钾血症", "lemmaDesc": "钾离子是细胞内液中含量最高的阳离子，且主要呈结合状态，直接参与细胞内的代谢活动。...", "lemmaUrl": "http://baike.baidu.com/item/%E9%AB%98%E9%92%BE%E8%A1%80%E7%97%87/5085474", "lemmaPic": []}, {"lemmaId": 775236, "lemmaTitle": "水俣病", "lemmaCroppedTitle": "水俣病", "lemmaDesc": "水俣病是因食入被有机汞污染河水中的鱼、贝类所引起的甲基汞为主的有机汞中毒或是孕妇...", "lemmaUrl": "http://baike.baidu.com/item/%E6%B0%B4%E4%BF%A3%E7%97%85/775236", "lemmaPic": []}, {"lemmaId": 4071534, "lemmaTitle": "前列腺疾病", "lemmaCroppedTitle": "前列腺疾病", "lemmaDesc": "前列腺疾病是成年男性的常见疾病，通常指前列腺炎、前列腺增生及前列腺癌等。1.前列...", "lemmaUrl": "http://baike.baidu.com/item/%E5%89%8D%E5%88%97%E8%85%BA%E7%96%BE%E7%97%85/4071534", "lemmaPic": []}, {"lemmaId": 1385837, "lemmaTitle": "原发性肝癌", "lemmaCroppedTitle": "原发性肝癌", "lemmaDesc": "原发性肝癌是我国常见的恶性肿瘤之一，高发于东南沿海地区。我国肝癌病人的中位年龄为...", "lemmaUrl": "http://baike.baidu.com/item/%E5%8E%9F%E5%8F%91%E6%80%A7%E8%82%9D%E7%99%8C/1385837", "lemmaPic": []}, {"lemmaId": 989084, "lemmaTitle": "老花眼", "lemmaCroppedTitle": "老花眼", "lemmaDesc": "老花眼即老视是一种生理现象，不是病理状态也不属于屈光不正，是人们步入中老年后必然...", "lemmaUrl": "http://baike.baidu.com/item/%E8%80%81%E8%8A%B1%E7%9C%BC/989084", "lemmaPic": []}, {"lemmaId": 13479167, "lemmaTitle": "关节退行性病变", "lemmaCroppedTitle": "关节退行性病变", "lemmaDesc": "关节退行性病变又称骨质增生，即骨的退行性病变，是关节炎的一种表现。本病的致病因素...", "lemmaUrl": "http://baike.baidu.com/item/%E5%85%B3%E8%8A%82%E9%80%80%E8%A1%8C%E6%80%A7%E7%97%85%E5%8F%98/13479167", "lemmaPic": []}, {"lemmaId": 10586165, "lemmaTitle": "超忆症", "lemmaCroppedTitle": "超忆症", "lemmaDesc": "超忆症是一种极为罕见的医学异象，属于无选择记忆的分支，临床表现为大脑拥有自动记忆...", "lemmaUrl": "http://baike.baidu.com/item/%E8%B6%85%E5%BF%86%E7%97%87/10586165", "lemmaPic": []}, {"lemmaId": 1069769, "lemmaTitle": "腹股沟疝", "lemmaCroppedTitle": "腹股沟疝", "lemmaDesc": "腹股沟区是位于下腹壁与大腿交界的三角区，腹股沟疝是指腹腔内脏器通过腹股沟区的缺损...", "lemmaUrl": "http://baike.baidu.com/item/%E8%85%B9%E8%82%A1%E6%B2%9F%E7%96%9D/1069769", "lemmaPic": []}, {"lemmaId": 5897845, "lemmaTitle": "膝关节炎", "lemmaCroppedTitle": "膝关节炎", "lemmaDesc": "膝关节炎是一种以退行性病理改变为基础的疾患。多患于中老年人群，其症状多表现为膝盖...", "lemmaUrl": "http://baike.baidu.com/item/%E8%86%9D%E5%85%B3%E8%8A%82%E7%82%8E/5897845", "lemmaPic": []}, {"lemmaId": 2827063, "lemmaTitle": "疑病症", "lemmaCroppedTitle": "疑病症", "lemmaDesc": "疑病症又称疑病性神经症，目前归类为躯体形式障碍中，主要指患者担心或相信患有一种或...", "lemmaUrl": "http://baike.baidu.com/item/%E7%96%91%E7%97%85%E7%97%87/2827063", "lemmaPic": []}, {"lemmaId": 5085951, "lemmaTitle": "痛风性关节炎", "lemmaCroppedTitle": "痛风性关节炎", "lemmaDesc": "痛风性关节炎是由于尿酸盐沉积在关节囊、滑囊、软骨、骨质和其他组织中而引起病损及炎...", "lemmaUrl": "http://baike.baidu.com/item/%E7%97%9B%E9%A3%8E%E6%80%A7%E5%85%B3%E8%8A%82%E7%82%8E/5085951", "lemmaPic": []}, {"lemmaId": 3120826, "lemmaTitle": "骨质疏松症", "lemmaCroppedTitle": "骨质疏松症", "lemmaDesc": "骨质疏松症（osteoporosis）是由于多种原因导致的骨密度和骨质量下降，骨...", "lemmaUrl": "http://baike.baidu.com/item/%E9%AA%A8%E8%B4%A8%E7%96%8F%E6%9D%BE%E7%97%87/3120826", "lemmaPic": []}, {"lemmaId": 3438710, "lemmaTitle": "软组织损伤", "lemmaCroppedTitle": "软组织损伤", "lemmaDesc": "软组织损伤指软组织或骨骼肌肉受到直接或间接暴力，或长期慢性劳损引起的一大类创伤综...", "lemmaUrl": "http://baike.baidu.com/item/%E8%BD%AF%E7%BB%84%E7%BB%87%E6%8D%9F%E4%BC%A4/3438710", "lemmaPic": []}, {"lemmaId": 7727525, "lemmaTitle": "小儿抽动症", "lemmaCroppedTitle": "小儿抽动症", "lemmaDesc": "小儿抽动症即小儿多发性抽动症（MT）也称抽动秽语综合征、Tourette综合征、...", "lemmaUrl": "http://baike.baidu.com/item/%E5%B0%8F%E5%84%BF%E6%8A%BD%E5%8A%A8%E7%97%87/7727525", "lemmaPic": []}, {"lemmaId": 8441593, "lemmaTitle": "鼻咽炎", "lemmaCroppedTitle": "鼻咽炎", "lemmaDesc": "鼻咽部黏膜、黏膜下和淋巴组织的炎症即为鼻咽炎，分为急性鼻咽炎和慢性鼻咽炎。鼻咽炎...", "lemmaUrl": "http://baike.baidu.com/item/%E9%BC%BB%E5%92%BD%E7%82%8E/8441593", "lemmaPic": []}, {"lemmaId": 2830798, "lemmaTitle": "分泌性中耳炎", "lemmaCroppedTitle": "分泌性中耳炎", "lemmaDesc": "分泌性中耳炎是以中耳积液及听力下降为特征的中耳非化脓性炎性疾病，又称为渗出性中耳...", "lemmaUrl": "http://baike.baidu.com/item/%E5%88%86%E6%B3%8C%E6%80%A7%E4%B8%AD%E8%80%B3%E7%82%8E/2830798", "lemmaPic": []}, {"lemmaId": 2200097, "lemmaTitle": "酒精性脂肪肝", "lemmaCroppedTitle": "酒精性脂肪肝", "lemmaDesc": "酒精性脂肪肝是由于长期大量饮酒导致的肝脏疾病，是酒精性肝病中的一个分型。患者有长...", "lemmaUrl": "http://baike.baidu.com/item/%E9%85%92%E7%B2%BE%E6%80%A7%E8%84%82%E8%82%AA%E8%82%9D/2200097", "lemmaPic": []}, {"lemmaId": 767228, "lemmaTitle": "睡眠障碍", "lemmaCroppedTitle": "睡眠障碍", "lemmaDesc": "睡眠量不正常以及睡眠中出现异常行为的表现o也是睡眠和觉醒正常节律性交替紊乱的表现...", "lemmaUrl": "http://baike.baidu.com/item/%E7%9D%A1%E7%9C%A0%E9%9A%9C%E7%A2%8D/767228", "lemmaPic": []}, {"lemmaId": 5859752, "lemmaTitle": "压疮", "lemmaCroppedTitle": "压疮", "lemmaDesc": "压疮又称压力性溃疡、褥疮，是由于局部组织长期受压，发生持续缺血、缺氧、营养不良而...", "lemmaUrl": "http://baike.baidu.com/item/%E5%8E%8B%E7%96%AE/5859752", "lemmaPic": []}, {"lemmaId": 11036338, "lemmaTitle": "小产", "lemmaCroppedTitle": "小产", "lemmaDesc": "小产，中医病名，指妊娠12～28周内，胎儿已成形而自然殒堕为主要表现的疾病。有广...", "lemmaUrl": "http://baike.baidu.com/item/%E5%B0%8F%E4%BA%A7/11036338", "lemmaPic": []}, {"lemmaId": 600670, "lemmaTitle": "结节病", "lemmaCroppedTitle": "结节病", "lemmaDesc": "结节病是一种非干酪样坏死性上皮细胞肉芽肿炎症性疾病，病因不明，以侵犯肺实质为主，...", "lemmaUrl": "http://baike.baidu.com/item/%E7%BB%93%E8%8A%82%E7%97%85/600670", "lemmaPic": []}, {"lemmaId": 3723475, "lemmaTitle": "流行性出血热", "lemmaCroppedTitle": "流行性出血热", "lemmaDesc": "流行性出血热又称肾综合征出血热，是由流行性出血热病毒引起的自然疫源性疾病，流行广...", "lemmaUrl": "http://baike.baidu.com/item/%E6%B5%81%E8%A1%8C%E6%80%A7%E5%87%BA%E8%A1%80%E7%83%AD/3723475", "lemmaPic": []}, {"lemmaId": 6520390, "lemmaTitle": "孕妇痔疮", "lemmaCroppedTitle": "孕妇痔疮", "lemmaDesc": "孕妇是痔疮的高发人群，孕妇痔疮发生率高达76%，痔疮虽然说是“痔”但与身体其他部...", "lemmaUrl": "http://baike.baidu.com/item/%E5%AD%95%E5%A6%87%E7%97%94%E7%96%AE/6520390", "lemmaPic": []}, {"lemmaId": 2825491, "lemmaTitle": "末梢神经炎", "lemmaCroppedTitle": "末梢神经炎", "lemmaDesc": "末梢神经炎系由多种原因引起的多发性末梢神经损害的总称，表现为肢体远端对称性感觉、...", "lemmaUrl": "http://baike.baidu.com/item/%E6%9C%AB%E6%A2%A2%E7%A5%9E%E7%BB%8F%E7%82%8E/2825491", "lemmaPic": []}, {"lemmaId": 973388, "lemmaTitle": "男性更年期", "lemmaCroppedTitle": "男性更年期", "lemmaDesc": "男性更年期是指男性由中年期过渡到老年期的一个特定时期，它是以男性体内激素水平、生...", "lemmaUrl": "http://baike.baidu.com/item/%E7%94%B7%E6%80%A7%E6%9B%B4%E5%B9%B4%E6%9C%9F/973388", "lemmaPic": []}, {"lemmaId": 4737039, "lemmaTitle": "结缔组织病", "lemmaCroppedTitle": "结缔组织病", "lemmaDesc": "结缔组织病是泛指结缔组织受累的疾病，包括红斑狼疮、类风湿关节炎、硬皮病、皮肌炎、...", "lemmaUrl": "http://baike.baidu.com/item/%E7%BB%93%E7%BC%94%E7%BB%84%E7%BB%87%E7%97%85/4737039", "lemmaPic": []}, {"lemmaId": 575284, "lemmaTitle": "口腔念珠菌病", "lemmaCroppedTitle": "口腔念珠菌病", "lemmaDesc": "口腔念珠菌病是真菌―念珠菌属感染所引起的口腔黏膜疾病。近年来，由于抗生素和免疫抑...", "lemmaUrl": "http://baike.baidu.com/item/%E5%8F%A3%E8%85%94%E5%BF%B5%E7%8F%A0%E8%8F%8C%E7%97%85/575284", "lemmaPic": []}, {"lemmaId": 1824036, "lemmaTitle": "急性乳腺炎", "lemmaCroppedTitle": "急性乳腺炎", "lemmaDesc": "急性乳腺炎是乳腺的急性化脓性感染，是乳腺管内和周围结缔组织炎症，多发生于产后哺乳...", "lemmaUrl": "http://baike.baidu.com/item/%E6%80%A5%E6%80%A7%E4%B9%B3%E8%85%BA%E7%82%8E/1824036", "lemmaPic": []}, {"lemmaId": 11015655, "lemmaTitle": "小儿哮喘", "lemmaCroppedTitle": "小儿哮喘", "lemmaDesc": "小儿哮喘（infantile asthma）是小儿常见的肺部疾患，是一种表现反复...", "lemmaUrl": "http://baike.baidu.com/item/%E5%B0%8F%E5%84%BF%E5%93%AE%E5%96%98/11015655", "lemmaPic": []}, {"lemmaId": 6138228, "lemmaTitle": "胎毒", "lemmaCroppedTitle": "胎毒", "lemmaDesc": "胎毒，是产后急性过敏重症的俗称，主要表现为各种皮肤变态反应，如疮疖、疥癣、痘疹等...", "lemmaUrl": "http://baike.baidu.com/item/%E8%83%8E%E6%AF%92/6138228", "lemmaPic": []}, {"lemmaId": 3477, "lemmaTitle": "小儿多动症", "lemmaCroppedTitle": "小儿多动症", "lemmaDesc": "小儿多动症又称注意缺陷多动障碍，是一种以注意力不集中、多动和冲动为主要特征的行为...", "lemmaUrl": "http://baike.baidu.com/item/%E5%B0%8F%E5%84%BF%E5%A4%9A%E5%8A%A8%E7%97%87/3477", "lemmaPic": []}, {"lemmaId": 7862903, "lemmaTitle": "高血压性心脏病", "lemmaCroppedTitle": "高血压性心脏病", "lemmaDesc": "高血压长期控制不佳可引起心脏结构和功能的改变称为高血压性心脏病，包括：早期左室舒...", "lemmaUrl": "http://baike.baidu.com/item/%E9%AB%98%E8%A1%80%E5%8E%8B%E6%80%A7%E5%BF%83%E8%84%8F%E7%97%85/7862903", "lemmaPic": []}, {"lemmaId": 10728741, "lemmaTitle": "口舌生疮", "lemmaCroppedTitle": "口舌生疮", "lemmaDesc": "口舌生疮或溃烂、出现局部疼痛的口腔病。部分患者常反复发作，甚至溃疡久不愈合。多由...", "lemmaUrl": "http://baike.baidu.com/item/%E5%8F%A3%E8%88%8C%E7%94%9F%E7%96%AE/10728741", "lemmaPic": []}, {"lemmaId": 1600311, "lemmaTitle": "EB病毒感染", "lemmaCroppedTitle": "EB病毒感染", "lemmaDesc": "Epstein-Barr病毒（EBV）为疱疹病毒科嗜淋巴细胞病毒属的成员，为95...", "lemmaUrl": "http://baike.baidu.com/item/EB%E7%97%85%E6%AF%92%E6%84%9F%E6%9F%93/1600311", "lemmaPic": []}, {"lemmaId": 1108925, "lemmaTitle": "格林-巴利综合征", "lemmaCroppedTitle": "格林-巴利综合征", "lemmaDesc": "格林-巴利综合征（Guillian-Barre综合征）是常见的脊神经和周围神经的...", "lemmaUrl": "http://baike.baidu.com/item/%E6%A0%BC%E6%9E%97-%E5%B7%B4%E5%88%A9%E7%BB%BC%E5%90%88%E5%BE%81/1108925", "lemmaPic": []}, {"lemmaId": 3691852, "lemmaTitle": "肛窦炎", "lemmaCroppedTitle": "肛窦炎", "lemmaDesc": "肛窦位于肛管齿状线部，相邻两肛柱之基底间，形如半月，开口向上，凹如口袋，深3～5...", "lemmaUrl": "http://baike.baidu.com/item/%E8%82%9B%E7%AA%A6%E7%82%8E/3691852", "lemmaPic": {"width": 140, "height": 117, "url": "https://gss3.bdstatic.com/-Po3dSag_xI4khGkpoWK1HF6hhy/baike/w%3D168/sign=8c7548b1a0ec08fa260017a161ef3d4d/242dd42a2834349b784d828bc9ea15ce36d3be71.jpg"}}, {"lemmaId": 2249561, "lemmaTitle": "弥散性血管内凝血", "lemmaCroppedTitle": "弥散性血管内凝血", "lemmaDesc": "弥散性血管内凝血（disseminated intravascular coag...", "lemmaUrl": "http://baike.baidu.com/item/%E5%BC%A5%E6%95%A3%E6%80%A7%E8%A1%80%E7%AE%A1%E5%86%85%E5%87%9D%E8%A1%80/2249561", "lemmaPic": []}, {"lemmaId": 1246387, "lemmaTitle": "性变态", "lemmaCroppedTitle": "性变态", "lemmaDesc": "性变态旧称性倒错，泛指性爱异常的一种性心理障碍的类别。它包括露阴癖，窥淫解、恋物...", "lemmaUrl": "http://baike.baidu.com/item/%E6%80%A7%E5%8F%98%E6%80%81/1246387", "lemmaPic": []}, {"lemmaId": 6530743, "lemmaTitle": "月经过多", "lemmaCroppedTitle": "月经过多", "lemmaDesc": "月经过多的定义是连续数个月经周期中月经期出血量多，但月经间隔时间及出血时间皆规则...", "lemmaUrl": "http://baike.baidu.com/item/%E6%9C%88%E7%BB%8F%E8%BF%87%E5%A4%9A/6530743", "lemmaPic": []}, {"lemmaId": 5085520, "lemmaTitle": "代谢性酸中毒", "lemmaCroppedTitle": "代谢性酸中毒", "lemmaDesc": "代谢性酸中毒是最常见的一种酸碱平衡紊乱，是细胞外液H+增加或HCO3-丢失而引起...", "lemmaUrl": "http://baike.baidu.com/item/%E4%BB%A3%E8%B0%A2%E6%80%A7%E9%85%B8%E4%B8%AD%E6%AF%92/5085520", "lemmaPic": []}, {"lemmaId": 10835327, "lemmaTitle": "酮症酸中毒", "lemmaCroppedTitle": "酮症酸中毒", "lemmaDesc": "酮体是肝脏中脂肪分解成脂肪酸的中间代谢产物，包括乙酰乙酸、β-羟丁酸和丙酮三种成...", "lemmaUrl": "http://baike.baidu.com/item/%E9%85%AE%E7%97%87%E9%85%B8%E4%B8%AD%E6%AF%92/10835327", "lemmaPic": []}, {"lemmaId": 5359963, "lemmaTitle": "新生儿败血症", "lemmaCroppedTitle": "新生儿败血症", "lemmaDesc": "新生儿败血症是新生儿时期一种严重的感染性疾病。当病原体侵入新生儿血液中并且生长、...", "lemmaUrl": "http://baike.baidu.com/item/%E6%96%B0%E7%94%9F%E5%84%BF%E8%B4%A5%E8%A1%80%E7%97%87/5359963", "lemmaPic": []}, {"lemmaId": 2213550, "lemmaTitle": "不完全性右束支传导阻滞", "lemmaCroppedTitle": "不完全性右束支传导阻滞", "lemmaDesc": "不完全性右束支传导阻滞是临床上常见的心律失常之一，是束支传导阻滞的一种类型，见于...", "lemmaUrl": "http://baike.baidu.com/item/%E4%B8%8D%E5%AE%8C%E5%85%A8%E6%80%A7%E5%8F%B3%E6%9D%9F%E6%94%AF%E4%BC%A0%E5%AF%BC%E9%98%BB%E6%BB%9E/2213550", "lemmaPic": []}, {"lemmaId": 8111205, "lemmaTitle": "干燥性鼻炎", "lemmaCroppedTitle": "干燥性鼻炎", "lemmaDesc": "干燥性鼻炎一般认为长期受外界的物理或化学物质的刺激所致，如长期粉尘的机械性刺激，...", "lemmaUrl": "http://baike.baidu.com/item/%E5%B9%B2%E7%87%A5%E6%80%A7%E9%BC%BB%E7%82%8E/8111205", "lemmaPic": []}, {"lemmaId": 2330879, "lemmaTitle": "性欲亢进", "lemmaCroppedTitle": "性欲亢进", "lemmaDesc": "性欲亢进是指性欲过旺，超过正常性交欲望，出现频繁的性兴奋现象，对性行为迫切要求、...", "lemmaUrl": "http://baike.baidu.com/item/%E6%80%A7%E6%AC%B2%E4%BA%A2%E8%BF%9B/2330879", "lemmaPic": []}, {"lemmaId": 110512, "lemmaTitle": "矽肺", "lemmaCroppedTitle": "矽肺", "lemmaDesc": "矽肺又称硅肺，是尘肺中最为常见的一种类型，是由于长期吸入大量游离二氧化硅粉尘所引...", "lemmaUrl": "http://baike.baidu.com/item/%E7%9F%BD%E8%82%BA/110512", "lemmaPic": []}, {"lemmaId": 1384708, "lemmaTitle": "恶性淋巴瘤", "lemmaCroppedTitle": "恶性淋巴瘤", "lemmaDesc": "恶性淋巴瘤（malignant lymphoma，ML）是一组起源于淋巴造血系统...", "lemmaUrl": "http://baike.baidu.com/item/%E6%81%B6%E6%80%A7%E6%B7%8B%E5%B7%B4%E7%98%A4/1384708", "lemmaPic": []}, {"lemmaId": 1303990, "lemmaTitle": "冬病夏治", "lemmaCroppedTitle": "冬病夏治", "lemmaDesc": "冬病夏治是我国传统中医药疗法中的特色疗法，它是根据《素问・四气调神论》中“春夏养...", "lemmaUrl": "http://baike.baidu.com/item/%E5%86%AC%E7%97%85%E5%A4%8F%E6%B2%BB/1303990", "lemmaPic": []}, {"lemmaId": 768713, "lemmaTitle": "椎间盘突出症", "lemmaCroppedTitle": "椎间盘突出症", "lemmaDesc": "椎间盘突出症是临床上较为常见的脊柱疾病之一。主要是因为椎间盘各组成部分（髓核、纤...", "lemmaUrl": "http://baike.baidu.com/item/%E6%A4%8E%E9%97%B4%E7%9B%98%E7%AA%81%E5%87%BA%E7%97%87/768713", "lemmaPic": []}, {"lemmaId": 5245182, "lemmaTitle": "胎盘早剥", "lemmaCroppedTitle": "胎盘早剥", "lemmaDesc": "妊娠20周后或分娩期，正常位置的胎盘在胎儿娩出前，部分或全部从子宫壁剥离，称为胎...", "lemmaUrl": "http://baike.baidu.com/item/%E8%83%8E%E7%9B%98%E6%97%A9%E5%89%A5/5245182", "lemmaPic": []}, {"lemmaId": 4073802, "lemmaTitle": "儿童性早熟", "lemmaCroppedTitle": "儿童性早熟", "lemmaDesc": "性早熟是儿科内分泌系统的常见发育异常，是指女童在8岁前，男童在9岁前呈现第二性征...", "lemmaUrl": "http://baike.baidu.com/item/%E5%84%BF%E7%AB%A5%E6%80%A7%E6%97%A9%E7%86%9F/4073802", "lemmaPic": []}, {"lemmaId": 7993958, "lemmaTitle": "急性胆囊炎", "lemmaCroppedTitle": "急性胆囊炎", "lemmaDesc": "急性胆囊炎是由于胆囊管阻塞和细菌侵袭而引起的胆囊炎症；其典型临床特征为右上腹阵发...", "lemmaUrl": "http://baike.baidu.com/item/%E6%80%A5%E6%80%A7%E8%83%86%E5%9B%8A%E7%82%8E/7993958", "lemmaPic": []}, {"lemmaId": 8146543, "lemmaTitle": "电解质紊乱", "lemmaCroppedTitle": "电解质紊乱", "lemmaDesc": "人体血浆中主要的阳离子是Na、K、Ca、Mg，对维持细胞外液的渗透压、体液的分布...", "lemmaUrl": "http://baike.baidu.com/item/%E7%94%B5%E8%A7%A3%E8%B4%A8%E7%B4%8A%E4%B9%B1/8146543", "lemmaPic": []}, {"lemmaId": 695296, "lemmaTitle": "结节性甲状腺肿", "lemmaCroppedTitle": "结节性甲状腺肿", "lemmaDesc": "结节性甲状腺肿，多数有单纯性甲状腺肿病史，至晚期则多形成多发结节。发病率较高。", "lemmaUrl": "http://baike.baidu.com/item/%E7%BB%93%E8%8A%82%E6%80%A7%E7%94%B2%E7%8A%B6%E8%85%BA%E8%82%BF/695296", "lemmaPic": []}, {"lemmaId": 10336058, "lemmaTitle": "滑膜肉瘤", "lemmaCroppedTitle": "滑膜肉瘤", "lemmaDesc": "滑膜肉瘤是源于关节、滑膜及腱鞘滑膜的软组织的恶性肿瘤。以四肢的大关节为好发部位，...", "lemmaUrl": "http://baike.baidu.com/item/%E6%BB%91%E8%86%9C%E8%82%89%E7%98%A4/10336058", "lemmaPic": []}, {"lemmaId": 1674114, "lemmaTitle": "大肠息肉", "lemmaCroppedTitle": "大肠息肉", "lemmaDesc": "大肠息肉是指所有向肠腔突出的赘生物的总称，包括肿瘤性赘生物和非肿瘤性赘生物，前者...", "lemmaUrl": "http://baike.baidu.com/item/%E5%A4%A7%E8%82%A0%E6%81%AF%E8%82%89/1674114", "lemmaPic": []}, {"lemmaId": 2433393, "lemmaTitle": "马牙", "lemmaCroppedTitle": "马牙", "lemmaDesc": "大多数婴儿在出生后4～6周时，口腔上腭中线两侧和齿龈边缘出现一些黄白色的小点，很...", "lemmaUrl": "http://baike.baidu.com/item/%E9%A9%AC%E7%89%99/2433393", "lemmaPic": []}, {"lemmaId": 7446879, "lemmaTitle": "烟雾病", "lemmaCroppedTitle": "烟雾病", "lemmaDesc": "烟雾病又名Moyamoya病，脑底异常血管网，是一组以Willis环双侧主要分支...", "lemmaUrl": "http://baike.baidu.com/item/%E7%83%9F%E9%9B%BE%E7%97%85/7446879", "lemmaPic": []}, {"lemmaId": 2258405, "lemmaTitle": "乳头溢液", "lemmaCroppedTitle": "乳头溢液", "lemmaDesc": "乳头溢液是乳腺疾病的常见症状，可分为生理性溢液及病理性溢液。生理性溢液是指妊娠和...", "lemmaUrl": "http://baike.baidu.com/item/%E4%B9%B3%E5%A4%B4%E6%BA%A2%E6%B6%B2/2258405", "lemmaPic": []}, {"lemmaId": 5119819, "lemmaTitle": "膀胱肿瘤", "lemmaCroppedTitle": "膀胱肿瘤", "lemmaDesc": "膀胱肿瘤是泌尿系统中最常见的肿瘤。多数为移行上皮细胞癌。在膀胱侧壁及后壁最多，其...", "lemmaUrl": "http://baike.baidu.com/item/%E8%86%80%E8%83%B1%E8%82%BF%E7%98%A4/5119819", "lemmaPic": []}, {"lemmaId": 18639, "lemmaTitle": "触电", "lemmaCroppedTitle": "触电", "lemmaDesc": "触电是电击伤的俗称，通常是指人体直接触及电源或高压电经过空气或其他导电介质传递电...", "lemmaUrl": "http://baike.baidu.com/item/%E8%A7%A6%E7%94%B5/18639", "lemmaPic": []}, {"lemmaId": 2251386, "lemmaTitle": "二尖瓣关闭不全", "lemmaCroppedTitle": "二尖瓣关闭不全", "lemmaDesc": "正常的二尖瓣关闭功能取决于瓣叶、瓣环、腱索、乳头肌、左心室这5个部分的完整结构和...", "lemmaUrl": "http://baike.baidu.com/item/%E4%BA%8C%E5%B0%96%E7%93%A3%E5%85%B3%E9%97%AD%E4%B8%8D%E5%85%A8/2251386", "lemmaPic": []}, {"lemmaId": 2438381, "lemmaTitle": "膀胱结石", "lemmaCroppedTitle": "膀胱结石", "lemmaDesc": "膀胱结石是指在膀胱内形成的结石，分为原发性膀胱结石和继发性膀胱结石。前者是指在膀...", "lemmaUrl": "http://baike.baidu.com/item/%E8%86%80%E8%83%B1%E7%BB%93%E7%9F%B3/2438381", "lemmaPic": []}, {"lemmaId": 5359121, "lemmaTitle": "小儿支原体肺炎", "lemmaCroppedTitle": "小儿支原体肺炎", "lemmaDesc": "支原体肺炎（mycoplasma pneumonia）又称原发性非典型肺炎、冷凝...", "lemmaUrl": "http://baike.baidu.com/item/%E5%B0%8F%E5%84%BF%E6%94%AF%E5%8E%9F%E4%BD%93%E8%82%BA%E7%82%8E/5359121", "lemmaPic": []}, {"lemmaId": 2995807, "lemmaTitle": "跟腱断裂", "lemmaCroppedTitle": "跟腱断裂", "lemmaDesc": "跟腱是足踝后部人体最强大的肌腱，能承受很大的张力，除个别疾病和特殊的动作外，在日...", "lemmaUrl": "http://baike.baidu.com/item/%E8%B7%9F%E8%85%B1%E6%96%AD%E8%A3%82/2995807", "lemmaPic": []}, {"lemmaId": 10986807, "lemmaTitle": "肾错构瘤", "lemmaCroppedTitle": "肾错构瘤", "lemmaDesc": "肾错构瘤又称为肾血管平滑肌脂肪瘤，是由异常增生的血管、平滑肌及脂肪组织按照不同比...", "lemmaUrl": "http://baike.baidu.com/item/%E8%82%BE%E9%94%99%E6%9E%84%E7%98%A4/10986807", "lemmaPic": []}, {"lemmaId": 5242975, "lemmaTitle": "胸腺瘤", "lemmaCroppedTitle": "胸腺瘤", "lemmaDesc": "胸腺是人体重要的免疫器官，起源于胚胎时期第3（或第4）鳃弓内胚层，系原始前肠上皮...", "lemmaUrl": "http://baike.baidu.com/item/%E8%83%B8%E8%85%BA%E7%98%A4/5242975", "lemmaPic": []}, {"lemmaId": 4664876, "lemmaTitle": "巨人症", "lemmaCroppedTitle": "巨人症", "lemmaDesc": "系腺垂体分泌生长激素（GH）过多所致。青少年因骨骺未闭形成巨人症；青春期后骨骺已...", "lemmaUrl": "http://baike.baidu.com/item/%E5%B7%A8%E4%BA%BA%E7%97%87/4664876", "lemmaPic": []}, {"lemmaId": 9813484, "lemmaTitle": "急性膀胱炎", "lemmaCroppedTitle": "急性膀胱炎", "lemmaDesc": "急性膀胱炎是非特异性细菌感染引起的膀胱壁急性炎症性疾病，为泌尿系常见病。其特点为...", "lemmaUrl": "http://baike.baidu.com/item/%E6%80%A5%E6%80%A7%E8%86%80%E8%83%B1%E7%82%8E/9813484", "lemmaPic": []}, {"lemmaId": 5086573, "lemmaTitle": "脊髓空洞症", "lemmaCroppedTitle": "脊髓空洞症", "lemmaDesc": "脊髓空洞症就是脊髓的一种慢性、进行性的病变。病因不十分清楚，其病变特点是脊髓（主...", "lemmaUrl": "http://baike.baidu.com/item/%E8%84%8A%E9%AB%93%E7%A9%BA%E6%B4%9E%E7%97%87/5086573", "lemmaPic": []}, {"lemmaId": 1918543, "lemmaTitle": "布加综合征", "lemmaCroppedTitle": "布加综合征", "lemmaDesc": "布加综合征由各种原因所致肝静脉和其开口以上段下腔静脉阻塞性病变引起的常伴有下腔静...", "lemmaUrl": "http://baike.baidu.com/item/%E5%B8%83%E5%8A%A0%E7%BB%BC%E5%90%88%E5%BE%81/1918543", "lemmaPic": []}, {"lemmaId": 9137869, "lemmaTitle": "血崩", "lemmaCroppedTitle": "血崩", "lemmaDesc": "血崩亦称崩中、暴崩，指妇女不在经期而突然阴道大量出血的急性病证。本病病因颇多，有...", "lemmaUrl": "http://baike.baidu.com/item/%E8%A1%80%E5%B4%A9/9137869", "lemmaPic": []}, {"lemmaId": 5360811, "lemmaTitle": "弓形虫病", "lemmaCroppedTitle": "弓形虫病", "lemmaDesc": "弓形虫病又称弓形体病，是由刚地弓形虫所引起的人畜共患病。它广泛寄生在人和动物的有...", "lemmaUrl": "http://baike.baidu.com/item/%E5%BC%93%E5%BD%A2%E8%99%AB%E7%97%85/5360811", "lemmaPic": []}, {"lemmaId": 266276, "lemmaTitle": "急性肾功能衰竭", "lemmaCroppedTitle": "急性肾功能衰竭", "lemmaDesc": "急性肾功能衰竭（ARF）是由多种病因引起短时间内肾功能急剧下降，水、电解质和酸碱...", "lemmaUrl": "http://baike.baidu.com/item/%E6%80%A5%E6%80%A7%E8%82%BE%E5%8A%9F%E8%83%BD%E8%A1%B0%E7%AB%AD/266276", "lemmaPic": []}, {"lemmaId": 149552, "lemmaTitle": "自发性气胸", "lemmaCroppedTitle": "自发性气胸", "lemmaDesc": "自发性气胸是指因肺部疾病使肺组织和脏层胸膜破裂，或靠近肺表面的肺大疱、细微气肿疱...", "lemmaUrl": "http://baike.baidu.com/item/%E8%87%AA%E5%8F%91%E6%80%A7%E6%B0%94%E8%83%B8/149552", "lemmaPic": []}, {"lemmaId": 2443215, "lemmaTitle": "胆囊息肉样病变", "lemmaCroppedTitle": "胆囊息肉样病变", "lemmaDesc": "胆囊息肉样病变是泛指胆囊壁向腔内呈息肉状生长的所有非结石性病变总称。胆囊息肉样病...", "lemmaUrl": "http://baike.baidu.com/item/%E8%83%86%E5%9B%8A%E6%81%AF%E8%82%89%E6%A0%B7%E7%97%85%E5%8F%98/2443215", "lemmaPic": []}, {"lemmaId": 259535, "lemmaTitle": "慢性肾盂肾炎", "lemmaCroppedTitle": "慢性肾盂肾炎", "lemmaDesc": "肾盂肾炎（pyelonephritis）是指发生于肾脏和肾盂的炎症，大都由细菌感...", "lemmaUrl": "http://baike.baidu.com/item/%E6%85%A2%E6%80%A7%E8%82%BE%E7%9B%82%E8%82%BE%E7%82%8E/259535", "lemmaPic": []}, {"lemmaId": 5241473, "lemmaTitle": "先天性巨结肠", "lemmaCroppedTitle": "先天性巨结肠", "lemmaDesc": "先天性巨结肠又称希尔施普龙病。由于结肠缺乏神经节细胞导致肠管持续痉挛，粪便淤滞于...", "lemmaUrl": "http://baike.baidu.com/item/%E5%85%88%E5%A4%A9%E6%80%A7%E5%B7%A8%E7%BB%93%E8%82%A0/5241473", "lemmaPic": []}, {"lemmaId": 1575905, "lemmaTitle": "阴道痉挛", "lemmaCroppedTitle": "阴道痉挛", "lemmaDesc": "阴道痉挛是指性交时阴道和盆底肌肉系统不自主的剧烈而持续的收缩，使勃起的阴茎无法插...", "lemmaUrl": "http://baike.baidu.com/item/%E9%98%B4%E9%81%93%E7%97%89%E6%8C%9B/1575905", "lemmaPic": []}], "total": 7246, "totalPage": 73, "page": 8, "fromLemma": 0}