{"lemmaList": [{"lemmaId": 1567579, "lemmaTitle": "小儿家族性自主神经失调综合征", "lemmaCroppedTitle": "小儿家族性自主神经失调综合征", "lemmaDesc": "家族性自主神经失调综合征是一种少见的家族性常染色体隐性遗传病。本病多自出生后即感...", "lemmaUrl": "http://baike.baidu.com/item/%E5%B0%8F%E5%84%BF%E5%AE%B6%E6%97%8F%E6%80%A7%E8%87%AA%E4%B8%BB%E7%A5%9E%E7%BB%8F%E5%A4%B1%E8%B0%83%E7%BB%BC%E5%90%88%E5%BE%81/1567579", "lemmaPic": []}, {"lemmaId": 9261753, "lemmaTitle": "横结肠扭转", "lemmaCroppedTitle": "横结肠扭转", "lemmaDesc": "横结肠扭转是指横结肠袢的扭转，临床少见；常合并其他先天性畸形。当结肠扭转270°...", "lemmaUrl": "http://baike.baidu.com/item/%E6%A8%AA%E7%BB%93%E8%82%A0%E6%89%AD%E8%BD%AC/9261753", "lemmaPic": []}, {"lemmaId": 13551015, "lemmaTitle": "小儿青春期发育迟缓", "lemmaCroppedTitle": "小儿青春期发育迟缓", "lemmaDesc": "小儿青春期发育迟缓亦称青春期延迟是一种青春期发育的异常，表现为青春期的特征比同龄...", "lemmaUrl": "http://baike.baidu.com/item/%E5%B0%8F%E5%84%BF%E9%9D%92%E6%98%A5%E6%9C%9F%E5%8F%91%E8%82%B2%E8%BF%9F%E7%BC%93/13551015", "lemmaPic": []}, {"lemmaId": 12428734, "lemmaTitle": "小儿脓胸", "lemmaCroppedTitle": "小儿脓胸", "lemmaDesc": "脓胸是指胸膜腔内有脓液积聚，故又称为化脓性胸膜炎，在婴幼儿最多见。一般胸腔穿刺液...", "lemmaUrl": "http://baike.baidu.com/item/%E5%B0%8F%E5%84%BF%E8%84%93%E8%83%B8/12428734", "lemmaPic": []}, {"lemmaId": 7253831, "lemmaTitle": "小儿后颅窝室管膜瘤", "lemmaCroppedTitle": "小儿后颅窝室管膜瘤", "lemmaDesc": "室管膜瘤，儿童组发病较成人高，其发生于脑室的室管膜细胞，好发于后颅窝，室管膜瘤和...", "lemmaUrl": "http://baike.baidu.com/item/%E5%B0%8F%E5%84%BF%E5%90%8E%E9%A2%85%E7%AA%9D%E5%AE%A4%E7%AE%A1%E8%86%9C%E7%98%A4/7253831", "lemmaPic": []}, {"lemmaId": 12676625, "lemmaTitle": "小儿喘息样支气管炎", "lemmaCroppedTitle": "小儿喘息样支气管炎", "lemmaDesc": "小儿喘息样支气管炎仅系一临床概念，是指一组有哮喘表现的婴幼儿下呼吸道感染而言，是...", "lemmaUrl": "http://baike.baidu.com/item/%E5%B0%8F%E5%84%BF%E5%96%98%E6%81%AF%E6%A0%B7%E6%94%AF%E6%B0%94%E7%AE%A1%E7%82%8E/12676625", "lemmaPic": []}, {"lemmaId": 12676810, "lemmaTitle": "老年人肝性脑病", "lemmaCroppedTitle": "老年人肝性脑病", "lemmaDesc": "肝性脑病（HE）是由严重肝病或广泛性门-体静脉分流引起的以代谢紊乱为基础的中枢神...", "lemmaUrl": "http://baike.baidu.com/item/%E8%80%81%E5%B9%B4%E4%BA%BA%E8%82%9D%E6%80%A7%E8%84%91%E7%97%85/12676810", "lemmaPic": []}, {"lemmaId": 12021748, "lemmaTitle": "外阴汗腺腺癌", "lemmaCroppedTitle": "外阴汗腺腺癌", "lemmaDesc": "外阴汗腺腺癌是皮肤附件恶性肿瘤。汗腺肿瘤大多为良性肿瘤，汗腺癌仅占12%。外阴汗...", "lemmaUrl": "http://baike.baidu.com/item/%E5%A4%96%E9%98%B4%E6%B1%97%E8%85%BA%E8%85%BA%E7%99%8C/12021748", "lemmaPic": []}, {"lemmaId": 12676617, "lemmaTitle": "小儿肺栓塞", "lemmaCroppedTitle": "小儿肺栓塞", "lemmaDesc": "肺栓塞（pulmonary embolism，PE）是以各种栓子阻塞肺动脉系统为...", "lemmaUrl": "http://baike.baidu.com/item/%E5%B0%8F%E5%84%BF%E8%82%BA%E6%A0%93%E5%A1%9E/12676617", "lemmaPic": []}, {"lemmaId": 13883805, "lemmaTitle": "烧伤创面脓毒症", "lemmaCroppedTitle": "烧伤创面脓毒症", "lemmaDesc": "烧伤创面脓毒症是创面侵入性感染扩散和发展的结果。大量细菌侵入邻近的活组织，菌量超...", "lemmaUrl": "http://baike.baidu.com/item/%E7%83%A7%E4%BC%A4%E5%88%9B%E9%9D%A2%E8%84%93%E6%AF%92%E7%97%87/13883805", "lemmaPic": []}, {"lemmaId": 18277600, "lemmaTitle": "小儿急性髓性白血病", "lemmaCroppedTitle": "小儿急性髓性白血病", "lemmaDesc": "急性髓性白血病（AML）是多能干细胞或已轻度分化的前体细胞核型发生突变所形成的一...", "lemmaUrl": "http://baike.baidu.com/item/%E5%B0%8F%E5%84%BF%E6%80%A5%E6%80%A7%E9%AB%93%E6%80%A7%E7%99%BD%E8%A1%80%E7%97%85/18277600", "lemmaPic": []}, {"lemmaId": 7252833, "lemmaTitle": "眼红外线辐射伤", "lemmaCroppedTitle": "眼红外线辐射伤", "lemmaDesc": "红外线的生物效应主要是热效应。红外线易被深色物体所吸收，高强度的红外线使组织坏死...", "lemmaUrl": "http://baike.baidu.com/item/%E7%9C%BC%E7%BA%A2%E5%A4%96%E7%BA%BF%E8%BE%90%E5%B0%84%E4%BC%A4/7252833", "lemmaPic": []}, {"lemmaId": 12428440, "lemmaTitle": "新生儿先天性胆道闭锁", "lemmaCroppedTitle": "新生儿先天性胆道闭锁", "lemmaDesc": "本病并非罕见，亚洲地区的发病率较白种人国家中为高，女婴约为总发病数的2/3。病因...", "lemmaUrl": "http://baike.baidu.com/item/%E6%96%B0%E7%94%9F%E5%84%BF%E5%85%88%E5%A4%A9%E6%80%A7%E8%83%86%E9%81%93%E9%97%AD%E9%94%81/12428440", "lemmaPic": []}, {"lemmaId": 18277567, "lemmaTitle": "弥漫性实质性肺疾病", "lemmaCroppedTitle": "弥漫性实质性肺疾病", "lemmaDesc": "弥漫性实质性肺疾病（简称DPLD），也称作间质性肺疾病（简称ILD），肺（间质）...", "lemmaUrl": "http://baike.baidu.com/item/%E5%BC%A5%E6%BC%AB%E6%80%A7%E5%AE%9E%E8%B4%A8%E6%80%A7%E8%82%BA%E7%96%BE%E7%97%85/18277567", "lemmaPic": []}, {"lemmaId": 12677322, "lemmaTitle": "多腺体缺陷综合征", "lemmaCroppedTitle": "多腺体缺陷综合征", "lemmaDesc": "多腺体缺陷综合征是自身免疫多腺体综合征（多内分泌缺陷综合征），数个内分泌腺同时发...", "lemmaUrl": "http://baike.baidu.com/item/%E5%A4%9A%E8%85%BA%E4%BD%93%E7%BC%BA%E9%99%B7%E7%BB%BC%E5%90%88%E5%BE%81/12677322", "lemmaPic": []}, {"lemmaId": 12677376, "lemmaTitle": "小儿时期常见的呕吐", "lemmaCroppedTitle": "小儿时期常见的呕吐", "lemmaDesc": "呕吐是小儿时期（婴幼儿和儿童）常见的临床症状之一。几乎任何感染或情绪紧张都可引起...", "lemmaUrl": "http://baike.baidu.com/item/%E5%B0%8F%E5%84%BF%E6%97%B6%E6%9C%9F%E5%B8%B8%E8%A7%81%E7%9A%84%E5%91%95%E5%90%90/12677376", "lemmaPic": []}, {"lemmaId": 12428397, "lemmaTitle": "外伤性食管穿孔", "lemmaCroppedTitle": "外伤性食管穿孔", "lemmaDesc": "外伤性食管穿孔，系指因外来损伤引起的食管破裂，其死亡率可高达50%～66.7%。...", "lemmaUrl": "http://baike.baidu.com/item/%E5%A4%96%E4%BC%A4%E6%80%A7%E9%A3%9F%E7%AE%A1%E7%A9%BF%E5%AD%94/12428397", "lemmaPic": []}, {"lemmaId": 12676778, "lemmaTitle": "老年人腔隙性脑梗死", "lemmaCroppedTitle": "老年人腔隙性脑梗死", "lemmaDesc": "腔隙性脑梗死是老年人最常见的脑血管疾病。占缺血性卒中的20%，发病高峰年龄在60...", "lemmaUrl": "http://baike.baidu.com/item/%E8%80%81%E5%B9%B4%E4%BA%BA%E8%85%94%E9%9A%99%E6%80%A7%E8%84%91%E6%A2%97%E6%AD%BB/12676778", "lemmaPic": []}, {"lemmaId": 16746320, "lemmaTitle": "管状腺瘤（大肠）", "lemmaCroppedTitle": "管状腺瘤（大肠）", "lemmaDesc": "管状腺瘤是大肠腺瘤中最常见的一种。腺瘤系腺体的异常增生，大多呈圆形、椭圆形，表面...", "lemmaUrl": "http://baike.baidu.com/item/%E7%AE%A1%E7%8A%B6%E8%85%BA%E7%98%A4%EF%BC%88%E5%A4%A7%E8%82%A0%EF%BC%89/16746320", "lemmaPic": []}, {"lemmaId": 6424967, "lemmaTitle": "克-雅病性痴呆", "lemmaCroppedTitle": "克-雅病性痴呆", "lemmaDesc": "克-雅病性痴呆是属朊病毒疾病，是由朊蛋白传递所致的中枢神经系统变性疾病。本病潜伏...", "lemmaUrl": "http://baike.baidu.com/item/%E5%85%8B-%E9%9B%85%E7%97%85%E6%80%A7%E7%97%B4%E5%91%86/6424967", "lemmaPic": []}, {"lemmaId": 7252706, "lemmaTitle": "先天性支气管源性囊肿", "lemmaCroppedTitle": "先天性支气管源性囊肿", "lemmaDesc": "先天性支气管源性囊肿也被称为支气管源性囊肿，指以支气管组织成分为囊壁、内含黏液或...", "lemmaUrl": "http://baike.baidu.com/item/%E5%85%88%E5%A4%A9%E6%80%A7%E6%94%AF%E6%B0%94%E7%AE%A1%E6%BA%90%E6%80%A7%E5%9B%8A%E8%82%BF/7252706", "lemmaPic": []}, {"lemmaId": 12428477, "lemmaTitle": "食管创伤", "lemmaCroppedTitle": "食管创伤", "lemmaDesc": "食管从咽部起始就位于脊柱之前，在胸、腹部均受到脊柱的保护，特别是胸内食管，位于后...", "lemmaUrl": "http://baike.baidu.com/item/%E9%A3%9F%E7%AE%A1%E5%88%9B%E4%BC%A4/12428477", "lemmaPic": []}, {"lemmaId": 10295864, "lemmaTitle": "特发于童年的情绪障碍", "lemmaCroppedTitle": "特发于童年的情绪障碍", "lemmaDesc": "特发于童年的情绪障碍发生于儿童期，以心理社会因素为主要病因，表现为焦虑或恐惧情绪...", "lemmaUrl": "http://baike.baidu.com/item/%E7%89%B9%E5%8F%91%E4%BA%8E%E7%AB%A5%E5%B9%B4%E7%9A%84%E6%83%85%E7%BB%AA%E9%9A%9C%E7%A2%8D/10295864", "lemmaPic": []}, {"lemmaId": 12676766, "lemmaTitle": "老年人心脏猝死", "lemmaCroppedTitle": "老年人心脏猝死", "lemmaDesc": "老年人心脏性猝死是指由心脏原因引起的意想不到的，在症状开始1小时内发生的自然死亡...", "lemmaUrl": "http://baike.baidu.com/item/%E8%80%81%E5%B9%B4%E4%BA%BA%E5%BF%83%E8%84%8F%E7%8C%9D%E6%AD%BB/12676766", "lemmaPic": []}, {"lemmaId": 7253237, "lemmaTitle": "掌指骨结核", "lemmaCroppedTitle": "掌指骨结核", "lemmaDesc": "指骨结核与掌骨结核共称短骨的骨干结核，发病率占上肢骨与关节结核的次位，仅低于肘关...", "lemmaUrl": "http://baike.baidu.com/item/%E6%8E%8C%E6%8C%87%E9%AA%A8%E7%BB%93%E6%A0%B8/7253237", "lemmaPic": []}, {"lemmaId": 12677374, "lemmaTitle": "小儿热疮", "lemmaCroppedTitle": "小儿热疮", "lemmaDesc": "小儿热疮是指发热或高热过程中所发生的一种急性疱疹性皮肤病。本病以好发于皮肤黏膜，...", "lemmaUrl": "http://baike.baidu.com/item/%E5%B0%8F%E5%84%BF%E7%83%AD%E7%96%AE/12677374", "lemmaPic": []}, {"lemmaId": 12630016, "lemmaTitle": "小儿神经源性膀胱功能障碍", "lemmaCroppedTitle": "小儿神经源性膀胱功能障碍", "lemmaDesc": "神经源性膀胱功能障碍（NBD）指任何神经病变或损害引起膀胱和（或）尿道括约肌功能...", "lemmaUrl": "http://baike.baidu.com/item/%E5%B0%8F%E5%84%BF%E7%A5%9E%E7%BB%8F%E6%BA%90%E6%80%A7%E8%86%80%E8%83%B1%E5%8A%9F%E8%83%BD%E9%9A%9C%E7%A2%8D/12630016", "lemmaPic": []}, {"lemmaId": 12676553, "lemmaTitle": "小儿癫痫发作诱发失语综合征", "lemmaCroppedTitle": "小儿癫痫发作诱发失语综合征", "lemmaDesc": "小儿癫痫发作诱发失语综合征即Landau-Kleffner综合征，是由于癫痫发作...", "lemmaUrl": "http://baike.baidu.com/item/%E5%B0%8F%E5%84%BF%E7%99%AB%E7%97%AB%E5%8F%91%E4%BD%9C%E8%AF%B1%E5%8F%91%E5%A4%B1%E8%AF%AD%E7%BB%BC%E5%90%88%E5%BE%81/12676553", "lemmaPic": []}, {"lemmaId": 18277521, "lemmaTitle": "儿童普通变异型免疫缺陷", "lemmaCroppedTitle": "儿童普通变异型免疫缺陷", "lemmaDesc": "普通变异型免疫缺陷即普通常见变异型免疫缺陷病（CVID），是一种常见的低丙种球蛋...", "lemmaUrl": "http://baike.baidu.com/item/%E5%84%BF%E7%AB%A5%E6%99%AE%E9%80%9A%E5%8F%98%E5%BC%82%E5%9E%8B%E5%85%8D%E7%96%AB%E7%BC%BA%E9%99%B7/18277521", "lemmaPic": []}, {"lemmaId": 12676514, "lemmaTitle": "小儿遗传性血管神经性水肿", "lemmaCroppedTitle": "小儿遗传性血管神经性水肿", "lemmaDesc": "遗传性血管神经性水肿（Hereditary angioneurotic edem...", "lemmaUrl": "http://baike.baidu.com/item/%E5%B0%8F%E5%84%BF%E9%81%97%E4%BC%A0%E6%80%A7%E8%A1%80%E7%AE%A1%E7%A5%9E%E7%BB%8F%E6%80%A7%E6%B0%B4%E8%82%BF/12676514", "lemmaPic": []}, {"lemmaId": 12810924, "lemmaTitle": "直肠肛管损伤", "lemmaCroppedTitle": "直肠肛管损伤", "lemmaDesc": "直肠、肛管的损伤发生率并不高，但直肠损伤的处理比较复杂，其原因是：直肠内细菌多，...", "lemmaUrl": "http://baike.baidu.com/item/%E7%9B%B4%E8%82%A0%E8%82%9B%E7%AE%A1%E6%8D%9F%E4%BC%A4/12810924", "lemmaPic": []}, {"lemmaId": 12810948, "lemmaTitle": "小儿肺出血-肾炎综合征", "lemmaCroppedTitle": "小儿肺出血-肾炎综合征", "lemmaDesc": "小儿肺出血-肾炎综合征又称Goodpasture综合征肺-肾综合征，本病在临床上...", "lemmaUrl": "http://baike.baidu.com/item/%E5%B0%8F%E5%84%BF%E8%82%BA%E5%87%BA%E8%A1%80-%E8%82%BE%E7%82%8E%E7%BB%BC%E5%90%88%E5%BE%81/12810948", "lemmaPic": []}, {"lemmaId": 1573291, "lemmaTitle": "小儿双唇综合征", "lemmaCroppedTitle": "小儿双唇综合征", "lemmaDesc": "双唇综合征，又称甲状腺肿和双唇综合征、眼睑松弛综合征、Laffer-Ascher...", "lemmaUrl": "http://baike.baidu.com/item/%E5%B0%8F%E5%84%BF%E5%8F%8C%E5%94%87%E7%BB%BC%E5%90%88%E5%BE%81/1573291", "lemmaPic": []}, {"lemmaId": 5660926, "lemmaTitle": "继发性皮肤CD30阳性大细胞淋巴瘤", "lemmaCroppedTitle": "继发性皮肤CD30阳性大细胞淋巴瘤", "lemmaDesc": "继发性皮肤CD30阳性大细胞淋巴瘤包括非MF-CD30阴性皮肤大T细胞淋巴瘤，非...", "lemmaUrl": "http://baike.baidu.com/item/%E7%BB%A7%E5%8F%91%E6%80%A7%E7%9A%AE%E8%82%A4CD30%E9%98%B3%E6%80%A7%E5%A4%A7%E7%BB%86%E8%83%9E%E6%B7%8B%E5%B7%B4%E7%98%A4/5660926", "lemmaPic": []}, {"lemmaId": 12676681, "lemmaTitle": "小儿狼疮肾炎", "lemmaCroppedTitle": "小儿狼疮肾炎", "lemmaDesc": "狼疮肾炎又称系统性红斑狼疮性肾炎是指有肾病临床表现和肾功能异常，或仅在肾活检时发...", "lemmaUrl": "http://baike.baidu.com/item/%E5%B0%8F%E5%84%BF%E7%8B%BC%E7%96%AE%E8%82%BE%E7%82%8E/12676681", "lemmaPic": []}, {"lemmaId": 10614447, "lemmaTitle": "二尖瓣、主动脉瓣和三尖瓣的合并疾患", "lemmaCroppedTitle": "二尖瓣、主动脉瓣和三尖瓣的合并疾患", "lemmaDesc": "二尖瓣、主动脉瓣和三尖瓣的合并疾患通常简称三瓣膜病变，也是一种较为常见的联合瓣膜...", "lemmaUrl": "http://baike.baidu.com/item/%E4%BA%8C%E5%B0%96%E7%93%A3%E3%80%81%E4%B8%BB%E5%8A%A8%E8%84%89%E7%93%A3%E5%92%8C%E4%B8%89%E5%B0%96%E7%93%A3%E7%9A%84%E5%90%88%E5%B9%B6%E7%96%BE%E6%82%A3/10614447", "lemmaPic": []}, {"lemmaId": 12676628, "lemmaTitle": "小儿严重急性呼吸综合征", "lemmaCroppedTitle": "小儿严重急性呼吸综合征", "lemmaDesc": "非典型肺炎于2002年11月开始在广东地区流行，此后相继在香港地区和其他国家陆续...", "lemmaUrl": "http://baike.baidu.com/item/%E5%B0%8F%E5%84%BF%E4%B8%A5%E9%87%8D%E6%80%A5%E6%80%A7%E5%91%BC%E5%90%B8%E7%BB%BC%E5%90%88%E5%BE%81/12676628", "lemmaPic": []}, {"lemmaId": 17661148, "lemmaTitle": "老年退行性心瓣膜病", "lemmaCroppedTitle": "老年退行性心瓣膜病", "lemmaDesc": "老年退行性心瓣膜病又称老年钙化性心瓣膜病，是指原来正常的瓣膜或在轻度瓣膜异常的基...", "lemmaUrl": "http://baike.baidu.com/item/%E8%80%81%E5%B9%B4%E9%80%80%E8%A1%8C%E6%80%A7%E5%BF%83%E7%93%A3%E8%86%9C%E7%97%85/17661148", "lemmaPic": []}, {"lemmaId": 18277532, "lemmaTitle": "脊柱和脊髓损伤", "lemmaCroppedTitle": "脊柱和脊髓损伤", "lemmaDesc": "脊柱和脊髓损伤常发生于工矿、交通事故，战时和自然灾害时可成批发生。伤情严重复杂，...", "lemmaUrl": "http://baike.baidu.com/item/%E8%84%8A%E6%9F%B1%E5%92%8C%E8%84%8A%E9%AB%93%E6%8D%9F%E4%BC%A4/18277532", "lemmaPic": []}, {"lemmaId": 7254343, "lemmaTitle": "股神经干痛", "lemmaCroppedTitle": "股神经干痛", "lemmaDesc": "股神经干痛在临床上并非少见，尤以中年女性为多发。除坐骨神经干外，下肢股神经为最大...", "lemmaUrl": "http://baike.baidu.com/item/%E8%82%A1%E7%A5%9E%E7%BB%8F%E5%B9%B2%E7%97%9B/7254343", "lemmaPic": []}, {"lemmaId": 12428578, "lemmaTitle": "先天性胃出口梗阻", "lemmaCroppedTitle": "先天性胃出口梗阻", "lemmaDesc": "先天性胃出口梗阻指幽门窦部或幽门梗阻，发病率占先天性胃肠道闭锁的1%。可分为4种...", "lemmaUrl": "http://baike.baidu.com/item/%E5%85%88%E5%A4%A9%E6%80%A7%E8%83%83%E5%87%BA%E5%8F%A3%E6%A2%97%E9%98%BB/12428578", "lemmaPic": []}, {"lemmaId": 12676834, "lemmaTitle": "老年甲状腺功能减退症", "lemmaCroppedTitle": "老年甲状腺功能减退症", "lemmaDesc": "老年甲状腺功能减退症（简称甲减），根据起病年龄不同可有各种不同的临床表现。婴幼儿...", "lemmaUrl": "http://baike.baidu.com/item/%E8%80%81%E5%B9%B4%E7%94%B2%E7%8A%B6%E8%85%BA%E5%8A%9F%E8%83%BD%E5%87%8F%E9%80%80%E7%97%87/12676834", "lemmaPic": []}, {"lemmaId": 12806229, "lemmaTitle": "肠病性肢端皮炎综合征", "lemmaCroppedTitle": "肠病性肢端皮炎综合征", "lemmaDesc": "肠病性肢端皮炎综合征是一种罕见的慢性皮肤病。1936年，首先由Brandt报告，...", "lemmaUrl": "http://baike.baidu.com/item/%E8%82%A0%E7%97%85%E6%80%A7%E8%82%A2%E7%AB%AF%E7%9A%AE%E7%82%8E%E7%BB%BC%E5%90%88%E5%BE%81/12806229", "lemmaPic": []}, {"lemmaId": 18277544, "lemmaTitle": "肝炎后再生障碍性贫血", "lemmaCroppedTitle": "肝炎后再生障碍性贫血", "lemmaDesc": "肝炎后再生障碍性贫血，简称肝炎后再障，是一种发生在急性或慢性肝炎后期，以外周全血...", "lemmaUrl": "http://baike.baidu.com/item/%E8%82%9D%E7%82%8E%E5%90%8E%E5%86%8D%E7%94%9F%E9%9A%9C%E7%A2%8D%E6%80%A7%E8%B4%AB%E8%A1%80/18277544", "lemmaPic": []}, {"lemmaId": 15708542, "lemmaTitle": "口腔黏液囊肿", "lemmaCroppedTitle": "口腔黏液囊肿", "lemmaDesc": "黏液囊肿通常是由于黏液腺管阻塞、黏液潴留所致，可发生于唇、颊、舌黏膜，下唇及舌尖...", "lemmaUrl": "http://baike.baidu.com/item/%E5%8F%A3%E8%85%94%E9%BB%8F%E6%B6%B2%E5%9B%8A%E8%82%BF/15708542", "lemmaPic": []}, {"lemmaId": 6425175, "lemmaTitle": "外阴派杰病", "lemmaCroppedTitle": "外阴派杰病", "lemmaDesc": "外阴派杰病是一种外阴恶性肿瘤。多发于绝经前、后妇女。该病的病程缓慢。有特殊的病理...", "lemmaUrl": "http://baike.baidu.com/item/%E5%A4%96%E9%98%B4%E6%B4%BE%E6%9D%B0%E7%97%85/6425175", "lemmaPic": []}, {"lemmaId": 1571376, "lemmaTitle": "小儿曼氏迭宫绦虫病和曼氏裂头蚴病", "lemmaCroppedTitle": "小儿曼氏迭宫绦虫病和曼氏裂头蚴病", "lemmaDesc": "小儿曼氏迭宫绦虫病和曼氏裂头蚴病（pediatric spirometra ma...", "lemmaUrl": "http://baike.baidu.com/item/%E5%B0%8F%E5%84%BF%E6%9B%BC%E6%B0%8F%E8%BF%AD%E5%AE%AB%E7%BB%A6%E8%99%AB%E7%97%85%E5%92%8C%E6%9B%BC%E6%B0%8F%E8%A3%82%E5%A4%B4%E8%9A%B4%E7%97%85/1571376", "lemmaPic": []}, {"lemmaId": 12428959, "lemmaTitle": "枕颈关节损伤", "lemmaCroppedTitle": "枕颈关节损伤", "lemmaDesc": "这种损伤在临床上十分罕见，1枕颈（寰）关节损伤后几乎没有存活者。因为，其中大多数...", "lemmaUrl": "http://baike.baidu.com/item/%E6%9E%95%E9%A2%88%E5%85%B3%E8%8A%82%E6%8D%9F%E4%BC%A4/12428959", "lemmaPic": []}, {"lemmaId": 10226381, "lemmaTitle": "迟发型皮肤卟啉病", "lemmaCroppedTitle": "迟发型皮肤卟啉病", "lemmaDesc": "血红素合成途径中，因某种特异性酶缺乏或活性低下引起的一组卟啉代谢障碍性疾病称为卟...", "lemmaUrl": "http://baike.baidu.com/item/%E8%BF%9F%E5%8F%91%E5%9E%8B%E7%9A%AE%E8%82%A4%E5%8D%9F%E5%95%89%E7%97%85/10226381", "lemmaPic": []}, {"lemmaId": 6425207, "lemmaTitle": "外阴白色病损", "lemmaCroppedTitle": "外阴白色病损", "lemmaDesc": "外阴白色病损是一种妇科病常见症状，主要表现为外阴皮肤出现白色斑块状病变并伴有不同...", "lemmaUrl": "http://baike.baidu.com/item/%E5%A4%96%E9%98%B4%E7%99%BD%E8%89%B2%E7%97%85%E6%8D%9F/6425207", "lemmaPic": []}, {"lemmaId": 12428851, "lemmaTitle": "小儿醛固酮过多症", "lemmaCroppedTitle": "小儿醛固酮过多症", "lemmaDesc": "原发性醛固酮增多症是由于肾上腺皮质球状带产生的醛固酮增多，造成钠潴留，血容量增加...", "lemmaUrl": "http://baike.baidu.com/item/%E5%B0%8F%E5%84%BF%E9%86%9B%E5%9B%BA%E9%85%AE%E8%BF%87%E5%A4%9A%E7%97%87/12428851", "lemmaPic": []}, {"lemmaId": 12676517, "lemmaTitle": "小儿其他沙门菌感染", "lemmaCroppedTitle": "小儿其他沙门菌感染", "lemmaDesc": "小儿其他沙门菌感染是指由伤寒、副伤寒以外的沙门菌感染引起的急性传染病，亦称非伤寒...", "lemmaUrl": "http://baike.baidu.com/item/%E5%B0%8F%E5%84%BF%E5%85%B6%E4%BB%96%E6%B2%99%E9%97%A8%E8%8F%8C%E6%84%9F%E6%9F%93/12676517", "lemmaPic": []}, {"lemmaId": 7253816, "lemmaTitle": "小儿进行性骨干发育不良", "lemmaCroppedTitle": "小儿进行性骨干发育不良", "lemmaDesc": "进行性骨干发育不良（PDD）又称增殖性骨膜炎、对称性硬化性厚骨症、Engelma...", "lemmaUrl": "http://baike.baidu.com/item/%E5%B0%8F%E5%84%BF%E8%BF%9B%E8%A1%8C%E6%80%A7%E9%AA%A8%E5%B9%B2%E5%8F%91%E8%82%B2%E4%B8%8D%E8%89%AF/7253816", "lemmaPic": []}, {"lemmaId": 12676813, "lemmaTitle": "老年人结肠憩室", "lemmaCroppedTitle": "老年人结肠憩室", "lemmaDesc": "结肠憩室是指结肠黏膜经肠壁环行肌层的缺损处疝出而形成的憩室样病变。可发生在肠道的...", "lemmaUrl": "http://baike.baidu.com/item/%E8%80%81%E5%B9%B4%E4%BA%BA%E7%BB%93%E8%82%A0%E6%86%A9%E5%AE%A4/12676813", "lemmaPic": []}, {"lemmaId": 12676519, "lemmaTitle": "小儿嗜血性流行性感冒杆菌脑膜炎", "lemmaCroppedTitle": "小儿嗜血性流行性感冒杆菌脑膜炎", "lemmaDesc": "嗜血性流行性感冒杆菌脑膜炎比较多见，其发病率仅次于流脑及肺炎链球菌脑膜炎，多见于...", "lemmaUrl": "http://baike.baidu.com/item/%E5%B0%8F%E5%84%BF%E5%97%9C%E8%A1%80%E6%80%A7%E6%B5%81%E8%A1%8C%E6%80%A7%E6%84%9F%E5%86%92%E6%9D%86%E8%8F%8C%E8%84%91%E8%86%9C%E7%82%8E/12676519", "lemmaPic": []}, {"lemmaId": 7254691, "lemmaTitle": "腰椎退变性小关节损伤性关节炎", "lemmaCroppedTitle": "腰椎退变性小关节损伤性关节炎", "lemmaDesc": "因退行性改变波及到腰椎后方小关节的一部或全部，呈损伤性关节炎反应，并产生腰腿痛症...", "lemmaUrl": "http://baike.baidu.com/item/%E8%85%B0%E6%A4%8E%E9%80%80%E5%8F%98%E6%80%A7%E5%B0%8F%E5%85%B3%E8%8A%82%E6%8D%9F%E4%BC%A4%E6%80%A7%E5%85%B3%E8%8A%82%E7%82%8E/7254691", "lemmaPic": []}, {"lemmaId": 18277506, "lemmaTitle": "儿童X-连锁淋巴细胞异常增生症", "lemmaCroppedTitle": "儿童X-连锁淋巴细胞异常增生症", "lemmaDesc": "X-连锁淋巴细胞异常增生症（XLP）为一种罕见的T、B淋巴细胞均发生缺陷的联合免...", "lemmaUrl": "http://baike.baidu.com/item/%E5%84%BF%E7%AB%A5X-%E8%BF%9E%E9%94%81%E6%B7%8B%E5%B7%B4%E7%BB%86%E8%83%9E%E5%BC%82%E5%B8%B8%E5%A2%9E%E7%94%9F%E7%97%87/18277506", "lemmaPic": []}, {"lemmaId": 12676761, "lemmaTitle": "老年人甲减性心脏病", "lemmaCroppedTitle": "老年人甲减性心脏病", "lemmaDesc": "甲状腺功能减退性心脏病（甲减心）是由于甲状腺素合成、分泌不足或生物效应不足而引起...", "lemmaUrl": "http://baike.baidu.com/item/%E8%80%81%E5%B9%B4%E4%BA%BA%E7%94%B2%E5%87%8F%E6%80%A7%E5%BF%83%E8%84%8F%E7%97%85/12676761", "lemmaPic": []}, {"lemmaId": 12630015, "lemmaTitle": "小儿磷酸酶过少症", "lemmaCroppedTitle": "小儿磷酸酶过少症", "lemmaDesc": "磷酸酶过少症是一种少见的常染色体隐性遗传性疾病，少数为显性遗传。多发生于小儿，其...", "lemmaUrl": "http://baike.baidu.com/item/%E5%B0%8F%E5%84%BF%E7%A3%B7%E9%85%B8%E9%85%B6%E8%BF%87%E5%B0%91%E7%97%87/12630015", "lemmaPic": []}, {"lemmaId": 12676551, "lemmaTitle": "小儿低氯性氮质血症综合征", "lemmaCroppedTitle": "小儿低氯性氮质血症综合征", "lemmaDesc": "小儿低氯性氮质血症综合征，又名小儿Blum综合征。是一种因肾血流灌注不足导致的肾...", "lemmaUrl": "http://baike.baidu.com/item/%E5%B0%8F%E5%84%BF%E4%BD%8E%E6%B0%AF%E6%80%A7%E6%B0%AE%E8%B4%A8%E8%A1%80%E7%97%87%E7%BB%BC%E5%90%88%E5%BE%81/12676551", "lemmaPic": []}, {"lemmaId": 12676767, "lemmaTitle": "老年人阵发性室上性心动过速", "lemmaCroppedTitle": "老年人阵发性室上性心动过速", "lemmaDesc": "老年人阵发性室上性心动过速是指起源于心房或房室交界区的心动过速大多数是由于折返激...", "lemmaUrl": "http://baike.baidu.com/item/%E8%80%81%E5%B9%B4%E4%BA%BA%E9%98%B5%E5%8F%91%E6%80%A7%E5%AE%A4%E4%B8%8A%E6%80%A7%E5%BF%83%E5%8A%A8%E8%BF%87%E9%80%9F/12676767", "lemmaPic": []}, {"lemmaId": 17659723, "lemmaTitle": "副流感病毒感染", "lemmaCroppedTitle": "副流感病毒感染", "lemmaDesc": "副流感病毒感染是一种常见的急性病毒性呼吸道感染性疾病，在婴幼儿主要引起下呼吸道感...", "lemmaUrl": "http://baike.baidu.com/item/%E5%89%AF%E6%B5%81%E6%84%9F%E7%97%85%E6%AF%92%E6%84%9F%E6%9F%93/17659723", "lemmaPic": []}, {"lemmaId": 8076620, "lemmaTitle": "小儿面部偏侧肥大综合征", "lemmaCroppedTitle": "小儿面部偏侧肥大综合征", "lemmaDesc": "小儿面部偏侧肥大综合征是指小儿一侧颜面较对侧明显肥大为特征改变的一组临床症候群。...", "lemmaUrl": "http://baike.baidu.com/item/%E5%B0%8F%E5%84%BF%E9%9D%A2%E9%83%A8%E5%81%8F%E4%BE%A7%E8%82%A5%E5%A4%A7%E7%BB%BC%E5%90%88%E5%BE%81/8076620", "lemmaPic": []}, {"lemmaId": 12428531, "lemmaTitle": "小儿结节性多动脉炎", "lemmaCroppedTitle": "小儿结节性多动脉炎", "lemmaDesc": "结节性多动脉炎（PAN）是中小动脉坏死性血管炎，沿血管管壁有结节形成，特别是在肠...", "lemmaUrl": "http://baike.baidu.com/item/%E5%B0%8F%E5%84%BF%E7%BB%93%E8%8A%82%E6%80%A7%E5%A4%9A%E5%8A%A8%E8%84%89%E7%82%8E/12428531", "lemmaPic": []}, {"lemmaId": 12629999, "lemmaTitle": "变性性近视的脉络膜萎缩", "lemmaCroppedTitle": "变性性近视的脉络膜萎缩", "lemmaDesc": "变性性近视又称病理性近视，不同于一般的近视性屈光不正，除高度近视外，还具有以下特...", "lemmaUrl": "http://baike.baidu.com/item/%E5%8F%98%E6%80%A7%E6%80%A7%E8%BF%91%E8%A7%86%E7%9A%84%E8%84%89%E7%BB%9C%E8%86%9C%E8%90%8E%E7%BC%A9/12629999", "lemmaPic": []}, {"lemmaId": 12810955, "lemmaTitle": "外阴鳞状细胞浸润癌", "lemmaCroppedTitle": "外阴鳞状细胞浸润癌", "lemmaDesc": "外阴鳞状细胞癌（Squamous Cell Carcinomas，SCC）常发生...", "lemmaUrl": "http://baike.baidu.com/item/%E5%A4%96%E9%98%B4%E9%B3%9E%E7%8A%B6%E7%BB%86%E8%83%9E%E6%B5%B8%E6%B6%A6%E7%99%8C/12810955", "lemmaPic": []}, {"lemmaId": 12676598, "lemmaTitle": "小儿假膜性肠炎", "lemmaCroppedTitle": "小儿假膜性肠炎", "lemmaDesc": "假膜性肠炎（PME）是一种急性肠道炎症，因在小肠或结肠的坏死黏膜表面覆有一层假膜...", "lemmaUrl": "http://baike.baidu.com/item/%E5%B0%8F%E5%84%BF%E5%81%87%E8%86%9C%E6%80%A7%E8%82%A0%E7%82%8E/12676598", "lemmaPic": []}, {"lemmaId": 12428595, "lemmaTitle": "小儿波-杰综合征", "lemmaCroppedTitle": "小儿波-杰综合征", "lemmaDesc": "本病于1921年为Peutz首先描述，1949年Jeghers等对本病进行详细、...", "lemmaUrl": "http://baike.baidu.com/item/%E5%B0%8F%E5%84%BF%E6%B3%A2-%E6%9D%B0%E7%BB%BC%E5%90%88%E5%BE%81/12428595", "lemmaPic": []}, {"lemmaId": 12630002, "lemmaTitle": "小儿变应性亚败血症综合征", "lemmaCroppedTitle": "小儿变应性亚败血症综合征", "lemmaDesc": "变应性亚败血症综合征即变应性亚败血症又称Wissler-Fanconi综合征、W...", "lemmaUrl": "http://baike.baidu.com/item/%E5%B0%8F%E5%84%BF%E5%8F%98%E5%BA%94%E6%80%A7%E4%BA%9A%E8%B4%A5%E8%A1%80%E7%97%87%E7%BB%BC%E5%90%88%E5%BE%81/12630002", "lemmaPic": []}, {"lemmaId": 12676696, "lemmaTitle": "小儿变形性肌张力障碍", "lemmaCroppedTitle": "小儿变形性肌张力障碍", "lemmaDesc": "小儿变形性肌张力障碍即特发性扭转性肌张力不全，曾称为变形性肌张力不全，是一组较常...", "lemmaUrl": "http://baike.baidu.com/item/%E5%B0%8F%E5%84%BF%E5%8F%98%E5%BD%A2%E6%80%A7%E8%82%8C%E5%BC%A0%E5%8A%9B%E9%9A%9C%E7%A2%8D/12676696", "lemmaPic": []}, {"lemmaId": 7253025, "lemmaTitle": "跗骨与周围关节结核", "lemmaCroppedTitle": "跗骨与周围关节结核", "lemmaDesc": "跗骨与周围关节结核较为少见，患者多见于15岁左右儿童和青壮年。临床上跗骨局部周围...", "lemmaUrl": "http://baike.baidu.com/item/%E8%B7%97%E9%AA%A8%E4%B8%8E%E5%91%A8%E5%9B%B4%E5%85%B3%E8%8A%82%E7%BB%93%E6%A0%B8/7253025", "lemmaPic": []}, {"lemmaId": 12428596, "lemmaTitle": "小儿病态窦房结综合征", "lemmaCroppedTitle": "小儿病态窦房结综合征", "lemmaDesc": "小儿病态窦房结综合征是由于窦房结及其周围组织的器质性改变，使冲动的形成和传出发生...", "lemmaUrl": "http://baike.baidu.com/item/%E5%B0%8F%E5%84%BF%E7%97%85%E6%80%81%E7%AA%A6%E6%88%BF%E7%BB%93%E7%BB%BC%E5%90%88%E5%BE%81/12428596", "lemmaPic": []}, {"lemmaId": 7022337, "lemmaTitle": "小儿孤独症", "lemmaCroppedTitle": "小儿孤独症", "lemmaDesc": "孤独症起病于婴幼儿期，主要表现为不同程度的社会交往障碍、语言发育障碍、兴趣狭窄和...", "lemmaUrl": "http://baike.baidu.com/item/%E5%B0%8F%E5%84%BF%E5%AD%A4%E7%8B%AC%E7%97%87/7022337", "lemmaPic": []}, {"lemmaId": 12000412, "lemmaTitle": "着色性口周红斑", "lemmaCroppedTitle": "着色性口周红斑", "lemmaDesc": "本病是一种多发生女性面部的疾病，可能与化妆品中的某些成分有关，多发生于有脂溢性皮...", "lemmaUrl": "http://baike.baidu.com/item/%E7%9D%80%E8%89%B2%E6%80%A7%E5%8F%A3%E5%91%A8%E7%BA%A2%E6%96%91/12000412", "lemmaPic": []}, {"lemmaId": 12428706, "lemmaTitle": "小儿抗磷脂综合征", "lemmaCroppedTitle": "小儿抗磷脂综合征", "lemmaDesc": "抗磷脂综合征（APS）是由抗磷脂抗体（APL抗体）引起的一组临床征象，是一种免疫...", "lemmaUrl": "http://baike.baidu.com/item/%E5%B0%8F%E5%84%BF%E6%8A%97%E7%A3%B7%E8%84%82%E7%BB%BC%E5%90%88%E5%BE%81/12428706", "lemmaPic": []}, {"lemmaId": 12428738, "lemmaTitle": "小儿莫拉雷脑膜炎", "lemmaCroppedTitle": "小儿莫拉雷脑膜炎", "lemmaDesc": "莫拉雷脑膜炎是一种良性，再发性、自限性的无菌性脑膜炎，在临床上比较少见，又称良性...", "lemmaUrl": "http://baike.baidu.com/item/%E5%B0%8F%E5%84%BF%E8%8E%AB%E6%8B%89%E9%9B%B7%E8%84%91%E8%86%9C%E7%82%8E/12428738", "lemmaPic": []}, {"lemmaId": 12676643, "lemmaTitle": "小儿部分性肺静脉异位连接", "lemmaCroppedTitle": "小儿部分性肺静脉异位连接", "lemmaDesc": "部分性肺静脉异位连接是指四条肺静脉中的一条或数条（但非全部）未按正常方式回流到左...", "lemmaUrl": "http://baike.baidu.com/item/%E5%B0%8F%E5%84%BF%E9%83%A8%E5%88%86%E6%80%A7%E8%82%BA%E9%9D%99%E8%84%89%E5%BC%82%E4%BD%8D%E8%BF%9E%E6%8E%A5/12676643", "lemmaPic": []}, {"lemmaId": 10745456, "lemmaTitle": "颈椎骨折伴脱位的损伤", "lemmaCroppedTitle": "颈椎骨折伴脱位的损伤", "lemmaDesc": "颈椎骨折伴脱位的损伤指椎体骨折与椎节脱位同时发生者，这种典型的完全性损伤在临床上...", "lemmaUrl": "http://baike.baidu.com/item/%E9%A2%88%E6%A4%8E%E9%AA%A8%E6%8A%98%E4%BC%B4%E8%84%B1%E4%BD%8D%E7%9A%84%E6%8D%9F%E4%BC%A4/10745456", "lemmaPic": []}, {"lemmaId": 12700744, "lemmaTitle": "掌黑癣", "lemmaCroppedTitle": "掌黑癣", "lemmaDesc": "掌黑癣是一种浅表性无症状的角质层真菌感染。其临床特征为棕至黑色无鳞屑的斑疹，此病...", "lemmaUrl": "http://baike.baidu.com/item/%E6%8E%8C%E9%BB%91%E7%99%A3/12700744", "lemmaPic": []}, {"lemmaId": 12676599, "lemmaTitle": "小儿淋巴样息肉", "lemmaCroppedTitle": "小儿淋巴样息肉", "lemmaDesc": "小儿淋巴样息肉，实际上不是息肉而是结肠黏膜的局限性突起，由于黏膜下淋巴样组织增生...", "lemmaUrl": "http://baike.baidu.com/item/%E5%B0%8F%E5%84%BF%E6%B7%8B%E5%B7%B4%E6%A0%B7%E6%81%AF%E8%82%89/12676599", "lemmaPic": []}, {"lemmaId": 17659726, "lemmaTitle": "淋病性精囊炎", "lemmaCroppedTitle": "淋病性精囊炎", "lemmaDesc": "男性患有淋菌性尿道炎，如治疗不及时可引起精囊炎，会影响精子的贮存、存活和运送，最...", "lemmaUrl": "http://baike.baidu.com/item/%E6%B7%8B%E7%97%85%E6%80%A7%E7%B2%BE%E5%9B%8A%E7%82%8E/17659726", "lemmaPic": []}, {"lemmaId": 12428865, "lemmaTitle": "小儿面肩肱型肌营养不良", "lemmaCroppedTitle": "小儿面肩肱型肌营养不良", "lemmaDesc": "小儿面肩肱型肌营养不良（FSHD）是一种遗传性肌肉疾病，受其影响最严重的是脸、肩...", "lemmaUrl": "http://baike.baidu.com/item/%E5%B0%8F%E5%84%BF%E9%9D%A2%E8%82%A9%E8%82%B1%E5%9E%8B%E8%82%8C%E8%90%A5%E5%85%BB%E4%B8%8D%E8%89%AF/12428865", "lemmaPic": []}, {"lemmaId": 6425111, "lemmaTitle": "眼眶骨膜下脓肿", "lemmaCroppedTitle": "眼眶骨膜下脓肿", "lemmaDesc": "眼眶骨膜下脓肿的临床表现有时与眼眶蜂窝织炎相似，仅凭临床表现对二者的鉴别有一定困...", "lemmaUrl": "http://baike.baidu.com/item/%E7%9C%BC%E7%9C%B6%E9%AA%A8%E8%86%9C%E4%B8%8B%E8%84%93%E8%82%BF/6425111", "lemmaPic": []}, {"lemmaId": 17659734, "lemmaTitle": "儿童特发性高钙尿症", "lemmaCroppedTitle": "儿童特发性高钙尿症", "lemmaDesc": "特发性高钙尿症是一种病因不明，临床表现为肉眼血尿或镜下血尿、肾结石、排尿困难、遗...", "lemmaUrl": "http://baike.baidu.com/item/%E5%84%BF%E7%AB%A5%E7%89%B9%E5%8F%91%E6%80%A7%E9%AB%98%E9%92%99%E5%B0%BF%E7%97%87/17659734", "lemmaPic": []}, {"lemmaId": 12676522, "lemmaTitle": "小儿急性血行播散型肺结核", "lemmaCroppedTitle": "小儿急性血行播散型肺结核", "lemmaDesc": "急性血行播散型肺结核或称急性粟粒型肺结核，是原发感染恶化的结果。1978年我国新...", "lemmaUrl": "http://baike.baidu.com/item/%E5%B0%8F%E5%84%BF%E6%80%A5%E6%80%A7%E8%A1%80%E8%A1%8C%E6%92%AD%E6%95%A3%E5%9E%8B%E8%82%BA%E7%BB%93%E6%A0%B8/12676522", "lemmaPic": []}, {"lemmaId": 7254359, "lemmaTitle": "脊髓火器伤", "lemmaCroppedTitle": "脊髓火器伤", "lemmaDesc": "脊髓火器伤是由枪弹或弹片造成的脊髓开放性损伤。常合并颈、胸和腹部重要脏器损伤，伤...", "lemmaUrl": "http://baike.baidu.com/item/%E8%84%8A%E9%AB%93%E7%81%AB%E5%99%A8%E4%BC%A4/7254359", "lemmaPic": []}, {"lemmaId": 12676661, "lemmaTitle": "小儿成人型慢性粒细胞白血病", "lemmaCroppedTitle": "小儿成人型慢性粒细胞白血病", "lemmaDesc": "1845年以脾大、贫血和粒细胞增多为特征的CML被临床医师所认识。1951年Da...", "lemmaUrl": "http://baike.baidu.com/item/%E5%B0%8F%E5%84%BF%E6%88%90%E4%BA%BA%E5%9E%8B%E6%85%A2%E6%80%A7%E7%B2%92%E7%BB%86%E8%83%9E%E7%99%BD%E8%A1%80%E7%97%85/12676661", "lemmaPic": []}, {"lemmaId": 18277498, "lemmaTitle": "弧菌感染", "lemmaCroppedTitle": "弧菌感染", "lemmaDesc": "弧菌科细菌包括弧菌属和类弧菌属。人群普遍易感，青壮年患病较多。免疫缺陷者、酒精中...", "lemmaUrl": "http://baike.baidu.com/item/%E5%BC%A7%E8%8F%8C%E6%84%9F%E6%9F%93/18277498", "lemmaPic": []}, {"lemmaId": 12676504, "lemmaTitle": "小儿黏多糖贮积症", "lemmaCroppedTitle": "小儿黏多糖贮积症", "lemmaDesc": "黏多糖贮积症（MPS）是一组先天性遗传病，因黏多糖降解酶缺乏，使酸性黏多糖不能完...", "lemmaUrl": "http://baike.baidu.com/item/%E5%B0%8F%E5%84%BF%E9%BB%8F%E5%A4%9A%E7%B3%96%E8%B4%AE%E7%A7%AF%E7%97%87/12676504", "lemmaPic": []}, {"lemmaId": 12676602, "lemmaTitle": "小儿肝性脑病", "lemmaCroppedTitle": "小儿肝性脑病", "lemmaDesc": "小儿肝性脑病又称肝性昏迷或肝脑综合征，是由严重的急、慢性肝病引起的、以代谢紊乱为...", "lemmaUrl": "http://baike.baidu.com/item/%E5%B0%8F%E5%84%BF%E8%82%9D%E6%80%A7%E8%84%91%E7%97%85/12676602", "lemmaPic": []}, {"lemmaId": 12093311, "lemmaTitle": "肺弓形虫病", "lemmaCroppedTitle": "肺弓形虫病", "lemmaDesc": "肺弓形虫病为呼吸内科疾病，由刚地弓形虫所致的肺部炎症，属于人畜共患疾病。临床表现...", "lemmaUrl": "http://baike.baidu.com/item/%E8%82%BA%E5%BC%93%E5%BD%A2%E8%99%AB%E7%97%85/12093311", "lemmaPic": []}, {"lemmaId": 12093315, "lemmaTitle": "麦格斯综合征", "lemmaCroppedTitle": "麦格斯综合征", "lemmaDesc": "麦格斯综合征指病人患有卵巢纤维瘤伴发胸腔积液及腹腔积液，可为血性液体。在肿瘤切除...", "lemmaUrl": "http://baike.baidu.com/item/%E9%BA%A6%E6%A0%BC%E6%96%AF%E7%BB%BC%E5%90%88%E5%BE%81/12093315", "lemmaPic": []}, {"lemmaId": 12428731, "lemmaTitle": "小儿脑膜炎球菌性肾上腺综合征", "lemmaCroppedTitle": "小儿脑膜炎球菌性肾上腺综合征", "lemmaDesc": "脑膜炎球菌性肾上腺综合征即华-佛综合征，亦指暴发型休克型流脑，又称暴发型紫癜性脑...", "lemmaUrl": "http://baike.baidu.com/item/%E5%B0%8F%E5%84%BF%E8%84%91%E8%86%9C%E7%82%8E%E7%90%83%E8%8F%8C%E6%80%A7%E8%82%BE%E4%B8%8A%E8%85%BA%E7%BB%BC%E5%90%88%E5%BE%81/12428731", "lemmaPic": []}, {"lemmaId": 18277540, "lemmaTitle": "婴儿肝病综合征", "lemmaCroppedTitle": "婴儿肝病综合征", "lemmaDesc": "婴儿肝病综合征是指一岁以内婴儿未明病因引起的以肝功能损害及病理性肝脏体征为主要表...", "lemmaUrl": "http://baike.baidu.com/item/%E5%A9%B4%E5%84%BF%E8%82%9D%E7%97%85%E7%BB%BC%E5%90%88%E5%BE%81/18277540", "lemmaPic": []}, {"lemmaId": 19499597, "lemmaTitle": "直肠黏膜松弛", "lemmaCroppedTitle": "直肠黏膜松弛", "lemmaDesc": "直肠黏膜松弛是指直肠黏膜松动、下垂，排便时会随粪便的通过而下滑，形成阻滞作用，造...", "lemmaUrl": "http://baike.baidu.com/item/%E7%9B%B4%E8%82%A0%E9%BB%8F%E8%86%9C%E6%9D%BE%E5%BC%9B/19499597", "lemmaPic": []}, {"lemmaId": 10455261, "lemmaTitle": "幼年性玻璃样变纤维瘤病", "lemmaCroppedTitle": "幼年性玻璃样变纤维瘤病", "lemmaDesc": "幼年性玻璃样变纤维瘤病为相当罕见的疾病，病因不明，可能为一种常染色体隐性遗传病，...", "lemmaUrl": "http://baike.baidu.com/item/%E5%B9%BC%E5%B9%B4%E6%80%A7%E7%8E%BB%E7%92%83%E6%A0%B7%E5%8F%98%E7%BA%A4%E7%BB%B4%E7%98%A4%E7%97%85/10455261", "lemmaPic": []}, {"lemmaId": 12676561, "lemmaTitle": "小儿错畸形", "lemmaCroppedTitle": "小儿错畸形", "lemmaDesc": "错颌畸形是指儿童在生长发育过程中，可由于遗传和环境等各种诸多因素的影响，导致牙齿...", "lemmaUrl": "http://baike.baidu.com/item/%E5%B0%8F%E5%84%BF%E9%94%99%E7%95%B8%E5%BD%A2/12676561", "lemmaPic": []}, {"lemmaId": 12676566, "lemmaTitle": "小儿砷中毒", "lemmaCroppedTitle": "小儿砷中毒", "lemmaDesc": "砷具有金属性，其毒性极低，但其化合物如氧化物、盐类及有机化合物均有毒性，引起砷中...", "lemmaUrl": "http://baike.baidu.com/item/%E5%B0%8F%E5%84%BF%E7%A0%B7%E4%B8%AD%E6%AF%92/12676566", "lemmaPic": []}, {"lemmaId": 12676620, "lemmaTitle": "小儿支气管肺发育不全", "lemmaCroppedTitle": "小儿支气管肺发育不全", "lemmaDesc": "支气管肺发育不全（BPD）是由多种因素造成的一种慢性肺损害，因多发生在未成熟儿及...", "lemmaUrl": "http://baike.baidu.com/item/%E5%B0%8F%E5%84%BF%E6%94%AF%E6%B0%94%E7%AE%A1%E8%82%BA%E5%8F%91%E8%82%B2%E4%B8%8D%E5%85%A8/12676620", "lemmaPic": []}, {"lemmaId": 18277541, "lemmaTitle": "先天性巨细胞病毒感染", "lemmaCroppedTitle": "先天性巨细胞病毒感染", "lemmaDesc": "巨细胞病毒是目前最常见的导致先天性致命感染的一种病原菌。先天性感染的后遗症包括明...", "lemmaUrl": "http://baike.baidu.com/item/%E5%85%88%E5%A4%A9%E6%80%A7%E5%B7%A8%E7%BB%86%E8%83%9E%E7%97%85%E6%AF%92%E6%84%9F%E6%9F%93/18277541", "lemmaPic": []}], "total": 7246, "totalPage": 73, "page": 68, "fromLemma": 0}