{"lemmaList": [{"lemmaId": 727766, "lemmaTitle": "分流性高胆红素血症综合征", "lemmaCroppedTitle": "分流性高胆红素血症综合征", "lemmaDesc": "胆红素血症综合征即Israel综合征。系由骨髓红细胞或前体产生过多的胆红素，或直...", "lemmaUrl": "http://baike.baidu.com/item/%E5%88%86%E6%B5%81%E6%80%A7%E9%AB%98%E8%83%86%E7%BA%A2%E7%B4%A0%E8%A1%80%E7%97%87%E7%BB%BC%E5%90%88%E5%BE%81/727766", "lemmaPic": []}, {"lemmaId": 729240, "lemmaTitle": "网膜原发性节段性梗死", "lemmaCroppedTitle": "网膜原发性节段性梗死", "lemmaDesc": "网膜原发性节段性梗死较为罕见，为原因不明的网膜急性血管病，有自发性大网膜梗死或大...", "lemmaUrl": "http://baike.baidu.com/item/%E7%BD%91%E8%86%9C%E5%8E%9F%E5%8F%91%E6%80%A7%E8%8A%82%E6%AE%B5%E6%80%A7%E6%A2%97%E6%AD%BB/729240", "lemmaPic": []}, {"lemmaId": 6268385, "lemmaTitle": "成人类风湿性关节炎性巩膜炎", "lemmaCroppedTitle": "成人类风湿性关节炎性巩膜炎", "lemmaDesc": "类风湿性关节炎（RA）是一种常见的以关节组织慢性炎症性病变为主要表现的多系统炎症...", "lemmaUrl": "http://baike.baidu.com/item/%E6%88%90%E4%BA%BA%E7%B1%BB%E9%A3%8E%E6%B9%BF%E6%80%A7%E5%85%B3%E8%8A%82%E7%82%8E%E6%80%A7%E5%B7%A9%E8%86%9C%E7%82%8E/6268385", "lemmaPic": []}, {"lemmaId": 9629351, "lemmaTitle": "晶状体溶解性青光眼", "lemmaCroppedTitle": "晶状体溶解性青光眼", "lemmaDesc": "在成熟期或过熟期白内障，因经晶状体囊膜漏出的晶状体蛋白质引起的炎性青光眼，称晶状...", "lemmaUrl": "http://baike.baidu.com/item/%E6%99%B6%E7%8A%B6%E4%BD%93%E6%BA%B6%E8%A7%A3%E6%80%A7%E9%9D%92%E5%85%89%E7%9C%BC/9629351", "lemmaPic": []}, {"lemmaId": 292750, "lemmaTitle": "消化系癌伴血液病综合征", "lemmaCroppedTitle": "消化系癌伴血液病综合征", "lemmaDesc": "本征系指消化系的某些癌肿，如胃癌、结肠癌、胰腺癌、肝癌及胆囊癌等，常伴有微血管病...", "lemmaUrl": "http://baike.baidu.com/item/%E6%B6%88%E5%8C%96%E7%B3%BB%E7%99%8C%E4%BC%B4%E8%A1%80%E6%B6%B2%E7%97%85%E7%BB%BC%E5%90%88%E5%BE%81/292750", "lemmaPic": []}, {"lemmaId": 6824636, "lemmaTitle": "前房积血与青光眼", "lemmaCroppedTitle": "前房积血与青光眼", "lemmaDesc": "前房积血在临床上比较常见。最多发生在眼挫伤和内眼手术，自发性出血甚为少见。少量的...", "lemmaUrl": "http://baike.baidu.com/item/%E5%89%8D%E6%88%BF%E7%A7%AF%E8%A1%80%E4%B8%8E%E9%9D%92%E5%85%89%E7%9C%BC/6824636", "lemmaPic": []}, {"lemmaId": 10966237, "lemmaTitle": "恙虫病性肺炎", "lemmaCroppedTitle": "恙虫病性肺炎", "lemmaDesc": "恙虫病性肺炎：恙虫病性肺炎是由立克次体引起的全身性传染病，常侵犯肺部引起肺炎等病...", "lemmaUrl": "http://baike.baidu.com/item/%E6%81%99%E8%99%AB%E7%97%85%E6%80%A7%E8%82%BA%E7%82%8E/10966237", "lemmaPic": []}, {"lemmaId": 8405481, "lemmaTitle": "结节性液化性脂膜炎", "lemmaCroppedTitle": "结节性液化性脂膜炎", "lemmaDesc": "本病也称胰腺性皮下结节性脂肪坏死症。其临床特征为反复成批出现发红的疼痛性皮下结节...", "lemmaUrl": "http://baike.baidu.com/item/%E7%BB%93%E8%8A%82%E6%80%A7%E6%B6%B2%E5%8C%96%E6%80%A7%E8%84%82%E8%86%9C%E7%82%8E/8405481", "lemmaPic": []}, {"lemmaId": 9345294, "lemmaTitle": "多发性内分泌腺瘤综合征2型", "lemmaCroppedTitle": "多发性内分泌腺瘤综合征2型", "lemmaDesc": "多发性内分泌腺瘤综合征（MEN）是一组有明显家族倾向的显性遗传性疾病，有多个内分...", "lemmaUrl": "http://baike.baidu.com/item/%E5%A4%9A%E5%8F%91%E6%80%A7%E5%86%85%E5%88%86%E6%B3%8C%E8%85%BA%E7%98%A4%E7%BB%BC%E5%90%88%E5%BE%812%E5%9E%8B/9345294", "lemmaPic": []}, {"lemmaId": 10112591, "lemmaTitle": "毛胚细胞瘤", "lemmaCroppedTitle": "毛胚细胞瘤", "lemmaDesc": "毛胚细胞瘤为毛囊胚细胞良性肿瘤，临床罕见。头部和颜面皮肤的真皮内出现单发性1～2...", "lemmaUrl": "http://baike.baidu.com/item/%E6%AF%9B%E8%83%9A%E7%BB%86%E8%83%9E%E7%98%A4/10112591", "lemmaPic": []}, {"lemmaId": 10943259, "lemmaTitle": "胸长神经卡压症", "lemmaCroppedTitle": "胸长神经卡压症", "lemmaDesc": "胸长神经起源于颈5，颈6，颈7神经根，支配前锯肌。胸长神经穿过中斜角肌(在C5起...", "lemmaUrl": "http://baike.baidu.com/item/%E8%83%B8%E9%95%BF%E7%A5%9E%E7%BB%8F%E5%8D%A1%E5%8E%8B%E7%97%87/10943259", "lemmaPic": []}, {"lemmaId": 185595, "lemmaTitle": "间接型颈动脉海绵窦瘘", "lemmaCroppedTitle": "间接型颈动脉海绵窦瘘", "lemmaDesc": "颈动脉海绵窦瘘（Carotid-Cavernous Sinus Fistula，...", "lemmaUrl": "http://baike.baidu.com/item/%E9%97%B4%E6%8E%A5%E5%9E%8B%E9%A2%88%E5%8A%A8%E8%84%89%E6%B5%B7%E7%BB%B5%E7%AA%A6%E7%98%98/185595", "lemmaPic": []}, {"lemmaId": 12672782, "lemmaTitle": "胎儿停育", "lemmaCroppedTitle": "胎儿停育", "lemmaDesc": "胎儿停育即指胚胎停育，是流产的一个阶段，超声下发现胎囊发育不良或观察1～2周不长...", "lemmaUrl": "http://baike.baidu.com/item/%E8%83%8E%E5%84%BF%E5%81%9C%E8%82%B2/12672782", "lemmaPic": []}, {"lemmaId": 6851560, "lemmaTitle": "播散性嗜酸粒细胞增多性胶原病", "lemmaCroppedTitle": "播散性嗜酸粒细胞增多性胶原病", "lemmaDesc": "播散性嗜酸粒细胞增多性胶原病是一种变态反应性疾病，其特征为发热，呼吸道症状、肝脾...", "lemmaUrl": "http://baike.baidu.com/item/%E6%92%AD%E6%95%A3%E6%80%A7%E5%97%9C%E9%85%B8%E7%B2%92%E7%BB%86%E8%83%9E%E5%A2%9E%E5%A4%9A%E6%80%A7%E8%83%B6%E5%8E%9F%E7%97%85/6851560", "lemmaPic": []}, {"lemmaId": 10226294, "lemmaTitle": "炎性肌病及其他疾病", "lemmaCroppedTitle": "炎性肌病及其他疾病", "lemmaDesc": "炎性肌病（IM）及其他疾病是一组病因不甚明确的炎症性横纹肌病，其特点是髋周、肩周...", "lemmaUrl": "http://baike.baidu.com/item/%E7%82%8E%E6%80%A7%E8%82%8C%E7%97%85%E5%8F%8A%E5%85%B6%E4%BB%96%E7%96%BE%E7%97%85/10226294", "lemmaPic": []}, {"lemmaId": 6093035, "lemmaTitle": "肠道病毒所致各系统感染", "lemmaCroppedTitle": "肠道病毒所致各系统感染", "lemmaDesc": "肠道病毒包括脊髓灰质炎病毒、柯萨奇病毒、埃可病毒，以及近年来新发现的新肠道病毒6...", "lemmaUrl": "http://baike.baidu.com/item/%E8%82%A0%E9%81%93%E7%97%85%E6%AF%92%E6%89%80%E8%87%B4%E5%90%84%E7%B3%BB%E7%BB%9F%E6%84%9F%E6%9F%93/6093035", "lemmaPic": []}, {"lemmaId": 6411788, "lemmaTitle": "泥螺-日光性皮炎", "lemmaCroppedTitle": "泥螺-日光性皮炎", "lemmaDesc": "本病是由于患者食用过多泥螺再经强烈日光暴晒之后，皮肤所发生的急性炎症反应。常在服...", "lemmaUrl": "http://baike.baidu.com/item/%E6%B3%A5%E8%9E%BA-%E6%97%A5%E5%85%89%E6%80%A7%E7%9A%AE%E7%82%8E/6411788", "lemmaPic": []}, {"lemmaId": 10784081, "lemmaTitle": "垂痈", "lemmaCroppedTitle": "垂痈", "lemmaDesc": "垂痈又名“紫舌胀”，是指小儿初生六七日间，喉里舌上有物，状如悬痈。本病可单独发生...", "lemmaUrl": "http://baike.baidu.com/item/%E5%9E%82%E7%97%88/10784081", "lemmaPic": []}, {"lemmaId": 1197132, "lemmaTitle": "摩根菌肺炎", "lemmaCroppedTitle": "摩根菌肺炎", "lemmaDesc": "摩根菌肺炎是由摩根菌感染所致。国内已有此菌感染的报道[1]。近10年来，国外报道...", "lemmaUrl": "http://baike.baidu.com/item/%E6%91%A9%E6%A0%B9%E8%8F%8C%E8%82%BA%E7%82%8E/1197132", "lemmaPic": []}, {"lemmaId": 5487489, "lemmaTitle": "胸腺小细胞癌", "lemmaCroppedTitle": "胸腺小细胞癌", "lemmaDesc": "胸腺小细胞癌（胸腺燕麦细胞癌）发病较少。组织学和电镜检查胸腺小细胞癌与身体其他部...", "lemmaUrl": "http://baike.baidu.com/item/%E8%83%B8%E8%85%BA%E5%B0%8F%E7%BB%86%E8%83%9E%E7%99%8C/5487489", "lemmaPic": []}, {"lemmaId": 5705505, "lemmaTitle": "伴齿状突骨折的寰枢椎前脱位", "lemmaCroppedTitle": "伴齿状突骨折的寰枢椎前脱位", "lemmaDesc": "创伤性寰枢椎不稳定是指暴力损伤该部位骨和韧带结构，使其丧失正常功能及稳定作用，导...", "lemmaUrl": "http://baike.baidu.com/item/%E4%BC%B4%E9%BD%BF%E7%8A%B6%E7%AA%81%E9%AA%A8%E6%8A%98%E7%9A%84%E5%AF%B0%E6%9E%A2%E6%A4%8E%E5%89%8D%E8%84%B1%E4%BD%8D/5705505", "lemmaPic": []}, {"lemmaId": 9706529, "lemmaTitle": "小儿多囊肾", "lemmaCroppedTitle": "小儿多囊肾", "lemmaDesc": "小儿多囊肾（PK）是在肾脏皮质和髓质出现无数内含尿样液体的囊肿，呈弥散分布。此病...", "lemmaUrl": "http://baike.baidu.com/item/%E5%B0%8F%E5%84%BF%E5%A4%9A%E5%9B%8A%E8%82%BE/9706529", "lemmaPic": []}, {"lemmaId": 10456333, "lemmaTitle": "咽部麻风", "lemmaCroppedTitle": "咽部麻风", "lemmaDesc": "麻风是由麻风杆菌引起的一种接触传染病，以侵犯皮肤、黏膜及周围神经为主，亦可累及深...", "lemmaUrl": "http://baike.baidu.com/item/%E5%92%BD%E9%83%A8%E9%BA%BB%E9%A3%8E/10456333", "lemmaPic": []}, {"lemmaId": 7254596, "lemmaTitle": "松弛性跖痛症", "lemmaCroppedTitle": "松弛性跖痛症", "lemmaDesc": "足底跖痛症是指前足底跖骨头或跖骨干疼痛，按其病因可分为松弛性跖痛症和压迫性跖痛症...", "lemmaUrl": "http://baike.baidu.com/item/%E6%9D%BE%E5%BC%9B%E6%80%A7%E8%B7%96%E7%97%9B%E7%97%87/7254596", "lemmaPic": []}, {"lemmaId": 4137568, "lemmaTitle": "双侧肾缺如", "lemmaCroppedTitle": "双侧肾缺如", "lemmaDesc": "双侧肾缺如首先由Wolfstrigel于1671年发现，Potter在1946年...", "lemmaUrl": "http://baike.baidu.com/item/%E5%8F%8C%E4%BE%A7%E8%82%BE%E7%BC%BA%E5%A6%82/4137568", "lemmaPic": []}, {"lemmaId": 12428705, "lemmaTitle": "小儿慢性肉芽肿病", "lemmaCroppedTitle": "小儿慢性肉芽肿病", "lemmaDesc": "小儿慢性肉芽肿病（chronic granulomatous disease, ...", "lemmaUrl": "http://baike.baidu.com/item/%E5%B0%8F%E5%84%BF%E6%85%A2%E6%80%A7%E8%82%89%E8%8A%BD%E8%82%BF%E7%97%85/12428705", "lemmaPic": []}, {"lemmaId": 3029237, "lemmaTitle": "致肠细胞病变人孤儿病毒感染", "lemmaCroppedTitle": "致肠细胞病变人孤儿病毒感染", "lemmaDesc": "20世纪50年代初在应用组织培养分离肠道病毒过程中，从健康人肠道内分离出一些毒株...", "lemmaUrl": "http://baike.baidu.com/item/%E8%87%B4%E8%82%A0%E7%BB%86%E8%83%9E%E7%97%85%E5%8F%98%E4%BA%BA%E5%AD%A4%E5%84%BF%E7%97%85%E6%AF%92%E6%84%9F%E6%9F%93/3029237", "lemmaPic": []}, {"lemmaId": 12630012, "lemmaTitle": "小儿尿路结石", "lemmaCroppedTitle": "小儿尿路结石", "lemmaDesc": "尿路结石的发生率、结石成分与部位及年龄分布在不同地区、不同时代均有明显差异。一般...", "lemmaUrl": "http://baike.baidu.com/item/%E5%B0%8F%E5%84%BF%E5%B0%BF%E8%B7%AF%E7%BB%93%E7%9F%B3/12630012", "lemmaPic": []}, {"lemmaId": 2814076, "lemmaTitle": "梅克尔细胞癌", "lemmaCroppedTitle": "梅克尔细胞癌", "lemmaDesc": "梅克尔细胞癌又名皮肤小梁状癌、原发性皮肤神经内分泌癌、皮肤原发性小细胞癌及皮肤A...", "lemmaUrl": "http://baike.baidu.com/item/%E6%A2%85%E5%85%8B%E5%B0%94%E7%BB%86%E8%83%9E%E7%99%8C/2814076", "lemmaPic": []}, {"lemmaId": 12428891, "lemmaTitle": "新生儿先天性弓形体感染", "lemmaCroppedTitle": "新生儿先天性弓形体感染", "lemmaDesc": "先天性弓形体感染与妊娠关系密切，母亲在妊娠期受到弓形体感染后，不论是显性或隐性感...", "lemmaUrl": "http://baike.baidu.com/item/%E6%96%B0%E7%94%9F%E5%84%BF%E5%85%88%E5%A4%A9%E6%80%A7%E5%BC%93%E5%BD%A2%E4%BD%93%E6%84%9F%E6%9F%93/12428891", "lemmaPic": []}, {"lemmaId": 10295946, "lemmaTitle": "软骨黏液样纤维瘤", "lemmaCroppedTitle": "软骨黏液样纤维瘤", "lemmaDesc": "软骨黏液样纤维瘤是一种少见的以分叶状生长的黏液样和软骨样分化的良性骨肿瘤，起源于...", "lemmaUrl": "http://baike.baidu.com/item/%E8%BD%AF%E9%AA%A8%E9%BB%8F%E6%B6%B2%E6%A0%B7%E7%BA%A4%E7%BB%B4%E7%98%A4/10295946", "lemmaPic": []}, {"lemmaId": 508910, "lemmaTitle": "运动员胸背与腰背痛", "lemmaCroppedTitle": "运动员胸背与腰背痛", "lemmaDesc": "运动员胸背与腰背痛是青壮年以上人群中的常见疾患，尤其是在工业高度发展的国家其发生...", "lemmaUrl": "http://baike.baidu.com/item/%E8%BF%90%E5%8A%A8%E5%91%98%E8%83%B8%E8%83%8C%E4%B8%8E%E8%85%B0%E8%83%8C%E7%97%9B/508910", "lemmaPic": []}, {"lemmaId": 7725900, "lemmaTitle": "创伤性肩关节后脱位", "lemmaCroppedTitle": "创伤性肩关节后脱位", "lemmaDesc": "创伤性肩关节后脱位是指肱骨头与肩胛盂构成的关节发生脱位，肱骨头脱位后位于肩胛盂后...", "lemmaUrl": "http://baike.baidu.com/item/%E5%88%9B%E4%BC%A4%E6%80%A7%E8%82%A9%E5%85%B3%E8%8A%82%E5%90%8E%E8%84%B1%E4%BD%8D/7725900", "lemmaPic": []}, {"lemmaId": 638991, "lemmaTitle": "无胆色素尿性黄疸综合征", "lemmaCroppedTitle": "无胆色素尿性黄疸综合征", "lemmaDesc": "无胆色素尿性黄疸综合征又称遗传性球形红细胞增多症，是一种红细胞膜先天性缺陷的疾病...", "lemmaUrl": "http://baike.baidu.com/item/%E6%97%A0%E8%83%86%E8%89%B2%E7%B4%A0%E5%B0%BF%E6%80%A7%E9%BB%84%E7%96%B8%E7%BB%BC%E5%90%88%E5%BE%81/638991", "lemmaPic": []}, {"lemmaId": 1404967, "lemmaTitle": "肠毛滴虫病", "lemmaCroppedTitle": "肠毛滴虫病", "lemmaDesc": "人毛滴虫是寄生于肠道的鞭毛虫，多见于盲肠与结肠，可引起腹泻等临床症状，故又称为肠...", "lemmaUrl": "http://baike.baidu.com/item/%E8%82%A0%E6%AF%9B%E6%BB%B4%E8%99%AB%E7%97%85/1404967", "lemmaPic": []}, {"lemmaId": 6095651, "lemmaTitle": "金黄色葡萄球菌性边缘性角膜炎", "lemmaCroppedTitle": "金黄色葡萄球菌性边缘性角膜炎", "lemmaDesc": "金黄色葡萄球菌性边缘性角膜炎也称为角膜周边浸润或周边部卡他性角膜溃疡。临床并不多...", "lemmaUrl": "http://baike.baidu.com/item/%E9%87%91%E9%BB%84%E8%89%B2%E8%91%A1%E8%90%84%E7%90%83%E8%8F%8C%E6%80%A7%E8%BE%B9%E7%BC%98%E6%80%A7%E8%A7%92%E8%86%9C%E7%82%8E/6095651", "lemmaPic": []}, {"lemmaId": 7240525, "lemmaTitle": "泛发性扁平黄色瘤", "lemmaCroppedTitle": "泛发性扁平黄色瘤", "lemmaDesc": "黄瘤病是指由真皮、皮下组织及肌腱中含脂质的组织细胞-泡沫细胞聚集而形成的一种棕黄...", "lemmaUrl": "http://baike.baidu.com/item/%E6%B3%9B%E5%8F%91%E6%80%A7%E6%89%81%E5%B9%B3%E9%BB%84%E8%89%B2%E7%98%A4/7240525", "lemmaPic": []}, {"lemmaId": 7253509, "lemmaTitle": "心室肌致密化不全", "lemmaCroppedTitle": "心室肌致密化不全", "lemmaDesc": "心室肌致密化不全（NVM）是胚胎初期心脏发育过程中心内膜心肌的形态学发生受到影响...", "lemmaUrl": "http://baike.baidu.com/item/%E5%BF%83%E5%AE%A4%E8%82%8C%E8%87%B4%E5%AF%86%E5%8C%96%E4%B8%8D%E5%85%A8/7253509", "lemmaPic": []}, {"lemmaId": 1986119, "lemmaTitle": "角膜鳞状细胞癌", "lemmaCroppedTitle": "角膜鳞状细胞癌", "lemmaDesc": "角膜鳞状细胞癌为来源于角膜上皮的恶性肿瘤，原因不明，可原发于健康的角膜上皮，也可...", "lemmaUrl": "http://baike.baidu.com/item/%E8%A7%92%E8%86%9C%E9%B3%9E%E7%8A%B6%E7%BB%86%E8%83%9E%E7%99%8C/1986119", "lemmaPic": []}, {"lemmaId": 2353083, "lemmaTitle": "水疱性远端指炎", "lemmaCroppedTitle": "水疱性远端指炎", "lemmaDesc": "水疱性远端指炎，是一种少见的手指掌面水疱性皮肤病。1972年由hays和mull...", "lemmaUrl": "http://baike.baidu.com/item/%E6%B0%B4%E7%96%B1%E6%80%A7%E8%BF%9C%E7%AB%AF%E6%8C%87%E7%82%8E/2353083", "lemmaPic": []}, {"lemmaId": 1845945, "lemmaTitle": "急性坏死出血性脑脊髓炎", "lemmaCroppedTitle": "急性坏死出血性脑脊髓炎", "lemmaDesc": "急性坏死出血性脑脊髓炎，又称Weston-Hurst急性出血性白质脑炎，是一种发...", "lemmaUrl": "http://baike.baidu.com/item/%E6%80%A5%E6%80%A7%E5%9D%8F%E6%AD%BB%E5%87%BA%E8%A1%80%E6%80%A7%E8%84%91%E8%84%8A%E9%AB%93%E7%82%8E/1845945", "lemmaPic": []}, {"lemmaId": 1823742, "lemmaTitle": "项痈", "lemmaCroppedTitle": "项痈", "lemmaDesc": "项痈是在项部多个相邻的毛囊及其所属皮脂腺或汗腺的急性化脓性感染，祖国医学称为“对...", "lemmaUrl": "http://baike.baidu.com/item/%E9%A1%B9%E7%97%88/1823742", "lemmaPic": []}, {"lemmaId": 2616897, "lemmaTitle": "结核性巩膜炎", "lemmaCroppedTitle": "结核性巩膜炎", "lemmaDesc": "结核病可累及除晶状体以外的所有眼组织。结核病眼部表现的发生率为0.5%～1.4%...", "lemmaUrl": "http://baike.baidu.com/item/%E7%BB%93%E6%A0%B8%E6%80%A7%E5%B7%A9%E8%86%9C%E7%82%8E/2616897", "lemmaPic": []}, {"lemmaId": 7455243, "lemmaTitle": "头皮脓疱糜烂性皮病", "lemmaCroppedTitle": "头皮脓疱糜烂性皮病", "lemmaDesc": "头皮脓疱糜烂性皮病系一种少见的非感染性脓疱性皮病，由Pye等于1979年首先报道...", "lemmaUrl": "http://baike.baidu.com/item/%E5%A4%B4%E7%9A%AE%E8%84%93%E7%96%B1%E7%B3%9C%E7%83%82%E6%80%A7%E7%9A%AE%E7%97%85/7455243", "lemmaPic": []}, {"lemmaId": 7847781, "lemmaTitle": "桡骨远端骨骺分离", "lemmaCroppedTitle": "桡骨远端骨骺分离", "lemmaDesc": "在人体骨骺损伤中，桡骨远端为最易发生之部位，几乎占全身骨骺损伤的半数，即40%～...", "lemmaUrl": "http://baike.baidu.com/item/%E6%A1%A1%E9%AA%A8%E8%BF%9C%E7%AB%AF%E9%AA%A8%E9%AA%BA%E5%88%86%E7%A6%BB/7847781", "lemmaPic": []}, {"lemmaId": 3080807, "lemmaTitle": "圣路易斯型脑炎", "lemmaCroppedTitle": "圣路易斯型脑炎", "lemmaDesc": "圣路易斯型脑炎又叫圣路易脑炎，是由圣路易斯型脑炎病毒引起的，经蚊媒介传播的人畜共...", "lemmaUrl": "http://baike.baidu.com/item/%E5%9C%A3%E8%B7%AF%E6%98%93%E6%96%AF%E5%9E%8B%E8%84%91%E7%82%8E/3080807", "lemmaPic": []}, {"lemmaId": 945795, "lemmaTitle": "食管过短", "lemmaCroppedTitle": "食管过短", "lemmaDesc": "食管过短有先天性、后天性之分。后天性食管过短可继发于食管纤维化、食管裂孔疝反流、...", "lemmaUrl": "http://baike.baidu.com/item/%E9%A3%9F%E7%AE%A1%E8%BF%87%E7%9F%AD/945795", "lemmaPic": []}, {"lemmaId": 3621157, "lemmaTitle": "妊娠合并心房间隔缺损", "lemmaCroppedTitle": "妊娠合并心房间隔缺损", "lemmaDesc": "妊娠合并先天性心脏病（先心病）属于高危妊娠是孕产妇死亡的主要原因之一。是由于孕妇...", "lemmaUrl": "http://baike.baidu.com/item/%E5%A6%8A%E5%A8%A0%E5%90%88%E5%B9%B6%E5%BF%83%E6%88%BF%E9%97%B4%E9%9A%94%E7%BC%BA%E6%8D%9F/3621157", "lemmaPic": []}, {"lemmaId": 6134325, "lemmaTitle": "结节性脆发病", "lemmaCroppedTitle": "结节性脆发病", "lemmaDesc": "结节性脆发病由于毛干发育缺陷，在某些激发因素，如烫发、染发或不适当的梳理等，即可...", "lemmaUrl": "http://baike.baidu.com/item/%E7%BB%93%E8%8A%82%E6%80%A7%E8%84%86%E5%8F%91%E7%97%85/6134325", "lemmaPic": []}, {"lemmaId": 3607853, "lemmaTitle": "非肾上腺素增生性假两性畸形", "lemmaCroppedTitle": "非肾上腺素增生性假两性畸形", "lemmaDesc": "在孕期，特别是孕早期，孕妇如服用孕激素、雌激素及雄激素，均有可能使女性胚胎或胎儿...", "lemmaUrl": "http://baike.baidu.com/item/%E9%9D%9E%E8%82%BE%E4%B8%8A%E8%85%BA%E7%B4%A0%E5%A2%9E%E7%94%9F%E6%80%A7%E5%81%87%E4%B8%A4%E6%80%A7%E7%95%B8%E5%BD%A2/3607853", "lemmaPic": []}, {"lemmaId": 9848517, "lemmaTitle": "滑脱性肋骨综合征", "lemmaCroppedTitle": "滑脱性肋骨综合征", "lemmaDesc": "滑脱性肋骨综合征临床上并不少见但易被忽略。1992年首先由Danse-colle...", "lemmaUrl": "http://baike.baidu.com/item/%E6%BB%91%E8%84%B1%E6%80%A7%E8%82%8B%E9%AA%A8%E7%BB%BC%E5%90%88%E5%BE%81/9848517", "lemmaPic": []}, {"lemmaId": 8384350, "lemmaTitle": "单房性骨囊肿", "lemmaCroppedTitle": "单房性骨囊肿", "lemmaDesc": "单房性骨囊肿常位于肱骨和股骨上干骺端，囊内为一单腔，里面衬以薄膜，内含草黄色液体...", "lemmaUrl": "http://baike.baidu.com/item/%E5%8D%95%E6%88%BF%E6%80%A7%E9%AA%A8%E5%9B%8A%E8%82%BF/8384350", "lemmaPic": []}, {"lemmaId": 9768187, "lemmaTitle": "尿道与阴茎结核", "lemmaCroppedTitle": "尿道与阴茎结核", "lemmaDesc": "尿道对结核菌有很强的抵抗力，尿道受到生殖系结核与泌尿系结核的双重侵犯，尿道结核仍...", "lemmaUrl": "http://baike.baidu.com/item/%E5%B0%BF%E9%81%93%E4%B8%8E%E9%98%B4%E8%8C%8E%E7%BB%93%E6%A0%B8/9768187", "lemmaPic": []}, {"lemmaId": 10682944, "lemmaTitle": "混合型慢性高原病", "lemmaCroppedTitle": "混合型慢性高原病", "lemmaDesc": "目前认为，混合型慢性高原病（mixed chronic mountain sic...", "lemmaUrl": "http://baike.baidu.com/item/%E6%B7%B7%E5%90%88%E5%9E%8B%E6%85%A2%E6%80%A7%E9%AB%98%E5%8E%9F%E7%97%85/10682944", "lemmaPic": []}, {"lemmaId": 8297471, "lemmaTitle": "气单胞菌肺炎", "lemmaCroppedTitle": "气单胞菌肺炎", "lemmaDesc": "气单胞菌属（Aeromonas）目前有10个菌种，主要有嗜水气单胞菌、豚鼠气单胞...", "lemmaUrl": "http://baike.baidu.com/item/%E6%B0%94%E5%8D%95%E8%83%9E%E8%8F%8C%E8%82%BA%E7%82%8E/8297471", "lemmaPic": []}, {"lemmaId": 15181332, "lemmaTitle": "小儿口炎", "lemmaCroppedTitle": "小儿口炎", "lemmaDesc": "口炎是指口腔黏膜由于各种感染引起的炎症，若病变限于局部如舌、齿龈、口角亦可称为舌...", "lemmaUrl": "http://baike.baidu.com/item/%E5%B0%8F%E5%84%BF%E5%8F%A3%E7%82%8E/15181332", "lemmaPic": []}, {"lemmaId": 2094683, "lemmaTitle": "幼年型关节强硬性脊椎炎", "lemmaCroppedTitle": "幼年型关节强硬性脊椎炎", "lemmaDesc": "幼年强直性脊柱炎（JAS）是指16岁以前起病，以骶髂和脊柱等关节的慢性炎症为特征...", "lemmaUrl": "http://baike.baidu.com/item/%E5%B9%BC%E5%B9%B4%E5%9E%8B%E5%85%B3%E8%8A%82%E5%BC%BA%E7%A1%AC%E6%80%A7%E8%84%8A%E6%A4%8E%E7%82%8E/2094683", "lemmaPic": []}, {"lemmaId": 9542467, "lemmaTitle": "麦收皮炎", "lemmaCroppedTitle": "麦收皮炎", "lemmaDesc": "麦收皮炎也称麦芒皮炎，民间又称麦疥或麦毒，是麦收期间常见的皮肤病。接触麦穗后感皮...", "lemmaUrl": "http://baike.baidu.com/item/%E9%BA%A6%E6%94%B6%E7%9A%AE%E7%82%8E/9542467", "lemmaPic": []}, {"lemmaId": 7153970, "lemmaTitle": "Morton跖头痛", "lemmaCroppedTitle": "Morton跖头痛", "lemmaDesc": "Morton跖头痛规范名称应该为跖间神经瘤，又称跖骨间神经瘤、Morton神经痛...", "lemmaUrl": "http://baike.baidu.com/item/Morton%E8%B7%96%E5%A4%B4%E7%97%9B/7153970", "lemmaPic": []}, {"lemmaId": 4846768, "lemmaTitle": "妊娠合并消化性溃疡", "lemmaCroppedTitle": "妊娠合并消化性溃疡", "lemmaDesc": "妊娠期消化性溃疡病主要指胃和十二指肠的慢性溃疡，即胃溃疡和十二指肠溃疡，简称溃疡...", "lemmaUrl": "http://baike.baidu.com/item/%E5%A6%8A%E5%A8%A0%E5%90%88%E5%B9%B6%E6%B6%88%E5%8C%96%E6%80%A7%E6%BA%83%E7%96%A1/4846768", "lemmaPic": []}, {"lemmaId": 3623402, "lemmaTitle": "妊娠合并心室间隔缺损", "lemmaCroppedTitle": "妊娠合并心室间隔缺损", "lemmaDesc": "心室间隔缺损是最常见的先天性心脏畸形之一。室间隔缺损的发生率为2%，占先天性心脏...", "lemmaUrl": "http://baike.baidu.com/item/%E5%A6%8A%E5%A8%A0%E5%90%88%E5%B9%B6%E5%BF%83%E5%AE%A4%E9%97%B4%E9%9A%94%E7%BC%BA%E6%8D%9F/3623402", "lemmaPic": []}, {"lemmaId": 2002093, "lemmaTitle": "婴儿性骨皮质增生症", "lemmaCroppedTitle": "婴儿性骨皮质增生症", "lemmaDesc": "婴儿性骨皮质增生症又称Caffey病，为婴儿时期侵犯骨骼及肌肉筋膜的疾病，其特点...", "lemmaUrl": "http://baike.baidu.com/item/%E5%A9%B4%E5%84%BF%E6%80%A7%E9%AA%A8%E7%9A%AE%E8%B4%A8%E5%A2%9E%E7%94%9F%E7%97%87/2002093", "lemmaPic": []}, {"lemmaId": 10995902, "lemmaTitle": "岩藻糖苷贮积症", "lemmaCroppedTitle": "岩藻糖苷贮积症", "lemmaDesc": "体内岩藻糖苷酶基因缺陷使得溶酶体中降解糖蛋白和糖脂中岩藻糖苷键的酶缺失，生物分子...", "lemmaUrl": "http://baike.baidu.com/item/%E5%B2%A9%E8%97%BB%E7%B3%96%E8%8B%B7%E8%B4%AE%E7%A7%AF%E7%97%87/10995902", "lemmaPic": []}, {"lemmaId": 2066669, "lemmaTitle": "小儿结膜吸吮线虫病", "lemmaCroppedTitle": "小儿结膜吸吮线虫病", "lemmaDesc": "吸吮线虫是寄生于哺乳类和鸟类泪管、瞬膜或结膜囊内的一类线虫。大部分为动物寄生虫，...", "lemmaUrl": "http://baike.baidu.com/item/%E5%B0%8F%E5%84%BF%E7%BB%93%E8%86%9C%E5%90%B8%E5%90%AE%E7%BA%BF%E8%99%AB%E7%97%85/2066669", "lemmaPic": []}, {"lemmaId": 7255021, "lemmaTitle": "眼睑痉挛-口下颏部肌张力障碍", "lemmaCroppedTitle": "眼睑痉挛-口下颏部肌张力障碍", "lemmaDesc": "眼睑痉挛-口下颏部肌张力障碍又称为Meige综合征，或Brueghel综合征，是...", "lemmaUrl": "http://baike.baidu.com/item/%E7%9C%BC%E7%9D%91%E7%97%89%E6%8C%9B-%E5%8F%A3%E4%B8%8B%E9%A2%8F%E9%83%A8%E8%82%8C%E5%BC%A0%E5%8A%9B%E9%9A%9C%E7%A2%8D/7255021", "lemmaPic": []}, {"lemmaId": 2712135, "lemmaTitle": "先天性小眼球合并眼眶囊肿", "lemmaCroppedTitle": "先天性小眼球合并眼眶囊肿", "lemmaDesc": "先天性眼球发育畸形和变异，大多同时合并有颅面和眼眶发育异常。先天性小眼球合并眼眶...", "lemmaUrl": "http://baike.baidu.com/item/%E5%85%88%E5%A4%A9%E6%80%A7%E5%B0%8F%E7%9C%BC%E7%90%83%E5%90%88%E5%B9%B6%E7%9C%BC%E7%9C%B6%E5%9B%8A%E8%82%BF/2712135", "lemmaPic": []}, {"lemmaId": 7724196, "lemmaTitle": "肩胛颈及肩胛盂骨折", "lemmaCroppedTitle": "肩胛颈及肩胛盂骨折", "lemmaDesc": "肩胛骨前后均为肌肉包绕，骨折较为少见，约占全身骨折的0.2%左右，且多发生肩胛骨...", "lemmaUrl": "http://baike.baidu.com/item/%E8%82%A9%E8%83%9B%E9%A2%88%E5%8F%8A%E8%82%A9%E8%83%9B%E7%9B%82%E9%AA%A8%E6%8A%98/7724196", "lemmaPic": []}, {"lemmaId": 12428871, "lemmaTitle": "小儿食物中毒", "lemmaCroppedTitle": "小儿食物中毒", "lemmaDesc": "食物中毒是指进食被细菌、细菌毒素或毒物污染或含有毒性物质的食物所引起的中毒。根据...", "lemmaUrl": "http://baike.baidu.com/item/%E5%B0%8F%E5%84%BF%E9%A3%9F%E7%89%A9%E4%B8%AD%E6%AF%92/12428871", "lemmaPic": []}, {"lemmaId": 3908861, "lemmaTitle": "细菌协同性坏疽", "lemmaCroppedTitle": "细菌协同性坏疽", "lemmaDesc": "细菌协同性坏疽又称Meleneys协同性坏疽、进行性协同性坏疽。是由细小嗜氧链球...", "lemmaUrl": "http://baike.baidu.com/item/%E7%BB%86%E8%8F%8C%E5%8D%8F%E5%90%8C%E6%80%A7%E5%9D%8F%E7%96%BD/3908861", "lemmaPic": []}, {"lemmaId": 2839155, "lemmaTitle": "开放性脑外伤", "lemmaCroppedTitle": "开放性脑外伤", "lemmaDesc": "伤后脑组织与外界相通的颅脑损伤称为开放性脑损伤。开放性脑损伤分火器伤与非火器伤两...", "lemmaUrl": "http://baike.baidu.com/item/%E5%BC%80%E6%94%BE%E6%80%A7%E8%84%91%E5%A4%96%E4%BC%A4/2839155", "lemmaPic": []}, {"lemmaId": 2934016, "lemmaTitle": "骨骺点状发育不良", "lemmaCroppedTitle": "骨骺点状发育不良", "lemmaDesc": "骨骺点状发育不良又名康拉迪病、先天性点状软骨发育不良或点状骨骺发育不良。是由不同...", "lemmaUrl": "http://baike.baidu.com/item/%E9%AA%A8%E9%AA%BA%E7%82%B9%E7%8A%B6%E5%8F%91%E8%82%B2%E4%B8%8D%E8%89%AF/2934016", "lemmaPic": []}, {"lemmaId": 2095203, "lemmaTitle": "眼眶寄生虫囊肿", "lemmaCroppedTitle": "眼眶寄生虫囊肿", "lemmaDesc": "寄生虫性囊肿是一类较为罕见的眼眶病变。病变中最常见的寄生虫是棘球绦虫，其幼虫称为...", "lemmaUrl": "http://baike.baidu.com/item/%E7%9C%BC%E7%9C%B6%E5%AF%84%E7%94%9F%E8%99%AB%E5%9B%8A%E8%82%BF/2095203", "lemmaPic": []}, {"lemmaId": 3635450, "lemmaTitle": "蛔虫性急性胰腺炎", "lemmaCroppedTitle": "蛔虫性急性胰腺炎", "lemmaDesc": "蛔虫性急性胰腺炎临床上比较少见，发病原因是由于蛔虫进入乏特壶腹或胰管造成胆汁及胰...", "lemmaUrl": "http://baike.baidu.com/item/%E8%9B%94%E8%99%AB%E6%80%A7%E6%80%A5%E6%80%A7%E8%83%B0%E8%85%BA%E7%82%8E/3635450", "lemmaPic": []}, {"lemmaId": 4989442, "lemmaTitle": "老年人胆囊炎", "lemmaCroppedTitle": "老年人胆囊炎", "lemmaDesc": "胆囊炎是较常见的疾病，发病率较高。根据其临床表现和临床经过，又可分为急性的和慢性...", "lemmaUrl": "http://baike.baidu.com/item/%E8%80%81%E5%B9%B4%E4%BA%BA%E8%83%86%E5%9B%8A%E7%82%8E/4989442", "lemmaPic": []}, {"lemmaId": 880805, "lemmaTitle": "外阴横纹肌肉瘤", "lemmaCroppedTitle": "外阴横纹肌肉瘤", "lemmaDesc": "横纹肌肉瘤是高度恶性肿瘤，是发生于儿童的最常见的软组织肉瘤，20%发生于盆腔及生...", "lemmaUrl": "http://baike.baidu.com/item/%E5%A4%96%E9%98%B4%E6%A8%AA%E7%BA%B9%E8%82%8C%E8%82%89%E7%98%A4/880805", "lemmaPic": []}, {"lemmaId": 1939636, "lemmaTitle": "镰状细胞肾病", "lemmaCroppedTitle": "镰状细胞肾病", "lemmaDesc": "镰状红细胞病所致的肾损害称为镰状细胞肾病。镰状红细胞病是由异常血红蛋白所引起的一...", "lemmaUrl": "http://baike.baidu.com/item/%E9%95%B0%E7%8A%B6%E7%BB%86%E8%83%9E%E8%82%BE%E7%97%85/1939636", "lemmaPic": []}, {"lemmaId": 2394040, "lemmaTitle": "鼻神经胶质瘤", "lemmaCroppedTitle": "鼻神经胶质瘤", "lemmaDesc": "鼻神经胶质瘤为罕见的良性先天性肿瘤，为异位性神经组织。病因及发病机制未明，临床上...", "lemmaUrl": "http://baike.baidu.com/item/%E9%BC%BB%E7%A5%9E%E7%BB%8F%E8%83%B6%E8%B4%A8%E7%98%A4/2394040", "lemmaPic": []}, {"lemmaId": 10746613, "lemmaTitle": "多骨纤维发育不良", "lemmaCroppedTitle": "多骨纤维发育不良", "lemmaDesc": "多骨纤维发育不良又叫Albright氏病，是一种骨生长发育性病变，临床以骨骼损害...", "lemmaUrl": "http://baike.baidu.com/item/%E5%A4%9A%E9%AA%A8%E7%BA%A4%E7%BB%B4%E5%8F%91%E8%82%B2%E4%B8%8D%E8%89%AF/10746613", "lemmaPic": []}, {"lemmaId": 3377005, "lemmaTitle": "妊娠合并哮喘", "lemmaCroppedTitle": "妊娠合并哮喘", "lemmaDesc": "妊娠合并哮喘是一种常见的可逆的呼吸道阻塞性疾病，其临床特点是阵发性喘息、呼气性呼...", "lemmaUrl": "http://baike.baidu.com/item/%E5%A6%8A%E5%A8%A0%E5%90%88%E5%B9%B6%E5%93%AE%E5%96%98/3377005", "lemmaPic": []}, {"lemmaId": 9268668, "lemmaTitle": "食管管型", "lemmaCroppedTitle": "食管管型", "lemmaDesc": "食管管型有表层脱落性食管炎、特发性食管黏膜剥脱症、创伤性食管黏膜表层管型剥脱等多...", "lemmaUrl": "http://baike.baidu.com/item/%E9%A3%9F%E7%AE%A1%E7%AE%A1%E5%9E%8B/9268668", "lemmaPic": []}, {"lemmaId": 12428526, "lemmaTitle": "小儿渗出性多形性红斑", "lemmaCroppedTitle": "小儿渗出性多形性红斑", "lemmaDesc": "渗出性多形红斑是一种皮肤-黏膜的急性渗出性炎症，又称多形红斑。渗出性多形性红斑严...", "lemmaUrl": "http://baike.baidu.com/item/%E5%B0%8F%E5%84%BF%E6%B8%97%E5%87%BA%E6%80%A7%E5%A4%9A%E5%BD%A2%E6%80%A7%E7%BA%A2%E6%96%91/12428526", "lemmaPic": []}, {"lemmaId": 3066368, "lemmaTitle": "外伤性低颅内压综合征", "lemmaCroppedTitle": "外伤性低颅内压综合征", "lemmaDesc": "脑脂肪栓塞，多见于颅脑损伤合并肢体长骨骨折，或有大面积挤压伤的肥胖伤员，脂肪滴进...", "lemmaUrl": "http://baike.baidu.com/item/%E5%A4%96%E4%BC%A4%E6%80%A7%E4%BD%8E%E9%A2%85%E5%86%85%E5%8E%8B%E7%BB%BC%E5%90%88%E5%BE%81/3066368", "lemmaPic": []}, {"lemmaId": 1774198, "lemmaTitle": "眼睑皮肤弛缓症", "lemmaCroppedTitle": "眼睑皮肤弛缓症", "lemmaDesc": "眼睑皮肤弛缓症是一种罕见的眼睑皮肤病，多发生于青春期以后。可能与自主神经紊乱或内...", "lemmaUrl": "http://baike.baidu.com/item/%E7%9C%BC%E7%9D%91%E7%9A%AE%E8%82%A4%E5%BC%9B%E7%BC%93%E7%97%87/1774198", "lemmaPic": []}, {"lemmaId": 3897983, "lemmaTitle": "透明细胞棘皮瘤", "lemmaCroppedTitle": "透明细胞棘皮瘤", "lemmaDesc": "透明细胞棘皮瘤又称苍白细胞棘皮瘤，1962年由Degos等首先报告，故又称Deg...", "lemmaUrl": "http://baike.baidu.com/item/%E9%80%8F%E6%98%8E%E7%BB%86%E8%83%9E%E6%A3%98%E7%9A%AE%E7%98%A4/3897983", "lemmaPic": []}, {"lemmaId": 3441783, "lemmaTitle": "结肠血管畸形", "lemmaCroppedTitle": "结肠血管畸形", "lemmaDesc": "结肠血管疾病是下消化道出血的重要原因之一，过去常是通过血管造影或手术发现；随着内...", "lemmaUrl": "http://baike.baidu.com/item/%E7%BB%93%E8%82%A0%E8%A1%80%E7%AE%A1%E7%95%B8%E5%BD%A2/3441783", "lemmaPic": []}, {"lemmaId": 4612178, "lemmaTitle": "小儿埃可及柯萨奇病毒感染", "lemmaCroppedTitle": "小儿埃可及柯萨奇病毒感染", "lemmaDesc": "肠道病毒包括埃可病毒、柯萨奇病毒和脊髓灰质炎病毒等。自脊髓灰质炎减毒活疫苗广泛应...", "lemmaUrl": "http://baike.baidu.com/item/%E5%B0%8F%E5%84%BF%E5%9F%83%E5%8F%AF%E5%8F%8A%E6%9F%AF%E8%90%A8%E5%A5%87%E7%97%85%E6%AF%92%E6%84%9F%E6%9F%93/4612178", "lemmaPic": []}, {"lemmaId": 4030396, "lemmaTitle": "先天性肺动静脉瘘", "lemmaCroppedTitle": "先天性肺动静脉瘘", "lemmaDesc": "先天性肺动静脉瘘是一种罕见的先天性肺血管畸形，其发病率为（2～3）/10万。肺动...", "lemmaUrl": "http://baike.baidu.com/item/%E5%85%88%E5%A4%A9%E6%80%A7%E8%82%BA%E5%8A%A8%E9%9D%99%E8%84%89%E7%98%98/4030396", "lemmaPic": []}, {"lemmaId": 7637035, "lemmaTitle": "N动脉损伤", "lemmaCroppedTitle": "N动脉损伤", "lemmaDesc": "多由暴力所致膝关节脱位、骨折、N窝部钝器伤，损伤后肢体截肢率显著增高，因此在处理...", "lemmaUrl": "http://baike.baidu.com/item/%E8%85%98%E5%8A%A8%E8%84%89%E6%8D%9F%E4%BC%A4/7637035", "lemmaPic": []}, {"lemmaId": 7254374, "lemmaTitle": "骶髂筋膜脂肪疝", "lemmaCroppedTitle": "骶髂筋膜脂肪疝", "lemmaDesc": "骶髂筋膜脂肪疝是指臀部脂肪经骶髂筋膜突出形成的一种疝，是引起腰腿痛的原因之一。女...", "lemmaUrl": "http://baike.baidu.com/item/%E9%AA%B6%E9%AB%82%E7%AD%8B%E8%86%9C%E8%84%82%E8%82%AA%E7%96%9D/7254374", "lemmaPic": []}, {"lemmaId": 4507272, "lemmaTitle": "变应性口炎", "lemmaCroppedTitle": "变应性口炎", "lemmaDesc": "变应性口炎是口腔黏膜变态反应性炎症。指过敏性体质的机体通过不同途径（如接触、口服...", "lemmaUrl": "http://baike.baidu.com/item/%E5%8F%98%E5%BA%94%E6%80%A7%E5%8F%A3%E7%82%8E/4507272", "lemmaPic": []}, {"lemmaId": 10085641, "lemmaTitle": "胫骨Pilon骨折", "lemmaCroppedTitle": "胫骨Pilon骨折", "lemmaDesc": "高速纵向压力造成胫骨下关节面粉碎性骨折及胫骨远端粉碎性骨折，骨折片向四周爆裂，就...", "lemmaUrl": "http://baike.baidu.com/item/%E8%83%AB%E9%AA%A8Pilon%E9%AA%A8%E6%8A%98/10085641", "lemmaPic": []}, {"lemmaId": 12676950, "lemmaTitle": "书写痉挛", "lemmaCroppedTitle": "书写痉挛", "lemmaDesc": "书写痉挛也称原发性书写震颤，是成年人最常见的动作性震颤，尤以书写时出现震颤，书写...", "lemmaUrl": "http://baike.baidu.com/item/%E4%B9%A6%E5%86%99%E7%97%89%E6%8C%9B/12676950", "lemmaPic": []}, {"lemmaId": 2354381, "lemmaTitle": "老年人脑心综合征", "lemmaCroppedTitle": "老年人脑心综合征", "lemmaDesc": "老年人心脑综合征因急性脑病主要为脑出血，蛛网膜下腔出血（SAH）、急性颅脑外伤累...", "lemmaUrl": "http://baike.baidu.com/item/%E8%80%81%E5%B9%B4%E4%BA%BA%E8%84%91%E5%BF%83%E7%BB%BC%E5%90%88%E5%BE%81/2354381", "lemmaPic": []}, {"lemmaId": 629068, "lemmaTitle": "小儿克罗恩病", "lemmaCroppedTitle": "小儿克罗恩病", "lemmaDesc": "克罗恩病是一种病因不明的胃肠道慢性炎性肉芽肿性疾病，合并纤维化和黏膜溃疡。病变可...", "lemmaUrl": "http://baike.baidu.com/item/%E5%B0%8F%E5%84%BF%E5%85%8B%E7%BD%97%E6%81%A9%E7%97%85/629068", "lemmaPic": []}, {"lemmaId": 7252947, "lemmaTitle": "外阴黑棘皮病", "lemmaCroppedTitle": "外阴黑棘皮病", "lemmaDesc": "外阴黑棘皮病是黑棘皮病累及外阴的表现，好发于外阴皱褶部位，是以外阴皮肤色素沉着、...", "lemmaUrl": "http://baike.baidu.com/item/%E5%A4%96%E9%98%B4%E9%BB%91%E6%A3%98%E7%9A%AE%E7%97%85/7252947", "lemmaPic": []}, {"lemmaId": 2349396, "lemmaTitle": "软化斑", "lemmaCroppedTitle": "软化斑", "lemmaDesc": "软化斑（malakoplakia）也称软斑症。它是一种罕见的组织学上独特的炎症反...", "lemmaUrl": "http://baike.baidu.com/item/%E8%BD%AF%E5%8C%96%E6%96%91/2349396", "lemmaPic": []}, {"lemmaId": 7253544, "lemmaTitle": "心肌梗死并发室间隔穿孔", "lemmaCroppedTitle": "心肌梗死并发室间隔穿孔", "lemmaDesc": "室间隔穿孔是急性心肌梗死后的严重并发症之一，在急性心肌梗死引致的心脏破裂中位于室...", "lemmaUrl": "http://baike.baidu.com/item/%E5%BF%83%E8%82%8C%E6%A2%97%E6%AD%BB%E5%B9%B6%E5%8F%91%E5%AE%A4%E9%97%B4%E9%9A%94%E7%A9%BF%E5%AD%94/7253544", "lemmaPic": []}, {"lemmaId": 2067942, "lemmaTitle": "创伤性枢椎前滑脱", "lemmaCroppedTitle": "创伤性枢椎前滑脱", "lemmaDesc": "创伤性枢椎前滑脱指的是枢椎双侧椎弓根骨折，伴或不伴前滑脱。1866年由Haugh...", "lemmaUrl": "http://baike.baidu.com/item/%E5%88%9B%E4%BC%A4%E6%80%A7%E6%9E%A2%E6%A4%8E%E5%89%8D%E6%BB%91%E8%84%B1/2067942", "lemmaPic": []}, {"lemmaId": 8767248, "lemmaTitle": "生长期脱发", "lemmaCroppedTitle": "生长期脱发", "lemmaDesc": "生长期脱发是一种累及大多数生长期毛囊的急性严重病变，可导致80%～90%的头发弥...", "lemmaUrl": "http://baike.baidu.com/item/%E7%94%9F%E9%95%BF%E6%9C%9F%E8%84%B1%E5%8F%91/8767248", "lemmaPic": []}, {"lemmaId": 2596855, "lemmaTitle": "科干综合征", "lemmaCroppedTitle": "科干综合征", "lemmaDesc": "科干综合征又称间质角膜炎-眩晕-神经性耳聋综合征，最早由Mogan和Baum G...", "lemmaUrl": "http://baike.baidu.com/item/%E7%A7%91%E5%B9%B2%E7%BB%BC%E5%90%88%E5%BE%81/2596855", "lemmaPic": []}], "total": 7246, "totalPage": 73, "page": 58, "fromLemma": 0}