{"lemmaList": [{"lemmaId": 2839339, "lemmaTitle": "并发截瘫的脊柱结核", "lemmaCroppedTitle": "并发截瘫的脊柱结核", "lemmaDesc": "脊柱结核合并瘫痪的发生率大约在10%，以胸椎结核发生截瘫的最多见，颈椎结核发生四...", "lemmaUrl": "http://baike.baidu.com/item/%E5%B9%B6%E5%8F%91%E6%88%AA%E7%98%AB%E7%9A%84%E8%84%8A%E6%9F%B1%E7%BB%93%E6%A0%B8/2839339", "lemmaPic": []}, {"lemmaId": 7242440, "lemmaTitle": "脂性渐进性坏死", "lemmaCroppedTitle": "脂性渐进性坏死", "lemmaDesc": "脂性渐进性坏死又称糖尿病性类脂质渐进性坏死，临床上以胫前出现大片硬皮病样斑块，常...", "lemmaUrl": "http://baike.baidu.com/item/%E8%84%82%E6%80%A7%E6%B8%90%E8%BF%9B%E6%80%A7%E5%9D%8F%E6%AD%BB/7242440", "lemmaPic": []}, {"lemmaId": 10226371, "lemmaTitle": "Becker痣", "lemmaCroppedTitle": "Becker痣", "lemmaDesc": "本病又称色素性毛表皮痣，大多后天发生，男性多见，好发于肩部。临床表现为稍高于皮面...", "lemmaUrl": "http://baike.baidu.com/item/Becker%E7%97%A3/10226371", "lemmaPic": []}, {"lemmaId": 1189904, "lemmaTitle": "新生儿肺气漏", "lemmaCroppedTitle": "新生儿肺气漏", "lemmaDesc": "新生儿肺气漏是由于各种原因使得肺泡中的气体漏入胸腔。空气漏出的类型取决于气体从正...", "lemmaUrl": "http://baike.baidu.com/item/%E6%96%B0%E7%94%9F%E5%84%BF%E8%82%BA%E6%B0%94%E6%BC%8F/1189904", "lemmaPic": []}, {"lemmaId": 7930597, "lemmaTitle": "肠道血管畸形", "lemmaCroppedTitle": "肠道血管畸形", "lemmaDesc": "肠道血管畸形包括动静脉畸形、血管扩张、血管瘤、血管发育不良等，是引起急性或慢性下...", "lemmaUrl": "http://baike.baidu.com/item/%E8%82%A0%E9%81%93%E8%A1%80%E7%AE%A1%E7%95%B8%E5%BD%A2/7930597", "lemmaPic": []}, {"lemmaId": 8451920, "lemmaTitle": "非霍乱弧菌感染", "lemmaCroppedTitle": "非霍乱弧菌感染", "lemmaDesc": "由非霍乱弧菌引起得感染，这类弧菌在生化和血清学方面均不同于霍乱弧菌，可因致病菌种...", "lemmaUrl": "http://baike.baidu.com/item/%E9%9D%9E%E9%9C%8D%E4%B9%B1%E5%BC%A7%E8%8F%8C%E6%84%9F%E6%9F%93/8451920", "lemmaPic": []}, {"lemmaId": 3103486, "lemmaTitle": "慢性纵隔炎", "lemmaCroppedTitle": "慢性纵隔炎", "lemmaDesc": "慢性纵隔炎又称特发性纵隔纤维化，病因较复杂。慢性纵隔炎可导致上腔静脉梗阻，患者出...", "lemmaUrl": "http://baike.baidu.com/item/%E6%85%A2%E6%80%A7%E7%BA%B5%E9%9A%94%E7%82%8E/3103486", "lemmaPic": []}, {"lemmaId": 7321171, "lemmaTitle": "放射性肾炎", "lemmaCroppedTitle": "放射性肾炎", "lemmaDesc": "放射性肾炎是大量接受放射性照射之后发生的慢性间质性肾炎，引起发病的照射量常在 2...", "lemmaUrl": "http://baike.baidu.com/item/%E6%94%BE%E5%B0%84%E6%80%A7%E8%82%BE%E7%82%8E/7321171", "lemmaPic": []}, {"lemmaId": 10112678, "lemmaTitle": "毛发腺瘤", "lemmaCroppedTitle": "毛发腺瘤", "lemmaDesc": "毛发腺瘤1958年由Nikolowski首先报告。罕见，男女发病率相等，好发于成...", "lemmaUrl": "http://baike.baidu.com/item/%E6%AF%9B%E5%8F%91%E8%85%BA%E7%98%A4/10112678", "lemmaPic": []}, {"lemmaId": 10455920, "lemmaTitle": "咽部机械性创伤", "lemmaCroppedTitle": "咽部机械性创伤", "lemmaDesc": "咽部机械性创伤多由外界的直接暴力引起，如战伤、交通事故、工伤、自杀等，也可由来自...", "lemmaUrl": "http://baike.baidu.com/item/%E5%92%BD%E9%83%A8%E6%9C%BA%E6%A2%B0%E6%80%A7%E5%88%9B%E4%BC%A4/10455920", "lemmaPic": []}, {"lemmaId": 1963661, "lemmaTitle": "慢性乳头状溃疡性脓皮病", "lemmaCroppedTitle": "慢性乳头状溃疡性脓皮病", "lemmaDesc": "慢性乳头状溃疡性脓皮病是指一种乳头状或疣状增殖、伴瘘管与溃疡等形成的慢性皮肤病。...", "lemmaUrl": "http://baike.baidu.com/item/%E6%85%A2%E6%80%A7%E4%B9%B3%E5%A4%B4%E7%8A%B6%E6%BA%83%E7%96%A1%E6%80%A7%E8%84%93%E7%9A%AE%E7%97%85/1963661", "lemmaPic": []}, {"lemmaId": 12676745, "lemmaTitle": "蜂窝肺综合征", "lemmaCroppedTitle": "蜂窝肺综合征", "lemmaDesc": "蜂窝肺综合征（honeycomb lung syndrome）是指肺内有很多肉眼...", "lemmaUrl": "http://baike.baidu.com/item/%E8%9C%82%E7%AA%9D%E8%82%BA%E7%BB%BC%E5%90%88%E5%BE%81/12676745", "lemmaPic": []}, {"lemmaId": 1965492, "lemmaTitle": "外阴恶性淋巴瘤", "lemmaCroppedTitle": "外阴恶性淋巴瘤", "lemmaDesc": "恶性淋巴瘤累及生殖道通常是全身性疾病的一部分，但原发性的外阴恶性淋巴瘤也有报道。...", "lemmaUrl": "http://baike.baidu.com/item/%E5%A4%96%E9%98%B4%E6%81%B6%E6%80%A7%E6%B7%8B%E5%B7%B4%E7%98%A4/1965492", "lemmaPic": []}, {"lemmaId": 5893171, "lemmaTitle": "颈部动脉损伤", "lemmaCroppedTitle": "颈部动脉损伤", "lemmaDesc": "颈部大动脉主要指颈总动脉、颈内动脉等。发生损伤时，常有致命性的喷射性出血，不及时...", "lemmaUrl": "http://baike.baidu.com/item/%E9%A2%88%E9%83%A8%E5%8A%A8%E8%84%89%E6%8D%9F%E4%BC%A4/5893171", "lemmaPic": []}, {"lemmaId": 3221922, "lemmaTitle": "骨产道异常性难产", "lemmaCroppedTitle": "骨产道异常性难产", "lemmaDesc": "骨产道异常即指骨盆径线过短或形态异常，小于胎儿先露部能通过的限度，影响产程顺利进...", "lemmaUrl": "http://baike.baidu.com/item/%E9%AA%A8%E4%BA%A7%E9%81%93%E5%BC%82%E5%B8%B8%E6%80%A7%E9%9A%BE%E4%BA%A7/3221922", "lemmaPic": []}, {"lemmaId": 6903910, "lemmaTitle": "无脉络膜症", "lemmaCroppedTitle": "无脉络膜症", "lemmaDesc": "无脉络膜症又称全脉络膜血管萎缩、进行性脉络膜萎缩、进行性毯层脉络膜萎缩。其特点是...", "lemmaUrl": "http://baike.baidu.com/item/%E6%97%A0%E8%84%89%E7%BB%9C%E8%86%9C%E7%97%87/6903910", "lemmaPic": []}, {"lemmaId": 258889, "lemmaTitle": "地霉菌病", "lemmaCroppedTitle": "地霉菌病", "lemmaDesc": "地霉菌病是一种偶见的由条件致病菌-念珠地丝菌所引起。此菌为酵母样真菌，广泛分布，...", "lemmaUrl": "http://baike.baidu.com/item/%E5%9C%B0%E9%9C%89%E8%8F%8C%E7%97%85/258889", "lemmaPic": []}, {"lemmaId": 2352402, "lemmaTitle": "嵌杯样病毒胃肠炎", "lemmaCroppedTitle": "嵌杯样病毒胃肠炎", "lemmaDesc": "嵌杯样病毒胃肠炎是由嵌杯样病毒感染所引起，常暴发流行。6～12岁儿童全部受染。全...", "lemmaUrl": "http://baike.baidu.com/item/%E5%B5%8C%E6%9D%AF%E6%A0%B7%E7%97%85%E6%AF%92%E8%83%83%E8%82%A0%E7%82%8E/2352402", "lemmaPic": []}, {"lemmaId": 7506027, "lemmaTitle": "食滞胃脘", "lemmaCroppedTitle": "食滞胃脘", "lemmaDesc": "指饮食停积胃脘，气失和降，阻滞不通，不能腐熟所表现的证候。以胃脘胀满或疼痛，恶闻...", "lemmaUrl": "http://baike.baidu.com/item/%E9%A3%9F%E6%BB%9E%E8%83%83%E8%84%98/7506027", "lemmaPic": []}, {"lemmaId": 9691529, "lemmaTitle": "白色海绵状痣", "lemmaCroppedTitle": "白色海绵状痣", "lemmaDesc": "白色海绵状痣又称坎农综合征、先天性白色角化症、白色皱襞性齿龈口腔炎等。本病虽名为...", "lemmaUrl": "http://baike.baidu.com/item/%E7%99%BD%E8%89%B2%E6%B5%B7%E7%BB%B5%E7%8A%B6%E7%97%A3/9691529", "lemmaPic": []}, {"lemmaId": 15181241, "lemmaTitle": "马拉色菌相关疾病", "lemmaCroppedTitle": "马拉色菌相关疾病", "lemmaDesc": "马拉色菌是一组常驻于人体和温血动物皮肤表面的嗜脂性酵母，在人头皮、面部、外耳道和...", "lemmaUrl": "http://baike.baidu.com/item/%E9%A9%AC%E6%8B%89%E8%89%B2%E8%8F%8C%E7%9B%B8%E5%85%B3%E7%96%BE%E7%97%85/15181241", "lemmaPic": []}, {"lemmaId": 5424068, "lemmaTitle": "肢骨纹状肥大", "lemmaCroppedTitle": "肢骨纹状肥大", "lemmaDesc": "肢骨纹状肥大又称骨熔烛样病，单肢型烛泪样骨质增生症，及Leri骨质硬化症蜡烛骨等...", "lemmaUrl": "http://baike.baidu.com/item/%E8%82%A2%E9%AA%A8%E7%BA%B9%E7%8A%B6%E8%82%A5%E5%A4%A7/5424068", "lemmaPic": []}, {"lemmaId": 790508, "lemmaTitle": "肺疟疾病", "lemmaCroppedTitle": "肺疟疾病", "lemmaDesc": "肺疟疾病是指疟原虫对肺部的损害。机体被疟原虫感染后可有或无典型的疟疾全身症状同时...", "lemmaUrl": "http://baike.baidu.com/item/%E8%82%BA%E7%96%9F%E7%96%BE%E7%97%85/790508", "lemmaPic": []}, {"lemmaId": 2282847, "lemmaTitle": "血影细胞性青光眼", "lemmaCroppedTitle": "血影细胞性青光眼", "lemmaDesc": "血影细胞性青光眼的命名是在1976年Campbell等首先报道在玻璃体积血以及因...", "lemmaUrl": "http://baike.baidu.com/item/%E8%A1%80%E5%BD%B1%E7%BB%86%E8%83%9E%E6%80%A7%E9%9D%92%E5%85%89%E7%9C%BC/2282847", "lemmaPic": []}, {"lemmaId": 9919407, "lemmaTitle": "先天性远端尺桡关节半脱位", "lemmaCroppedTitle": "先天性远端尺桡关节半脱位", "lemmaDesc": "先天性腕关节半脱位也称为先天性Madelung畸形（马德隆畸形）、桡骨远端骨骺发...", "lemmaUrl": "http://baike.baidu.com/item/%E5%85%88%E5%A4%A9%E6%80%A7%E8%BF%9C%E7%AB%AF%E5%B0%BA%E6%A1%A1%E5%85%B3%E8%8A%82%E5%8D%8A%E8%84%B1%E4%BD%8D/9919407", "lemmaPic": []}, {"lemmaId": 5857030, "lemmaTitle": "脉络膜脱离型视网膜脱离", "lemmaCroppedTitle": "脉络膜脱离型视网膜脱离", "lemmaDesc": "孔源性视网膜脱离伴有睫状体、脉络膜脱离，是一种特殊类型也是较复杂的视网膜脱离称脉...", "lemmaUrl": "http://baike.baidu.com/item/%E8%84%89%E7%BB%9C%E8%86%9C%E8%84%B1%E7%A6%BB%E5%9E%8B%E8%A7%86%E7%BD%91%E8%86%9C%E8%84%B1%E7%A6%BB/5857030", "lemmaPic": []}, {"lemmaId": 5124696, "lemmaTitle": "肛膜闭锁", "lemmaCroppedTitle": "肛膜闭锁", "lemmaDesc": "肛膜闭锁又称肛门膜状闭锁，是因肛膜未破，肛门与直肠被一层薄膜完全分隔，不能排粪的...", "lemmaUrl": "http://baike.baidu.com/item/%E8%82%9B%E8%86%9C%E9%97%AD%E9%94%81/5124696", "lemmaPic": []}, {"lemmaId": 528394, "lemmaTitle": "肺蛔虫病", "lemmaCroppedTitle": "肺蛔虫病", "lemmaDesc": "主要是由蛔蚴移行、成虫异位寄生及虫卵肺部沉积所引起的呼吸道病变，占异位蛔虫病的第...", "lemmaUrl": "http://baike.baidu.com/item/%E8%82%BA%E8%9B%94%E8%99%AB%E7%97%85/528394", "lemmaPic": []}, {"lemmaId": 1921985, "lemmaTitle": "椎管内转移性肿瘤", "lemmaCroppedTitle": "椎管内转移性肿瘤", "lemmaDesc": "椎管内转移瘤压迫脊髓较为常见，因绝大多数患者一旦诊断为椎管内转移瘤后往往接受单纯...", "lemmaUrl": "http://baike.baidu.com/item/%E6%A4%8E%E7%AE%A1%E5%86%85%E8%BD%AC%E7%A7%BB%E6%80%A7%E8%82%BF%E7%98%A4/1921985", "lemmaPic": []}, {"lemmaId": 6853895, "lemmaTitle": "暗色丝孢霉病", "lemmaCroppedTitle": "暗色丝孢霉病", "lemmaDesc": "暗色丝孢霉病是一组暗色真菌引起的皮肤、皮下组织或系统性感染，多见于热带。临床表现...", "lemmaUrl": "http://baike.baidu.com/item/%E6%9A%97%E8%89%B2%E4%B8%9D%E5%AD%A2%E9%9C%89%E7%97%85/6853895", "lemmaPic": []}, {"lemmaId": 12676695, "lemmaTitle": "小儿偏头痛", "lemmaCroppedTitle": "小儿偏头痛", "lemmaDesc": "小儿偏头痛是常见的儿科神经系统慢性复发性头痛病症，患儿年龄多在6～12岁，10岁...", "lemmaUrl": "http://baike.baidu.com/item/%E5%B0%8F%E5%84%BF%E5%81%8F%E5%A4%B4%E7%97%9B/12676695", "lemmaPic": []}, {"lemmaId": 821166, "lemmaTitle": "点状骨骺发育异常", "lemmaCroppedTitle": "点状骨骺发育异常", "lemmaDesc": "点状骨骺发育异常主要表现为骨骺部位有分散的钙化点。亦称先天性钙化性软骨营养障碍及...", "lemmaUrl": "http://baike.baidu.com/item/%E7%82%B9%E7%8A%B6%E9%AA%A8%E9%AA%BA%E5%8F%91%E8%82%B2%E5%BC%82%E5%B8%B8/821166", "lemmaPic": []}, {"lemmaId": 2644034, "lemmaTitle": "鸟枪弹样视网膜脉络膜病变", "lemmaCroppedTitle": "鸟枪弹样视网膜脉络膜病变", "lemmaDesc": "鸟枪弹样视网膜脉络膜病变是一种少见的慢性双侧性脉络膜视网膜炎，其特征为视网膜下多...", "lemmaUrl": "http://baike.baidu.com/item/%E9%B8%9F%E6%9E%AA%E5%BC%B9%E6%A0%B7%E8%A7%86%E7%BD%91%E8%86%9C%E8%84%89%E7%BB%9C%E8%86%9C%E7%97%85%E5%8F%98/2644034", "lemmaPic": []}, {"lemmaId": 7558017, "lemmaTitle": "小儿假肥大型肌营养不良", "lemmaCroppedTitle": "小儿假肥大型肌营养不良", "lemmaDesc": "假肥大型肌营养不良包括DMD（DMD）和BMD（BMD）两型，是为原发于肌肉组织...", "lemmaUrl": "http://baike.baidu.com/item/%E5%B0%8F%E5%84%BF%E5%81%87%E8%82%A5%E5%A4%A7%E5%9E%8B%E8%82%8C%E8%90%A5%E5%85%BB%E4%B8%8D%E8%89%AF/7558017", "lemmaPic": []}, {"lemmaId": 2839062, "lemmaTitle": "副肿瘤性小脑变性", "lemmaCroppedTitle": "副肿瘤性小脑变性", "lemmaDesc": "副肿瘤性小脑变性又称为亚急性小脑变性，是累及中枢神经系统最多见的神经系统副肿瘤综...", "lemmaUrl": "http://baike.baidu.com/item/%E5%89%AF%E8%82%BF%E7%98%A4%E6%80%A7%E5%B0%8F%E8%84%91%E5%8F%98%E6%80%A7/2839062", "lemmaPic": []}, {"lemmaId": 7253923, "lemmaTitle": "新生儿高血糖症", "lemmaCroppedTitle": "新生儿高血糖症", "lemmaDesc": "目前国内多以静脉血糖>7.0mmol/L作为高血糖症的诊断标准，由于新生儿肾糖阈...", "lemmaUrl": "http://baike.baidu.com/item/%E6%96%B0%E7%94%9F%E5%84%BF%E9%AB%98%E8%A1%80%E7%B3%96%E7%97%87/7253923", "lemmaPic": []}, {"lemmaId": 6176531, "lemmaTitle": "单纯性脊柱结核", "lemmaCroppedTitle": "单纯性脊柱结核", "lemmaDesc": "脊柱结核占全身骨关节结核的首位，其中以椎体结核占大多数，附件结核十分罕见。椎体以...", "lemmaUrl": "http://baike.baidu.com/item/%E5%8D%95%E7%BA%AF%E6%80%A7%E8%84%8A%E6%9F%B1%E7%BB%93%E6%A0%B8/6176531", "lemmaPic": []}, {"lemmaId": 12000415, "lemmaTitle": "特发性急性肾小管间质性肾炎", "lemmaCroppedTitle": "特发性急性肾小管间质性肾炎", "lemmaDesc": "特发性急性肾小管间质性肾炎（ATIN）是一种非药物、非感染、非系统性疾病引起的病...", "lemmaUrl": "http://baike.baidu.com/item/%E7%89%B9%E5%8F%91%E6%80%A7%E6%80%A5%E6%80%A7%E8%82%BE%E5%B0%8F%E7%AE%A1%E9%97%B4%E8%B4%A8%E6%80%A7%E8%82%BE%E7%82%8E/12000415", "lemmaPic": []}, {"lemmaId": 3277360, "lemmaTitle": "生脓性肉芽肿", "lemmaCroppedTitle": "生脓性肉芽肿", "lemmaDesc": "生脓性肉芽肿又称毛细血管增生性肉芽肿，系皮肤受损伤后化脓菌侵入皮肤伤口，引起炎性...", "lemmaUrl": "http://baike.baidu.com/item/%E7%94%9F%E8%84%93%E6%80%A7%E8%82%89%E8%8A%BD%E8%82%BF/3277360", "lemmaPic": []}, {"lemmaId": 6289715, "lemmaTitle": "阿根廷出血热", "lemmaCroppedTitle": "阿根廷出血热", "lemmaDesc": "阿根廷出血热是分别由鸠宁和马秋博病毒引起的，啮齿动物为主的自然疫源性疾病。临床特...", "lemmaUrl": "http://baike.baidu.com/item/%E9%98%BF%E6%A0%B9%E5%BB%B7%E5%87%BA%E8%A1%80%E7%83%AD/6289715", "lemmaPic": []}, {"lemmaId": 1162520, "lemmaTitle": "皮肤骨瘤", "lemmaCroppedTitle": "皮肤骨瘤", "lemmaDesc": "皮肤骨瘤为一种皮肤良性肿瘤，临床罕见。皮肤内骨质形成可为原发性，也可为继发性。前...", "lemmaUrl": "http://baike.baidu.com/item/%E7%9A%AE%E8%82%A4%E9%AA%A8%E7%98%A4/1162520", "lemmaPic": []}, {"lemmaId": 10575318, "lemmaTitle": "复孔绦虫病", "lemmaCroppedTitle": "复孔绦虫病", "lemmaDesc": "复孔绦虫病是由犬复孔绦虫寄生肠道所致，主要由虫体对宿主肠壁黏膜的损伤及其分泌的毒...", "lemmaUrl": "http://baike.baidu.com/item/%E5%A4%8D%E5%AD%94%E7%BB%A6%E8%99%AB%E7%97%85/10575318", "lemmaPic": []}, {"lemmaId": 1155205, "lemmaTitle": "男性生殖系结核", "lemmaCroppedTitle": "男性生殖系结核", "lemmaDesc": "男性生殖系结核大多数继发于肾结核，来自后尿道感染；少数由血行直接播散所致。首先引...", "lemmaUrl": "http://baike.baidu.com/item/%E7%94%B7%E6%80%A7%E7%94%9F%E6%AE%96%E7%B3%BB%E7%BB%93%E6%A0%B8/1155205", "lemmaPic": []}, {"lemmaId": 1312404, "lemmaTitle": "颈椎半椎体畸形", "lemmaCroppedTitle": "颈椎半椎体畸形", "lemmaDesc": "此种畸形在颈椎较少见，其可表现为1/2或2/3椎体的规则或不规则缺如；残存的部分...", "lemmaUrl": "http://baike.baidu.com/item/%E9%A2%88%E6%A4%8E%E5%8D%8A%E6%A4%8E%E4%BD%93%E7%95%B8%E5%BD%A2/1312404", "lemmaPic": []}, {"lemmaId": 3030376, "lemmaTitle": "增生性毛根鞘瘤", "lemmaCroppedTitle": "增生性毛根鞘瘤", "lemmaDesc": "增生性毛根鞘瘤也称增生性毛发肿瘤、增生性毛根鞘囊肿。本病是起源于毛囊外毛根鞘的良...", "lemmaUrl": "http://baike.baidu.com/item/%E5%A2%9E%E7%94%9F%E6%80%A7%E6%AF%9B%E6%A0%B9%E9%9E%98%E7%98%A4/3030376", "lemmaPic": []}, {"lemmaId": 7870618, "lemmaTitle": "新生儿肛门和直肠畸形", "lemmaCroppedTitle": "新生儿肛门和直肠畸形", "lemmaDesc": "肛门和直肠畸形在新生儿期发病率为0.75‰，占消化道畸形的首位。男孩稍多见，有一...", "lemmaUrl": "http://baike.baidu.com/item/%E6%96%B0%E7%94%9F%E5%84%BF%E8%82%9B%E9%97%A8%E5%92%8C%E7%9B%B4%E8%82%A0%E7%95%B8%E5%BD%A2/7870618", "lemmaPic": []}, {"lemmaId": 12676774, "lemmaTitle": "老年人肺心病", "lemmaCroppedTitle": "老年人肺心病", "lemmaDesc": "老年人肺心病，即慢性肺源性心脏病是由肺组织肺动脉血管或胸廓的慢性病变引起肺组织结...", "lemmaUrl": "http://baike.baidu.com/item/%E8%80%81%E5%B9%B4%E4%BA%BA%E8%82%BA%E5%BF%83%E7%97%85/12676774", "lemmaPic": []}, {"lemmaId": 2065566, "lemmaTitle": "小儿黑酸尿综合征", "lemmaCroppedTitle": "小儿黑酸尿综合征", "lemmaDesc": "小儿黑酸尿综合征即Garrod综合征，又称褐黄病综合征（内源性褐黄病）。常于出生...", "lemmaUrl": "http://baike.baidu.com/item/%E5%B0%8F%E5%84%BF%E9%BB%91%E9%85%B8%E5%B0%BF%E7%BB%BC%E5%90%88%E5%BE%81/2065566", "lemmaPic": []}, {"lemmaId": 7841093, "lemmaTitle": "黏膜白色海绵状痣", "lemmaCroppedTitle": "黏膜白色海绵状痣", "lemmaDesc": "黏膜白色海绵状痣又称口腔上皮痣或先天性白色角化症，白色皱襞性齿龈斑。本病虽名为痣...", "lemmaUrl": "http://baike.baidu.com/item/%E9%BB%8F%E8%86%9C%E7%99%BD%E8%89%B2%E6%B5%B7%E7%BB%B5%E7%8A%B6%E7%97%A3/7841093", "lemmaPic": []}, {"lemmaId": 3040714, "lemmaTitle": "闭经性头痛", "lemmaCroppedTitle": "闭经性头痛", "lemmaDesc": "临床上把女性在月经前后及月经期间发生的头痛称为经期头痛，或称“月经性头痛”，为妇...", "lemmaUrl": "http://baike.baidu.com/item/%E9%97%AD%E7%BB%8F%E6%80%A7%E5%A4%B4%E7%97%9B/3040714", "lemmaPic": []}, {"lemmaId": 3742852, "lemmaTitle": "致命性中线肉芽肿", "lemmaCroppedTitle": "致命性中线肉芽肿", "lemmaDesc": "致命性中线肉芽肿病是一种原因不明的面中部组织破坏性非特异性肉芽肿性溃疡，呈慢性进...", "lemmaUrl": "http://baike.baidu.com/item/%E8%87%B4%E5%91%BD%E6%80%A7%E4%B8%AD%E7%BA%BF%E8%82%89%E8%8A%BD%E8%82%BF/3742852", "lemmaPic": []}, {"lemmaId": 3240132, "lemmaTitle": "骨神经鞘瘤", "lemmaCroppedTitle": "骨神经鞘瘤", "lemmaDesc": "骨神经鞘瘤很少见，是骨内神经鞘细胞所产生的良性肿瘤，肿瘤发展缓慢，病程较长。好发...", "lemmaUrl": "http://baike.baidu.com/item/%E9%AA%A8%E7%A5%9E%E7%BB%8F%E9%9E%98%E7%98%A4/3240132", "lemmaPic": []}, {"lemmaId": 10815786, "lemmaTitle": "风牵偏视", "lemmaCroppedTitle": "风牵偏视", "lemmaDesc": "风牵偏视又名风牵沸薄⒖谘沸薄６嘁蛐爸芯络，气血不和，筋脉失养，弛张不收所致。...", "lemmaUrl": "http://baike.baidu.com/item/%E9%A3%8E%E7%89%B5%E5%81%8F%E8%A7%86/10815786", "lemmaPic": []}, {"lemmaId": 10815897, "lemmaTitle": "赤丝虬脉", "lemmaCroppedTitle": "赤丝虬脉", "lemmaDesc": "赤丝虬脉指气轮白睛上血络赤丝明颢的病症。多因血络瘀滞所致。椒疮、粟疮一类病症，常...", "lemmaUrl": "http://baike.baidu.com/item/%E8%B5%A4%E4%B8%9D%E8%99%AC%E8%84%89/10815897", "lemmaPic": []}, {"lemmaId": 3074056, "lemmaTitle": "铜绿色假单胞菌脑膜炎", "lemmaCroppedTitle": "铜绿色假单胞菌脑膜炎", "lemmaDesc": "铜绿色假单胞菌是假单胞菌属中的主要种别，也是临床上引起各种感染的主要致命病菌。铜...", "lemmaUrl": "http://baike.baidu.com/item/%E9%93%9C%E7%BB%BF%E8%89%B2%E5%81%87%E5%8D%95%E8%83%9E%E8%8F%8C%E8%84%91%E8%86%9C%E7%82%8E/3074056", "lemmaPic": []}, {"lemmaId": 911762, "lemmaTitle": "睫状体黑色素瘤", "lemmaCroppedTitle": "睫状体黑色素瘤", "lemmaDesc": "睫状体黑色素瘤是一种发生于睫状体部位的恶性肿瘤，其组织来源于睫状体基质内黑色素细...", "lemmaUrl": "http://baike.baidu.com/item/%E7%9D%AB%E7%8A%B6%E4%BD%93%E9%BB%91%E8%89%B2%E7%B4%A0%E7%98%A4/911762", "lemmaPic": []}, {"lemmaId": 919824, "lemmaTitle": "肝纤维板层癌", "lemmaCroppedTitle": "肝纤维板层癌", "lemmaDesc": "肝纤维板层癌（FIC）是一种罕见的原发性肝脏恶性肿瘤，多见于无肝硬化的年轻患者。...", "lemmaUrl": "http://baike.baidu.com/item/%E8%82%9D%E7%BA%A4%E7%BB%B4%E6%9D%BF%E5%B1%82%E7%99%8C/919824", "lemmaPic": []}, {"lemmaId": 2200424, "lemmaTitle": "手部血管损伤", "lemmaCroppedTitle": "手部血管损伤", "lemmaDesc": "切割、锐器或枪弹均可致手部血管损伤。手部血供极为丰富。主要来源是桡动脉和尺动脉；...", "lemmaUrl": "http://baike.baidu.com/item/%E6%89%8B%E9%83%A8%E8%A1%80%E7%AE%A1%E6%8D%9F%E4%BC%A4/2200424", "lemmaPic": []}, {"lemmaId": 2236270, "lemmaTitle": "小儿先天性侏儒痴呆综合征", "lemmaCroppedTitle": "小儿先天性侏儒痴呆综合征", "lemmaDesc": "先天性侏儒痴呆综合征又称Noonan综合征、Noonan-Ehmke综合征、假性...", "lemmaUrl": "http://baike.baidu.com/item/%E5%B0%8F%E5%84%BF%E5%85%88%E5%A4%A9%E6%80%A7%E4%BE%8F%E5%84%92%E7%97%B4%E5%91%86%E7%BB%BC%E5%90%88%E5%BE%81/2236270", "lemmaPic": []}, {"lemmaId": 4623304, "lemmaTitle": "遗传性乳光牙本质", "lemmaCroppedTitle": "遗传性乳光牙本质", "lemmaDesc": "遗传性乳光牙本质又称遗传性牙本质发育不全，或遗传性乳光牙，因具有家族遗传性且牙齿...", "lemmaUrl": "http://baike.baidu.com/item/%E9%81%97%E4%BC%A0%E6%80%A7%E4%B9%B3%E5%85%89%E7%89%99%E6%9C%AC%E8%B4%A8/4623304", "lemmaPic": []}, {"lemmaId": 2189483, "lemmaTitle": "痛性肥胖病", "lemmaCroppedTitle": "痛性肥胖病", "lemmaDesc": "痛性肥胖又被称为Dercum病，为超重或肥胖伴有脂肪组织的疼痛。多见于30～50...", "lemmaUrl": "http://baike.baidu.com/item/%E7%97%9B%E6%80%A7%E8%82%A5%E8%83%96%E7%97%85/2189483", "lemmaPic": []}, {"lemmaId": 923260, "lemmaTitle": "胃内隔膜", "lemmaCroppedTitle": "胃内隔膜", "lemmaDesc": "胃内隔膜是幽门闭锁的一种类型，最常见的症状为呕吐，生后不久即出现，多在食后即吐，...", "lemmaUrl": "http://baike.baidu.com/item/%E8%83%83%E5%86%85%E9%9A%94%E8%86%9C/923260", "lemmaPic": []}, {"lemmaId": 945624, "lemmaTitle": "畸形性吞咽困难", "lemmaCroppedTitle": "畸形性吞咽困难", "lemmaDesc": "畸形性吞咽困难早在1787年由Bayford提出，是因右锁骨下动脉起始部发育畸形...", "lemmaUrl": "http://baike.baidu.com/item/%E7%95%B8%E5%BD%A2%E6%80%A7%E5%90%9E%E5%92%BD%E5%9B%B0%E9%9A%BE/945624", "lemmaPic": []}, {"lemmaId": 5024455, "lemmaTitle": "眼眶内海绵状血管瘤", "lemmaCroppedTitle": "眼眶内海绵状血管瘤", "lemmaDesc": "海绵状血管瘤因肿瘤内为海绵样血管窦腔而得名。是成年人最常见的原发于眶内的肿瘤，占...", "lemmaUrl": "http://baike.baidu.com/item/%E7%9C%BC%E7%9C%B6%E5%86%85%E6%B5%B7%E7%BB%B5%E7%8A%B6%E8%A1%80%E7%AE%A1%E7%98%A4/5024455", "lemmaPic": []}, {"lemmaId": 4012515, "lemmaTitle": "眼外肌发育不全", "lemmaCroppedTitle": "眼外肌发育不全", "lemmaDesc": "眼外肌发育不全为眼外肌完全或部分不发育，以及眼外肌止端异位附着的先天性发育异常。...", "lemmaUrl": "http://baike.baidu.com/item/%E7%9C%BC%E5%A4%96%E8%82%8C%E5%8F%91%E8%82%B2%E4%B8%8D%E5%85%A8/4012515", "lemmaPic": []}, {"lemmaId": 728236, "lemmaTitle": "肠病性肢皮炎综合征", "lemmaCroppedTitle": "肠病性肢皮炎综合征", "lemmaDesc": "肠病性肢皮炎综合征是一种罕见的慢性皮肤病。1936年，首先由Brandt报告，故...", "lemmaUrl": "http://baike.baidu.com/item/%E8%82%A0%E7%97%85%E6%80%A7%E8%82%A2%E7%9A%AE%E7%82%8E%E7%BB%BC%E5%90%88%E5%BE%81/728236", "lemmaPic": []}, {"lemmaId": 10456240, "lemmaTitle": "口咽部粘连", "lemmaCroppedTitle": "口咽部粘连", "lemmaDesc": "口咽部粘连是在软腭、咽弓与舌根部之间因瘢痕组织而导致的粘连。", "lemmaUrl": "http://baike.baidu.com/item/%E5%8F%A3%E5%92%BD%E9%83%A8%E7%B2%98%E8%BF%9E/10456240", "lemmaPic": []}, {"lemmaId": 1544992, "lemmaTitle": "先天性胸骨旁疝", "lemmaCroppedTitle": "先天性胸骨旁疝", "lemmaDesc": "先天性胸骨旁疝又称Morgagni疝，多为成年女性、肥胖者，右侧多见，疝入的器官...", "lemmaUrl": "http://baike.baidu.com/item/%E5%85%88%E5%A4%A9%E6%80%A7%E8%83%B8%E9%AA%A8%E6%97%81%E7%96%9D/1544992", "lemmaPic": []}, {"lemmaId": 12428488, "lemmaTitle": "小儿人类细小病毒B19感染", "lemmaCroppedTitle": "小儿人类细小病毒B19感染", "lemmaDesc": "人类细小病毒B19（简称B19）引起的典型疾病是传染性红斑和急性关节病。但该病毒...", "lemmaUrl": "http://baike.baidu.com/item/%E5%B0%8F%E5%84%BF%E4%BA%BA%E7%B1%BB%E7%BB%86%E5%B0%8F%E7%97%85%E6%AF%92B19%E6%84%9F%E6%9F%93/12428488", "lemmaPic": []}, {"lemmaId": 2130690, "lemmaTitle": "免疫缺陷者肺炎", "lemmaCroppedTitle": "免疫缺陷者肺炎", "lemmaDesc": "免疫缺陷者肺炎是已有自身免疫系统缺陷疾病的患者，肺部受到病原体感染后出现的肺炎。...", "lemmaUrl": "http://baike.baidu.com/item/%E5%85%8D%E7%96%AB%E7%BC%BA%E9%99%B7%E8%80%85%E8%82%BA%E7%82%8E/2130690", "lemmaPic": []}, {"lemmaId": 9920022, "lemmaTitle": "小儿特发性尿钙增多症", "lemmaCroppedTitle": "小儿特发性尿钙增多症", "lemmaDesc": "特发性尿钙增多症是一种病因未完全明了的尿钙增多并伴有尿铬结石而血钙正常的疾病。2...", "lemmaUrl": "http://baike.baidu.com/item/%E5%B0%8F%E5%84%BF%E7%89%B9%E5%8F%91%E6%80%A7%E5%B0%BF%E9%92%99%E5%A2%9E%E5%A4%9A%E7%97%87/9920022", "lemmaPic": []}, {"lemmaId": 5085700, "lemmaTitle": "骨放线菌病", "lemmaCroppedTitle": "骨放线菌病", "lemmaDesc": "骨放线菌病是一种深部的霉菌病，少见，本病在我国西北部偶见。以农村病人为多。发病的...", "lemmaUrl": "http://baike.baidu.com/item/%E9%AA%A8%E6%94%BE%E7%BA%BF%E8%8F%8C%E7%97%85/5085700", "lemmaPic": []}, {"lemmaId": 743399, "lemmaTitle": "横膈下结肠嵌入综合征", "lemmaCroppedTitle": "横膈下结肠嵌入综合征", "lemmaDesc": "横膈下结肠嵌入综合征亦称间位结肠综合征，是指结肠（多为肝曲）由肝前间隙或肝后间隙...", "lemmaUrl": "http://baike.baidu.com/item/%E6%A8%AA%E8%86%88%E4%B8%8B%E7%BB%93%E8%82%A0%E5%B5%8C%E5%85%A5%E7%BB%BC%E5%90%88%E5%BE%81/743399", "lemmaPic": []}, {"lemmaId": 2889266, "lemmaTitle": "持续性输卵管妊娠", "lemmaCroppedTitle": "持续性输卵管妊娠", "lemmaDesc": "持续性输卵管妊娠是指在输卵管妊娠保守性手术或药物治疗后仍有滋养细胞存活，人绒毛膜...", "lemmaUrl": "http://baike.baidu.com/item/%E6%8C%81%E7%BB%AD%E6%80%A7%E8%BE%93%E5%8D%B5%E7%AE%A1%E5%A6%8A%E5%A8%A0/2889266", "lemmaPic": []}, {"lemmaId": 5086349, "lemmaTitle": "骨与关节梅毒", "lemmaCroppedTitle": "骨与关节梅毒", "lemmaDesc": "梅毒是旧社会遗留下来的性病，近年来又有新的发生。骨与关节的梅毒是全身性梅毒感染在...", "lemmaUrl": "http://baike.baidu.com/item/%E9%AA%A8%E4%B8%8E%E5%85%B3%E8%8A%82%E6%A2%85%E6%AF%92/5086349", "lemmaPic": []}, {"lemmaId": 1932445, "lemmaTitle": "弯曲菌性肠炎", "lemmaCroppedTitle": "弯曲菌性肠炎", "lemmaDesc": "弯曲菌属细菌可引起人及动物腹泻。与人类有关的包括空肠弯曲菌、胎儿弯曲菌等亚种，以...", "lemmaUrl": "http://baike.baidu.com/item/%E5%BC%AF%E6%9B%B2%E8%8F%8C%E6%80%A7%E8%82%A0%E7%82%8E/1932445", "lemmaPic": []}, {"lemmaId": 9345271, "lemmaTitle": "多内分泌腺自身免疫综合征", "lemmaCroppedTitle": "多内分泌腺自身免疫综合征", "lemmaDesc": "两个或两个以上的内分泌腺体自身免疫病可以发生于同一患者，有的还合并其他自身免疫病...", "lemmaUrl": "http://baike.baidu.com/item/%E5%A4%9A%E5%86%85%E5%88%86%E6%B3%8C%E8%85%BA%E8%87%AA%E8%BA%AB%E5%85%8D%E7%96%AB%E7%BB%BC%E5%90%88%E5%BE%81/9345271", "lemmaPic": []}, {"lemmaId": 362873, "lemmaTitle": "小袋纤毛虫病", "lemmaCroppedTitle": "小袋纤毛虫病", "lemmaDesc": "小袋纤毛虫病是结肠小袋纤毛虫寄生在人体结肠引起的原虫病。据调查，我国已有22个省...", "lemmaUrl": "http://baike.baidu.com/item/%E5%B0%8F%E8%A2%8B%E7%BA%A4%E6%AF%9B%E8%99%AB%E7%97%85/362873", "lemmaPic": []}, {"lemmaId": 5344857, "lemmaTitle": "儿童松果体区肿瘤", "lemmaCroppedTitle": "儿童松果体区肿瘤", "lemmaDesc": "松果体区肿瘤在儿童期的发病率较成人高2倍以上。肿瘤可致脑积水及颅高压，使邻近结构...", "lemmaUrl": "http://baike.baidu.com/item/%E5%84%BF%E7%AB%A5%E6%9D%BE%E6%9E%9C%E4%BD%93%E5%8C%BA%E8%82%BF%E7%98%A4/5344857", "lemmaPic": []}, {"lemmaId": 2390418, "lemmaTitle": "骆文静", "lemmaCroppedTitle": "骆文静", "lemmaDesc": "骆文静，女，1968年6月出生，医学博士，教授，博士生导师。第四军医大学军事预防...", "lemmaUrl": "http://baike.baidu.com/item/%E9%AA%86%E6%96%87%E9%9D%99/2390418", "lemmaPic": []}, {"lemmaId": 1049447, "lemmaTitle": "消散延迟性肺炎", "lemmaCroppedTitle": "消散延迟性肺炎", "lemmaDesc": "肺炎延迟吸收指免疫健全的CAP（社区获得性肺炎）患者经有效抗菌治疗，临床症状改善...", "lemmaUrl": "http://baike.baidu.com/item/%E6%B6%88%E6%95%A3%E5%BB%B6%E8%BF%9F%E6%80%A7%E8%82%BA%E7%82%8E/1049447", "lemmaPic": []}, {"lemmaId": 373518, "lemmaTitle": "肠子宫内膜异位", "lemmaCroppedTitle": "肠子宫内膜异位", "lemmaDesc": "肠子宫内膜异位是指有活动功能的子宫内膜侵及肠管，并在卵巢激素的周期性影响下，产生...", "lemmaUrl": "http://baike.baidu.com/item/%E8%82%A0%E5%AD%90%E5%AE%AB%E5%86%85%E8%86%9C%E5%BC%82%E4%BD%8D/373518", "lemmaPic": []}, {"lemmaId": 1673458, "lemmaTitle": "胆道张力低下综合征", "lemmaCroppedTitle": "胆道张力低下综合征", "lemmaDesc": "胆道张力低下综合征又称Chiray综合征，系指由于胆道张力低下、胆囊排空延迟，而...", "lemmaUrl": "http://baike.baidu.com/item/%E8%83%86%E9%81%93%E5%BC%A0%E5%8A%9B%E4%BD%8E%E4%B8%8B%E7%BB%BC%E5%90%88%E5%BE%81/1673458", "lemmaPic": []}, {"lemmaId": 12700732, "lemmaTitle": "妊娠子宫破裂", "lemmaCroppedTitle": "妊娠子宫破裂", "lemmaDesc": "妊娠子宫破裂是指子宫体部或子宫下段于分娩期或妊娠期发生裂伤，为产科严重并发症，威...", "lemmaUrl": "http://baike.baidu.com/item/%E5%A6%8A%E5%A8%A0%E5%AD%90%E5%AE%AB%E7%A0%B4%E8%A3%82/12700732", "lemmaPic": []}, {"lemmaId": 7253907, "lemmaTitle": "新生儿泌尿系统感染", "lemmaCroppedTitle": "新生儿泌尿系统感染", "lemmaDesc": "新生儿泌尿系统感染是指因某种细菌感染引起的菌尿或尿中白细胞或脓细胞增多，包括肾盂...", "lemmaUrl": "http://baike.baidu.com/item/%E6%96%B0%E7%94%9F%E5%84%BF%E6%B3%8C%E5%B0%BF%E7%B3%BB%E7%BB%9F%E6%84%9F%E6%9F%93/7253907", "lemmaPic": []}, {"lemmaId": 1553011, "lemmaTitle": "妊娠合并急性肾小球肾炎", "lemmaCroppedTitle": "妊娠合并急性肾小球肾炎", "lemmaDesc": "急性肾小球肾炎是由多种病因引起的急性肾小球疾患，其中很多是因细菌、病毒、原虫感染...", "lemmaUrl": "http://baike.baidu.com/item/%E5%A6%8A%E5%A8%A0%E5%90%88%E5%B9%B6%E6%80%A5%E6%80%A7%E8%82%BE%E5%B0%8F%E7%90%83%E8%82%BE%E7%82%8E/1553011", "lemmaPic": []}, {"lemmaId": 3651976, "lemmaTitle": "心包转移瘤", "lemmaCroppedTitle": "心包转移瘤", "lemmaDesc": "心包转移瘤（pericardial metastasis）是指其他部位的恶性肿瘤...", "lemmaUrl": "http://baike.baidu.com/item/%E5%BF%83%E5%8C%85%E8%BD%AC%E7%A7%BB%E7%98%A4/3651976", "lemmaPic": []}, {"lemmaId": 4061209, "lemmaTitle": "眶内纤维组织细胞瘤", "lemmaCroppedTitle": "眶内纤维组织细胞瘤", "lemmaDesc": "纤维组织细胞瘤是一种由纤维细胞和肥大的组织细胞构成的肿瘤。过去名称较多，现已统一...", "lemmaUrl": "http://baike.baidu.com/item/%E7%9C%B6%E5%86%85%E7%BA%A4%E7%BB%B4%E7%BB%84%E7%BB%87%E7%BB%86%E8%83%9E%E7%98%A4/4061209", "lemmaPic": []}, {"lemmaId": 3616109, "lemmaTitle": "集聚肠杆菌感染", "lemmaCroppedTitle": "集聚肠杆菌感染", "lemmaDesc": "集聚肠杆菌即成团泛菌是一群符合肠杆菌定义的产类胡萝卜素的黄色菌群。最早是从植物、...", "lemmaUrl": "http://baike.baidu.com/item/%E9%9B%86%E8%81%9A%E8%82%A0%E6%9D%86%E8%8F%8C%E6%84%9F%E6%9F%93/3616109", "lemmaPic": []}, {"lemmaId": 10871075, "lemmaTitle": "血疸", "lemmaCroppedTitle": "血疸", "lemmaDesc": "血疸又名血黄。血疸是因输血、某些药物、蛇毒、疟疾等引起溶血所致。以黄疸，面白，头...", "lemmaUrl": "http://baike.baidu.com/item/%E8%A1%80%E7%96%B8/10871075", "lemmaPic": []}, {"lemmaId": 9256303, "lemmaTitle": "糖原贮积病Ⅰ型", "lemmaCroppedTitle": "糖原贮积病Ⅰ型", "lemmaDesc": "糖原贮积病是由于遗传性糖原代谢障碍，致使糖原在组织内过多沉积而引起的疾病。糖原贮...", "lemmaUrl": "http://baike.baidu.com/item/%E7%B3%96%E5%8E%9F%E8%B4%AE%E7%A7%AF%E7%97%85%E2%85%A0%E5%9E%8B/9256303", "lemmaPic": []}, {"lemmaId": 1700282, "lemmaTitle": "眼球内炎", "lemmaCroppedTitle": "眼球内炎", "lemmaDesc": "眼球内炎是因眼球穿通伤，内眼手术后，化脓性角膜炎或内因性（转移性）致细菌或真菌感...", "lemmaUrl": "http://baike.baidu.com/item/%E7%9C%BC%E7%90%83%E5%86%85%E7%82%8E/1700282", "lemmaPic": []}, {"lemmaId": 12021740, "lemmaTitle": "原发性孔源性视网膜脱离", "lemmaCroppedTitle": "原发性孔源性视网膜脱离", "lemmaDesc": "原发性孔源性视网膜脱离（RRD）是指因为视网膜裂孔导致神经上皮和色素上皮的分离，...", "lemmaUrl": "http://baike.baidu.com/item/%E5%8E%9F%E5%8F%91%E6%80%A7%E5%AD%94%E6%BA%90%E6%80%A7%E8%A7%86%E7%BD%91%E8%86%9C%E8%84%B1%E7%A6%BB/12021740", "lemmaPic": []}, {"lemmaId": 7219965, "lemmaTitle": "遗传性运动失调性多发性神经炎", "lemmaCroppedTitle": "遗传性运动失调性多发性神经炎", "lemmaDesc": "遗传性共济失调性多发性神经炎样病又称Refsum病、植烷酸累积症，是一种罕见的常...", "lemmaUrl": "http://baike.baidu.com/item/%E9%81%97%E4%BC%A0%E6%80%A7%E8%BF%90%E5%8A%A8%E5%A4%B1%E8%B0%83%E6%80%A7%E5%A4%9A%E5%8F%91%E6%80%A7%E7%A5%9E%E7%BB%8F%E7%82%8E/7219965", "lemmaPic": []}, {"lemmaId": 12677179, "lemmaTitle": "肩关节不稳定", "lemmaCroppedTitle": "肩关节不稳定", "lemmaDesc": "肩关节是人体具有最大活动范围的关节，但也是稳定性相对较低的关节。无论是发育的原因...", "lemmaUrl": "http://baike.baidu.com/item/%E8%82%A9%E5%85%B3%E8%8A%82%E4%B8%8D%E7%A8%B3%E5%AE%9A/12677179", "lemmaPic": []}, {"lemmaId": 2694036, "lemmaTitle": "眼外肌广泛纤维化综合征", "lemmaCroppedTitle": "眼外肌广泛纤维化综合征", "lemmaDesc": "眼外肌广泛纤维化综合征是一种双眼或单眼全部眼外肌的先天性肌肉筋膜分化异常。几乎所...", "lemmaUrl": "http://baike.baidu.com/item/%E7%9C%BC%E5%A4%96%E8%82%8C%E5%B9%BF%E6%B3%9B%E7%BA%A4%E7%BB%B4%E5%8C%96%E7%BB%BC%E5%90%88%E5%BE%81/2694036", "lemmaPic": []}, {"lemmaId": 13883821, "lemmaTitle": "遗传性肾病", "lemmaCroppedTitle": "遗传性肾病", "lemmaDesc": "遗传性肾病综合征指由于肾小球滤过屏障组成蛋白的编码基因或其他相关基因突变所致的肾...", "lemmaUrl": "http://baike.baidu.com/item/%E9%81%97%E4%BC%A0%E6%80%A7%E8%82%BE%E7%97%85/13883821", "lemmaPic": []}, {"lemmaId": 6642478, "lemmaTitle": "种痘并发症", "lemmaCroppedTitle": "种痘并发症", "lemmaDesc": "因接种减毒痘病毒疫苗后在皮肤黏膜上发生的异常反应称为种痘并发症，种痘是通过接种牛...", "lemmaUrl": "http://baike.baidu.com/item/%E7%A7%8D%E7%97%98%E5%B9%B6%E5%8F%91%E7%97%87/6642478", "lemmaPic": []}, {"lemmaId": 4678984, "lemmaTitle": "马尔堡病毒病", "lemmaCroppedTitle": "马尔堡病毒病", "lemmaDesc": "马尔堡病毒病是马尔堡病毒引起的严重的病毒性出血热。据认为，狐蝠科果蝠属于马尔堡病...", "lemmaUrl": "http://baike.baidu.com/item/%E9%A9%AC%E5%B0%94%E5%A0%A1%E7%97%85%E6%AF%92%E7%97%85/4678984", "lemmaPic": []}, {"lemmaId": 7800519, "lemmaTitle": "结核性苔藓", "lemmaCroppedTitle": "结核性苔藓", "lemmaDesc": "结核性苔藓是指发生在躯干及四肢上成群的毛囊性丘疹。也称瘰疬性苔藓、播散性毛囊性皮...", "lemmaUrl": "http://baike.baidu.com/item/%E7%BB%93%E6%A0%B8%E6%80%A7%E8%8B%94%E8%97%93/7800519", "lemmaPic": []}], "total": 7246, "totalPage": 73, "page": 55, "fromLemma": 0}