{"lemmaList": [{"lemmaId": 7960718, "lemmaTitle": "生长激素缺乏症", "lemmaCroppedTitle": "生长激素缺乏症", "lemmaDesc": "儿童身高低于同种族、同年龄、同性别正常健康儿童平均身高的2个标准差以上，或者低于...", "lemmaUrl": "http://baike.baidu.com/item/%E7%94%9F%E9%95%BF%E6%BF%80%E7%B4%A0%E7%BC%BA%E4%B9%8F%E7%97%87/7960718", "lemmaPic": []}, {"lemmaId": 2214310, "lemmaTitle": "原发性痛经", "lemmaCroppedTitle": "原发性痛经", "lemmaDesc": "原发性痛经即功能性痛经，是指月经期疼痛，常呈痉挛性，集中在下腹部。其他症状包括头...", "lemmaUrl": "http://baike.baidu.com/item/%E5%8E%9F%E5%8F%91%E6%80%A7%E7%97%9B%E7%BB%8F/2214310", "lemmaPic": []}, {"lemmaId": 6550653, "lemmaTitle": "多发性肝囊肿", "lemmaCroppedTitle": "多发性肝囊肿", "lemmaDesc": "多发性肝囊肿是一种良性的病变，一般会合并其他器官性的囊肿，如多囊肾。囊肿一般都是...", "lemmaUrl": "http://baike.baidu.com/item/%E5%A4%9A%E5%8F%91%E6%80%A7%E8%82%9D%E5%9B%8A%E8%82%BF/6550653", "lemmaPic": []}, {"lemmaId": 5318006, "lemmaTitle": "脑蛛网膜下腔出血", "lemmaCroppedTitle": "脑蛛网膜下腔出血", "lemmaDesc": "蛛网膜下腔出血（SAH）是指各种原因出血致血液流入蛛网膜下腔的统称。临床上可分自...", "lemmaUrl": "http://baike.baidu.com/item/%E8%84%91%E8%9B%9B%E7%BD%91%E8%86%9C%E4%B8%8B%E8%85%94%E5%87%BA%E8%A1%80/5318006", "lemmaPic": []}, {"lemmaId": 2601340, "lemmaTitle": "慢性喉炎", "lemmaCroppedTitle": "慢性喉炎", "lemmaDesc": "慢性喉炎是指喉部黏膜的慢性非特异性炎症，病程超过3个月，可波及黏膜下层及喉内肌。...", "lemmaUrl": "http://baike.baidu.com/item/%E6%85%A2%E6%80%A7%E5%96%89%E7%82%8E/2601340", "lemmaPic": []}, {"lemmaId": 5871986, "lemmaTitle": "生物治疗", "lemmaCroppedTitle": "生物治疗", "lemmaDesc": "生物治疗是一个广泛的概念，涉及一切应用生物大分子进行治疗的方法，种类十分繁多。如...", "lemmaUrl": "http://baike.baidu.com/item/%E7%94%9F%E7%89%A9%E6%B2%BB%E7%96%97/5871986", "lemmaPic": []}, {"lemmaId": 1654792, "lemmaTitle": "心源性休克", "lemmaCroppedTitle": "心源性休克", "lemmaDesc": "心源性休克是指由于心脏功能极度减退，导致心输出量显著减少并引起严重的急性周围循环...", "lemmaUrl": "http://baike.baidu.com/item/%E5%BF%83%E6%BA%90%E6%80%A7%E4%BC%91%E5%85%8B/1654792", "lemmaPic": []}, {"lemmaId": 7230476, "lemmaTitle": "胰腺肿瘤", "lemmaCroppedTitle": "胰腺肿瘤", "lemmaDesc": "胰腺肿瘤是消化道常见的恶性肿瘤之一，是恶性肿瘤中最常见的，多发生于胰头部。可有胰...", "lemmaUrl": "http://baike.baidu.com/item/%E8%83%B0%E8%85%BA%E8%82%BF%E7%98%A4/7230476", "lemmaPic": []}, {"lemmaId": 5360558, "lemmaTitle": "淹溺", "lemmaCroppedTitle": "淹溺", "lemmaDesc": "淹溺又称溺水，是人淹没于水或其他液体介质中并受到伤害的状况。水充满呼吸道和肺泡引...", "lemmaUrl": "http://baike.baidu.com/item/%E6%B7%B9%E6%BA%BA/5360558", "lemmaPic": []}, {"lemmaId": 5660993, "lemmaTitle": "新生儿ABO溶血病", "lemmaCroppedTitle": "新生儿ABO溶血病", "lemmaDesc": "新生儿ABO溶血病是由于母子ABO血型不合引起的新生儿溶血，多见于母亲的血型为O...", "lemmaUrl": "http://baike.baidu.com/item/%E6%96%B0%E7%94%9F%E5%84%BFABO%E6%BA%B6%E8%A1%80%E7%97%85/5660993", "lemmaPic": []}, {"lemmaId": 5249954, "lemmaTitle": "红细胞增多症", "lemmaCroppedTitle": "红细胞增多症", "lemmaDesc": "红细胞增多症是指单位容积血液中红细胞数量及血红蛋白量高于参考值高限。多次检查成年...", "lemmaUrl": "http://baike.baidu.com/item/%E7%BA%A2%E7%BB%86%E8%83%9E%E5%A2%9E%E5%A4%9A%E7%97%87/5249954", "lemmaPic": []}, {"lemmaId": 3084380, "lemmaTitle": "肝血不足", "lemmaCroppedTitle": "肝血不足", "lemmaDesc": "肝血不足是指以血液亏损，肝失濡养为主要表现的证候。", "lemmaUrl": "http://baike.baidu.com/item/%E8%82%9D%E8%A1%80%E4%B8%8D%E8%B6%B3/3084380", "lemmaPic": []}, {"lemmaId": 10853569, "lemmaTitle": "润肠通便", "lemmaCroppedTitle": "润肠通便", "lemmaDesc": "润肠通便是指用于治疗年老津枯，产后血虚，热病伤津及失血等所致的便秘的一种方法。在...", "lemmaUrl": "http://baike.baidu.com/item/%E6%B6%A6%E8%82%A0%E9%80%9A%E4%BE%BF/10853569", "lemmaPic": []}, {"lemmaId": 2601596, "lemmaTitle": "新生儿窒息", "lemmaCroppedTitle": "新生儿窒息", "lemmaDesc": "新生儿窒息是指由于产前、产时或产后的各种病因，使胎儿缺氧而发生宫内窘迫，或娩出过...", "lemmaUrl": "http://baike.baidu.com/item/%E6%96%B0%E7%94%9F%E5%84%BF%E7%AA%92%E6%81%AF/2601596", "lemmaPic": []}, {"lemmaId": 982954, "lemmaTitle": "偏执性精神障碍", "lemmaCroppedTitle": "偏执性精神障碍", "lemmaDesc": "偏执性精神障碍又称为持久的妄想性障碍，是一组以系统妄想为主要症状，而病因未明的精...", "lemmaUrl": "http://baike.baidu.com/item/%E5%81%8F%E6%89%A7%E6%80%A7%E7%B2%BE%E7%A5%9E%E9%9A%9C%E7%A2%8D/982954", "lemmaPic": []}, {"lemmaId": 741055, "lemmaTitle": "宫颈鳞状细胞癌", "lemmaCroppedTitle": "宫颈鳞状细胞癌", "lemmaDesc": "宫颈癌是最常见的妇科恶性肿瘤，主要组织学类型是鳞状细胞癌，其次是腺癌。宫颈鳞状细...", "lemmaUrl": "http://baike.baidu.com/item/%E5%AE%AB%E9%A2%88%E9%B3%9E%E7%8A%B6%E7%BB%86%E8%83%9E%E7%99%8C/741055", "lemmaPic": []}, {"lemmaId": 5085547, "lemmaTitle": "代谢性碱中毒", "lemmaCroppedTitle": "代谢性碱中毒", "lemmaDesc": "代谢性碱中毒是指体内酸丢失过多或者从体外进入碱过多的临床情况，主要生化表现为血H...", "lemmaUrl": "http://baike.baidu.com/item/%E4%BB%A3%E8%B0%A2%E6%80%A7%E7%A2%B1%E4%B8%AD%E6%AF%92/5085547", "lemmaPic": []}, {"lemmaId": 7993595, "lemmaTitle": "胫腓骨骨折", "lemmaCroppedTitle": "胫腓骨骨折", "lemmaDesc": "胫腓骨骨干骨折在全身骨折中最为常见。10岁以下儿童尤为多见。其中以胫骨干单骨折最...", "lemmaUrl": "http://baike.baidu.com/item/%E8%83%AB%E8%85%93%E9%AA%A8%E9%AA%A8%E6%8A%98/7993595", "lemmaPic": []}, {"lemmaId": 317590, "lemmaTitle": "戈谢病", "lemmaCroppedTitle": "戈谢病", "lemmaDesc": "戈谢病（GD）即葡糖脑苷脂病，是一种家族性糖脂代谢疾病，为染色体隐性遗传，是溶酶...", "lemmaUrl": "http://baike.baidu.com/item/%E6%88%88%E8%B0%A2%E7%97%85/317590", "lemmaPic": []}, {"lemmaId": 1914527, "lemmaTitle": "胸腰椎压缩性骨折", "lemmaCroppedTitle": "胸腰椎压缩性骨折", "lemmaDesc": "胸腰椎压缩性骨折，一般是指前屈伤力造成椎体前半部（前柱）压缩，脊椎后部的椎弓（后...", "lemmaUrl": "http://baike.baidu.com/item/%E8%83%B8%E8%85%B0%E6%A4%8E%E5%8E%8B%E7%BC%A9%E6%80%A7%E9%AA%A8%E6%8A%98/1914527", "lemmaPic": []}, {"lemmaId": 469514, "lemmaTitle": "急性冠状动脉综合征", "lemmaCroppedTitle": "急性冠状动脉综合征", "lemmaDesc": "急性冠状动脉综合征（ACS）是以冠状动脉粥样硬化斑块破裂或侵袭，继发完全或不完全...", "lemmaUrl": "http://baike.baidu.com/item/%E6%80%A5%E6%80%A7%E5%86%A0%E7%8A%B6%E5%8A%A8%E8%84%89%E7%BB%BC%E5%90%88%E5%BE%81/469514", "lemmaPic": []}, {"lemmaId": 5085986, "lemmaTitle": "骨软骨瘤", "lemmaCroppedTitle": "骨软骨瘤", "lemmaDesc": "骨软骨瘤是儿童期常见的良性骨肿瘤，通常位于干骺端的一侧骨皮质，向骨表面生长，又称...", "lemmaUrl": "http://baike.baidu.com/item/%E9%AA%A8%E8%BD%AF%E9%AA%A8%E7%98%A4/5085986", "lemmaPic": []}, {"lemmaId": 735265, "lemmaTitle": "肥厚性心肌病", "lemmaCroppedTitle": "肥厚性心肌病", "lemmaDesc": "肥厚型心肌病是以心肌肥厚为特征。根据左心室流出道有无梗阻可分为梗阻性和非梗阻性肥...", "lemmaUrl": "http://baike.baidu.com/item/%E8%82%A5%E5%8E%9A%E6%80%A7%E5%BF%83%E8%82%8C%E7%97%85/735265", "lemmaPic": []}, {"lemmaId": 10439349, "lemmaTitle": "滴虫阴道炎", "lemmaCroppedTitle": "滴虫阴道炎", "lemmaDesc": "滴虫阴道炎是由阴道毛滴虫引起的常见阴道炎。阴道毛滴虫适宜在温度25～40℃、pH...", "lemmaUrl": "http://baike.baidu.com/item/%E6%BB%B4%E8%99%AB%E9%98%B4%E9%81%93%E7%82%8E/10439349", "lemmaPic": []}, {"lemmaId": 5119967, "lemmaTitle": "阴茎异常勃起", "lemmaCroppedTitle": "阴茎异常勃起", "lemmaDesc": "阴茎异常勃起（ED）是指在非刺激条件下引起的阴茎持续勃起，或性高潮后也不疲软，这...", "lemmaUrl": "http://baike.baidu.com/item/%E9%98%B4%E8%8C%8E%E5%BC%82%E5%B8%B8%E5%8B%83%E8%B5%B7/5119967", "lemmaPic": []}, {"lemmaId": 10810188, "lemmaTitle": "疮疡", "lemmaCroppedTitle": "疮疡", "lemmaDesc": "疮疡是指各种致病因素侵袭人体后引起的一切体表化脓感染性疾病的总称，包括急性和慢性...", "lemmaUrl": "http://baike.baidu.com/item/%E7%96%AE%E7%96%A1/10810188", "lemmaPic": []}, {"lemmaId": 7535298, "lemmaTitle": "纵隔肿瘤", "lemmaCroppedTitle": "纵隔肿瘤", "lemmaDesc": "纵隔肿瘤是临床胸部常见疾病，包括原发性肿瘤和转移性肿瘤。原发性纵隔肿瘤包括位于纵...", "lemmaUrl": "http://baike.baidu.com/item/%E7%BA%B5%E9%9A%94%E8%82%BF%E7%98%A4/7535298", "lemmaPic": []}, {"lemmaId": 4870885, "lemmaTitle": "维生素A缺乏病", "lemmaCroppedTitle": "维生素A缺乏病", "lemmaDesc": "维生素A缺乏病又称蟾皮病，是一种维生素A缺乏所致的营养障碍性疾病，表现为皮肤干燥...", "lemmaUrl": "http://baike.baidu.com/item/%E7%BB%B4%E7%94%9F%E7%B4%A0A%E7%BC%BA%E4%B9%8F%E7%97%85/4870885", "lemmaPic": []}, {"lemmaId": 359586, "lemmaTitle": "肺鼠疫", "lemmaCroppedTitle": "肺鼠疫", "lemmaDesc": "肺鼠疫为鼠疫的一种，是《中华人民共和国传染病防治法》明文规定的甲类传染病，分为原...", "lemmaUrl": "http://baike.baidu.com/item/%E8%82%BA%E9%BC%A0%E7%96%AB/359586", "lemmaPic": []}, {"lemmaId": 1383689, "lemmaTitle": "红皮病", "lemmaCroppedTitle": "红皮病", "lemmaDesc": "红皮病又称剥脱性皮炎，是一种严重的全身性疾病，一般认为红皮病与剥脱性皮炎为同一种...", "lemmaUrl": "http://baike.baidu.com/item/%E7%BA%A2%E7%9A%AE%E7%97%85/1383689", "lemmaPic": []}, {"lemmaId": 7801745, "lemmaTitle": "小儿中耳炎", "lemmaCroppedTitle": "小儿中耳炎", "lemmaDesc": "中耳炎尤其是急性化脓性中耳炎多见于儿童，临床常表现为耳区胀痛、耳内闷胀感或堵塞感...", "lemmaUrl": "http://baike.baidu.com/item/%E5%B0%8F%E5%84%BF%E4%B8%AD%E8%80%B3%E7%82%8E/7801745", "lemmaPic": []}, {"lemmaId": 5869720, "lemmaTitle": "肾阳不足", "lemmaCroppedTitle": "肾阳不足", "lemmaDesc": "肾阳不足又称肾阳衰微、命门火衰，多因素体阳虚，久病不愈，或年老体弱，下元亏损所致...", "lemmaUrl": "http://baike.baidu.com/item/%E8%82%BE%E9%98%B3%E4%B8%8D%E8%B6%B3/5869720", "lemmaPic": []}, {"lemmaId": 2031416, "lemmaTitle": "坐板疮", "lemmaCroppedTitle": "坐板疮", "lemmaDesc": "坐板疮，又名风疳，古名痤痱疮。是生于臀部疮疡的统称，指下腰及臀部多个散在疖肿，大...", "lemmaUrl": "http://baike.baidu.com/item/%E5%9D%90%E6%9D%BF%E7%96%AE/2031416", "lemmaPic": []}, {"lemmaId": 1513241, "lemmaTitle": "棘球蚴病", "lemmaCroppedTitle": "棘球蚴病", "lemmaDesc": "棘球蚴病又称为包虫病。包虫病是人感染棘球绦虫的幼虫（棘球蚴）所致的慢性寄生虫病。...", "lemmaUrl": "http://baike.baidu.com/item/%E6%A3%98%E7%90%83%E8%9A%B4%E7%97%85/1513241", "lemmaPic": []}, {"lemmaId": 3767051, "lemmaTitle": "脑白质病变", "lemmaCroppedTitle": "脑白质病变", "lemmaDesc": "脑白质是中枢神经系统的重要组成部分，是神经纤维聚集的地方，脑白质中的中枢神经细胞...", "lemmaUrl": "http://baike.baidu.com/item/%E8%84%91%E7%99%BD%E8%B4%A8%E7%97%85%E5%8F%98/3767051", "lemmaPic": []}, {"lemmaId": 4120102, "lemmaTitle": "偏执型精神分裂症", "lemmaCroppedTitle": "偏执型精神分裂症", "lemmaDesc": "偏执型精神分裂症是最为常见的精神分裂症类型。起病年龄较其他各型为晚。病初表现为敏...", "lemmaUrl": "http://baike.baidu.com/item/%E5%81%8F%E6%89%A7%E5%9E%8B%E7%B2%BE%E7%A5%9E%E5%88%86%E8%A3%82%E7%97%87/4120102", "lemmaPic": []}, {"lemmaId": 5815995, "lemmaTitle": "狭窄性腱鞘炎", "lemmaCroppedTitle": "狭窄性腱鞘炎", "lemmaDesc": "狭窄性腱鞘炎是一种常见的腱鞘疾病。发生在拇短伸肌和拇长展肌腱鞘，称为桡骨茎突狭窄...", "lemmaUrl": "http://baike.baidu.com/item/%E7%8B%AD%E7%AA%84%E6%80%A7%E8%85%B1%E9%9E%98%E7%82%8E/5815995", "lemmaPic": {"width": 300, "height": 266, "url": "https://gss1.bdstatic.com/-vo3dSag_xI4khGkpoWK1HF6hhy/baike/w%3D168/sign=3d86b99b4134970a47731429adcbd1c0/ac6eddc451da81cbac8ef2795266d0160924311d.jpg"}}, {"lemmaId": 10004953, "lemmaTitle": "腹主动脉瘤", "lemmaCroppedTitle": "腹主动脉瘤", "lemmaDesc": "腹主动脉瘤是指腹主动脉呈瘤样扩张，通常直径增大50%以上定义为动脉瘤。腹主动脉瘤...", "lemmaUrl": "http://baike.baidu.com/item/%E8%85%B9%E4%B8%BB%E5%8A%A8%E8%84%89%E7%98%A4/10004953", "lemmaPic": []}, {"lemmaId": 618438, "lemmaTitle": "珍珠状阴茎丘疹", "lemmaCroppedTitle": "珍珠状阴茎丘疹", "lemmaDesc": "珍珠状丘疹（pearly papules）是位于阴茎冠状沟处、环绕龟头出现的淡红...", "lemmaUrl": "http://baike.baidu.com/item/%E7%8F%8D%E7%8F%A0%E7%8A%B6%E9%98%B4%E8%8C%8E%E4%B8%98%E7%96%B9/618438", "lemmaPic": []}, {"lemmaId": 8537659, "lemmaTitle": "高血压脑出血", "lemmaCroppedTitle": "高血压脑出血", "lemmaDesc": "高血压脑出血，系指非外伤性脑实质内的出血。其起病急骤、病情凶险、死亡率非常高，是...", "lemmaUrl": "http://baike.baidu.com/item/%E9%AB%98%E8%A1%80%E5%8E%8B%E8%84%91%E5%87%BA%E8%A1%80/8537659", "lemmaPic": []}, {"lemmaId": 2825944, "lemmaTitle": "高血压脑病", "lemmaCroppedTitle": "高血压脑病", "lemmaDesc": "高血压脑病是指当血压突然升高超过脑血流自动调节的阈值（中心动脉压大于140mmH...", "lemmaUrl": "http://baike.baidu.com/item/%E9%AB%98%E8%A1%80%E5%8E%8B%E8%84%91%E7%97%85/2825944", "lemmaPic": []}, {"lemmaId": 3587273, "lemmaTitle": "大动脉炎", "lemmaCroppedTitle": "大动脉炎", "lemmaDesc": "大动脉炎是指主动脉及其主要分支和肺动脉的慢性非特异性炎性疾病。其中以头臂血管、肾...", "lemmaUrl": "http://baike.baidu.com/item/%E5%A4%A7%E5%8A%A8%E8%84%89%E7%82%8E/3587273", "lemmaPic": []}, {"lemmaId": 2426114, "lemmaTitle": "心肌炎后遗症", "lemmaCroppedTitle": "心肌炎后遗症", "lemmaDesc": "大多数病毒性心肌炎患者经过适当治疗后能痊愈，但有部分患者由于各种原因未能得到及时...", "lemmaUrl": "http://baike.baidu.com/item/%E5%BF%83%E8%82%8C%E7%82%8E%E5%90%8E%E9%81%97%E7%97%87/2426114", "lemmaPic": []}, {"lemmaId": 11011864, "lemmaTitle": "剥脱性角质松解症", "lemmaCroppedTitle": "剥脱性角质松解症", "lemmaDesc": "本病是一种掌跖部角质层浅表性剥脱性皮肤病，病因不明，皮损初期为小米大小的白点，逐...", "lemmaUrl": "http://baike.baidu.com/item/%E5%89%A5%E8%84%B1%E6%80%A7%E8%A7%92%E8%B4%A8%E6%9D%BE%E8%A7%A3%E7%97%87/11011864", "lemmaPic": []}, {"lemmaId": 7707995, "lemmaTitle": "生理性卵巢囊肿", "lemmaCroppedTitle": "生理性卵巢囊肿", "lemmaDesc": "卵巢囊肿就是指卵巢内有囊性的肿物形成，可分为肿瘤性和非肿瘤性两类，而通常人们说的...", "lemmaUrl": "http://baike.baidu.com/item/%E7%94%9F%E7%90%86%E6%80%A7%E5%8D%B5%E5%B7%A2%E5%9B%8A%E8%82%BF/7707995", "lemmaPic": []}, {"lemmaId": 5280571, "lemmaTitle": "巩膜炎", "lemmaCroppedTitle": "巩膜炎", "lemmaDesc": "巩膜炎是以眼红和视力下降为始发症状、以重度眼痛为主要特点的巩膜感染性疾病。又称深...", "lemmaUrl": "http://baike.baidu.com/item/%E5%B7%A9%E8%86%9C%E7%82%8E/5280571", "lemmaPic": []}, {"lemmaId": 4699770, "lemmaTitle": "寄生虫病", "lemmaCroppedTitle": "寄生虫病", "lemmaDesc": "寄生虫病是寄生虫侵入人体而引起的疾病。因虫种和寄生部位不同，引起的病理变化和临床...", "lemmaUrl": "http://baike.baidu.com/item/%E5%AF%84%E7%94%9F%E8%99%AB%E7%97%85/4699770", "lemmaPic": []}, {"lemmaId": 5293032, "lemmaTitle": "PCOS", "lemmaCroppedTitle": "PCOS", "lemmaDesc": "多囊卵巢综合征（PCOS）是以稀发排卵或无排卵、高雄激素或胰岛素抵抗、多囊卵巢为...", "lemmaUrl": "http://baike.baidu.com/item/PCOS/5293032", "lemmaPic": []}, {"lemmaId": 438514, "lemmaTitle": "双角子宫", "lemmaCroppedTitle": "双角子宫", "lemmaDesc": "胚胎发育过程中，两侧副中肾管尾端已大部汇合，末端中隔已吸收，故形成一个宫颈及一个...", "lemmaUrl": "http://baike.baidu.com/item/%E5%8F%8C%E8%A7%92%E5%AD%90%E5%AE%AB/438514", "lemmaPic": []}, {"lemmaId": 5986514, "lemmaTitle": "胆脂瘤型中耳炎", "lemmaCroppedTitle": "胆脂瘤型中耳炎", "lemmaDesc": "胆脂瘤型中耳炎在2012年中华医学会的《中耳炎临床分类和手术分型指南》中更改为中...", "lemmaUrl": "http://baike.baidu.com/item/%E8%83%86%E8%84%82%E7%98%A4%E5%9E%8B%E4%B8%AD%E8%80%B3%E7%82%8E/5986514", "lemmaPic": []}, {"lemmaId": 3688881, "lemmaTitle": "颈动脉硬化", "lemmaCroppedTitle": "颈动脉硬化", "lemmaDesc": "颈动脉硬化即颈动脉粥样硬化，是全身动脉粥样硬化在颈动脉的表现，通常在青少年时期发...", "lemmaUrl": "http://baike.baidu.com/item/%E9%A2%88%E5%8A%A8%E8%84%89%E7%A1%AC%E5%8C%96/3688881", "lemmaPic": []}, {"lemmaId": 484142, "lemmaTitle": "脱髓鞘", "lemmaCroppedTitle": "脱髓鞘", "lemmaDesc": "脱髓鞘是指髓鞘形成后发生的髓鞘损坏，脱髓鞘疾病是以神经髓鞘脱失为主，神经元包体及...", "lemmaUrl": "http://baike.baidu.com/item/%E8%84%B1%E9%AB%93%E9%9E%98/484142", "lemmaPic": []}, {"lemmaId": 1099611, "lemmaTitle": "初乳", "lemmaCroppedTitle": "初乳", "lemmaDesc": "初乳是指产后2～3天内所分泌的乳汁的统称。产后，母体内的激素水平发生变化，乳房开...", "lemmaUrl": "http://baike.baidu.com/item/%E5%88%9D%E4%B9%B3/1099611", "lemmaPic": []}, {"lemmaId": 10788310, "lemmaTitle": "乳头状瘤", "lemmaCroppedTitle": "乳头状瘤", "lemmaDesc": "乳头状瘤为上皮来源的肿瘤，其病理特征为上皮组织高度增生，鳞状上皮向外过度生长形成...", "lemmaUrl": "http://baike.baidu.com/item/%E4%B9%B3%E5%A4%B4%E7%8A%B6%E7%98%A4/10788310", "lemmaPic": []}, {"lemmaId": 11044642, "lemmaTitle": "大疱性表皮松解症", "lemmaCroppedTitle": "大疱性表皮松解症", "lemmaDesc": "大疱性表皮松解症（epidermolysis bullosa，EB）分为遗传性（...", "lemmaUrl": "http://baike.baidu.com/item/%E5%A4%A7%E7%96%B1%E6%80%A7%E8%A1%A8%E7%9A%AE%E6%9D%BE%E8%A7%A3%E7%97%87/11044642", "lemmaPic": []}, {"lemmaId": 5120288, "lemmaTitle": "脑垂体腺瘤", "lemmaCroppedTitle": "脑垂体腺瘤", "lemmaDesc": "脑垂体瘤系良性腺瘤，是鞍区最常见的肿瘤，约10万人口中即有l例，近年来有增多趋势...", "lemmaUrl": "http://baike.baidu.com/item/%E8%84%91%E5%9E%82%E4%BD%93%E8%85%BA%E7%98%A4/5120288", "lemmaPic": []}, {"lemmaId": 869521, "lemmaTitle": "胰腺囊肿", "lemmaCroppedTitle": "胰腺囊肿", "lemmaDesc": "胰腺囊肿包括真性囊肿、假性囊肿和囊性肿瘤，由先天或后天因素引起。由于囊肿压迫、囊...", "lemmaUrl": "http://baike.baidu.com/item/%E8%83%B0%E8%85%BA%E5%9B%8A%E8%82%BF/869521", "lemmaPic": []}, {"lemmaId": 5087917, "lemmaTitle": "骨盆骨折", "lemmaCroppedTitle": "骨盆骨折", "lemmaDesc": "骨盆骨折是一种严重外伤，占骨折总数的1%～3%，多由高能外伤所致，半数以上伴有合...", "lemmaUrl": "http://baike.baidu.com/item/%E9%AA%A8%E7%9B%86%E9%AA%A8%E6%8A%98/5087917", "lemmaPic": []}, {"lemmaId": 9981896, "lemmaTitle": "急性湿疹", "lemmaCroppedTitle": "急性湿疹", "lemmaDesc": "急性湿疹是由多种内、外因素引起的表皮及真皮浅层的炎症性皮肤病，具有多样性皮疹和渗...", "lemmaUrl": "http://baike.baidu.com/item/%E6%80%A5%E6%80%A7%E6%B9%BF%E7%96%B9/9981896", "lemmaPic": []}, {"lemmaId": 7804225, "lemmaTitle": "心血不足", "lemmaCroppedTitle": "心血不足", "lemmaDesc": "心血不足就是心脏有疾，供血不足。本证为临床常见的虚弱证侯。多为久病体弱、血液生化...", "lemmaUrl": "http://baike.baidu.com/item/%E5%BF%83%E8%A1%80%E4%B8%8D%E8%B6%B3/7804225", "lemmaPic": []}, {"lemmaId": 6808473, "lemmaTitle": "肝胃不和", "lemmaCroppedTitle": "肝胃不和", "lemmaDesc": "肝气瘀滞，横逆犯胃，胃失和降，以胃脘、胁肋胀满疼痛，嗳气、呃逆、吞酸，情绪抑郁，...", "lemmaUrl": "http://baike.baidu.com/item/%E8%82%9D%E8%83%83%E4%B8%8D%E5%92%8C/6808473", "lemmaPic": []}, {"lemmaId": 5383310, "lemmaTitle": "葡萄球菌性烫伤样皮肤综合征", "lemmaCroppedTitle": "葡萄球菌性烫伤样皮肤综合征", "lemmaDesc": "葡萄球菌皮肤烫伤样综合征（简称SSSS），曾称新生儿剥脱样皮炎、金黄色葡萄球菌型...", "lemmaUrl": "http://baike.baidu.com/item/%E8%91%A1%E8%90%84%E7%90%83%E8%8F%8C%E6%80%A7%E7%83%AB%E4%BC%A4%E6%A0%B7%E7%9A%AE%E8%82%A4%E7%BB%BC%E5%90%88%E5%BE%81/5383310", "lemmaPic": []}, {"lemmaId": 10974152, "lemmaTitle": "肺部真菌感染", "lemmaCroppedTitle": "肺部真菌感染", "lemmaDesc": "肺部真菌感染是由真菌感染引起的支气管-肺部疾病，包括原发性和继发性肺部真菌感染。...", "lemmaUrl": "http://baike.baidu.com/item/%E8%82%BA%E9%83%A8%E7%9C%9F%E8%8F%8C%E6%84%9F%E6%9F%93/10974152", "lemmaPic": []}, {"lemmaId": 2322472, "lemmaTitle": "呼吸性酸中毒", "lemmaCroppedTitle": "呼吸性酸中毒", "lemmaDesc": "呼吸性酸中毒（呼酸）常因CO2潴留所致，急性期肾脏的代偿作用不大，碳酸氢盐缓冲系...", "lemmaUrl": "http://baike.baidu.com/item/%E5%91%BC%E5%90%B8%E6%80%A7%E9%85%B8%E4%B8%AD%E6%AF%92/2322472", "lemmaPic": []}, {"lemmaId": 7380277, "lemmaTitle": "老年抑郁症", "lemmaCroppedTitle": "老年抑郁症", "lemmaDesc": "老年抑郁症是指年龄在55或60岁以上的抑郁症患者，狭义的也可以是指首次起病年龄在...", "lemmaUrl": "http://baike.baidu.com/item/%E8%80%81%E5%B9%B4%E6%8A%91%E9%83%81%E7%97%87/7380277", "lemmaPic": []}, {"lemmaId": 2201477, "lemmaTitle": "药物性肝炎", "lemmaCroppedTitle": "药物性肝炎", "lemmaDesc": "药物性肝炎是指由于药物或/及其代谢产物引起的肝脏损害，以往没有肝炎史的健康者或原...", "lemmaUrl": "http://baike.baidu.com/item/%E8%8D%AF%E7%89%A9%E6%80%A7%E8%82%9D%E7%82%8E/2201477", "lemmaPic": {"width": 300, "height": 228, "url": "https://gss1.bdstatic.com/-vo3dSag_xI4khGkpoWK1HF6hhy/baike/w%3D168/sign=2ffdcc020cd79123e0e0907295355917/77c6a7efce1b9d161887066bf3deb48f8c54647c.jpg"}}, {"lemmaId": 7667303, "lemmaTitle": "腰背肌筋膜炎", "lemmaCroppedTitle": "腰背肌筋膜炎", "lemmaDesc": "腰背肌筋膜炎是指因寒冷、潮湿、慢性劳损使腰背部肌筋膜及肌组织发生水肿、渗出及纤维...", "lemmaUrl": "http://baike.baidu.com/item/%E8%85%B0%E8%83%8C%E8%82%8C%E7%AD%8B%E8%86%9C%E7%82%8E/7667303", "lemmaPic": []}, {"lemmaId": 9127515, "lemmaTitle": "心脏瓣膜病", "lemmaCroppedTitle": "心脏瓣膜病", "lemmaDesc": "心脏瓣膜病是我国一种常见的心脏病，其中以风湿热导致的瓣膜损害最为常见。随着人口老...", "lemmaUrl": "http://baike.baidu.com/item/%E5%BF%83%E8%84%8F%E7%93%A3%E8%86%9C%E7%97%85/9127515", "lemmaPic": []}, {"lemmaId": 5058760, "lemmaTitle": "原发性胆汁性肝硬化", "lemmaCroppedTitle": "原发性胆汁性肝硬化", "lemmaDesc": "原发性胆汁性肝硬化常与其他免疫性疾病如类风湿性关节类、干燥综合征、硬皮病、慢性淋...", "lemmaUrl": "http://baike.baidu.com/item/%E5%8E%9F%E5%8F%91%E6%80%A7%E8%83%86%E6%B1%81%E6%80%A7%E8%82%9D%E7%A1%AC%E5%8C%96/5058760", "lemmaPic": []}, {"lemmaId": 9475360, "lemmaTitle": "病毒性胃肠炎", "lemmaCroppedTitle": "病毒性胃肠炎", "lemmaDesc": "病毒性胃肠炎又称病毒性腹泻，是一组由多种病毒引起的急性肠道传染病。临床特点为起病...", "lemmaUrl": "http://baike.baidu.com/item/%E7%97%85%E6%AF%92%E6%80%A7%E8%83%83%E8%82%A0%E7%82%8E/9475360", "lemmaPic": []}, {"lemmaId": 1823132, "lemmaTitle": "细菌性食物中毒", "lemmaCroppedTitle": "细菌性食物中毒", "lemmaDesc": "细菌性食物中毒是指患者摄入被细菌和/或其毒素污染的食物或水所引起的急性中毒性疾病...", "lemmaUrl": "http://baike.baidu.com/item/%E7%BB%86%E8%8F%8C%E6%80%A7%E9%A3%9F%E7%89%A9%E4%B8%AD%E6%AF%92/1823132", "lemmaPic": []}, {"lemmaId": 10804901, "lemmaTitle": "内眦赘皮", "lemmaCroppedTitle": "内眦赘皮", "lemmaDesc": "内眦赘皮是指在内眦角前方的一片垂直的皮肤皱襞，它遮掩着内眦角，使内眦角角度较没有...", "lemmaUrl": "http://baike.baidu.com/item/%E5%86%85%E7%9C%A6%E8%B5%98%E7%9A%AE/10804901", "lemmaPic": {"width": 640, "height": 506, "url": "https://gss0.bdstatic.com/-4o3dSag_xI4khGkpoWK1HF6hhy/baike/w%3D168/sign=6a6e4f1e2a381f309e1989af91014c67/472309f790529822864f44e5d5ca7bcb0a46d49c.jpg"}}, {"lemmaId": 2452661, "lemmaTitle": "横纹肌肉瘤", "lemmaCroppedTitle": "横纹肌肉瘤", "lemmaDesc": "横纹肌肉瘤是起源于横纹肌细胞或向横纹肌细胞分化的间叶细胞的一种恶性肿瘤，是儿童软...", "lemmaUrl": "http://baike.baidu.com/item/%E6%A8%AA%E7%BA%B9%E8%82%8C%E8%82%89%E7%98%A4/2452661", "lemmaPic": []}, {"lemmaId": 10031429, "lemmaTitle": "肺俞", "lemmaCroppedTitle": "肺俞", "lemmaDesc": "肺，肺脏；俞，输注；本穴为肺之背俞穴，故名。本穴归属于足太阳膀胱经，为足太阳膀胱...", "lemmaUrl": "http://baike.baidu.com/item/%E8%82%BA%E4%BF%9E/10031429", "lemmaPic": []}, {"lemmaId": 4926568, "lemmaTitle": "抑郁性神经症", "lemmaCroppedTitle": "抑郁性神经症", "lemmaDesc": "抑郁性神经症又称神经症性抑郁，是由社会心理因素引起，也往往与病人的个性偏离有关；...", "lemmaUrl": "http://baike.baidu.com/item/%E6%8A%91%E9%83%81%E6%80%A7%E7%A5%9E%E7%BB%8F%E7%97%87/4926568", "lemmaPic": []}, {"lemmaId": 4495002, "lemmaTitle": "脑动脉瘤", "lemmaCroppedTitle": "脑动脉瘤", "lemmaDesc": "颅内动脉瘤是指脑动脉内腔的局限性异常扩大造成动脉壁的一种瘤状突出。颅内动脉瘤多因...", "lemmaUrl": "http://baike.baidu.com/item/%E8%84%91%E5%8A%A8%E8%84%89%E7%98%A4/4495002", "lemmaPic": []}, {"lemmaId": 5952166, "lemmaTitle": "带下", "lemmaCroppedTitle": "带下", "lemmaDesc": "中医的“带下”有广义和狭义之分，广义泛指妇科疾病，狭义则专指白带的量色质气味发生...", "lemmaUrl": "http://baike.baidu.com/item/%E5%B8%A6%E4%B8%8B/5952166", "lemmaPic": []}, {"lemmaId": 10464258, "lemmaTitle": "退行性骨关节病", "lemmaCroppedTitle": "退行性骨关节病", "lemmaDesc": "退行性骨关节病又称骨关节炎、退行性关节炎、老年性关节炎、肥大性关节炎，是一种退行...", "lemmaUrl": "http://baike.baidu.com/item/%E9%80%80%E8%A1%8C%E6%80%A7%E9%AA%A8%E5%85%B3%E8%8A%82%E7%97%85/10464258", "lemmaPic": []}, {"lemmaId": 1384051, "lemmaTitle": "多疑症", "lemmaCroppedTitle": "多疑症", "lemmaDesc": "多疑是指神经过敏、疑神疑鬼的消极心态。具有多疑心态的人往往带着固有的成见，通过“...", "lemmaUrl": "http://baike.baidu.com/item/%E5%A4%9A%E7%96%91%E7%97%87/1384051", "lemmaPic": []}, {"lemmaId": 8867004, "lemmaTitle": "糖皮质激素依赖性皮炎", "lemmaCroppedTitle": "糖皮质激素依赖性皮炎", "lemmaDesc": "糖皮质激素依赖性皮炎是因长期反复不当的外用激素引起的皮炎。表现为外用糖皮质激素后...", "lemmaUrl": "http://baike.baidu.com/item/%E7%B3%96%E7%9A%AE%E8%B4%A8%E6%BF%80%E7%B4%A0%E4%BE%9D%E8%B5%96%E6%80%A7%E7%9A%AE%E7%82%8E/8867004", "lemmaPic": []}, {"lemmaId": 908233, "lemmaTitle": "慢性鼻咽炎", "lemmaCroppedTitle": "慢性鼻咽炎", "lemmaDesc": "慢性鼻咽炎是一种病程发展缓慢的慢性炎症，常与邻近器官或全身性疾病并存，如鼻窦炎、...", "lemmaUrl": "http://baike.baidu.com/item/%E6%85%A2%E6%80%A7%E9%BC%BB%E5%92%BD%E7%82%8E/908233", "lemmaPic": []}, {"lemmaId": 6412093, "lemmaTitle": "胡桃夹综合征", "lemmaCroppedTitle": "胡桃夹综合征", "lemmaDesc": "胡桃夹现象也称左肾静脉受压，是指左肾静脉回流入下腔静脉过程中在穿经由腹主动脉和肠...", "lemmaUrl": "http://baike.baidu.com/item/%E8%83%A1%E6%A1%83%E5%A4%B9%E7%BB%BC%E5%90%88%E5%BE%81/6412093", "lemmaPic": []}, {"lemmaId": 1287669, "lemmaTitle": "念珠菌病", "lemmaCroppedTitle": "念珠菌病", "lemmaDesc": "念珠菌病是由念珠菌属，尤其是白色念珠菌引起的一种真菌病。该病原菌既可侵犯皮肤和黏...", "lemmaUrl": "http://baike.baidu.com/item/%E5%BF%B5%E7%8F%A0%E8%8F%8C%E7%97%85/1287669", "lemmaPic": []}, {"lemmaId": 3692137, "lemmaTitle": "肝肾综合征", "lemmaCroppedTitle": "肝肾综合征", "lemmaDesc": "肝肾综合征（HRS）是指在严重肝病时发生的功能性急性肾功能衰竭（FARF），临床...", "lemmaUrl": "http://baike.baidu.com/item/%E8%82%9D%E8%82%BE%E7%BB%BC%E5%90%88%E5%BE%81/3692137", "lemmaPic": []}, {"lemmaId": 4934065, "lemmaTitle": "关节脱位", "lemmaCroppedTitle": "关节脱位", "lemmaDesc": "关节脱位也称脱臼，是指构成关节的上下两个骨端失去了正常的位置，发生了错位。多暴力...", "lemmaUrl": "http://baike.baidu.com/item/%E5%85%B3%E8%8A%82%E8%84%B1%E4%BD%8D/4934065", "lemmaPic": []}, {"lemmaId": 221487, "lemmaTitle": "急性淋巴结炎", "lemmaCroppedTitle": "急性淋巴结炎", "lemmaDesc": "急性淋巴结炎多数继发于其他化脓性感染病源，由于化脓菌侵犯淋巴结所引起的局部淋巴结...", "lemmaUrl": "http://baike.baidu.com/item/%E6%80%A5%E6%80%A7%E6%B7%8B%E5%B7%B4%E7%BB%93%E7%82%8E/221487", "lemmaPic": []}, {"lemmaId": 5645927, "lemmaTitle": "乳突炎", "lemmaCroppedTitle": "乳突炎", "lemmaDesc": "乳突炎是乳突气房黏膜及骨质的急性化脓性炎症，多由急性化脓性中耳炎发展而来。乳突炎...", "lemmaUrl": "http://baike.baidu.com/item/%E4%B9%B3%E7%AA%81%E7%82%8E/5645927", "lemmaPic": []}, {"lemmaId": 2826019, "lemmaTitle": "脑囊虫病", "lemmaCroppedTitle": "脑囊虫病", "lemmaDesc": "脑囊虫病是由寄生虫（猪绦虫为主）所传染的一种顽固性颅脑内疾病。该病约占囊虫病的8...", "lemmaUrl": "http://baike.baidu.com/item/%E8%84%91%E5%9B%8A%E8%99%AB%E7%97%85/2826019", "lemmaPic": []}, {"lemmaId": 1793446, "lemmaTitle": "躯体化障碍", "lemmaCroppedTitle": "躯体化障碍", "lemmaDesc": "躯体化障碍是一种以持久的担心或相信各种躯体症状的优势观念为特征的一组神经症。患者...", "lemmaUrl": "http://baike.baidu.com/item/%E8%BA%AF%E4%BD%93%E5%8C%96%E9%9A%9C%E7%A2%8D/1793446", "lemmaPic": []}, {"lemmaId": 1497227, "lemmaTitle": "皮肤梅毒疹", "lemmaCroppedTitle": "皮肤梅毒疹", "lemmaDesc": "梅毒是由苍白螺旋体引起的一种慢性经典的性传播疾病。可以侵犯全身各个器官，产生多种...", "lemmaUrl": "http://baike.baidu.com/item/%E7%9A%AE%E8%82%A4%E6%A2%85%E6%AF%92%E7%96%B9/1497227", "lemmaPic": {"width": 444, "height": 313, "url": "https://gss0.bdstatic.com/94o3dSag_xI4khGkpoWK1HF6hhy/baike/w%3D168/sign=f388eb08f21fbe091c5ec71253610c30/b17eca8065380cd719607693a144ad3459828156.jpg"}}, {"lemmaId": 2251284, "lemmaTitle": "病态窦房结综合征", "lemmaCroppedTitle": "病态窦房结综合征", "lemmaDesc": "病态窦房结综合征简称病窦综合征，又称窦房结功能不全，是由窦房结及其邻近组织病变引...", "lemmaUrl": "http://baike.baidu.com/item/%E7%97%85%E6%80%81%E7%AA%A6%E6%88%BF%E7%BB%93%E7%BB%BC%E5%90%88%E5%BE%81/2251284", "lemmaPic": []}, {"lemmaId": 143771, "lemmaTitle": "会厌囊肿", "lemmaCroppedTitle": "会厌囊肿", "lemmaDesc": "会厌囊肿是发生在会厌黏膜下的囊肿，属于喉囊肿的特殊类型。多发生于会厌谷、会厌舌面...", "lemmaUrl": "http://baike.baidu.com/item/%E4%BC%9A%E5%8E%8C%E5%9B%8A%E8%82%BF/143771", "lemmaPic": []}, {"lemmaId": 10222007, "lemmaTitle": "伪膜性肠炎", "lemmaCroppedTitle": "伪膜性肠炎", "lemmaDesc": "伪膜性肠炎是一种主要发生于结肠和小肠的急性纤维素渗出性炎症，多系在应用抗生素后导...", "lemmaUrl": "http://baike.baidu.com/item/%E4%BC%AA%E8%86%9C%E6%80%A7%E8%82%A0%E7%82%8E/10222007", "lemmaPic": []}, {"lemmaId": 2259112, "lemmaTitle": "卡波西肉瘤", "lemmaCroppedTitle": "卡波西肉瘤", "lemmaDesc": "卡波西肉瘤又称Kaposi肉瘤（KS）是一种具有局部侵袭性的内皮细胞肿瘤，典型病...", "lemmaUrl": "http://baike.baidu.com/item/%E5%8D%A1%E6%B3%A2%E8%A5%BF%E8%82%89%E7%98%A4/2259112", "lemmaPic": []}, {"lemmaId": 11030446, "lemmaTitle": "小儿腹痛", "lemmaCroppedTitle": "小儿腹痛", "lemmaDesc": "腹痛是小儿常见症状，它不仅是儿科消化道疾病的重要信号，也是许多腹部以外疾病的一种...", "lemmaUrl": "http://baike.baidu.com/item/%E5%B0%8F%E5%84%BF%E8%85%B9%E7%97%9B/11030446", "lemmaPic": []}, {"lemmaId": 6516247, "lemmaTitle": "手指屈肌腱鞘炎", "lemmaCroppedTitle": "手指屈肌腱鞘炎", "lemmaDesc": "手指屈肌腱鞘炎又称为狭窄性腱鞘炎或扳机指，是最为常见的手外科疾病之一，其主要表现...", "lemmaUrl": "http://baike.baidu.com/item/%E6%89%8B%E6%8C%87%E5%B1%88%E8%82%8C%E8%85%B1%E9%9E%98%E7%82%8E/6516247", "lemmaPic": []}, {"lemmaId": 10877498, "lemmaTitle": "纤维腺瘤", "lemmaCroppedTitle": "纤维腺瘤", "lemmaDesc": "纤维腺瘤为由上皮和间叶（间质）组织构成的良性肿瘤。黏液样纤维腺瘤发病年龄较大（5...", "lemmaUrl": "http://baike.baidu.com/item/%E7%BA%A4%E7%BB%B4%E8%85%BA%E7%98%A4/10877498", "lemmaPic": {"width": 140, "height": 105, "url": "https://gss0.bdstatic.com/-4o3dSag_xI4khGkpoWK1HF6hhy/baike/w%3D168/sign=203205c22f2eb938ec6d7ef4ed6385fe/9358d109b3de9c82a58dffac6c81800a19d8432c.jpg"}}, {"lemmaId": 8001986, "lemmaTitle": "单纯性下肢浅静脉曲张", "lemmaCroppedTitle": "单纯性下肢浅静脉曲张", "lemmaDesc": "单纯性下肢浅静脉曲张指病变仅局限于下肢浅静脉者，其病变范围包括大隐静脉、小隐静脉...", "lemmaUrl": "http://baike.baidu.com/item/%E5%8D%95%E7%BA%AF%E6%80%A7%E4%B8%8B%E8%82%A2%E6%B5%85%E9%9D%99%E8%84%89%E6%9B%B2%E5%BC%A0/8001986", "lemmaPic": []}, {"lemmaId": 3013643, "lemmaTitle": "癫痫持续状态", "lemmaCroppedTitle": "癫痫持续状态", "lemmaDesc": "癫痫持续状态（SE）或称癫痫状态，是癫痫连续发作之间意识未完全恢复又频繁再发，或...", "lemmaUrl": "http://baike.baidu.com/item/%E7%99%AB%E7%97%AB%E6%8C%81%E7%BB%AD%E7%8A%B6%E6%80%81/3013643", "lemmaPic": []}, {"lemmaId": 2087796, "lemmaTitle": "肿胀", "lemmaCroppedTitle": "肿胀", "lemmaDesc": "肿胀本是两个概念，肿是肿，胀是胀。肿多与肾脏关系密切，肾脏本是水火之脏，左为肾，...", "lemmaUrl": "http://baike.baidu.com/item/%E8%82%BF%E8%83%80/2087796", "lemmaPic": []}], "total": 7246, "totalPage": 73, "page": 14, "fromLemma": 0}