{"lemmaList": [{"lemmaId": 809687, "lemmaTitle": "风温", "lemmaCroppedTitle": "风温", "lemmaDesc": "风温是由风热病邪引起的急性外感热病。多发生于春冬季节，起病较急，初起以发热、微恶...", "lemmaUrl": "http://baike.baidu.com/item/%E9%A3%8E%E6%B8%A9/809687", "lemmaPic": []}, {"lemmaId": 508707, "lemmaTitle": "骶髂关节扭伤或半脱位", "lemmaCroppedTitle": "骶髂关节扭伤或半脱位", "lemmaDesc": "骶髂关节是由骶骨与髂骨的耳状面组合而成，其关节面凹凸不平，二者之间的结合十分紧密...", "lemmaUrl": "http://baike.baidu.com/item/%E9%AA%B6%E9%AB%82%E5%85%B3%E8%8A%82%E6%89%AD%E4%BC%A4%E6%88%96%E5%8D%8A%E8%84%B1%E4%BD%8D/508707", "lemmaPic": []}, {"lemmaId": 9902712, "lemmaTitle": "视网膜血管炎", "lemmaCroppedTitle": "视网膜血管炎", "lemmaDesc": "视网膜血管炎是一大类累及视网膜血管的炎症性疾病。典型地表现为眼底灰白色血管鞘、渗...", "lemmaUrl": "http://baike.baidu.com/item/%E8%A7%86%E7%BD%91%E8%86%9C%E8%A1%80%E7%AE%A1%E7%82%8E/9902712", "lemmaPic": []}, {"lemmaId": 5245259, "lemmaTitle": "视盘水肿", "lemmaCroppedTitle": "视盘水肿", "lemmaDesc": "由于颅内压增高所致的视盘肿胀隆起称为视盘水肿，为视盘非炎症性阻塞性水肿，约80%...", "lemmaUrl": "http://baike.baidu.com/item/%E8%A7%86%E7%9B%98%E6%B0%B4%E8%82%BF/5245259", "lemmaPic": []}, {"lemmaId": 8804167, "lemmaTitle": "肾淀粉样变性", "lemmaCroppedTitle": "肾淀粉样变性", "lemmaDesc": "淀粉样变性病是一种少见的全身性疾病，早年发现这种淀粉样物质对碘的反应类似于淀粉类...", "lemmaUrl": "http://baike.baidu.com/item/%E8%82%BE%E6%B7%80%E7%B2%89%E6%A0%B7%E5%8F%98%E6%80%A7/8804167", "lemmaPic": []}, {"lemmaId": 1469560, "lemmaTitle": "胶质细胞瘤", "lemmaCroppedTitle": "胶质细胞瘤", "lemmaDesc": "胶质细胞瘤，简称胶质瘤，是发生于神经外胚层的肿瘤，故亦称神经外胚层肿瘤或神经上皮...", "lemmaUrl": "http://baike.baidu.com/item/%E8%83%B6%E8%B4%A8%E7%BB%86%E8%83%9E%E7%98%A4/1469560", "lemmaPic": []}, {"lemmaId": 10522624, "lemmaTitle": "假性高血压", "lemmaCroppedTitle": "假性高血压", "lemmaDesc": "假性高血压是指用普通袖带测压法所测血压值高于经动脉穿刺直接测的血压值。2013年...", "lemmaUrl": "http://baike.baidu.com/item/%E5%81%87%E6%80%A7%E9%AB%98%E8%A1%80%E5%8E%8B/10522624", "lemmaPic": []}, {"lemmaId": 895773, "lemmaTitle": "真菌性食管炎", "lemmaCroppedTitle": "真菌性食管炎", "lemmaDesc": "真菌性食管炎的病原菌以念珠菌最为多见，其中最常见的是白色念珠菌，其次是热带念珠菌...", "lemmaUrl": "http://baike.baidu.com/item/%E7%9C%9F%E8%8F%8C%E6%80%A7%E9%A3%9F%E7%AE%A1%E7%82%8E/895773", "lemmaPic": []}, {"lemmaId": 917863, "lemmaTitle": "慢性筛窦炎", "lemmaCroppedTitle": "慢性筛窦炎", "lemmaDesc": "在鼻窦中，以筛窦解剖最为复杂，特别是前组筛窦开口处的半月裂孔及其附近的钩突和筛漏...", "lemmaUrl": "http://baike.baidu.com/item/%E6%85%A2%E6%80%A7%E7%AD%9B%E7%AA%A6%E7%82%8E/917863", "lemmaPic": []}, {"lemmaId": 4848392, "lemmaTitle": "妊娠合并甲状腺功能减退", "lemmaCroppedTitle": "妊娠合并甲状腺功能减退", "lemmaDesc": "甲状腺功能减退（简称甲减），妇女常出现无排卵月经、不孕，以往认为合并妊娠较少见，...", "lemmaUrl": "http://baike.baidu.com/item/%E5%A6%8A%E5%A8%A0%E5%90%88%E5%B9%B6%E7%94%B2%E7%8A%B6%E8%85%BA%E5%8A%9F%E8%83%BD%E5%87%8F%E9%80%80/4848392", "lemmaPic": []}, {"lemmaId": 1025795, "lemmaTitle": "新生血管性青光眼", "lemmaCroppedTitle": "新生血管性青光眼", "lemmaDesc": "新生血管性青光眼（NVG），是患眼中虹膜上存在着新生血管。直到进入20世纪，关于...", "lemmaUrl": "http://baike.baidu.com/item/%E6%96%B0%E7%94%9F%E8%A1%80%E7%AE%A1%E6%80%A7%E9%9D%92%E5%85%89%E7%9C%BC/1025795", "lemmaPic": []}, {"lemmaId": 1314580, "lemmaTitle": "腹股沟滑动疝", "lemmaCroppedTitle": "腹股沟滑动疝", "lemmaDesc": "腹股沟滑动疝系指腹腔的后位脏器连同部分腹膜自腹股沟管脱出，构成部分疝囊壁的疝。腹...", "lemmaUrl": "http://baike.baidu.com/item/%E8%85%B9%E8%82%A1%E6%B2%9F%E6%BB%91%E5%8A%A8%E7%96%9D/1314580", "lemmaPic": []}, {"lemmaId": 7416612, "lemmaTitle": "脾病", "lemmaCroppedTitle": "脾病", "lemmaDesc": "脾病，泛指脾脏各种病证。《内经》曾载述脾风、脾热、脾疟、脾咳、太阴呕吐、泄泻、脾...", "lemmaUrl": "http://baike.baidu.com/item/%E8%84%BE%E7%97%85/7416612", "lemmaPic": []}, {"lemmaId": 6433364, "lemmaTitle": "口周湿疹", "lemmaCroppedTitle": "口周湿疹", "lemmaDesc": "一般见于婴幼儿，口唇周围有红斑鳞屑，口唇干裂、疼痛。湿疹是婴幼儿时期常见的皮肤病...", "lemmaUrl": "http://baike.baidu.com/item/%E5%8F%A3%E5%91%A8%E6%B9%BF%E7%96%B9/6433364", "lemmaPic": []}, {"lemmaId": 2830955, "lemmaTitle": "大疱性鼓膜炎", "lemmaCroppedTitle": "大疱性鼓膜炎", "lemmaDesc": "大疱性鼓膜炎或称出血性大疱性鼓膜炎，是病毒感染引起的鼓膜和邻近鼓膜的外耳道皮肤的...", "lemmaUrl": "http://baike.baidu.com/item/%E5%A4%A7%E7%96%B1%E6%80%A7%E9%BC%93%E8%86%9C%E7%82%8E/2830955", "lemmaPic": []}, {"lemmaId": 7382267, "lemmaTitle": "兔热病", "lemmaCroppedTitle": "兔热病", "lemmaDesc": "兔热病又称为土拉菌病，是由土拉弗朗西斯菌引起的，主要感染啮齿动物并可传染给其他动...", "lemmaUrl": "http://baike.baidu.com/item/%E5%85%94%E7%83%AD%E7%97%85/7382267", "lemmaPic": []}, {"lemmaId": 951906, "lemmaTitle": "小儿屏气发作", "lemmaCroppedTitle": "小儿屏气发作", "lemmaDesc": "小儿屏气发作又称呼吸暂停症，是指儿童在剧烈哭闹时突然出现呼吸暂停的现象。屏气发作...", "lemmaUrl": "http://baike.baidu.com/item/%E5%B0%8F%E5%84%BF%E5%B1%8F%E6%B0%94%E5%8F%91%E4%BD%9C/951906", "lemmaPic": []}, {"lemmaId": 9415156, "lemmaTitle": "出口梗阻型便秘", "lemmaCroppedTitle": "出口梗阻型便秘", "lemmaDesc": "出口梗阻型便秘又称直肠型便秘或盆底肌功能不良，是指排便出口附近组织、器官的改变，...", "lemmaUrl": "http://baike.baidu.com/item/%E5%87%BA%E5%8F%A3%E6%A2%97%E9%98%BB%E5%9E%8B%E4%BE%BF%E7%A7%98/9415156", "lemmaPic": []}, {"lemmaId": 10456035, "lemmaTitle": "急性鼻咽炎", "lemmaCroppedTitle": "急性鼻咽炎", "lemmaDesc": "急性鼻咽炎是鼻咽部黏膜、黏膜下和淋巴组织的急性炎症，好发于咽扁桃体。在婴幼儿较重...", "lemmaUrl": "http://baike.baidu.com/item/%E6%80%A5%E6%80%A7%E9%BC%BB%E5%92%BD%E7%82%8E/10456035", "lemmaPic": []}, {"lemmaId": 2530323, "lemmaTitle": "胃十二指肠溃疡大出血", "lemmaCroppedTitle": "胃十二指肠溃疡大出血", "lemmaDesc": "胃十二指肠溃疡出血，是上消化道大出血中最常见的原因，约占50%以上。病人有呕血、...", "lemmaUrl": "http://baike.baidu.com/item/%E8%83%83%E5%8D%81%E4%BA%8C%E6%8C%87%E8%82%A0%E6%BA%83%E7%96%A1%E5%A4%A7%E5%87%BA%E8%A1%80/2530323", "lemmaPic": []}, {"lemmaId": 10470162, "lemmaTitle": "慢性盆腔疼痛", "lemmaCroppedTitle": "慢性盆腔疼痛", "lemmaDesc": "慢性盆腔疼痛（CPP）指非周期性、持续达6个月以上（也有认为达3个月以上）、对非...", "lemmaUrl": "http://baike.baidu.com/item/%E6%85%A2%E6%80%A7%E7%9B%86%E8%85%94%E7%96%BC%E7%97%9B/10470162", "lemmaPic": []}, {"lemmaId": 6519668, "lemmaTitle": "咖啡因与氨茶碱中毒", "lemmaCroppedTitle": "咖啡因与氨茶碱中毒", "lemmaDesc": "咖啡因与氨茶碱，其药理作用相似，仅在作用强度上有所差异。苯甲酸钠咖啡因（安钠咖）...", "lemmaUrl": "http://baike.baidu.com/item/%E5%92%96%E5%95%A1%E5%9B%A0%E4%B8%8E%E6%B0%A8%E8%8C%B6%E7%A2%B1%E4%B8%AD%E6%AF%92/6519668", "lemmaPic": []}, {"lemmaId": 7099099, "lemmaTitle": "局灶性节段性肾小球硬化", "lemmaCroppedTitle": "局灶性节段性肾小球硬化", "lemmaDesc": "局灶性节段性肾小球硬化（FSGS）是儿童和成人肾病综合征（NS）常见的原发性肾小...", "lemmaUrl": "http://baike.baidu.com/item/%E5%B1%80%E7%81%B6%E6%80%A7%E8%8A%82%E6%AE%B5%E6%80%A7%E8%82%BE%E5%B0%8F%E7%90%83%E7%A1%AC%E5%8C%96/7099099", "lemmaPic": []}, {"lemmaId": 3076083, "lemmaTitle": "急性化脓性乳腺炎", "lemmaCroppedTitle": "急性化脓性乳腺炎", "lemmaDesc": "急性乳房炎是乳房的急性化脓性感染，绝大部分发生在产后哺乳的妇女，尤以初产妇多见，...", "lemmaUrl": "http://baike.baidu.com/item/%E6%80%A5%E6%80%A7%E5%8C%96%E8%84%93%E6%80%A7%E4%B9%B3%E8%85%BA%E7%82%8E/3076083", "lemmaPic": []}, {"lemmaId": 12737822, "lemmaTitle": "食管肿瘤", "lemmaCroppedTitle": "食管肿瘤", "lemmaDesc": "食管的良性肿瘤有很多类型。平滑肌瘤是最常见的良性食管肿瘤，可为多发性，但大多数患...", "lemmaUrl": "http://baike.baidu.com/item/%E9%A3%9F%E7%AE%A1%E8%82%BF%E7%98%A4/12737822", "lemmaPic": []}, {"lemmaId": 735646, "lemmaTitle": "围生期心肌病", "lemmaCroppedTitle": "围生期心肌病", "lemmaDesc": "围生期心肌病是指既往无心脏病史，于妊娠最后3个月或产后6个月首次发生的以累及心肌...", "lemmaUrl": "http://baike.baidu.com/item/%E5%9B%B4%E7%94%9F%E6%9C%9F%E5%BF%83%E8%82%8C%E7%97%85/735646", "lemmaPic": []}, {"lemmaId": 7523690, "lemmaTitle": "卵巢妊娠", "lemmaCroppedTitle": "卵巢妊娠", "lemmaDesc": "卵巢妊娠指受精卵在卵巢着床和发育，发病率为1：7000～1：50000，是―种罕...", "lemmaUrl": "http://baike.baidu.com/item/%E5%8D%B5%E5%B7%A2%E5%A6%8A%E5%A8%A0/7523690", "lemmaPic": []}, {"lemmaId": 1463799, "lemmaTitle": "黏膜白斑", "lemmaCroppedTitle": "黏膜白斑", "lemmaDesc": "黏膜白斑病是指发生于口腔或外阴等处黏膜的白色角化性疾病。口腔黏膜白斑病多见于中年...", "lemmaUrl": "http://baike.baidu.com/item/%E9%BB%8F%E8%86%9C%E7%99%BD%E6%96%91/1463799", "lemmaPic": []}, {"lemmaId": 1518276, "lemmaTitle": "颈部血管瘤", "lemmaCroppedTitle": "颈部血管瘤", "lemmaDesc": "颈部血管瘤为先天性疾病，是血管在胚胎发育的过程中，使血管的某一阶段发育障碍，使其...", "lemmaUrl": "http://baike.baidu.com/item/%E9%A2%88%E9%83%A8%E8%A1%80%E7%AE%A1%E7%98%A4/1518276", "lemmaPic": []}, {"lemmaId": 9245195, "lemmaTitle": "消食药", "lemmaCroppedTitle": "消食药", "lemmaDesc": "凡以消食化积、增进食欲为主要功效的药物都称为消食药，又称消导药或助消化药。", "lemmaUrl": "http://baike.baidu.com/item/%E6%B6%88%E9%A3%9F%E8%8D%AF/9245195", "lemmaPic": []}, {"lemmaId": 5124979, "lemmaTitle": "鞭虫病", "lemmaCroppedTitle": "鞭虫病", "lemmaDesc": "鞭虫病是由毛首鞭形线虫寄生于人体的盲肠、阑尾及升结肠所致的常见肠道寄生虫病，分布...", "lemmaUrl": "http://baike.baidu.com/item/%E9%9E%AD%E8%99%AB%E7%97%85/5124979", "lemmaPic": []}, {"lemmaId": 2027441, "lemmaTitle": "心源性肝硬化", "lemmaCroppedTitle": "心源性肝硬化", "lemmaDesc": "心源性肝硬化又称淤血性肝硬化、槟榔肝。充血性心力衰竭伴肝脏被动淤血患者，多为心脏...", "lemmaUrl": "http://baike.baidu.com/item/%E5%BF%83%E6%BA%90%E6%80%A7%E8%82%9D%E7%A1%AC%E5%8C%96/2027441", "lemmaPic": []}, {"lemmaId": 331311, "lemmaTitle": "康复评定", "lemmaCroppedTitle": "康复评定", "lemmaDesc": "1.运动功能评定包括肌张力评定、肌力评定、关节活动范围评定、步态分析、神经电生理...", "lemmaUrl": "http://baike.baidu.com/item/%E5%BA%B7%E5%A4%8D%E8%AF%84%E5%AE%9A/331311", "lemmaPic": []}, {"lemmaId": 1225461, "lemmaTitle": "组织胞浆菌病", "lemmaCroppedTitle": "组织胞浆菌病", "lemmaDesc": "组织胞浆菌病是一种传染性很强的真菌病。常由呼吸道传染，先侵犯肺再经皮肤及其他单核...", "lemmaUrl": "http://baike.baidu.com/item/%E7%BB%84%E7%BB%87%E8%83%9E%E6%B5%86%E8%8F%8C%E7%97%85/1225461", "lemmaPic": []}, {"lemmaId": 2615243, "lemmaTitle": "年龄相关性白内障", "lemmaCroppedTitle": "年龄相关性白内障", "lemmaDesc": "年龄相关性白内障，过去又称为老年性白内障，是最常见的白内障类型。多见于50岁以上...", "lemmaUrl": "http://baike.baidu.com/item/%E5%B9%B4%E9%BE%84%E7%9B%B8%E5%85%B3%E6%80%A7%E7%99%BD%E5%86%85%E9%9A%9C/2615243", "lemmaPic": []}, {"lemmaId": 5383215, "lemmaTitle": "瑞尔黑变病", "lemmaCroppedTitle": "瑞尔黑变病", "lemmaDesc": "瑞尔黑变病首先由Riehls描述，本病可能不是一个病因引起的独立疾病，而可能属于...", "lemmaUrl": "http://baike.baidu.com/item/%E7%91%9E%E5%B0%94%E9%BB%91%E5%8F%98%E7%97%85/5383215", "lemmaPic": []}, {"lemmaId": 5317246, "lemmaTitle": "眼睑带状疱疹", "lemmaCroppedTitle": "眼睑带状疱疹", "lemmaDesc": "眼睑带状疱疹典型的病变多在三叉神经第一支――眼神经各分支（额神经、泪腺神经及鼻睫...", "lemmaUrl": "http://baike.baidu.com/item/%E7%9C%BC%E7%9D%91%E5%B8%A6%E7%8A%B6%E7%96%B1%E7%96%B9/5317246", "lemmaPic": []}, {"lemmaId": 5320866, "lemmaTitle": "牙列拥挤", "lemmaCroppedTitle": "牙列拥挤", "lemmaDesc": "牙列拥挤是错合畸形中最常见的，60%～70%的错合畸形患者中可见到拥挤的存在。可...", "lemmaUrl": "http://baike.baidu.com/item/%E7%89%99%E5%88%97%E6%8B%A5%E6%8C%A4/5320866", "lemmaPic": []}, {"lemmaId": 5243054, "lemmaTitle": "眼球内陷", "lemmaCroppedTitle": "眼球内陷", "lemmaDesc": "眼球位置后退称为眼球内陷。眼球内陷指的是由于眼球以外的原因所致的眼球内陷，必须与...", "lemmaUrl": "http://baike.baidu.com/item/%E7%9C%BC%E7%90%83%E5%86%85%E9%99%B7/5243054", "lemmaPic": []}, {"lemmaId": 6004231, "lemmaTitle": "肩峰下滑囊炎", "lemmaCroppedTitle": "肩峰下滑囊炎", "lemmaDesc": "肩峰下滑囊又称三角肌下滑囊，是全身最大的滑囊之一，位于肩峰、喙肩韧带和三角肌深面...", "lemmaUrl": "http://baike.baidu.com/item/%E8%82%A9%E5%B3%B0%E4%B8%8B%E6%BB%91%E5%9B%8A%E7%82%8E/6004231", "lemmaPic": []}, {"lemmaId": 5278284, "lemmaTitle": "阿米巴性阴道炎", "lemmaCroppedTitle": "阿米巴性阴道炎", "lemmaDesc": "阿米巴性阴道炎多继发于肠道感染，患者大便中的阿米巴滋养体随粪便黏液排出，直接蔓延...", "lemmaUrl": "http://baike.baidu.com/item/%E9%98%BF%E7%B1%B3%E5%B7%B4%E6%80%A7%E9%98%B4%E9%81%93%E7%82%8E/5278284", "lemmaPic": []}, {"lemmaId": 12676684, "lemmaTitle": "小儿热性惊厥", "lemmaCroppedTitle": "小儿热性惊厥", "lemmaDesc": "热性惊厥又称高热惊厥，是小儿最常见的惊厥之一，绝大多数预后良好，发病年龄6月至3...", "lemmaUrl": "http://baike.baidu.com/item/%E5%B0%8F%E5%84%BF%E7%83%AD%E6%80%A7%E6%83%8A%E5%8E%A5/12676684", "lemmaPic": []}, {"lemmaId": 5322623, "lemmaTitle": "鼻腔异物", "lemmaCroppedTitle": "鼻腔异物", "lemmaDesc": "鼻腔异物是指鼻腔中存在外来的物质。异物可分为三大类：非生物类异物，如钮扣、玻璃珠...", "lemmaUrl": "http://baike.baidu.com/item/%E9%BC%BB%E8%85%94%E5%BC%82%E7%89%A9/5322623", "lemmaPic": []}, {"lemmaId": 1843513, "lemmaTitle": "肝海绵状血管瘤", "lemmaCroppedTitle": "肝海绵状血管瘤", "lemmaDesc": "肝海绵状血管瘤是最常见的肝脏良性肿瘤。可能与先天发育异常有关，本病好发于30～5...", "lemmaUrl": "http://baike.baidu.com/item/%E8%82%9D%E6%B5%B7%E7%BB%B5%E7%8A%B6%E8%A1%80%E7%AE%A1%E7%98%A4/1843513", "lemmaPic": []}, {"lemmaId": 5620417, "lemmaTitle": "黏多糖贮积症", "lemmaCroppedTitle": "黏多糖贮积症", "lemmaDesc": "黏多糖贮积症是由于人体细胞的溶酶体内降解黏多糖的水解酶发生突变导致其活性丧失，黏...", "lemmaUrl": "http://baike.baidu.com/item/%E9%BB%8F%E5%A4%9A%E7%B3%96%E8%B4%AE%E7%A7%AF%E7%97%87/5620417", "lemmaPic": []}, {"lemmaId": 1963758, "lemmaTitle": "食管乳头状瘤", "lemmaCroppedTitle": "食管乳头状瘤", "lemmaDesc": "食管乳头状瘤（食管乳头状瘤）为鳞状上皮的息肉样良性肿瘤。发病率为0.01%～0....", "lemmaUrl": "http://baike.baidu.com/item/%E9%A3%9F%E7%AE%A1%E4%B9%B3%E5%A4%B4%E7%8A%B6%E7%98%A4/1963758", "lemmaPic": []}, {"lemmaId": 4606893, "lemmaTitle": "小儿β地中海贫血", "lemmaCroppedTitle": "小儿β地中海贫血", "lemmaDesc": "地中海贫血（简称地贫）又称海洋性贫血（thalassemia），它是一组由遗传性...", "lemmaUrl": "http://baike.baidu.com/item/%E5%B0%8F%E5%84%BF%CE%B2%E5%9C%B0%E4%B8%AD%E6%B5%B7%E8%B4%AB%E8%A1%80/4606893", "lemmaPic": []}, {"lemmaId": 6911241, "lemmaTitle": "下丘脑综合征", "lemmaCroppedTitle": "下丘脑综合征", "lemmaDesc": "下丘脑综合征是一组以内分泌代谢障碍为主，并伴有自主神经系统症状和轻微神经、精神症...", "lemmaUrl": "http://baike.baidu.com/item/%E4%B8%8B%E4%B8%98%E8%84%91%E7%BB%BC%E5%90%88%E5%BE%81/6911241", "lemmaPic": []}, {"lemmaId": 2600331, "lemmaTitle": "颞骨骨折", "lemmaCroppedTitle": "颞骨骨折", "lemmaDesc": "颞骨骨折是颅底骨折的一部分，发生时常伴有不同程度的颅内或胸、腹部等组织和器官损伤...", "lemmaUrl": "http://baike.baidu.com/item/%E9%A2%9E%E9%AA%A8%E9%AA%A8%E6%8A%98/2600331", "lemmaPic": []}, {"lemmaId": 10442902, "lemmaTitle": "产瘤", "lemmaCroppedTitle": "产瘤", "lemmaDesc": "产瘤，又称先锋头或头皮水肿，是由于经产道分娩时新生儿头皮循环受压，血管通透性改变...", "lemmaUrl": "http://baike.baidu.com/item/%E4%BA%A7%E7%98%A4/10442902", "lemmaPic": []}, {"lemmaId": 1637732, "lemmaTitle": "甲状腺相关性眼病", "lemmaCroppedTitle": "甲状腺相关性眼病", "lemmaDesc": "甲状腺相关性眼病（TAO）是成人最常见的眼眶疾病之一，常双眼发病，部分患者具有自...", "lemmaUrl": "http://baike.baidu.com/item/%E7%94%B2%E7%8A%B6%E8%85%BA%E7%9B%B8%E5%85%B3%E6%80%A7%E7%9C%BC%E7%97%85/1637732", "lemmaPic": []}, {"lemmaId": 5243121, "lemmaTitle": "外隐斜", "lemmaCroppedTitle": "外隐斜", "lemmaDesc": "外隐斜是眼位有向外偏斜的倾向，但被融合反射所控制而不出现偏斜，并能保持双眼单视。...", "lemmaUrl": "http://baike.baidu.com/item/%E5%A4%96%E9%9A%90%E6%96%9C/5243121", "lemmaPic": []}, {"lemmaId": 2984227, "lemmaTitle": "发热待查", "lemmaCroppedTitle": "发热待查", "lemmaDesc": "发热待查（FUO）是经常规检查和治疗体温仍然不能恢复正常，诊断不能明确，称为发热...", "lemmaUrl": "http://baike.baidu.com/item/%E5%8F%91%E7%83%AD%E5%BE%85%E6%9F%A5/2984227", "lemmaPic": []}, {"lemmaId": 5280296, "lemmaTitle": "浅层点状角膜炎", "lemmaCroppedTitle": "浅层点状角膜炎", "lemmaDesc": "浅层点状角膜炎（superficial punctate keratitis）是...", "lemmaUrl": "http://baike.baidu.com/item/%E6%B5%85%E5%B1%82%E7%82%B9%E7%8A%B6%E8%A7%92%E8%86%9C%E7%82%8E/5280296", "lemmaPic": []}, {"lemmaId": 8056035, "lemmaTitle": "胆管扩张症", "lemmaCroppedTitle": "胆管扩张症", "lemmaDesc": "胆管扩张症为较常见的先天性胆道畸形，1723年Vater首例报道，1852年Do...", "lemmaUrl": "http://baike.baidu.com/item/%E8%83%86%E7%AE%A1%E6%89%A9%E5%BC%A0%E7%97%87/8056035", "lemmaPic": []}, {"lemmaId": 8056644, "lemmaTitle": "急性结石性胆囊炎", "lemmaCroppedTitle": "急性结石性胆囊炎", "lemmaDesc": "急性结石性胆囊炎是由于结石阻塞胆囊管，造成胆囊内胆汁滞留，继发细菌感染而引起的急...", "lemmaUrl": "http://baike.baidu.com/item/%E6%80%A5%E6%80%A7%E7%BB%93%E7%9F%B3%E6%80%A7%E8%83%86%E5%9B%8A%E7%82%8E/8056644", "lemmaPic": []}, {"lemmaId": 6721719, "lemmaTitle": "化脓性甲沟炎", "lemmaCroppedTitle": "化脓性甲沟炎", "lemmaDesc": "甲沟炎是指（趾）甲周围软组织的化脓感染，是细菌通过甲旁皮肤的微创破损袭至皮下并生...", "lemmaUrl": "http://baike.baidu.com/item/%E5%8C%96%E8%84%93%E6%80%A7%E7%94%B2%E6%B2%9F%E7%82%8E/6721719", "lemmaPic": []}, {"lemmaId": 340912, "lemmaTitle": "先天性血管瘤", "lemmaCroppedTitle": "先天性血管瘤", "lemmaDesc": "出生时存在的血管瘤为先天性血管瘤，比较少见。血管瘤是婴儿最常见的良性肿瘤，发生率...", "lemmaUrl": "http://baike.baidu.com/item/%E5%85%88%E5%A4%A9%E6%80%A7%E8%A1%80%E7%AE%A1%E7%98%A4/340912", "lemmaPic": []}, {"lemmaId": 457041, "lemmaTitle": "大咯血", "lemmaCroppedTitle": "大咯血", "lemmaDesc": "通常大咯血是指：1次咯血量超过100ml，或24h内咯血量超过600ml以上者。...", "lemmaUrl": "http://baike.baidu.com/item/%E5%A4%A7%E5%92%AF%E8%A1%80/457041", "lemmaPic": []}, {"lemmaId": 2049245, "lemmaTitle": "妊娠疱疹", "lemmaCroppedTitle": "妊娠疱疹", "lemmaDesc": "妊娠疱疹（herpes&nbsp;gestationis）是一种罕见的、发生在妊...", "lemmaUrl": "http://baike.baidu.com/item/%E5%A6%8A%E5%A8%A0%E7%96%B1%E7%96%B9/2049245", "lemmaPic": []}, {"lemmaId": 759039, "lemmaTitle": "耳疖", "lemmaCroppedTitle": "耳疖", "lemmaDesc": "耳疖是指发生于外耳道的疖肿，以耳痛、外耳道局限性红肿、突起如椒目为其特征。", "lemmaUrl": "http://baike.baidu.com/item/%E8%80%B3%E7%96%96/759039", "lemmaPic": []}, {"lemmaId": 8866448, "lemmaTitle": "继发性腹膜炎", "lemmaCroppedTitle": "继发性腹膜炎", "lemmaDesc": "继发性腹膜炎是腹腔内脏器的炎症、穿孔、外伤血运障碍，以及医源性创伤等所引致的腹膜...", "lemmaUrl": "http://baike.baidu.com/item/%E7%BB%A7%E5%8F%91%E6%80%A7%E8%85%B9%E8%86%9C%E7%82%8E/8866448", "lemmaPic": []}, {"lemmaId": 10166675, "lemmaTitle": "黄斑囊样水肿", "lemmaCroppedTitle": "黄斑囊样水肿", "lemmaDesc": "黄斑囊样水肿是常见眼底病，但它不是一独立的疾病，而是很多眼底疾病在黄斑区的表现。...", "lemmaUrl": "http://baike.baidu.com/item/%E9%BB%84%E6%96%91%E5%9B%8A%E6%A0%B7%E6%B0%B4%E8%82%BF/10166675", "lemmaPic": []}, {"lemmaId": 1939603, "lemmaTitle": "肾脏损伤", "lemmaCroppedTitle": "肾脏损伤", "lemmaDesc": "肾脏损伤约占所有泌尿生殖道损伤的65%左右。原因有钝性损伤（80%）、贯通伤（战...", "lemmaUrl": "http://baike.baidu.com/item/%E8%82%BE%E8%84%8F%E6%8D%9F%E4%BC%A4/1939603", "lemmaPic": []}, {"lemmaId": 5358444, "lemmaTitle": "地方性克汀病", "lemmaCroppedTitle": "地方性克汀病", "lemmaDesc": "地方性克汀病又称地方性呆小病，多出现在严重的地方性甲状腺肿流行地区，一般患病率占...", "lemmaUrl": "http://baike.baidu.com/item/%E5%9C%B0%E6%96%B9%E6%80%A7%E5%85%8B%E6%B1%80%E7%97%85/5358444", "lemmaPic": []}, {"lemmaId": 9270130, "lemmaTitle": "十二指肠胃反流及胆汁反流性胃炎", "lemmaCroppedTitle": "十二指肠胃反流及胆汁反流性胃炎", "lemmaDesc": "十二指肠内容物胆汁、胰酶及碱性肠内容物反流入胃内称十二指肠胃反流（DGR），碱性...", "lemmaUrl": "http://baike.baidu.com/item/%E5%8D%81%E4%BA%8C%E6%8C%87%E8%82%A0%E8%83%83%E5%8F%8D%E6%B5%81%E5%8F%8A%E8%83%86%E6%B1%81%E5%8F%8D%E6%B5%81%E6%80%A7%E8%83%83%E7%82%8E/9270130", "lemmaPic": []}, {"lemmaId": 3639879, "lemmaTitle": "眼眶蜂窝织炎", "lemmaCroppedTitle": "眼眶蜂窝织炎", "lemmaDesc": "眼眶蜂窝织炎是眼眶软组织的急性感染，是一种严重危害人类健康的眼眶疾患。如果患者病...", "lemmaUrl": "http://baike.baidu.com/item/%E7%9C%BC%E7%9C%B6%E8%9C%82%E7%AA%9D%E7%BB%87%E7%82%8E/3639879", "lemmaPic": []}, {"lemmaId": 10939980, "lemmaTitle": "胸胁痛", "lemmaCroppedTitle": "胸胁痛", "lemmaDesc": "胸胁痛是指因感受外邪或情志失调或饮食不节或跌打损伤等原因导致的脉络失养或闭阻而引...", "lemmaUrl": "http://baike.baidu.com/item/%E8%83%B8%E8%83%81%E7%97%9B/10939980", "lemmaPic": []}, {"lemmaId": 5224872, "lemmaTitle": "坏疽性脓皮病", "lemmaCroppedTitle": "坏疽性脓皮病", "lemmaDesc": "坏疽性脓皮病是一种慢性、坏死性、溃疡性、瘢痕性、疼痛性皮肤病。好发于30～40岁...", "lemmaUrl": "http://baike.baidu.com/item/%E5%9D%8F%E7%96%BD%E6%80%A7%E8%84%93%E7%9A%AE%E7%97%85/5224872", "lemmaPic": []}, {"lemmaId": 3606308, "lemmaTitle": "coats病", "lemmaCroppedTitle": "coats病", "lemmaDesc": "Coats病（Coats&amp;#39; disease）又名外层渗出性视网膜...", "lemmaUrl": "http://baike.baidu.com/item/coats%E7%97%85/3606308", "lemmaPic": []}, {"lemmaId": 5244345, "lemmaTitle": "臀先露", "lemmaCroppedTitle": "臀先露", "lemmaDesc": "臀先露是最常见的异常胎位，占妊娠足月分娩总数的3%～4%。因胎头比胎臀大，且分娩...", "lemmaUrl": "http://baike.baidu.com/item/%E8%87%80%E5%85%88%E9%9C%B2/5244345", "lemmaPic": []}, {"lemmaId": 4151028, "lemmaTitle": "烧伤感染", "lemmaCroppedTitle": "烧伤感染", "lemmaDesc": "烧伤后，皮肤作为人体抵御微生物入侵的天然屏障被破坏而出现细菌感染。常见细菌为金黄...", "lemmaUrl": "http://baike.baidu.com/item/%E7%83%A7%E4%BC%A4%E6%84%9F%E6%9F%93/4151028", "lemmaPic": []}, {"lemmaId": 1877008, "lemmaTitle": "小儿甲状腺功能减低症", "lemmaCroppedTitle": "小儿甲状腺功能减低症", "lemmaDesc": "小儿甲状腺功能减低症早期治疗预后较好，延迟治疗则可出现不可逆性脑损害。先天性甲状...", "lemmaUrl": "http://baike.baidu.com/item/%E5%B0%8F%E5%84%BF%E7%94%B2%E7%8A%B6%E8%85%BA%E5%8A%9F%E8%83%BD%E5%87%8F%E4%BD%8E%E7%97%87/1877008", "lemmaPic": []}, {"lemmaId": 2602627, "lemmaTitle": "急性化脓性甲状腺炎", "lemmaCroppedTitle": "急性化脓性甲状腺炎", "lemmaDesc": "急性化脓性甲状腺炎（AST）是由金黄葡萄球菌等引起的甲状腺化脓性炎症，多继发于口...", "lemmaUrl": "http://baike.baidu.com/item/%E6%80%A5%E6%80%A7%E5%8C%96%E8%84%93%E6%80%A7%E7%94%B2%E7%8A%B6%E8%85%BA%E7%82%8E/2602627", "lemmaPic": []}, {"lemmaId": 11043124, "lemmaTitle": "胃心综合征", "lemmaCroppedTitle": "胃心综合征", "lemmaDesc": "胃心综合征也称Roemheld综合征，由Romeheld于1912年首先报道。它...", "lemmaUrl": "http://baike.baidu.com/item/%E8%83%83%E5%BF%83%E7%BB%BC%E5%90%88%E5%BE%81/11043124", "lemmaPic": []}, {"lemmaId": 5278599, "lemmaTitle": "青光眼睫状体炎综合征", "lemmaCroppedTitle": "青光眼睫状体炎综合征", "lemmaDesc": "青光眼睫状体炎综合征（简称青-睫综合征）也称Posner-SchlMsman综合...", "lemmaUrl": "http://baike.baidu.com/item/%E9%9D%92%E5%85%89%E7%9C%BC%E7%9D%AB%E7%8A%B6%E4%BD%93%E7%82%8E%E7%BB%BC%E5%90%88%E5%BE%81/5278599", "lemmaPic": []}, {"lemmaId": 4487314, "lemmaTitle": "肺炭疽", "lemmaCroppedTitle": "肺炭疽", "lemmaDesc": "肺炭疽是炭疽杆菌所致的急性传染病，原系食草动物传染病。人与人之间可以直接传染本病...", "lemmaUrl": "http://baike.baidu.com/item/%E8%82%BA%E7%82%AD%E7%96%BD/4487314", "lemmaPic": []}, {"lemmaId": 5320599, "lemmaTitle": "牙齿感觉过敏症", "lemmaCroppedTitle": "牙齿感觉过敏症", "lemmaDesc": "牙齿感觉过敏症又称牙本质过敏症，或过敏性牙本质，是牙在受到外界刺激，如温度（冷、...", "lemmaUrl": "http://baike.baidu.com/item/%E7%89%99%E9%BD%BF%E6%84%9F%E8%A7%89%E8%BF%87%E6%95%8F%E7%97%87/5320599", "lemmaPic": []}, {"lemmaId": 10974116, "lemmaTitle": "葡萄球菌肺炎", "lemmaCroppedTitle": "葡萄球菌肺炎", "lemmaDesc": "葡萄球菌肺炎是由葡萄球菌所引起的急性化脓性肺部炎症。常发生于有基础疾病如糖尿病、...", "lemmaUrl": "http://baike.baidu.com/item/%E8%91%A1%E8%90%84%E7%90%83%E8%8F%8C%E8%82%BA%E7%82%8E/10974116", "lemmaPic": []}, {"lemmaId": 799733, "lemmaTitle": "腺泡细胞癌", "lemmaCroppedTitle": "腺泡细胞癌", "lemmaDesc": "腺泡细胞癌又称为浆液细胞腺癌，是一种较少见的涎腺肿瘤。目前大多认为是低度恶性肿瘤...", "lemmaUrl": "http://baike.baidu.com/item/%E8%85%BA%E6%B3%A1%E7%BB%86%E8%83%9E%E7%99%8C/799733", "lemmaPic": []}, {"lemmaId": 2967214, "lemmaTitle": "冻僵", "lemmaCroppedTitle": "冻僵", "lemmaDesc": "冻僵又称意外低温，是寒冷环境引起体温过低所导致以神经系统和心血管损伤为主的严重的...", "lemmaUrl": "http://baike.baidu.com/item/%E5%86%BB%E5%83%B5/2967214", "lemmaPic": []}, {"lemmaId": 1940423, "lemmaTitle": "亚急性硬化性全脑炎", "lemmaCroppedTitle": "亚急性硬化性全脑炎", "lemmaDesc": "亚急性硬化性全脑炎（subacute sclerosing panencepha...", "lemmaUrl": "http://baike.baidu.com/item/%E4%BA%9A%E6%80%A5%E6%80%A7%E7%A1%AC%E5%8C%96%E6%80%A7%E5%85%A8%E8%84%91%E7%82%8E/1940423", "lemmaPic": []}, {"lemmaId": 2229357, "lemmaTitle": "毛发苔藓", "lemmaCroppedTitle": "毛发苔藓", "lemmaDesc": "毛发苔藓即毛周角化病，又叫或毛发角化病，是一种慢性毛囊角化性疾病。其特征是以毛囊...", "lemmaUrl": "http://baike.baidu.com/item/%E6%AF%9B%E5%8F%91%E8%8B%94%E8%97%93/2229357", "lemmaPic": []}, {"lemmaId": 3677365, "lemmaTitle": "卵巢纤维瘤", "lemmaCroppedTitle": "卵巢纤维瘤", "lemmaDesc": "卵巢纤维瘤是卵巢性索间质肿瘤中常见的良性肿瘤。临床上可出现盆腔包块、伴胸腹腔积液...", "lemmaUrl": "http://baike.baidu.com/item/%E5%8D%B5%E5%B7%A2%E7%BA%A4%E7%BB%B4%E7%98%A4/3677365", "lemmaPic": []}, {"lemmaId": 934597, "lemmaTitle": "隐孢子虫病", "lemmaCroppedTitle": "隐孢子虫病", "lemmaDesc": "隐孢子虫病是由一种叫微小隐孢子虫所引起的传染病，而其他品种的隐孢子虫也偶然会引起...", "lemmaUrl": "http://baike.baidu.com/item/%E9%9A%90%E5%AD%A2%E5%AD%90%E8%99%AB%E7%97%85/934597", "lemmaPic": []}, {"lemmaId": 2093371, "lemmaTitle": "非结核分枝杆菌病", "lemmaCroppedTitle": "非结核分枝杆菌病", "lemmaDesc": "非结核分枝杆菌（NTM）是指结核杆菌及麻风分枝杆菌以外的所有分枝杆菌，也称为环境...", "lemmaUrl": "http://baike.baidu.com/item/%E9%9D%9E%E7%BB%93%E6%A0%B8%E5%88%86%E6%9E%9D%E6%9D%86%E8%8F%8C%E7%97%85/2093371", "lemmaPic": []}, {"lemmaId": 7556192, "lemmaTitle": "巨大胎儿", "lemmaCroppedTitle": "巨大胎儿", "lemmaDesc": "胎儿体重≥4000g称为巨大胎儿。通过正常产道常发生困难，发生肩性难产机会多，需...", "lemmaUrl": "http://baike.baidu.com/item/%E5%B7%A8%E5%A4%A7%E8%83%8E%E5%84%BF/7556192", "lemmaPic": []}, {"lemmaId": 325290, "lemmaTitle": "深覆牙合", "lemmaCroppedTitle": "深覆牙合", "lemmaDesc": "深覆牙合是一种上下颌牙弓和（或）上下颌骨垂直向发育异常所致的错颌畸形。指的是上前...", "lemmaUrl": "http://baike.baidu.com/item/%E6%B7%B1%E8%A6%86%E7%89%99%E5%90%88/325290", "lemmaPic": []}, {"lemmaId": 5120604, "lemmaTitle": "永存动脉干", "lemmaCroppedTitle": "永存动脉干", "lemmaDesc": "永存动脉干属少见的先天畸形。由于胚胎发育缺陷，未能将原始动脉干分隔成主动脉和肺动...", "lemmaUrl": "http://baike.baidu.com/item/%E6%B0%B8%E5%AD%98%E5%8A%A8%E8%84%89%E5%B9%B2/5120604", "lemmaPic": []}, {"lemmaId": 700386, "lemmaTitle": "包皮阴茎头炎", "lemmaCroppedTitle": "包皮阴茎头炎", "lemmaDesc": "包茎和包皮过长易在包皮下积聚由皮脂腺分泌物和脱落表皮所形成的白色豆腐渣样包皮垢，...", "lemmaUrl": "http://baike.baidu.com/item/%E5%8C%85%E7%9A%AE%E9%98%B4%E8%8C%8E%E5%A4%B4%E7%82%8E/700386", "lemmaPic": []}, {"lemmaId": 2105169, "lemmaTitle": "尿道上裂", "lemmaCroppedTitle": "尿道上裂", "lemmaDesc": "尿道上裂是一种尿道背侧融合缺陷所致的先天性尿道外口畸形，男性患者表现为尿道外口位...", "lemmaUrl": "http://baike.baidu.com/item/%E5%B0%BF%E9%81%93%E4%B8%8A%E8%A3%82/2105169", "lemmaPic": []}, {"lemmaId": 10305271, "lemmaTitle": "宫颈外翻", "lemmaCroppedTitle": "宫颈外翻", "lemmaDesc": "子宫颈在分娩时发生撕裂可为单侧、双侧或星状，程度不等从轻度到撕裂至穹隆部，如未及...", "lemmaUrl": "http://baike.baidu.com/item/%E5%AE%AB%E9%A2%88%E5%A4%96%E7%BF%BB/10305271", "lemmaPic": []}, {"lemmaId": 472732, "lemmaTitle": "纯红细胞再生障碍性贫血", "lemmaCroppedTitle": "纯红细胞再生障碍性贫血", "lemmaDesc": "纯红细胞再生障碍性贫血（纯红再障，PRCA）是指因骨髓中红系细胞显著减少或缺如所...", "lemmaUrl": "http://baike.baidu.com/item/%E7%BA%AF%E7%BA%A2%E7%BB%86%E8%83%9E%E5%86%8D%E7%94%9F%E9%9A%9C%E7%A2%8D%E6%80%A7%E8%B4%AB%E8%A1%80/472732", "lemmaPic": []}, {"lemmaId": 735413, "lemmaTitle": "限制性心肌病", "lemmaCroppedTitle": "限制性心肌病", "lemmaDesc": "限制型心肌病（RCM），是以舒张功能异常为特征，表现为限制性充盈障碍的心肌病。W...", "lemmaUrl": "http://baike.baidu.com/item/%E9%99%90%E5%88%B6%E6%80%A7%E5%BF%83%E8%82%8C%E7%97%85/735413", "lemmaPic": []}, {"lemmaId": 5399962, "lemmaTitle": "药物性牙龈增生", "lemmaCroppedTitle": "药物性牙龈增生", "lemmaDesc": "药物性牙龈增生是由于长期服用某种药物而引起的牙龈增生。药物引起牙龈增生是较为少见...", "lemmaUrl": "http://baike.baidu.com/item/%E8%8D%AF%E7%89%A9%E6%80%A7%E7%89%99%E9%BE%88%E5%A2%9E%E7%94%9F/5399962", "lemmaPic": []}, {"lemmaId": 768396, "lemmaTitle": "颈椎后纵韧带骨化症", "lemmaCroppedTitle": "颈椎后纵韧带骨化症", "lemmaDesc": "颈椎后纵韧带骨化症是指因颈椎的后纵韧带发生骨化，从而压迫脊髓和神经根，产生肢体的...", "lemmaUrl": "http://baike.baidu.com/item/%E9%A2%88%E6%A4%8E%E5%90%8E%E7%BA%B5%E9%9F%A7%E5%B8%A6%E9%AA%A8%E5%8C%96%E7%97%87/768396", "lemmaPic": []}, {"lemmaId": 6519326, "lemmaTitle": "家族性结肠息肉", "lemmaCroppedTitle": "家族性结肠息肉", "lemmaDesc": "家族性结肠息肉病属于腺瘤性息肉综合征，是一种常染色体显性遗传性疾病。偶见于无家族...", "lemmaUrl": "http://baike.baidu.com/item/%E5%AE%B6%E6%97%8F%E6%80%A7%E7%BB%93%E8%82%A0%E6%81%AF%E8%82%89/6519326", "lemmaPic": []}, {"lemmaId": 8577964, "lemmaTitle": "中毒性红斑", "lemmaCroppedTitle": "中毒性红斑", "lemmaDesc": "中毒性红斑为多种原因引起的全身性泛发性红斑损害，初起为孤立性小红斑，迅速扩展至全...", "lemmaUrl": "http://baike.baidu.com/item/%E4%B8%AD%E6%AF%92%E6%80%A7%E7%BA%A2%E6%96%91/8577964", "lemmaPic": []}, {"lemmaId": 10001571, "lemmaTitle": "膜增生性肾小球肾炎", "lemmaCroppedTitle": "膜增生性肾小球肾炎", "lemmaDesc": "膜增生性肾小球肾炎(MPGN)，是肾小球肾炎中最少见的类型之一，一般分为原发性和...", "lemmaUrl": "http://baike.baidu.com/item/%E8%86%9C%E5%A2%9E%E7%94%9F%E6%80%A7%E8%82%BE%E5%B0%8F%E7%90%83%E8%82%BE%E7%82%8E/10001571", "lemmaPic": []}, {"lemmaId": 5570303, "lemmaTitle": "小儿甲状腺功能亢进症", "lemmaCroppedTitle": "小儿甲状腺功能亢进症", "lemmaDesc": "甲状腺功能亢进症（甲亢）是指由于甲状腺激素分泌过多所致的临床综合征，常伴有甲状腺...", "lemmaUrl": "http://baike.baidu.com/item/%E5%B0%8F%E5%84%BF%E7%94%B2%E7%8A%B6%E8%85%BA%E5%8A%9F%E8%83%BD%E4%BA%A2%E8%BF%9B%E7%97%87/5570303", "lemmaPic": []}], "total": 7246, "totalPage": 73, "page": 28, "fromLemma": 0}