{"lemmaList": [{"lemmaId": 2839417, "lemmaTitle": "胫骨应力骨折", "lemmaCroppedTitle": "胫骨应力骨折", "lemmaDesc": "应力骨折是体育运动和军事训练中常见的损伤，属于过度使用性损伤的一种，亦称疲劳骨折...", "lemmaUrl": "http://baike.baidu.com/item/%E8%83%AB%E9%AA%A8%E5%BA%94%E5%8A%9B%E9%AA%A8%E6%8A%98/2839417", "lemmaPic": []}, {"lemmaId": 2921173, "lemmaTitle": "面部肉芽肿", "lemmaCroppedTitle": "面部肉芽肿", "lemmaDesc": "面部肉芽肿1945年由Nigley首先报告，亦称嗜酸性粒细胞增多性面部肉芽肿。皮...", "lemmaUrl": "http://baike.baidu.com/item/%E9%9D%A2%E9%83%A8%E8%82%89%E8%8A%BD%E8%82%BF/2921173", "lemmaPic": []}, {"lemmaId": 5053372, "lemmaTitle": "迁延性肺嗜酸粒细胞浸润症", "lemmaCroppedTitle": "迁延性肺嗜酸粒细胞浸润症", "lemmaDesc": "迁延性肺嗜酸粒细胞浸润症又称慢性嗜酸粒细胞性肺炎由Carrington在1969...", "lemmaUrl": "http://baike.baidu.com/item/%E8%BF%81%E5%BB%B6%E6%80%A7%E8%82%BA%E5%97%9C%E9%85%B8%E7%B2%92%E7%BB%86%E8%83%9E%E6%B5%B8%E6%B6%A6%E7%97%87/5053372", "lemmaPic": []}, {"lemmaId": 2985583, "lemmaTitle": "接触性唇炎", "lemmaCroppedTitle": "接触性唇炎", "lemmaDesc": "接触性唇炎是指口唇因接触外界化学物质而发生的局部刺激性或变应性反应。临床表现为唇...", "lemmaUrl": "http://baike.baidu.com/item/%E6%8E%A5%E8%A7%A6%E6%80%A7%E5%94%87%E7%82%8E/2985583", "lemmaPic": []}, {"lemmaId": 4017827, "lemmaTitle": "小肠平滑肌肉瘤", "lemmaCroppedTitle": "小肠平滑肌肉瘤", "lemmaDesc": "小肠平滑肌肉瘤起源于小肠壁的平滑肌组织。国内资料表明，小肠平滑肌肉瘤约占小肠恶性...", "lemmaUrl": "http://baike.baidu.com/item/%E5%B0%8F%E8%82%A0%E5%B9%B3%E6%BB%91%E8%82%8C%E8%82%89%E7%98%A4/4017827", "lemmaPic": []}, {"lemmaId": 2161888, "lemmaTitle": "血管炎性周围神经病", "lemmaCroppedTitle": "血管炎性周围神经病", "lemmaDesc": "血管炎性周围神经病是指周围神经的滋养血管发生炎症性闭塞，造成一个或多个经的梗死或...", "lemmaUrl": "http://baike.baidu.com/item/%E8%A1%80%E7%AE%A1%E7%82%8E%E6%80%A7%E5%91%A8%E5%9B%B4%E7%A5%9E%E7%BB%8F%E7%97%85/2161888", "lemmaPic": []}, {"lemmaId": 2829251, "lemmaTitle": "眼内转移性肿瘤", "lemmaCroppedTitle": "眼内转移性肿瘤", "lemmaDesc": "眼内转移性肿瘤比较少见，因为眼动脉与颈内动脉成直角分支，所以血流中的肿瘤栓子由于...", "lemmaUrl": "http://baike.baidu.com/item/%E7%9C%BC%E5%86%85%E8%BD%AC%E7%A7%BB%E6%80%A7%E8%82%BF%E7%98%A4/2829251", "lemmaPic": []}, {"lemmaId": 12810952, "lemmaTitle": "踝关节不稳", "lemmaCroppedTitle": "踝关节不稳", "lemmaDesc": "踝关节不稳是指踝关节周围韧带受损后导致踝关节不稳定，而引起踝关节频繁扭伤的现象。...", "lemmaUrl": "http://baike.baidu.com/item/%E8%B8%9D%E5%85%B3%E8%8A%82%E4%B8%8D%E7%A8%B3/12810952", "lemmaPic": []}, {"lemmaId": 8384305, "lemmaTitle": "子烦", "lemmaCroppedTitle": "子烦", "lemmaDesc": "指妇女妊娠期中出现的烦躁心悸的病症。西医妊娠期间出现抑郁症可参考本病。", "lemmaUrl": "http://baike.baidu.com/item/%E5%AD%90%E7%83%A6/8384305", "lemmaPic": []}, {"lemmaId": 4441447, "lemmaTitle": "搏动性眼球突出症", "lemmaCroppedTitle": "搏动性眼球突出症", "lemmaDesc": "本词条由：北京同仁医院  眼科   韩崧 (副主任医师)    审核搏动性眼球突...", "lemmaUrl": "http://baike.baidu.com/item/%E6%90%8F%E5%8A%A8%E6%80%A7%E7%9C%BC%E7%90%83%E7%AA%81%E5%87%BA%E7%97%87/4441447", "lemmaPic": []}, {"lemmaId": 5085933, "lemmaTitle": "褐黄病性关节炎", "lemmaCroppedTitle": "褐黄病性关节炎", "lemmaDesc": "褐黄病性关节炎是一种少见的氨基酸代谢障碍的遗传性疾病。病人肝脏中缺乏黑尿酸氧化酶...", "lemmaUrl": "http://baike.baidu.com/item/%E8%A4%90%E9%BB%84%E7%97%85%E6%80%A7%E5%85%B3%E8%8A%82%E7%82%8E/5085933", "lemmaPic": []}, {"lemmaId": 12630005, "lemmaTitle": "神经性肠梗阻综合征", "lemmaCroppedTitle": "神经性肠梗阻综合征", "lemmaDesc": "神经性肠梗阻综合征又称谢尔舍米斯基病,由苏联医师谢尔舍米斯基首先描述而命名，其他...", "lemmaUrl": "http://baike.baidu.com/item/%E7%A5%9E%E7%BB%8F%E6%80%A7%E8%82%A0%E6%A2%97%E9%98%BB%E7%BB%BC%E5%90%88%E5%BE%81/12630005", "lemmaPic": []}, {"lemmaId": 11039165, "lemmaTitle": "特发性胃肠道嗜酸性细胞浸润综合征", "lemmaCroppedTitle": "特发性胃肠道嗜酸性细胞浸润综合征", "lemmaDesc": "特发性胃肠道嗜酸性细胞浸润综合征是在进食某些食物后出现胃肠道症状、体征，嗜酸性粒...", "lemmaUrl": "http://baike.baidu.com/item/%E7%89%B9%E5%8F%91%E6%80%A7%E8%83%83%E8%82%A0%E9%81%93%E5%97%9C%E9%85%B8%E6%80%A7%E7%BB%86%E8%83%9E%E6%B5%B8%E6%B6%A6%E7%BB%BC%E5%90%88%E5%BE%81/11039165", "lemmaPic": []}, {"lemmaId": 1521598, "lemmaTitle": "输尿管异位开口", "lemmaCroppedTitle": "输尿管异位开口", "lemmaDesc": "输尿管异位开口是指输尿管开口于正常位置以外的部位。男性多开口于后尿道、射精管、精...", "lemmaUrl": "http://baike.baidu.com/item/%E8%BE%93%E5%B0%BF%E7%AE%A1%E5%BC%82%E4%BD%8D%E5%BC%80%E5%8F%A3/1521598", "lemmaPic": []}, {"lemmaId": 5054516, "lemmaTitle": "二水焦磷酸钙结晶沉积症", "lemmaCroppedTitle": "二水焦磷酸钙结晶沉积症", "lemmaDesc": "由于焦磷酸酶缺乏，二水焦磷酸钙结晶（calcium pyrophosphate ...", "lemmaUrl": "http://baike.baidu.com/item/%E4%BA%8C%E6%B0%B4%E7%84%A6%E7%A3%B7%E9%85%B8%E9%92%99%E7%BB%93%E6%99%B6%E6%B2%89%E7%A7%AF%E7%97%87/5054516", "lemmaPic": []}, {"lemmaId": 3443811, "lemmaTitle": "脆弱性骨硬化", "lemmaCroppedTitle": "脆弱性骨硬化", "lemmaDesc": "脆弱性骨硬化又称骨斑点症、播散型凝集性骨病及点状骨，全身多数骨骼上出现广泛散播的...", "lemmaUrl": "http://baike.baidu.com/item/%E8%84%86%E5%BC%B1%E6%80%A7%E9%AA%A8%E7%A1%AC%E5%8C%96/3443811", "lemmaPic": []}, {"lemmaId": 12676751, "lemmaTitle": "老年久病卧床", "lemmaCroppedTitle": "老年久病卧床", "lemmaDesc": "久病卧床（或称长期卧床、卧床不起）是指老年人因长期患病和伤残而导致日常生活能力减...", "lemmaUrl": "http://baike.baidu.com/item/%E8%80%81%E5%B9%B4%E4%B9%85%E7%97%85%E5%8D%A7%E5%BA%8A/12676751", "lemmaPic": []}, {"lemmaId": 10729200, "lemmaTitle": "颈椎椎弓裂", "lemmaCroppedTitle": "颈椎椎弓裂", "lemmaDesc": "颈椎椎弓上下关节突之间呈圆柱状结构，通常称为关节突间部，而不称峡部。因尚不清楚的...", "lemmaUrl": "http://baike.baidu.com/item/%E9%A2%88%E6%A4%8E%E6%A4%8E%E5%BC%93%E8%A3%82/10729200", "lemmaPic": []}, {"lemmaId": 6009124, "lemmaTitle": "创伤性肩关节前脱位", "lemmaCroppedTitle": "创伤性肩关节前脱位", "lemmaDesc": "创伤性肩脱位按肱骨头脱位方向分为四种类型，即肩关节前脱位、后脱位、上脱位及下脱位...", "lemmaUrl": "http://baike.baidu.com/item/%E5%88%9B%E4%BC%A4%E6%80%A7%E8%82%A9%E5%85%B3%E8%8A%82%E5%89%8D%E8%84%B1%E4%BD%8D/6009124", "lemmaPic": []}, {"lemmaId": 10455857, "lemmaTitle": "咽后壁憩室", "lemmaCroppedTitle": "咽后壁憩室", "lemmaDesc": "咽后壁憩室较常见，多位于喉咽部咽下缩肌的甲咽肌与环咽肌之间的黏膜与黏膜下层向外突...", "lemmaUrl": "http://baike.baidu.com/item/%E5%92%BD%E5%90%8E%E5%A3%81%E6%86%A9%E5%AE%A4/10455857", "lemmaPic": []}, {"lemmaId": 9345284, "lemmaTitle": "低磷性佝偻病", "lemmaCroppedTitle": "低磷性佝偻病", "lemmaDesc": "佝偻病和骨软化症是新合成基质的矿化障碍疾病。在成人，该病仅累及骨骼，称为骨软化症...", "lemmaUrl": "http://baike.baidu.com/item/%E4%BD%8E%E7%A3%B7%E6%80%A7%E4%BD%9D%E5%81%BB%E7%97%85/9345284", "lemmaPic": []}, {"lemmaId": 7984577, "lemmaTitle": "卵巢小细胞癌", "lemmaCroppedTitle": "卵巢小细胞癌", "lemmaDesc": "卵巢小细胞癌是指一种罕见的伴有高钙血症的高度恶性肿瘤。卵巢小细胞癌的组织发生至今...", "lemmaUrl": "http://baike.baidu.com/item/%E5%8D%B5%E5%B7%A2%E5%B0%8F%E7%BB%86%E8%83%9E%E7%99%8C/7984577", "lemmaPic": []}, {"lemmaId": 5905176, "lemmaTitle": "颅狭症", "lemmaCroppedTitle": "颅狭症", "lemmaDesc": "颅狭症是一条或多条颅骨骨缝过早闭合而导致头颅畸形、颅内压增高、智能发育障碍，并可...", "lemmaUrl": "http://baike.baidu.com/item/%E9%A2%85%E7%8B%AD%E7%97%87/5905176", "lemmaPic": []}, {"lemmaId": 8406192, "lemmaTitle": "热性嗜中性白细胞皮肤病", "lemmaCroppedTitle": "热性嗜中性白细胞皮肤病", "lemmaDesc": "热性嗜中性白细胞皮肤病即斯维特综合征，又名急性发热性嗜中性白细胞增多性皮肤病或隆...", "lemmaUrl": "http://baike.baidu.com/item/%E7%83%AD%E6%80%A7%E5%97%9C%E4%B8%AD%E6%80%A7%E7%99%BD%E7%BB%86%E8%83%9E%E7%9A%AE%E8%82%A4%E7%97%85/8406192", "lemmaPic": []}, {"lemmaId": 1591624, "lemmaTitle": "老年人颈性眩晕", "lemmaCroppedTitle": "老年人颈性眩晕", "lemmaDesc": "颈性眩晕是因椎动脉受到刺激或压迫，致椎-基底动脉供血不足，而产生的眩晕、恶心、呕...", "lemmaUrl": "http://baike.baidu.com/item/%E8%80%81%E5%B9%B4%E4%BA%BA%E9%A2%88%E6%80%A7%E7%9C%A9%E6%99%95/1591624", "lemmaPic": []}, {"lemmaId": 10358252, "lemmaTitle": "足舟状骨骨软骨病", "lemmaCroppedTitle": "足舟状骨骨软骨病", "lemmaDesc": "足舟骨骨软骨病，又称足舟骨无菌性坏死或Kohler病，是指生长发育中的足舟骨硬化...", "lemmaUrl": "http://baike.baidu.com/item/%E8%B6%B3%E8%88%9F%E7%8A%B6%E9%AA%A8%E9%AA%A8%E8%BD%AF%E9%AA%A8%E7%97%85/10358252", "lemmaPic": []}, {"lemmaId": 1914175, "lemmaTitle": "阴茎前阴囊", "lemmaCroppedTitle": "阴茎前阴囊", "lemmaDesc": "阴茎前阴囊又称阴茎阴囊转位，指阴囊异位于阴茎上方，是一种十分少见的先天性畸形，分...", "lemmaUrl": "http://baike.baidu.com/item/%E9%98%B4%E8%8C%8E%E5%89%8D%E9%98%B4%E5%9B%8A/1914175", "lemmaPic": []}, {"lemmaId": 10455997, "lemmaTitle": "咽肌麻痹", "lemmaCroppedTitle": "咽肌麻痹", "lemmaDesc": "咽部肌肉主要受咽丛而来的运动神经纤维所支配，以软腭瘫痪常见，发生原因可分为中枢性...", "lemmaUrl": "http://baike.baidu.com/item/%E5%92%BD%E8%82%8C%E9%BA%BB%E7%97%B9/10455997", "lemmaPic": []}, {"lemmaId": 8843354, "lemmaTitle": "创伤后骨髓炎", "lemmaCroppedTitle": "创伤后骨髓炎", "lemmaDesc": "创伤后骨髓炎主要指因火器伤、开放性骨折或切开复位内固定等对骨折断端或显露处的直接...", "lemmaUrl": "http://baike.baidu.com/item/%E5%88%9B%E4%BC%A4%E5%90%8E%E9%AA%A8%E9%AB%93%E7%82%8E/8843354", "lemmaPic": []}, {"lemmaId": 770280, "lemmaTitle": "投掷运动", "lemmaCroppedTitle": "投掷运动", "lemmaDesc": "投掷运动（舞动动作）是丘脑底核或联系径路受损，导致肢体抛掷样不随意运动，多累及一...", "lemmaUrl": "http://baike.baidu.com/item/%E6%8A%95%E6%8E%B7%E8%BF%90%E5%8A%A8/770280", "lemmaPic": []}, {"lemmaId": 896012, "lemmaTitle": "鼻瓣区狭窄", "lemmaCroppedTitle": "鼻瓣区狭窄", "lemmaDesc": "鼻瓣区即鼻内孔，位于鼻前庭深部、下鼻甲前端的前方。主要由鼻中隔软骨前下端和鼻外侧...", "lemmaUrl": "http://baike.baidu.com/item/%E9%BC%BB%E7%93%A3%E5%8C%BA%E7%8B%AD%E7%AA%84/896012", "lemmaPic": []}, {"lemmaId": 2774879, "lemmaTitle": "青少年及小儿阴道透明细胞癌", "lemmaCroppedTitle": "青少年及小儿阴道透明细胞癌", "lemmaDesc": "青少年及小儿阴道透明细胞癌是发生在青少年及小儿阴道或宫颈的恶性肿瘤。与母亲在妊娠...", "lemmaUrl": "http://baike.baidu.com/item/%E9%9D%92%E5%B0%91%E5%B9%B4%E5%8F%8A%E5%B0%8F%E5%84%BF%E9%98%B4%E9%81%93%E9%80%8F%E6%98%8E%E7%BB%86%E8%83%9E%E7%99%8C/2774879", "lemmaPic": []}, {"lemmaId": 5278318, "lemmaTitle": "周边葡萄膜炎", "lemmaCroppedTitle": "周边葡萄膜炎", "lemmaDesc": "周边葡萄膜炎又称为中间葡萄膜炎，主要侵犯睫状体平坦部和眼底周边，常伴有视网膜血管...", "lemmaUrl": "http://baike.baidu.com/item/%E5%91%A8%E8%BE%B9%E8%91%A1%E8%90%84%E8%86%9C%E7%82%8E/5278318", "lemmaPic": []}, {"lemmaId": 1754190, "lemmaTitle": "小儿卵巢肿瘤", "lemmaCroppedTitle": "小儿卵巢肿瘤", "lemmaDesc": "卵巢肿瘤占小儿恶性肿瘤的1%，罕见于5岁前，20%发生于月经来潮前的女孩，2/3...", "lemmaUrl": "http://baike.baidu.com/item/%E5%B0%8F%E5%84%BF%E5%8D%B5%E5%B7%A2%E8%82%BF%E7%98%A4/1754190", "lemmaPic": []}, {"lemmaId": 5938947, "lemmaTitle": "变性性近视的眼底损害", "lemmaCroppedTitle": "变性性近视的眼底损害", "lemmaDesc": "变性性近视是指患者在中年之后，眼底出现的种种退行性变性，也称病理性近视。视力出现...", "lemmaUrl": "http://baike.baidu.com/item/%E5%8F%98%E6%80%A7%E6%80%A7%E8%BF%91%E8%A7%86%E7%9A%84%E7%9C%BC%E5%BA%95%E6%8D%9F%E5%AE%B3/5938947", "lemmaPic": []}, {"lemmaId": 4141439, "lemmaTitle": "过敏性急性小管间质性肾炎", "lemmaCroppedTitle": "过敏性急性小管间质性肾炎", "lemmaDesc": "过敏性急性小管间质性肾炎（Acute tubulointerstitial ne...", "lemmaUrl": "http://baike.baidu.com/item/%E8%BF%87%E6%95%8F%E6%80%A7%E6%80%A5%E6%80%A7%E5%B0%8F%E7%AE%A1%E9%97%B4%E8%B4%A8%E6%80%A7%E8%82%BE%E7%82%8E/4141439", "lemmaPic": []}, {"lemmaId": 705003, "lemmaTitle": "尿毒症性心肌病", "lemmaCroppedTitle": "尿毒症性心肌病", "lemmaDesc": "尿毒症性心肌病是指肾衰竭时出现的心肌病变，多数由慢性肾衰竭引起，少数可由急性肾衰...", "lemmaUrl": "http://baike.baidu.com/item/%E5%B0%BF%E6%AF%92%E7%97%87%E6%80%A7%E5%BF%83%E8%82%8C%E7%97%85/705003", "lemmaPic": []}, {"lemmaId": 2064764, "lemmaTitle": "跟腱前囊炎", "lemmaCroppedTitle": "跟腱前囊炎", "lemmaDesc": "创伤引起的滑囊炎发病迅速，全身疾病引起者通常为逐渐发病。跟腱没有真正意义上的腱鞘...", "lemmaUrl": "http://baike.baidu.com/item/%E8%B7%9F%E8%85%B1%E5%89%8D%E5%9B%8A%E7%82%8E/2064764", "lemmaPic": []}, {"lemmaId": 2991471, "lemmaTitle": "食管痹", "lemmaCroppedTitle": "食管痹", "lemmaDesc": "中医病名。指食痹而吐。食管痹多因饮食不慎，情志失调，或因食管受损后形成瘢痕等，导...", "lemmaUrl": "http://baike.baidu.com/item/%E9%A3%9F%E7%AE%A1%E7%97%B9/2991471", "lemmaPic": []}, {"lemmaId": 7237154, "lemmaTitle": "牙源性皮瘘", "lemmaCroppedTitle": "牙源性皮瘘", "lemmaDesc": "牙源性皮瘘又称牙齿窦道，是由慢性根尖周炎发生脓肿，脓液从皮肤开口排出，形成瘘孔或...", "lemmaUrl": "http://baike.baidu.com/item/%E7%89%99%E6%BA%90%E6%80%A7%E7%9A%AE%E7%98%98/7237154", "lemmaPic": []}, {"lemmaId": 6641312, "lemmaTitle": "阴道腺癌", "lemmaCroppedTitle": "阴道腺癌", "lemmaDesc": "阴道腺癌为少见的阴道恶性肿瘤，大概占原发性阴道肿瘤的4%～9%。阴道腺癌可在任何...", "lemmaUrl": "http://baike.baidu.com/item/%E9%98%B4%E9%81%93%E8%85%BA%E7%99%8C/6641312", "lemmaPic": []}, {"lemmaId": 10358103, "lemmaTitle": "骨膜性软骨肉瘤", "lemmaCroppedTitle": "骨膜性软骨肉瘤", "lemmaDesc": "骨膜性软骨肉瘤是较少见的一种亚型，因其有独特的解剖和组织学特点，预后比中心性软骨...", "lemmaUrl": "http://baike.baidu.com/item/%E9%AA%A8%E8%86%9C%E6%80%A7%E8%BD%AF%E9%AA%A8%E8%82%89%E7%98%A4/10358103", "lemmaPic": []}, {"lemmaId": 10973632, "lemmaTitle": "流感病毒肺炎", "lemmaCroppedTitle": "流感病毒肺炎", "lemmaDesc": "流感病毒肺炎是由流感病毒侵犯下呼吸道而引起的肺部感染性疾病，可由病毒本身直接侵犯...", "lemmaUrl": "http://baike.baidu.com/item/%E6%B5%81%E6%84%9F%E7%97%85%E6%AF%92%E8%82%BA%E7%82%8E/10973632", "lemmaPic": []}, {"lemmaId": 12093331, "lemmaTitle": "肠道蛔虫症", "lemmaCroppedTitle": "肠道蛔虫症", "lemmaDesc": "蛔虫是最常见的肠道寄生虫病。蛔虫寄生于人体小肠，多数患者无明显症状，部分患者可有...", "lemmaUrl": "http://baike.baidu.com/item/%E8%82%A0%E9%81%93%E8%9B%94%E8%99%AB%E7%97%87/12093331", "lemmaPic": []}, {"lemmaId": 3760381, "lemmaTitle": "左束支中隔支传导阻滞", "lemmaCroppedTitle": "左束支中隔支传导阻滞", "lemmaDesc": "左束支中隔支传导阻滞简称中隔支阻滞，又称左间隔分支阻滞，简称间隔支阻滞、左中隔分...", "lemmaUrl": "http://baike.baidu.com/item/%E5%B7%A6%E6%9D%9F%E6%94%AF%E4%B8%AD%E9%9A%94%E6%94%AF%E4%BC%A0%E5%AF%BC%E9%98%BB%E6%BB%9E/3760381", "lemmaPic": []}, {"lemmaId": 3825112, "lemmaTitle": "颅内黑色素瘤", "lemmaCroppedTitle": "颅内黑色素瘤", "lemmaDesc": "颅内黑色素瘤，是一种较为少见的颅内恶性肿瘤。临床病程进展迅速，恶性程度较高。颅内...", "lemmaUrl": "http://baike.baidu.com/item/%E9%A2%85%E5%86%85%E9%BB%91%E8%89%B2%E7%B4%A0%E7%98%A4/3825112", "lemmaPic": []}, {"lemmaId": 10336154, "lemmaTitle": "骨外软骨肉瘤", "lemmaCroppedTitle": "骨外软骨肉瘤", "lemmaDesc": "骨外软骨肉瘤是发生于软组织的软骨肉瘤，可分为黏液型、间叶型及分化型。因分化型少见...", "lemmaUrl": "http://baike.baidu.com/item/%E9%AA%A8%E5%A4%96%E8%BD%AF%E9%AA%A8%E8%82%89%E7%98%A4/10336154", "lemmaPic": []}, {"lemmaId": 10455215, "lemmaTitle": "特发性室性心动过速", "lemmaCroppedTitle": "特发性室性心动过速", "lemmaDesc": "特发性室性心动过速（IVT）多发生于无器质性心脏病依据的患者，可发生在各年龄组儿...", "lemmaUrl": "http://baike.baidu.com/item/%E7%89%B9%E5%8F%91%E6%80%A7%E5%AE%A4%E6%80%A7%E5%BF%83%E5%8A%A8%E8%BF%87%E9%80%9F/10455215", "lemmaPic": []}, {"lemmaId": 6643205, "lemmaTitle": "中毒性白内障", "lemmaCroppedTitle": "中毒性白内障", "lemmaDesc": "局部或全身用药以及毒性物质诱发产生白内障，临床有诸多报道，并已引起人们的重视。许...", "lemmaUrl": "http://baike.baidu.com/item/%E4%B8%AD%E6%AF%92%E6%80%A7%E7%99%BD%E5%86%85%E9%9A%9C/6643205", "lemmaPic": []}, {"lemmaId": 2736616, "lemmaTitle": "阴道美丽筒线虫病", "lemmaCroppedTitle": "阴道美丽筒线虫病", "lemmaDesc": "美丽筒线虫寄生于女性阴道黏膜者少见，中间宿主有蟑螂、粪甲虫、蝗虫等昆虫，终末宿主...", "lemmaUrl": "http://baike.baidu.com/item/%E9%98%B4%E9%81%93%E7%BE%8E%E4%B8%BD%E7%AD%92%E7%BA%BF%E8%99%AB%E7%97%85/2736616", "lemmaPic": []}, {"lemmaId": 6006761, "lemmaTitle": "骨良性纤维组织细胞瘤", "lemmaCroppedTitle": "骨良性纤维组织细胞瘤", "lemmaDesc": "骨良性纤维组织细胞瘤(BFH)原发于骨的间叶肿瘤，在分类中属组织细胞源性肿瘤，常...", "lemmaUrl": "http://baike.baidu.com/item/%E9%AA%A8%E8%89%AF%E6%80%A7%E7%BA%A4%E7%BB%B4%E7%BB%84%E7%BB%87%E7%BB%86%E8%83%9E%E7%98%A4/6006761", "lemmaPic": []}, {"lemmaId": 2131048, "lemmaTitle": "棉屑沉着病", "lemmaCroppedTitle": "棉屑沉着病", "lemmaDesc": "是由于吸入棉尘、亚麻尘、软木尘引起支气管收缩和肺功能损害的一种呼吸道阻塞性疾病（...", "lemmaUrl": "http://baike.baidu.com/item/%E6%A3%89%E5%B1%91%E6%B2%89%E7%9D%80%E7%97%85/2131048", "lemmaPic": []}, {"lemmaId": 5433003, "lemmaTitle": "多杀巴斯德杆菌病", "lemmaCroppedTitle": "多杀巴斯德杆菌病", "lemmaDesc": "多杀巴斯德杆菌病，广泛存在于许多家畜和野生动物的呼吸道和肠道。人类的感染大部分是...", "lemmaUrl": "http://baike.baidu.com/item/%E5%A4%9A%E6%9D%80%E5%B7%B4%E6%96%AF%E5%BE%B7%E6%9D%86%E8%8F%8C%E7%97%85/5433003", "lemmaPic": []}, {"lemmaId": 2829216, "lemmaTitle": "眶脑膜瘤", "lemmaCroppedTitle": "眶脑膜瘤", "lemmaDesc": "该瘤可原发于眼眶，也可与颅内脑膜瘤互相蔓延，较常见者为嗅叶沟或眶顶处的脑膜瘤，大...", "lemmaUrl": "http://baike.baidu.com/item/%E7%9C%B6%E8%84%91%E8%86%9C%E7%98%A4/2829216", "lemmaPic": []}, {"lemmaId": 3343195, "lemmaTitle": "性病相关性胃肠道感染", "lemmaCroppedTitle": "性病相关性胃肠道感染", "lemmaDesc": "性病相关性胃肠道感染是指通过性接触传播，由细菌、原生动物及病毒感染或机会感染引起...", "lemmaUrl": "http://baike.baidu.com/item/%E6%80%A7%E7%97%85%E7%9B%B8%E5%85%B3%E6%80%A7%E8%83%83%E8%82%A0%E9%81%93%E6%84%9F%E6%9F%93/3343195", "lemmaPic": []}, {"lemmaId": 10981500, "lemmaTitle": "铜绿色假单胞菌肺炎", "lemmaCroppedTitle": "铜绿色假单胞菌肺炎", "lemmaDesc": "铜绿色假单胞菌肺炎是指由铜绿色假单胞菌感染所致的肺部炎症性病变，多见于院内感染，...", "lemmaUrl": "http://baike.baidu.com/item/%E9%93%9C%E7%BB%BF%E8%89%B2%E5%81%87%E5%8D%95%E8%83%9E%E8%8F%8C%E8%82%BA%E7%82%8E/10981500", "lemmaPic": []}, {"lemmaId": 10816319, "lemmaTitle": "椒疮", "lemmaCroppedTitle": "椒疮", "lemmaDesc": "胞睑内面红色细小颗粒密集丛生，状若椒粒，故名椒疮。分布以大小眦及穹隆部为重，常与...", "lemmaUrl": "http://baike.baidu.com/item/%E6%A4%92%E7%96%AE/10816319", "lemmaPic": []}, {"lemmaId": 16746315, "lemmaTitle": "颞下颌关节炎和颞颌关节炎", "lemmaCroppedTitle": "颞下颌关节炎和颞颌关节炎", "lemmaDesc": "颞下颌关节是连接下颌骨与颅骨（颞骨）的关节，位于耳道前方深层。颞下颌关节炎（颞颌...", "lemmaUrl": "http://baike.baidu.com/item/%E9%A2%9E%E4%B8%8B%E9%A2%8C%E5%85%B3%E8%8A%82%E7%82%8E%E5%92%8C%E9%A2%9E%E9%A2%8C%E5%85%B3%E8%8A%82%E7%82%8E/16746315", "lemmaPic": []}, {"lemmaId": 876166, "lemmaTitle": "老年人非霍奇金恶性淋巴肿瘤", "lemmaCroppedTitle": "老年人非霍奇金恶性淋巴肿瘤", "lemmaDesc": "老年人非霍奇金恶性淋巴肿瘤是一组异质性恶性肿瘤，以恶性B淋巴细胞或T淋巴细胞克隆...", "lemmaUrl": "http://baike.baidu.com/item/%E8%80%81%E5%B9%B4%E4%BA%BA%E9%9D%9E%E9%9C%8D%E5%A5%87%E9%87%91%E6%81%B6%E6%80%A7%E6%B7%8B%E5%B7%B4%E8%82%BF%E7%98%A4/876166", "lemmaPic": []}, {"lemmaId": 1712802, "lemmaTitle": "胃型哮喘", "lemmaCroppedTitle": "胃型哮喘", "lemmaDesc": "胃食管反流是消化道疾病的一种表现。由于胃液酸性物的刺激，可导致食管炎、上呼吸道炎...", "lemmaUrl": "http://baike.baidu.com/item/%E8%83%83%E5%9E%8B%E5%93%AE%E5%96%98/1712802", "lemmaPic": []}, {"lemmaId": 6092122, "lemmaTitle": "苯海拉明中毒", "lemmaCroppedTitle": "苯海拉明中毒", "lemmaDesc": "    苯海拉明是乙醇胺的衍生物，为临床常用的H1受体阻断剂，抗组胺效应不及异丙...", "lemmaUrl": "http://baike.baidu.com/item/%E8%8B%AF%E6%B5%B7%E6%8B%89%E6%98%8E%E4%B8%AD%E6%AF%92/6092122", "lemmaPic": []}, {"lemmaId": 3121748, "lemmaTitle": "海洛因肾脏病", "lemmaCroppedTitle": "海洛因肾脏病", "lemmaDesc": "随着吸毒人数的逐渐增加，海洛因肾脏病也呈上升趋势。海洛因可通过鼻吸、抽烟进食或皮...", "lemmaUrl": "http://baike.baidu.com/item/%E6%B5%B7%E6%B4%9B%E5%9B%A0%E8%82%BE%E8%84%8F%E7%97%85/3121748", "lemmaPic": []}, {"lemmaId": 8844041, "lemmaTitle": "脊柱脊髓伤", "lemmaCroppedTitle": "脊柱脊髓伤", "lemmaDesc": "脊柱脊髓损伤是骨科或脊柱外科常见病，多由于车祸、高处坠落、工伤、体育活动等造成脊...", "lemmaUrl": "http://baike.baidu.com/item/%E8%84%8A%E6%9F%B1%E8%84%8A%E9%AB%93%E4%BC%A4/8844041", "lemmaPic": []}, {"lemmaId": 5121061, "lemmaTitle": "先天性主动脉瓣窦动脉瘤破裂", "lemmaCroppedTitle": "先天性主动脉瓣窦动脉瘤破裂", "lemmaDesc": "动脉瓣窦动脉瘤破裂是一种少见的先天性心脏病。在胚胎发育过程中，由于主动脉瓣窦的基...", "lemmaUrl": "http://baike.baidu.com/item/%E5%85%88%E5%A4%A9%E6%80%A7%E4%B8%BB%E5%8A%A8%E8%84%89%E7%93%A3%E7%AA%A6%E5%8A%A8%E8%84%89%E7%98%A4%E7%A0%B4%E8%A3%82/5121061", "lemmaPic": []}, {"lemmaId": 5752391, "lemmaTitle": "接合菌病", "lemmaCroppedTitle": "接合菌病", "lemmaDesc": "接合菌病是由接合菌纲所属的病原菌所引起的急性、亚急性和慢性条件性感染。接合菌纲属...", "lemmaUrl": "http://baike.baidu.com/item/%E6%8E%A5%E5%90%88%E8%8F%8C%E7%97%85/5752391", "lemmaPic": []}, {"lemmaId": 883130, "lemmaTitle": "卵巢肿瘤破裂", "lemmaCroppedTitle": "卵巢肿瘤破裂", "lemmaDesc": "卵巢一般质地为实性，但在病理情况下则可有不同的质地变化：如形成非赘生性囊肿、发生...", "lemmaUrl": "http://baike.baidu.com/item/%E5%8D%B5%E5%B7%A2%E8%82%BF%E7%98%A4%E7%A0%B4%E8%A3%82/883130", "lemmaPic": []}, {"lemmaId": 8353805, "lemmaTitle": "伴有虹膜睫状体炎的继发性青光眼", "lemmaCroppedTitle": "伴有虹膜睫状体炎的继发性青光眼", "lemmaDesc": "伴有虹膜睫状体炎的继发性青光眼是一些眼部疾病和某些全身疾病在眼部出现的合并症，这...", "lemmaUrl": "http://baike.baidu.com/item/%E4%BC%B4%E6%9C%89%E8%99%B9%E8%86%9C%E7%9D%AB%E7%8A%B6%E4%BD%93%E7%82%8E%E7%9A%84%E7%BB%A7%E5%8F%91%E6%80%A7%E9%9D%92%E5%85%89%E7%9C%BC/8353805", "lemmaPic": []}, {"lemmaId": 1108198, "lemmaTitle": "癫痫发作", "lemmaCroppedTitle": "癫痫发作", "lemmaDesc": "癫痫是指由脑部神经元的过度放电引起的一种急性、反复发作、阵发性的大脑功能紊乱，表...", "lemmaUrl": "http://baike.baidu.com/item/%E7%99%AB%E7%97%AB%E5%8F%91%E4%BD%9C/1108198", "lemmaPic": []}, {"lemmaId": 7724896, "lemmaTitle": "肩峰骨折", "lemmaCroppedTitle": "肩峰骨折", "lemmaDesc": "由于该骨块坚强而且骨突短，因此不易骨折，故临床少见。肩峰骨折后常有以下临床表现：...", "lemmaUrl": "http://baike.baidu.com/item/%E8%82%A9%E5%B3%B0%E9%AA%A8%E6%8A%98/7724896", "lemmaPic": []}, {"lemmaId": 5056167, "lemmaTitle": "急性风湿热肾损害", "lemmaCroppedTitle": "急性风湿热肾损害", "lemmaDesc": "急性风湿热肾损害是由风湿热引起的一过性、非进展性、病理改变较轻的一种免疫性损害。...", "lemmaUrl": "http://baike.baidu.com/item/%E6%80%A5%E6%80%A7%E9%A3%8E%E6%B9%BF%E7%83%AD%E8%82%BE%E6%8D%9F%E5%AE%B3/5056167", "lemmaPic": []}, {"lemmaId": 1117038, "lemmaTitle": "Ⅳ型超敏反应性疾病", "lemmaCroppedTitle": "Ⅳ型超敏反应性疾病", "lemmaDesc": "据认为Ⅳ型超敏反应起重要作用的临床疾病有接触性皮炎，超敏反应性肺炎，同种移植物排...", "lemmaUrl": "http://baike.baidu.com/item/%E2%85%A3%E5%9E%8B%E8%B6%85%E6%95%8F%E5%8F%8D%E5%BA%94%E6%80%A7%E7%96%BE%E7%97%85/1117038", "lemmaPic": []}, {"lemmaId": 3654894, "lemmaTitle": "节段性透明性血管炎", "lemmaCroppedTitle": "节段性透明性血管炎", "lemmaDesc": "节段性透明性血管炎，又称Milian白色萎缩，青斑样血管炎病、青斑样血管炎、青斑...", "lemmaUrl": "http://baike.baidu.com/item/%E8%8A%82%E6%AE%B5%E6%80%A7%E9%80%8F%E6%98%8E%E6%80%A7%E8%A1%80%E7%AE%A1%E7%82%8E/3654894", "lemmaPic": []}, {"lemmaId": 3763237, "lemmaTitle": "多发性斑状色素沉着症", "lemmaCroppedTitle": "多发性斑状色素沉着症", "lemmaDesc": "该病基本损害为多发性色素沉着斑，指甲到钱币大，或卵圆形，灰到灰棕色，边界不太清楚...", "lemmaUrl": "http://baike.baidu.com/item/%E5%A4%9A%E5%8F%91%E6%80%A7%E6%96%91%E7%8A%B6%E8%89%B2%E7%B4%A0%E6%B2%89%E7%9D%80%E7%97%87/3763237", "lemmaPic": []}, {"lemmaId": 7723089, "lemmaTitle": "胫后神经损伤", "lemmaCroppedTitle": "胫后神经损伤", "lemmaDesc": "胫神经位于股部及小腿深部，发生损伤的机会较少。往往是锐器刺伤所致，可伤及胫神经及...", "lemmaUrl": "http://baike.baidu.com/item/%E8%83%AB%E5%90%8E%E7%A5%9E%E7%BB%8F%E6%8D%9F%E4%BC%A4/7723089", "lemmaPic": []}, {"lemmaId": 10975926, "lemmaTitle": "风秘", "lemmaCroppedTitle": "风秘", "lemmaDesc": "风秘是因风邪而出现大便秘结症状。患者多伴有眩晕、腹胀等兼症。可见于风热感冒，大肠...", "lemmaUrl": "http://baike.baidu.com/item/%E9%A3%8E%E7%A7%98/10975926", "lemmaPic": []}, {"lemmaId": 10995940, "lemmaTitle": "克雷白杆菌属感染", "lemmaCroppedTitle": "克雷白杆菌属感染", "lemmaDesc": "克雷白杆菌属是除大肠杆菌外最重要的条件致病菌，与沙雷菌属、肠杆菌属与哈夫尼亚菌生...", "lemmaUrl": "http://baike.baidu.com/item/%E5%85%8B%E9%9B%B7%E7%99%BD%E6%9D%86%E8%8F%8C%E5%B1%9E%E6%84%9F%E6%9F%93/10995940", "lemmaPic": []}, {"lemmaId": 5242958, "lemmaTitle": "继发性纵隔感染", "lemmaCroppedTitle": "继发性纵隔感染", "lemmaDesc": "解剖上颈深部、上纵隔、下纵隔和后腹膜区域的诸多结构之间，存在的疏松组织链接的间隙...", "lemmaUrl": "http://baike.baidu.com/item/%E7%BB%A7%E5%8F%91%E6%80%A7%E7%BA%B5%E9%9A%94%E6%84%9F%E6%9F%93/5242958", "lemmaPic": []}, {"lemmaId": 2094551, "lemmaTitle": "阴道横纹肌肉瘤", "lemmaCroppedTitle": "阴道横纹肌肉瘤", "lemmaDesc": "阴道横纹肌肉瘤（RMS）为高度恶性肿瘤。好发部位与年龄有关，婴幼儿多见于阴道。患...", "lemmaUrl": "http://baike.baidu.com/item/%E9%98%B4%E9%81%93%E6%A8%AA%E7%BA%B9%E8%82%8C%E8%82%89%E7%98%A4/2094551", "lemmaPic": []}, {"lemmaId": 7223790, "lemmaTitle": "线状IgA大疱性皮肤病", "lemmaCroppedTitle": "线状IgA大疱性皮肤病", "lemmaDesc": "线状IgA大疱性皮肤病（LABD）又名儿童慢性大疱病，是一种罕见疾病，由于其具有...", "lemmaUrl": "http://baike.baidu.com/item/%E7%BA%BF%E7%8A%B6IgA%E5%A4%A7%E7%96%B1%E6%80%A7%E7%9A%AE%E8%82%A4%E7%97%85/7223790", "lemmaPic": []}, {"lemmaId": 1976104, "lemmaTitle": "延髓性麻痹", "lemmaCroppedTitle": "延髓性麻痹", "lemmaDesc": "延髓性麻痹称为球麻痹，又叫真性球麻痹。延髓内的运动神经核团，或来自延髓的颅神经（...", "lemmaUrl": "http://baike.baidu.com/item/%E5%BB%B6%E9%AB%93%E6%80%A7%E9%BA%BB%E7%97%B9/1976104", "lemmaPic": []}, {"lemmaId": 3143513, "lemmaTitle": "脐膨出-巨舌-巨大躯体综合征", "lemmaCroppedTitle": "脐膨出-巨舌-巨大躯体综合征", "lemmaDesc": "脐膨出-巨舌-巨大躯体综合征也称新生儿低血糖-巨舌-内脏肥大-脐膨出综合征、新生...", "lemmaUrl": "http://baike.baidu.com/item/%E8%84%90%E8%86%A8%E5%87%BA-%E5%B7%A8%E8%88%8C-%E5%B7%A8%E5%A4%A7%E8%BA%AF%E4%BD%93%E7%BB%BC%E5%90%88%E5%BE%81/3143513", "lemmaPic": []}, {"lemmaId": 3687965, "lemmaTitle": "外阴蛲虫病", "lemmaCroppedTitle": "外阴蛲虫病", "lemmaDesc": "蛲虫是一种肠道寄生虫，长5～10mm，白色，如线头状。它所造成外阴部、胃肠道及全...", "lemmaUrl": "http://baike.baidu.com/item/%E5%A4%96%E9%98%B4%E8%9B%B2%E8%99%AB%E7%97%85/3687965", "lemmaPic": []}, {"lemmaId": 5243155, "lemmaTitle": "原发性非调节性内斜视", "lemmaCroppedTitle": "原发性非调节性内斜视", "lemmaDesc": "先天性内斜视一般在生后或生后数日内发生内斜，因患儿父母很少在新生儿时期就诊，故临...", "lemmaUrl": "http://baike.baidu.com/item/%E5%8E%9F%E5%8F%91%E6%80%A7%E9%9D%9E%E8%B0%83%E8%8A%82%E6%80%A7%E5%86%85%E6%96%9C%E8%A7%86/5243155", "lemmaPic": []}, {"lemmaId": 7459775, "lemmaTitle": "结节性脂肪坏死", "lemmaCroppedTitle": "结节性脂肪坏死", "lemmaDesc": "结节性脂肪坏死又称胰腺炎皮下脂肪坏死病。合并胰腺疾病的脂肪坏死性炎症，除合并皮下...", "lemmaUrl": "http://baike.baidu.com/item/%E7%BB%93%E8%8A%82%E6%80%A7%E8%84%82%E8%82%AA%E5%9D%8F%E6%AD%BB/7459775", "lemmaPic": []}, {"lemmaId": 895904, "lemmaTitle": "结核性中耳乳突炎", "lemmaCroppedTitle": "结核性中耳乳突炎", "lemmaDesc": "多继发于肺结核病，近20年来由于有效的抗结核药物的问世，肺结核发病率已明显降低，...", "lemmaUrl": "http://baike.baidu.com/item/%E7%BB%93%E6%A0%B8%E6%80%A7%E4%B8%AD%E8%80%B3%E4%B9%B3%E7%AA%81%E7%82%8E/895904", "lemmaPic": []}, {"lemmaId": 12630037, "lemmaTitle": "桡骨茎突部狭窄性腱鞘炎", "lemmaCroppedTitle": "桡骨茎突部狭窄性腱鞘炎", "lemmaDesc": "腱鞘炎是指腱鞘因机械性摩擦而引起的慢性无菌性炎性改变。腱鞘炎是骨科常见病，多见于...", "lemmaUrl": "http://baike.baidu.com/item/%E6%A1%A1%E9%AA%A8%E8%8C%8E%E7%AA%81%E9%83%A8%E7%8B%AD%E7%AA%84%E6%80%A7%E8%85%B1%E9%9E%98%E7%82%8E/12630037", "lemmaPic": []}, {"lemmaId": 844322, "lemmaTitle": "婴儿骨皮质增生症", "lemmaCroppedTitle": "婴儿骨皮质增生症", "lemmaDesc": "婴儿骨皮质增生症又称Caffey病，为婴儿时期侵犯骨骼及肌肉筋膜的疾病，其特点为...", "lemmaUrl": "http://baike.baidu.com/item/%E5%A9%B4%E5%84%BF%E9%AA%A8%E7%9A%AE%E8%B4%A8%E5%A2%9E%E7%94%9F%E7%97%87/844322", "lemmaPic": []}, {"lemmaId": 6292460, "lemmaTitle": "常染色体显性多囊肾", "lemmaCroppedTitle": "常染色体显性多囊肾", "lemmaDesc": "多囊肾即正常肾组织被无数小囊所代替，外形似一串葡萄，有时囊间有岛状正常组织。本病...", "lemmaUrl": "http://baike.baidu.com/item/%E5%B8%B8%E6%9F%93%E8%89%B2%E4%BD%93%E6%98%BE%E6%80%A7%E5%A4%9A%E5%9B%8A%E8%82%BE/6292460", "lemmaPic": []}, {"lemmaId": 2711970, "lemmaTitle": "眼眶黏液囊肿", "lemmaCroppedTitle": "眼眶黏液囊肿", "lemmaDesc": "眼眶黏液囊肿多原发于鼻窦，通过压迫侵入眶内，是较为常见的眶内占位病变之一。各鼻窦...", "lemmaUrl": "http://baike.baidu.com/item/%E7%9C%BC%E7%9C%B6%E9%BB%8F%E6%B6%B2%E5%9B%8A%E8%82%BF/2711970", "lemmaPic": []}, {"lemmaId": 7720855, "lemmaTitle": "卵巢功能缺如综合征", "lemmaCroppedTitle": "卵巢功能缺如综合征", "lemmaDesc": "卵巢功能缺如综合征又称女性去势综合征，起源于卵巢功能丧失，雌激素缺乏，主要表现为...", "lemmaUrl": "http://baike.baidu.com/item/%E5%8D%B5%E5%B7%A2%E5%8A%9F%E8%83%BD%E7%BC%BA%E5%A6%82%E7%BB%BC%E5%90%88%E5%BE%81/7720855", "lemmaPic": []}, {"lemmaId": 9272111, "lemmaTitle": "胃反应性淋巴增生", "lemmaCroppedTitle": "胃反应性淋巴增生", "lemmaDesc": "胃反应性淋巴增生是胃黏膜局限性或弥漫性淋巴细胞明显增生的良性疾病，临床上较为少见...", "lemmaUrl": "http://baike.baidu.com/item/%E8%83%83%E5%8F%8D%E5%BA%94%E6%80%A7%E6%B7%8B%E5%B7%B4%E5%A2%9E%E7%94%9F/9272111", "lemmaPic": []}, {"lemmaId": 869895, "lemmaTitle": "癫痫伴发的精神障碍", "lemmaCroppedTitle": "癫痫伴发的精神障碍", "lemmaDesc": "癫痫患者所伴发的精神障碍可发生在癫痫发作前，发作时和发作后，亦可在发作间歇期内呈...", "lemmaUrl": "http://baike.baidu.com/item/%E7%99%AB%E7%97%AB%E4%BC%B4%E5%8F%91%E7%9A%84%E7%B2%BE%E7%A5%9E%E9%9A%9C%E7%A2%8D/869895", "lemmaPic": []}, {"lemmaId": 8668393, "lemmaTitle": "外源性变应性肺泡炎", "lemmaCroppedTitle": "外源性变应性肺泡炎", "lemmaDesc": "外源性变应性肺泡炎是吸入外界有机粉尘所引起的过敏性肺泡炎，为免疫介导的肺部疾病。...", "lemmaUrl": "http://baike.baidu.com/item/%E5%A4%96%E6%BA%90%E6%80%A7%E5%8F%98%E5%BA%94%E6%80%A7%E8%82%BA%E6%B3%A1%E7%82%8E/8668393", "lemmaPic": []}, {"lemmaId": 917466, "lemmaTitle": "先天性声门下狭窄", "lemmaCroppedTitle": "先天性声门下狭窄", "lemmaDesc": "正常婴幼儿声门下腔的直径为5.5～6毫米，由于发育异常、声门下腔狭小（一般小于4...", "lemmaUrl": "http://baike.baidu.com/item/%E5%85%88%E5%A4%A9%E6%80%A7%E5%A3%B0%E9%97%A8%E4%B8%8B%E7%8B%AD%E7%AA%84/917466", "lemmaPic": []}, {"lemmaId": 4615934, "lemmaTitle": "小儿骶尾部畸胎瘤", "lemmaCroppedTitle": "小儿骶尾部畸胎瘤", "lemmaDesc": "骶尾部不仅容易发生畸胎瘤，而且是恶性变多见的部位。全部患者恶性的发生率为10%～...", "lemmaUrl": "http://baike.baidu.com/item/%E5%B0%8F%E5%84%BF%E9%AA%B6%E5%B0%BE%E9%83%A8%E7%95%B8%E8%83%8E%E7%98%A4/4615934", "lemmaPic": []}, {"lemmaId": 5081029, "lemmaTitle": "淀粉样变性周围神经病", "lemmaCroppedTitle": "淀粉样变性周围神经病", "lemmaDesc": "淀粉样变性周围神经病即指不同来源的淀粉样物质在周围神经沉积，引起的一组严重的进行...", "lemmaUrl": "http://baike.baidu.com/item/%E6%B7%80%E7%B2%89%E6%A0%B7%E5%8F%98%E6%80%A7%E5%91%A8%E5%9B%B4%E7%A5%9E%E7%BB%8F%E7%97%85/5081029", "lemmaPic": []}, {"lemmaId": 10260225, "lemmaTitle": "化脑", "lemmaCroppedTitle": "化脑", "lemmaDesc": "化脓性脑膜炎是严重的颅内感染之一，常与化脓性脑炎或脑脓肿同时存在。化脓性脑膜炎最...", "lemmaUrl": "http://baike.baidu.com/item/%E5%8C%96%E8%84%91/10260225", "lemmaPic": []}, {"lemmaId": 583407, "lemmaTitle": "卵巢残余综合征", "lemmaCroppedTitle": "卵巢残余综合征", "lemmaDesc": "卵巢残余综合征（ORS）指在阴式或腹式切除双侧卵巢后，再次出现功能性的卵巢组织，...", "lemmaUrl": "http://baike.baidu.com/item/%E5%8D%B5%E5%B7%A2%E6%AE%8B%E4%BD%99%E7%BB%BC%E5%90%88%E5%BE%81/583407", "lemmaPic": []}, {"lemmaId": 2774819, "lemmaTitle": "中青年脑梗死", "lemmaCroppedTitle": "中青年脑梗死", "lemmaDesc": "中年以上，有高血压及动脉硬化者，突然起病，在数小时，数日内达到高峰的脑局灶性损害...", "lemmaUrl": "http://baike.baidu.com/item/%E4%B8%AD%E9%9D%92%E5%B9%B4%E8%84%91%E6%A2%97%E6%AD%BB/2774819", "lemmaPic": []}, {"lemmaId": 3792897, "lemmaTitle": "苍白球黑质红核色素变性", "lemmaCroppedTitle": "苍白球黑质红核色素变性", "lemmaDesc": "苍白球黑质红核色素变性是与铁元素代谢障碍有关的神经变性及主要累及锥体外系统的一种...", "lemmaUrl": "http://baike.baidu.com/item/%E8%8B%8D%E7%99%BD%E7%90%83%E9%BB%91%E8%B4%A8%E7%BA%A2%E6%A0%B8%E8%89%B2%E7%B4%A0%E5%8F%98%E6%80%A7/3792897", "lemmaPic": []}], "total": 7246, "totalPage": 73, "page": 48, "fromLemma": 0}