{"lemmaList": [{"lemmaId": 2238861, "lemmaTitle": "获得性高脂蛋白血症", "lemmaCroppedTitle": "获得性高脂蛋白血症", "lemmaDesc": "继发性或获得性高脂蛋白血症是因脏器疾病或药物反应所致的脂代谢变化。它们的数量比原...", "lemmaUrl": "http://baike.baidu.com/item/%E8%8E%B7%E5%BE%97%E6%80%A7%E9%AB%98%E8%84%82%E8%9B%8B%E7%99%BD%E8%A1%80%E7%97%87/2238861", "lemmaPic": []}, {"lemmaId": 1970198, "lemmaTitle": "先天性肌缺如", "lemmaCroppedTitle": "先天性肌缺如", "lemmaDesc": "先天性肌缺如，全身任何肌肉均可受累，部分患儿出生时即表现为肌张力低下、肌力差、肌...", "lemmaUrl": "http://baike.baidu.com/item/%E5%85%88%E5%A4%A9%E6%80%A7%E8%82%8C%E7%BC%BA%E5%A6%82/1970198", "lemmaPic": []}, {"lemmaId": 9856261, "lemmaTitle": "先天性白细胞颗粒异常综合征", "lemmaCroppedTitle": "先天性白细胞颗粒异常综合征", "lemmaDesc": "先天性白细胞颗粒异常综合征又称契-东综合征，是Chediak、Higashi分别...", "lemmaUrl": "http://baike.baidu.com/item/%E5%85%88%E5%A4%A9%E6%80%A7%E7%99%BD%E7%BB%86%E8%83%9E%E9%A2%97%E7%B2%92%E5%BC%82%E5%B8%B8%E7%BB%BC%E5%90%88%E5%BE%81/9856261", "lemmaPic": []}, {"lemmaId": 15708624, "lemmaTitle": "肝脏恶性肿瘤", "lemmaCroppedTitle": "肝脏恶性肿瘤", "lemmaDesc": "肝脏恶性肿瘤可分为原发性和继发性两大类。原发性肝脏恶性肿瘤起源于肝脏的上皮或间叶...", "lemmaUrl": "http://baike.baidu.com/item/%E8%82%9D%E8%84%8F%E6%81%B6%E6%80%A7%E8%82%BF%E7%98%A4/15708624", "lemmaPic": []}, {"lemmaId": 5335729, "lemmaTitle": "Marie-Bamberger综合征", "lemmaCroppedTitle": "Marie-Bamberger综合征", "lemmaDesc": "Marie-Bamberger综合征又称肺性肥大性骨关节病、慢性肺性骨关节病、全...", "lemmaUrl": "http://baike.baidu.com/item/Marie-Bamberger%E7%BB%BC%E5%90%88%E5%BE%81/5335729", "lemmaPic": []}, {"lemmaId": 4609847, "lemmaTitle": "小儿阿托品类中毒", "lemmaCroppedTitle": "小儿阿托品类中毒", "lemmaDesc": "小儿阿托品类中毒是指食用过量的含阿托品类生物碱的植物的根、茎、果或服用其制剂而引...", "lemmaUrl": "http://baike.baidu.com/item/%E5%B0%8F%E5%84%BF%E9%98%BF%E6%89%98%E5%93%81%E7%B1%BB%E4%B8%AD%E6%AF%92/4609847", "lemmaPic": []}, {"lemmaId": 7230296, "lemmaTitle": "复发性多发性软骨炎伴发的葡萄膜炎", "lemmaCroppedTitle": "复发性多发性软骨炎伴发的葡萄膜炎", "lemmaDesc": "复发性多发性软骨炎是一种少见的自身免疫性疾病，主要表现为耳郭鼻喉、气管软骨的炎症...", "lemmaUrl": "http://baike.baidu.com/item/%E5%A4%8D%E5%8F%91%E6%80%A7%E5%A4%9A%E5%8F%91%E6%80%A7%E8%BD%AF%E9%AA%A8%E7%82%8E%E4%BC%B4%E5%8F%91%E7%9A%84%E8%91%A1%E8%90%84%E8%86%9C%E7%82%8E/7230296", "lemmaPic": []}, {"lemmaId": 3605664, "lemmaTitle": "螨虫皮炎", "lemmaCroppedTitle": "螨虫皮炎", "lemmaDesc": "凡因螨虫叮咬或接触其分泌物、蜕皮而引起的皮炎统称螨虫皮炎。螨种类繁多，这里仅介绍...", "lemmaUrl": "http://baike.baidu.com/item/%E8%9E%A8%E8%99%AB%E7%9A%AE%E7%82%8E/3605664", "lemmaPic": []}, {"lemmaId": 12021742, "lemmaTitle": "发育不良痣综合征", "lemmaCroppedTitle": "发育不良痣综合征", "lemmaDesc": "发育不良痣综合征又称Clark痣、非典型痣、B-K痣综合征。发育不良痣综合征的临...", "lemmaUrl": "http://baike.baidu.com/item/%E5%8F%91%E8%82%B2%E4%B8%8D%E8%89%AF%E7%97%A3%E7%BB%BC%E5%90%88%E5%BE%81/12021742", "lemmaPic": []}, {"lemmaId": 5281612, "lemmaTitle": "皮肤B细胞淋巴样结节型增生", "lemmaCroppedTitle": "皮肤B细胞淋巴样结节型增生", "lemmaDesc": "皮肤B细胞淋巴样增生结节型通常为特发性。特发性B细胞淋巴样增生，曾被称为Spei...", "lemmaUrl": "http://baike.baidu.com/item/%E7%9A%AE%E8%82%A4B%E7%BB%86%E8%83%9E%E6%B7%8B%E5%B7%B4%E6%A0%B7%E7%BB%93%E8%8A%82%E5%9E%8B%E5%A2%9E%E7%94%9F/5281612", "lemmaPic": []}, {"lemmaId": 12810931, "lemmaTitle": "自发性血气胸", "lemmaCroppedTitle": "自发性血气胸", "lemmaDesc": "自发性血气胸（SHP）是指气体和血液在胸腔内积聚,并排除其他病因所致的疾病。本病...", "lemmaUrl": "http://baike.baidu.com/item/%E8%87%AA%E5%8F%91%E6%80%A7%E8%A1%80%E6%B0%94%E8%83%B8/12810931", "lemmaPic": []}, {"lemmaId": 2731865, "lemmaTitle": "先天性喉闭锁", "lemmaCroppedTitle": "先天性喉闭锁", "lemmaDesc": "在胚胎期因喉发育过程受阻，喉腔未形成，出生时喉腔闭锁不能通气，称为先天性喉闭锁。...", "lemmaUrl": "http://baike.baidu.com/item/%E5%85%88%E5%A4%A9%E6%80%A7%E5%96%89%E9%97%AD%E9%94%81/2731865", "lemmaPic": []}, {"lemmaId": 5859984, "lemmaTitle": "红细胞增多症视网膜病变", "lemmaCroppedTitle": "红细胞增多症视网膜病变", "lemmaDesc": "原发性即真性红细胞增多症。我国少见，一般认为由骨髓造血功能亢进所致，代偿性（或称...", "lemmaUrl": "http://baike.baidu.com/item/%E7%BA%A2%E7%BB%86%E8%83%9E%E5%A2%9E%E5%A4%9A%E7%97%87%E8%A7%86%E7%BD%91%E8%86%9C%E7%97%85%E5%8F%98/5859984", "lemmaPic": []}, {"lemmaId": 9923236, "lemmaTitle": "先天性腓骨缺如", "lemmaCroppedTitle": "先天性腓骨缺如", "lemmaDesc": "先天性腓骨缺如亦称为腓侧半肢畸形、先天性腓骨缺损、轴旁腓侧半肢畸形及腓骨未发育或...", "lemmaUrl": "http://baike.baidu.com/item/%E5%85%88%E5%A4%A9%E6%80%A7%E8%85%93%E9%AA%A8%E7%BC%BA%E5%A6%82/9923236", "lemmaPic": []}, {"lemmaId": 12676607, "lemmaTitle": "小儿巨细胞病毒肺炎", "lemmaCroppedTitle": "小儿巨细胞病毒肺炎", "lemmaDesc": "巨细胞病毒（CMV）感染在我国广泛流行，且多在婴幼儿时期发生。CMV一旦侵入人体...", "lemmaUrl": "http://baike.baidu.com/item/%E5%B0%8F%E5%84%BF%E5%B7%A8%E7%BB%86%E8%83%9E%E7%97%85%E6%AF%92%E8%82%BA%E7%82%8E/12676607", "lemmaPic": []}, {"lemmaId": 1326961, "lemmaTitle": "神经肽性肢端感觉异常", "lemmaCroppedTitle": "神经肽性肢端感觉异常", "lemmaDesc": "本病是一种局限于手足部、无皮疹的慢性瘙痒性刺痛性皮肤病，病因不明。除肢端感觉异常...", "lemmaUrl": "http://baike.baidu.com/item/%E7%A5%9E%E7%BB%8F%E8%82%BD%E6%80%A7%E8%82%A2%E7%AB%AF%E6%84%9F%E8%A7%89%E5%BC%82%E5%B8%B8/1326961", "lemmaPic": []}, {"lemmaId": 4611911, "lemmaTitle": "小儿α1-抗胰蛋白酶缺乏症", "lemmaCroppedTitle": "小儿α1-抗胰蛋白酶缺乏症", "lemmaDesc": "α1-抗胰蛋白酶缺乏症是以婴儿期出现胆汁淤积性黄疸、进行性肝功能损害和青年期后出...", "lemmaUrl": "http://baike.baidu.com/item/%E5%B0%8F%E5%84%BF%CE%B11-%E6%8A%97%E8%83%B0%E8%9B%8B%E7%99%BD%E9%85%B6%E7%BC%BA%E4%B9%8F%E7%97%87/4611911", "lemmaPic": []}, {"lemmaId": 7067965, "lemmaTitle": "Nezelot综合征", "lemmaCroppedTitle": "Nezelot综合征", "lemmaDesc": "Nozelof综合征又称胸腺发育不全综合征，为呼吸内科疾病，由法国病理学家Noz...", "lemmaUrl": "http://baike.baidu.com/item/Nezelot%E7%BB%BC%E5%90%88%E5%BE%81/7067965", "lemmaPic": []}, {"lemmaId": 4724333, "lemmaTitle": "少年儿童葡萄膜炎", "lemmaCroppedTitle": "少年儿童葡萄膜炎", "lemmaDesc": "葡萄膜炎指的是虹膜、睫状体、脉络膜的炎症；虹膜和睫状体的血液供给同为虹膜大环，故...", "lemmaUrl": "http://baike.baidu.com/item/%E5%B0%91%E5%B9%B4%E5%84%BF%E7%AB%A5%E8%91%A1%E8%90%84%E8%86%9C%E7%82%8E/4724333", "lemmaPic": []}, {"lemmaId": 342185, "lemmaTitle": "卵泡腺细胞增殖综合征", "lemmaCroppedTitle": "卵泡腺细胞增殖综合征", "lemmaDesc": "卵泡腺细胞增殖综合征系指患者临床上出现女性男性化等一系列症状和体征，同时具有卵巢...", "lemmaUrl": "http://baike.baidu.com/item/%E5%8D%B5%E6%B3%A1%E8%85%BA%E7%BB%86%E8%83%9E%E5%A2%9E%E6%AE%96%E7%BB%BC%E5%90%88%E5%BE%81/342185", "lemmaPic": []}, {"lemmaId": 7254927, "lemmaTitle": "酒中毒性周围神经病", "lemmaCroppedTitle": "酒中毒性周围神经病", "lemmaDesc": "酒中毒性周围神经病为长期饮酒引起的一种最常见的并发症，多发生于长期酗酒每天达10...", "lemmaUrl": "http://baike.baidu.com/item/%E9%85%92%E4%B8%AD%E6%AF%92%E6%80%A7%E5%91%A8%E5%9B%B4%E7%A5%9E%E7%BB%8F%E7%97%85/7254927", "lemmaPic": []}, {"lemmaId": 10296517, "lemmaTitle": "蔗尘肺", "lemmaCroppedTitle": "蔗尘肺", "lemmaDesc": "蔗尘肺（bagassosis）是由于处理发霉甘蔗时反复吸入大量抗原性有机物，主要...", "lemmaUrl": "http://baike.baidu.com/item/%E8%94%97%E5%B0%98%E8%82%BA/10296517", "lemmaPic": []}, {"lemmaId": 12428584, "lemmaTitle": "胰腺分裂", "lemmaCroppedTitle": "胰腺分裂", "lemmaDesc": "胰腺分裂（PD）是一种胰腺在发育过程中主、副胰管完全未融合或以细的分支胰管的吻合...", "lemmaUrl": "http://baike.baidu.com/item/%E8%83%B0%E8%85%BA%E5%88%86%E8%A3%82/12428584", "lemmaPic": []}, {"lemmaId": 4619376, "lemmaTitle": "小儿短指-球状晶体异位综合征", "lemmaCroppedTitle": "小儿短指-球状晶体异位综合征", "lemmaDesc": "小儿短指-球状晶体异位综合征是一种少见的伴有全身发育异常的遗传性疾病，继发青光眼...", "lemmaUrl": "http://baike.baidu.com/item/%E5%B0%8F%E5%84%BF%E7%9F%AD%E6%8C%87-%E7%90%83%E7%8A%B6%E6%99%B6%E4%BD%93%E5%BC%82%E4%BD%8D%E7%BB%BC%E5%90%88%E5%BE%81/4619376", "lemmaPic": []}, {"lemmaId": 519823, "lemmaTitle": "夸赛纳森林病", "lemmaCroppedTitle": "夸赛纳森林病", "lemmaDesc": "贮存宿主主要有豪猪、松鼠及鼠类，其次是鸟类和蝙蝠，人是偶然性宿主。通过蜱叮咬其他...", "lemmaUrl": "http://baike.baidu.com/item/%E5%A4%B8%E8%B5%9B%E7%BA%B3%E6%A3%AE%E6%9E%97%E7%97%85/519823", "lemmaPic": []}, {"lemmaId": 7252657, "lemmaTitle": "骨质软化症与佝偻病", "lemmaCroppedTitle": "骨质软化症与佝偻病", "lemmaDesc": "骨质软化症与佝偻病是以新近形成的骨基质矿化障碍为特点的一种骨骼疾病。其结果导致非...", "lemmaUrl": "http://baike.baidu.com/item/%E9%AA%A8%E8%B4%A8%E8%BD%AF%E5%8C%96%E7%97%87%E4%B8%8E%E4%BD%9D%E5%81%BB%E7%97%85/7252657", "lemmaPic": []}, {"lemmaId": 4533179, "lemmaTitle": "异尖线吸虫蚴移行症", "lemmaCroppedTitle": "异尖线吸虫蚴移行症", "lemmaDesc": "异尖线吸虫蚴移行症乃人生食或半生的海鱼及软体动物如乌贼等感染期幼虫引起的内脏蠕虫...", "lemmaUrl": "http://baike.baidu.com/item/%E5%BC%82%E5%B0%96%E7%BA%BF%E5%90%B8%E8%99%AB%E8%9A%B4%E7%A7%BB%E8%A1%8C%E7%97%87/4533179", "lemmaPic": []}, {"lemmaId": 7618113, "lemmaTitle": "韦格纳肉芽肿性巩膜炎", "lemmaCroppedTitle": "韦格纳肉芽肿性巩膜炎", "lemmaDesc": "韦格纳肉芽肿（Wegener granulomatosis，WG）是一种病因不明...", "lemmaUrl": "http://baike.baidu.com/item/%E9%9F%A6%E6%A0%BC%E7%BA%B3%E8%82%89%E8%8A%BD%E8%82%BF%E6%80%A7%E5%B7%A9%E8%86%9C%E7%82%8E/7618113", "lemmaPic": []}, {"lemmaId": 5611372, "lemmaTitle": "结核性角膜病变", "lemmaCroppedTitle": "结核性角膜病变", "lemmaDesc": "结核病是一种慢性传染病，至今仍为重要的传染病之一。结核病主要引起肺部感染，眼睑、...", "lemmaUrl": "http://baike.baidu.com/item/%E7%BB%93%E6%A0%B8%E6%80%A7%E8%A7%92%E8%86%9C%E7%97%85%E5%8F%98/5611372", "lemmaPic": []}, {"lemmaId": 1389362, "lemmaTitle": "小儿色素失调症", "lemmaCroppedTitle": "小儿色素失调症", "lemmaDesc": "小儿色素失调症是一种少见的皮肤色素异常的复合性遗传综合征，有特征性皮肤改变，可伴...", "lemmaUrl": "http://baike.baidu.com/item/%E5%B0%8F%E5%84%BF%E8%89%B2%E7%B4%A0%E5%A4%B1%E8%B0%83%E7%97%87/1389362", "lemmaPic": []}, {"lemmaId": 2095370, "lemmaTitle": "尼兹诺夫综合征", "lemmaCroppedTitle": "尼兹诺夫综合征", "lemmaDesc": "尼兹诺夫综合征即胸腺无淋巴发育不良但不伴甲状旁腺机能不全，属常染色体隐性遗传病部...", "lemmaUrl": "http://baike.baidu.com/item/%E5%B0%BC%E5%85%B9%E8%AF%BA%E5%A4%AB%E7%BB%BC%E5%90%88%E5%BE%81/2095370", "lemmaPic": []}, {"lemmaId": 3047482, "lemmaTitle": "小儿紫斑湿疹综合征", "lemmaCroppedTitle": "小儿紫斑湿疹综合征", "lemmaDesc": "紫斑湿疹综合征又名湿疹-血小板减少-反复感染综合征，Wiskott-Aldric...", "lemmaUrl": "http://baike.baidu.com/item/%E5%B0%8F%E5%84%BF%E7%B4%AB%E6%96%91%E6%B9%BF%E7%96%B9%E7%BB%BC%E5%90%88%E5%BE%81/3047482", "lemmaPic": []}, {"lemmaId": 8887819, "lemmaTitle": "胃畸胎瘤", "lemmaCroppedTitle": "胃畸胎瘤", "lemmaDesc": "胃畸胎瘤是一种罕见的肿瘤，好发于出生3个月内的男婴，在儿童畸胎瘤中不足1%，绝大...", "lemmaUrl": "http://baike.baidu.com/item/%E8%83%83%E7%95%B8%E8%83%8E%E7%98%A4/8887819", "lemmaPic": []}, {"lemmaId": 12676957, "lemmaTitle": "脊膜膨出与脊膜脊髓膨出", "lemmaCroppedTitle": "脊膜膨出与脊膜脊髓膨出", "lemmaDesc": "脊髓脊膜膨出为胚胎发育28天以后产生的畸形，多发于脊柱背侧的中线部位，以腰骶段最...", "lemmaUrl": "http://baike.baidu.com/item/%E8%84%8A%E8%86%9C%E8%86%A8%E5%87%BA%E4%B8%8E%E8%84%8A%E8%86%9C%E8%84%8A%E9%AB%93%E8%86%A8%E5%87%BA/12676957", "lemmaPic": []}, {"lemmaId": 12676662, "lemmaTitle": "小儿类白血病反应", "lemmaCroppedTitle": "小儿类白血病反应", "lemmaDesc": "类白血病反应又称白血病样反应，是指机体受某种因素刺激后导致外周血白细胞计数显著增...", "lemmaUrl": "http://baike.baidu.com/item/%E5%B0%8F%E5%84%BF%E7%B1%BB%E7%99%BD%E8%A1%80%E7%97%85%E5%8F%8D%E5%BA%94/12676662", "lemmaPic": []}, {"lemmaId": 4801490, "lemmaTitle": "蝶骨嵴脑膜瘤眼部病变", "lemmaCroppedTitle": "蝶骨嵴脑膜瘤眼部病变", "lemmaDesc": "脑膜瘤是颅内常见的肿瘤，仅次于胶质瘤而占第2位，约占全部肿瘤的1/4。脑膜瘤主要...", "lemmaUrl": "http://baike.baidu.com/item/%E8%9D%B6%E9%AA%A8%E5%B5%B4%E8%84%91%E8%86%9C%E7%98%A4%E7%9C%BC%E9%83%A8%E7%97%85%E5%8F%98/4801490", "lemmaPic": []}, {"lemmaId": 6109982, "lemmaTitle": "奇孔古尼亚病毒性疾病", "lemmaCroppedTitle": "奇孔古尼亚病毒性疾病", "lemmaDesc": "奇孔古尼亚病毒性疾病是由奇孔古尼亚热病毒引起的，经蚊虫叮咬传播的急性感染性疾病。...", "lemmaUrl": "http://baike.baidu.com/item/%E5%A5%87%E5%AD%94%E5%8F%A4%E5%B0%BC%E4%BA%9A%E7%97%85%E6%AF%92%E6%80%A7%E7%96%BE%E7%97%85/6109982", "lemmaPic": []}, {"lemmaId": 2393818, "lemmaTitle": "围绝经期前后的外阴白色病变", "lemmaCroppedTitle": "围绝经期前后的外阴白色病变", "lemmaDesc": "围绝经期前后卵巢功能逐渐衰退到卵巢功能停止，产生雌激素功能逐渐丧失，外生殖器发生...", "lemmaUrl": "http://baike.baidu.com/item/%E5%9B%B4%E7%BB%9D%E7%BB%8F%E6%9C%9F%E5%89%8D%E5%90%8E%E7%9A%84%E5%A4%96%E9%98%B4%E7%99%BD%E8%89%B2%E7%97%85%E5%8F%98/2393818", "lemmaPic": []}, {"lemmaId": 6949337, "lemmaTitle": "获得性视网膜大动脉瘤", "lemmaCroppedTitle": "获得性视网膜大动脉瘤", "lemmaDesc": "获得性视网膜大动脉瘤为发生在视网膜动脉第3级分叉部的视网膜小动脉的局部扩张，呈梭...", "lemmaUrl": "http://baike.baidu.com/item/%E8%8E%B7%E5%BE%97%E6%80%A7%E8%A7%86%E7%BD%91%E8%86%9C%E5%A4%A7%E5%8A%A8%E8%84%89%E7%98%A4/6949337", "lemmaPic": []}, {"lemmaId": 18277547, "lemmaTitle": "阴囊福尼尔坏疽", "lemmaCroppedTitle": "阴囊福尼尔坏疽", "lemmaDesc": "阴囊福尼尔坏疽（Fournier sgangrene）也称为“坏死性筋膜炎”，指...", "lemmaUrl": "http://baike.baidu.com/item/%E9%98%B4%E5%9B%8A%E7%A6%8F%E5%B0%BC%E5%B0%94%E5%9D%8F%E7%96%BD/18277547", "lemmaPic": []}, {"lemmaId": 2973412, "lemmaTitle": "嗜酸性粒细胞增多-肌痛综合征", "lemmaCroppedTitle": "嗜酸性粒细胞增多-肌痛综合征", "lemmaDesc": "正常人嗜酸粒细胞为白细胞数的0%～7%，超过正常值称之为嗜酸粒细胞增多症。嗜酸粒...", "lemmaUrl": "http://baike.baidu.com/item/%E5%97%9C%E9%85%B8%E6%80%A7%E7%B2%92%E7%BB%86%E8%83%9E%E5%A2%9E%E5%A4%9A-%E8%82%8C%E7%97%9B%E7%BB%BC%E5%90%88%E5%BE%81/2973412", "lemmaPic": []}, {"lemmaId": 8408676, "lemmaTitle": "肺部钩虫病", "lemmaCroppedTitle": "肺部钩虫病", "lemmaDesc": "肺部钩虫病是一种寄生虫感染的疾病。由钩虫丝状蚴经皮肤或黏膜侵入人体。农田作业是感...", "lemmaUrl": "http://baike.baidu.com/item/%E8%82%BA%E9%83%A8%E9%92%A9%E8%99%AB%E7%97%85/8408676", "lemmaPic": []}, {"lemmaId": 8932822, "lemmaTitle": "全面性发作", "lemmaCroppedTitle": "全面性发作", "lemmaDesc": "全面性发作最初临床表现提示双侧半球受累，形式多样，可为抽搐性或非抽搐性，多伴意识...", "lemmaUrl": "http://baike.baidu.com/item/%E5%85%A8%E9%9D%A2%E6%80%A7%E5%8F%91%E4%BD%9C/8932822", "lemmaPic": []}, {"lemmaId": 12700735, "lemmaTitle": "特发性多发性斑状色素沉着症", "lemmaCroppedTitle": "特发性多发性斑状色素沉着症", "lemmaDesc": "特发性多发性斑状色素沉着症又称特发性后天性斑状色素沉着。原因不明，是一种好发于青...", "lemmaUrl": "http://baike.baidu.com/item/%E7%89%B9%E5%8F%91%E6%80%A7%E5%A4%9A%E5%8F%91%E6%80%A7%E6%96%91%E7%8A%B6%E8%89%B2%E7%B4%A0%E6%B2%89%E7%9D%80%E7%97%87/12700735", "lemmaPic": []}, {"lemmaId": 6425307, "lemmaTitle": "儿童吞气症", "lemmaCroppedTitle": "儿童吞气症", "lemmaDesc": "儿童吞气症是一种以频繁吞气、慢性腹胀、嗳气以及肛门排气增多为主要临床表现的相对少...", "lemmaUrl": "http://baike.baidu.com/item/%E5%84%BF%E7%AB%A5%E5%90%9E%E6%B0%94%E7%97%87/6425307", "lemmaPic": []}, {"lemmaId": 7733876, "lemmaTitle": "肘关节强直与纤维性僵硬", "lemmaCroppedTitle": "肘关节强直与纤维性僵硬", "lemmaDesc": "由于各种原因造成肘关节活动丧失并呈骨性融合状固定于某一特定位置者，称为肘关节强直...", "lemmaUrl": "http://baike.baidu.com/item/%E8%82%98%E5%85%B3%E8%8A%82%E5%BC%BA%E7%9B%B4%E4%B8%8E%E7%BA%A4%E7%BB%B4%E6%80%A7%E5%83%B5%E7%A1%AC/7733876", "lemmaPic": []}, {"lemmaId": 7254800, "lemmaTitle": "单克隆丙种球蛋白病伴周围神经病", "lemmaCroppedTitle": "单克隆丙种球蛋白病伴周围神经病", "lemmaDesc": "单克隆丙种球蛋白病合并周围神经病，也称之为副蛋白血症周围神经病。血液中出现过多的...", "lemmaUrl": "http://baike.baidu.com/item/%E5%8D%95%E5%85%8B%E9%9A%86%E4%B8%99%E7%A7%8D%E7%90%83%E8%9B%8B%E7%99%BD%E7%97%85%E4%BC%B4%E5%91%A8%E5%9B%B4%E7%A5%9E%E7%BB%8F%E7%97%85/7254800", "lemmaPic": []}, {"lemmaId": 4555212, "lemmaTitle": "后部多形性角膜营养不良", "lemmaCroppedTitle": "后部多形性角膜营养不良", "lemmaDesc": "后部多形性角膜营养不良（polymorphous posterior corne...", "lemmaUrl": "http://baike.baidu.com/item/%E5%90%8E%E9%83%A8%E5%A4%9A%E5%BD%A2%E6%80%A7%E8%A7%92%E8%86%9C%E8%90%A5%E5%85%BB%E4%B8%8D%E8%89%AF/4555212", "lemmaPic": []}, {"lemmaId": 10085594, "lemmaTitle": "高钙性肾病", "lemmaCroppedTitle": "高钙性肾病", "lemmaDesc": "高钙性肾病是指高钙血症（&amp;gt;2.75mmol/l）及/或高钙尿症（尿...", "lemmaUrl": "http://baike.baidu.com/item/%E9%AB%98%E9%92%99%E6%80%A7%E8%82%BE%E7%97%85/10085594", "lemmaPic": []}, {"lemmaId": 6589538, "lemmaTitle": "色素性静脉旁视网膜脉络膜萎缩", "lemmaCroppedTitle": "色素性静脉旁视网膜脉络膜萎缩", "lemmaDesc": "色素性静脉旁视网膜脉络膜萎缩是一种罕见的眼底疾病。现名称由Nobley于1983...", "lemmaUrl": "http://baike.baidu.com/item/%E8%89%B2%E7%B4%A0%E6%80%A7%E9%9D%99%E8%84%89%E6%97%81%E8%A7%86%E7%BD%91%E8%86%9C%E8%84%89%E7%BB%9C%E8%86%9C%E8%90%8E%E7%BC%A9/6589538", "lemmaPic": []}, {"lemmaId": 7253207, "lemmaTitle": "良性小动脉性肾硬化症", "lemmaCroppedTitle": "良性小动脉性肾硬化症", "lemmaDesc": "良性小动脉性肾硬化症是一种通常伴有慢性高血压的疾病，以累及血管，肾小球和小管间质...", "lemmaUrl": "http://baike.baidu.com/item/%E8%89%AF%E6%80%A7%E5%B0%8F%E5%8A%A8%E8%84%89%E6%80%A7%E8%82%BE%E7%A1%AC%E5%8C%96%E7%97%87/7253207", "lemmaPic": []}, {"lemmaId": 12676626, "lemmaTitle": "小儿真菌性肺炎", "lemmaCroppedTitle": "小儿真菌性肺炎", "lemmaDesc": "小儿真菌性肺炎是指由真菌引起的肺部感染，它占所有内脏真菌感染的首位，虽然比较少见...", "lemmaUrl": "http://baike.baidu.com/item/%E5%B0%8F%E5%84%BF%E7%9C%9F%E8%8F%8C%E6%80%A7%E8%82%BA%E7%82%8E/12676626", "lemmaPic": []}, {"lemmaId": 10475539, "lemmaTitle": "蛙粪霉病", "lemmaCroppedTitle": "蛙粪霉病", "lemmaDesc": "是由固孢蛙粪霉通过接触感染引起的一种虫霉病。蛙粪霉存在于土壤、腐败植物及两栖和爬...", "lemmaUrl": "http://baike.baidu.com/item/%E8%9B%99%E7%B2%AA%E9%9C%89%E7%97%85/10475539", "lemmaPic": []}, {"lemmaId": 4612983, "lemmaTitle": "小儿鞍上生殖细胞瘤", "lemmaCroppedTitle": "小儿鞍上生殖细胞瘤", "lemmaDesc": "鞍上生殖细胞瘤的组织学特点与松果体区生殖细胞瘤基本相同，但其临床特点又有独特之处...", "lemmaUrl": "http://baike.baidu.com/item/%E5%B0%8F%E5%84%BF%E9%9E%8D%E4%B8%8A%E7%94%9F%E6%AE%96%E7%BB%86%E8%83%9E%E7%98%A4/4612983", "lemmaPic": []}, {"lemmaId": 2238372, "lemmaTitle": "小儿细胞外胆固醇沉着综合征", "lemmaCroppedTitle": "小儿细胞外胆固醇沉着综合征", "lemmaDesc": "细胞外胆固醇沉着综合征即细胞外胆固醇沉着症，又称Urbach综合征。系手足背和四...", "lemmaUrl": "http://baike.baidu.com/item/%E5%B0%8F%E5%84%BF%E7%BB%86%E8%83%9E%E5%A4%96%E8%83%86%E5%9B%BA%E9%86%87%E6%B2%89%E7%9D%80%E7%BB%BC%E5%90%88%E5%BE%81/2238372", "lemmaPic": []}, {"lemmaId": 9530713, "lemmaTitle": "复发性皮肤坏死性嗜酸粒细胞血管炎", "lemmaCroppedTitle": "复发性皮肤坏死性嗜酸粒细胞血管炎", "lemmaDesc": "复发性皮肤坏死性嗜酸性粒细胞血管炎是以全身性红色丘疹、出血性丘疹、风团性斑块为特...", "lemmaUrl": "http://baike.baidu.com/item/%E5%A4%8D%E5%8F%91%E6%80%A7%E7%9A%AE%E8%82%A4%E5%9D%8F%E6%AD%BB%E6%80%A7%E5%97%9C%E9%85%B8%E7%B2%92%E7%BB%86%E8%83%9E%E8%A1%80%E7%AE%A1%E7%82%8E/9530713", "lemmaPic": []}, {"lemmaId": 10621632, "lemmaTitle": "小儿椎管内肿瘤", "lemmaCroppedTitle": "小儿椎管内肿瘤", "lemmaDesc": "椎管内肿瘤包括起源于椎管内不同组织，如脊髓、神经根、脊膜或椎骨的各种瘤样病变。小...", "lemmaUrl": "http://baike.baidu.com/item/%E5%B0%8F%E5%84%BF%E6%A4%8E%E7%AE%A1%E5%86%85%E8%82%BF%E7%98%A4/10621632", "lemmaPic": []}, {"lemmaId": 2982914, "lemmaTitle": "复发性坏死性黏膜周围炎", "lemmaCroppedTitle": "复发性坏死性黏膜周围炎", "lemmaDesc": "复发性坏死性黏膜周围炎是复发性口疮的最重型，以复发性、疼痛性溃疡为主，愈后留有明...", "lemmaUrl": "http://baike.baidu.com/item/%E5%A4%8D%E5%8F%91%E6%80%A7%E5%9D%8F%E6%AD%BB%E6%80%A7%E9%BB%8F%E8%86%9C%E5%91%A8%E5%9B%B4%E7%82%8E/2982914", "lemmaPic": []}, {"lemmaId": 12810956, "lemmaTitle": "儿童矮身材", "lemmaCroppedTitle": "儿童矮身材", "lemmaDesc": "儿童矮身材是指在相似生活环境下，同种族、同性别和年龄的个体身高低于正常人群平均身...", "lemmaUrl": "http://baike.baidu.com/item/%E5%84%BF%E7%AB%A5%E7%9F%AE%E8%BA%AB%E6%9D%90/12810956", "lemmaPic": []}, {"lemmaId": 4716831, "lemmaTitle": "继发性皮肤滤泡中心细胞性淋巴瘤", "lemmaCroppedTitle": "继发性皮肤滤泡中心细胞性淋巴瘤", "lemmaDesc": "继发性皮肤滤泡中心细胞性淋巴瘤（FCCL）最常发生于淋巴结，也可发生于结外，如脾...", "lemmaUrl": "http://baike.baidu.com/item/%E7%BB%A7%E5%8F%91%E6%80%A7%E7%9A%AE%E8%82%A4%E6%BB%A4%E6%B3%A1%E4%B8%AD%E5%BF%83%E7%BB%86%E8%83%9E%E6%80%A7%E6%B7%8B%E5%B7%B4%E7%98%A4/4716831", "lemmaPic": []}, {"lemmaId": 5395329, "lemmaTitle": "椎管内结核瘤", "lemmaCroppedTitle": "椎管内结核瘤", "lemmaDesc": "椎管内结核瘤系位于椎管内、硬脊膜外或硬脊膜内侵犯脊髓的结核性肉芽肿，不包括临床常...", "lemmaUrl": "http://baike.baidu.com/item/%E6%A4%8E%E7%AE%A1%E5%86%85%E7%BB%93%E6%A0%B8%E7%98%A4/5395329", "lemmaPic": []}, {"lemmaId": 4672122, "lemmaTitle": "夏伊-德雷格综合征", "lemmaCroppedTitle": "夏伊-德雷格综合征", "lemmaDesc": "夏伊-德雷格综合征(SDS)又称进行性自主神经功能衰竭、特发性直立性低血压、神经...", "lemmaUrl": "http://baike.baidu.com/item/%E5%A4%8F%E4%BC%8A-%E5%BE%B7%E9%9B%B7%E6%A0%BC%E7%BB%BC%E5%90%88%E5%BE%81/4672122", "lemmaPic": []}, {"lemmaId": 3635329, "lemmaTitle": "着色杆菌病", "lemmaCroppedTitle": "着色杆菌病", "lemmaDesc": "着色杆菌病(chromobacteria)是由一类不产芽孢的革兰阴性小杆菌着色杆...", "lemmaUrl": "http://baike.baidu.com/item/%E7%9D%80%E8%89%B2%E6%9D%86%E8%8F%8C%E7%97%85/3635329", "lemmaPic": []}, {"lemmaId": 4266110, "lemmaTitle": "炎性肠病性关节炎相关巩膜炎", "lemmaCroppedTitle": "炎性肠病性关节炎相关巩膜炎", "lemmaDesc": "炎性肠病性关节炎相关巩膜炎是Crohn病（CD）和溃疡性结肠病（UC）的统称，是...", "lemmaUrl": "http://baike.baidu.com/item/%E7%82%8E%E6%80%A7%E8%82%A0%E7%97%85%E6%80%A7%E5%85%B3%E8%8A%82%E7%82%8E%E7%9B%B8%E5%85%B3%E5%B7%A9%E8%86%9C%E7%82%8E/4266110", "lemmaPic": []}, {"lemmaId": 12810957, "lemmaTitle": "小儿人类疱疹病毒", "lemmaCroppedTitle": "小儿人类疱疹病毒", "lemmaDesc": "人类疱疹病毒（human herpes virus，HHV）6、7、8型是近十年...", "lemmaUrl": "http://baike.baidu.com/item/%E5%B0%8F%E5%84%BF%E4%BA%BA%E7%B1%BB%E7%96%B1%E7%96%B9%E7%97%85%E6%AF%92/12810957", "lemmaPic": []}, {"lemmaId": 12630032, "lemmaTitle": "脊椎骨质增生症", "lemmaCroppedTitle": "脊椎骨质增生症", "lemmaDesc": "脊椎骨质增生症作为一个病症是不确切的。骨质增生俗称长骨刺，骨赘，是随年龄增长骨骼...", "lemmaUrl": "http://baike.baidu.com/item/%E8%84%8A%E6%A4%8E%E9%AA%A8%E8%B4%A8%E5%A2%9E%E7%94%9F%E7%97%87/12630032", "lemmaPic": []}, {"lemmaId": 2842550, "lemmaTitle": "肺宫崎肺吸虫症", "lemmaCroppedTitle": "肺宫崎肺吸虫症", "lemmaDesc": "肺宫崎肺吸虫症是宫崎肺吸虫引起的肺部疾病。人因生吃、腌吃、醉吃含肺吸虫棘蚴的河虾...", "lemmaUrl": "http://baike.baidu.com/item/%E8%82%BA%E5%AE%AB%E5%B4%8E%E8%82%BA%E5%90%B8%E8%99%AB%E7%97%87/2842550", "lemmaPic": []}, {"lemmaId": 7155075, "lemmaTitle": "幼年型慢性关节炎及其伴发的葡萄膜炎", "lemmaCroppedTitle": "幼年型慢性关节炎及其伴发的葡萄膜炎", "lemmaDesc": "幼年型慢性关节炎（JCA）是发生于16岁以下常见的特发性关节炎，通常累及膝、踝、...", "lemmaUrl": "http://baike.baidu.com/item/%E5%B9%BC%E5%B9%B4%E5%9E%8B%E6%85%A2%E6%80%A7%E5%85%B3%E8%8A%82%E7%82%8E%E5%8F%8A%E5%85%B6%E4%BC%B4%E5%8F%91%E7%9A%84%E8%91%A1%E8%90%84%E8%86%9C%E7%82%8E/7155075", "lemmaPic": []}, {"lemmaId": 16970543, "lemmaTitle": "颈部动脉狭窄", "lemmaCroppedTitle": "颈部动脉狭窄", "lemmaDesc": "颈动脉狭窄，是作为血液由心脏通向脑和头其他部位的主要血管的颈动脉，出现狭窄的症状...", "lemmaUrl": "http://baike.baidu.com/item/%E9%A2%88%E9%83%A8%E5%8A%A8%E8%84%89%E7%8B%AD%E7%AA%84/16970543", "lemmaPic": []}, {"lemmaId": 7533998, "lemmaTitle": "Ⅱ型免疫母细胞性淋巴腺病", "lemmaCroppedTitle": "Ⅱ型免疫母细胞性淋巴腺病", "lemmaDesc": "该病临床特征与Ⅰ型免疫母细胞性淋巴腺病基本相似，但预后不良，可以看作是淋巴系肿瘤...", "lemmaUrl": "http://baike.baidu.com/item/%E2%85%A1%E5%9E%8B%E5%85%8D%E7%96%AB%E6%AF%8D%E7%BB%86%E8%83%9E%E6%80%A7%E6%B7%8B%E5%B7%B4%E8%85%BA%E7%97%85/7533998", "lemmaPic": []}, {"lemmaId": 3130517, "lemmaTitle": "棘阿米巴性巩膜炎", "lemmaCroppedTitle": "棘阿米巴性巩膜炎", "lemmaDesc": "棘阿米巴性巩膜炎是由棘阿米巴原虫引起的一种巩膜炎。严重威胁视力，病程长，为慢性进...", "lemmaUrl": "http://baike.baidu.com/item/%E6%A3%98%E9%98%BF%E7%B1%B3%E5%B7%B4%E6%80%A7%E5%B7%A9%E8%86%9C%E7%82%8E/3130517", "lemmaPic": []}, {"lemmaId": 7254473, "lemmaTitle": "先天性拇内翻", "lemmaCroppedTitle": "先天性拇内翻", "lemmaDesc": "先天性拇内翻与，外翻相反，表现为，趾在跖趾关节处向内侧倾斜成角，导致，趾与第2趾...", "lemmaUrl": "http://baike.baidu.com/item/%E5%85%88%E5%A4%A9%E6%80%A7%E6%8B%87%E5%86%85%E7%BF%BB/7254473", "lemmaPic": []}, {"lemmaId": 7425985, "lemmaTitle": "新生儿胃穿孔", "lemmaCroppedTitle": "新生儿胃穿孔", "lemmaDesc": "新生儿胃穿孔为小儿外科罕见的急腹症，据国内文献报道，占新生儿外科急诊的2%～3%...", "lemmaUrl": "http://baike.baidu.com/item/%E6%96%B0%E7%94%9F%E5%84%BF%E8%83%83%E7%A9%BF%E5%AD%94/7425985", "lemmaPic": []}, {"lemmaId": 10669821, "lemmaTitle": "胸壁软组织畸形", "lemmaCroppedTitle": "胸壁软组织畸形", "lemmaDesc": "胸壁软组织畸形是指乳房、胸大肌、胸小肌发育不全和缺如。可分为先天性和后天性两类。...", "lemmaUrl": "http://baike.baidu.com/item/%E8%83%B8%E5%A3%81%E8%BD%AF%E7%BB%84%E7%BB%87%E7%95%B8%E5%BD%A2/10669821", "lemmaPic": []}, {"lemmaId": 7253562, "lemmaTitle": "GM1神经节苷脂贮积症", "lemmaCroppedTitle": "GM1神经节苷脂贮积症", "lemmaDesc": "GM1神经节苷脂贮积症又称全身性神经节苷脂贮积症，是由β-半乳糖苷酶缺乏而引起的...", "lemmaUrl": "http://baike.baidu.com/item/GM1%E7%A5%9E%E7%BB%8F%E8%8A%82%E8%8B%B7%E8%84%82%E8%B4%AE%E7%A7%AF%E7%97%87/7253562", "lemmaPic": []}, {"lemmaId": 7254708, "lemmaTitle": "腰部峡部崩裂和脊椎滑脱", "lemmaCroppedTitle": "腰部峡部崩裂和脊椎滑脱", "lemmaDesc": "过去将脊椎崩裂的原因统归至先天性与外伤性两类；但实际上，真正最为多见的乃是由于退...", "lemmaUrl": "http://baike.baidu.com/item/%E8%85%B0%E9%83%A8%E5%B3%A1%E9%83%A8%E5%B4%A9%E8%A3%82%E5%92%8C%E8%84%8A%E6%A4%8E%E6%BB%91%E8%84%B1/7254708", "lemmaPic": []}, {"lemmaId": 8109395, "lemmaTitle": "Wegner肉芽肿伴发的葡萄膜炎", "lemmaCroppedTitle": "Wegner肉芽肿伴发的葡萄膜炎", "lemmaDesc": "Wegener肉芽肿是一种特发性全身性坏死性血管炎，主要累及上呼吸道，常伴有肾脏...", "lemmaUrl": "http://baike.baidu.com/item/Wegner%E8%82%89%E8%8A%BD%E8%82%BF%E4%BC%B4%E5%8F%91%E7%9A%84%E8%91%A1%E8%90%84%E8%86%9C%E7%82%8E/8109395", "lemmaPic": []}, {"lemmaId": 4542880, "lemmaTitle": "弓形体病性巩膜炎", "lemmaCroppedTitle": "弓形体病性巩膜炎", "lemmaDesc": "弓形体病又称为弓形虫病，是一种分布极广泛的啮齿类动物传染病，是由刚地弓形虫所引起...", "lemmaUrl": "http://baike.baidu.com/item/%E5%BC%93%E5%BD%A2%E4%BD%93%E7%97%85%E6%80%A7%E5%B7%A9%E8%86%9C%E7%82%8E/4542880", "lemmaPic": []}, {"lemmaId": 9345259, "lemmaTitle": "多发性内分泌腺瘤综合征1型", "lemmaCroppedTitle": "多发性内分泌腺瘤综合征1型", "lemmaDesc": "该综合征以甲状旁腺，胰岛细胞和垂体肿瘤组成为特征，已发现导致MEN-1基因在11...", "lemmaUrl": "http://baike.baidu.com/item/%E5%A4%9A%E5%8F%91%E6%80%A7%E5%86%85%E5%88%86%E6%B3%8C%E8%85%BA%E7%98%A4%E7%BB%BC%E5%90%88%E5%BE%811%E5%9E%8B/9345259", "lemmaPic": []}, {"lemmaId": 10684519, "lemmaTitle": "急性特发性心包炎", "lemmaCroppedTitle": "急性特发性心包炎", "lemmaDesc": "急性特发性心包炎近年有渐增的趋势。病因尚不十分清楚，可能是病毒直接侵入感染或感染...", "lemmaUrl": "http://baike.baidu.com/item/%E6%80%A5%E6%80%A7%E7%89%B9%E5%8F%91%E6%80%A7%E5%BF%83%E5%8C%85%E7%82%8E/10684519", "lemmaPic": []}, {"lemmaId": 2982120, "lemmaTitle": "顿呛", "lemmaCroppedTitle": "顿呛", "lemmaDesc": "顿呛又名时行顿呛、时气嗽、时行嗽、天哮呛、顿咳，是小儿常见的呼吸道传染病之一。起...", "lemmaUrl": "http://baike.baidu.com/item/%E9%A1%BF%E5%91%9B/2982120", "lemmaPic": []}, {"lemmaId": 6950221, "lemmaTitle": "晶状体膨胀所致青光眼", "lemmaCroppedTitle": "晶状体膨胀所致青光眼", "lemmaDesc": "晶状体膨胀所致青光眼即肿胀期白内障所致青光眼，是指老年性白内障的膨胀期或晶状体外...", "lemmaUrl": "http://baike.baidu.com/item/%E6%99%B6%E7%8A%B6%E4%BD%93%E8%86%A8%E8%83%80%E6%89%80%E8%87%B4%E9%9D%92%E5%85%89%E7%9C%BC/6950221", "lemmaPic": []}, {"lemmaId": 7045587, "lemmaTitle": "视网膜下纤维化和葡萄膜炎综合征", "lemmaCroppedTitle": "视网膜下纤维化和葡萄膜炎综合征", "lemmaDesc": "视网膜下纤维化和葡萄膜炎综合征是一种相对少见的临床类型，其特征是出现慢性葡萄膜炎...", "lemmaUrl": "http://baike.baidu.com/item/%E8%A7%86%E7%BD%91%E8%86%9C%E4%B8%8B%E7%BA%A4%E7%BB%B4%E5%8C%96%E5%92%8C%E8%91%A1%E8%90%84%E8%86%9C%E7%82%8E%E7%BB%BC%E5%90%88%E5%BE%81/7045587", "lemmaPic": []}, {"lemmaId": 10256800, "lemmaTitle": "CS丧尸帝国", "lemmaCroppedTitle": "CS丧尸帝国", "lemmaDesc": "《CS丧尸帝国》（英文：Counter-Strike；简称CS）是一种以团队合作...", "lemmaUrl": "http://baike.baidu.com/item/CS%E4%B8%A7%E5%B0%B8%E5%B8%9D%E5%9B%BD/10256800", "lemmaPic": []}, {"lemmaId": 3452645, "lemmaTitle": "洛博芽生菌病", "lemmaCroppedTitle": "洛博芽生菌病", "lemmaDesc": "洛博芽生菌病又称为瘢痕疙瘩样芽生菌病，是由一种罗伯菌引起的一种慢性皮肤肉芽肿。", "lemmaUrl": "http://baike.baidu.com/item/%E6%B4%9B%E5%8D%9A%E8%8A%BD%E7%94%9F%E8%8F%8C%E7%97%85/3452645", "lemmaPic": []}, {"lemmaId": 4712365, "lemmaTitle": "肺泡-毛细血管阻滞综合征", "lemmaCroppedTitle": "肺泡-毛细血管阻滞综合征", "lemmaDesc": "肺泡-毛细血管阻滞综合征是构成气体扩散面的肺泡-毛细血管的间壁发生了病变，使氧弥...", "lemmaUrl": "http://baike.baidu.com/item/%E8%82%BA%E6%B3%A1-%E6%AF%9B%E7%BB%86%E8%A1%80%E7%AE%A1%E9%98%BB%E6%BB%9E%E7%BB%BC%E5%90%88%E5%BE%81/4712365", "lemmaPic": []}, {"lemmaId": 4651781, "lemmaTitle": "小儿嘌呤核苷酸磷酸化酶缺乏", "lemmaCroppedTitle": "小儿嘌呤核苷酸磷酸化酶缺乏", "lemmaDesc": "小儿嘌呤核苷磷酸化酶缺乏病为常染色体隐性遗传疾病。嘌呤核苷磷酸化酶（PNP）缺乏...", "lemmaUrl": "http://baike.baidu.com/item/%E5%B0%8F%E5%84%BF%E5%98%8C%E5%91%A4%E6%A0%B8%E8%8B%B7%E9%85%B8%E7%A3%B7%E9%85%B8%E5%8C%96%E9%85%B6%E7%BC%BA%E4%B9%8F/4651781", "lemmaPic": []}, {"lemmaId": 7253593, "lemmaTitle": "维生素D缺乏神经病", "lemmaCroppedTitle": "维生素D缺乏神经病", "lemmaDesc": "维生素D缺乏神经病是婴幼儿期常见的营养缺乏性疾病引起的神经系统损害，在婴儿和儿童...", "lemmaUrl": "http://baike.baidu.com/item/%E7%BB%B4%E7%94%9F%E7%B4%A0D%E7%BC%BA%E4%B9%8F%E7%A5%9E%E7%BB%8F%E7%97%85/7253593", "lemmaPic": []}, {"lemmaId": 12676709, "lemmaTitle": "小儿单纯性甲状腺肿", "lemmaCroppedTitle": "小儿单纯性甲状腺肿", "lemmaDesc": "小儿单纯性甲状腺肿是指儿童时期由于非炎症或肿瘤所导致的甲状腺代偿性肿大，呈弥漫性...", "lemmaUrl": "http://baike.baidu.com/item/%E5%B0%8F%E5%84%BF%E5%8D%95%E7%BA%AF%E6%80%A7%E7%94%B2%E7%8A%B6%E8%85%BA%E8%82%BF/12676709", "lemmaPic": []}, {"lemmaId": 3377061, "lemmaTitle": "苏格兰脑炎", "lemmaCroppedTitle": "苏格兰脑炎", "lemmaDesc": "苏格兰脑炎是由苏格兰脑炎病毒引起的，经蜱叮咬传播的人畜共患中枢神经系统感染的自然...", "lemmaUrl": "http://baike.baidu.com/item/%E8%8B%8F%E6%A0%BC%E5%85%B0%E8%84%91%E7%82%8E/3377061", "lemmaPic": []}, {"lemmaId": 10490419, "lemmaTitle": "新生儿呕血和便血", "lemmaCroppedTitle": "新生儿呕血和便血", "lemmaDesc": "呕血和便血统称消化道出血，是新生儿消化道出血常见的重要症状，也是新生儿危重病症的...", "lemmaUrl": "http://baike.baidu.com/item/%E6%96%B0%E7%94%9F%E5%84%BF%E5%91%95%E8%A1%80%E5%92%8C%E4%BE%BF%E8%A1%80/10490419", "lemmaPic": []}, {"lemmaId": 7254068, "lemmaTitle": "喙突胸小肌综合征", "lemmaCroppedTitle": "喙突胸小肌综合征", "lemmaDesc": "喙突与胸小肌的后方通过到上肢的神经血管束受压，而出现手与手指胀满感，前臂与手指有...", "lemmaUrl": "http://baike.baidu.com/item/%E5%96%99%E7%AA%81%E8%83%B8%E5%B0%8F%E8%82%8C%E7%BB%BC%E5%90%88%E5%BE%81/7254068", "lemmaPic": []}, {"lemmaId": 9461619, "lemmaTitle": "勒夫勒心内膜炎", "lemmaCroppedTitle": "勒夫勒心内膜炎", "lemmaDesc": "勒夫勒心内膜炎又称为嗜酸性粒细胞增多性心内膜炎或嗜酸性粒细胞性心内膜病等。患者多...", "lemmaUrl": "http://baike.baidu.com/item/%E5%8B%92%E5%A4%AB%E5%8B%92%E5%BF%83%E5%86%85%E8%86%9C%E7%82%8E/9461619", "lemmaPic": []}, {"lemmaId": 12676676, "lemmaTitle": "小儿后尿道瓣膜", "lemmaCroppedTitle": "小儿后尿道瓣膜", "lemmaDesc": "小儿后尿道瓣膜是男性儿童先天性下尿路梗阻中最常见的疾病，常致肾积水而被发现。随着...", "lemmaUrl": "http://baike.baidu.com/item/%E5%B0%8F%E5%84%BF%E5%90%8E%E5%B0%BF%E9%81%93%E7%93%A3%E8%86%9C/12676676", "lemmaPic": []}, {"lemmaId": 12676719, "lemmaTitle": "网状青斑和青斑性血管炎", "lemmaCroppedTitle": "网状青斑和青斑性血管炎", "lemmaDesc": "网状青斑和青斑性血管炎是由多种因素引起皮肤呈青紫色的网状变化的血管性疾病，受冷后...", "lemmaUrl": "http://baike.baidu.com/item/%E7%BD%91%E7%8A%B6%E9%9D%92%E6%96%91%E5%92%8C%E9%9D%92%E6%96%91%E6%80%A7%E8%A1%80%E7%AE%A1%E7%82%8E/12676719", "lemmaPic": []}, {"lemmaId": 5921640, "lemmaTitle": "短腰畸形", "lemmaCroppedTitle": "短腰畸形", "lemmaDesc": "先天性短腰畸形较之先天性短颈畸形明显为少见，且其中部分病例伴有短颈畸形。", "lemmaUrl": "http://baike.baidu.com/item/%E7%9F%AD%E8%85%B0%E7%95%B8%E5%BD%A2/5921640", "lemmaPic": []}, {"lemmaId": 10085679, "lemmaTitle": "发育性髋内翻", "lemmaCroppedTitle": "发育性髋内翻", "lemmaDesc": "发育性髋内翻是股骨颈软骨发育缺陷致股骨颈干角变小的一种发育性异常，并由此致患侧下...", "lemmaUrl": "http://baike.baidu.com/item/%E5%8F%91%E8%82%B2%E6%80%A7%E9%AB%8B%E5%86%85%E7%BF%BB/10085679", "lemmaPic": []}, {"lemmaId": 12428884, "lemmaTitle": "小儿选择性免疫球蛋白A缺乏症", "lemmaCroppedTitle": "小儿选择性免疫球蛋白A缺乏症", "lemmaDesc": "小儿选择性免疫球蛋白A（IgA）缺乏症（SIgAD）是最常见的原发性免疫缺陷病，...", "lemmaUrl": "http://baike.baidu.com/item/%E5%B0%8F%E5%84%BF%E9%80%89%E6%8B%A9%E6%80%A7%E5%85%8D%E7%96%AB%E7%90%83%E8%9B%8B%E7%99%BDA%E7%BC%BA%E4%B9%8F%E7%97%87/12428884", "lemmaPic": []}, {"lemmaId": 5275238, "lemmaTitle": "梅勒尼坏疽", "lemmaCroppedTitle": "梅勒尼坏疽", "lemmaDesc": "梅勒尼坏疽又称细菌性协同性坏疽，是指一种皮下组织感染，也可侵犯皮肤筋膜。本病由M...", "lemmaUrl": "http://baike.baidu.com/item/%E6%A2%85%E5%8B%92%E5%B0%BC%E5%9D%8F%E7%96%BD/5275238", "lemmaPic": []}, {"lemmaId": 18277565, "lemmaTitle": "孤立性肺结节", "lemmaCroppedTitle": "孤立性肺结节", "lemmaDesc": "孤立性肺结节是指单一的、边界清楚的、影像不透明的、直径小于或等于30mm、周围为...", "lemmaUrl": "http://baike.baidu.com/item/%E5%AD%A4%E7%AB%8B%E6%80%A7%E8%82%BA%E7%BB%93%E8%8A%82/18277565", "lemmaPic": []}], "total": 7246, "totalPage": 73, "page": 63, "fromLemma": 0}