{"lemmaList": [{"lemmaId": 400407, "lemmaTitle": "枢椎椎弓骨折", "lemmaCroppedTitle": "枢椎椎弓骨折", "lemmaDesc": "枢椎椎弓骨折系指发生于第2颈椎椎弓峡部的骨折，既往多见于被施绞刑者，故又称绞刑架...", "lemmaUrl": "http://baike.baidu.com/item/%E6%9E%A2%E6%A4%8E%E6%A4%8E%E5%BC%93%E9%AA%A8%E6%8A%98/400407", "lemmaPic": []}, {"lemmaId": 9494071, "lemmaTitle": "咽畸胎瘤", "lemmaCroppedTitle": "咽畸胎瘤", "lemmaDesc": "畸胎瘤发源于多胚层组织的先天性肿瘤，多见于25岁以下妇女、儿童和青少年，分为成熟...", "lemmaUrl": "http://baike.baidu.com/item/%E5%92%BD%E7%95%B8%E8%83%8E%E7%98%A4/9494071", "lemmaPic": []}, {"lemmaId": 1967373, "lemmaTitle": "心脏转移性恶性黑色素瘤", "lemmaCroppedTitle": "心脏转移性恶性黑色素瘤", "lemmaDesc": "心脏转移性恶性黑色素瘤（cardiac metastatic malignant...", "lemmaUrl": "http://baike.baidu.com/item/%E5%BF%83%E8%84%8F%E8%BD%AC%E7%A7%BB%E6%80%A7%E6%81%B6%E6%80%A7%E9%BB%91%E8%89%B2%E7%B4%A0%E7%98%A4/1967373", "lemmaPic": []}, {"lemmaId": 7139975, "lemmaTitle": "炎症肠病性关节炎", "lemmaCroppedTitle": "炎症肠病性关节炎", "lemmaDesc": "炎症肠病性关节炎是指溃疡性结肠炎和克罗恩病引起关节炎的统称。主要表现为外周关节炎...", "lemmaUrl": "http://baike.baidu.com/item/%E7%82%8E%E7%97%87%E8%82%A0%E7%97%85%E6%80%A7%E5%85%B3%E8%8A%82%E7%82%8E/7139975", "lemmaPic": []}, {"lemmaId": 9234183, "lemmaTitle": "小儿先天性白细胞颗粒异常综合征", "lemmaCroppedTitle": "小儿先天性白细胞颗粒异常综合征", "lemmaDesc": "小儿先天性白细胞颗粒异常综合征又称契-东综合征，是Chediak、Higashi...", "lemmaUrl": "http://baike.baidu.com/item/%E5%B0%8F%E5%84%BF%E5%85%88%E5%A4%A9%E6%80%A7%E7%99%BD%E7%BB%86%E8%83%9E%E9%A2%97%E7%B2%92%E5%BC%82%E5%B8%B8%E7%BB%BC%E5%90%88%E5%BE%81/9234183", "lemmaPic": []}, {"lemmaId": 8532637, "lemmaTitle": "鼻窦气压性创伤", "lemmaCroppedTitle": "鼻窦气压性创伤", "lemmaDesc": "本症是由于外界大气压急剧变化时，鼻窦内的负压和外界气压不能及时取得平衡所引起的鼻...", "lemmaUrl": "http://baike.baidu.com/item/%E9%BC%BB%E7%AA%A6%E6%B0%94%E5%8E%8B%E6%80%A7%E5%88%9B%E4%BC%A4/8532637", "lemmaPic": []}, {"lemmaId": 7773116, "lemmaTitle": "急性共同性斜视", "lemmaCroppedTitle": "急性共同性斜视", "lemmaDesc": "急性共同性斜视为发病较突然的双眼视轴不平行，眼位偏斜，伴有复视，斜视角在各方向都...", "lemmaUrl": "http://baike.baidu.com/item/%E6%80%A5%E6%80%A7%E5%85%B1%E5%90%8C%E6%80%A7%E6%96%9C%E8%A7%86/7773116", "lemmaPic": []}, {"lemmaId": 3820616, "lemmaTitle": "室性并行心律及室性并行心律性心动过速", "lemmaCroppedTitle": "室性并行心律及室性并行心律性心动过速", "lemmaDesc": "室性并行心律是指在主导心律（通常是窦性心律）之外，心室同时存在一个或多个自律性增...", "lemmaUrl": "http://baike.baidu.com/item/%E5%AE%A4%E6%80%A7%E5%B9%B6%E8%A1%8C%E5%BF%83%E5%BE%8B%E5%8F%8A%E5%AE%A4%E6%80%A7%E5%B9%B6%E8%A1%8C%E5%BF%83%E5%BE%8B%E6%80%A7%E5%BF%83%E5%8A%A8%E8%BF%87%E9%80%9F/3820616", "lemmaPic": []}, {"lemmaId": 8229947, "lemmaTitle": "皮肤卟啉病", "lemmaCroppedTitle": "皮肤卟啉病", "lemmaDesc": "皮肤卟啉病，又名紫血症，是血红素生物合成中间产物积聚引起的一组以光敏性皮肤损害为...", "lemmaUrl": "http://baike.baidu.com/item/%E7%9A%AE%E8%82%A4%E5%8D%9F%E5%95%89%E7%97%85/8229947", "lemmaPic": []}, {"lemmaId": 4444952, "lemmaTitle": "掌跖纤维瘤病", "lemmaCroppedTitle": "掌跖纤维瘤病", "lemmaDesc": "掌跖纤维瘤病包括掌部纤维瘤病和跖部纤维瘤病。二者在组织病理、浸润方式和切除后倾向...", "lemmaUrl": "http://baike.baidu.com/item/%E6%8E%8C%E8%B7%96%E7%BA%A4%E7%BB%B4%E7%98%A4%E7%97%85/4444952", "lemmaPic": []}, {"lemmaId": 4197594, "lemmaTitle": "渗出性盘状苔藓样皮炎", "lemmaCroppedTitle": "渗出性盘状苔藓样皮炎", "lemmaDesc": "渗出性盘状苔藓样皮炎又称Oid-Oid病，因Sulzderger和Garde于1...", "lemmaUrl": "http://baike.baidu.com/item/%E6%B8%97%E5%87%BA%E6%80%A7%E7%9B%98%E7%8A%B6%E8%8B%94%E8%97%93%E6%A0%B7%E7%9A%AE%E7%82%8E/4197594", "lemmaPic": []}, {"lemmaId": 12428957, "lemmaTitle": "月骨脱位及月骨周围脱位", "lemmaCroppedTitle": "月骨脱位及月骨周围脱位", "lemmaDesc": "月骨脱位是指月骨本身脱离与桡骨和其他腕骨的正常毗邻关系而移位；而月骨周围脱位则是...", "lemmaUrl": "http://baike.baidu.com/item/%E6%9C%88%E9%AA%A8%E8%84%B1%E4%BD%8D%E5%8F%8A%E6%9C%88%E9%AA%A8%E5%91%A8%E5%9B%B4%E8%84%B1%E4%BD%8D/12428957", "lemmaPic": []}, {"lemmaId": 10455790, "lemmaTitle": "咽血管畸形", "lemmaCroppedTitle": "咽血管畸形", "lemmaDesc": "先天性咽血管畸形是胚胎发育异常所致。在正常发育情况下，原始颈内动脉的两个组成部分...", "lemmaUrl": "http://baike.baidu.com/item/%E5%92%BD%E8%A1%80%E7%AE%A1%E7%95%B8%E5%BD%A2/10455790", "lemmaPic": []}, {"lemmaId": 2645115, "lemmaTitle": "霜样树枝状视网膜血管炎", "lemmaCroppedTitle": "霜样树枝状视网膜血管炎", "lemmaDesc": "霜样树枝状视网膜血管炎是一种常发生于双眼的视网膜血管周围炎，主要累及静脉，动脉少...", "lemmaUrl": "http://baike.baidu.com/item/%E9%9C%9C%E6%A0%B7%E6%A0%91%E6%9E%9D%E7%8A%B6%E8%A7%86%E7%BD%91%E8%86%9C%E8%A1%80%E7%AE%A1%E7%82%8E/2645115", "lemmaPic": []}, {"lemmaId": 12428383, "lemmaTitle": "结直肠家族性息肉病", "lemmaCroppedTitle": "结直肠家族性息肉病", "lemmaDesc": "家族性息肉病又称家族性腺瘤性息肉病（FAP），是一种少见的常染色体显性遗传疾病。...", "lemmaUrl": "http://baike.baidu.com/item/%E7%BB%93%E7%9B%B4%E8%82%A0%E5%AE%B6%E6%97%8F%E6%80%A7%E6%81%AF%E8%82%89%E7%97%85/12428383", "lemmaPic": []}, {"lemmaId": 10295886, "lemmaTitle": "吩噻嗪类抗精神病药物中毒", "lemmaCroppedTitle": "吩噻嗪类抗精神病药物中毒", "lemmaDesc": "抗精神病药即强镇静药，主要用于治疗急慢性精神病，吩噻嗪类包括氯丙嗪（冬眠灵，可乐...", "lemmaUrl": "http://baike.baidu.com/item/%E5%90%A9%E5%99%BB%E5%97%AA%E7%B1%BB%E6%8A%97%E7%B2%BE%E7%A5%9E%E7%97%85%E8%8D%AF%E7%89%A9%E4%B8%AD%E6%AF%92/10295886", "lemmaPic": []}, {"lemmaId": 11014574, "lemmaTitle": "外伤性乳糜胸", "lemmaCroppedTitle": "外伤性乳糜胸", "lemmaDesc": "胸膜腔内积贮来自胸导管渗漏的乳糜液或淋巴液即谓乳糜胸。外伤性乳糜胸是指由于创伤、...", "lemmaUrl": "http://baike.baidu.com/item/%E5%A4%96%E4%BC%A4%E6%80%A7%E4%B9%B3%E7%B3%9C%E8%83%B8/11014574", "lemmaPic": []}, {"lemmaId": 11023545, "lemmaTitle": "胰胆管合流异常综合征", "lemmaCroppedTitle": "胰胆管合流异常综合征", "lemmaDesc": "胰胆管合流异常综合征也称先天性胆总管囊肿。", "lemmaUrl": "http://baike.baidu.com/item/%E8%83%B0%E8%83%86%E7%AE%A1%E5%90%88%E6%B5%81%E5%BC%82%E5%B8%B8%E7%BB%BC%E5%90%88%E5%BE%81/11023545", "lemmaPic": []}, {"lemmaId": 2094047, "lemmaTitle": "前臂动脉损伤", "lemmaCroppedTitle": "前臂动脉损伤", "lemmaDesc": "前臂动脉损伤多为利器伤所致，车祸撞击伤也是常见原因。多见于20～40岁青壮年。前...", "lemmaUrl": "http://baike.baidu.com/item/%E5%89%8D%E8%87%82%E5%8A%A8%E8%84%89%E6%8D%9F%E4%BC%A4/2094047", "lemmaPic": []}, {"lemmaId": 4670400, "lemmaTitle": "眼部猪囊尾蚴病", "lemmaCroppedTitle": "眼部猪囊尾蚴病", "lemmaDesc": "眼部猪囊尾蚴病是猪囊尾蚴寄生于眼部引起的一种疾病。如寄生于眼睑，则可扪及一无痛性...", "lemmaUrl": "http://baike.baidu.com/item/%E7%9C%BC%E9%83%A8%E7%8C%AA%E5%9B%8A%E5%B0%BE%E8%9A%B4%E7%97%85/4670400", "lemmaPic": []}, {"lemmaId": 660483, "lemmaTitle": "胰高糖素瘤综合征", "lemmaCroppedTitle": "胰高糖素瘤综合征", "lemmaDesc": "胰高糖素瘤综合征又称坏死松解性游走性红斑是胰岛A细胞瘤的一组临床表现。本病极罕见...", "lemmaUrl": "http://baike.baidu.com/item/%E8%83%B0%E9%AB%98%E7%B3%96%E7%B4%A0%E7%98%A4%E7%BB%BC%E5%90%88%E5%BE%81/660483", "lemmaPic": []}, {"lemmaId": 10456309, "lemmaTitle": "咽部狼疮", "lemmaCroppedTitle": "咽部狼疮", "lemmaDesc": "咽部狼疮多发生于面部和鼻部。致病菌为毒力低的结核杆菌。咽狼疮与其他部位的狼疮相同...", "lemmaUrl": "http://baike.baidu.com/item/%E5%92%BD%E9%83%A8%E7%8B%BC%E7%96%AE/10456309", "lemmaPic": []}, {"lemmaId": 6674628, "lemmaTitle": "妊娠期急性肾功能衰竭", "lemmaCroppedTitle": "妊娠期急性肾功能衰竭", "lemmaDesc": "由任何原因引起的肾脏实质急性严重损伤，使肾单位丧失调节功能，不能维持体液及电解质...", "lemmaUrl": "http://baike.baidu.com/item/%E5%A6%8A%E5%A8%A0%E6%9C%9F%E6%80%A5%E6%80%A7%E8%82%BE%E5%8A%9F%E8%83%BD%E8%A1%B0%E7%AB%AD/6674628", "lemmaPic": []}, {"lemmaId": 7254115, "lemmaTitle": "尺管综合征", "lemmaCroppedTitle": "尺管综合征", "lemmaDesc": "引起手部掌面尺侧疼痛的因素很多，如当人们摔倒时，多以手腕过伸、手掌尺侧着地为主，...", "lemmaUrl": "http://baike.baidu.com/item/%E5%B0%BA%E7%AE%A1%E7%BB%BC%E5%90%88%E5%BE%81/7254115", "lemmaPic": []}, {"lemmaId": 10456254, "lemmaTitle": "腮腺隙感染", "lemmaCroppedTitle": "腮腺隙感染", "lemmaDesc": "由流行性腮腺炎并发细菌或邻近组织的炎性病灶。腮腺部位即下颌角处红肿、坚硬、触痛，...", "lemmaUrl": "http://baike.baidu.com/item/%E8%85%AE%E8%85%BA%E9%9A%99%E6%84%9F%E6%9F%93/10456254", "lemmaPic": []}, {"lemmaId": 4088350, "lemmaTitle": "锂肾病", "lemmaCroppedTitle": "锂肾病", "lemmaDesc": "锂肾病是由锂制剂引起的肾脏损害。急性锂中毒可出现精神神经和肌肉症状，包括情感淡漠...", "lemmaUrl": "http://baike.baidu.com/item/%E9%94%82%E8%82%BE%E7%97%85/4088350", "lemmaPic": []}, {"lemmaId": 4140165, "lemmaTitle": "莱施尼汉综合征", "lemmaCroppedTitle": "莱施尼汉综合征", "lemmaDesc": "莱施-尼汉综合征又称雷-尼综合征，自毁容貌综合征，属于伴性隐性遗传的先天性代谢病...", "lemmaUrl": "http://baike.baidu.com/item/%E8%8E%B1%E6%96%BD%E5%B0%BC%E6%B1%89%E7%BB%BC%E5%90%88%E5%BE%81/4140165", "lemmaPic": []}, {"lemmaId": 505095, "lemmaTitle": "尿毒症肺炎", "lemmaCroppedTitle": "尿毒症肺炎", "lemmaDesc": "狭义的尿毒症肺炎是指尿毒症患者在进行胸部X线片检查时，显示以肺门为中心向两侧放射...", "lemmaUrl": "http://baike.baidu.com/item/%E5%B0%BF%E6%AF%92%E7%97%87%E8%82%BA%E7%82%8E/505095", "lemmaPic": []}, {"lemmaId": 4601598, "lemmaTitle": "维生素A缺乏神经病", "lemmaCroppedTitle": "维生素A缺乏神经病", "lemmaDesc": "维生素A缺乏是世界卫生组织确认的世界四大营养缺乏病之一。维生素A缺乏可导致神经系...", "lemmaUrl": "http://baike.baidu.com/item/%E7%BB%B4%E7%94%9F%E7%B4%A0A%E7%BC%BA%E4%B9%8F%E7%A5%9E%E7%BB%8F%E7%97%85/4601598", "lemmaPic": []}, {"lemmaId": 3957265, "lemmaTitle": "疣状血管瘤", "lemmaCroppedTitle": "疣状血管瘤", "lemmaDesc": "疣状血管瘤（verrucous haemangioma，VH）是一种较少见的由真...", "lemmaUrl": "http://baike.baidu.com/item/%E7%96%A3%E7%8A%B6%E8%A1%80%E7%AE%A1%E7%98%A4/3957265", "lemmaPic": []}, {"lemmaId": 3480761, "lemmaTitle": "疣状肢端角化病", "lemmaCroppedTitle": "疣状肢端角化病", "lemmaDesc": "疣状肢端角化病（AKV）罕见，本病是一种常染色体显性遗传性疾病，常同时伴有毛囊角...", "lemmaUrl": "http://baike.baidu.com/item/%E7%96%A3%E7%8A%B6%E8%82%A2%E7%AB%AF%E8%A7%92%E5%8C%96%E7%97%85/3480761", "lemmaPic": []}, {"lemmaId": 12428742, "lemmaTitle": "小儿软骨发育不全", "lemmaCroppedTitle": "小儿软骨发育不全", "lemmaDesc": "小儿软骨发育不全（achondroplasty）是侏儒中最多的一型，属软骨化骨缺...", "lemmaUrl": "http://baike.baidu.com/item/%E5%B0%8F%E5%84%BF%E8%BD%AF%E9%AA%A8%E5%8F%91%E8%82%B2%E4%B8%8D%E5%85%A8/12428742", "lemmaPic": []}, {"lemmaId": 7847310, "lemmaTitle": "急性视网膜色素上皮炎", "lemmaCroppedTitle": "急性视网膜色素上皮炎", "lemmaDesc": "急性视网膜色素上皮炎是一种以视网膜色素上皮的急性炎症为特征的疾病，典型地表现为黄...", "lemmaUrl": "http://baike.baidu.com/item/%E6%80%A5%E6%80%A7%E8%A7%86%E7%BD%91%E8%86%9C%E8%89%B2%E7%B4%A0%E4%B8%8A%E7%9A%AE%E7%82%8E/7847310", "lemmaPic": []}, {"lemmaId": 4355090, "lemmaTitle": "急性颈椎间盘突出症", "lemmaCroppedTitle": "急性颈椎间盘突出症", "lemmaDesc": "急性颈椎间盘突出症是指有轻重不等的颈部外伤史，影像学检查证实有椎间盘破裂或突出，...", "lemmaUrl": "http://baike.baidu.com/item/%E6%80%A5%E6%80%A7%E9%A2%88%E6%A4%8E%E9%97%B4%E7%9B%98%E7%AA%81%E5%87%BA%E7%97%87/4355090", "lemmaPic": []}, {"lemmaId": 4019981, "lemmaTitle": "胰腺肉瘤", "lemmaCroppedTitle": "胰腺肉瘤", "lemmaDesc": "胰腺肉瘤是生长在胰腺的各个部位的软组织恶性肿瘤。由于病例数极少，仅占胰腺恶性肿瘤...", "lemmaUrl": "http://baike.baidu.com/item/%E8%83%B0%E8%85%BA%E8%82%89%E7%98%A4/4019981", "lemmaPic": []}, {"lemmaId": 3746428, "lemmaTitle": "缺血性视盘病变", "lemmaCroppedTitle": "缺血性视盘病变", "lemmaDesc": "缺血性视盘病变，视神经前端小血管循环障碍，主要是由于睫状血管灌注压低于眼内压，引...", "lemmaUrl": "http://baike.baidu.com/item/%E7%BC%BA%E8%A1%80%E6%80%A7%E8%A7%86%E7%9B%98%E7%97%85%E5%8F%98/3746428", "lemmaPic": []}, {"lemmaId": 12810974, "lemmaTitle": "先天性足副舟骨", "lemmaCroppedTitle": "先天性足副舟骨", "lemmaDesc": "足的副舟骨是舟骨结节部第二化骨中心的先天异常，在舟骨结节处形成一个独立的副骨。副...", "lemmaUrl": "http://baike.baidu.com/item/%E5%85%88%E5%A4%A9%E6%80%A7%E8%B6%B3%E5%89%AF%E8%88%9F%E9%AA%A8/12810974", "lemmaPic": []}, {"lemmaId": 2066143, "lemmaTitle": "糖原贮积病Ⅴ型", "lemmaCroppedTitle": "糖原贮积病Ⅴ型", "lemmaDesc": "糖原贮积病Ⅴ型又称McArdle肌病，由肌肉磷酸化酶缺乏所引起。主要临床特征为肌...", "lemmaUrl": "http://baike.baidu.com/item/%E7%B3%96%E5%8E%9F%E8%B4%AE%E7%A7%AF%E7%97%85%E2%85%A4%E5%9E%8B/2066143", "lemmaPic": []}, {"lemmaId": 6546144, "lemmaTitle": "右心房与下腔静脉平滑肌瘤", "lemmaCroppedTitle": "右心房与下腔静脉平滑肌瘤", "lemmaDesc": "右心房与下腔静脉平滑肌瘤是指原发于该处的平滑肌瘤，十分少见，其表现与心脏下腔静脉...", "lemmaUrl": "http://baike.baidu.com/item/%E5%8F%B3%E5%BF%83%E6%88%BF%E4%B8%8E%E4%B8%8B%E8%85%94%E9%9D%99%E8%84%89%E5%B9%B3%E6%BB%91%E8%82%8C%E7%98%A4/6546144", "lemmaPic": []}, {"lemmaId": 9688867, "lemmaTitle": "金黄色苔藓", "lemmaCroppedTitle": "金黄色苔藓", "lemmaDesc": "金黄色苔藓是一种好发于下肢的以金黄色色素过度沉着性苔藓样丘疹、斑丘疹为特征的少见...", "lemmaUrl": "http://baike.baidu.com/item/%E9%87%91%E9%BB%84%E8%89%B2%E8%8B%94%E8%97%93/9688867", "lemmaPic": []}, {"lemmaId": 506851, "lemmaTitle": "闭锁肺综合征", "lemmaCroppedTitle": "闭锁肺综合征", "lemmaDesc": "闭锁肺综合征是指支气管哮喘患者的气道阻塞进行性加重而达到危急状态。", "lemmaUrl": "http://baike.baidu.com/item/%E9%97%AD%E9%94%81%E8%82%BA%E7%BB%BC%E5%90%88%E5%BE%81/506851", "lemmaPic": []}, {"lemmaId": 2103389, "lemmaTitle": "物理性变应性", "lemmaCroppedTitle": "物理性变应性", "lemmaDesc": "这是一种由寒冷、日光、热或轻微创伤等物理刺激所引起的变态反应性的症状和体征。多数...", "lemmaUrl": "http://baike.baidu.com/item/%E7%89%A9%E7%90%86%E6%80%A7%E5%8F%98%E5%BA%94%E6%80%A7/2103389", "lemmaPic": []}, {"lemmaId": 10002515, "lemmaTitle": "老年人急进性肾炎", "lemmaCroppedTitle": "老年人急进性肾炎", "lemmaDesc": "急进性肾炎也叫急进性肾小球肾炎（RPGN），是1942年由Ellis首先提出，在...", "lemmaUrl": "http://baike.baidu.com/item/%E8%80%81%E5%B9%B4%E4%BA%BA%E6%80%A5%E8%BF%9B%E6%80%A7%E8%82%BE%E7%82%8E/10002515", "lemmaPic": []}, {"lemmaId": 10108752, "lemmaTitle": "毛囊周围纤维瘤", "lemmaCroppedTitle": "毛囊周围纤维瘤", "lemmaDesc": "毛囊周围纤维瘤是一种毛囊错构瘤，属于纤维毛囊瘤谱系中的纯基质增生。", "lemmaUrl": "http://baike.baidu.com/item/%E6%AF%9B%E5%9B%8A%E5%91%A8%E5%9B%B4%E7%BA%A4%E7%BB%B4%E7%98%A4/10108752", "lemmaPic": []}, {"lemmaId": 2908391, "lemmaTitle": "黏多糖贮积症Ⅴ型", "lemmaCroppedTitle": "黏多糖贮积症Ⅴ型", "lemmaDesc": "又称希（Scheie）氏综合征，现已被分类为黏多糖贮积症Ⅰ型的亚型，这是因为本病...", "lemmaUrl": "http://baike.baidu.com/item/%E9%BB%8F%E5%A4%9A%E7%B3%96%E8%B4%AE%E7%A7%AF%E7%97%87%E2%85%A4%E5%9E%8B/2908391", "lemmaPic": []}, {"lemmaId": 8385018, "lemmaTitle": "妊娠合并淋巴瘤", "lemmaCroppedTitle": "妊娠合并淋巴瘤", "lemmaDesc": "妊娠合并恶性淋巴瘤在临床上不常见但危及到母亲、胎儿的生命安全，故令人十分担心。妊...", "lemmaUrl": "http://baike.baidu.com/item/%E5%A6%8A%E5%A8%A0%E5%90%88%E5%B9%B6%E6%B7%8B%E5%B7%B4%E7%98%A4/8385018", "lemmaPic": []}, {"lemmaId": 4664396, "lemmaTitle": "黏多糖贮积症Ⅱ型", "lemmaCroppedTitle": "黏多糖贮积症Ⅱ型", "lemmaDesc": "本型也称汉特（Hunter）综合征，最早由Hunter（1917）描述。Meku...", "lemmaUrl": "http://baike.baidu.com/item/%E9%BB%8F%E5%A4%9A%E7%B3%96%E8%B4%AE%E7%A7%AF%E7%97%87%E2%85%A1%E5%9E%8B/4664396", "lemmaPic": []}, {"lemmaId": 1435595, "lemmaTitle": "儿童原发性肾病综合征", "lemmaCroppedTitle": "儿童原发性肾病综合征", "lemmaDesc": "儿童原发性肾病综合征（NS）是一组由于多种病因造成肾小球基膜通透性增高，大量蛋白...", "lemmaUrl": "http://baike.baidu.com/item/%E5%84%BF%E7%AB%A5%E5%8E%9F%E5%8F%91%E6%80%A7%E8%82%BE%E7%97%85%E7%BB%BC%E5%90%88%E5%BE%81/1435595", "lemmaPic": []}, {"lemmaId": 506065, "lemmaTitle": "系统性红斑狼疮所致脊髓病", "lemmaCroppedTitle": "系统性红斑狼疮所致脊髓病", "lemmaDesc": "系统性红斑狼疮所致脊髓病是一种常见的自身免疫性疾病，病因未明。其特点为整个免疫系...", "lemmaUrl": "http://baike.baidu.com/item/%E7%B3%BB%E7%BB%9F%E6%80%A7%E7%BA%A2%E6%96%91%E7%8B%BC%E7%96%AE%E6%89%80%E8%87%B4%E8%84%8A%E9%AB%93%E7%97%85/506065", "lemmaPic": []}, {"lemmaId": 1630234, "lemmaTitle": "肠系膜裂孔疝", "lemmaCroppedTitle": "肠系膜裂孔疝", "lemmaDesc": "肠系膜裂孔疝由肠袢穿过肠系膜裂孔而发病。本病临床少见，多以肠梗阻为其主要的表现。...", "lemmaUrl": "http://baike.baidu.com/item/%E8%82%A0%E7%B3%BB%E8%86%9C%E8%A3%82%E5%AD%94%E7%96%9D/1630234", "lemmaPic": []}, {"lemmaId": 12021747, "lemmaTitle": "胃切除后胆汁反流性胃炎", "lemmaCroppedTitle": "胃切除后胆汁反流性胃炎", "lemmaDesc": "胆汁反流性胃炎亦称碱性反流性胃炎，是指由幽门括约肌功能失调或行降低幽门功能的手术...", "lemmaUrl": "http://baike.baidu.com/item/%E8%83%83%E5%88%87%E9%99%A4%E5%90%8E%E8%83%86%E6%B1%81%E5%8F%8D%E6%B5%81%E6%80%A7%E8%83%83%E7%82%8E/12021747", "lemmaPic": []}, {"lemmaId": 7253339, "lemmaTitle": "埃布斯坦畸形", "lemmaCroppedTitle": "埃布斯坦畸形", "lemmaDesc": "埃布斯坦畸形又称三尖瓣下移畸形，是指三尖瓣隔瓣和（或）后瓣偶尔连同前瓣下移，附着...", "lemmaUrl": "http://baike.baidu.com/item/%E5%9F%83%E5%B8%83%E6%96%AF%E5%9D%A6%E7%95%B8%E5%BD%A2/7253339", "lemmaPic": []}, {"lemmaId": 9802956, "lemmaTitle": "先天性膝关节脱位", "lemmaCroppedTitle": "先天性膝关节脱位", "lemmaDesc": "先天性膝关节脱位是一种罕见的骨科疾病，表现为患者有膝关节过伸、膝关节屈曲受限，胫...", "lemmaUrl": "http://baike.baidu.com/item/%E5%85%88%E5%A4%A9%E6%80%A7%E8%86%9D%E5%85%B3%E8%8A%82%E8%84%B1%E4%BD%8D/9802956", "lemmaPic": []}, {"lemmaId": 1207757, "lemmaTitle": "外阴天疱疮", "lemmaCroppedTitle": "外阴天疱疮", "lemmaDesc": "外阴天疱疮为自身免疫力低下引起的疾病，表现为外阴有大小不等的水疱，严重时可导致皮...", "lemmaUrl": "http://baike.baidu.com/item/%E5%A4%96%E9%98%B4%E5%A4%A9%E7%96%B1%E7%96%AE/1207757", "lemmaPic": []}, {"lemmaId": 10638172, "lemmaTitle": "拉福拉病", "lemmaCroppedTitle": "拉福拉病", "lemmaDesc": "拉福拉病别名Lafora病，属常染色体隐性遗传性疾病。好发于儿童晚期和青春期。最...", "lemmaUrl": "http://baike.baidu.com/item/%E6%8B%89%E7%A6%8F%E6%8B%89%E7%97%85/10638172", "lemmaPic": []}, {"lemmaId": 12700739, "lemmaTitle": "肌注硬结", "lemmaCroppedTitle": "肌注硬结", "lemmaDesc": "肌注硬结是指在臀部或肱三角肌注射后所致的炎性增生性反应。可能与针头刺激肌肉造成反...", "lemmaUrl": "http://baike.baidu.com/item/%E8%82%8C%E6%B3%A8%E7%A1%AC%E7%BB%93/12700739", "lemmaPic": []}, {"lemmaId": 2352476, "lemmaTitle": "单纯性肺嗜酸性粒细胞增多症", "lemmaCroppedTitle": "单纯性肺嗜酸性粒细胞增多症", "lemmaDesc": "单纯性肺嗜酸粒细胞增多症是由loffler1932年首先报道的，故又称吕弗勒综合...", "lemmaUrl": "http://baike.baidu.com/item/%E5%8D%95%E7%BA%AF%E6%80%A7%E8%82%BA%E5%97%9C%E9%85%B8%E6%80%A7%E7%B2%92%E7%BB%86%E8%83%9E%E5%A2%9E%E5%A4%9A%E7%97%87/2352476", "lemmaPic": []}, {"lemmaId": 13883831, "lemmaTitle": "喉烧伤", "lemmaCroppedTitle": "喉烧伤", "lemmaDesc": "因吸入高热蒸气、误饮沸水，头颈烧伤者因吸入火焰或干热空气致黏膜烧伤，高热蒸气对黏...", "lemmaUrl": "http://baike.baidu.com/item/%E5%96%89%E7%83%A7%E4%BC%A4/13883831", "lemmaPic": []}, {"lemmaId": 2949179, "lemmaTitle": "小儿血管角质瘤综合征", "lemmaCroppedTitle": "小儿血管角质瘤综合征", "lemmaDesc": "血管角质瘤综合征即弥漫性体血管角质瘤病，又称Fabry综合征、Anderson-...", "lemmaUrl": "http://baike.baidu.com/item/%E5%B0%8F%E5%84%BF%E8%A1%80%E7%AE%A1%E8%A7%92%E8%B4%A8%E7%98%A4%E7%BB%BC%E5%90%88%E5%BE%81/2949179", "lemmaPic": []}, {"lemmaId": 4656849, "lemmaTitle": "绝经期盆腔脏器脱垂", "lemmaCroppedTitle": "绝经期盆腔脏器脱垂", "lemmaDesc": "盆腔脏器从其正常位置向下移位，称为盆腔脏器脱垂（POP）。传统分类有子宫脱垂、膀...", "lemmaUrl": "http://baike.baidu.com/item/%E7%BB%9D%E7%BB%8F%E6%9C%9F%E7%9B%86%E8%85%94%E8%84%8F%E5%99%A8%E8%84%B1%E5%9E%82/4656849", "lemmaPic": []}, {"lemmaId": 1990592, "lemmaTitle": "三叉神经营养性损害", "lemmaCroppedTitle": "三叉神经营养性损害", "lemmaDesc": "三叉神经营养性损害也称三叉神经营养综合征，是因中枢或外周性的损害累及三叉神经系统...", "lemmaUrl": "http://baike.baidu.com/item/%E4%B8%89%E5%8F%89%E7%A5%9E%E7%BB%8F%E8%90%A5%E5%85%BB%E6%80%A7%E6%8D%9F%E5%AE%B3/1990592", "lemmaPic": []}, {"lemmaId": 4653655, "lemmaTitle": "眼眶血肿", "lemmaCroppedTitle": "眼眶血肿", "lemmaDesc": "眼眶血肿是一种由血液或血性产物组成的肿块。也有人称之为血囊肿。一般认为，眼眶出血...", "lemmaUrl": "http://baike.baidu.com/item/%E7%9C%BC%E7%9C%B6%E8%A1%80%E8%82%BF/4653655", "lemmaPic": []}, {"lemmaId": 7254895, "lemmaTitle": "脊髓缺血", "lemmaCroppedTitle": "脊髓缺血", "lemmaDesc": "脊髓缺血是指脊髓由于血液供应缺乏，从而损伤脊髓内神经元，造成不可逆的脊髓功能损害...", "lemmaUrl": "http://baike.baidu.com/item/%E8%84%8A%E9%AB%93%E7%BC%BA%E8%A1%80/7254895", "lemmaPic": []}, {"lemmaId": 880642, "lemmaTitle": "外阴腺鳞癌", "lemmaCroppedTitle": "外阴腺鳞癌", "lemmaDesc": "外阴腺鳞癌有人称之为假腺鳞癌，外阴腺鳞癌少见，仅占外阴癌的13%。为双向分化的上...", "lemmaUrl": "http://baike.baidu.com/item/%E5%A4%96%E9%98%B4%E8%85%BA%E9%B3%9E%E7%99%8C/880642", "lemmaPic": []}, {"lemmaId": 5858828, "lemmaTitle": "获得性免疫缺陷综合征视网膜病变", "lemmaCroppedTitle": "获得性免疫缺陷综合征视网膜病变", "lemmaDesc": "获得性免疫缺陷综合征（AIDS）又叫艾滋病，是20世纪80年代举世瞩目的新型病毒...", "lemmaUrl": "http://baike.baidu.com/item/%E8%8E%B7%E5%BE%97%E6%80%A7%E5%85%8D%E7%96%AB%E7%BC%BA%E9%99%B7%E7%BB%BC%E5%90%88%E5%BE%81%E8%A7%86%E7%BD%91%E8%86%9C%E7%97%85%E5%8F%98/5858828", "lemmaPic": []}, {"lemmaId": 5620336, "lemmaTitle": "爆裂性眼眶骨折", "lemmaCroppedTitle": "爆裂性眼眶骨折", "lemmaDesc": "爆裂性眼眶骨折又称眼眶击出性骨折，是由直径大于眶口的钝性物体打击眼眶软组织和眶缘...", "lemmaUrl": "http://baike.baidu.com/item/%E7%88%86%E8%A3%82%E6%80%A7%E7%9C%BC%E7%9C%B6%E9%AA%A8%E6%8A%98/5620336", "lemmaPic": []}, {"lemmaId": 10455870, "lemmaTitle": "咽部创伤", "lemmaCroppedTitle": "咽部创伤", "lemmaDesc": "咽部创伤多因异物损伤，医源性损伤、化学腐蚀和烫伤所致，可单独发生，亦常伴有口腔或...", "lemmaUrl": "http://baike.baidu.com/item/%E5%92%BD%E9%83%A8%E5%88%9B%E4%BC%A4/10455870", "lemmaPic": []}, {"lemmaId": 9188157, "lemmaTitle": "椎弓结核", "lemmaCroppedTitle": "椎弓结核", "lemmaDesc": "椎弓结核系指病变限于椎弓根、椎板、棘突或横突，而不是继发于椎体结核扩展到椎弓根、...", "lemmaUrl": "http://baike.baidu.com/item/%E6%A4%8E%E5%BC%93%E7%BB%93%E6%A0%B8/9188157", "lemmaPic": []}, {"lemmaId": 12676614, "lemmaTitle": "小儿原发性纤毛运动障碍", "lemmaCroppedTitle": "小儿原发性纤毛运动障碍", "lemmaDesc": "原发性纤毛运动障碍（PCD）又称纤毛不动综合征，属常染色体隐性遗传，是各种遗传性...", "lemmaUrl": "http://baike.baidu.com/item/%E5%B0%8F%E5%84%BF%E5%8E%9F%E5%8F%91%E6%80%A7%E7%BA%A4%E6%AF%9B%E8%BF%90%E5%8A%A8%E9%9A%9C%E7%A2%8D/12676614", "lemmaPic": []}, {"lemmaId": 5268953, "lemmaTitle": "呼吸性细支气管炎伴间质性肺病", "lemmaCroppedTitle": "呼吸性细支气管炎伴间质性肺病", "lemmaDesc": "呼吸性细支气管炎伴间质性肺病（RBILD）在20世纪80年代初被认识，患者均为吸...", "lemmaUrl": "http://baike.baidu.com/item/%E5%91%BC%E5%90%B8%E6%80%A7%E7%BB%86%E6%94%AF%E6%B0%94%E7%AE%A1%E7%82%8E%E4%BC%B4%E9%97%B4%E8%B4%A8%E6%80%A7%E8%82%BA%E7%97%85/5268953", "lemmaPic": []}, {"lemmaId": 12676970, "lemmaTitle": "心包囊肿与心包憩室", "lemmaCroppedTitle": "心包囊肿与心包憩室", "lemmaDesc": "心包囊肿是指发生于心包的一种先天性纵隔囊肿亦称为间皮囊肿、心包旁囊肿、胸膜心包囊...", "lemmaUrl": "http://baike.baidu.com/item/%E5%BF%83%E5%8C%85%E5%9B%8A%E8%82%BF%E4%B8%8E%E5%BF%83%E5%8C%85%E6%86%A9%E5%AE%A4/12676970", "lemmaPic": []}, {"lemmaId": 2868592, "lemmaTitle": "原发性心脏横纹肌肉瘤", "lemmaCroppedTitle": "原发性心脏横纹肌肉瘤", "lemmaDesc": "原发性心脏横纹肌肉瘤（primary cardiac rhabdomyosarc...", "lemmaUrl": "http://baike.baidu.com/item/%E5%8E%9F%E5%8F%91%E6%80%A7%E5%BF%83%E8%84%8F%E6%A8%AA%E7%BA%B9%E8%82%8C%E8%82%89%E7%98%A4/2868592", "lemmaPic": []}, {"lemmaId": 10647044, "lemmaTitle": "腹主动脉缩窄", "lemmaCroppedTitle": "腹主动脉缩窄", "lemmaDesc": "主动脉缩窄是较为常见的先天性心脏大血管畸形，发生率为每1000活产婴儿的0.2～...", "lemmaUrl": "http://baike.baidu.com/item/%E8%85%B9%E4%B8%BB%E5%8A%A8%E8%84%89%E7%BC%A9%E7%AA%84/10647044", "lemmaPic": []}, {"lemmaId": 8404513, "lemmaTitle": "铝骨病", "lemmaCroppedTitle": "铝骨病", "lemmaDesc": "铝常存在于食物、化妆品和药物制剂中，人体每天由食物摄取的铝约为2.5毫克，通过胃...", "lemmaUrl": "http://baike.baidu.com/item/%E9%93%9D%E9%AA%A8%E7%97%85/8404513", "lemmaPic": []}, {"lemmaId": 3777742, "lemmaTitle": "原发性渗出性淋巴瘤", "lemmaCroppedTitle": "原发性渗出性淋巴瘤", "lemmaDesc": "原发性渗出性淋巴瘤（PEL）是一种罕见的人类免疫缺陷病毒（HIV）相关的非霍奇金...", "lemmaUrl": "http://baike.baidu.com/item/%E5%8E%9F%E5%8F%91%E6%80%A7%E6%B8%97%E5%87%BA%E6%80%A7%E6%B7%8B%E5%B7%B4%E7%98%A4/3777742", "lemmaPic": []}, {"lemmaId": 6435280, "lemmaTitle": "急性全自主神经失调症", "lemmaCroppedTitle": "急性全自主神经失调症", "lemmaDesc": "急性全自主神经失调症又称为急性自主神经危象，一种较少见的疾病。自主神经系统又分交...", "lemmaUrl": "http://baike.baidu.com/item/%E6%80%A5%E6%80%A7%E5%85%A8%E8%87%AA%E4%B8%BB%E7%A5%9E%E7%BB%8F%E5%A4%B1%E8%B0%83%E7%97%87/6435280", "lemmaPic": []}, {"lemmaId": 10357253, "lemmaTitle": "间充质软骨肉瘤", "lemmaCroppedTitle": "间充质软骨肉瘤", "lemmaDesc": "间充质性软骨肉瘤是一种罕见的恶性软骨性肿瘤，多发生于青壮年。首例起源于软组织的间...", "lemmaUrl": "http://baike.baidu.com/item/%E9%97%B4%E5%85%85%E8%B4%A8%E8%BD%AF%E9%AA%A8%E8%82%89%E7%98%A4/10357253", "lemmaPic": []}, {"lemmaId": 13883807, "lemmaTitle": "慢性髓系白血病", "lemmaCroppedTitle": "慢性髓系白血病", "lemmaDesc": "慢性髓系白血病（CML）是一种起源于多能干细胞的髓系增殖性肿瘤，t（9；22）（...", "lemmaUrl": "http://baike.baidu.com/item/%E6%85%A2%E6%80%A7%E9%AB%93%E7%B3%BB%E7%99%BD%E8%A1%80%E7%97%85/13883807", "lemmaPic": []}, {"lemmaId": 2016335, "lemmaTitle": "耳痈", "lemmaCroppedTitle": "耳痈", "lemmaDesc": "耳痈是一种耳窍壅肿，耳根{热胀痛，溃破流脓的耳病，类似外耳道疖肿。", "lemmaUrl": "http://baike.baidu.com/item/%E8%80%B3%E7%97%88/2016335", "lemmaPic": []}, {"lemmaId": 2189701, "lemmaTitle": "椎动脉创伤性栓塞", "lemmaCroppedTitle": "椎动脉创伤性栓塞", "lemmaDesc": "椎动脉创伤性栓塞是颈部挫伤的严重并发症状，因颈椎位置改变而使椎动脉迂曲、痉挛、受...", "lemmaUrl": "http://baike.baidu.com/item/%E6%A4%8E%E5%8A%A8%E8%84%89%E5%88%9B%E4%BC%A4%E6%80%A7%E6%A0%93%E5%A1%9E/2189701", "lemmaPic": []}, {"lemmaId": 4396625, "lemmaTitle": "骨血管肉瘤", "lemmaCroppedTitle": "骨血管肉瘤", "lemmaDesc": "骨血管肉瘤是起源于骨内血管内皮细胞的高度恶性骨肿瘤，早期能转移到肺。也称脉管肉瘤...", "lemmaUrl": "http://baike.baidu.com/item/%E9%AA%A8%E8%A1%80%E7%AE%A1%E8%82%89%E7%98%A4/4396625", "lemmaPic": []}, {"lemmaId": 1352490, "lemmaTitle": "肾髓质坏死", "lemmaCroppedTitle": "肾髓质坏死", "lemmaDesc": "肾髓质坏死又称肾乳头坏死（RPN）、坏死性乳头炎，其本质是肾乳头及其邻近的肾髓质...", "lemmaUrl": "http://baike.baidu.com/item/%E8%82%BE%E9%AB%93%E8%B4%A8%E5%9D%8F%E6%AD%BB/1352490", "lemmaPic": []}, {"lemmaId": 2189517, "lemmaTitle": "小儿动力性肠梗阻", "lemmaCroppedTitle": "小儿动力性肠梗阻", "lemmaDesc": "小儿动力性肠梗阻系因肠管神经功能异常引起的肠管蠕动功能紊乱而产生的肠梗阻，也称之...", "lemmaUrl": "http://baike.baidu.com/item/%E5%B0%8F%E5%84%BF%E5%8A%A8%E5%8A%9B%E6%80%A7%E8%82%A0%E6%A2%97%E9%98%BB/2189517", "lemmaPic": []}, {"lemmaId": 7252750, "lemmaTitle": "老年人胸腔积液与胸膜炎", "lemmaCroppedTitle": "老年人胸腔积液与胸膜炎", "lemmaDesc": "胸腔积液是指胸膜腔内液体产生与吸收的平衡失调，产生量超过吸收量使胸腔内液体超过正...", "lemmaUrl": "http://baike.baidu.com/item/%E8%80%81%E5%B9%B4%E4%BA%BA%E8%83%B8%E8%85%94%E7%A7%AF%E6%B6%B2%E4%B8%8E%E8%83%B8%E8%86%9C%E7%82%8E/7252750", "lemmaPic": []}, {"lemmaId": 3958578, "lemmaTitle": "焦油性黑变病", "lemmaCroppedTitle": "焦油性黑变病", "lemmaDesc": "焦油性黑变病又称中毒性苔藓样黑素皮炎、中毒性黑素皮炎，是由于长期暴露于焦油及其衍...", "lemmaUrl": "http://baike.baidu.com/item/%E7%84%A6%E6%B2%B9%E6%80%A7%E9%BB%91%E5%8F%98%E7%97%85/3958578", "lemmaPic": []}, {"lemmaId": 4669420, "lemmaTitle": "肠道病毒71型感染", "lemmaCroppedTitle": "肠道病毒71型感染", "lemmaDesc": "肠道病毒71型，简称EV71，是引起婴幼儿手足口病（HFMD）主要病原体之一。E...", "lemmaUrl": "http://baike.baidu.com/item/%E8%82%A0%E9%81%93%E7%97%85%E6%AF%9271%E5%9E%8B%E6%84%9F%E6%9F%93/4669420", "lemmaPic": []}, {"lemmaId": 12676489, "lemmaTitle": "先天性静脉畸形肢体肥大综合征", "lemmaCroppedTitle": "先天性静脉畸形肢体肥大综合征", "lemmaDesc": "先天性静脉畸形肢体肥大综合征（KTS）是一种复杂的先天性血管发育异常疾病。临床以...", "lemmaUrl": "http://baike.baidu.com/item/%E5%85%88%E5%A4%A9%E6%80%A7%E9%9D%99%E8%84%89%E7%95%B8%E5%BD%A2%E8%82%A2%E4%BD%93%E8%82%A5%E5%A4%A7%E7%BB%BC%E5%90%88%E5%BE%81/12676489", "lemmaPic": []}, {"lemmaId": 1336530, "lemmaTitle": "小儿先天性卵巢发育不全", "lemmaCroppedTitle": "小儿先天性卵巢发育不全", "lemmaDesc": "又称Turner综合征，是最常见的性染色体病，也是人类惟一能在出生后存活的染色体...", "lemmaUrl": "http://baike.baidu.com/item/%E5%B0%8F%E5%84%BF%E5%85%88%E5%A4%A9%E6%80%A7%E5%8D%B5%E5%B7%A2%E5%8F%91%E8%82%B2%E4%B8%8D%E5%85%A8/1336530", "lemmaPic": []}, {"lemmaId": 7153979, "lemmaTitle": "四肢血栓性浅静脉炎", "lemmaCroppedTitle": "四肢血栓性浅静脉炎", "lemmaDesc": "四肢血栓性浅静脉炎是指体表可视静脉发生的血栓性炎症，好发于上肢的头静脉、贵要静脉...", "lemmaUrl": "http://baike.baidu.com/item/%E5%9B%9B%E8%82%A2%E8%A1%80%E6%A0%93%E6%80%A7%E6%B5%85%E9%9D%99%E8%84%89%E7%82%8E/7153979", "lemmaPic": []}, {"lemmaId": 10338848, "lemmaTitle": "高颅压性脑积水", "lemmaCroppedTitle": "高颅压性脑积水", "lemmaDesc": "高颅压性脑积水是由于脑脊液循环通路上的脑室系统和蛛网膜下腔阻塞，引起脑室内平均压...", "lemmaUrl": "http://baike.baidu.com/item/%E9%AB%98%E9%A2%85%E5%8E%8B%E6%80%A7%E8%84%91%E7%A7%AF%E6%B0%B4/10338848", "lemmaPic": []}, {"lemmaId": 10583515, "lemmaTitle": "胎粪性便秘", "lemmaCroppedTitle": "胎粪性便秘", "lemmaDesc": "胎粪的成分包括胃肠分泌液、胆汁、胰腺分泌液、各种消化酶及吞咽羊水中不被吸收的胎脂...", "lemmaUrl": "http://baike.baidu.com/item/%E8%83%8E%E7%B2%AA%E6%80%A7%E4%BE%BF%E7%A7%98/10583515", "lemmaPic": []}, {"lemmaId": 10693647, "lemmaTitle": "家族性异常β脂蛋白血症", "lemmaCroppedTitle": "家族性异常β脂蛋白血症", "lemmaDesc": "家族性异常β脂蛋白血症（FD）又名Ⅲ型高脂蛋白血症。将病人的血浆脂蛋白经超速离心...", "lemmaUrl": "http://baike.baidu.com/item/%E5%AE%B6%E6%97%8F%E6%80%A7%E5%BC%82%E5%B8%B8%CE%B2%E8%84%82%E8%9B%8B%E7%99%BD%E8%A1%80%E7%97%87/10693647", "lemmaPic": []}, {"lemmaId": 10475665, "lemmaTitle": "外阴恶性颗粒细胞瘤", "lemmaCroppedTitle": "外阴恶性颗粒细胞瘤", "lemmaDesc": "外阴恶性颗粒细胞瘤根据其组织来源，有学者认为应该称之为恶性颗粒细胞施万细胞瘤，但...", "lemmaUrl": "http://baike.baidu.com/item/%E5%A4%96%E9%98%B4%E6%81%B6%E6%80%A7%E9%A2%97%E7%B2%92%E7%BB%86%E8%83%9E%E7%98%A4/10475665", "lemmaPic": []}, {"lemmaId": 9160488, "lemmaTitle": "肱骨上端骨骺分离", "lemmaCroppedTitle": "肱骨上端骨骺分离", "lemmaDesc": "肱骨上端有三个骨骺，即肱骨头、大结节及小结节，顺序于1岁、3岁及5岁出现骨骺，于...", "lemmaUrl": "http://baike.baidu.com/item/%E8%82%B1%E9%AA%A8%E4%B8%8A%E7%AB%AF%E9%AA%A8%E9%AA%BA%E5%88%86%E7%A6%BB/9160488", "lemmaPic": []}, {"lemmaId": 12676606, "lemmaTitle": "小儿流行性喘憋性肺炎", "lemmaCroppedTitle": "小儿流行性喘憋性肺炎", "lemmaDesc": "小儿流行性喘憋性肺炎是我国独特的流行性肺炎。本病发病急、流行面广、进展快、症状重...", "lemmaUrl": "http://baike.baidu.com/item/%E5%B0%8F%E5%84%BF%E6%B5%81%E8%A1%8C%E6%80%A7%E5%96%98%E6%86%8B%E6%80%A7%E8%82%BA%E7%82%8E/12676606", "lemmaPic": []}, {"lemmaId": 799876, "lemmaTitle": "涎腺病毒病", "lemmaCroppedTitle": "涎腺病毒病", "lemmaDesc": "涎腺病毒病又称涎腺巨细胞性包涵体病。多发生于2岁以内的婴儿，成人也可发生，但极少...", "lemmaUrl": "http://baike.baidu.com/item/%E6%B6%8E%E8%85%BA%E7%97%85%E6%AF%92%E7%97%85/799876", "lemmaPic": []}, {"lemmaId": 2002131, "lemmaTitle": "小儿范科尼综合征", "lemmaCroppedTitle": "小儿范科尼综合征", "lemmaDesc": "范科尼综合征的特点是骨髓造血功能衰竭，以多种肾小管功能紊乱为特征，导致贫血，氨基...", "lemmaUrl": "http://baike.baidu.com/item/%E5%B0%8F%E5%84%BF%E8%8C%83%E7%A7%91%E5%B0%BC%E7%BB%BC%E5%90%88%E5%BE%81/2002131", "lemmaPic": []}, {"lemmaId": 788055, "lemmaTitle": "肝脏类癌", "lemmaCroppedTitle": "肝脏类癌", "lemmaDesc": "肝脏类癌是指原发于肝脏的类癌，是一种极为罕见的生长缓慢的上皮细胞肿瘤，具有恶变倾...", "lemmaUrl": "http://baike.baidu.com/item/%E8%82%9D%E8%84%8F%E7%B1%BB%E7%99%8C/788055", "lemmaPic": []}, {"lemmaId": 2908076, "lemmaTitle": "小儿嗜铬细胞瘤", "lemmaCroppedTitle": "小儿嗜铬细胞瘤", "lemmaDesc": "嗜铬细胞瘤发源于肾上腺髓质，交感神经节，旁交感神经节或其他部位的嗜铬组织，故可发...", "lemmaUrl": "http://baike.baidu.com/item/%E5%B0%8F%E5%84%BF%E5%97%9C%E9%93%AC%E7%BB%86%E8%83%9E%E7%98%A4/2908076", "lemmaPic": []}, {"lemmaId": 4623832, "lemmaTitle": "筛窦癌", "lemmaCroppedTitle": "筛窦癌", "lemmaDesc": "筛窦癌较少见，常继发于鼻腔或上颌窦恶性肿瘤。筛窦恶性肿瘤早期不易发现。肿瘤扩大累...", "lemmaUrl": "http://baike.baidu.com/item/%E7%AD%9B%E7%AA%A6%E7%99%8C/4623832", "lemmaPic": []}], "total": 7246, "totalPage": 73, "page": 56, "fromLemma": 0}