{"lemmaList": [{"lemmaId": 7909664, "lemmaTitle": "慢性淋巴细胞白血病", "lemmaCroppedTitle": "慢性淋巴细胞白血病", "lemmaDesc": "慢性淋巴细胞白血病（CLL）是一种原发于造血组织的恶性肿瘤。肿瘤细胞为单克隆的B...", "lemmaUrl": "http://baike.baidu.com/item/%E6%85%A2%E6%80%A7%E6%B7%8B%E5%B7%B4%E7%BB%86%E8%83%9E%E7%99%BD%E8%A1%80%E7%97%85/7909664", "lemmaPic": []}, {"lemmaId": 5278429, "lemmaTitle": "先天性白内障", "lemmaCroppedTitle": "先天性白内障", "lemmaDesc": "先天性白内障（congenital cataract）多在出生前后即已存在，或在...", "lemmaUrl": "http://baike.baidu.com/item/%E5%85%88%E5%A4%A9%E6%80%A7%E7%99%BD%E5%86%85%E9%9A%9C/5278429", "lemmaPic": []}, {"lemmaId": 7103865, "lemmaTitle": "小儿脑瘫", "lemmaCroppedTitle": "小儿脑瘫", "lemmaDesc": "小儿脑瘫，全称小儿脑性瘫痪，是指出生前到生后1个月内各种原因所致的非进行性脑损伤...", "lemmaUrl": "http://baike.baidu.com/item/%E5%B0%8F%E5%84%BF%E8%84%91%E7%98%AB/7103865", "lemmaPic": []}, {"lemmaId": 4285205, "lemmaTitle": "躁狂抑郁症", "lemmaCroppedTitle": "躁狂抑郁症", "lemmaDesc": "躁狂抑郁症简称为躁郁症，也有人称为情感性精神病，是一种以情感异常高涨或低落为特征...", "lemmaUrl": "http://baike.baidu.com/item/%E8%BA%81%E7%8B%82%E6%8A%91%E9%83%81%E7%97%87/4285205", "lemmaPic": {"width": 500, "height": 500, "url": "https://gss1.bdstatic.com/9vo3dSag_xI4khGkpoWK1HF6hhy/baike/w%3D168/sign=77430debdb09b3deebbfe06ef4be6cd3/4610b912c8fcc3cee2f063b09845d688d43f2004.jpg"}}, {"lemmaId": 5120138, "lemmaTitle": "遗尿症", "lemmaCroppedTitle": "遗尿症", "lemmaDesc": "遗尿症（Enuresis）俗称尿床，通常指小儿在熟睡时不自主地排尿。一般至4岁时...", "lemmaUrl": "http://baike.baidu.com/item/%E9%81%97%E5%B0%BF%E7%97%87/5120138", "lemmaPic": []}, {"lemmaId": 5510887, "lemmaTitle": "胎儿畸形", "lemmaCroppedTitle": "胎儿畸形", "lemmaDesc": "胎儿畸形是指胎儿在子宫内发生的结构或染色体异常。胎儿畸形约占活产儿的3%。全世界...", "lemmaUrl": "http://baike.baidu.com/item/%E8%83%8E%E5%84%BF%E7%95%B8%E5%BD%A2/5510887", "lemmaPic": []}, {"lemmaId": 8926532, "lemmaTitle": "破水", "lemmaCroppedTitle": "破水", "lemmaDesc": "破水（amniorrhea）是破膜的俗称（全称为胎膜破裂），是指羊膜破裂羊水流出...", "lemmaUrl": "http://baike.baidu.com/item/%E7%A0%B4%E6%B0%B4/8926532", "lemmaPic": []}, {"lemmaId": 1483782, "lemmaTitle": "结核性腹膜炎", "lemmaCroppedTitle": "结核性腹膜炎", "lemmaDesc": "结核性腹膜炎是由结核杆菌引起的腹膜慢性、弥漫性炎症。本病的感染途径可由腹腔内结核...", "lemmaUrl": "http://baike.baidu.com/item/%E7%BB%93%E6%A0%B8%E6%80%A7%E8%85%B9%E8%86%9C%E7%82%8E/1483782", "lemmaPic": []}, {"lemmaId": 5085640, "lemmaTitle": "感染性休克", "lemmaCroppedTitle": "感染性休克", "lemmaDesc": "严重感染特别是革兰阴性菌感染常可引起感染性休克。感染性休克亦称脓毒性休克，是指由...", "lemmaUrl": "http://baike.baidu.com/item/%E6%84%9F%E6%9F%93%E6%80%A7%E4%BC%91%E5%85%8B/5085640", "lemmaPic": []}, {"lemmaId": 2251212, "lemmaTitle": "病毒性肺炎", "lemmaCroppedTitle": "病毒性肺炎", "lemmaDesc": "病毒性肺炎是由上呼吸道病毒感染、向下蔓延所致的肺部炎症。本病一年四季均可发生，但...", "lemmaUrl": "http://baike.baidu.com/item/%E7%97%85%E6%AF%92%E6%80%A7%E8%82%BA%E7%82%8E/2251212", "lemmaPic": []}, {"lemmaId": 2227583, "lemmaTitle": "鲜红斑痣", "lemmaCroppedTitle": "鲜红斑痣", "lemmaDesc": "鲜红斑痣又称葡萄酒样痣或毛细血管扩张痣，常在出生时或出生后不久出现，好发于面、颈...", "lemmaUrl": "http://baike.baidu.com/item/%E9%B2%9C%E7%BA%A2%E6%96%91%E7%97%A3/2227583", "lemmaPic": []}, {"lemmaId": 265463, "lemmaTitle": "狼疮性肾炎", "lemmaCroppedTitle": "狼疮性肾炎", "lemmaDesc": "狼疮性肾炎是指系统性红斑狼疮（SLE）合并双肾不同病理类型的免疫性损害，同时伴有...", "lemmaUrl": "http://baike.baidu.com/item/%E7%8B%BC%E7%96%AE%E6%80%A7%E8%82%BE%E7%82%8E/265463", "lemmaPic": []}, {"lemmaId": 10729076, "lemmaTitle": "充血性心力衰竭", "lemmaCroppedTitle": "充血性心力衰竭", "lemmaDesc": "心力衰竭是由于心室泵血或充盈功能低下，心排血量不能满足机体代谢的需要，组织、器官...", "lemmaUrl": "http://baike.baidu.com/item/%E5%85%85%E8%A1%80%E6%80%A7%E5%BF%83%E5%8A%9B%E8%A1%B0%E7%AB%AD/10729076", "lemmaPic": []}, {"lemmaId": 8903622, "lemmaTitle": "发育迟缓", "lemmaCroppedTitle": "发育迟缓", "lemmaDesc": "人的生长发育是指从受精卵到成人的成熟过程。生长和发育是儿童不同于成人的重要特点。...", "lemmaUrl": "http://baike.baidu.com/item/%E5%8F%91%E8%82%B2%E8%BF%9F%E7%BC%93/8903622", "lemmaPic": []}, {"lemmaId": 5318281, "lemmaTitle": "多发性肌炎", "lemmaCroppedTitle": "多发性肌炎", "lemmaDesc": "多发性肌炎是一种以肌无力、肌痛为主要表现的自身免疫性疾病，病因不清，主要临床表现...", "lemmaUrl": "http://baike.baidu.com/item/%E5%A4%9A%E5%8F%91%E6%80%A7%E8%82%8C%E7%82%8E/5318281", "lemmaPic": []}, {"lemmaId": 10142187, "lemmaTitle": "结节性痒疹", "lemmaCroppedTitle": "结节性痒疹", "lemmaDesc": "结节性痒疹是一种慢性炎症性皮肤病，以剧痒和结节性损害为特征。病因与昆虫叮咬，胃肠...", "lemmaUrl": "http://baike.baidu.com/item/%E7%BB%93%E8%8A%82%E6%80%A7%E7%97%92%E7%96%B9/10142187", "lemmaPic": []}, {"lemmaId": 7465547, "lemmaTitle": "多毛症", "lemmaCroppedTitle": "多毛症", "lemmaDesc": "人类的种族、年龄、性别、营养、气候以及情绪等的不同，都可以影响毛发的生长情况，比...", "lemmaUrl": "http://baike.baidu.com/item/%E5%A4%9A%E6%AF%9B%E7%97%87/7465547", "lemmaPic": []}, {"lemmaId": 2704297, "lemmaTitle": "氰化物中毒", "lemmaCroppedTitle": "氰化物中毒", "lemmaDesc": "氰化物为含有氰基（CN）的化合物，是常用的化工原料，分为无机氰化物（氰类）和有机...", "lemmaUrl": "http://baike.baidu.com/item/%E6%B0%B0%E5%8C%96%E7%89%A9%E4%B8%AD%E6%AF%92/2704297", "lemmaPic": []}, {"lemmaId": 10729451, "lemmaTitle": "胸外心脏按压", "lemmaCroppedTitle": "胸外心脏按压", "lemmaDesc": "胸外心脏按压是过去的名称，为了和开胸心脏按压相区别，现在将胸外心脏按压称为闭胸心...", "lemmaUrl": "http://baike.baidu.com/item/%E8%83%B8%E5%A4%96%E5%BF%83%E8%84%8F%E6%8C%89%E5%8E%8B/10729451", "lemmaPic": []}, {"lemmaId": 3974461, "lemmaTitle": "骨疣", "lemmaCroppedTitle": "骨疣", "lemmaDesc": "骨疣，又称骨刺，因为它既非完全由骨构成，也不尖锐如刺。医学上的正确名称应该是骨疣...", "lemmaUrl": "http://baike.baidu.com/item/%E9%AA%A8%E7%96%A3/3974461", "lemmaPic": []}, {"lemmaId": 1612365, "lemmaTitle": "三期梅毒", "lemmaCroppedTitle": "三期梅毒", "lemmaDesc": "梅毒是由梅毒螺旋体感染引起的一种慢性全身性性传播疾病，主要通过性传播。本病表现极...", "lemmaUrl": "http://baike.baidu.com/item/%E4%B8%89%E6%9C%9F%E6%A2%85%E6%AF%92/1612365", "lemmaPic": []}, {"lemmaId": 5223696, "lemmaTitle": "21三体综合征", "lemmaCroppedTitle": "21三体综合征", "lemmaDesc": "21三体综合征又称先天愚型或Down综合症，属常染色体畸变，是小儿染色体病中最常...", "lemmaUrl": "http://baike.baidu.com/item/21%E4%B8%89%E4%BD%93%E7%BB%BC%E5%90%88%E5%BE%81/5223696", "lemmaPic": []}, {"lemmaId": 2827460, "lemmaTitle": "肺性脑病", "lemmaCroppedTitle": "肺性脑病", "lemmaDesc": "肺性脑病又称肺心脑综合征，是慢性支气管炎并发肺气肿、肺源性心脏病及肺功能衰竭引起...", "lemmaUrl": "http://baike.baidu.com/item/%E8%82%BA%E6%80%A7%E8%84%91%E7%97%85/2827460", "lemmaPic": []}, {"lemmaId": 5244912, "lemmaTitle": "绒毛膜癌", "lemmaCroppedTitle": "绒毛膜癌", "lemmaDesc": "绒毛膜癌是一种高度恶性的肿瘤，继发于葡萄胎、流产或足月分娩以后。少数可发生于异位...", "lemmaUrl": "http://baike.baidu.com/item/%E7%BB%92%E6%AF%9B%E8%86%9C%E7%99%8C/5244912", "lemmaPic": []}, {"lemmaId": 87856, "lemmaTitle": "结婚恐惧症", "lemmaCroppedTitle": "结婚恐惧症", "lemmaDesc": "随着婚期的临近，许多准新人会有一种莫名的恐惧，甚至产生临阵脱逃的念头。这种症状，...", "lemmaUrl": "http://baike.baidu.com/item/%E7%BB%93%E5%A9%9A%E6%81%90%E6%83%A7%E7%97%87/87856", "lemmaPic": []}, {"lemmaId": 1381291, "lemmaTitle": "异位性皮炎", "lemmaCroppedTitle": "异位性皮炎", "lemmaDesc": "异位性皮炎又名异位性湿疹、遗传过敏性皮炎。此病多发于过敏性体质的婴幼儿及青少年，...", "lemmaUrl": "http://baike.baidu.com/item/%E5%BC%82%E4%BD%8D%E6%80%A7%E7%9A%AE%E7%82%8E/1381291", "lemmaPic": []}, {"lemmaId": 1998476, "lemmaTitle": "外阴湿疹", "lemmaCroppedTitle": "外阴湿疹", "lemmaDesc": "外阴湿疹是一种由多种病因引起的变态反应性皮肤病，其特征为多形性病损、炎性渗出伴剧...", "lemmaUrl": "http://baike.baidu.com/item/%E5%A4%96%E9%98%B4%E6%B9%BF%E7%96%B9/1998476", "lemmaPic": []}, {"lemmaId": 10017310, "lemmaTitle": "艾滋病性颈淋巴结肿大", "lemmaCroppedTitle": "艾滋病性颈淋巴结肿大", "lemmaDesc": "艾滋病性颈淋巴结肿大为艾滋病前期临床表现之一。由人类免疫缺陷病毒（HIV）侵犯颈...", "lemmaUrl": "http://baike.baidu.com/item/%E8%89%BE%E6%BB%8B%E7%97%85%E6%80%A7%E9%A2%88%E6%B7%8B%E5%B7%B4%E7%BB%93%E8%82%BF%E5%A4%A7/10017310", "lemmaPic": []}, {"lemmaId": 5986974, "lemmaTitle": "阴虚血热证", "lemmaCroppedTitle": "阴虚血热证", "lemmaDesc": "根据中医基础理论的五行学说、中医命门学说和中医藏象学说，肾为命门，包含真阴、真水...", "lemmaUrl": "http://baike.baidu.com/item/%E9%98%B4%E8%99%9A%E8%A1%80%E7%83%AD%E8%AF%81/5986974", "lemmaPic": []}, {"lemmaId": 5056017, "lemmaTitle": "高血压肾病", "lemmaCroppedTitle": "高血压肾病", "lemmaDesc": "高血压肾病系原发性高血压引起的肾脏结构和功能损害，分为良性高血压肾硬化症和恶性高...", "lemmaUrl": "http://baike.baidu.com/item/%E9%AB%98%E8%A1%80%E5%8E%8B%E8%82%BE%E7%97%85/5056017", "lemmaPic": []}, {"lemmaId": 10939481, "lemmaTitle": "急性酒精中毒", "lemmaCroppedTitle": "急性酒精中毒", "lemmaDesc": "酒精中毒俗称醉酒，是指患者一次饮大量酒精（乙醇）后发生的机体机能异常状态，对神经...", "lemmaUrl": "http://baike.baidu.com/item/%E6%80%A5%E6%80%A7%E9%85%92%E7%B2%BE%E4%B8%AD%E6%AF%92/10939481", "lemmaPic": []}, {"lemmaId": 8502706, "lemmaTitle": "厌氧菌感染", "lemmaCroppedTitle": "厌氧菌感染", "lemmaDesc": "厌氧菌是一类在无氧条件下比在有氧环境中生长好，而不能在空气（18%氧气）和（或）...", "lemmaUrl": "http://baike.baidu.com/item/%E5%8E%8C%E6%B0%A7%E8%8F%8C%E6%84%9F%E6%9F%93/8502706", "lemmaPic": []}, {"lemmaId": 5277872, "lemmaTitle": "急性有机磷农药中毒", "lemmaCroppedTitle": "急性有机磷农药中毒", "lemmaDesc": "有机磷农药（OPS）是我国使用广泛、用量最大的杀虫剂。主要包括敌敌畏、对硫磷（1...", "lemmaUrl": "http://baike.baidu.com/item/%E6%80%A5%E6%80%A7%E6%9C%89%E6%9C%BA%E7%A3%B7%E5%86%9C%E8%8D%AF%E4%B8%AD%E6%AF%92/5277872", "lemmaPic": []}, {"lemmaId": 1397109, "lemmaTitle": "海扶刀", "lemmaCroppedTitle": "海扶刀", "lemmaDesc": "“海扶刀”又叫“超声聚焦刀”，是“高强度聚焦超声肿瘤治疗系统（High-inte...", "lemmaUrl": "http://baike.baidu.com/item/%E6%B5%B7%E6%89%B6%E5%88%80/1397109", "lemmaPic": []}, {"lemmaId": 910422, "lemmaTitle": "脑血管瘤", "lemmaCroppedTitle": "脑血管瘤", "lemmaDesc": "脑血管瘤一般是指颅内动脉瘤，是脑动脉的局限性异常扩大，以囊性动脉瘤最为常见，其他...", "lemmaUrl": "http://baike.baidu.com/item/%E8%84%91%E8%A1%80%E7%AE%A1%E7%98%A4/910422", "lemmaPic": []}, {"lemmaId": 12428708, "lemmaTitle": "小儿皮肤黏膜淋巴结综合征", "lemmaCroppedTitle": "小儿皮肤黏膜淋巴结综合征", "lemmaDesc": "小儿皮肤黏膜淋巴结综合征（mucocutaneous lymph node sy...", "lemmaUrl": "http://baike.baidu.com/item/%E5%B0%8F%E5%84%BF%E7%9A%AE%E8%82%A4%E9%BB%8F%E8%86%9C%E6%B7%8B%E5%B7%B4%E7%BB%93%E7%BB%BC%E5%90%88%E5%BE%81/12428708", "lemmaPic": []}, {"lemmaId": 7778317, "lemmaTitle": "食物过敏", "lemmaCroppedTitle": "食物过敏", "lemmaDesc": "食物过敏会出现多种症状，包括皮肤、消化道、呼吸道及心血管系统等不适。任何食物都有...", "lemmaUrl": "http://baike.baidu.com/item/%E9%A3%9F%E7%89%A9%E8%BF%87%E6%95%8F/7778317", "lemmaPic": []}, {"lemmaId": 1123350, "lemmaTitle": "肢端肥大症", "lemmaCroppedTitle": "肢端肥大症", "lemmaDesc": "肢端肥大症（acromegaly）是腺垂体分泌生长激素（GH）过多所致的体型和内...", "lemmaUrl": "http://baike.baidu.com/item/%E8%82%A2%E7%AB%AF%E8%82%A5%E5%A4%A7%E7%97%87/1123350", "lemmaPic": []}, {"lemmaId": 6435022, "lemmaTitle": "颈椎退行性变", "lemmaCroppedTitle": "颈椎退行性变", "lemmaDesc": "颈椎退行性变是指颈椎结构的衰变及机能的衰退。年龄增长以及与之相关的使用过度、修复...", "lemmaUrl": "http://baike.baidu.com/item/%E9%A2%88%E6%A4%8E%E9%80%80%E8%A1%8C%E6%80%A7%E5%8F%98/6435022", "lemmaPic": []}, {"lemmaId": 5320582, "lemmaTitle": "氟牙症", "lemmaCroppedTitle": "氟牙症", "lemmaDesc": "氟牙症又称氟斑牙或斑釉牙。氟牙症是色素牙的一种，牙齿呈黄色损害，为慢性氟中毒早期...", "lemmaUrl": "http://baike.baidu.com/item/%E6%B0%9F%E7%89%99%E7%97%87/5320582", "lemmaPic": []}, {"lemmaId": 5339042, "lemmaTitle": "隐睾症", "lemmaCroppedTitle": "隐睾症", "lemmaDesc": "睾丸在正常发育过程中会从腰部腹膜后下降至阴囊，如果没有出现下降或下降不全，阴囊内...", "lemmaUrl": "http://baike.baidu.com/item/%E9%9A%90%E7%9D%BE%E7%97%87/5339042", "lemmaPic": {"width": 700, "height": 656, "url": "https://gss1.bdstatic.com/-vo3dSag_xI4khGkpoWK1HF6hhy/baike/w%3D168/sign=bdd36bda367adab43dd01f45b3d6b36b/a1ec08fa513d26971c24d0af55fbb2fb4216d849.jpg"}}, {"lemmaId": 5281157, "lemmaTitle": "急性卡他性结膜炎", "lemmaCroppedTitle": "急性卡他性结膜炎", "lemmaDesc": "急性卡他性结膜炎是“红眼病”的一种，人们俗称的“红眼病”是急性结膜炎的统称，它可...", "lemmaUrl": "http://baike.baidu.com/item/%E6%80%A5%E6%80%A7%E5%8D%A1%E4%BB%96%E6%80%A7%E7%BB%93%E8%86%9C%E7%82%8E/5281157", "lemmaPic": []}, {"lemmaId": 826165, "lemmaTitle": "房性期前收缩", "lemmaCroppedTitle": "房性期前收缩", "lemmaDesc": "房性期前收缩，起源于窦房结以外心房的任何部位。正常成人进行24小时心电检测，约6...", "lemmaUrl": "http://baike.baidu.com/item/%E6%88%BF%E6%80%A7%E6%9C%9F%E5%89%8D%E6%94%B6%E7%BC%A9/826165", "lemmaPic": []}, {"lemmaId": 5085594, "lemmaTitle": "失血性休克", "lemmaCroppedTitle": "失血性休克", "lemmaDesc": "大量失血引起的休克称为失血性休克。常见于外伤引起的出血、消化性溃疡出血、食管曲张...", "lemmaUrl": "http://baike.baidu.com/item/%E5%A4%B1%E8%A1%80%E6%80%A7%E4%BC%91%E5%85%8B/5085594", "lemmaPic": []}, {"lemmaId": 1382383, "lemmaTitle": "单纯性疱疹", "lemmaCroppedTitle": "单纯性疱疹", "lemmaDesc": "本病系由单纯疱疹病毒（HSV）所致，多侵犯皮肤黏膜交界处，皮疹为限局性簇集性小水...", "lemmaUrl": "http://baike.baidu.com/item/%E5%8D%95%E7%BA%AF%E6%80%A7%E7%96%B1%E7%96%B9/1382383", "lemmaPic": []}, {"lemmaId": 10584178, "lemmaTitle": "慢性肾脏病", "lemmaCroppedTitle": "慢性肾脏病", "lemmaDesc": "慢性肾脏病(CKD）定义：各种原因引起的慢性肾脏结构和功能障碍（肾脏损害病史大于...", "lemmaUrl": "http://baike.baidu.com/item/%E6%85%A2%E6%80%A7%E8%82%BE%E8%84%8F%E7%97%85/10584178", "lemmaPic": []}, {"lemmaId": 8979291, "lemmaTitle": "小儿发热", "lemmaCroppedTitle": "小儿发热", "lemmaDesc": "发热（fever）是指体温超过正常范围高限，是小儿十分常见的一种症状。正常小儿腋...", "lemmaUrl": "http://baike.baidu.com/item/%E5%B0%8F%E5%84%BF%E5%8F%91%E7%83%AD/8979291", "lemmaPic": []}, {"lemmaId": 10122346, "lemmaTitle": "铁线虫病", "lemmaCroppedTitle": "铁线虫病", "lemmaDesc": "铁线虫病是较为罕见的寄生虫病，成虫在自然界中自由生活，偶可感染人体。可能因接触水...", "lemmaUrl": "http://baike.baidu.com/item/%E9%93%81%E7%BA%BF%E8%99%AB%E7%97%85/10122346", "lemmaPic": []}, {"lemmaId": 6270811, "lemmaTitle": "结核杆菌", "lemmaCroppedTitle": "结核杆菌", "lemmaDesc": "结核杆菌侵入人体后引起的结核病是一种具有强烈传染性的慢性消耗性疾病。它不受年龄、...", "lemmaUrl": "http://baike.baidu.com/item/%E7%BB%93%E6%A0%B8%E6%9D%86%E8%8F%8C/6270811", "lemmaPic": []}, {"lemmaId": 3540161, "lemmaTitle": "血管神经性水肿", "lemmaCroppedTitle": "血管神经性水肿", "lemmaDesc": "血管神经性水肿亦称急性神经血管性水肿或Quinche水肿，以发作性局限性皮肤或黏...", "lemmaUrl": "http://baike.baidu.com/item/%E8%A1%80%E7%AE%A1%E7%A5%9E%E7%BB%8F%E6%80%A7%E6%B0%B4%E8%82%BF/3540161", "lemmaPic": []}, {"lemmaId": 8688772, "lemmaTitle": "鼓膜内陷", "lemmaCroppedTitle": "鼓膜内陷", "lemmaDesc": "当咽鼓管功能障碍时，外界的空气不能进入中耳，中耳腔原有的气体被逐渐吸收，腔内形成...", "lemmaUrl": "http://baike.baidu.com/item/%E9%BC%93%E8%86%9C%E5%86%85%E9%99%B7/8688772", "lemmaPic": []}, {"lemmaId": 4872064, "lemmaTitle": "前列腺痛", "lemmaCroppedTitle": "前列腺痛", "lemmaDesc": "前列腺痛是尿道肌肉、前列腺肌肉、或者是会阴部及骨盆底部的肌肉痉挛性疼痛引起的类似...", "lemmaUrl": "http://baike.baidu.com/item/%E5%89%8D%E5%88%97%E8%85%BA%E7%97%9B/4872064", "lemmaPic": []}, {"lemmaId": 7446810, "lemmaTitle": "脑血管畸形", "lemmaCroppedTitle": "脑血管畸形", "lemmaDesc": "脑血管畸形是脑血管先天性、非肿瘤性发育异常。是指脑血管发育障碍而引起的脑局部血管...", "lemmaUrl": "http://baike.baidu.com/item/%E8%84%91%E8%A1%80%E7%AE%A1%E7%95%B8%E5%BD%A2/7446810", "lemmaPic": []}, {"lemmaId": 852984, "lemmaTitle": "室性期前收缩", "lemmaCroppedTitle": "室性期前收缩", "lemmaDesc": "室性期前收缩是由希氏束分支以下异位起搏点提前产生的心室激动，中、老年人多见，有的...", "lemmaUrl": "http://baike.baidu.com/item/%E5%AE%A4%E6%80%A7%E6%9C%9F%E5%89%8D%E6%94%B6%E7%BC%A9/852984", "lemmaPic": []}, {"lemmaId": 10904358, "lemmaTitle": "重金属中毒", "lemmaCroppedTitle": "重金属中毒", "lemmaDesc": "重金属中毒是指相对原子质量大于65的重金属元素或其化合物引起的中毒，如汞中毒、铅...", "lemmaUrl": "http://baike.baidu.com/item/%E9%87%8D%E9%87%91%E5%B1%9E%E4%B8%AD%E6%AF%92/10904358", "lemmaPic": []}, {"lemmaId": 7549141, "lemmaTitle": "心房纤颤", "lemmaCroppedTitle": "心房纤颤", "lemmaDesc": "心房纤颤（AF）是最常见的心律失常之一，是心房呈无序激动和无效收缩的房性节律，是...", "lemmaUrl": "http://baike.baidu.com/item/%E5%BF%83%E6%88%BF%E7%BA%A4%E9%A2%A4/7549141", "lemmaPic": []}, {"lemmaId": 1161958, "lemmaTitle": "皮肤纤维瘤", "lemmaCroppedTitle": "皮肤纤维瘤", "lemmaDesc": "皮肤纤维瘤是成纤维细胞或组织细胞灶性增生引致的一种真皮内的良性肿瘤。本病可发生于...", "lemmaUrl": "http://baike.baidu.com/item/%E7%9A%AE%E8%82%A4%E7%BA%A4%E7%BB%B4%E7%98%A4/1161958", "lemmaPic": []}, {"lemmaId": 8505512, "lemmaTitle": "缩阳症", "lemmaCroppedTitle": "缩阳症", "lemmaDesc": "缩阳症又称恐缩症，是以恐惧生殖器缩入体内致死的恐怖焦虑发作为特征的一种与文化相关...", "lemmaUrl": "http://baike.baidu.com/item/%E7%BC%A9%E9%98%B3%E7%97%87/8505512", "lemmaPic": []}, {"lemmaId": 5120211, "lemmaTitle": "神经胶质瘤", "lemmaCroppedTitle": "神经胶质瘤", "lemmaDesc": "神经胶质瘤简称胶质瘤，也称为胶质细胞瘤，是最常见的原发性中枢神经系统肿瘤，约占所...", "lemmaUrl": "http://baike.baidu.com/item/%E7%A5%9E%E7%BB%8F%E8%83%B6%E8%B4%A8%E7%98%A4/5120211", "lemmaPic": []}, {"lemmaId": 5277556, "lemmaTitle": "外阴癌", "lemmaCroppedTitle": "外阴癌", "lemmaDesc": "外阴癌是外阴的恶性肿瘤，并不太少见，约占女性生殖道恶性肿瘤的5%。其中以原发性鳞...", "lemmaUrl": "http://baike.baidu.com/item/%E5%A4%96%E9%98%B4%E7%99%8C/5277556", "lemmaPic": []}, {"lemmaId": 875380, "lemmaTitle": "晕血症", "lemmaCroppedTitle": "晕血症", "lemmaDesc": "晕血症又叫“血液恐怖症”，也称为爱尔式综合征或艾倪尔式综合征，是一种特殊处境中的...", "lemmaUrl": "http://baike.baidu.com/item/%E6%99%95%E8%A1%80%E7%97%87/875380", "lemmaPic": []}, {"lemmaId": 561537, "lemmaTitle": "腮腺混合瘤", "lemmaCroppedTitle": "腮腺混合瘤", "lemmaDesc": "腮腺混合瘤又称多形性腺瘤，是一种含有腮腺组织、黏液和软骨样组织的腮腺肿瘤，故称“...", "lemmaUrl": "http://baike.baidu.com/item/%E8%85%AE%E8%85%BA%E6%B7%B7%E5%90%88%E7%98%A4/561537", "lemmaPic": []}, {"lemmaId": 1035648, "lemmaTitle": "胃阴虚", "lemmaCroppedTitle": "胃阴虚", "lemmaDesc": "胃阴虚，证名。胃的阴液不足所出现的证候。见《类证治裁・脾胃》。又称胃阴不足。由胃...", "lemmaUrl": "http://baike.baidu.com/item/%E8%83%83%E9%98%B4%E8%99%9A/1035648", "lemmaPic": []}, {"lemmaId": 7958806, "lemmaTitle": "心脏骤停", "lemmaCroppedTitle": "心脏骤停", "lemmaDesc": "心脏骤停是指心脏射血功能的突然终止，大动脉搏动与心音消失，重要器官（如脑）严重缺...", "lemmaUrl": "http://baike.baidu.com/item/%E5%BF%83%E8%84%8F%E9%AA%A4%E5%81%9C/7958806", "lemmaPic": []}, {"lemmaId": 5915733, "lemmaTitle": "性爱成瘾症", "lemmaCroppedTitle": "性爱成瘾症", "lemmaDesc": "性成瘾是指个体出现强烈的、被迫的连续或周期性的性冲动行为，如果这些性冲动得不到满...", "lemmaUrl": "http://baike.baidu.com/item/%E6%80%A7%E7%88%B1%E6%88%90%E7%98%BE%E7%97%87/5915733", "lemmaPic": []}, {"lemmaId": 5834362, "lemmaTitle": "氟斑牙", "lemmaCroppedTitle": "氟斑牙", "lemmaDesc": "氟斑牙又叫斑釉，与饮用水中氟含量过高有关。严重影响健康、美观，对患者造成了心理上...", "lemmaUrl": "http://baike.baidu.com/item/%E6%B0%9F%E6%96%91%E7%89%99/5834362", "lemmaPic": []}, {"lemmaId": 5084964, "lemmaTitle": "下肢深静脉血栓形成", "lemmaCroppedTitle": "下肢深静脉血栓形成", "lemmaDesc": "下肢深静脉血栓形成又称下肢深静脉血栓，是常见病，是指静脉血液在下肢深静脉血管内的...", "lemmaUrl": "http://baike.baidu.com/item/%E4%B8%8B%E8%82%A2%E6%B7%B1%E9%9D%99%E8%84%89%E8%A1%80%E6%A0%93%E5%BD%A2%E6%88%90/5084964", "lemmaPic": []}, {"lemmaId": 5909080, "lemmaTitle": "癌前病变", "lemmaCroppedTitle": "癌前病变", "lemmaDesc": "癌症，是一个在现今社会出现率极高的词汇，也是一个影响到千千万万个家庭的幸福和谐的...", "lemmaUrl": "http://baike.baidu.com/item/%E7%99%8C%E5%89%8D%E7%97%85%E5%8F%98/5909080", "lemmaPic": []}, {"lemmaId": 1823265, "lemmaTitle": "钩虫病", "lemmaCroppedTitle": "钩虫病", "lemmaDesc": "钩虫病是由钩虫寄生人体小肠所引起的疾病。临床上以贫血、营养不良、胃肠功能失调为主...", "lemmaUrl": "http://baike.baidu.com/item/%E9%92%A9%E8%99%AB%E7%97%85/1823265", "lemmaPic": []}, {"lemmaId": 7990814, "lemmaTitle": "室性心动过速", "lemmaCroppedTitle": "室性心动过速", "lemmaDesc": "室性心动过速（VT）是指发生在希氏束分叉以下的束支、心肌传导纤维、心室肌的快速性...", "lemmaUrl": "http://baike.baidu.com/item/%E5%AE%A4%E6%80%A7%E5%BF%83%E5%8A%A8%E8%BF%87%E9%80%9F/7990814", "lemmaPic": []}, {"lemmaId": 10870653, "lemmaTitle": "小儿葫芦散", "lemmaCroppedTitle": "小儿葫芦散", "lemmaDesc": "小儿葫芦散是明末清初医家傅山的秘方成药，现已被收录进《新编中成药手册》， 此方由...", "lemmaUrl": "http://baike.baidu.com/item/%E5%B0%8F%E5%84%BF%E8%91%AB%E8%8A%A6%E6%95%A3/10870653", "lemmaPic": []}, {"lemmaId": 8099628, "lemmaTitle": "产后风湿", "lemmaCroppedTitle": "产后风湿", "lemmaDesc": "产后风湿是产后或人工流产术后体虚之时，伤及关节、肌肉、皮肤等组织所引起的肌肉关节...", "lemmaUrl": "http://baike.baidu.com/item/%E4%BA%A7%E5%90%8E%E9%A3%8E%E6%B9%BF/8099628", "lemmaPic": []}, {"lemmaId": 6087323, "lemmaTitle": "消渴", "lemmaCroppedTitle": "消渴", "lemmaDesc": "消渴泛指以多饮、多食、多尿、形体消瘦，或尿有甜味为特征的疾病。本病在《内经》中称...", "lemmaUrl": "http://baike.baidu.com/item/%E6%B6%88%E6%B8%B4/6087323", "lemmaPic": []}, {"lemmaId": 8806355, "lemmaTitle": "物理治疗", "lemmaCroppedTitle": "物理治疗", "lemmaDesc": "物理治疗是康复治疗的主体，它使用包括声、光、冷、热、电、力（运动和压力）等物理因...", "lemmaUrl": "http://baike.baidu.com/item/%E7%89%A9%E7%90%86%E6%B2%BB%E7%96%97/8806355", "lemmaPic": []}, {"lemmaId": 5277453, "lemmaTitle": "阴道囊肿", "lemmaCroppedTitle": "阴道囊肿", "lemmaDesc": "阴道囊肿是阴道良性肿瘤中最常见的，正常阴道没有腺体存在，但偶可发现孤立的迷走的隐...", "lemmaUrl": "http://baike.baidu.com/item/%E9%98%B4%E9%81%93%E5%9B%8A%E8%82%BF/5277453", "lemmaPic": []}, {"lemmaId": 7915295, "lemmaTitle": "富贵病", "lemmaCroppedTitle": "富贵病", "lemmaDesc": "富贵病又称“现代文明病”，是人们进入现代文明社会，生活富裕后，吃得好、吃得精，营...", "lemmaUrl": "http://baike.baidu.com/item/%E5%AF%8C%E8%B4%B5%E7%97%85/7915295", "lemmaPic": []}, {"lemmaId": 7249836, "lemmaTitle": "高甘油三酯血症", "lemmaCroppedTitle": "高甘油三酯血症", "lemmaDesc": "高甘油三酯血症是一种异族性甘油三酯蛋白合成或降解障碍。它是冠心病、高血压、糖尿病...", "lemmaUrl": "http://baike.baidu.com/item/%E9%AB%98%E7%94%98%E6%B2%B9%E4%B8%89%E9%85%AF%E8%A1%80%E7%97%87/7249836", "lemmaPic": []}, {"lemmaId": 5086023, "lemmaTitle": "骨巨细胞瘤", "lemmaCroppedTitle": "骨巨细胞瘤", "lemmaDesc": "骨巨细胞瘤在1940年首次被Jaffe发现，为常见的原发性骨肿瘤之一，来源尚不清...", "lemmaUrl": "http://baike.baidu.com/item/%E9%AA%A8%E5%B7%A8%E7%BB%86%E8%83%9E%E7%98%A4/5086023", "lemmaPic": []}, {"lemmaId": 635594, "lemmaTitle": "喉镜", "lemmaCroppedTitle": "喉镜", "lemmaDesc": "由于喉部位置深在，生理结构复杂，不能直接窥及，喉部检查时需要借助一些特殊的检查方...", "lemmaUrl": "http://baike.baidu.com/item/%E5%96%89%E9%95%9C/635594", "lemmaPic": []}, {"lemmaId": 488202, "lemmaTitle": "弱智", "lemmaCroppedTitle": "弱智", "lemmaDesc": "弱智又称精神发育迟缓（MR）和精神发育不全，主要表现是在发育期内智力明显低于平均...", "lemmaUrl": "http://baike.baidu.com/item/%E5%BC%B1%E6%99%BA/488202", "lemmaPic": []}, {"lemmaId": 10223877, "lemmaTitle": "男性型脱发", "lemmaCroppedTitle": "男性型脱发", "lemmaDesc": "普通男性型脱发，即雄性激素一遗传性脱发，虽然发病机理不十分清楚，但已涉及雄性激素...", "lemmaUrl": "http://baike.baidu.com/item/%E7%94%B7%E6%80%A7%E5%9E%8B%E8%84%B1%E5%8F%91/10223877", "lemmaPic": []}, {"lemmaId": 598666, "lemmaTitle": "肿节风", "lemmaCroppedTitle": "肿节风", "lemmaDesc": "为金粟兰科植物草珊瑚的干燥全株。夏、秋二季采收，除去杂质，晒干。别名：接骨金粟兰...", "lemmaUrl": "http://baike.baidu.com/item/%E8%82%BF%E8%8A%82%E9%A3%8E/598666", "lemmaPic": []}, {"lemmaId": 2601448, "lemmaTitle": "急性会厌炎", "lemmaCroppedTitle": "急性会厌炎", "lemmaDesc": "急性会厌炎又称声门上喉炎或会厌前咽峡炎，是一种特殊的、主要累及喉部声门上区的会厌...", "lemmaUrl": "http://baike.baidu.com/item/%E6%80%A5%E6%80%A7%E4%BC%9A%E5%8E%8C%E7%82%8E/2601448", "lemmaPic": []}, {"lemmaId": 5014595, "lemmaTitle": "门静脉高压", "lemmaCroppedTitle": "门静脉高压", "lemmaDesc": "门静脉高压是一组由门静脉压力持久增高引起的症候群。大多数由肝硬化引起，少数继发于...", "lemmaUrl": "http://baike.baidu.com/item/%E9%97%A8%E9%9D%99%E8%84%89%E9%AB%98%E5%8E%8B/5014595", "lemmaPic": []}, {"lemmaId": 8896059, "lemmaTitle": "皮脂腺瘤", "lemmaCroppedTitle": "皮脂腺瘤", "lemmaDesc": "本病又称为皮脂腺上皮瘤，是一个独立的疾病，也有人认为是皮脂腺腺瘤的异型，或者介于...", "lemmaUrl": "http://baike.baidu.com/item/%E7%9A%AE%E8%84%82%E8%85%BA%E7%98%A4/8896059", "lemmaPic": []}, {"lemmaId": 6865662, "lemmaTitle": "虚脱", "lemmaCroppedTitle": "虚脱", "lemmaDesc": "虚脱是以面色苍白、虚汗淋漓、头昏眼花、肢冷汗出、二便失禁、神情淡漠或烦躁甚则不省...", "lemmaUrl": "http://baike.baidu.com/item/%E8%99%9A%E8%84%B1/6865662", "lemmaPic": []}, {"lemmaId": 3776246, "lemmaTitle": "妊娠呕吐", "lemmaCroppedTitle": "妊娠呕吐", "lemmaDesc": "约有半数以上妇女在怀孕早期会出现早孕反应，包括头晕、疲乏、嗜睡、食欲不振、偏食、...", "lemmaUrl": "http://baike.baidu.com/item/%E5%A6%8A%E5%A8%A0%E5%91%95%E5%90%90/3776246", "lemmaPic": []}, {"lemmaId": 2930258, "lemmaTitle": "颅脑损伤", "lemmaCroppedTitle": "颅脑损伤", "lemmaDesc": "颅脑损伤是一种常见外伤，可单独存在，也可与其他损伤复合存在。其分类根据颅脑解剖部...", "lemmaUrl": "http://baike.baidu.com/item/%E9%A2%85%E8%84%91%E6%8D%9F%E4%BC%A4/2930258", "lemmaPic": []}, {"lemmaId": 5241103, "lemmaTitle": "肝损伤", "lemmaCroppedTitle": "肝损伤", "lemmaDesc": "肝脏是腹腔内最大的实质性器官，担负人体的重要生理功能。肝细胞对缺氧的耐受力较差，...", "lemmaUrl": "http://baike.baidu.com/item/%E8%82%9D%E6%8D%9F%E4%BC%A4/5241103", "lemmaPic": []}, {"lemmaId": 592616, "lemmaTitle": "疔疮", "lemmaCroppedTitle": "疔疮", "lemmaDesc": "疔疮是好发于颜面和手足部的外科疾患。本病开始有粟米样小脓头，发病迅速，根深坚硬如...", "lemmaUrl": "http://baike.baidu.com/item/%E7%96%94%E7%96%AE/592616", "lemmaPic": []}, {"lemmaId": 5085562, "lemmaTitle": "呼吸性碱中毒", "lemmaCroppedTitle": "呼吸性碱中毒", "lemmaDesc": "呼吸性碱中毒是指由于肺通气过度使血浆H2CO3浓度或PaCO2原发性减少，而导致...", "lemmaUrl": "http://baike.baidu.com/item/%E5%91%BC%E5%90%B8%E6%80%A7%E7%A2%B1%E4%B8%AD%E6%AF%92/5085562", "lemmaPic": []}, {"lemmaId": 1834914, "lemmaTitle": "一度房室传导阻滞", "lemmaCroppedTitle": "一度房室传导阻滞", "lemmaDesc": "一度房室传导阻滞（ⅠAVB）是指房室传导时间延长，超过正常范围，但每个心房激动仍...", "lemmaUrl": "http://baike.baidu.com/item/%E4%B8%80%E5%BA%A6%E6%88%BF%E5%AE%A4%E4%BC%A0%E5%AF%BC%E9%98%BB%E6%BB%9E/1834914", "lemmaPic": []}, {"lemmaId": 10884417, "lemmaTitle": "婴儿痉挛症", "lemmaCroppedTitle": "婴儿痉挛症", "lemmaDesc": "发生在出生后几天到30个月，半岁前是发病高峰。由于婴儿整天在床上或襁褓中，年轻的...", "lemmaUrl": "http://baike.baidu.com/item/%E5%A9%B4%E5%84%BF%E7%97%89%E6%8C%9B%E7%97%87/10884417", "lemmaPic": []}, {"lemmaId": 2031388, "lemmaTitle": "泌尿系统疾病", "lemmaCroppedTitle": "泌尿系统疾病", "lemmaDesc": "泌尿系统各器官（肾脏、输尿管、膀胱、尿道）都可发生疾病，并波及整个系统。泌尿系统...", "lemmaUrl": "http://baike.baidu.com/item/%E6%B3%8C%E5%B0%BF%E7%B3%BB%E7%BB%9F%E7%96%BE%E7%97%85/2031388", "lemmaPic": []}, {"lemmaId": 4536830, "lemmaTitle": "瑞氏综合征", "lemmaCroppedTitle": "瑞氏综合征", "lemmaDesc": "瑞氏综合征（RS）是一种严重的药物不良反应，死亡率高。本病是儿童在病毒感染（如流...", "lemmaUrl": "http://baike.baidu.com/item/%E7%91%9E%E6%B0%8F%E7%BB%BC%E5%90%88%E5%BE%81/4536830", "lemmaPic": []}, {"lemmaId": 8888417, "lemmaTitle": "颌下淋巴结", "lemmaCroppedTitle": "颌下淋巴结", "lemmaDesc": "颌下淋巴结，位于颌下三角内，部分位于颈深筋膜浅层的浅面；部分位于颌下腺与下颌舌骨...", "lemmaUrl": "http://baike.baidu.com/item/%E9%A2%8C%E4%B8%8B%E6%B7%8B%E5%B7%B4%E7%BB%93/8888417", "lemmaPic": []}, {"lemmaId": 1263219, "lemmaTitle": "心肌桥", "lemmaCroppedTitle": "心肌桥", "lemmaDesc": "冠状动脉心肌桥是一种先天性的冠状动脉发育异常。冠状动脉主干及其分支通常行走于心脏...", "lemmaUrl": "http://baike.baidu.com/item/%E5%BF%83%E8%82%8C%E6%A1%A5/1263219", "lemmaPic": []}, {"lemmaId": 5278394, "lemmaTitle": "老年性白内障", "lemmaCroppedTitle": "老年性白内障", "lemmaDesc": "老年性白内障即年龄相关性白内障，是指中老年开始发生的晶状体混浊，随着年龄增加，患...", "lemmaUrl": "http://baike.baidu.com/item/%E8%80%81%E5%B9%B4%E6%80%A7%E7%99%BD%E5%86%85%E9%9A%9C/5278394", "lemmaPic": []}, {"lemmaId": 5615374, "lemmaTitle": "农药中毒", "lemmaCroppedTitle": "农药中毒", "lemmaDesc": "农药主要是指用以消灭和阻止农作物病、虫、鼠、草害的物质或化合物及卫生杀虫剂等的总...", "lemmaUrl": "http://baike.baidu.com/item/%E5%86%9C%E8%8D%AF%E4%B8%AD%E6%AF%92/5615374", "lemmaPic": []}, {"lemmaId": 10124787, "lemmaTitle": "3D眩晕症", "lemmaCroppedTitle": "3D眩晕症", "lemmaDesc": "3D眩晕症也称FPS眩晕症，是指进行拟真度比较高的3D游戏时造成患者出现眩晕症状...", "lemmaUrl": "http://baike.baidu.com/item/3D%E7%9C%A9%E6%99%95%E7%97%87/10124787", "lemmaPic": []}], "total": 7246, "totalPage": 73, "page": 12, "fromLemma": 0}