{"lemmaList": [{"lemmaId": 4274425, "lemmaTitle": "网状青斑", "lemmaCroppedTitle": "网状青斑", "lemmaDesc": "网状青斑是一种由于皮肤局部血管舒缩功能紊乱，致使细小动脉痉挛和细小静脉扩张，血液...", "lemmaUrl": "http://baike.baidu.com/item/%E7%BD%91%E7%8A%B6%E9%9D%92%E6%96%91/4274425", "lemmaPic": []}, {"lemmaId": 1023887, "lemmaTitle": "肝脏炎性假瘤", "lemmaCroppedTitle": "肝脏炎性假瘤", "lemmaDesc": "肝脏炎性假瘤（IPT）是非肝实质性细胞成分的炎性增生病变，是一种良性增生性瘤样结...", "lemmaUrl": "http://baike.baidu.com/item/%E8%82%9D%E8%84%8F%E7%82%8E%E6%80%A7%E5%81%87%E7%98%A4/1023887", "lemmaPic": []}, {"lemmaId": 3461885, "lemmaTitle": "中叶综合征", "lemmaCroppedTitle": "中叶综合征", "lemmaDesc": "中叶综合征是指因支气管本身病变或支气管外肿大淋巴结的压迫阻塞，引起右肺中叶（或左...", "lemmaUrl": "http://baike.baidu.com/item/%E4%B8%AD%E5%8F%B6%E7%BB%BC%E5%90%88%E5%BE%81/3461885", "lemmaPic": []}, {"lemmaId": 6004085, "lemmaTitle": "胸锁关节脱位", "lemmaCroppedTitle": "胸锁关节脱位", "lemmaDesc": "胸锁关节脱位包括锁骨内端向上、向前突出的前脱位和锁骨内端向下、向后突出或锁骨头向...", "lemmaUrl": "http://baike.baidu.com/item/%E8%83%B8%E9%94%81%E5%85%B3%E8%8A%82%E8%84%B1%E4%BD%8D/6004085", "lemmaPic": []}, {"lemmaId": 8255399, "lemmaTitle": "复发性风湿病", "lemmaCroppedTitle": "复发性风湿病", "lemmaDesc": "复发性风湿病又名发作性风湿症、Hench-Rosenberg综合征、Hench综...", "lemmaUrl": "http://baike.baidu.com/item/%E5%A4%8D%E5%8F%91%E6%80%A7%E9%A3%8E%E6%B9%BF%E7%97%85/8255399", "lemmaPic": []}, {"lemmaId": 2163874, "lemmaTitle": "遗传过敏性皮炎", "lemmaCroppedTitle": "遗传过敏性皮炎", "lemmaDesc": "遗传过敏性皮炎（AD）又称特应性皮炎、异位性皮炎或异位性湿疹，是一种与异位性（遗...", "lemmaUrl": "http://baike.baidu.com/item/%E9%81%97%E4%BC%A0%E8%BF%87%E6%95%8F%E6%80%A7%E7%9A%AE%E7%82%8E/2163874", "lemmaPic": []}, {"lemmaId": 7254724, "lemmaTitle": "膝外侧副韧带损伤", "lemmaCroppedTitle": "膝外侧副韧带损伤", "lemmaDesc": "膝外侧副韧带损伤比较少见，多因暴力作用于小腿内侧使之内收所造成。伸膝位时，膝关节...", "lemmaUrl": "http://baike.baidu.com/item/%E8%86%9D%E5%A4%96%E4%BE%A7%E5%89%AF%E9%9F%A7%E5%B8%A6%E6%8D%9F%E4%BC%A4/7254724", "lemmaPic": []}, {"lemmaId": 2458382, "lemmaTitle": "慢性进行性舞蹈病", "lemmaCroppedTitle": "慢性进行性舞蹈病", "lemmaDesc": "慢性进行性舞蹈病又名Huntington舞蹈病或亨廷顿病性痴呆，由Hunting...", "lemmaUrl": "http://baike.baidu.com/item/%E6%85%A2%E6%80%A7%E8%BF%9B%E8%A1%8C%E6%80%A7%E8%88%9E%E8%B9%88%E7%97%85/2458382", "lemmaPic": []}, {"lemmaId": 2065081, "lemmaTitle": "跖趾关节痛", "lemmaCroppedTitle": "跖趾关节痛", "lemmaDesc": "跖趾关节疼痛是累及跖趾关节的疼痛，是一种常见的症状，几乎全部是由于关节面异常引起...", "lemmaUrl": "http://baike.baidu.com/item/%E8%B7%96%E8%B6%BE%E5%85%B3%E8%8A%82%E7%97%9B/2065081", "lemmaPic": []}, {"lemmaId": 2105421, "lemmaTitle": "异物肉芽肿", "lemmaCroppedTitle": "异物肉芽肿", "lemmaDesc": "异物肉芽肿为异物引起的一种过敏反应，仅发生于有异物过敏素质者。非机体组织的各种物...", "lemmaUrl": "http://baike.baidu.com/item/%E5%BC%82%E7%89%A9%E8%82%89%E8%8A%BD%E8%82%BF/2105421", "lemmaPic": []}, {"lemmaId": 4626815, "lemmaTitle": "原发性纵隔肿瘤及囊肿", "lemmaCroppedTitle": "原发性纵隔肿瘤及囊肿", "lemmaDesc": "纵隔上至第一肋骨，下达横膈，前有胸骨，后有椎体，而周围有纵隔胸膜环绕。其内容可有...", "lemmaUrl": "http://baike.baidu.com/item/%E5%8E%9F%E5%8F%91%E6%80%A7%E7%BA%B5%E9%9A%94%E8%82%BF%E7%98%A4%E5%8F%8A%E5%9B%8A%E8%82%BF/4626815", "lemmaPic": []}, {"lemmaId": 8928386, "lemmaTitle": "新生儿肝炎综合征", "lemmaCroppedTitle": "新生儿肝炎综合征", "lemmaDesc": "是指新生儿期以肝内阻塞性黄疸、肝脾肿大、肝功能异常为特征的一种症候群。由于病因较...", "lemmaUrl": "http://baike.baidu.com/item/%E6%96%B0%E7%94%9F%E5%84%BF%E8%82%9D%E7%82%8E%E7%BB%BC%E5%90%88%E5%BE%81/8928386", "lemmaPic": []}, {"lemmaId": 10691385, "lemmaTitle": "加速性室性自主心律", "lemmaCroppedTitle": "加速性室性自主心律", "lemmaDesc": "加速性室性自主心律是急性心肌梗死患者24小时内常见的心律失常。多见于下壁心肌梗死...", "lemmaUrl": "http://baike.baidu.com/item/%E5%8A%A0%E9%80%9F%E6%80%A7%E5%AE%A4%E6%80%A7%E8%87%AA%E4%B8%BB%E5%BF%83%E5%BE%8B/10691385", "lemmaPic": []}, {"lemmaId": 11003984, "lemmaTitle": "肝着", "lemmaCroppedTitle": "肝着", "lemmaDesc": "肝着，出自《金匮要略》：“肝着，其人常欲蹈其胸上，先未苦时,但欲饮热,旋复花汤主...", "lemmaUrl": "http://baike.baidu.com/item/%E8%82%9D%E7%9D%80/11003984", "lemmaPic": []}, {"lemmaId": 5119857, "lemmaTitle": "男性尿道癌", "lemmaCroppedTitle": "男性尿道癌", "lemmaDesc": "原发性尿道肿瘤临床上较少见，恶性肿瘤包括癌、肉瘤、黑色素瘤等。尿道癌有多种病理学...", "lemmaUrl": "http://baike.baidu.com/item/%E7%94%B7%E6%80%A7%E5%B0%BF%E9%81%93%E7%99%8C/5119857", "lemmaPic": []}, {"lemmaId": 2601859, "lemmaTitle": "咽后脓肿", "lemmaCroppedTitle": "咽后脓肿", "lemmaDesc": "咽后脓肿为咽后间隙的化脓性炎症，因发病机制不同，分为急性和慢性两型。急性常见，为...", "lemmaUrl": "http://baike.baidu.com/item/%E5%92%BD%E5%90%8E%E8%84%93%E8%82%BF/2601859", "lemmaPic": []}, {"lemmaId": 2880625, "lemmaTitle": "脂质沉积性肌病", "lemmaCroppedTitle": "脂质沉积性肌病", "lemmaDesc": "脂质沉积性肌病（LSM）是指在肌肉中有异常含量的脂质沉积，且为主要的病理改变。本...", "lemmaUrl": "http://baike.baidu.com/item/%E8%84%82%E8%B4%A8%E6%B2%89%E7%A7%AF%E6%80%A7%E8%82%8C%E7%97%85/2880625", "lemmaPic": []}, {"lemmaId": 10993261, "lemmaTitle": "肱骨头骨折", "lemmaCroppedTitle": "肱骨头骨折", "lemmaDesc": "单纯的肱骨头骨折比较少见，是一种关节内骨折，主要因间接外力所致。骨折多见于青壮年...", "lemmaUrl": "http://baike.baidu.com/item/%E8%82%B1%E9%AA%A8%E5%A4%B4%E9%AA%A8%E6%8A%98/10993261", "lemmaPic": []}, {"lemmaId": 10455282, "lemmaTitle": "SAPHO综合征", "lemmaCroppedTitle": "SAPHO综合征", "lemmaDesc": "SAPHO综合征是主要累及皮肤、骨和关节的一种慢性疾病。SAPHO为下列5个英文...", "lemmaUrl": "http://baike.baidu.com/item/SAPHO%E7%BB%BC%E5%90%88%E5%BE%81/10455282", "lemmaPic": []}, {"lemmaId": 5242645, "lemmaTitle": "肺包虫病", "lemmaCroppedTitle": "肺包虫病", "lemmaDesc": "肺包虫病（肺包虫囊肿、肺棘球蚴病、肺棘球蚴囊肿）为细粒棘球绦虫（犬绦虫）幼虫（棘...", "lemmaUrl": "http://baike.baidu.com/item/%E8%82%BA%E5%8C%85%E8%99%AB%E7%97%85/5242645", "lemmaPic": []}, {"lemmaId": 1342874, "lemmaTitle": "慢脾风", "lemmaCroppedTitle": "慢脾风", "lemmaDesc": "慢脾风即慢惊风的脾肾阳衰证，阳虚极而生内风，为虚极之候、纯阴之症，又名脾风、虚风...", "lemmaUrl": "http://baike.baidu.com/item/%E6%85%A2%E8%84%BE%E9%A3%8E/1342874", "lemmaPic": []}, {"lemmaId": 8470080, "lemmaTitle": "巴尔通体病", "lemmaCroppedTitle": "巴尔通体病", "lemmaDesc": "巴尔通体病由杆菌状巴尔通体所致的感染，一般称为人巴尔通体病。因1855年秘鲁Da...", "lemmaUrl": "http://baike.baidu.com/item/%E5%B7%B4%E5%B0%94%E9%80%9A%E4%BD%93%E7%97%85/8470080", "lemmaPic": []}, {"lemmaId": 11006917, "lemmaTitle": "雷头风", "lemmaCroppedTitle": "雷头风", "lemmaDesc": "中医病名。指头痛兼有似雷鸣之响声，而头面则起核块或肿痛红赤的病证，由湿毒郁结于上...", "lemmaUrl": "http://baike.baidu.com/item/%E9%9B%B7%E5%A4%B4%E9%A3%8E/11006917", "lemmaPic": []}, {"lemmaId": 10357770, "lemmaTitle": "骨旁骨肉瘤", "lemmaCroppedTitle": "骨旁骨肉瘤", "lemmaDesc": "骨旁骨肉瘤起源于骨周围的骨膜，可向骨外生长，包绕骨干。本病较为罕见，可发生在任何...", "lemmaUrl": "http://baike.baidu.com/item/%E9%AA%A8%E6%97%81%E9%AA%A8%E8%82%89%E7%98%A4/10357770", "lemmaPic": []}, {"lemmaId": 4618300, "lemmaTitle": "小儿窦性心动过速", "lemmaCroppedTitle": "小儿窦性心动过速", "lemmaDesc": "小儿窦性心动过速是指窦房结搏动频率增快，是机体正常代偿性反应，婴儿每分钟心率在1...", "lemmaUrl": "http://baike.baidu.com/item/%E5%B0%8F%E5%84%BF%E7%AA%A6%E6%80%A7%E5%BF%83%E5%8A%A8%E8%BF%87%E9%80%9F/4618300", "lemmaPic": []}, {"lemmaId": 8470171, "lemmaTitle": "全身性念珠菌病", "lemmaCroppedTitle": "全身性念珠菌病", "lemmaDesc": "全身性念珠菌病是由以白念珠菌为主的念珠菌属所致的侵袭性感染。其表现为真菌血症，心...", "lemmaUrl": "http://baike.baidu.com/item/%E5%85%A8%E8%BA%AB%E6%80%A7%E5%BF%B5%E7%8F%A0%E8%8F%8C%E7%97%85/8470171", "lemmaPic": []}, {"lemmaId": 6311174, "lemmaTitle": "气压创伤性中耳炎", "lemmaCroppedTitle": "气压创伤性中耳炎", "lemmaDesc": "气压创伤性中耳炎，是由于在乘飞机、潜水、沉箱作业或高压氧治疗时，体外气压急剧变化...", "lemmaUrl": "http://baike.baidu.com/item/%E6%B0%94%E5%8E%8B%E5%88%9B%E4%BC%A4%E6%80%A7%E4%B8%AD%E8%80%B3%E7%82%8E/6311174", "lemmaPic": []}, {"lemmaId": 10059904, "lemmaTitle": "涎腺混合瘤", "lemmaCroppedTitle": "涎腺混合瘤", "lemmaDesc": "涎腺混合瘤是发生在大涎腺和小涎腺的一种良性肿瘤。因发生于外中胚叶，肿瘤内含有上皮...", "lemmaUrl": "http://baike.baidu.com/item/%E6%B6%8E%E8%85%BA%E6%B7%B7%E5%90%88%E7%98%A4/10059904", "lemmaPic": []}, {"lemmaId": 881602, "lemmaTitle": "食管血管瘤", "lemmaCroppedTitle": "食管血管瘤", "lemmaDesc": "食管血管瘤是发生于食管血管的良性肿瘤。临床上罕见，是胃肠道血管瘤中发病率最低的一...", "lemmaUrl": "http://baike.baidu.com/item/%E9%A3%9F%E7%AE%A1%E8%A1%80%E7%AE%A1%E7%98%A4/881602", "lemmaPic": []}, {"lemmaId": 2149729, "lemmaTitle": "雅司病", "lemmaCroppedTitle": "雅司病", "lemmaDesc": "雅司病是由雅司螺旋体引起的慢性接触性传染病。病原为雅司螺旋体，亦称纤细螺旋体，形...", "lemmaUrl": "http://baike.baidu.com/item/%E9%9B%85%E5%8F%B8%E7%97%85/2149729", "lemmaPic": []}, {"lemmaId": 2103408, "lemmaTitle": "肥大细胞增多症", "lemmaCroppedTitle": "肥大细胞增多症", "lemmaDesc": "肥大细胞增多症是一种病因不明的症状，其特征为机体各器官和组织内有大量肥大细胞聚集...", "lemmaUrl": "http://baike.baidu.com/item/%E8%82%A5%E5%A4%A7%E7%BB%86%E8%83%9E%E5%A2%9E%E5%A4%9A%E7%97%87/2103408", "lemmaPic": []}, {"lemmaId": 10837362, "lemmaTitle": "先天性高肩胛症", "lemmaCroppedTitle": "先天性高肩胛症", "lemmaDesc": "先天性高肩胛症为较少见的一种先天性畸形。特征是肩胛骨处于较高的位置，患侧肩关节高...", "lemmaUrl": "http://baike.baidu.com/item/%E5%85%88%E5%A4%A9%E6%80%A7%E9%AB%98%E8%82%A9%E8%83%9B%E7%97%87/10837362", "lemmaPic": []}, {"lemmaId": 5084793, "lemmaTitle": "中心性渗出性脉络膜视网膜病变", "lemmaCroppedTitle": "中心性渗出性脉络膜视网膜病变", "lemmaDesc": "中心性渗出性脉络膜视网膜病变，多单眼发病，眼底表现类似老年性黄斑变性，但病灶较老...", "lemmaUrl": "http://baike.baidu.com/item/%E4%B8%AD%E5%BF%83%E6%80%A7%E6%B8%97%E5%87%BA%E6%80%A7%E8%84%89%E7%BB%9C%E8%86%9C%E8%A7%86%E7%BD%91%E8%86%9C%E7%97%85%E5%8F%98/5084793", "lemmaPic": []}, {"lemmaId": 2226255, "lemmaTitle": "嵌顿性腹股沟斜疝", "lemmaCroppedTitle": "嵌顿性腹股沟斜疝", "lemmaDesc": "嵌顿性腹股沟斜疝是指腹腔脏器进入疝囊后，因外环狭窄，不能自行复位而停留在疝囊内，...", "lemmaUrl": "http://baike.baidu.com/item/%E5%B5%8C%E9%A1%BF%E6%80%A7%E8%85%B9%E8%82%A1%E6%B2%9F%E6%96%9C%E7%96%9D/2226255", "lemmaPic": []}, {"lemmaId": 5731984, "lemmaTitle": "寻常狼疮", "lemmaCroppedTitle": "寻常狼疮", "lemmaDesc": "为皮肤结核中较常见的一种，特征损害为许多苹果酱色结节和斑块，不规则扩展，形成瘢痕...", "lemmaUrl": "http://baike.baidu.com/item/%E5%AF%BB%E5%B8%B8%E7%8B%BC%E7%96%AE/5731984", "lemmaPic": []}, {"lemmaId": 10059084, "lemmaTitle": "原发性下肢深静脉瓣膜关闭不全", "lemmaCroppedTitle": "原发性下肢深静脉瓣膜关闭不全", "lemmaDesc": "原发性下肢深静脉瓣膜关闭不全是指深静脉瓣膜不能紧密关闭，引起血液逆流，产生相应的...", "lemmaUrl": "http://baike.baidu.com/item/%E5%8E%9F%E5%8F%91%E6%80%A7%E4%B8%8B%E8%82%A2%E6%B7%B1%E9%9D%99%E8%84%89%E7%93%A3%E8%86%9C%E5%85%B3%E9%97%AD%E4%B8%8D%E5%85%A8/10059084", "lemmaPic": []}, {"lemmaId": 5412918, "lemmaTitle": "鼓室硬化症", "lemmaCroppedTitle": "鼓室硬化症", "lemmaDesc": "鼓室硬化亦称鼓室玻璃变性，系鼓室黏膜上皮下沉积有斑块状胶原组织，多发生在鼓室黏膜...", "lemmaUrl": "http://baike.baidu.com/item/%E9%BC%93%E5%AE%A4%E7%A1%AC%E5%8C%96%E7%97%87/5412918", "lemmaPic": []}, {"lemmaId": 2923452, "lemmaTitle": "新生儿青紫", "lemmaCroppedTitle": "新生儿青紫", "lemmaDesc": "青紫是新生儿期的常见症状之一，是新生儿毛细血管血液中还原血红蛋白增多超过一定水平...", "lemmaUrl": "http://baike.baidu.com/item/%E6%96%B0%E7%94%9F%E5%84%BF%E9%9D%92%E7%B4%AB/2923452", "lemmaPic": []}, {"lemmaId": 378112, "lemmaTitle": "腺性唇炎", "lemmaCroppedTitle": "腺性唇炎", "lemmaDesc": "腺性唇炎是唇腺增生伴有长期细菌感染所致的一种疾病表现。长期日晒、风沙和尘土以及吸...", "lemmaUrl": "http://baike.baidu.com/item/%E8%85%BA%E6%80%A7%E5%94%87%E7%82%8E/378112", "lemmaPic": []}, {"lemmaId": 5463405, "lemmaTitle": "原发性青少年型青光眼", "lemmaCroppedTitle": "原发性青少年型青光眼", "lemmaDesc": "原发性青少年型青光眼是指3岁以后甚至成人早期发病的先天性青光眼，发病机制与原发性...", "lemmaUrl": "http://baike.baidu.com/item/%E5%8E%9F%E5%8F%91%E6%80%A7%E9%9D%92%E5%B0%91%E5%B9%B4%E5%9E%8B%E9%9D%92%E5%85%89%E7%9C%BC/5463405", "lemmaPic": []}, {"lemmaId": 7499000, "lemmaTitle": "永存原始玻璃体增生症", "lemmaCroppedTitle": "永存原始玻璃体增生症", "lemmaDesc": "永存原始玻璃体增生症（persistent hyperplasia of pri...", "lemmaUrl": "http://baike.baidu.com/item/%E6%B0%B8%E5%AD%98%E5%8E%9F%E5%A7%8B%E7%8E%BB%E7%92%83%E4%BD%93%E5%A2%9E%E7%94%9F%E7%97%87/7499000", "lemmaPic": []}, {"lemmaId": 5359103, "lemmaTitle": "小儿金黄色葡萄球菌肺炎", "lemmaCroppedTitle": "小儿金黄色葡萄球菌肺炎", "lemmaDesc": "金黄色葡萄球菌肺炎是由金黄色葡萄球菌所致的肺炎。本病大多并发于葡萄球菌败血症，是...", "lemmaUrl": "http://baike.baidu.com/item/%E5%B0%8F%E5%84%BF%E9%87%91%E9%BB%84%E8%89%B2%E8%91%A1%E8%90%84%E7%90%83%E8%8F%8C%E8%82%BA%E7%82%8E/5359103", "lemmaPic": []}, {"lemmaId": 1926851, "lemmaTitle": "原发性甲状旁腺机能亢进症", "lemmaCroppedTitle": "原发性甲状旁腺机能亢进症", "lemmaDesc": "一、概述原发性甲状旁腺功能亢进，在临床上极易被忽略，但当出现不明原因的骨痛、病理...", "lemmaUrl": "http://baike.baidu.com/item/%E5%8E%9F%E5%8F%91%E6%80%A7%E7%94%B2%E7%8A%B6%E6%97%81%E8%85%BA%E6%9C%BA%E8%83%BD%E4%BA%A2%E8%BF%9B%E7%97%87/1926851", "lemmaPic": []}, {"lemmaId": 5278543, "lemmaTitle": "低眼压性青光眼", "lemmaCroppedTitle": "低眼压性青光眼", "lemmaDesc": "低眼压性青光眼又称正常眼压性青光眼，是具有典型的青光眼性视盘（曾称视乳头）损害和...", "lemmaUrl": "http://baike.baidu.com/item/%E4%BD%8E%E7%9C%BC%E5%8E%8B%E6%80%A7%E9%9D%92%E5%85%89%E7%9C%BC/5278543", "lemmaPic": []}, {"lemmaId": 5986208, "lemmaTitle": "舌病", "lemmaCroppedTitle": "舌病", "lemmaDesc": "舌是构成口腔的重要器官之一，也是口腔黏膜最易发生病变的部位，常见的病变包括：地图...", "lemmaUrl": "http://baike.baidu.com/item/%E8%88%8C%E7%97%85/5986208", "lemmaPic": []}, {"lemmaId": 4274337, "lemmaTitle": "弥漫性胸膜间皮瘤", "lemmaCroppedTitle": "弥漫性胸膜间皮瘤", "lemmaDesc": "弥漫性胸膜间皮瘤以往被称为恶性间皮瘤，是一种缓慢致死性肿瘤，虽发病率不高，但仍较...", "lemmaUrl": "http://baike.baidu.com/item/%E5%BC%A5%E6%BC%AB%E6%80%A7%E8%83%B8%E8%86%9C%E9%97%B4%E7%9A%AE%E7%98%A4/4274337", "lemmaPic": []}, {"lemmaId": 2596206, "lemmaTitle": "化脓性眼内炎", "lemmaCroppedTitle": "化脓性眼内炎", "lemmaDesc": "化脓性眼内炎是由于致病菌侵入玻璃体后引起的炎症和形成脓肿。它是临床最常见的眼内化...", "lemmaUrl": "http://baike.baidu.com/item/%E5%8C%96%E8%84%93%E6%80%A7%E7%9C%BC%E5%86%85%E7%82%8E/2596206", "lemmaPic": []}, {"lemmaId": 9888059, "lemmaTitle": "髌骨骨软骨病", "lemmaCroppedTitle": "髌骨骨软骨病", "lemmaDesc": "髌骨骨软骨病又称Sinding-Larsen病，是髌骨上下极受过度张力或压力而致...", "lemmaUrl": "http://baike.baidu.com/item/%E9%AB%8C%E9%AA%A8%E9%AA%A8%E8%BD%AF%E9%AA%A8%E7%97%85/9888059", "lemmaPic": []}, {"lemmaId": 1354105, "lemmaTitle": "慢性颈部软组织损伤", "lemmaCroppedTitle": "慢性颈部软组织损伤", "lemmaDesc": "慢性损伤是指超过正常生理活动范围最大限度或局部所能耐受值的各种超限活动的损伤，长...", "lemmaUrl": "http://baike.baidu.com/item/%E6%85%A2%E6%80%A7%E9%A2%88%E9%83%A8%E8%BD%AF%E7%BB%84%E7%BB%87%E6%8D%9F%E4%BC%A4/1354105", "lemmaPic": []}, {"lemmaId": 10599718, "lemmaTitle": "长Q-T间期综合征", "lemmaCroppedTitle": "长Q-T间期综合征", "lemmaDesc": "长Q-T间期综合征（LQTS）又称为复极延迟综合征，是指心电图上QT间期延长，伴...", "lemmaUrl": "http://baike.baidu.com/item/%E9%95%BFQ-T%E9%97%B4%E6%9C%9F%E7%BB%BC%E5%90%88%E5%BE%81/10599718", "lemmaPic": []}, {"lemmaId": 922954, "lemmaTitle": "胃内异物", "lemmaCroppedTitle": "胃内异物", "lemmaDesc": "胃内异物分为外源性、内源性，及在胃内形成的异物即胃石症。临床上常见柿石、毛发石及...", "lemmaUrl": "http://baike.baidu.com/item/%E8%83%83%E5%86%85%E5%BC%82%E7%89%A9/922954", "lemmaPic": []}, {"lemmaId": 1604960, "lemmaTitle": "二尖瓣环钙化", "lemmaCroppedTitle": "二尖瓣环钙化", "lemmaDesc": "二尖瓣环钙化是二尖瓣纤维支持结构的一种慢性纤维性非炎症性、退行性病变，一般多见于...", "lemmaUrl": "http://baike.baidu.com/item/%E4%BA%8C%E5%B0%96%E7%93%A3%E7%8E%AF%E9%92%99%E5%8C%96/1604960", "lemmaPic": []}, {"lemmaId": 3784154, "lemmaTitle": "原发性骨髓纤维化症", "lemmaCroppedTitle": "原发性骨髓纤维化症", "lemmaDesc": "原发性骨髓纤维化（PMF）是骨髓增殖性肿瘤（MPN）的一种，主要表现为骨髓中巨核...", "lemmaUrl": "http://baike.baidu.com/item/%E5%8E%9F%E5%8F%91%E6%80%A7%E9%AA%A8%E9%AB%93%E7%BA%A4%E7%BB%B4%E5%8C%96%E7%97%87/3784154", "lemmaPic": []}, {"lemmaId": 2262606, "lemmaTitle": "青春期功能失调性子宫出血", "lemmaCroppedTitle": "青春期功能失调性子宫出血", "lemmaDesc": "本病是由于青春期女性的下丘脑-垂体-性腺轴发育尚未成熟，卵泡不能发育成熟导致无排...", "lemmaUrl": "http://baike.baidu.com/item/%E9%9D%92%E6%98%A5%E6%9C%9F%E5%8A%9F%E8%83%BD%E5%A4%B1%E8%B0%83%E6%80%A7%E5%AD%90%E5%AE%AB%E5%87%BA%E8%A1%80/2262606", "lemmaPic": []}, {"lemmaId": 7990762, "lemmaTitle": "小儿低血糖症", "lemmaCroppedTitle": "小儿低血糖症", "lemmaDesc": "小儿低血糖是指不同原因引起的血糖浓度低于正常。出生后1～2小时血糖降至最低点，然...", "lemmaUrl": "http://baike.baidu.com/item/%E5%B0%8F%E5%84%BF%E4%BD%8E%E8%A1%80%E7%B3%96%E7%97%87/7990762", "lemmaPic": []}, {"lemmaId": 4877299, "lemmaTitle": "郎-奥韦综合征", "lemmaCroppedTitle": "郎-奥韦综合征", "lemmaDesc": "郎-奥韦综合征也称遗传性出血性毛细血管扩张症、Babington病、Goldst...", "lemmaUrl": "http://baike.baidu.com/item/%E9%83%8E-%E5%A5%A5%E9%9F%A6%E7%BB%BC%E5%90%88%E5%BE%81/4877299", "lemmaPic": []}, {"lemmaId": 9768330, "lemmaTitle": "淋病合并症精囊炎", "lemmaCroppedTitle": "淋病合并症精囊炎", "lemmaDesc": "淋病是淋菌性尿道炎的简称，为通过性传播的疾病，男性患有淋菌性尿道炎，如治疗不及时...", "lemmaUrl": "http://baike.baidu.com/item/%E6%B7%8B%E7%97%85%E5%90%88%E5%B9%B6%E7%97%87%E7%B2%BE%E5%9B%8A%E7%82%8E/9768330", "lemmaPic": []}, {"lemmaId": 8532027, "lemmaTitle": "儿童期情绪障碍", "lemmaCroppedTitle": "儿童期情绪障碍", "lemmaDesc": "情绪障碍主要是由心理因素如某些精神刺激，或因家庭教育不当等所造成的情绪异常的表现...", "lemmaUrl": "http://baike.baidu.com/item/%E5%84%BF%E7%AB%A5%E6%9C%9F%E6%83%85%E7%BB%AA%E9%9A%9C%E7%A2%8D/8532027", "lemmaPic": []}, {"lemmaId": 5085899, "lemmaTitle": "系统性红斑狼疮性关节炎", "lemmaCroppedTitle": "系统性红斑狼疮性关节炎", "lemmaDesc": "系统性红斑狼疮性关节炎是系统性红斑狼疮（SLE）疾病时期的一种表现，而系统性红斑...", "lemmaUrl": "http://baike.baidu.com/item/%E7%B3%BB%E7%BB%9F%E6%80%A7%E7%BA%A2%E6%96%91%E7%8B%BC%E7%96%AE%E6%80%A7%E5%85%B3%E8%8A%82%E7%82%8E/5085899", "lemmaPic": []}, {"lemmaId": 1981628, "lemmaTitle": "虚喘", "lemmaCroppedTitle": "虚喘", "lemmaDesc": "喘即气喘、喘息。喘证是以呼吸困难、甚至张口抬肩，鼻翼扇动，不能平卧为临床特征的病...", "lemmaUrl": "http://baike.baidu.com/item/%E8%99%9A%E5%96%98/1981628", "lemmaPic": []}, {"lemmaId": 9882299, "lemmaTitle": "原发性骨髓纤维化", "lemmaCroppedTitle": "原发性骨髓纤维化", "lemmaDesc": "原发性骨髓纤维化（IMF）又称原发性慢性骨髓纤维化。是一种原因不明的克隆性造血干...", "lemmaUrl": "http://baike.baidu.com/item/%E5%8E%9F%E5%8F%91%E6%80%A7%E9%AA%A8%E9%AB%93%E7%BA%A4%E7%BB%B4%E5%8C%96/9882299", "lemmaPic": []}, {"lemmaId": 3937008, "lemmaTitle": "外阴白化病", "lemmaCroppedTitle": "外阴白化病", "lemmaDesc": "外阴白化病为先天性、隐性遗传性疾病。属常染色体隐性遗传。为先天性色素缺乏、毛囊黑...", "lemmaUrl": "http://baike.baidu.com/item/%E5%A4%96%E9%98%B4%E7%99%BD%E5%8C%96%E7%97%85/3937008", "lemmaPic": []}, {"lemmaId": 8470523, "lemmaTitle": "联合免疫缺陷病", "lemmaCroppedTitle": "联合免疫缺陷病", "lemmaDesc": "联合免疫缺陷病指一组兼有抗体免疫缺陷和细胞免疫缺陷的临床表现的疾病。又可分为严重...", "lemmaUrl": "http://baike.baidu.com/item/%E8%81%94%E5%90%88%E5%85%8D%E7%96%AB%E7%BC%BA%E9%99%B7%E7%97%85/8470523", "lemmaPic": []}, {"lemmaId": 5360674, "lemmaTitle": "伤寒与副伤寒", "lemmaCroppedTitle": "伤寒与副伤寒", "lemmaDesc": "伤寒是由肠沙门菌肠亚种伤寒血清型引起的肠道传染病。副伤寒是由肠沙门菌肠亚种副伤寒...", "lemmaUrl": "http://baike.baidu.com/item/%E4%BC%A4%E5%AF%92%E4%B8%8E%E5%89%AF%E4%BC%A4%E5%AF%92/5360674", "lemmaPic": []}, {"lemmaId": 10682679, "lemmaTitle": "过敏性血管炎", "lemmaCroppedTitle": "过敏性血管炎", "lemmaDesc": "过敏性血管炎是最常见的血管炎之一，曾用名有白细胞破碎性血管炎，坏死性结节性皮炎，...", "lemmaUrl": "http://baike.baidu.com/item/%E8%BF%87%E6%95%8F%E6%80%A7%E8%A1%80%E7%AE%A1%E7%82%8E/10682679", "lemmaPic": []}, {"lemmaId": 507697, "lemmaTitle": "先天性肌强直", "lemmaCroppedTitle": "先天性肌强直", "lemmaDesc": "先天性肌强直又称为Thomsen病，是以肌强直和肌肥大为主要临床表现的一种遗传性...", "lemmaUrl": "http://baike.baidu.com/item/%E5%85%88%E5%A4%A9%E6%80%A7%E8%82%8C%E5%BC%BA%E7%9B%B4/507697", "lemmaPic": []}, {"lemmaId": 11043216, "lemmaTitle": "阴道腺病", "lemmaCroppedTitle": "阴道腺病", "lemmaDesc": "阴道腺病，是指阴道壁或宫颈阴道部表面或表皮黏膜下结缔组织内出现腺体组织或增生的腺...", "lemmaUrl": "http://baike.baidu.com/item/%E9%98%B4%E9%81%93%E8%85%BA%E7%97%85/11043216", "lemmaPic": []}, {"lemmaId": 8531474, "lemmaTitle": "外伤后颅内积气", "lemmaCroppedTitle": "外伤后颅内积气", "lemmaDesc": "外伤后颅内积气又称外伤性气颅，几乎均因颅底骨折累及鼻旁窦或乳突气房而致，故常合并...", "lemmaUrl": "http://baike.baidu.com/item/%E5%A4%96%E4%BC%A4%E5%90%8E%E9%A2%85%E5%86%85%E7%A7%AF%E6%B0%94/8531474", "lemmaPic": []}, {"lemmaId": 9327607, "lemmaTitle": "羊胡疮", "lemmaCroppedTitle": "羊胡疮", "lemmaDesc": "羊胡疮是一种发生在口唇周围胡须部位毛囊及其周围的化脓性皮肤病。以反复起脓疱，缠绵...", "lemmaUrl": "http://baike.baidu.com/item/%E7%BE%8A%E8%83%A1%E7%96%AE/9327607", "lemmaPic": []}, {"lemmaId": 1463055, "lemmaTitle": "结肠过敏症", "lemmaCroppedTitle": "结肠过敏症", "lemmaDesc": "结肠过敏症是临床上常见的一种肠道功能性疾病，以肠道壁无器质性病变、肠功能紊乱为特...", "lemmaUrl": "http://baike.baidu.com/item/%E7%BB%93%E8%82%A0%E8%BF%87%E6%95%8F%E7%97%87/1463055", "lemmaPic": []}, {"lemmaId": 8466434, "lemmaTitle": "家族性地中海热", "lemmaCroppedTitle": "家族性地中海热", "lemmaDesc": "家族性地中海热（FMF）是一种病因不明的自发的常染色体隐性遗传疾病，大多数发生于...", "lemmaUrl": "http://baike.baidu.com/item/%E5%AE%B6%E6%97%8F%E6%80%A7%E5%9C%B0%E4%B8%AD%E6%B5%B7%E7%83%AD/8466434", "lemmaPic": []}, {"lemmaId": 1050916, "lemmaTitle": "妊娠合并生殖器疱疹", "lemmaCroppedTitle": "妊娠合并生殖器疱疹", "lemmaDesc": "生殖器疱疹又称阴部疱疹，是由单纯疱疹病毒引起的性传播性疾病。本病主要是通过性器官...", "lemmaUrl": "http://baike.baidu.com/item/%E5%A6%8A%E5%A8%A0%E5%90%88%E5%B9%B6%E7%94%9F%E6%AE%96%E5%99%A8%E7%96%B1%E7%96%B9/1050916", "lemmaPic": []}, {"lemmaId": 2826055, "lemmaTitle": "脑血吸虫病", "lemmaCroppedTitle": "脑血吸虫病", "lemmaDesc": "脑血吸虫病是血吸虫卵在脑组织中沉积所引起的虫卵性肉芽肿和炎性反应。一般认为主要来...", "lemmaUrl": "http://baike.baidu.com/item/%E8%84%91%E8%A1%80%E5%90%B8%E8%99%AB%E7%97%85/2826055", "lemmaPic": []}, {"lemmaId": 7833005, "lemmaTitle": "颌骨造釉细胞瘤", "lemmaCroppedTitle": "颌骨造釉细胞瘤", "lemmaDesc": "颌骨造釉细胞瘤为颌骨中心性上皮肿瘤，在牙源性肿瘤中较为常见。按照世界卫生组织及国...", "lemmaUrl": "http://baike.baidu.com/item/%E9%A2%8C%E9%AA%A8%E9%80%A0%E9%87%89%E7%BB%86%E8%83%9E%E7%98%A4/7833005", "lemmaPic": []}, {"lemmaId": 1641781, "lemmaTitle": "后十字韧带损伤", "lemmaCroppedTitle": "后十字韧带损伤", "lemmaDesc": "膝关节内有前、后十字韧带（又称交叉韧带），前十字韧带起自胫骨髁间隆起的前方，向后...", "lemmaUrl": "http://baike.baidu.com/item/%E5%90%8E%E5%8D%81%E5%AD%97%E9%9F%A7%E5%B8%A6%E6%8D%9F%E4%BC%A4/1641781", "lemmaPic": []}, {"lemmaId": 9335343, "lemmaTitle": "特发性低促性腺激素性性腺功能减退", "lemmaCroppedTitle": "特发性低促性腺激素性性腺功能减退", "lemmaDesc": "特发性低促性腺激素性性腺功能减退（IHH）是下丘脑促性腺激素释放激素（GnRH）...", "lemmaUrl": "http://baike.baidu.com/item/%E7%89%B9%E5%8F%91%E6%80%A7%E4%BD%8E%E4%BF%83%E6%80%A7%E8%85%BA%E6%BF%80%E7%B4%A0%E6%80%A7%E6%80%A7%E8%85%BA%E5%8A%9F%E8%83%BD%E5%87%8F%E9%80%80/9335343", "lemmaPic": []}, {"lemmaId": 2963695, "lemmaTitle": "骨与关节结核", "lemmaCroppedTitle": "骨与关节结核", "lemmaDesc": "在结核患者中估计有3%患骨关节结核，因而目前在我国骨关节结核仍然是常见病，多见于...", "lemmaUrl": "http://baike.baidu.com/item/%E9%AA%A8%E4%B8%8E%E5%85%B3%E8%8A%82%E7%BB%93%E6%A0%B8/2963695", "lemmaPic": []}, {"lemmaId": 9270747, "lemmaTitle": "外阴接触性皮炎", "lemmaCroppedTitle": "外阴接触性皮炎", "lemmaDesc": "外阴接触性皮炎是外阴皮肤或黏膜接触外源性物质后在接触部位发生的炎症性反应，表现为...", "lemmaUrl": "http://baike.baidu.com/item/%E5%A4%96%E9%98%B4%E6%8E%A5%E8%A7%A6%E6%80%A7%E7%9A%AE%E7%82%8E/9270747", "lemmaPic": []}, {"lemmaId": 2216164, "lemmaTitle": "抗胰蛋白酶缺乏症", "lemmaCroppedTitle": "抗胰蛋白酶缺乏症", "lemmaDesc": "自1963年以来Laurell与Eriksson发现α1-抗胰蛋白酶（α1-an...", "lemmaUrl": "http://baike.baidu.com/item/%E6%8A%97%E8%83%B0%E8%9B%8B%E7%99%BD%E9%85%B6%E7%BC%BA%E4%B9%8F%E7%97%87/2216164", "lemmaPic": []}, {"lemmaId": 4575334, "lemmaTitle": "新生儿血小板减少性紫癜", "lemmaCroppedTitle": "新生儿血小板减少性紫癜", "lemmaDesc": "新生儿时期，由血小板生成减少和（或）破坏增加所致的新生儿紫癜，称为新生儿血小板减...", "lemmaUrl": "http://baike.baidu.com/item/%E6%96%B0%E7%94%9F%E5%84%BF%E8%A1%80%E5%B0%8F%E6%9D%BF%E5%87%8F%E5%B0%91%E6%80%A7%E7%B4%AB%E7%99%9C/4575334", "lemmaPic": []}, {"lemmaId": 12428568, "lemmaTitle": "人类T淋巴细胞病毒感染", "lemmaCroppedTitle": "人类T淋巴细胞病毒感染", "lemmaDesc": "人类亲T细胞病毒（HTLV）是致瘤性RNA病毒，属慢病毒亚科，可分为HTLV-Ⅰ...", "lemmaUrl": "http://baike.baidu.com/item/%E4%BA%BA%E7%B1%BBT%E6%B7%8B%E5%B7%B4%E7%BB%86%E8%83%9E%E7%97%85%E6%AF%92%E6%84%9F%E6%9F%93/12428568", "lemmaPic": []}, {"lemmaId": 465901, "lemmaTitle": "流感嗜血杆菌肺炎", "lemmaCroppedTitle": "流感嗜血杆菌肺炎", "lemmaDesc": "流感嗜血杆菌肺炎是由流感嗜血杆菌引起的肺部炎症。本病有两个高发年龄组，即6个月～...", "lemmaUrl": "http://baike.baidu.com/item/%E6%B5%81%E6%84%9F%E5%97%9C%E8%A1%80%E6%9D%86%E8%8F%8C%E8%82%BA%E7%82%8E/465901", "lemmaPic": []}, {"lemmaId": 4441725, "lemmaTitle": "髌腱断裂", "lemmaCroppedTitle": "髌腱断裂", "lemmaDesc": "髌腱断裂通常是髌骨下缘撕脱，亦可见于髌腱远端的胫骨结节撕脱。由于股四头肌的收缩，...", "lemmaUrl": "http://baike.baidu.com/item/%E9%AB%8C%E8%85%B1%E6%96%AD%E8%A3%82/4441725", "lemmaPic": []}, {"lemmaId": 8451816, "lemmaTitle": "罗阿丝虫病", "lemmaCroppedTitle": "罗阿丝虫病", "lemmaDesc": "罗阿丝虫病又称卡拉把丝虫肿、热带肿或短时性肿胀，是由罗阿丝虫感染所引起的慢性寄生...", "lemmaUrl": "http://baike.baidu.com/item/%E7%BD%97%E9%98%BF%E4%B8%9D%E8%99%AB%E7%97%85/8451816", "lemmaPic": []}, {"lemmaId": 2393701, "lemmaTitle": "水疥", "lemmaCroppedTitle": "水疥", "lemmaDesc": "水疥是一种以肤起栗疹、顶有水疱、瘙痒如疥为特征的皮肤病。多发夏秋闷热之季，婴幼儿...", "lemmaUrl": "http://baike.baidu.com/item/%E6%B0%B4%E7%96%A5/2393701", "lemmaPic": []}, {"lemmaId": 5241380, "lemmaTitle": "胃平滑肌肉瘤", "lemmaCroppedTitle": "胃平滑肌肉瘤", "lemmaDesc": "胃平滑肌肉瘤是起源于胃平滑肌组织的恶性肿瘤。胃平滑肌肉瘤多从胃固有肌层发生，较为...", "lemmaUrl": "http://baike.baidu.com/item/%E8%83%83%E5%B9%B3%E6%BB%91%E8%82%8C%E8%82%89%E7%98%A4/5241380", "lemmaPic": []}, {"lemmaId": 5055773, "lemmaTitle": "非IgA系膜增生性肾炎", "lemmaCroppedTitle": "非IgA系膜增生性肾炎", "lemmaDesc": "非IgA系膜增生性肾炎是指光镜下病理学改变以弥漫性系膜细胞增生和（或）系膜基质增...", "lemmaUrl": "http://baike.baidu.com/item/%E9%9D%9EIgA%E7%B3%BB%E8%86%9C%E5%A2%9E%E7%94%9F%E6%80%A7%E8%82%BE%E7%82%8E/5055773", "lemmaPic": []}, {"lemmaId": 8531922, "lemmaTitle": "先天性风疹综合征", "lemmaCroppedTitle": "先天性风疹综合征", "lemmaDesc": "先天性风疹综合征系孕妇在妊娠早期感染风疹，病毒通过胎盘感染胎儿而致先天性风疹或称...", "lemmaUrl": "http://baike.baidu.com/item/%E5%85%88%E5%A4%A9%E6%80%A7%E9%A3%8E%E7%96%B9%E7%BB%BC%E5%90%88%E5%BE%81/8531922", "lemmaPic": []}, {"lemmaId": 10991373, "lemmaTitle": "疫毒痢", "lemmaCroppedTitle": "疫毒痢", "lemmaDesc": "疫毒痢又称疫痢、时疫痢，具有较强的传染性。常发于夏秋季节，以2～7岁儿童为多见。...", "lemmaUrl": "http://baike.baidu.com/item/%E7%96%AB%E6%AF%92%E7%97%A2/10991373", "lemmaPic": []}, {"lemmaId": 2253477, "lemmaTitle": "慢性心包炎", "lemmaCroppedTitle": "慢性心包炎", "lemmaDesc": "心包炎症持续3个月以上称为慢性心包炎（chronic pericarditis）...", "lemmaUrl": "http://baike.baidu.com/item/%E6%85%A2%E6%80%A7%E5%BF%83%E5%8C%85%E7%82%8E/2253477", "lemmaPic": []}, {"lemmaId": 6844560, "lemmaTitle": "眼眶皮样囊肿", "lemmaCroppedTitle": "眼眶皮样囊肿", "lemmaDesc": "眼眶皮样囊肿是一种先天性囊肿，是一种较为常见的眼科疾病。眼眶皮样囊肿虽起源于胚胎...", "lemmaUrl": "http://baike.baidu.com/item/%E7%9C%BC%E7%9C%B6%E7%9A%AE%E6%A0%B7%E5%9B%8A%E8%82%BF/6844560", "lemmaPic": []}, {"lemmaId": 8081891, "lemmaTitle": "血吸虫尾蚴性皮炎", "lemmaCroppedTitle": "血吸虫尾蚴性皮炎", "lemmaDesc": "血吸虫尾蚴性皮炎是指禽、畜类血吸虫的尾蚴侵入人体皮肤引起的一种变态反应性炎症。因...", "lemmaUrl": "http://baike.baidu.com/item/%E8%A1%80%E5%90%B8%E8%99%AB%E5%B0%BE%E8%9A%B4%E6%80%A7%E7%9A%AE%E7%82%8E/8081891", "lemmaPic": []}, {"lemmaId": 3830763, "lemmaTitle": "β受体亢进症", "lemmaCroppedTitle": "β受体亢进症", "lemmaDesc": "β受体亢进症是机体内源性儿茶酚胺分泌正常而β-受体对其刺激过度敏感致使心率增快、...", "lemmaUrl": "http://baike.baidu.com/item/%CE%B2%E5%8F%97%E4%BD%93%E4%BA%A2%E8%BF%9B%E7%97%87/3830763", "lemmaPic": []}, {"lemmaId": 6003728, "lemmaTitle": "红蝴蝶疮", "lemmaCroppedTitle": "红蝴蝶疮", "lemmaDesc": "红蝴蝶疮，又名蝶斑疮。是一种以面及手等暴露部位皮肤红斑、鳞屑、萎缩，状似蝴蝶，可...", "lemmaUrl": "http://baike.baidu.com/item/%E7%BA%A2%E8%9D%B4%E8%9D%B6%E7%96%AE/6003728", "lemmaPic": []}, {"lemmaId": 3427074, "lemmaTitle": "恶性萎缩性丘疹病", "lemmaCroppedTitle": "恶性萎缩性丘疹病", "lemmaDesc": "恶性萎缩性丘疹病又称德戈（Dego）病、克耳米埃尔综合征，本病是皮肤-肠道或其他...", "lemmaUrl": "http://baike.baidu.com/item/%E6%81%B6%E6%80%A7%E8%90%8E%E7%BC%A9%E6%80%A7%E4%B8%98%E7%96%B9%E7%97%85/3427074", "lemmaPic": []}, {"lemmaId": 6261398, "lemmaTitle": "Leber遗传性视神经病变", "lemmaCroppedTitle": "Leber遗传性视神经病变", "lemmaDesc": "Leber遗传性视神经病变（LHON）为视神经退行性变的母系遗传性疾病。男性患者...", "lemmaUrl": "http://baike.baidu.com/item/Leber%E9%81%97%E4%BC%A0%E6%80%A7%E8%A7%86%E7%A5%9E%E7%BB%8F%E7%97%85%E5%8F%98/6261398", "lemmaPic": []}, {"lemmaId": 2253306, "lemmaTitle": "联合瓣膜病变", "lemmaCroppedTitle": "联合瓣膜病变", "lemmaDesc": "一种获得性心脏病，系指两个或两个以上瓣膜有病损，以二尖瓣狭窄合并主动脉瓣关闭不全...", "lemmaUrl": "http://baike.baidu.com/item/%E8%81%94%E5%90%88%E7%93%A3%E8%86%9C%E7%97%85%E5%8F%98/2253306", "lemmaPic": []}, {"lemmaId": 789283, "lemmaTitle": "胞生痰核", "lemmaCroppedTitle": "胞生痰核", "lemmaDesc": "胞生痰核，中医病名，是指胞睑内起核性硬结，逐渐长大而不红不痛的慢性外障眼病。一般...", "lemmaUrl": "http://baike.baidu.com/item/%E8%83%9E%E7%94%9F%E7%97%B0%E6%A0%B8/789283", "lemmaPic": []}, {"lemmaId": 4606496, "lemmaTitle": "肺囊性纤维化", "lemmaCroppedTitle": "肺囊性纤维化", "lemmaDesc": "肺囊性纤维化（CPF或CF），是一种具有家族常染色体隐性遗传性的先天性疾病。在北...", "lemmaUrl": "http://baike.baidu.com/item/%E8%82%BA%E5%9B%8A%E6%80%A7%E7%BA%A4%E7%BB%B4%E5%8C%96/4606496", "lemmaPic": []}, {"lemmaId": 844580, "lemmaTitle": "先天性多发性关节挛缩症", "lemmaCroppedTitle": "先天性多发性关节挛缩症", "lemmaDesc": "先天性多发性关节挛缩症是指因肌肉、关节囊及韧带纤维化，引起以全身多个关节僵直为特...", "lemmaUrl": "http://baike.baidu.com/item/%E5%85%88%E5%A4%A9%E6%80%A7%E5%A4%9A%E5%8F%91%E6%80%A7%E5%85%B3%E8%8A%82%E6%8C%9B%E7%BC%A9%E7%97%87/844580", "lemmaPic": []}], "total": 7246, "totalPage": 73, "page": 36, "fromLemma": 0}