{"lemmaList": [{"lemmaId": 8408130, "lemmaTitle": "湄公血吸虫病", "lemmaCroppedTitle": "湄公血吸虫病", "lemmaDesc": "湄公血吸虫病于1950年在泰国南部首先发现。本病在老挝湄公河的江岛流行。1978...", "lemmaUrl": "http://baike.baidu.com/item/%E6%B9%84%E5%85%AC%E8%A1%80%E5%90%B8%E8%99%AB%E7%97%85/8408130", "lemmaPic": []}, {"lemmaId": 7962428, "lemmaTitle": "新生儿柯萨奇病毒B感染", "lemmaCroppedTitle": "新生儿柯萨奇病毒B感染", "lemmaDesc": "柯萨奇病毒B(CVB)感染自1954年美国纽约州柯萨奇镇发生被报道以来，除引起新...", "lemmaUrl": "http://baike.baidu.com/item/%E6%96%B0%E7%94%9F%E5%84%BF%E6%9F%AF%E8%90%A8%E5%A5%87%E7%97%85%E6%AF%92B%E6%84%9F%E6%9F%93/7962428", "lemmaPic": []}, {"lemmaId": 883748, "lemmaTitle": "妊娠期肝血肿及破裂", "lemmaCroppedTitle": "妊娠期肝血肿及破裂", "lemmaDesc": "妊娠期肝血肿及破裂是一种罕见而严重的并发症，多发生于严重妊娠高血压综合征（如HE...", "lemmaUrl": "http://baike.baidu.com/item/%E5%A6%8A%E5%A8%A0%E6%9C%9F%E8%82%9D%E8%A1%80%E8%82%BF%E5%8F%8A%E7%A0%B4%E8%A3%82/883748", "lemmaPic": []}, {"lemmaId": 2945932, "lemmaTitle": "心-耳综合征", "lemmaCroppedTitle": "心-耳综合征", "lemmaDesc": "心-耳综合征又称心脏-耳聋综合征（cardio-auditory syndrom...", "lemmaUrl": "http://baike.baidu.com/item/%E5%BF%83-%E8%80%B3%E7%BB%BC%E5%90%88%E5%BE%81/2945932", "lemmaPic": []}, {"lemmaId": 9261487, "lemmaTitle": "食管异位组织", "lemmaCroppedTitle": "食管异位组织", "lemmaDesc": "食管异位组织又称食管壁内实质性气管支气管剩体或叶芽瘤，食管与气管均由胚胎前肠发育...", "lemmaUrl": "http://baike.baidu.com/item/%E9%A3%9F%E7%AE%A1%E5%BC%82%E4%BD%8D%E7%BB%84%E7%BB%87/9261487", "lemmaPic": []}, {"lemmaId": 12000409, "lemmaTitle": "脑垂体功能异常伴发的精神障碍", "lemmaCroppedTitle": "脑垂体功能异常伴发的精神障碍", "lemmaDesc": "脑垂体前叶机能亢进、脑垂体前叶机能减退和尿崩症均属于脑垂体功能异常。脑垂体前叶机...", "lemmaUrl": "http://baike.baidu.com/item/%E8%84%91%E5%9E%82%E4%BD%93%E5%8A%9F%E8%83%BD%E5%BC%82%E5%B8%B8%E4%BC%B4%E5%8F%91%E7%9A%84%E7%B2%BE%E7%A5%9E%E9%9A%9C%E7%A2%8D/12000409", "lemmaPic": []}, {"lemmaId": 7533674, "lemmaTitle": "Ⅰ型免疫母细胞性淋巴腺病", "lemmaCroppedTitle": "Ⅰ型免疫母细胞性淋巴腺病", "lemmaDesc": "免疫母细胞性淋巴腺病是一种与自身免疫有关的淋巴母细胞过度增殖所致的高免疫反应状态...", "lemmaUrl": "http://baike.baidu.com/item/%E2%85%A0%E5%9E%8B%E5%85%8D%E7%96%AB%E6%AF%8D%E7%BB%86%E8%83%9E%E6%80%A7%E6%B7%8B%E5%B7%B4%E8%85%BA%E7%97%85/7533674", "lemmaPic": []}, {"lemmaId": 6095266, "lemmaTitle": "格子状角膜营养不良", "lemmaCroppedTitle": "格子状角膜营养不良", "lemmaDesc": "格子状角膜营养不良（lattice dystrophy of cornea）为一...", "lemmaUrl": "http://baike.baidu.com/item/%E6%A0%BC%E5%AD%90%E7%8A%B6%E8%A7%92%E8%86%9C%E8%90%A5%E5%85%BB%E4%B8%8D%E8%89%AF/6095266", "lemmaPic": []}, {"lemmaId": 1819505, "lemmaTitle": "晶状体蛋白过敏性青光眼", "lemmaCroppedTitle": "晶状体蛋白过敏性青光眼", "lemmaDesc": "晶状体蛋白过敏性青光眼临床上较为少见，是在白内障手术或晶状体损伤后由晶状体蛋白引...", "lemmaUrl": "http://baike.baidu.com/item/%E6%99%B6%E7%8A%B6%E4%BD%93%E8%9B%8B%E7%99%BD%E8%BF%87%E6%95%8F%E6%80%A7%E9%9D%92%E5%85%89%E7%9C%BC/1819505", "lemmaPic": []}, {"lemmaId": 496685, "lemmaTitle": "额外肾", "lemmaCroppedTitle": "额外肾", "lemmaDesc": "额外肾指一般两个主要的肾脏，通常是正常的而且大小相等，但第3个则稍小，后者是一个...", "lemmaUrl": "http://baike.baidu.com/item/%E9%A2%9D%E5%A4%96%E8%82%BE/496685", "lemmaPic": []}, {"lemmaId": 4610959, "lemmaTitle": "小儿X-连锁严重联合免疫缺陷病", "lemmaCroppedTitle": "小儿X-连锁严重联合免疫缺陷病", "lemmaDesc": "严重联合免疫缺陷病（SCID）包括一组遗传性疾病，是指T细胞和B细胞功能联合缺陷...", "lemmaUrl": "http://baike.baidu.com/item/%E5%B0%8F%E5%84%BFX-%E8%BF%9E%E9%94%81%E4%B8%A5%E9%87%8D%E8%81%94%E5%90%88%E5%85%8D%E7%96%AB%E7%BC%BA%E9%99%B7%E7%97%85/4610959", "lemmaPic": []}, {"lemmaId": 7635846, "lemmaTitle": "肱动脉损伤", "lemmaCroppedTitle": "肱动脉损伤", "lemmaDesc": "肱动脉损伤好发于儿童，主要引起前臂及手部肌群的缺血性挛缩，一旦肱动脉完全受阻，由...", "lemmaUrl": "http://baike.baidu.com/item/%E8%82%B1%E5%8A%A8%E8%84%89%E6%8D%9F%E4%BC%A4/7635846", "lemmaPic": []}, {"lemmaId": 4142553, "lemmaTitle": "全植物神经功能不全", "lemmaCroppedTitle": "全植物神经功能不全", "lemmaDesc": "全植物神经功能不全为相对急性起病的整个植物神经系统功能的减失，病程具自限性。", "lemmaUrl": "http://baike.baidu.com/item/%E5%85%A8%E6%A4%8D%E7%89%A9%E7%A5%9E%E7%BB%8F%E5%8A%9F%E8%83%BD%E4%B8%8D%E5%85%A8/4142553", "lemmaPic": []}, {"lemmaId": 6979381, "lemmaTitle": "老年人糖尿病", "lemmaCroppedTitle": "老年人糖尿病", "lemmaDesc": "对于老年糖尿病的年龄概念目前尚不统一，国内多采用1980年联合国提出的60岁以上...", "lemmaUrl": "http://baike.baidu.com/item/%E8%80%81%E5%B9%B4%E4%BA%BA%E7%B3%96%E5%B0%BF%E7%97%85/6979381", "lemmaPic": []}, {"lemmaId": 5695775, "lemmaTitle": "水痘性角膜炎", "lemmaCroppedTitle": "水痘性角膜炎", "lemmaDesc": "水痘是由水痘-带状疱疹病毒（VZV）引起的小儿急性传染病，其特征是在皮肤和黏膜上...", "lemmaUrl": "http://baike.baidu.com/item/%E6%B0%B4%E7%97%98%E6%80%A7%E8%A7%92%E8%86%9C%E7%82%8E/5695775", "lemmaPic": []}, {"lemmaId": 7254943, "lemmaTitle": "青年上肢远端肌萎缩", "lemmaCroppedTitle": "青年上肢远端肌萎缩", "lemmaDesc": "青年上肢远端肌萎缩是指一种良性自限性运动神经元疾病，又称平山病。肌肉萎缩是指横纹...", "lemmaUrl": "http://baike.baidu.com/item/%E9%9D%92%E5%B9%B4%E4%B8%8A%E8%82%A2%E8%BF%9C%E7%AB%AF%E8%82%8C%E8%90%8E%E7%BC%A9/7254943", "lemmaPic": []}, {"lemmaId": 3494944, "lemmaTitle": "放射性周围神经病", "lemmaCroppedTitle": "放射性周围神经病", "lemmaDesc": "放射性周围神经病具有迟发性、缓慢进展、疗效差等特点。其临床表现为缓慢的、进行性加...", "lemmaUrl": "http://baike.baidu.com/item/%E6%94%BE%E5%B0%84%E6%80%A7%E5%91%A8%E5%9B%B4%E7%A5%9E%E7%BB%8F%E7%97%85/3494944", "lemmaPic": []}, {"lemmaId": 7381090, "lemmaTitle": "老年人酒精性心脏病", "lemmaCroppedTitle": "老年人酒精性心脏病", "lemmaDesc": "老年人酒精性心脏病是长期过度饮酒可以引起以心脏排血量降低为特征的心肌病。，在戒酒...", "lemmaUrl": "http://baike.baidu.com/item/%E8%80%81%E5%B9%B4%E4%BA%BA%E9%85%92%E7%B2%BE%E6%80%A7%E5%BF%83%E8%84%8F%E7%97%85/7381090", "lemmaPic": []}, {"lemmaId": 6852185, "lemmaTitle": "咽部及颈部食管闭合性损伤", "lemmaCroppedTitle": "咽部及颈部食管闭合性损伤", "lemmaDesc": "多由钝性外力所致，喉部损伤程度与外力作用大小、方向有关。来自侧方的外力，因喉体可...", "lemmaUrl": "http://baike.baidu.com/item/%E5%92%BD%E9%83%A8%E5%8F%8A%E9%A2%88%E9%83%A8%E9%A3%9F%E7%AE%A1%E9%97%AD%E5%90%88%E6%80%A7%E6%8D%9F%E4%BC%A4/6852185", "lemmaPic": []}, {"lemmaId": 4201294, "lemmaTitle": "视网膜毛细血管血管瘤", "lemmaCroppedTitle": "视网膜毛细血管血管瘤", "lemmaDesc": "视网膜血管瘤往往为全身血管瘤病的一部分，常伴有小脑、延脑、脊髓、肾上腺、肾、肝、...", "lemmaUrl": "http://baike.baidu.com/item/%E8%A7%86%E7%BD%91%E8%86%9C%E6%AF%9B%E7%BB%86%E8%A1%80%E7%AE%A1%E8%A1%80%E7%AE%A1%E7%98%A4/4201294", "lemmaPic": []}, {"lemmaId": 3956667, "lemmaTitle": "软骨样汗管瘤", "lemmaCroppedTitle": "软骨样汗管瘤", "lemmaDesc": "软骨样汗管瘤又称皮肤混合瘤，肿瘤可以向顶泌汗腺或小汗腺分化。", "lemmaUrl": "http://baike.baidu.com/item/%E8%BD%AF%E9%AA%A8%E6%A0%B7%E6%B1%97%E7%AE%A1%E7%98%A4/3956667", "lemmaPic": []}, {"lemmaId": 5258384, "lemmaTitle": "组织细胞吞噬性脂膜炎", "lemmaCroppedTitle": "组织细胞吞噬性脂膜炎", "lemmaDesc": "1980年Winklemann等首先提出组织细胞吞噬性脂膜炎的病名，为良性的组织...", "lemmaUrl": "http://baike.baidu.com/item/%E7%BB%84%E7%BB%87%E7%BB%86%E8%83%9E%E5%90%9E%E5%99%AC%E6%80%A7%E8%84%82%E8%86%9C%E7%82%8E/5258384", "lemmaPic": []}, {"lemmaId": 454841, "lemmaTitle": "分泌过多性青光眼", "lemmaCroppedTitle": "分泌过多性青光眼", "lemmaDesc": "分泌过多性青光眼是一种罕见的特殊类型的开角型青光眼，其特点是眼压升高，但房水流畅...", "lemmaUrl": "http://baike.baidu.com/item/%E5%88%86%E6%B3%8C%E8%BF%87%E5%A4%9A%E6%80%A7%E9%9D%92%E5%85%89%E7%9C%BC/454841", "lemmaPic": []}, {"lemmaId": 4589735, "lemmaTitle": "小儿高磷酸酶血症", "lemmaCroppedTitle": "小儿高磷酸酶血症", "lemmaDesc": "高磷酸酶血症是常染色体隐性遗传病，多数认为本症为骨组织代谢紊乱性疾病，极为少见。...", "lemmaUrl": "http://baike.baidu.com/item/%E5%B0%8F%E5%84%BF%E9%AB%98%E7%A3%B7%E9%85%B8%E9%85%B6%E8%A1%80%E7%97%87/4589735", "lemmaPic": []}, {"lemmaId": 12676611, "lemmaTitle": "小儿慢性肺炎", "lemmaCroppedTitle": "小儿慢性肺炎", "lemmaDesc": "小儿慢性肺炎（infantile chronic pneumonia）是指病程超...", "lemmaUrl": "http://baike.baidu.com/item/%E5%B0%8F%E5%84%BF%E6%85%A2%E6%80%A7%E8%82%BA%E7%82%8E/12676611", "lemmaPic": []}, {"lemmaId": 12630017, "lemmaTitle": "小儿神经纤维瘤病", "lemmaCroppedTitle": "小儿神经纤维瘤病", "lemmaDesc": "小儿神经纤维瘤病为神经皮肤综合征中最常见的一种综合征。目前病因不明，可能与胚胎发...", "lemmaUrl": "http://baike.baidu.com/item/%E5%B0%8F%E5%84%BF%E7%A5%9E%E7%BB%8F%E7%BA%A4%E7%BB%B4%E7%98%A4%E7%97%85/12630017", "lemmaPic": []}, {"lemmaId": 824231, "lemmaTitle": "肾异位血管及副血管", "lemmaCroppedTitle": "肾异位血管及副血管", "lemmaDesc": "85%的肾具有一根肾动脉，所谓“多发肾动脉”是指任何一个肾由多根肾动脉供应；所谓...", "lemmaUrl": "http://baike.baidu.com/item/%E8%82%BE%E5%BC%82%E4%BD%8D%E8%A1%80%E7%AE%A1%E5%8F%8A%E5%89%AF%E8%A1%80%E7%AE%A1/824231", "lemmaPic": []}, {"lemmaId": 3131315, "lemmaTitle": "酒精性弱视", "lemmaCroppedTitle": "酒精性弱视", "lemmaDesc": "酒精性弱视又称营养性弱视、烟酒中毒性弱视，见于慢性嗜酒者，是慢性酒精中毒的病人中...", "lemmaUrl": "http://baike.baidu.com/item/%E9%85%92%E7%B2%BE%E6%80%A7%E5%BC%B1%E8%A7%86/3131315", "lemmaPic": []}, {"lemmaId": 6494321, "lemmaTitle": "放射性视网膜病变", "lemmaCroppedTitle": "放射性视网膜病变", "lemmaDesc": "放射性视网膜病变临床变异较大，但发病呈剂量相关的特点。轻微的放射性视网膜病变的早...", "lemmaUrl": "http://baike.baidu.com/item/%E6%94%BE%E5%B0%84%E6%80%A7%E8%A7%86%E7%BD%91%E8%86%9C%E7%97%85%E5%8F%98/6494321", "lemmaPic": []}, {"lemmaId": 12676612, "lemmaTitle": "小儿支气管扩张", "lemmaCroppedTitle": "小儿支气管扩张", "lemmaDesc": "支气管扩张症系支气管因反复感染及分泌物阻塞或先天性发育缺陷等因素，造成管壁破坏、...", "lemmaUrl": "http://baike.baidu.com/item/%E5%B0%8F%E5%84%BF%E6%94%AF%E6%B0%94%E7%AE%A1%E6%89%A9%E5%BC%A0/12676612", "lemmaPic": []}, {"lemmaId": 3932054, "lemmaTitle": "透明细胞汗腺腺瘤", "lemmaCroppedTitle": "透明细胞汗腺腺瘤", "lemmaDesc": "透明细胞汗腺腺瘤与其他汗腺肿瘤不同，在组织学上以透明细胞占优势，肿瘤组织位于真皮...", "lemmaUrl": "http://baike.baidu.com/item/%E9%80%8F%E6%98%8E%E7%BB%86%E8%83%9E%E6%B1%97%E8%85%BA%E8%85%BA%E7%98%A4/3932054", "lemmaPic": []}, {"lemmaId": 12700738, "lemmaTitle": "黑头粉刺样痣", "lemmaCroppedTitle": "黑头粉刺样痣", "lemmaDesc": "又名毛囊角化痣、痤疮样痣，其特点为群集的黑头粉刺样丘疹，排列呈带状，多呈单侧分布...", "lemmaUrl": "http://baike.baidu.com/item/%E9%BB%91%E5%A4%B4%E7%B2%89%E5%88%BA%E6%A0%B7%E7%97%A3/12700738", "lemmaPic": []}, {"lemmaId": 4664481, "lemmaTitle": "黏多糖贮积症Ⅰ型", "lemmaCroppedTitle": "黏多糖贮积症Ⅰ型", "lemmaDesc": "黏多糖贮积症是一组由溶酶体异常引起的遗传性黏多糖代谢障碍，系酶的活性缺陷使不完全...", "lemmaUrl": "http://baike.baidu.com/item/%E9%BB%8F%E5%A4%9A%E7%B3%96%E8%B4%AE%E7%A7%AF%E7%97%87%E2%85%A0%E5%9E%8B/4664481", "lemmaPic": []}, {"lemmaId": 7637916, "lemmaTitle": "小腿动脉损伤", "lemmaCroppedTitle": "小腿动脉损伤", "lemmaDesc": "小腿动脉包括胫前动脉、胫后动脉及腓动脉。切割、锐器或枪弹均可致腿部血管损伤。临床...", "lemmaUrl": "http://baike.baidu.com/item/%E5%B0%8F%E8%85%BF%E5%8A%A8%E8%84%89%E6%8D%9F%E4%BC%A4/7637916", "lemmaPic": []}, {"lemmaId": 1708221, "lemmaTitle": "外阴阿米巴病", "lemmaCroppedTitle": "外阴阿米巴病", "lemmaDesc": "外阴阿米巴病是由溶组织阿米巴侵犯外阴皮肤黏膜而引起的病变，多继发于肠道阿米巴病，...", "lemmaUrl": "http://baike.baidu.com/item/%E5%A4%96%E9%98%B4%E9%98%BF%E7%B1%B3%E5%B7%B4%E7%97%85/1708221", "lemmaPic": []}, {"lemmaId": 12676505, "lemmaTitle": "小儿半乳糖血症", "lemmaCroppedTitle": "小儿半乳糖血症", "lemmaDesc": "小儿半乳糖血症是由于半乳糖代谢途径中酶的遗传性缺陷所引起的先天性代谢性疾病，为常...", "lemmaUrl": "http://baike.baidu.com/item/%E5%B0%8F%E5%84%BF%E5%8D%8A%E4%B9%B3%E7%B3%96%E8%A1%80%E7%97%87/12676505", "lemmaPic": []}, {"lemmaId": 2177455, "lemmaTitle": "眼眶骨肉瘤", "lemmaCroppedTitle": "眼眶骨肉瘤", "lemmaDesc": "眼眶骨肉瘤是最常见的原发性高度恶性肿瘤。好发于长骨的干骺端，以膝关节附近最常见，...", "lemmaUrl": "http://baike.baidu.com/item/%E7%9C%BC%E7%9C%B6%E9%AA%A8%E8%82%89%E7%98%A4/2177455", "lemmaPic": []}, {"lemmaId": 10295910, "lemmaTitle": "小儿急性小脑性共济失调", "lemmaCroppedTitle": "小儿急性小脑性共济失调", "lemmaDesc": "急性小脑性共济失调是一组以小脑性共济失调为主要表现的小儿时期所特有的综合征。正常...", "lemmaUrl": "http://baike.baidu.com/item/%E5%B0%8F%E5%84%BF%E6%80%A5%E6%80%A7%E5%B0%8F%E8%84%91%E6%80%A7%E5%85%B1%E6%B5%8E%E5%A4%B1%E8%B0%83/10295910", "lemmaPic": []}, {"lemmaId": 6520123, "lemmaTitle": "良性阵发性腹膜炎综合征", "lemmaCroppedTitle": "良性阵发性腹膜炎综合征", "lemmaDesc": "良性阵发性腹膜炎综合征也称家族性地中海热综合征，遗传性家族性淀粉样变性，Seig...", "lemmaUrl": "http://baike.baidu.com/item/%E8%89%AF%E6%80%A7%E9%98%B5%E5%8F%91%E6%80%A7%E8%85%B9%E8%86%9C%E7%82%8E%E7%BB%BC%E5%90%88%E5%BE%81/6520123", "lemmaPic": []}, {"lemmaId": 7853457, "lemmaTitle": "表皮松解性棘皮瘤", "lemmaCroppedTitle": "表皮松解性棘皮瘤", "lemmaDesc": "表皮松解性棘皮瘤于1970年由Shapiro和Baraf首先报告。可分孤立性及播...", "lemmaUrl": "http://baike.baidu.com/item/%E8%A1%A8%E7%9A%AE%E6%9D%BE%E8%A7%A3%E6%80%A7%E6%A3%98%E7%9A%AE%E7%98%A4/7853457", "lemmaPic": []}, {"lemmaId": 2416003, "lemmaTitle": "合成树脂与塑料所致的皮肤病", "lemmaCroppedTitle": "合成树脂与塑料所致的皮肤病", "lemmaDesc": "合成树脂与塑料所致的皮肤病是指从事合成树脂、塑料生产过程中接触合成原料、单体、辅...", "lemmaUrl": "http://baike.baidu.com/item/%E5%90%88%E6%88%90%E6%A0%91%E8%84%82%E4%B8%8E%E5%A1%91%E6%96%99%E6%89%80%E8%87%B4%E7%9A%84%E7%9A%AE%E8%82%A4%E7%97%85/2416003", "lemmaPic": []}, {"lemmaId": 2933385, "lemmaTitle": "鼻旁窦支气管综合征", "lemmaCroppedTitle": "鼻旁窦支气管综合征", "lemmaDesc": "鼻旁窦支气管综合征是指副鼻窦炎伴支气管炎。", "lemmaUrl": "http://baike.baidu.com/item/%E9%BC%BB%E6%97%81%E7%AA%A6%E6%94%AF%E6%B0%94%E7%AE%A1%E7%BB%BC%E5%90%88%E5%BE%81/2933385", "lemmaPic": []}, {"lemmaId": 7254390, "lemmaTitle": "髌股关节疼痛", "lemmaCroppedTitle": "髌股关节疼痛", "lemmaDesc": "先天性高髌骨症，髌骨软骨纤维化，N绳肌紧张，跟腱紧张，股外侧肌，髌肌束和外侧支持...", "lemmaUrl": "http://baike.baidu.com/item/%E9%AB%8C%E8%82%A1%E5%85%B3%E8%8A%82%E7%96%BC%E7%97%9B/7254390", "lemmaPic": []}, {"lemmaId": 8408339, "lemmaTitle": "间插血吸虫病", "lemmaCroppedTitle": "间插血吸虫病", "lemmaDesc": "间插血吸虫病是由间插血吸虫寄生于肠道静脉所致的地方性寄生虫病。多数病人感染后可无...", "lemmaUrl": "http://baike.baidu.com/item/%E9%97%B4%E6%8F%92%E8%A1%80%E5%90%B8%E8%99%AB%E7%97%85/8408339", "lemmaPic": []}, {"lemmaId": 12676772, "lemmaTitle": "老年人心脏传导阻滞", "lemmaCroppedTitle": "老年人心脏传导阻滞", "lemmaDesc": "老年人心脏传导阻滞，是老年人心脏传导系统任何部位的传导冲动阻滞。心脏传导系统是由...", "lemmaUrl": "http://baike.baidu.com/item/%E8%80%81%E5%B9%B4%E4%BA%BA%E5%BF%83%E8%84%8F%E4%BC%A0%E5%AF%BC%E9%98%BB%E6%BB%9E/12676772", "lemmaPic": []}, {"lemmaId": 390635, "lemmaTitle": "髓性多汗症", "lemmaCroppedTitle": "髓性多汗症", "lemmaDesc": "由于传出刺激常涉及味觉感受器，故髓性多汗症又称味觉性出汗，可分为生理性和病理性髓...", "lemmaUrl": "http://baike.baidu.com/item/%E9%AB%93%E6%80%A7%E5%A4%9A%E6%B1%97%E7%97%87/390635", "lemmaPic": []}, {"lemmaId": 996548, "lemmaTitle": "外阴恶性横纹肌样瘤", "lemmaCroppedTitle": "外阴恶性横纹肌样瘤", "lemmaDesc": "外阴恶性横纹肌样瘤首先以“预后不良的横纹肌肉瘤样Wilm瘤”于1978年报道，虽...", "lemmaUrl": "http://baike.baidu.com/item/%E5%A4%96%E9%98%B4%E6%81%B6%E6%80%A7%E6%A8%AA%E7%BA%B9%E8%82%8C%E6%A0%B7%E7%98%A4/996548", "lemmaPic": []}, {"lemmaId": 13883818, "lemmaTitle": "孟乔森综合征", "lemmaCroppedTitle": "孟乔森综合征", "lemmaDesc": "孟乔森综合征是指一种通过描述、幻想疾病症状，假装有病乃至主动伤残自己或他人，以取...", "lemmaUrl": "http://baike.baidu.com/item/%E5%AD%9F%E4%B9%94%E6%A3%AE%E7%BB%BC%E5%90%88%E5%BE%81/13883818", "lemmaPic": []}, {"lemmaId": 477492, "lemmaTitle": "须部假毛囊炎", "lemmaCroppedTitle": "须部假毛囊炎", "lemmaDesc": "多数由于剃须，毛的尖端刺入囊壁，再加上胡须的卷曲生长，促使残留毛干再度进入皮肤，...", "lemmaUrl": "http://baike.baidu.com/item/%E9%A1%BB%E9%83%A8%E5%81%87%E6%AF%9B%E5%9B%8A%E7%82%8E/477492", "lemmaPic": []}, {"lemmaId": 7869044, "lemmaTitle": "新生儿消化道重复症", "lemmaCroppedTitle": "新生儿消化道重复症", "lemmaDesc": "消化道重复症是指附着于消化道一侧的，具有和消化道某一部分壁层相同并共用血管供应的...", "lemmaUrl": "http://baike.baidu.com/item/%E6%96%B0%E7%94%9F%E5%84%BF%E6%B6%88%E5%8C%96%E9%81%93%E9%87%8D%E5%A4%8D%E7%97%87/7869044", "lemmaPic": []}, {"lemmaId": 2908205, "lemmaTitle": "小儿热带嗜酸性粒细胞增多症", "lemmaCroppedTitle": "小儿热带嗜酸性粒细胞增多症", "lemmaDesc": "小儿热带嗜酸性粒细胞增多症（pediatric tropical eosinop...", "lemmaUrl": "http://baike.baidu.com/item/%E5%B0%8F%E5%84%BF%E7%83%AD%E5%B8%A6%E5%97%9C%E9%85%B8%E6%80%A7%E7%B2%92%E7%BB%86%E8%83%9E%E5%A2%9E%E5%A4%9A%E7%97%87/2908205", "lemmaPic": []}, {"lemmaId": 4589985, "lemmaTitle": "虫证", "lemmaCroppedTitle": "虫证", "lemmaDesc": "虫证是指寄生在人体肠道的虫类所引起的病证。包括蛔虫病、绦虫病、钩虫病、蛲虫病及姜...", "lemmaUrl": "http://baike.baidu.com/item/%E8%99%AB%E8%AF%81/4589985", "lemmaPic": []}, {"lemmaId": 9731800, "lemmaTitle": "副球孢子菌病", "lemmaCroppedTitle": "副球孢子菌病", "lemmaDesc": "副球孢子菌病是由巴西副球孢子菌引起的皮肤黏膜、淋巴结和内脏器官的进行性真菌病。本...", "lemmaUrl": "http://baike.baidu.com/item/%E5%89%AF%E7%90%83%E5%AD%A2%E5%AD%90%E8%8F%8C%E7%97%85/9731800", "lemmaPic": []}, {"lemmaId": 7486077, "lemmaTitle": "幼年型疱疹样皮炎", "lemmaCroppedTitle": "幼年型疱疹样皮炎", "lemmaDesc": "疱疹样皮炎是指一种慢性复发性皮肤病，皮损以水疱为主，呈多形性，集簇分布，瘙痒剧烈...", "lemmaUrl": "http://baike.baidu.com/item/%E5%B9%BC%E5%B9%B4%E5%9E%8B%E7%96%B1%E7%96%B9%E6%A0%B7%E7%9A%AE%E7%82%8E/7486077", "lemmaPic": []}, {"lemmaId": 3010426, "lemmaTitle": "妇女雄激素源性秃发", "lemmaCroppedTitle": "妇女雄激素源性秃发", "lemmaDesc": "妇女雄激素源性秃发又称妇女男子型秃发，其发病原因是由于雄激素的过量，遗传也是一个...", "lemmaUrl": "http://baike.baidu.com/item/%E5%A6%87%E5%A5%B3%E9%9B%84%E6%BF%80%E7%B4%A0%E6%BA%90%E6%80%A7%E7%A7%83%E5%8F%91/3010426", "lemmaPic": []}, {"lemmaId": 4671082, "lemmaTitle": "非01霍乱弧菌肠炎", "lemmaCroppedTitle": "非01霍乱弧菌肠炎", "lemmaDesc": "非01霍乱弧菌肠炎为非01群霍乱弧菌引起的肠道传染病，临床表现为胃肠炎型和痢疾型...", "lemmaUrl": "http://baike.baidu.com/item/%E9%9D%9E01%E9%9C%8D%E4%B9%B1%E5%BC%A7%E8%8F%8C%E8%82%A0%E7%82%8E/4671082", "lemmaPic": []}, {"lemmaId": 8705922, "lemmaTitle": "胫骨后唇骨折", "lemmaCroppedTitle": "胫骨后唇骨折", "lemmaDesc": "胫骨后唇又称后踝，后踝骨折可以发生在任何类型的踝关节损伤，极少单独发生。胫骨后唇...", "lemmaUrl": "http://baike.baidu.com/item/%E8%83%AB%E9%AA%A8%E5%90%8E%E5%94%87%E9%AA%A8%E6%8A%98/8705922", "lemmaPic": []}, {"lemmaId": 3123045, "lemmaTitle": "小儿获得性免疫缺陷综合征", "lemmaCroppedTitle": "小儿获得性免疫缺陷综合征", "lemmaDesc": "小儿时期的获得性免疫缺陷综合征（AIDS）即小儿艾滋病，是由人类免疫缺陷病毒（H...", "lemmaUrl": "http://baike.baidu.com/item/%E5%B0%8F%E5%84%BF%E8%8E%B7%E5%BE%97%E6%80%A7%E5%85%8D%E7%96%AB%E7%BC%BA%E9%99%B7%E7%BB%BC%E5%90%88%E5%BE%81/3123045", "lemmaPic": []}, {"lemmaId": 5258085, "lemmaTitle": "淤滞性皮下硬化症", "lemmaCroppedTitle": "淤滞性皮下硬化症", "lemmaDesc": "本病是由下肢静脉曲张、血液循环淤滞引起的小腿下部局限性皮下纤维性结缔组织增生疾病...", "lemmaUrl": "http://baike.baidu.com/item/%E6%B7%A4%E6%BB%9E%E6%80%A7%E7%9A%AE%E4%B8%8B%E7%A1%AC%E5%8C%96%E7%97%87/5258085", "lemmaPic": []}, {"lemmaId": 1830162, "lemmaTitle": "颅骨结核", "lemmaCroppedTitle": "颅骨结核", "lemmaDesc": "颅骨结核（skull tuberculosis）是结核杆菌侵入颅骨引起的一种特异...", "lemmaUrl": "http://baike.baidu.com/item/%E9%A2%85%E9%AA%A8%E7%BB%93%E6%A0%B8/1830162", "lemmaPic": []}, {"lemmaId": 6642866, "lemmaTitle": "真菌性巩膜炎", "lemmaCroppedTitle": "真菌性巩膜炎", "lemmaDesc": "真菌病分浅表和深部2大类。浅表真菌病侵犯表皮、毛发和甲板；深部真菌感染指真菌侵犯...", "lemmaUrl": "http://baike.baidu.com/item/%E7%9C%9F%E8%8F%8C%E6%80%A7%E5%B7%A9%E8%86%9C%E7%82%8E/6642866", "lemmaPic": []}, {"lemmaId": 5863633, "lemmaTitle": "主动脉弓综合征视网膜病变", "lemmaCroppedTitle": "主动脉弓综合征视网膜病变", "lemmaDesc": "主动脉弓综合征是由于主动脉弓发出的大动脉，如无名动脉、颈总动脉或左锁骨下动脉的进...", "lemmaUrl": "http://baike.baidu.com/item/%E4%B8%BB%E5%8A%A8%E8%84%89%E5%BC%93%E7%BB%BC%E5%90%88%E5%BE%81%E8%A7%86%E7%BD%91%E8%86%9C%E7%97%85%E5%8F%98/5863633", "lemmaPic": []}, {"lemmaId": 7733008, "lemmaTitle": "肱骨远端全骨骺分离", "lemmaCroppedTitle": "肱骨远端全骨骺分离", "lemmaDesc": "肱骨远端全骨骺分离是儿童肘关节比较少见的骨骺损伤。该部骨骺的骨化中心尚未完全出现...", "lemmaUrl": "http://baike.baidu.com/item/%E8%82%B1%E9%AA%A8%E8%BF%9C%E7%AB%AF%E5%85%A8%E9%AA%A8%E9%AA%BA%E5%88%86%E7%A6%BB/7733008", "lemmaPic": []}, {"lemmaId": 9848146, "lemmaTitle": "反应性穿孔性胶原病", "lemmaCroppedTitle": "反应性穿孔性胶原病", "lemmaDesc": "反应性穿孔性胶原病罕见，遗传因素被认为是主要原因，创伤可能是本病发病的另一个重要...", "lemmaUrl": "http://baike.baidu.com/item/%E5%8F%8D%E5%BA%94%E6%80%A7%E7%A9%BF%E5%AD%94%E6%80%A7%E8%83%B6%E5%8E%9F%E7%97%85/9848146", "lemmaPic": []}, {"lemmaId": 5289159, "lemmaTitle": "小儿病毒相关吞噬血细胞综合征", "lemmaCroppedTitle": "小儿病毒相关吞噬血细胞综合征", "lemmaDesc": "小儿病毒相关性吞噬血细胞综合征，又称伴有明显吞噬血细胞现象的全身性组织细胞增多症...", "lemmaUrl": "http://baike.baidu.com/item/%E5%B0%8F%E5%84%BF%E7%97%85%E6%AF%92%E7%9B%B8%E5%85%B3%E5%90%9E%E5%99%AC%E8%A1%80%E7%BB%86%E8%83%9E%E7%BB%BC%E5%90%88%E5%BE%81/5289159", "lemmaPic": []}, {"lemmaId": 2076059, "lemmaTitle": "黏脂贮积症Ⅲ型", "lemmaCroppedTitle": "黏脂贮积症Ⅲ型", "lemmaDesc": "本病是常染色体隐性遗传。Strecker等（1976）发现此症病人组织细胞神经氨...", "lemmaUrl": "http://baike.baidu.com/item/%E9%BB%8F%E8%84%82%E8%B4%AE%E7%A7%AF%E7%97%87%E2%85%A2%E5%9E%8B/2076059", "lemmaPic": []}, {"lemmaId": 9211843, "lemmaTitle": "稻农皮炎", "lemmaCroppedTitle": "稻农皮炎", "lemmaDesc": "稻农皮炎是指农民在水稻播种、收割过程中所发生的一种皮炎。为指（趾）间隙及指（趾）...", "lemmaUrl": "http://baike.baidu.com/item/%E7%A8%BB%E5%86%9C%E7%9A%AE%E7%82%8E/9211843", "lemmaPic": []}, {"lemmaId": 4445466, "lemmaTitle": "肢端纤维角化瘤", "lemmaCroppedTitle": "肢端纤维角化瘤", "lemmaDesc": "肢端纤维角化瘤又称获得性指（趾）纤维角化瘤。通常由衣领状高起的皮肤上发出，好发于...", "lemmaUrl": "http://baike.baidu.com/item/%E8%82%A2%E7%AB%AF%E7%BA%A4%E7%BB%B4%E8%A7%92%E5%8C%96%E7%98%A4/4445466", "lemmaPic": []}, {"lemmaId": 5939734, "lemmaTitle": "小儿成骨不全", "lemmaCroppedTitle": "小儿成骨不全", "lemmaDesc": "小儿成骨不全又称小儿脆骨病。表现为全身性结缔组织异常。其特点是多发性骨折、蓝巩膜...", "lemmaUrl": "http://baike.baidu.com/item/%E5%B0%8F%E5%84%BF%E6%88%90%E9%AA%A8%E4%B8%8D%E5%85%A8/5939734", "lemmaPic": []}, {"lemmaId": 7254280, "lemmaTitle": "第1掌骨基底部骨折脱位", "lemmaCroppedTitle": "第1掌骨基底部骨折脱位", "lemmaDesc": "第1掌骨基底部骨折脱位又称Bennett骨折脱位，是一种极不稳定的骨折。当第1掌...", "lemmaUrl": "http://baike.baidu.com/item/%E7%AC%AC1%E6%8E%8C%E9%AA%A8%E5%9F%BA%E5%BA%95%E9%83%A8%E9%AA%A8%E6%8A%98%E8%84%B1%E4%BD%8D/7254280", "lemmaPic": []}, {"lemmaId": 10649011, "lemmaTitle": "妊娠舞蹈病", "lemmaCroppedTitle": "妊娠舞蹈病", "lemmaDesc": "妊娠舞蹈病是少见的妊娠并发症，目前认为是由妊娠激发的晚发性小舞蹈病。本病的病因不...", "lemmaUrl": "http://baike.baidu.com/item/%E5%A6%8A%E5%A8%A0%E8%88%9E%E8%B9%88%E7%97%85/10649011", "lemmaPic": []}, {"lemmaId": 9175360, "lemmaTitle": "原发性皮肤免疫细胞瘤", "lemmaCroppedTitle": "原发性皮肤免疫细胞瘤", "lemmaDesc": "原发性皮肤免疫细胞瘤为罕见的淋巴瘤，又称为皮肤浆细胞样淋巴细胞性淋巴瘤。其特点为...", "lemmaUrl": "http://baike.baidu.com/item/%E5%8E%9F%E5%8F%91%E6%80%A7%E7%9A%AE%E8%82%A4%E5%85%8D%E7%96%AB%E7%BB%86%E8%83%9E%E7%98%A4/9175360", "lemmaPic": []}, {"lemmaId": 3126246, "lemmaTitle": "眶骨髓炎", "lemmaCroppedTitle": "眶骨髓炎", "lemmaDesc": "眶骨髓炎是一种少见的眼眶炎症，儿童易患此病，可能与其免疫功能尚不完善、易患上呼吸...", "lemmaUrl": "http://baike.baidu.com/item/%E7%9C%B6%E9%AA%A8%E9%AB%93%E7%82%8E/3126246", "lemmaPic": []}, {"lemmaId": 12093414, "lemmaTitle": "小儿贲门失弛缓症", "lemmaCroppedTitle": "小儿贲门失弛缓症", "lemmaDesc": "小儿贲门失弛缓症又称贲门痉挛、巨食管，是由于食管贲门部的神经肌肉功能障碍所致的食...", "lemmaUrl": "http://baike.baidu.com/item/%E5%B0%8F%E5%84%BF%E8%B4%B2%E9%97%A8%E5%A4%B1%E5%BC%9B%E7%BC%93%E7%97%87/12093414", "lemmaPic": []}, {"lemmaId": 12810973, "lemmaTitle": "Haglund综合征", "lemmaCroppedTitle": "Haglund综合征", "lemmaDesc": "本病为足跟后上方跟腱止点处的无菌性炎症、骨性增生肥大以及皮下或跟腱下滑囊炎是一组...", "lemmaUrl": "http://baike.baidu.com/item/Haglund%E7%BB%BC%E5%90%88%E5%BE%81/12810973", "lemmaPic": []}, {"lemmaId": 3313546, "lemmaTitle": "投掷骨折", "lemmaCroppedTitle": "投掷骨折", "lemmaDesc": "投掷是一项暴发性的高速度田径运动。其运动主要发生在肩、肘关节，但需上、下肢及躯干...", "lemmaUrl": "http://baike.baidu.com/item/%E6%8A%95%E6%8E%B7%E9%AA%A8%E6%8A%98/3313546", "lemmaPic": []}, {"lemmaId": 4670990, "lemmaTitle": "眼眶真菌病", "lemmaCroppedTitle": "眼眶真菌病", "lemmaDesc": "眼眶真菌病发病率极低，常见的致病菌有毛霉菌、曲霉菌和隐球菌，还有放线菌、青霉菌等...", "lemmaUrl": "http://baike.baidu.com/item/%E7%9C%BC%E7%9C%B6%E7%9C%9F%E8%8F%8C%E7%97%85/4670990", "lemmaPic": []}, {"lemmaId": 9888209, "lemmaTitle": "非结核分枝杆菌性角膜炎", "lemmaCroppedTitle": "非结核分枝杆菌性角膜炎", "lemmaDesc": "非结核分枝杆菌性角膜炎是由非结核分枝杆菌（NTM）引起的以角膜基质多灶性浸润为主...", "lemmaUrl": "http://baike.baidu.com/item/%E9%9D%9E%E7%BB%93%E6%A0%B8%E5%88%86%E6%9E%9D%E6%9D%86%E8%8F%8C%E6%80%A7%E8%A7%92%E8%86%9C%E7%82%8E/9888209", "lemmaPic": []}, {"lemmaId": 7252722, "lemmaTitle": "激素抵抗型哮喘", "lemmaCroppedTitle": "激素抵抗型哮喘", "lemmaDesc": "2014GINA指南对哮喘的定义：哮喘为一种异质性疾病，常以慢性气道炎症为特征，...", "lemmaUrl": "http://baike.baidu.com/item/%E6%BF%80%E7%B4%A0%E6%8A%B5%E6%8A%97%E5%9E%8B%E5%93%AE%E5%96%98/7252722", "lemmaPic": []}, {"lemmaId": 3264702, "lemmaTitle": "支气管发育不全", "lemmaCroppedTitle": "支气管发育不全", "lemmaDesc": "先天性支气管发育不全常见于先天性支气管闭锁、气管软化和气管支气管巨大症。本病病因...", "lemmaUrl": "http://baike.baidu.com/item/%E6%94%AF%E6%B0%94%E7%AE%A1%E5%8F%91%E8%82%B2%E4%B8%8D%E5%85%A8/3264702", "lemmaPic": []}, {"lemmaId": 3985433, "lemmaTitle": "医源性多毛症", "lemmaCroppedTitle": "医源性多毛症", "lemmaDesc": "某些治疗药物引起的躯干、四肢、偶尔面部等广泛部位的毛发生长。该毛比胎毛粗，但比终...", "lemmaUrl": "http://baike.baidu.com/item/%E5%8C%BB%E6%BA%90%E6%80%A7%E5%A4%9A%E6%AF%9B%E7%97%87/3985433", "lemmaPic": []}, {"lemmaId": 8006974, "lemmaTitle": "癫痫发作与癫痫综合征", "lemmaCroppedTitle": "癫痫发作与癫痫综合征", "lemmaDesc": "癫痫是多种原因导致的脑部神经元高度同步化异常放电的临床综合征，临床以肢体抽搐和（...", "lemmaUrl": "http://baike.baidu.com/item/%E7%99%AB%E7%97%AB%E5%8F%91%E4%BD%9C%E4%B8%8E%E7%99%AB%E7%97%AB%E7%BB%BC%E5%90%88%E5%BE%81/8006974", "lemmaPic": []}, {"lemmaId": 749481, "lemmaTitle": "盲襻综合征", "lemmaCroppedTitle": "盲襻综合征", "lemmaDesc": "盲襻综合征是指小肠内容物在肠腔内停滞过久，细菌过度繁殖所引起的以腹泻、贫血、吸收...", "lemmaUrl": "http://baike.baidu.com/item/%E7%9B%B2%E8%A5%BB%E7%BB%BC%E5%90%88%E5%BE%81/749481", "lemmaPic": []}, {"lemmaId": 12737713, "lemmaTitle": "颈肩综合征", "lemmaCroppedTitle": "颈肩综合征", "lemmaDesc": "颈肩综合征仅仅是症状学名词，通常有颈部、肩部、肩背部疼痛，是神经根型颈椎病的常见...", "lemmaUrl": "http://baike.baidu.com/item/%E9%A2%88%E8%82%A9%E7%BB%BC%E5%90%88%E5%BE%81/12737713", "lemmaPic": []}, {"lemmaId": 6522972, "lemmaTitle": "化脓性颅骨骨髓炎", "lemmaCroppedTitle": "化脓性颅骨骨髓炎", "lemmaDesc": "化脓性颅骨骨髓炎大多数来自直接感染，如开放性颅骨骨折、开颅或颅骨钻孔术、颅骨牵引...", "lemmaUrl": "http://baike.baidu.com/item/%E5%8C%96%E8%84%93%E6%80%A7%E9%A2%85%E9%AA%A8%E9%AA%A8%E9%AB%93%E7%82%8E/6522972", "lemmaPic": []}, {"lemmaId": 7254548, "lemmaTitle": "四边孔综合征", "lemmaCroppedTitle": "四边孔综合征", "lemmaDesc": "四边孔综合征，即旋肱后动脉和腋神经在四边孔处受压后所引起的一系列临床症候群。其主...", "lemmaUrl": "http://baike.baidu.com/item/%E5%9B%9B%E8%BE%B9%E5%AD%94%E7%BB%BC%E5%90%88%E5%BE%81/7254548", "lemmaPic": []}, {"lemmaId": 12676486, "lemmaTitle": "神经系统先天性疾病", "lemmaCroppedTitle": "神经系统先天性疾病", "lemmaDesc": "神经系统先天性疾病（神经系统发育异常性疾病）是发生于中枢神经系统、周围神经系统、...", "lemmaUrl": "http://baike.baidu.com/item/%E7%A5%9E%E7%BB%8F%E7%B3%BB%E7%BB%9F%E5%85%88%E5%A4%A9%E6%80%A7%E7%96%BE%E7%97%85/12676486", "lemmaPic": []}, {"lemmaId": 2237521, "lemmaTitle": "恶性小汗腺螺旋腺瘤", "lemmaCroppedTitle": "恶性小汗腺螺旋腺瘤", "lemmaDesc": "本病罕见，常由长期存在的小汗腺螺旋腺瘤恶变所致，恶性程度高，复发率约30%，转移...", "lemmaUrl": "http://baike.baidu.com/item/%E6%81%B6%E6%80%A7%E5%B0%8F%E6%B1%97%E8%85%BA%E8%9E%BA%E6%97%8B%E8%85%BA%E7%98%A4/2237521", "lemmaPic": []}, {"lemmaId": 6769117, "lemmaTitle": "老年人主动脉瘤", "lemmaCroppedTitle": "老年人主动脉瘤", "lemmaDesc": "主动脉瘤是指继发于主动脉内膜及中层平滑肌和弹性组织丧失的局部或弥漫性的异常扩张，...", "lemmaUrl": "http://baike.baidu.com/item/%E8%80%81%E5%B9%B4%E4%BA%BA%E4%B8%BB%E5%8A%A8%E8%84%89%E7%98%A4/6769117", "lemmaPic": []}, {"lemmaId": 10633895, "lemmaTitle": "肺芽生菌病", "lemmaCroppedTitle": "肺芽生菌病", "lemmaDesc": "肺芽生菌病又称吉尔克斯病或北美芽生菌病，是由皮炎芽生菌或称北美芽生菌感染引起的一...", "lemmaUrl": "http://baike.baidu.com/item/%E8%82%BA%E8%8A%BD%E7%94%9F%E8%8F%8C%E7%97%85/10633895", "lemmaPic": []}, {"lemmaId": 11056083, "lemmaTitle": "腹主动脉腔静脉瘘", "lemmaCroppedTitle": "腹主动脉腔静脉瘘", "lemmaDesc": "腹主动脉与下腔静脉之间出现直接的血流沟通即为腹主动脉腔静脉瘘。1831年，Jam...", "lemmaUrl": "http://baike.baidu.com/item/%E8%85%B9%E4%B8%BB%E5%8A%A8%E8%84%89%E8%85%94%E9%9D%99%E8%84%89%E7%98%98/11056083", "lemmaPic": []}, {"lemmaId": 4991924, "lemmaTitle": "老年人高血压危象", "lemmaCroppedTitle": "老年人高血压危象", "lemmaDesc": "老年人高血压危象是指原发性和继发性高血压在疾病发展过程中，在某些诱因作用下，使周...", "lemmaUrl": "http://baike.baidu.com/item/%E8%80%81%E5%B9%B4%E4%BA%BA%E9%AB%98%E8%A1%80%E5%8E%8B%E5%8D%B1%E8%B1%A1/4991924", "lemmaPic": []}, {"lemmaId": 7253009, "lemmaTitle": "先天性耳前耳瘘", "lemmaCroppedTitle": "先天性耳前耳瘘", "lemmaDesc": "先天性耳前耳瘘又称耳孔，指耳部于出生后即有的无症状异常小孔或小瘘管。最常见于耳轮...", "lemmaUrl": "http://baike.baidu.com/item/%E5%85%88%E5%A4%A9%E6%80%A7%E8%80%B3%E5%89%8D%E8%80%B3%E7%98%98/7253009", "lemmaPic": []}, {"lemmaId": 7085260, "lemmaTitle": "小儿感染性心内膜炎", "lemmaCroppedTitle": "小儿感染性心内膜炎", "lemmaDesc": "感染性心内膜炎是指由各种原因引起的心内膜炎症病变，常累及心脏瓣膜，也可累及室间隔...", "lemmaUrl": "http://baike.baidu.com/item/%E5%B0%8F%E5%84%BF%E6%84%9F%E6%9F%93%E6%80%A7%E5%BF%83%E5%86%85%E8%86%9C%E7%82%8E/7085260", "lemmaPic": []}, {"lemmaId": 2238122, "lemmaTitle": "莱特雷尔-西韦病", "lemmaCroppedTitle": "莱特雷尔-西韦病", "lemmaDesc": "莱特雷尔-西韦病是因未成熟的组织细胞大量增生，使正常人体组织受到破坏，尤其是皮肤...", "lemmaUrl": "http://baike.baidu.com/item/%E8%8E%B1%E7%89%B9%E9%9B%B7%E5%B0%94-%E8%A5%BF%E9%9F%A6%E7%97%85/2238122", "lemmaPic": []}, {"lemmaId": 3527045, "lemmaTitle": "经膈肌肋间疝", "lemmaCroppedTitle": "经膈肌肋间疝", "lemmaDesc": "经膈肌肋间疝（transdiaphragmatic intercostal he...", "lemmaUrl": "http://baike.baidu.com/item/%E7%BB%8F%E8%86%88%E8%82%8C%E8%82%8B%E9%97%B4%E7%96%9D/3527045", "lemmaPic": []}, {"lemmaId": 3653706, "lemmaTitle": "继发性女阴过度角化", "lemmaCroppedTitle": "继发性女阴过度角化", "lemmaDesc": "继发性女阴过度角化是指角质层异常增厚，常伴有颗粒层及棘层肥厚。皮肤表现为浸润肥厚...", "lemmaUrl": "http://baike.baidu.com/item/%E7%BB%A7%E5%8F%91%E6%80%A7%E5%A5%B3%E9%98%B4%E8%BF%87%E5%BA%A6%E8%A7%92%E5%8C%96/3653706", "lemmaPic": []}, {"lemmaId": 7855876, "lemmaTitle": "残胃平滑肌肉瘤", "lemmaCroppedTitle": "残胃平滑肌肉瘤", "lemmaDesc": "残胃平滑肌肉瘤是指因胃的良性或恶性疾病而行胃大部切除术若干年后，残胃内又发生的肿...", "lemmaUrl": "http://baike.baidu.com/item/%E6%AE%8B%E8%83%83%E5%B9%B3%E6%BB%91%E8%82%8C%E8%82%89%E7%98%A4/7855876", "lemmaPic": []}, {"lemmaId": 8353163, "lemmaTitle": "癌症伴发的精神障碍", "lemmaCroppedTitle": "癌症伴发的精神障碍", "lemmaDesc": "癌症伴发的精神障碍是指机体内某种体细胞失去正常的调节控制，不断增殖，同时有不同程...", "lemmaUrl": "http://baike.baidu.com/item/%E7%99%8C%E7%97%87%E4%BC%B4%E5%8F%91%E7%9A%84%E7%B2%BE%E7%A5%9E%E9%9A%9C%E7%A2%8D/8353163", "lemmaPic": []}, {"lemmaId": 2839190, "lemmaTitle": "小儿关节弯曲综合征", "lemmaCroppedTitle": "小儿关节弯曲综合征", "lemmaDesc": "关节弯曲综合征，又称先天性多发性关节僵硬综合征、胎儿畸形性肌营养不良、先天性关节...", "lemmaUrl": "http://baike.baidu.com/item/%E5%B0%8F%E5%84%BF%E5%85%B3%E8%8A%82%E5%BC%AF%E6%9B%B2%E7%BB%BC%E5%90%88%E5%BE%81/2839190", "lemmaPic": []}], "total": 7246, "totalPage": 73, "page": 60, "fromLemma": 0}