{"lemmaList": [{"lemmaId": 2396069, "lemmaTitle": "雪盲", "lemmaCroppedTitle": "雪盲", "lemmaDesc": "雪盲是紫外线对眼角膜和结膜上皮造成损害引起的炎症。特点是眼睑红肿、结膜充血水肿、...", "lemmaUrl": "http://baike.baidu.com/item/%E9%9B%AA%E7%9B%B2/2396069", "lemmaPic": []}, {"lemmaId": 4826128, "lemmaTitle": "慢性疲劳综合症", "lemmaCroppedTitle": "慢性疲劳综合症", "lemmaDesc": "慢性疲劳综合症（CFS）又称雅痞症、慢性伯基特淋巴瘤病毒（EBV）、慢性类单核白...", "lemmaUrl": "http://baike.baidu.com/item/%E6%85%A2%E6%80%A7%E7%96%B2%E5%8A%B3%E7%BB%BC%E5%90%88%E7%97%87/4826128", "lemmaPic": []}, {"lemmaId": 8095223, "lemmaTitle": "双子宫", "lemmaCroppedTitle": "双子宫", "lemmaDesc": "双子宫属生殖道畸形，其发生是由于胚胎发育期两侧苗勒管发育正常但未完全融合，各自发...", "lemmaUrl": "http://baike.baidu.com/item/%E5%8F%8C%E5%AD%90%E5%AE%AB/8095223", "lemmaPic": []}, {"lemmaId": 3021196, "lemmaTitle": "埃博拉出血热", "lemmaCroppedTitle": "埃博拉出血热", "lemmaDesc": "埃博拉出血热（EBHF）是由一种丝状病毒感染导致的急性出血性、动物源性传染病。1...", "lemmaUrl": "http://baike.baidu.com/item/%E5%9F%83%E5%8D%9A%E6%8B%89%E5%87%BA%E8%A1%80%E7%83%AD/3021196", "lemmaPic": []}, {"lemmaId": 2136100, "lemmaTitle": "动脉导管未闭", "lemmaCroppedTitle": "动脉导管未闭", "lemmaDesc": "动脉导管原本系胎儿时期肺动脉与主动脉间的正常血流通道，由于此时肺呼吸功能障碍，来...", "lemmaUrl": "http://baike.baidu.com/item/%E5%8A%A8%E8%84%89%E5%AF%BC%E7%AE%A1%E6%9C%AA%E9%97%AD/2136100", "lemmaPic": []}, {"lemmaId": 7760323, "lemmaTitle": "急性咽喉炎", "lemmaCroppedTitle": "急性咽喉炎", "lemmaDesc": "急性咽喉炎是咽喉黏膜、黏膜下组织和淋巴组织的急性炎症，冬春季节最为多见，通常情况...", "lemmaUrl": "http://baike.baidu.com/item/%E6%80%A5%E6%80%A7%E5%92%BD%E5%96%89%E7%82%8E/7760323", "lemmaPic": {"width": 240, "height": 266, "url": "https://gss1.bdstatic.com/9vo3dSag_xI4khGkpoWK1HF6hhy/baike/w%3D168/sign=30a6efc9d143ad4ba62e42c6ba035a89/377adab44aed2e73624194408701a18b87d6fa36.jpg"}}, {"lemmaId": 3439031, "lemmaTitle": "锁骨骨折", "lemmaCroppedTitle": "锁骨骨折", "lemmaDesc": "锁骨呈S形架于胸骨柄与肩峰之间，是连接上肢与躯干之间的惟一骨性支架。锁骨位于皮下...", "lemmaUrl": "http://baike.baidu.com/item/%E9%94%81%E9%AA%A8%E9%AA%A8%E6%8A%98/3439031", "lemmaPic": []}, {"lemmaId": 784958, "lemmaTitle": "共济失调", "lemmaCroppedTitle": "共济失调", "lemmaDesc": "共济失调是指肌力正常的情况下运动的协调障碍。肢体随意运动的幅度及协调发生紊乱，以...", "lemmaUrl": "http://baike.baidu.com/item/%E5%85%B1%E6%B5%8E%E5%A4%B1%E8%B0%83/784958", "lemmaPic": []}, {"lemmaId": 2289314, "lemmaTitle": "治未病", "lemmaCroppedTitle": "治未病", "lemmaDesc": "“上医治未病”最早源自于《黄帝内经》所说：“上工治未病，不治已病，此之谓也”。“...", "lemmaUrl": "http://baike.baidu.com/item/%E6%B2%BB%E6%9C%AA%E7%97%85/2289314", "lemmaPic": []}, {"lemmaId": 7862885, "lemmaTitle": "高血压危象", "lemmaCroppedTitle": "高血压危象", "lemmaDesc": "高血压危象（Hypertension crisis）包括高血压急症及亚急症。高血...", "lemmaUrl": "http://baike.baidu.com/item/%E9%AB%98%E8%A1%80%E5%8E%8B%E5%8D%B1%E8%B1%A1/7862885", "lemmaPic": []}, {"lemmaId": 4877358, "lemmaTitle": "特发性血小板减少性紫癜", "lemmaCroppedTitle": "特发性血小板减少性紫癜", "lemmaDesc": "特发性血小板减少性紫癜（ITP）是一种原因不明的获得性出血性疾病，以血小板减少、...", "lemmaUrl": "http://baike.baidu.com/item/%E7%89%B9%E5%8F%91%E6%80%A7%E8%A1%80%E5%B0%8F%E6%9D%BF%E5%87%8F%E5%B0%91%E6%80%A7%E7%B4%AB%E7%99%9C/4877358", "lemmaPic": []}, {"lemmaId": 875606, "lemmaTitle": "淋菌性尿道炎", "lemmaCroppedTitle": "淋菌性尿道炎", "lemmaDesc": "尿道炎是指尿道因各种原因导致炎症，出现分泌物、尿痛或尿道不适等症状。如果能检出淋...", "lemmaUrl": "http://baike.baidu.com/item/%E6%B7%8B%E8%8F%8C%E6%80%A7%E5%B0%BF%E9%81%93%E7%82%8E/875606", "lemmaPic": []}, {"lemmaId": 776787, "lemmaTitle": "高泌乳素血症", "lemmaCroppedTitle": "高泌乳素血症", "lemmaDesc": "高泌乳素血症（hyperprolactinemia）又称高泌催乳素血症，是一类由...", "lemmaUrl": "http://baike.baidu.com/item/%E9%AB%98%E6%B3%8C%E4%B9%B3%E7%B4%A0%E8%A1%80%E7%97%87/776787", "lemmaPic": []}, {"lemmaId": 609486, "lemmaTitle": "小儿急性喉炎", "lemmaCroppedTitle": "小儿急性喉炎", "lemmaDesc": "小儿急性喉炎是以声门区为主的喉黏膜急性炎症，多在冬春季发病，婴幼儿尤为多见。因小...", "lemmaUrl": "http://baike.baidu.com/item/%E5%B0%8F%E5%84%BF%E6%80%A5%E6%80%A7%E5%96%89%E7%82%8E/609486", "lemmaPic": []}, {"lemmaId": 4769342, "lemmaTitle": "非典后遗症", "lemmaCroppedTitle": "非典后遗症", "lemmaDesc": "非典后遗症，因为治疗与预防非典而留下的后遗症，主要是因为激素使用而留下的后遗症。...", "lemmaUrl": "http://baike.baidu.com/item/%E9%9D%9E%E5%85%B8%E5%90%8E%E9%81%97%E7%97%87/4769342", "lemmaPic": []}, {"lemmaId": 2182120, "lemmaTitle": "粟丘疹", "lemmaCroppedTitle": "粟丘疹", "lemmaDesc": "本病称白色痤疮或粟丘疹白色苔藓。起源于表皮或附属器上皮的良性肿物或潴留性囊肿。可...", "lemmaUrl": "http://baike.baidu.com/item/%E7%B2%9F%E4%B8%98%E7%96%B9/2182120", "lemmaPic": []}, {"lemmaId": 10332063, "lemmaTitle": "谵妄", "lemmaCroppedTitle": "谵妄", "lemmaDesc": "谵妄是指一组综合征，又称为急性脑综合征。表现为意识障碍、行为无章、没有目的、注意...", "lemmaUrl": "http://baike.baidu.com/item/%E8%B0%B5%E5%A6%84/10332063", "lemmaPic": []}, {"lemmaId": 3285836, "lemmaTitle": "吸脂减肥", "lemmaCroppedTitle": "吸脂减肥", "lemmaDesc": "脂肪细胞是人体组织的重要组成部分，没有脂肪人体各体表器官之间就不会产生平滑的过度...", "lemmaUrl": "http://baike.baidu.com/item/%E5%90%B8%E8%84%82%E5%87%8F%E8%82%A5/3285836", "lemmaPic": []}, {"lemmaId": 1295681, "lemmaTitle": "全身麻醉", "lemmaCroppedTitle": "全身麻醉", "lemmaDesc": "全身麻醉简称全麻。是指麻醉药经呼吸道吸入、静脉或肌肉注射进入体内，产生中枢神经系...", "lemmaUrl": "http://baike.baidu.com/item/%E5%85%A8%E8%BA%AB%E9%BA%BB%E9%86%89/1295681", "lemmaPic": []}, {"lemmaId": 7103527, "lemmaTitle": "泄泻", "lemmaCroppedTitle": "泄泻", "lemmaDesc": "泄泻是指因感受外邪，或被饮食所伤，或情志失调，或脾胃虚弱，或脾肾阳虚等原因引起的...", "lemmaUrl": "http://baike.baidu.com/item/%E6%B3%84%E6%B3%BB/7103527", "lemmaPic": []}, {"lemmaId": 5235024, "lemmaTitle": "人工性荨麻疹", "lemmaCroppedTitle": "人工性荨麻疹", "lemmaDesc": "人工性荨麻疹也称皮肤划痕症荨麻疹，是患者对外来较弱的机械性刺激引起生理反应增强，...", "lemmaUrl": "http://baike.baidu.com/item/%E4%BA%BA%E5%B7%A5%E6%80%A7%E8%8D%A8%E9%BA%BB%E7%96%B9/5235024", "lemmaPic": []}, {"lemmaId": 8335158, "lemmaTitle": "伤风", "lemmaCroppedTitle": "伤风", "lemmaDesc": "伤风是由风邪侵袭人体引起的常见外感热病。一年四季均可发生。尤以冬春两季为多见。临...", "lemmaUrl": "http://baike.baidu.com/item/%E4%BC%A4%E9%A3%8E/8335158", "lemmaPic": []}, {"lemmaId": 3708368, "lemmaTitle": "生长痛", "lemmaCroppedTitle": "生长痛", "lemmaDesc": "生长痛是指儿童的膝关节周围或小腿前侧疼痛，这些部位没有任何外伤史，活动也正常，局...", "lemmaUrl": "http://baike.baidu.com/item/%E7%94%9F%E9%95%BF%E7%97%9B/3708368", "lemmaPic": []}, {"lemmaId": 2526640, "lemmaTitle": "虹膜睫状体炎", "lemmaCroppedTitle": "虹膜睫状体炎", "lemmaDesc": "虹膜睫状体炎又称前葡萄膜炎。虹膜发生炎症后常影响睫状体，故临床上单独的虹膜炎或睫...", "lemmaUrl": "http://baike.baidu.com/item/%E8%99%B9%E8%86%9C%E7%9D%AB%E7%8A%B6%E4%BD%93%E7%82%8E/2526640", "lemmaPic": []}, {"lemmaId": 1549926, "lemmaTitle": "输卵管炎", "lemmaCroppedTitle": "输卵管炎", "lemmaDesc": "输卵管炎是盆腔炎症性疾病的主要发病部位，大多发生在性活跃期、有月经的妇女，初潮前...", "lemmaUrl": "http://baike.baidu.com/item/%E8%BE%93%E5%8D%B5%E7%AE%A1%E7%82%8E/1549926", "lemmaPic": []}, {"lemmaId": 10028759, "lemmaTitle": "细菌性前列腺炎", "lemmaCroppedTitle": "细菌性前列腺炎", "lemmaDesc": "前列腺炎是一组疾病，按传统的Meares-Stamey“四杯法”分为：急性细菌性...", "lemmaUrl": "http://baike.baidu.com/item/%E7%BB%86%E8%8F%8C%E6%80%A7%E5%89%8D%E5%88%97%E8%85%BA%E7%82%8E/10028759", "lemmaPic": []}, {"lemmaId": 10046735, "lemmaTitle": "艾滋病恐惧症", "lemmaCroppedTitle": "艾滋病恐惧症", "lemmaDesc": "艾滋病恐惧症（获得性免疫功能缺陷综合恐惧症）简称恐艾症，是一种对艾滋病的强烈恐惧...", "lemmaUrl": "http://baike.baidu.com/item/%E8%89%BE%E6%BB%8B%E7%97%85%E6%81%90%E6%83%A7%E7%97%87/10046735", "lemmaPic": []}, {"lemmaId": 5245275, "lemmaTitle": "视神经萎缩", "lemmaCroppedTitle": "视神经萎缩", "lemmaDesc": "视神经萎缩（optic atrophy）是指任何疾病引起视网膜神经节细胞和其轴突...", "lemmaUrl": "http://baike.baidu.com/item/%E8%A7%86%E7%A5%9E%E7%BB%8F%E8%90%8E%E7%BC%A9/5245275", "lemmaPic": []}, {"lemmaId": 982857, "lemmaTitle": "动脉瘤", "lemmaCroppedTitle": "动脉瘤", "lemmaDesc": "动脉瘤是由于动脉壁的病变或损伤，形成动脉壁局限性或弥漫性扩张或膨出的表现，以膨胀...", "lemmaUrl": "http://baike.baidu.com/item/%E5%8A%A8%E8%84%89%E7%98%A4/982857", "lemmaPic": []}, {"lemmaId": 10390721, "lemmaTitle": "肾精亏虚", "lemmaCroppedTitle": "肾精亏虚", "lemmaDesc": "肾精亏虚又有肾精不足、肾精气亏虚，肾精亏损的说法，以小儿生长发育迟缓，成人生殖机...", "lemmaUrl": "http://baike.baidu.com/item/%E8%82%BE%E7%B2%BE%E4%BA%8F%E8%99%9A/10390721", "lemmaPic": []}, {"lemmaId": 9703194, "lemmaTitle": "脊髓型颈椎病", "lemmaCroppedTitle": "脊髓型颈椎病", "lemmaDesc": "脊髓型颈椎病是由于颈椎椎骨间连接结构退变，如椎间盘突出、椎体后缘骨刺、钩椎关节增...", "lemmaUrl": "http://baike.baidu.com/item/%E8%84%8A%E9%AB%93%E5%9E%8B%E9%A2%88%E6%A4%8E%E7%97%85/9703194", "lemmaPic": []}, {"lemmaId": 7208556, "lemmaTitle": "砷中毒", "lemmaCroppedTitle": "砷中毒", "lemmaDesc": "砷中毒主要由砷化合物引起，三价砷化合物的毒性较五价砷为强，其中以毒性较大的三氧化...", "lemmaUrl": "http://baike.baidu.com/item/%E7%A0%B7%E4%B8%AD%E6%AF%92/7208556", "lemmaPic": []}, {"lemmaId": 7320077, "lemmaTitle": "赤面恐惧症", "lemmaCroppedTitle": "赤面恐惧症", "lemmaDesc": "赤面恐惧症又叫脸红恐惧症。指在人前易脸红。赤面恐惧症患者的身体里常常经历着两个不...", "lemmaUrl": "http://baike.baidu.com/item/%E8%B5%A4%E9%9D%A2%E6%81%90%E6%83%A7%E7%97%87/7320077", "lemmaPic": []}, {"lemmaId": 2262190, "lemmaTitle": "精神疾病", "lemmaCroppedTitle": "精神疾病", "lemmaDesc": "精神疾病又称精神病，是指在各种生物学、心理学以及社会环境因素影响下，大脑功能失调...", "lemmaUrl": "http://baike.baidu.com/item/%E7%B2%BE%E7%A5%9E%E7%96%BE%E7%97%85/2262190", "lemmaPic": []}, {"lemmaId": 5059522, "lemmaTitle": "贲门失弛缓症", "lemmaCroppedTitle": "贲门失弛缓症", "lemmaDesc": "贲门失弛缓症又称贲门痉挛、巨食管，是由于食管贲门部的神经肌肉功能障碍所致的食管功...", "lemmaUrl": "http://baike.baidu.com/item/%E8%B4%B2%E9%97%A8%E5%A4%B1%E5%BC%9B%E7%BC%93%E7%97%87/5059522", "lemmaPic": []}, {"lemmaId": 875845, "lemmaTitle": "肾肿瘤", "lemmaCroppedTitle": "肾肿瘤", "lemmaDesc": "肾肿瘤约95%是恶性的，良性的很少见。恶性的肾肿瘤依据发病年龄和病理解剖学的特点...", "lemmaUrl": "http://baike.baidu.com/item/%E8%82%BE%E8%82%BF%E7%98%A4/875845", "lemmaPic": []}, {"lemmaId": 1229902, "lemmaTitle": "视网膜色素变性", "lemmaCroppedTitle": "视网膜色素变性", "lemmaDesc": "原发性视网膜色素变性（RP），也称为毯层视网膜变性，是一种进行性、遗传性、营养不...", "lemmaUrl": "http://baike.baidu.com/item/%E8%A7%86%E7%BD%91%E8%86%9C%E8%89%B2%E7%B4%A0%E5%8F%98%E6%80%A7/1229902", "lemmaPic": []}, {"lemmaId": 5381588, "lemmaTitle": "死胎", "lemmaCroppedTitle": "死胎", "lemmaDesc": "妊娠20周以后，胎儿在子宫内死亡，称为死胎。由于大约半数的死胎案例妊娠时期根本没...", "lemmaUrl": "http://baike.baidu.com/item/%E6%AD%BB%E8%83%8E/5381588", "lemmaPic": []}, {"lemmaId": 1543317, "lemmaTitle": "难产", "lemmaCroppedTitle": "难产", "lemmaDesc": "难产泛指在分娩过程中出现某些情况，如胎儿本身的问题，或母亲骨盆腔狭窄、子宫或阴道...", "lemmaUrl": "http://baike.baidu.com/item/%E9%9A%BE%E4%BA%A7/1543317", "lemmaPic": []}, {"lemmaId": 1382984, "lemmaTitle": "多形红斑", "lemmaCroppedTitle": "多形红斑", "lemmaDesc": "多形红斑为急性炎症性皮肤病，有自限性，皮疹多形，有红斑、丘疹、风团、水疱等，特征...", "lemmaUrl": "http://baike.baidu.com/item/%E5%A4%9A%E5%BD%A2%E7%BA%A2%E6%96%91/1382984", "lemmaPic": []}, {"lemmaId": 283939, "lemmaTitle": "颈部肿块", "lemmaCroppedTitle": "颈部肿块", "lemmaDesc": "颈部肿块在临床上较为常见。颈部肿块组织来源复杂，生物学特性各异，治疗方案不同。S...", "lemmaUrl": "http://baike.baidu.com/item/%E9%A2%88%E9%83%A8%E8%82%BF%E5%9D%97/283939", "lemmaPic": []}, {"lemmaId": 2251629, "lemmaTitle": "二尖瓣狭窄", "lemmaCroppedTitle": "二尖瓣狭窄", "lemmaDesc": "风湿热是临床上二尖瓣狭窄最常见病因。是急性风湿热引起心脏炎后所遗留的以瓣膜病为主...", "lemmaUrl": "http://baike.baidu.com/item/%E4%BA%8C%E5%B0%96%E7%93%A3%E7%8B%AD%E7%AA%84/2251629", "lemmaPic": []}, {"lemmaId": 4676223, "lemmaTitle": "不安腿综合征", "lemmaCroppedTitle": "不安腿综合征", "lemmaDesc": "不安腿综合征（RLS）系指小腿深部于休息时出现难以忍受的不适，运动、按摩可暂时缓...", "lemmaUrl": "http://baike.baidu.com/item/%E4%B8%8D%E5%AE%89%E8%85%BF%E7%BB%BC%E5%90%88%E5%BE%81/4676223", "lemmaPic": []}, {"lemmaId": 5055058, "lemmaTitle": "过敏性休克", "lemmaCroppedTitle": "过敏性休克", "lemmaDesc": "过敏性休克是外界某些抗原性物质进入已致敏的机体后，通过免疫机制在短时间内触发的一...", "lemmaUrl": "http://baike.baidu.com/item/%E8%BF%87%E6%95%8F%E6%80%A7%E4%BC%91%E5%85%8B/5055058", "lemmaPic": []}, {"lemmaId": 2371104, "lemmaTitle": "基底细胞癌", "lemmaCroppedTitle": "基底细胞癌", "lemmaDesc": "基底细胞癌发生转移率低，比较偏向于良性，故又称基底细胞上皮瘤。基于它有较大的破坏...", "lemmaUrl": "http://baike.baidu.com/item/%E5%9F%BA%E5%BA%95%E7%BB%86%E8%83%9E%E7%99%8C/2371104", "lemmaPic": []}, {"lemmaId": 636310, "lemmaTitle": "小儿推拿", "lemmaCroppedTitle": "小儿推拿", "lemmaDesc": "小儿推拿是建立在祖国医学整体观念的基础上，以阴阳五行、脏腑经络等学说为理论指导，...", "lemmaUrl": "http://baike.baidu.com/item/%E5%B0%8F%E5%84%BF%E6%8E%A8%E6%8B%BF/636310", "lemmaPic": []}, {"lemmaId": 354946, "lemmaTitle": "皮脂腺异位症", "lemmaCroppedTitle": "皮脂腺异位症", "lemmaDesc": "皮脂腺异位症又称Fordyce病，是一种皮脂腺疾病，该病是由于皮脂腺发育的生理性...", "lemmaUrl": "http://baike.baidu.com/item/%E7%9A%AE%E8%84%82%E8%85%BA%E5%BC%82%E4%BD%8D%E7%97%87/354946", "lemmaPic": []}, {"lemmaId": 149336, "lemmaTitle": "急性呼吸窘迫综合征", "lemmaCroppedTitle": "急性呼吸窘迫综合征", "lemmaDesc": "急性呼吸窘迫综合征（ARDS）是由肺内原因和/或肺外原因引起的，以顽固性低氧血症...", "lemmaUrl": "http://baike.baidu.com/item/%E6%80%A5%E6%80%A7%E5%91%BC%E5%90%B8%E7%AA%98%E8%BF%AB%E7%BB%BC%E5%90%88%E5%BE%81/149336", "lemmaPic": []}, {"lemmaId": 5119642, "lemmaTitle": "肾结核", "lemmaCroppedTitle": "肾结核", "lemmaDesc": "肾结核多在成年人发生，我国综合统计75%的病例发生在20～40岁之间，但幼年和老...", "lemmaUrl": "http://baike.baidu.com/item/%E8%82%BE%E7%BB%93%E6%A0%B8/5119642", "lemmaPic": []}, {"lemmaId": 1574534, "lemmaTitle": "牛痘", "lemmaCroppedTitle": "牛痘", "lemmaDesc": "牛痘是发生在牛身上的一种传染病，是由牛的天花病毒引起的急性感染，它的症状通常是在...", "lemmaUrl": "http://baike.baidu.com/item/%E7%89%9B%E7%97%98/1574534", "lemmaPic": {"width": 123, "height": 200, "url": "https://gss1.bdstatic.com/9vo3dSag_xI4khGkpoWK1HF6hhy/baike/w%3D168/sign=5807430f5c6034a829e2bc87f31349d9/6609c93d70cf3bc75e1f07e2d100baa1cd112aa5.jpg"}}, {"lemmaId": 1871340, "lemmaTitle": "肺鳞癌", "lemmaCroppedTitle": "肺鳞癌", "lemmaDesc": "肺鳞癌又称肺鳞状上皮细胞癌，包括梭形细胞癌，是最常见的类型，占原发性肺癌的40%...", "lemmaUrl": "http://baike.baidu.com/item/%E8%82%BA%E9%B3%9E%E7%99%8C/1871340", "lemmaPic": {"width": 140, "height": 111, "url": "https://gss3.bdstatic.com/7Po3dSag_xI4khGkpoWK1HF6hhy/baike/w%3D168/sign=2ae277b44710b912bfc1f2f8fbfcfcb5/d833c895d143ad4b36e076cf82025aafa50f06f6.jpg"}}, {"lemmaId": 10763647, "lemmaTitle": "肝阴虚", "lemmaCroppedTitle": "肝阴虚", "lemmaDesc": "肝阴虚又称肝阴不足，指由情志不遂，气郁化火；或温热病后期，耗伤肝阴；或肾阴不足，...", "lemmaUrl": "http://baike.baidu.com/item/%E8%82%9D%E9%98%B4%E8%99%9A/10763647", "lemmaPic": []}, {"lemmaId": 351451, "lemmaTitle": "代谢综合征", "lemmaCroppedTitle": "代谢综合征", "lemmaDesc": "代谢综合征是指人体的蛋白质、脂肪、碳水化合物等物质发生代谢紊乱的病理状态，是一组...", "lemmaUrl": "http://baike.baidu.com/item/%E4%BB%A3%E8%B0%A2%E7%BB%BC%E5%90%88%E5%BE%81/351451", "lemmaPic": []}, {"lemmaId": 4518791, "lemmaTitle": "卵圆孔未闭", "lemmaCroppedTitle": "卵圆孔未闭", "lemmaDesc": "卵圆孔一般在生后第1年闭合，若大于3岁的幼儿卵圆孔仍不闭合称卵圆孔未闭，成年人中...", "lemmaUrl": "http://baike.baidu.com/item/%E5%8D%B5%E5%9C%86%E5%AD%94%E6%9C%AA%E9%97%AD/4518791", "lemmaPic": []}, {"lemmaId": 8256241, "lemmaTitle": "痈疽", "lemmaCroppedTitle": "痈疽", "lemmaDesc": "痈疽，发生于体表、四肢、内脏的急性化脓性疾患，是一种毒疮。痈发于肌肉，红肿高大，...", "lemmaUrl": "http://baike.baidu.com/item/%E7%97%88%E7%96%BD/8256241", "lemmaPic": []}, {"lemmaId": 2252294, "lemmaTitle": "肺脓肿", "lemmaCroppedTitle": "肺脓肿", "lemmaDesc": "肺脓肿是由于多种病因所引起的肺组织化脓性病变。早期为化脓性炎症，继而坏死形成脓肿...", "lemmaUrl": "http://baike.baidu.com/item/%E8%82%BA%E8%84%93%E8%82%BF/2252294", "lemmaPic": []}, {"lemmaId": 9068571, "lemmaTitle": "夹腿综合征", "lemmaCroppedTitle": "夹腿综合征", "lemmaDesc": "夹腿综合征是自慰的一种方式（多适用于女性），自慰俗称手淫，但自慰不一定用手，采用...", "lemmaUrl": "http://baike.baidu.com/item/%E5%A4%B9%E8%85%BF%E7%BB%BC%E5%90%88%E5%BE%81/9068571", "lemmaPic": []}, {"lemmaId": 3566672, "lemmaTitle": "胎膜早破", "lemmaCroppedTitle": "胎膜早破", "lemmaDesc": "胎膜早破是指在临产前胎膜自然破裂。孕龄&amp;lt;37孕周的胎膜早破又称为早...", "lemmaUrl": "http://baike.baidu.com/item/%E8%83%8E%E8%86%9C%E6%97%A9%E7%A0%B4/3566672", "lemmaPic": []}, {"lemmaId": 1387120, "lemmaTitle": "丝虫病", "lemmaCroppedTitle": "丝虫病", "lemmaDesc": "丝虫病是指丝虫寄生在淋巴组织、皮下组织或浆膜腔所致的寄生虫病。我国只有班克鲁夫丝...", "lemmaUrl": "http://baike.baidu.com/item/%E4%B8%9D%E8%99%AB%E7%97%85/1387120", "lemmaPic": []}, {"lemmaId": 9116833, "lemmaTitle": "气阴两虚", "lemmaCroppedTitle": "气阴两虚", "lemmaDesc": "气阴两虚，又称气阴两伤。气虚和阴虚同时并见的病理变化。常见于热性病过程中，热在气...", "lemmaUrl": "http://baike.baidu.com/item/%E6%B0%94%E9%98%B4%E4%B8%A4%E8%99%9A/9116833", "lemmaPic": []}, {"lemmaId": 5059485, "lemmaTitle": "食管裂孔疝", "lemmaCroppedTitle": "食管裂孔疝", "lemmaDesc": "食管裂孔疝是指腹腔内脏器（主要是胃）通过膈食管裂孔进入胸腔所致的疾病。食管裂孔疝...", "lemmaUrl": "http://baike.baidu.com/item/%E9%A3%9F%E7%AE%A1%E8%A3%82%E5%AD%94%E7%96%9D/5059485", "lemmaPic": []}, {"lemmaId": 10974146, "lemmaTitle": "肺炎支原体肺炎", "lemmaCroppedTitle": "肺炎支原体肺炎", "lemmaDesc": "肺炎支原体肺炎是由肺炎支原体引起的肺炎，曾称原发性非典型性肺炎。起病缓慢，有发热...", "lemmaUrl": "http://baike.baidu.com/item/%E8%82%BA%E7%82%8E%E6%94%AF%E5%8E%9F%E4%BD%93%E8%82%BA%E7%82%8E/10974146", "lemmaPic": []}, {"lemmaId": 10727827, "lemmaTitle": "阻塞性睡眠呼吸暂停低通气综合征", "lemmaCroppedTitle": "阻塞性睡眠呼吸暂停低通气综合征", "lemmaDesc": "阻塞性睡眠呼吸暂停低通气综合征（OSAHS）是一种病因不明的睡眠呼吸疾病，临床表...", "lemmaUrl": "http://baike.baidu.com/item/%E9%98%BB%E5%A1%9E%E6%80%A7%E7%9D%A1%E7%9C%A0%E5%91%BC%E5%90%B8%E6%9A%82%E5%81%9C%E4%BD%8E%E9%80%9A%E6%B0%94%E7%BB%BC%E5%90%88%E5%BE%81/10727827", "lemmaPic": []}, {"lemmaId": 10944056, "lemmaTitle": "高同型半胱氨酸血症", "lemmaCroppedTitle": "高同型半胱氨酸血症", "lemmaDesc": "高同型半胱氨酸血症是指血浆或血清中游离及与蛋白结合的同型半胱氨酸和混硫化物含量增...", "lemmaUrl": "http://baike.baidu.com/item/%E9%AB%98%E5%90%8C%E5%9E%8B%E5%8D%8A%E8%83%B1%E6%B0%A8%E9%85%B8%E8%A1%80%E7%97%87/10944056", "lemmaPic": []}, {"lemmaId": 250269, "lemmaTitle": "人工耳蜗", "lemmaCroppedTitle": "人工耳蜗", "lemmaDesc": "人工耳蜗是一种电子装置，由体外言语处理器将声音转换为一定编码形式的电信号，通过植...", "lemmaUrl": "http://baike.baidu.com/item/%E4%BA%BA%E5%B7%A5%E8%80%B3%E8%9C%97/250269", "lemmaPic": []}, {"lemmaId": 1470465, "lemmaTitle": "海绵状血管瘤", "lemmaCroppedTitle": "海绵状血管瘤", "lemmaDesc": "海绵状血管瘤是指由众多薄壁血管组成的海绵状异常血管团，由于血管造影检查时常无异常...", "lemmaUrl": "http://baike.baidu.com/item/%E6%B5%B7%E7%BB%B5%E7%8A%B6%E8%A1%80%E7%AE%A1%E7%98%A4/1470465", "lemmaPic": []}, {"lemmaId": 10694738, "lemmaTitle": "肾萎缩", "lemmaCroppedTitle": "肾萎缩", "lemmaDesc": "肾萎缩是指各种原因导致肾单位丧失或肾脏血供不足，导致肾脏体积缩小、生理功能降低的...", "lemmaUrl": "http://baike.baidu.com/item/%E8%82%BE%E8%90%8E%E7%BC%A9/10694738", "lemmaPic": []}, {"lemmaId": 844633, "lemmaTitle": "脂肪肉瘤", "lemmaCroppedTitle": "脂肪肉瘤", "lemmaDesc": "脂肪肉瘤是成人最常见的软组织肉瘤，也可见于青少年和儿童。脂肪肉瘤通常体积较大，一...", "lemmaUrl": "http://baike.baidu.com/item/%E8%84%82%E8%82%AA%E8%82%89%E7%98%A4/844633", "lemmaPic": []}, {"lemmaId": 10973334, "lemmaTitle": "蜂窝织炎", "lemmaCroppedTitle": "蜂窝织炎", "lemmaDesc": "蜂窝织炎是指由金黄色葡萄球菌、溶血性链球菌或腐生性细菌引起的皮肤和皮下组织广泛性...", "lemmaUrl": "http://baike.baidu.com/item/%E8%9C%82%E7%AA%9D%E7%BB%87%E7%82%8E/10973334", "lemmaPic": []}, {"lemmaId": 7950426, "lemmaTitle": "急性黄疸型肝炎", "lemmaCroppedTitle": "急性黄疸型肝炎", "lemmaDesc": "急性黄疸型肝炎是急性肝炎的一个临床分型，根据急性肝炎患者有无黄疸表现及血清胆红素...", "lemmaUrl": "http://baike.baidu.com/item/%E6%80%A5%E6%80%A7%E9%BB%84%E7%96%B8%E5%9E%8B%E8%82%9D%E7%82%8E/7950426", "lemmaPic": []}, {"lemmaId": 938514, "lemmaTitle": "特应性皮炎", "lemmaCroppedTitle": "特应性皮炎", "lemmaDesc": "特应性皮炎的特征为患者或其家族中可见明显的“特应性”特点：①容易罹患哮喘、过敏性...", "lemmaUrl": "http://baike.baidu.com/item/%E7%89%B9%E5%BA%94%E6%80%A7%E7%9A%AE%E7%82%8E/938514", "lemmaPic": []}, {"lemmaId": 2859426, "lemmaTitle": "百草枯中毒", "lemmaCroppedTitle": "百草枯中毒", "lemmaDesc": "百草枯（PQ）商品名一扫光、克芜踪等，是一种高效能的非选择性接触型除草剂，对人畜...", "lemmaUrl": "http://baike.baidu.com/item/%E7%99%BE%E8%8D%89%E6%9E%AF%E4%B8%AD%E6%AF%92/2859426", "lemmaPic": []}, {"lemmaId": 3599556, "lemmaTitle": "胀气", "lemmaCroppedTitle": "胀气", "lemmaDesc": "当胃、十二指肠存在炎症、反流、肿瘤时，就会使胃的排空延缓，食物不断对胃壁产生压力...", "lemmaUrl": "http://baike.baidu.com/item/%E8%83%80%E6%B0%94/3599556", "lemmaPic": []}, {"lemmaId": 5823041, "lemmaTitle": "先天性髋关节脱位", "lemmaCroppedTitle": "先天性髋关节脱位", "lemmaDesc": "本病简称CDH，又称发育性髋关节脱位或发育性髋关节发育不良（DDH）及髋发育不全...", "lemmaUrl": "http://baike.baidu.com/item/%E5%85%88%E5%A4%A9%E6%80%A7%E9%AB%8B%E5%85%B3%E8%8A%82%E8%84%B1%E4%BD%8D/5823041", "lemmaPic": []}, {"lemmaId": 5331691, "lemmaTitle": "急性中耳炎", "lemmaCroppedTitle": "急性中耳炎", "lemmaDesc": "急性中耳炎是中耳黏膜的急性化脓性炎症，好发于婴幼儿，冬春季多见，致病菌多为金黄色...", "lemmaUrl": "http://baike.baidu.com/item/%E6%80%A5%E6%80%A7%E4%B8%AD%E8%80%B3%E7%82%8E/5331691", "lemmaPic": []}, {"lemmaId": 7329206, "lemmaTitle": "空鼻综合征", "lemmaCroppedTitle": "空鼻综合征", "lemmaDesc": "空鼻综合征（ENS）即鼻甲过分切除导致的一种后果严重的难以医治的医源性并发症。1...", "lemmaUrl": "http://baike.baidu.com/item/%E7%A9%BA%E9%BC%BB%E7%BB%BC%E5%90%88%E5%BE%81/7329206", "lemmaPic": []}, {"lemmaId": 8280873, "lemmaTitle": "小儿支气管肺炎", "lemmaCroppedTitle": "小儿支气管肺炎", "lemmaDesc": "支气管肺炎（bronchopneumonia）是儿童尤其是婴幼儿常见的感染性疾病...", "lemmaUrl": "http://baike.baidu.com/item/%E5%B0%8F%E5%84%BF%E6%94%AF%E6%B0%94%E7%AE%A1%E8%82%BA%E7%82%8E/8280873", "lemmaPic": []}, {"lemmaId": 194397, "lemmaTitle": "中风后遗症", "lemmaCroppedTitle": "中风后遗症", "lemmaDesc": "中风是中医学的疾病名称，也是人们对急性脑血管疾病的统称和俗称，本病是一组以脑部缺...", "lemmaUrl": "http://baike.baidu.com/item/%E4%B8%AD%E9%A3%8E%E5%90%8E%E9%81%97%E7%97%87/194397", "lemmaPic": []}, {"lemmaId": 5791165, "lemmaTitle": "嵌甲", "lemmaCroppedTitle": "嵌甲", "lemmaDesc": "嵌甲是一种常见病，甲板侧缘长入附近的软组织中，像异物似的插入甲沟而引起疼痛。", "lemmaUrl": "http://baike.baidu.com/item/%E5%B5%8C%E7%94%B2/5791165", "lemmaPic": []}, {"lemmaId": 9854197, "lemmaTitle": "真菌性阴道炎", "lemmaCroppedTitle": "真菌性阴道炎", "lemmaDesc": "真菌性阴道炎是由白色念珠菌引起的。念珠菌是真菌中最常见的条件致病菌，又称假丝酵母...", "lemmaUrl": "http://baike.baidu.com/item/%E7%9C%9F%E8%8F%8C%E6%80%A7%E9%98%B4%E9%81%93%E7%82%8E/9854197", "lemmaPic": []}, {"lemmaId": 11001102, "lemmaTitle": "妊娠期肝内胆汁淤积症", "lemmaCroppedTitle": "妊娠期肝内胆汁淤积症", "lemmaDesc": "妊娠期肝内胆汁淤积症（ICP）是妊娠中、晚期特有的并发症，临床上以皮肤瘙痒和胆汁...", "lemmaUrl": "http://baike.baidu.com/item/%E5%A6%8A%E5%A8%A0%E6%9C%9F%E8%82%9D%E5%86%85%E8%83%86%E6%B1%81%E6%B7%A4%E7%A7%AF%E7%97%87/11001102", "lemmaPic": []}, {"lemmaId": 6029949, "lemmaTitle": "交感神经型颈椎病", "lemmaCroppedTitle": "交感神经型颈椎病", "lemmaDesc": "由于椎间盘退变和节段性不稳定等因素，从而对颈椎周围的交感神经末梢造成刺激，产生交...", "lemmaUrl": "http://baike.baidu.com/item/%E4%BA%A4%E6%84%9F%E7%A5%9E%E7%BB%8F%E5%9E%8B%E9%A2%88%E6%A4%8E%E7%97%85/6029949", "lemmaPic": []}, {"lemmaId": 1407068, "lemmaTitle": "功能失调性子宫出血", "lemmaCroppedTitle": "功能失调性子宫出血", "lemmaDesc": "功能失调性子宫出血简称功血，是指由神经内分泌失调引起，而不是由妊娠、子宫内膜肿瘤...", "lemmaUrl": "http://baike.baidu.com/item/%E5%8A%9F%E8%83%BD%E5%A4%B1%E8%B0%83%E6%80%A7%E5%AD%90%E5%AE%AB%E5%87%BA%E8%A1%80/1407068", "lemmaPic": []}, {"lemmaId": 9817342, "lemmaTitle": "急性盆腔炎", "lemmaCroppedTitle": "急性盆腔炎", "lemmaDesc": "急性盆腔炎多见于有月经、性活跃的妇女。炎症可局限于一个部位，也可同时累及几个部位...", "lemmaUrl": "http://baike.baidu.com/item/%E6%80%A5%E6%80%A7%E7%9B%86%E8%85%94%E7%82%8E/9817342", "lemmaPic": []}, {"lemmaId": 10794713, "lemmaTitle": "痰饮", "lemmaCroppedTitle": "痰饮", "lemmaDesc": "痰饮指体内水液不得输化，停留或渗注于体内某一部位而发生的病证，这是广义的痰饮，其...", "lemmaUrl": "http://baike.baidu.com/item/%E7%97%B0%E9%A5%AE/10794713", "lemmaPic": {"width": 800, "height": 1067, "url": "https://gss3.bdstatic.com/-Po3dSag_xI4khGkpoWK1HF6hhy/baike/w%3D168/sign=770666111f950a7b75354ac232d1625c/7acb0a46f21fbe09506dfe3369600c338744ade1.jpg"}}, {"lemmaId": 3008889, "lemmaTitle": "肠胃病", "lemmaCroppedTitle": "肠胃病", "lemmaDesc": "肠胃病是俗称，为常见病多发病，总发病率约占人口的20%左右。年龄越大，发病率越高...", "lemmaUrl": "http://baike.baidu.com/item/%E8%82%A0%E8%83%83%E7%97%85/3008889", "lemmaPic": []}, {"lemmaId": 3007834, "lemmaTitle": "肾虚腰痛", "lemmaCroppedTitle": "肾虚腰痛", "lemmaDesc": "肾虚腰痛，指因房室不节、劳倦过度损伤肾脏精气所致的腰痛。又称肾经腰痛。有肾阳虚、...", "lemmaUrl": "http://baike.baidu.com/item/%E8%82%BE%E8%99%9A%E8%85%B0%E7%97%9B/3007834", "lemmaPic": []}, {"lemmaId": 2254921, "lemmaTitle": "吸入性肺炎", "lemmaCroppedTitle": "吸入性肺炎", "lemmaDesc": "吸入性肺炎，指意外吸入酸性物质，如动物脂肪、食物、胃内容物以及其他刺激性液体和挥...", "lemmaUrl": "http://baike.baidu.com/item/%E5%90%B8%E5%85%A5%E6%80%A7%E8%82%BA%E7%82%8E/2254921", "lemmaPic": []}, {"lemmaId": 5086003, "lemmaTitle": "软骨瘤", "lemmaCroppedTitle": "软骨瘤", "lemmaDesc": "软骨瘤为常见的良性骨肿瘤，内生（髓腔性）软骨瘤是指发生在髓腔内的软骨瘤，最为常见...", "lemmaUrl": "http://baike.baidu.com/item/%E8%BD%AF%E9%AA%A8%E7%98%A4/5086003", "lemmaPic": []}, {"lemmaId": 2105120, "lemmaTitle": "尿道下裂", "lemmaCroppedTitle": "尿道下裂", "lemmaDesc": "尿道下裂是一种男性尿道开口位置异常的先天缺陷，尿道口可分布在正常尿道口至会阴部的...", "lemmaUrl": "http://baike.baidu.com/item/%E5%B0%BF%E9%81%93%E4%B8%8B%E8%A3%82/2105120", "lemmaPic": []}, {"lemmaId": 8310349, "lemmaTitle": "椎动脉型颈椎病", "lemmaCroppedTitle": "椎动脉型颈椎病", "lemmaDesc": "颈椎病包括：颈型颈椎病、神经根型颈椎病、脊髓型颈椎病、椎动脉型颈椎病、交感神经型...", "lemmaUrl": "http://baike.baidu.com/item/%E6%A4%8E%E5%8A%A8%E8%84%89%E5%9E%8B%E9%A2%88%E6%A4%8E%E7%97%85/8310349", "lemmaPic": []}, {"lemmaId": 8159991, "lemmaTitle": "罕见病", "lemmaCroppedTitle": "罕见病", "lemmaDesc": "顾名思义，罕见病是指那些发病率极低的疾病。罕见疾病又称“孤儿病”，在中国没有明确...", "lemmaUrl": "http://baike.baidu.com/item/%E7%BD%95%E8%A7%81%E7%97%85/8159991", "lemmaPic": []}, {"lemmaId": 7867845, "lemmaTitle": "菌血症", "lemmaCroppedTitle": "菌血症", "lemmaDesc": "菌血症指血液中出现微生物。多是细菌由局部病灶入血。主要发生在炎症的早期阶段，肝脾...", "lemmaUrl": "http://baike.baidu.com/item/%E8%8F%8C%E8%A1%80%E7%97%87/7867845", "lemmaPic": []}, {"lemmaId": 534830, "lemmaTitle": "心境障碍", "lemmaCroppedTitle": "心境障碍", "lemmaDesc": "心境障碍也称情感性精神障碍，是指由各种原因引起的以显著而持久的情感或心境改变为主...", "lemmaUrl": "http://baike.baidu.com/item/%E5%BF%83%E5%A2%83%E9%9A%9C%E7%A2%8D/534830", "lemmaPic": []}, {"lemmaId": 8537796, "lemmaTitle": "高胆固醇血症", "lemmaCroppedTitle": "高胆固醇血症", "lemmaDesc": "高胆固醇血症，即血浆胆固醇含量高于正常。胆固醇是一种脂质，是每个人不可缺少的，尤...", "lemmaUrl": "http://baike.baidu.com/item/%E9%AB%98%E8%83%86%E5%9B%BA%E9%86%87%E8%A1%80%E7%97%87/8537796", "lemmaPic": []}, {"lemmaId": 1079133, "lemmaTitle": "皮肤瘙痒症", "lemmaCroppedTitle": "皮肤瘙痒症", "lemmaDesc": "皮肤瘙痒症是指无原发皮疹，但有瘙痒的一种皮肤病，中医称之为风瘙痒。皮肤瘙痒症属于...", "lemmaUrl": "http://baike.baidu.com/item/%E7%9A%AE%E8%82%A4%E7%98%99%E7%97%92%E7%97%87/1079133", "lemmaPic": []}, {"lemmaId": 559332, "lemmaTitle": "十二指肠炎", "lemmaCroppedTitle": "十二指肠炎", "lemmaDesc": "十二指肠炎是指发生于十二指肠的炎症，分为原发性和继发性两种，原发性者也称非特异性...", "lemmaUrl": "http://baike.baidu.com/item/%E5%8D%81%E4%BA%8C%E6%8C%87%E8%82%A0%E7%82%8E/559332", "lemmaPic": []}, {"lemmaId": 1106140, "lemmaTitle": "梨状肌综合征", "lemmaCroppedTitle": "梨状肌综合征", "lemmaDesc": "梨状肌综合征是引起急慢性坐骨神经痛的常见疾病。一般认为，腓总神经高位分支，自梨状...", "lemmaUrl": "http://baike.baidu.com/item/%E6%A2%A8%E7%8A%B6%E8%82%8C%E7%BB%BC%E5%90%88%E5%BE%81/1106140", "lemmaPic": []}, {"lemmaId": 3621016, "lemmaTitle": "毒性弥漫性甲状腺肿", "lemmaCroppedTitle": "毒性弥漫性甲状腺肿", "lemmaDesc": "毒性弥漫性甲状腺肿是一种自身免疫性疾病，临床表现并不限于甲状腺，而是一种多系统的...", "lemmaUrl": "http://baike.baidu.com/item/%E6%AF%92%E6%80%A7%E5%BC%A5%E6%BC%AB%E6%80%A7%E7%94%B2%E7%8A%B6%E8%85%BA%E8%82%BF/3621016", "lemmaPic": []}, {"lemmaId": 10711941, "lemmaTitle": "肾虚耳鸣", "lemmaCroppedTitle": "肾虚耳鸣", "lemmaDesc": "耳鸣，指外界无声源，而病者自觉耳中鸣响的病症。耳部以及其他全身疾病皆可出现此症状...", "lemmaUrl": "http://baike.baidu.com/item/%E8%82%BE%E8%99%9A%E8%80%B3%E9%B8%A3/10711941", "lemmaPic": []}], "total": 7246, "totalPage": 73, "page": 10, "fromLemma": 0}