{"lemmaList": [{"lemmaId": 7253639, "lemmaTitle": "小儿扁脸关节脱位足异常综合征", "lemmaCroppedTitle": "小儿扁脸关节脱位足异常综合征", "lemmaDesc": "扁脸关节脱位足异常综合征又称Larsen综合征，是以特殊面容、大关节脱位及其他骨...", "lemmaUrl": "http://baike.baidu.com/item/%E5%B0%8F%E5%84%BF%E6%89%81%E8%84%B8%E5%85%B3%E8%8A%82%E8%84%B1%E4%BD%8D%E8%B6%B3%E5%BC%82%E5%B8%B8%E7%BB%BC%E5%90%88%E5%BE%81/7253639", "lemmaPic": []}, {"lemmaId": 7252911, "lemmaTitle": "外阴血管外皮细胞瘤", "lemmaCroppedTitle": "外阴血管外皮细胞瘤", "lemmaDesc": "外阴血管外皮细胞瘤特点是瘤细胞在基底膜外增殖，可表现为良性，也可表现为恶性。恶性...", "lemmaUrl": "http://baike.baidu.com/item/%E5%A4%96%E9%98%B4%E8%A1%80%E7%AE%A1%E5%A4%96%E7%9A%AE%E7%BB%86%E8%83%9E%E7%98%A4/7252911", "lemmaPic": []}, {"lemmaId": 12676610, "lemmaTitle": "小儿淋巴细胞间质性肺炎", "lemmaCroppedTitle": "小儿淋巴细胞间质性肺炎", "lemmaDesc": "淋巴细胞间质性肺炎（LIP）是一种慢性、进行性、间质性肺炎，其肺间质和肺泡腔内成...", "lemmaUrl": "http://baike.baidu.com/item/%E5%B0%8F%E5%84%BF%E6%B7%8B%E5%B7%B4%E7%BB%86%E8%83%9E%E9%97%B4%E8%B4%A8%E6%80%A7%E8%82%BA%E7%82%8E/12676610", "lemmaPic": []}, {"lemmaId": 12428599, "lemmaTitle": "小儿家族性非溶血性黄疸综合征", "lemmaCroppedTitle": "小儿家族性非溶血性黄疸综合征", "lemmaDesc": "小儿家族性非溶血性黄疸综合征是一种常染色体显性遗传疾病，因游离胆红素转化为结合型...", "lemmaUrl": "http://baike.baidu.com/item/%E5%B0%8F%E5%84%BF%E5%AE%B6%E6%97%8F%E6%80%A7%E9%9D%9E%E6%BA%B6%E8%A1%80%E6%80%A7%E9%BB%84%E7%96%B8%E7%BB%BC%E5%90%88%E5%BE%81/12428599", "lemmaPic": []}, {"lemmaId": 12676963, "lemmaTitle": "人免疫缺陷病毒感染性肾损害", "lemmaCroppedTitle": "人免疫缺陷病毒感染性肾损害", "lemmaDesc": "人免疫缺陷病毒感染性肾损害（HIVAN）的发病机制尚未阐明。大多数学者认为系HI...", "lemmaUrl": "http://baike.baidu.com/item/%E4%BA%BA%E5%85%8D%E7%96%AB%E7%BC%BA%E9%99%B7%E7%97%85%E6%AF%92%E6%84%9F%E6%9F%93%E6%80%A7%E8%82%BE%E6%8D%9F%E5%AE%B3/12676963", "lemmaPic": []}, {"lemmaId": 17659710, "lemmaTitle": "盆腔炎性包块", "lemmaCroppedTitle": "盆腔炎性包块", "lemmaDesc": "盆腔炎性包块，为女性盆腔脏器的炎症未得到正规、有效地治疗，导致盆腔慢性炎症性组织...", "lemmaUrl": "http://baike.baidu.com/item/%E7%9B%86%E8%85%94%E7%82%8E%E6%80%A7%E5%8C%85%E5%9D%97/17659710", "lemmaPic": []}, {"lemmaId": 12428931, "lemmaTitle": "吉特林综合征", "lemmaCroppedTitle": "吉特林综合征", "lemmaDesc": "吉特林综合征即Gitlin综合征，病变基因位于X染色体，为性联隐性遗传重症联合免...", "lemmaUrl": "http://baike.baidu.com/item/%E5%90%89%E7%89%B9%E6%9E%97%E7%BB%BC%E5%90%88%E5%BE%81/12428931", "lemmaPic": []}, {"lemmaId": 19490989, "lemmaTitle": "肛周坏死性筋膜炎", "lemmaCroppedTitle": "肛周坏死性筋膜炎", "lemmaDesc": "肛周坏死性筋膜炎是一种少见的以广泛而迅速的皮下组织和筋膜坏死为特征的软组织感染，...", "lemmaUrl": "http://baike.baidu.com/item/%E8%82%9B%E5%91%A8%E5%9D%8F%E6%AD%BB%E6%80%A7%E7%AD%8B%E8%86%9C%E7%82%8E/19490989", "lemmaPic": []}, {"lemmaId": 18277500, "lemmaTitle": "血管骨肥大综合征", "lemmaCroppedTitle": "血管骨肥大综合征", "lemmaDesc": "血管骨肥大综合征又称Klippel-Trenaunay综合征（KTS），是一种复...", "lemmaUrl": "http://baike.baidu.com/item/%E8%A1%80%E7%AE%A1%E9%AA%A8%E8%82%A5%E5%A4%A7%E7%BB%BC%E5%90%88%E5%BE%81/18277500", "lemmaPic": []}, {"lemmaId": 12000411, "lemmaTitle": "皮肤棘球蚴病", "lemmaCroppedTitle": "皮肤棘球蚴病", "lemmaDesc": "又称皮肤包虫病。是人类感染细粒棘球绦虫及多房棘球绦虫的幼虫所致的人畜共患的慢性寄...", "lemmaUrl": "http://baike.baidu.com/item/%E7%9A%AE%E8%82%A4%E6%A3%98%E7%90%83%E8%9A%B4%E7%97%85/12000411", "lemmaPic": []}, {"lemmaId": 12112039, "lemmaTitle": "非线性控制中的L2增益和无源化方法", "lemmaCroppedTitle": "非线性控制中的L2增益和无源化方法", "lemmaDesc": "内容介绍L2增益设计方法和系统理论是经典控制方法和状态空间相结合的产物，对于非线...", "lemmaUrl": "http://baike.baidu.com/item/%E9%9D%9E%E7%BA%BF%E6%80%A7%E6%8E%A7%E5%88%B6%E4%B8%AD%E7%9A%84L2%E5%A2%9E%E7%9B%8A%E5%92%8C%E6%97%A0%E6%BA%90%E5%8C%96%E6%96%B9%E6%B3%95/12112039", "lemmaPic": {"width": 363, "height": 363, "url": "https://gss0.bdstatic.com/-4o3dSag_xI4khGkpoWK1HF6hhy/baike/w%3D168/sign=f978d5f9e51190ef01fb96d9f61b9df7/810a19d8bc3eb1354fb7b2afa41ea8d3fd1f44b5.jpg"}}, {"lemmaId": 7252816, "lemmaTitle": "Fuchs内皮营养不良", "lemmaCroppedTitle": "Fuchs内皮营养不良", "lemmaDesc": "Fuchs内皮营养不良，又叫滴状角膜是一种常见现象，随年龄其发生率显著增加。许多...", "lemmaUrl": "http://baike.baidu.com/item/Fuchs%E5%86%85%E7%9A%AE%E8%90%A5%E5%85%BB%E4%B8%8D%E8%89%AF/7252816", "lemmaPic": []}, {"lemmaId": 12428483, "lemmaTitle": "胸内异物", "lemmaCroppedTitle": "胸内异物", "lemmaDesc": "胸内异物是指由于各种胸部外伤导致异物进入胸内。临床表现为胸痛、呼吸困难、失血性休...", "lemmaUrl": "http://baike.baidu.com/item/%E8%83%B8%E5%86%85%E5%BC%82%E7%89%A9/12428483", "lemmaPic": []}, {"lemmaId": 17659721, "lemmaTitle": "儿童急性喉炎", "lemmaCroppedTitle": "儿童急性喉炎", "lemmaDesc": "儿童急性喉炎是以声门区为主的喉部黏膜的急性炎症，可因病毒或细菌感染引起，多继发于...", "lemmaUrl": "http://baike.baidu.com/item/%E5%84%BF%E7%AB%A5%E6%80%A5%E6%80%A7%E5%96%89%E7%82%8E/17659721", "lemmaPic": []}, {"lemmaId": 10252135, "lemmaTitle": "器械性食管损伤", "lemmaCroppedTitle": "器械性食管损伤", "lemmaDesc": "器械性食管损伤指食管的医源性损伤，器械性食管损伤穿孔在临床中占食管穿孔的很大部分...", "lemmaUrl": "http://baike.baidu.com/item/%E5%99%A8%E6%A2%B0%E6%80%A7%E9%A3%9F%E7%AE%A1%E6%8D%9F%E4%BC%A4/10252135", "lemmaPic": []}, {"lemmaId": 12428749, "lemmaTitle": "小儿软骨营养障碍-血管瘤综合征", "lemmaCroppedTitle": "小儿软骨营养障碍-血管瘤综合征", "lemmaDesc": "软骨营养障碍-血管瘤综合征即Maffucci综合征，又称伴多发性血管瘤的软骨发育...", "lemmaUrl": "http://baike.baidu.com/item/%E5%B0%8F%E5%84%BF%E8%BD%AF%E9%AA%A8%E8%90%A5%E5%85%BB%E9%9A%9C%E7%A2%8D-%E8%A1%80%E7%AE%A1%E7%98%A4%E7%BB%BC%E5%90%88%E5%BE%81/12428749", "lemmaPic": []}, {"lemmaId": 12502327, "lemmaTitle": "小儿尼曼-皮克病", "lemmaCroppedTitle": "小儿尼曼-皮克病", "lemmaDesc": "小儿尼曼-皮克病是一种先天性糖脂代谢异常性疾病，其特点是全身网状内皮系统有大量的...", "lemmaUrl": "http://baike.baidu.com/item/%E5%B0%8F%E5%84%BF%E5%B0%BC%E6%9B%BC-%E7%9A%AE%E5%85%8B%E7%97%85/12502327", "lemmaPic": []}, {"lemmaId": 12428949, "lemmaTitle": "其他晶体性关节病", "lemmaCroppedTitle": "其他晶体性关节病", "lemmaDesc": "近年来，除了尿酸钠、焦磷酸钙和碱性磷酸钙晶体外，在病理标本或关节液中还发现其他种...", "lemmaUrl": "http://baike.baidu.com/item/%E5%85%B6%E4%BB%96%E6%99%B6%E4%BD%93%E6%80%A7%E5%85%B3%E8%8A%82%E7%97%85/12428949", "lemmaPic": []}, {"lemmaId": 10455249, "lemmaTitle": "干骺纤维性缺损", "lemmaCroppedTitle": "干骺纤维性缺损", "lemmaDesc": "干骺纤维性缺损又称非成骨性纤维瘤，此病变是真性肿瘤还是代表骺板的发育畸形，学界争...", "lemmaUrl": "http://baike.baidu.com/item/%E5%B9%B2%E9%AA%BA%E7%BA%A4%E7%BB%B4%E6%80%A7%E7%BC%BA%E6%8D%9F/10455249", "lemmaPic": []}, {"lemmaId": 12810926, "lemmaTitle": "混合性生殖细胞-性索间质肿瘤", "lemmaCroppedTitle": "混合性生殖细胞-性索间质肿瘤", "lemmaDesc": "卵巢混合性生殖细胞-性索间质肿瘤是一种非常少见的、与一般通常的性腺母细胞瘤不同的...", "lemmaUrl": "http://baike.baidu.com/item/%E6%B7%B7%E5%90%88%E6%80%A7%E7%94%9F%E6%AE%96%E7%BB%86%E8%83%9E-%E6%80%A7%E7%B4%A2%E9%97%B4%E8%B4%A8%E8%82%BF%E7%98%A4/12810926", "lemmaPic": []}, {"lemmaId": 18277556, "lemmaTitle": "乳腺癌患侧上肢淋巴水肿", "lemmaCroppedTitle": "乳腺癌患侧上肢淋巴水肿", "lemmaDesc": "乳腺癌患侧上肢淋巴水肿是腋窝淋巴结清扫手术和腋窝部位放疗的常见并发症。20世纪6...", "lemmaUrl": "http://baike.baidu.com/item/%E4%B9%B3%E8%85%BA%E7%99%8C%E6%82%A3%E4%BE%A7%E4%B8%8A%E8%82%A2%E6%B7%8B%E5%B7%B4%E6%B0%B4%E8%82%BF/18277556", "lemmaPic": []}, {"lemmaId": 12676640, "lemmaTitle": "小儿特发性室性心动过速", "lemmaCroppedTitle": "小儿特发性室性心动过速", "lemmaDesc": "特发性室性心动过速（IVT）简称特发性室速，是指无明显器质性心脏病证据及任何致心...", "lemmaUrl": "http://baike.baidu.com/item/%E5%B0%8F%E5%84%BF%E7%89%B9%E5%8F%91%E6%80%A7%E5%AE%A4%E6%80%A7%E5%BF%83%E5%8A%A8%E8%BF%87%E9%80%9F/12676640", "lemmaPic": []}, {"lemmaId": 12630036, "lemmaTitle": "桡骨干下三分之一骨折合并下尺桡关节脱位", "lemmaCroppedTitle": "桡骨干下三分之一骨折合并下尺桡关节脱位", "lemmaDesc": "桡骨中下1/3骨折合并下桡尺关节脱位称Galeazzi骨折。主要表现为前臂及腕部...", "lemmaUrl": "http://baike.baidu.com/item/%E6%A1%A1%E9%AA%A8%E5%B9%B2%E4%B8%8B%E4%B8%89%E5%88%86%E4%B9%8B%E4%B8%80%E9%AA%A8%E6%8A%98%E5%90%88%E5%B9%B6%E4%B8%8B%E5%B0%BA%E6%A1%A1%E5%85%B3%E8%8A%82%E8%84%B1%E4%BD%8D/12630036", "lemmaPic": []}, {"lemmaId": 12676552, "lemmaTitle": "小儿低心排出量综合征", "lemmaCroppedTitle": "小儿低心排出量综合征", "lemmaDesc": "低心排出量综合征是心脏外科最严重的生理异常，是导致术后患儿死亡的主要原因之一。正...", "lemmaUrl": "http://baike.baidu.com/item/%E5%B0%8F%E5%84%BF%E4%BD%8E%E5%BF%83%E6%8E%92%E5%87%BA%E9%87%8F%E7%BB%BC%E5%90%88%E5%BE%81/12676552", "lemmaPic": []}, {"lemmaId": 12676577, "lemmaTitle": "小儿肥胖通气不良综合征", "lemmaCroppedTitle": "小儿肥胖通气不良综合征", "lemmaDesc": "肥胖通气不良综合征即肥胖-肺换气低下综合征，又称肥胖性心肺功能不全综合征、肥胖症...", "lemmaUrl": "http://baike.baidu.com/item/%E5%B0%8F%E5%84%BF%E8%82%A5%E8%83%96%E9%80%9A%E6%B0%94%E4%B8%8D%E8%89%AF%E7%BB%BC%E5%90%88%E5%BE%81/12676577", "lemmaPic": []}, {"lemmaId": 18277616, "lemmaTitle": "杀鼠药中毒", "lemmaCroppedTitle": "杀鼠药中毒", "lemmaDesc": "杀鼠药的种类很多，它们均对人、畜有毒性。但由于其不易扩散到环境中造成大范围污染，...", "lemmaUrl": "http://baike.baidu.com/item/%E6%9D%80%E9%BC%A0%E8%8D%AF%E4%B8%AD%E6%AF%92/18277616", "lemmaPic": []}, {"lemmaId": 12810935, "lemmaTitle": "小儿埃莱尔-当洛综合征", "lemmaCroppedTitle": "小儿埃莱尔-当洛综合征", "lemmaDesc": "小儿埃莱尔-当洛综合征（Ehlers-Danlos syndrome，EDS）或...", "lemmaUrl": "http://baike.baidu.com/item/%E5%B0%8F%E5%84%BF%E5%9F%83%E8%8E%B1%E5%B0%94-%E5%BD%93%E6%B4%9B%E7%BB%BC%E5%90%88%E5%BE%81/12810935", "lemmaPic": []}, {"lemmaId": 10226359, "lemmaTitle": "耳霉虫霉病", "lemmaCroppedTitle": "耳霉虫霉病", "lemmaDesc": "病原菌为冠状耳霉，系土壤腐生菌。冠状耳霉感染的患者几乎全部来自非洲热带雨林地区，...", "lemmaUrl": "http://baike.baidu.com/item/%E8%80%B3%E9%9C%89%E8%99%AB%E9%9C%89%E7%97%85/10226359", "lemmaPic": []}, {"lemmaId": 12810950, "lemmaTitle": "小儿室上性阵发性心动过速", "lemmaCroppedTitle": "小儿室上性阵发性心动过速", "lemmaDesc": "小儿室上性阵发性心动过速应为小儿阵发性室上性心动过速（PSVT），是由心房或房室...", "lemmaUrl": "http://baike.baidu.com/item/%E5%B0%8F%E5%84%BF%E5%AE%A4%E4%B8%8A%E6%80%A7%E9%98%B5%E5%8F%91%E6%80%A7%E5%BF%83%E5%8A%A8%E8%BF%87%E9%80%9F/12810950", "lemmaPic": []}, {"lemmaId": 12428464, "lemmaTitle": "胆道华支睾吸虫病", "lemmaCroppedTitle": "胆道华支睾吸虫病", "lemmaDesc": "华支睾吸虫俗称肝吸虫，于1874年首次在印度加尔各答1例华侨的胆管内发现，190...", "lemmaUrl": "http://baike.baidu.com/item/%E8%83%86%E9%81%93%E5%8D%8E%E6%94%AF%E7%9D%BE%E5%90%B8%E8%99%AB%E7%97%85/12428464", "lemmaPic": []}, {"lemmaId": 18277491, "lemmaTitle": "小儿色素性荨麻疹", "lemmaCroppedTitle": "小儿色素性荨麻疹", "lemmaDesc": "小儿色素性荨麻疹是肥大细胞增生病中的一个类型，即良性泛发性皮肤肥大细胞增生病，以...", "lemmaUrl": "http://baike.baidu.com/item/%E5%B0%8F%E5%84%BF%E8%89%B2%E7%B4%A0%E6%80%A7%E8%8D%A8%E9%BA%BB%E7%96%B9/18277491", "lemmaPic": []}, {"lemmaId": 12428744, "lemmaTitle": "小儿软骨毛发发育不良综合征", "lemmaCroppedTitle": "小儿软骨毛发发育不良综合征", "lemmaDesc": "临床主要特点为毛发与长骨干骺端软骨发育不良，生后即可表现严重的生长发育不足，男女...", "lemmaUrl": "http://baike.baidu.com/item/%E5%B0%8F%E5%84%BF%E8%BD%AF%E9%AA%A8%E6%AF%9B%E5%8F%91%E5%8F%91%E8%82%B2%E4%B8%8D%E8%89%AF%E7%BB%BC%E5%90%88%E5%BE%81/12428744", "lemmaPic": []}, {"lemmaId": 16970662, "lemmaTitle": "脑胶质细胞瘤", "lemmaCroppedTitle": "脑胶质细胞瘤", "lemmaDesc": "脑胶质瘤（脑胶质细胞瘤）约占颅内肿瘤的46%。世界卫生组织1998年公布按死亡率...", "lemmaUrl": "http://baike.baidu.com/item/%E8%84%91%E8%83%B6%E8%B4%A8%E7%BB%86%E8%83%9E%E7%98%A4/16970662", "lemmaPic": []}, {"lemmaId": 12428873, "lemmaTitle": "小儿食管化学性烧伤", "lemmaCroppedTitle": "小儿食管化学性烧伤", "lemmaDesc": "食管化学腐蚀伤多见于5岁以下幼儿，一般为误服强酸、强碱类物质所致。近年来，食管化...", "lemmaUrl": "http://baike.baidu.com/item/%E5%B0%8F%E5%84%BF%E9%A3%9F%E7%AE%A1%E5%8C%96%E5%AD%A6%E6%80%A7%E7%83%A7%E4%BC%A4/12428873", "lemmaPic": []}, {"lemmaId": 16972699, "lemmaTitle": "视神经脊髓病", "lemmaCroppedTitle": "视神经脊髓病", "lemmaDesc": "视神经脊髓炎（NOM）是视神经与脊髓同时或相继受累的急性或亚急性脱髓鞘病变，又称...", "lemmaUrl": "http://baike.baidu.com/item/%E8%A7%86%E7%A5%9E%E7%BB%8F%E8%84%8A%E9%AB%93%E7%97%85/16972699", "lemmaPic": []}, {"lemmaId": 15181330, "lemmaTitle": "急性快速进展性肾小球肾炎", "lemmaCroppedTitle": "急性快速进展性肾小球肾炎", "lemmaDesc": "急性快速进展性肾小球肾炎简称为急进性肾小球肾炎（RPGN），是以临床表现为急性肾...", "lemmaUrl": "http://baike.baidu.com/item/%E6%80%A5%E6%80%A7%E5%BF%AB%E9%80%9F%E8%BF%9B%E5%B1%95%E6%80%A7%E8%82%BE%E5%B0%8F%E7%90%83%E8%82%BE%E7%82%8E/15181330", "lemmaPic": []}, {"lemmaId": 12639826, "lemmaTitle": "小儿期前收缩", "lemmaCroppedTitle": "小儿期前收缩", "lemmaDesc": "期前收缩又称过早搏动，简称早搏，系指较主导节律提前出现的异位心搏。按异位起搏的部...", "lemmaUrl": "http://baike.baidu.com/item/%E5%B0%8F%E5%84%BF%E6%9C%9F%E5%89%8D%E6%94%B6%E7%BC%A9/12639826", "lemmaPic": []}, {"lemmaId": 13883811, "lemmaTitle": "瘢痕瘙痒", "lemmaCroppedTitle": "瘢痕瘙痒", "lemmaDesc": "目前认为瘢痕瘙痒与皮肤对刺激的敏感性增强有关：正常情况下，伤害感受器感受到外来刺...", "lemmaUrl": "http://baike.baidu.com/item/%E7%98%A2%E7%97%95%E7%98%99%E7%97%92/13883811", "lemmaPic": []}, {"lemmaId": 10226393, "lemmaTitle": "接触性布鲁菌病", "lemmaCroppedTitle": "接触性布鲁菌病", "lemmaDesc": "又名布氏杆菌皮炎，是一种多见于兽医及常与布氏杆菌感染动物接触者的急性红斑样损害性...", "lemmaUrl": "http://baike.baidu.com/item/%E6%8E%A5%E8%A7%A6%E6%80%A7%E5%B8%83%E9%B2%81%E8%8F%8C%E7%97%85/10226393", "lemmaPic": []}, {"lemmaId": 6425016, "lemmaTitle": "黏多糖贮积症Ⅵ型", "lemmaCroppedTitle": "黏多糖贮积症Ⅵ型", "lemmaDesc": "黏多糖贮积症Ⅵ型也称马-拉综合征，黏多糖增多症Ⅵ型，黏多糖贮积病Ⅵ型，黏多糖病Ⅵ...", "lemmaUrl": "http://baike.baidu.com/item/%E9%BB%8F%E5%A4%9A%E7%B3%96%E8%B4%AE%E7%A7%AF%E7%97%87%E2%85%A5%E5%9E%8B/6425016", "lemmaPic": []}, {"lemmaId": 18277552, "lemmaTitle": "气道异物", "lemmaCroppedTitle": "气道异物", "lemmaDesc": "气道异物，临床一般是指喉、气管及支气管外入性异物。清醒患者突然不能讲话、咳嗽，并...", "lemmaUrl": "http://baike.baidu.com/item/%E6%B0%94%E9%81%93%E5%BC%82%E7%89%A9/18277552", "lemmaPic": []}, {"lemmaId": 7252930, "lemmaTitle": "外阴隆凸性皮肤纤维肉瘤", "lemmaCroppedTitle": "外阴隆凸性皮肤纤维肉瘤", "lemmaDesc": "外阴隆凸性皮肤纤维肉瘤为低度-中度恶性纤维组织细胞瘤，具有病程长、生长缓慢、病变...", "lemmaUrl": "http://baike.baidu.com/item/%E5%A4%96%E9%98%B4%E9%9A%86%E5%87%B8%E6%80%A7%E7%9A%AE%E8%82%A4%E7%BA%A4%E7%BB%B4%E8%82%89%E7%98%A4/7252930", "lemmaPic": []}, {"lemmaId": 12630014, "lemmaTitle": "小儿石膏综合征", "lemmaCroppedTitle": "小儿石膏综合征", "lemmaDesc": "石膏综合征是指在采用不同方法治疗严重脊柱侧弯或后凸畸形的过程中，由于肠系膜上动脉...", "lemmaUrl": "http://baike.baidu.com/item/%E5%B0%8F%E5%84%BF%E7%9F%B3%E8%86%8F%E7%BB%BC%E5%90%88%E5%BE%81/12630014", "lemmaPic": []}, {"lemmaId": 12630024, "lemmaTitle": "小儿进行性骨化性肌炎", "lemmaCroppedTitle": "小儿进行性骨化性肌炎", "lemmaDesc": "骨化性肌炎可分3类，即外伤性、限局性和进行性三种。外伤性骨化性肌炎指一定部位的肌...", "lemmaUrl": "http://baike.baidu.com/item/%E5%B0%8F%E5%84%BF%E8%BF%9B%E8%A1%8C%E6%80%A7%E9%AA%A8%E5%8C%96%E6%80%A7%E8%82%8C%E7%82%8E/12630024", "lemmaPic": []}, {"lemmaId": 12307813, "lemmaTitle": "当代东南亚国际关系", "lemmaCroppedTitle": "当代东南亚国际关系", "lemmaDesc": "内容介绍本书目录简介：第一章、东南亚古代和近代国际关系；第二章、第二次世界大战对...", "lemmaUrl": "http://baike.baidu.com/item/%E5%BD%93%E4%BB%A3%E4%B8%9C%E5%8D%97%E4%BA%9A%E5%9B%BD%E9%99%85%E5%85%B3%E7%B3%BB/12307813", "lemmaPic": {"width": 363, "height": 363, "url": "https://gss0.bdstatic.com/94o3dSag_xI4khGkpoWK1HF6hhy/baike/w%3D168/sign=5b70d9fe8f1001e94e3c1009800f7b06/35a85edf8db1cb13b1e8ac04df54564e92584b20.jpg"}}, {"lemmaId": 18277608, "lemmaTitle": "骨髓增生异常综合征分型", "lemmaCroppedTitle": "骨髓增生异常综合征分型", "lemmaDesc": "骨髓增生异常综合征（MDS）是一个综合征，由一组疾病组成，而各个疾病间又有联系，...", "lemmaUrl": "http://baike.baidu.com/item/%E9%AA%A8%E9%AB%93%E5%A2%9E%E7%94%9F%E5%BC%82%E5%B8%B8%E7%BB%BC%E5%90%88%E5%BE%81%E5%88%86%E5%9E%8B/18277608", "lemmaPic": []}, {"lemmaId": 12428875, "lemmaTitle": "小儿腺病毒性肺炎", "lemmaCroppedTitle": "小儿腺病毒性肺炎", "lemmaDesc": "小儿腺病毒肺炎是病毒性肺炎中较常见的一种，多见于6个月～2岁的婴幼儿。冬、春两季...", "lemmaUrl": "http://baike.baidu.com/item/%E5%B0%8F%E5%84%BF%E8%85%BA%E7%97%85%E6%AF%92%E6%80%A7%E8%82%BA%E7%82%8E/12428875", "lemmaPic": []}, {"lemmaId": 12428475, "lemmaTitle": "先天性食管憩室", "lemmaCroppedTitle": "先天性食管憩室", "lemmaDesc": "先天性食管憩室较少见，根据其发生部位不同分为咽食管憩室，食管憩室，并有先天性食管...", "lemmaUrl": "http://baike.baidu.com/item/%E5%85%88%E5%A4%A9%E6%80%A7%E9%A3%9F%E7%AE%A1%E6%86%A9%E5%AE%A4/12428475", "lemmaPic": []}, {"lemmaId": 12810976, "lemmaTitle": "胸、腰椎椎体单纯性、楔形压缩骨折", "lemmaCroppedTitle": "胸、腰椎椎体单纯性、楔形压缩骨折", "lemmaDesc": "此为临床上最为多见的类型，多由高处落下臀部或足跟部着地所致，故易伴发跟骨或胫腓骨...", "lemmaUrl": "http://baike.baidu.com/item/%E8%83%B8%E3%80%81%E8%85%B0%E6%A4%8E%E6%A4%8E%E4%BD%93%E5%8D%95%E7%BA%AF%E6%80%A7%E3%80%81%E6%A5%94%E5%BD%A2%E5%8E%8B%E7%BC%A9%E9%AA%A8%E6%8A%98/12810976", "lemmaPic": []}, {"lemmaId": 12428712, "lemmaTitle": "小儿肾性贫血", "lemmaCroppedTitle": "小儿肾性贫血", "lemmaDesc": "肾性贫血是指由各种因素造成肾脏红细胞生成素（EPO）产生不足或尿毒症血浆中一些毒...", "lemmaUrl": "http://baike.baidu.com/item/%E5%B0%8F%E5%84%BF%E8%82%BE%E6%80%A7%E8%B4%AB%E8%A1%80/12428712", "lemmaPic": []}, {"lemmaId": 5505707, "lemmaTitle": "小儿下腔静脉阻塞综合征", "lemmaCroppedTitle": "小儿下腔静脉阻塞综合征", "lemmaDesc": "下腔静脉阻塞综合征是由于下腔静脉受邻近病变侵犯，压迫或腔内血栓形成等原因引起的下...", "lemmaUrl": "http://baike.baidu.com/item/%E5%B0%8F%E5%84%BF%E4%B8%8B%E8%85%94%E9%9D%99%E8%84%89%E9%98%BB%E5%A1%9E%E7%BB%BC%E5%90%88%E5%BE%81/5505707", "lemmaPic": []}, {"lemmaId": 12428597, "lemmaTitle": "小儿自律性房性心动过速", "lemmaCroppedTitle": "小儿自律性房性心动过速", "lemmaDesc": "自律性房性心动过速（AAT）又称异位性房性心动过速（EAT）。其临床特点为心动过...", "lemmaUrl": "http://baike.baidu.com/item/%E5%B0%8F%E5%84%BF%E8%87%AA%E5%BE%8B%E6%80%A7%E6%88%BF%E6%80%A7%E5%BF%83%E5%8A%A8%E8%BF%87%E9%80%9F/12428597", "lemmaPic": []}, {"lemmaId": 5553571, "lemmaTitle": "老年人病态窦房结综合征", "lemmaCroppedTitle": "老年人病态窦房结综合征", "lemmaDesc": "老年人病态窦房结综合征是指窦房结及其邻近组织发生病变，出现起搏和（或）冲动传出障...", "lemmaUrl": "http://baike.baidu.com/item/%E8%80%81%E5%B9%B4%E4%BA%BA%E7%97%85%E6%80%81%E7%AA%A6%E6%88%BF%E7%BB%93%E7%BB%BC%E5%90%88%E5%BE%81/5553571", "lemmaPic": []}, {"lemmaId": 12428565, "lemmaTitle": "巨细胞病毒病感染", "lemmaCroppedTitle": "巨细胞病毒病感染", "lemmaDesc": "巨细胞病毒（CMV）感染是由人类巨细胞病毒（HCMV）所致的一种全身感染综合征。...", "lemmaUrl": "http://baike.baidu.com/item/%E5%B7%A8%E7%BB%86%E8%83%9E%E7%97%85%E6%AF%92%E7%97%85%E6%84%9F%E6%9F%93/12428565", "lemmaPic": []}, {"lemmaId": 12677178, "lemmaTitle": "心包胸腺瘤", "lemmaCroppedTitle": "心包胸腺瘤", "lemmaDesc": "心包胸腺瘤大多为继发性，由前纵隔胸腺瘤转移而致，但也发现有原发性心包胸腺瘤的病例...", "lemmaUrl": "http://baike.baidu.com/item/%E5%BF%83%E5%8C%85%E8%83%B8%E8%85%BA%E7%98%A4/12677178", "lemmaPic": []}, {"lemmaId": 12810933, "lemmaTitle": "急性链球菌性皮肤坏死", "lemmaCroppedTitle": "急性链球菌性皮肤坏死", "lemmaDesc": "急性链球菌性皮肤坏死是由β-溶血性链球菌感染所致，以皮肤片状坏死为主要特征的一种...", "lemmaUrl": "http://baike.baidu.com/item/%E6%80%A5%E6%80%A7%E9%93%BE%E7%90%83%E8%8F%8C%E6%80%A7%E7%9A%AE%E8%82%A4%E5%9D%8F%E6%AD%BB/12810933", "lemmaPic": []}, {"lemmaId": 12630018, "lemmaTitle": "小儿空鞍综合征", "lemmaCroppedTitle": "小儿空鞍综合征", "lemmaDesc": "空鞍综合征是指蛛网膜下腔疝入垂体窝内，使垂体受压变形及蝶鞍扩大引起的1组综合征。...", "lemmaUrl": "http://baike.baidu.com/item/%E5%B0%8F%E5%84%BF%E7%A9%BA%E9%9E%8D%E7%BB%BC%E5%90%88%E5%BE%81/12630018", "lemmaPic": []}, {"lemmaId": 12810951, "lemmaTitle": "血管受压性吞咽困难", "lemmaCroppedTitle": "血管受压性吞咽困难", "lemmaDesc": "食管受压性吞咽困难是因主动脉弓衍化血管的异常而至食管、气管受压，临床出现以吞咽困...", "lemmaUrl": "http://baike.baidu.com/item/%E8%A1%80%E7%AE%A1%E5%8F%97%E5%8E%8B%E6%80%A7%E5%90%9E%E5%92%BD%E5%9B%B0%E9%9A%BE/12810951", "lemmaPic": []}, {"lemmaId": 19486111, "lemmaTitle": "儿童急性中耳炎", "lemmaCroppedTitle": "儿童急性中耳炎", "lemmaDesc": "急性中耳炎（Acute Otitis Media, AOM）是中耳黏膜的急性炎性...", "lemmaUrl": "http://baike.baidu.com/item/%E5%84%BF%E7%AB%A5%E6%80%A5%E6%80%A7%E4%B8%AD%E8%80%B3%E7%82%8E/19486111", "lemmaPic": []}, {"lemmaId": 6424984, "lemmaTitle": "涎腺未分化癌", "lemmaCroppedTitle": "涎腺未分化癌", "lemmaDesc": "涎腺未分化癌是一种分化程度极低或未分化的涎腺癌，组织学分类不能将其归入任何其他类...", "lemmaUrl": "http://baike.baidu.com/item/%E6%B6%8E%E8%85%BA%E6%9C%AA%E5%88%86%E5%8C%96%E7%99%8C/6424984", "lemmaPic": []}, {"lemmaId": 12676531, "lemmaTitle": "小儿亚急性骨髓炎", "lemmaCroppedTitle": "小儿亚急性骨髓炎", "lemmaDesc": "亚急性骨髓炎多是由于急性期治疗不充分或由低毒力细菌所引起的局限性骨感染。以起病隐...", "lemmaUrl": "http://baike.baidu.com/item/%E5%B0%8F%E5%84%BF%E4%BA%9A%E6%80%A5%E6%80%A7%E9%AA%A8%E9%AB%93%E7%82%8E/12676531", "lemmaPic": []}, {"lemmaId": 12676763, "lemmaTitle": "老年人变异型心绞痛", "lemmaCroppedTitle": "老年人变异型心绞痛", "lemmaDesc": "老年人变异型心绞痛，继发于大血管痉挛的心绞痛，特征是心绞痛在安静时发作，与劳累和...", "lemmaUrl": "http://baike.baidu.com/item/%E8%80%81%E5%B9%B4%E4%BA%BA%E5%8F%98%E5%BC%82%E5%9E%8B%E5%BF%83%E7%BB%9E%E7%97%9B/12676763", "lemmaPic": []}, {"lemmaId": 12428558, "lemmaTitle": "小儿豹皮综合征", "lemmaCroppedTitle": "小儿豹皮综合征", "lemmaDesc": "豹皮综合征的规范名称为豹斑综合征（Leopard Syndrome），也称多发性...", "lemmaUrl": "http://baike.baidu.com/item/%E5%B0%8F%E5%84%BF%E8%B1%B9%E7%9A%AE%E7%BB%BC%E5%90%88%E5%BE%81/12428558", "lemmaPic": []}, {"lemmaId": 12676523, "lemmaTitle": "小儿结核性心包炎", "lemmaCroppedTitle": "小儿结核性心包炎", "lemmaDesc": "我国结核性心包炎在心包疾病中占有重要位置，占心包疾病的21.3%～35.8%。目...", "lemmaUrl": "http://baike.baidu.com/item/%E5%B0%8F%E5%84%BF%E7%BB%93%E6%A0%B8%E6%80%A7%E5%BF%83%E5%8C%85%E7%82%8E/12676523", "lemmaPic": []}, {"lemmaId": 1566114, "lemmaTitle": "小儿弹性假黄瘤", "lemmaCroppedTitle": "小儿弹性假黄瘤", "lemmaDesc": "弹性假黄瘤即假性弹性黄色瘤病，又称皮肤假性黄色瘤、营养不良性弹力纤维病、系统性弹...", "lemmaUrl": "http://baike.baidu.com/item/%E5%B0%8F%E5%84%BF%E5%BC%B9%E6%80%A7%E5%81%87%E9%BB%84%E7%98%A4/1566114", "lemmaPic": []}, {"lemmaId": 7253070, "lemmaTitle": "老年人分水岭脑梗死", "lemmaCroppedTitle": "老年人分水岭脑梗死", "lemmaDesc": "分水岭脑梗死（CWSI）是指相邻血管供血区之间分水岭区或边缘带的局部缺血。它可以...", "lemmaUrl": "http://baike.baidu.com/item/%E8%80%81%E5%B9%B4%E4%BA%BA%E5%88%86%E6%B0%B4%E5%B2%AD%E8%84%91%E6%A2%97%E6%AD%BB/7253070", "lemmaPic": []}, {"lemmaId": 12630029, "lemmaTitle": "小儿纵隔压迫综合征", "lemmaCroppedTitle": "小儿纵隔压迫综合征", "lemmaDesc": "纵隔压迫综合征是一组症候群，凡纵隔内任何组织或器官的病变，都可对呼吸道、心血管和...", "lemmaUrl": "http://baike.baidu.com/item/%E5%B0%8F%E5%84%BF%E7%BA%B5%E9%9A%94%E5%8E%8B%E8%BF%AB%E7%BB%BC%E5%90%88%E5%BE%81/12630029", "lemmaPic": []}, {"lemmaId": 12676627, "lemmaTitle": "小儿军团病", "lemmaCroppedTitle": "小儿军团病", "lemmaDesc": "军团菌是一类需要特殊营养的革兰阴性需氧短杆菌，宽0.3～0.9μm，长2～3μm...", "lemmaUrl": "http://baike.baidu.com/item/%E5%B0%8F%E5%84%BF%E5%86%9B%E5%9B%A2%E7%97%85/12676627", "lemmaPic": []}, {"lemmaId": 16984019, "lemmaTitle": "A组链球菌感染", "lemmaCroppedTitle": "A组链球菌感染", "lemmaDesc": "A组链球菌（GAS）又称化脓性链球菌，是人类细菌感染中最重要的病原之一。GAS可...", "lemmaUrl": "http://baike.baidu.com/item/A%E7%BB%84%E9%93%BE%E7%90%83%E8%8F%8C%E6%84%9F%E6%9F%93/16984019", "lemmaPic": []}, {"lemmaId": 17659761, "lemmaTitle": "肢端稽留性皮炎", "lemmaCroppedTitle": "肢端稽留性皮炎", "lemmaDesc": "肢端稽留性皮炎又称为连续性肢端皮炎或称为匐行性皮炎，是手足部位一种慢性炎症性、复...", "lemmaUrl": "http://baike.baidu.com/item/%E8%82%A2%E7%AB%AF%E7%A8%BD%E7%95%99%E6%80%A7%E7%9A%AE%E7%82%8E/17659761", "lemmaPic": []}, {"lemmaId": 9698572, "lemmaTitle": "嗜人T淋巴细胞Ⅰ型所致的葡萄膜炎", "lemmaCroppedTitle": "嗜人T淋巴细胞Ⅰ型所致的葡萄膜炎", "lemmaDesc": "嗜人T淋巴细胞病毒（HTLV）是一种反转录病毒，目前发现有3型，即HTLV-Ⅰ，...", "lemmaUrl": "http://baike.baidu.com/item/%E5%97%9C%E4%BA%BAT%E6%B7%8B%E5%B7%B4%E7%BB%86%E8%83%9E%E2%85%A0%E5%9E%8B%E6%89%80%E8%87%B4%E7%9A%84%E8%91%A1%E8%90%84%E8%86%9C%E7%82%8E/9698572", "lemmaPic": []}, {"lemmaId": 18277610, "lemmaTitle": "难治、复发性急性白血病", "lemmaCroppedTitle": "难治、复发性急性白血病", "lemmaDesc": "难治性急性白血病的定义为：①用标准的诱导缓解方案治疗2个疗程未达部分缓解者。②首...", "lemmaUrl": "http://baike.baidu.com/item/%E9%9A%BE%E6%B2%BB%E3%80%81%E5%A4%8D%E5%8F%91%E6%80%A7%E6%80%A5%E6%80%A7%E7%99%BD%E8%A1%80%E7%97%85/18277610", "lemmaPic": []}, {"lemmaId": 7252850, "lemmaTitle": "非炎性眼球突出", "lemmaCroppedTitle": "非炎性眼球突出", "lemmaDesc": "非炎性眼球突出是指由眼眶肿瘤或全身病变所引起。除肿瘤位于肌圆锥内使眼球向正前方突...", "lemmaUrl": "http://baike.baidu.com/item/%E9%9D%9E%E7%82%8E%E6%80%A7%E7%9C%BC%E7%90%83%E7%AA%81%E5%87%BA/7252850", "lemmaPic": []}, {"lemmaId": 12093321, "lemmaTitle": "面瘫-唇肿-裂纹舌综合征", "lemmaCroppedTitle": "面瘫-唇肿-裂纹舌综合征", "lemmaDesc": "面瘫-唇肿-裂纹舌综合征是1928年Melkersson和1930年Rosent...", "lemmaUrl": "http://baike.baidu.com/item/%E9%9D%A2%E7%98%AB-%E5%94%87%E8%82%BF-%E8%A3%82%E7%BA%B9%E8%88%8C%E7%BB%BC%E5%90%88%E5%BE%81/12093321", "lemmaPic": []}, {"lemmaId": 16970517, "lemmaTitle": "脑内积水", "lemmaCroppedTitle": "脑内积水", "lemmaDesc": "脑积水是因颅内疾病引起的脑脊液分泌过多或（和）循环、吸收障碍而致颅内脑脊液存量增...", "lemmaUrl": "http://baike.baidu.com/item/%E8%84%91%E5%86%85%E7%A7%AF%E6%B0%B4/16970517", "lemmaPic": []}, {"lemmaId": 12428713, "lemmaTitle": "小儿肾淀粉样变性", "lemmaCroppedTitle": "小儿肾淀粉样变性", "lemmaDesc": "小儿肾淀粉样变性又称Muckle-Wells综合征，是淀粉样蛋白沉着于肾脏引起肾...", "lemmaUrl": "http://baike.baidu.com/item/%E5%B0%8F%E5%84%BF%E8%82%BE%E6%B7%80%E7%B2%89%E6%A0%B7%E5%8F%98%E6%80%A7/12428713", "lemmaPic": []}, {"lemmaId": 12676507, "lemmaTitle": "小儿槭糖尿病", "lemmaCroppedTitle": "小儿槭糖尿病", "lemmaDesc": "小儿槭糖尿病即枫糖尿症（MSUD）是一种常染色体隐性遗传病，由于分支酮酸脱羟酶的...", "lemmaUrl": "http://baike.baidu.com/item/%E5%B0%8F%E5%84%BF%E6%A7%AD%E7%B3%96%E5%B0%BF%E7%97%85/12676507", "lemmaPic": []}, {"lemmaId": 12428598, "lemmaTitle": "小儿家族性复发性血尿综合征", "lemmaCroppedTitle": "小儿家族性复发性血尿综合征", "lemmaDesc": "家族性复发性血尿综合征又称家族性再发性血尿、良性家族性血尿、家族性血尿综合征。以...", "lemmaUrl": "http://baike.baidu.com/item/%E5%B0%8F%E5%84%BF%E5%AE%B6%E6%97%8F%E6%80%A7%E5%A4%8D%E5%8F%91%E6%80%A7%E8%A1%80%E5%B0%BF%E7%BB%BC%E5%90%88%E5%BE%81/12428598", "lemmaPic": []}, {"lemmaId": 12676559, "lemmaTitle": "小儿热带巨脾综合征", "lemmaCroppedTitle": "小儿热带巨脾综合征", "lemmaDesc": "小儿热带巨脾综合征又称热带巨脾病或特发性热带脾肿大。主要表现为慢性巨脾，并伴有肝...", "lemmaUrl": "http://baike.baidu.com/item/%E5%B0%8F%E5%84%BF%E7%83%AD%E5%B8%A6%E5%B7%A8%E8%84%BE%E7%BB%BC%E5%90%88%E5%BE%81/12676559", "lemmaPic": []}, {"lemmaId": 12676773, "lemmaTitle": "老年人肥厚型心肌病", "lemmaCroppedTitle": "老年人肥厚型心肌病", "lemmaDesc": "肥厚型心肌病（HCM）是以心肌具有非对称性的，不均匀的肥厚和心室腔变小为特征的，...", "lemmaUrl": "http://baike.baidu.com/item/%E8%80%81%E5%B9%B4%E4%BA%BA%E8%82%A5%E5%8E%9A%E5%9E%8B%E5%BF%83%E8%82%8C%E7%97%85/12676773", "lemmaPic": []}, {"lemmaId": 6425142, "lemmaTitle": "糖尿病伴发葡萄膜炎", "lemmaCroppedTitle": "糖尿病伴发葡萄膜炎", "lemmaDesc": "与糖尿病相关的葡萄膜炎大致上有以下4种情况：1.与糖尿病本身相关的葡萄膜炎；2....", "lemmaUrl": "http://baike.baidu.com/item/%E7%B3%96%E5%B0%BF%E7%97%85%E4%BC%B4%E5%8F%91%E8%91%A1%E8%90%84%E8%86%9C%E7%82%8E/6425142", "lemmaPic": []}, {"lemmaId": 12676636, "lemmaTitle": "小儿多源性房性心动过速", "lemmaCroppedTitle": "小儿多源性房性心动过速", "lemmaDesc": "多源性房性心动过速（MAT）又称紊乱性房性心动过速（CAT），它是一种少见的独特...", "lemmaUrl": "http://baike.baidu.com/item/%E5%B0%8F%E5%84%BF%E5%A4%9A%E6%BA%90%E6%80%A7%E6%88%BF%E6%80%A7%E5%BF%83%E5%8A%A8%E8%BF%87%E9%80%9F/12676636", "lemmaPic": []}, {"lemmaId": 13883823, "lemmaTitle": "肺爆振伤", "lemmaCroppedTitle": "肺爆振伤", "lemmaDesc": "爆炸时产生高压波（气浪或水浪）对胸部冲击所造成的肺部损伤，常表现为外轻内重的特点...", "lemmaUrl": "http://baike.baidu.com/item/%E8%82%BA%E7%88%86%E6%8C%AF%E4%BC%A4/13883823", "lemmaPic": []}, {"lemmaId": 18277488, "lemmaTitle": "小儿多形红斑", "lemmaCroppedTitle": "小儿多形红斑", "lemmaDesc": "多形红斑是由多种原因引起的一种急性炎症性皮肤病。重型多形红斑又称为斯-琼综合征（...", "lemmaUrl": "http://baike.baidu.com/item/%E5%B0%8F%E5%84%BF%E5%A4%9A%E5%BD%A2%E7%BA%A2%E6%96%91/18277488", "lemmaPic": []}, {"lemmaId": 1566953, "lemmaTitle": "小儿共济失调毛细血管扩张综合征", "lemmaCroppedTitle": "小儿共济失调毛细血管扩张综合征", "lemmaDesc": "共济失调毛细血管扩张综合征是一组多系统受累的常染色体隐性遗传性疾病，又称为小儿L...", "lemmaUrl": "http://baike.baidu.com/item/%E5%B0%8F%E5%84%BF%E5%85%B1%E6%B5%8E%E5%A4%B1%E8%B0%83%E6%AF%9B%E7%BB%86%E8%A1%80%E7%AE%A1%E6%89%A9%E5%BC%A0%E7%BB%BC%E5%90%88%E5%BE%81/1566953", "lemmaPic": []}, {"lemmaId": 12000404, "lemmaTitle": "性腺功能异常所致精神障碍", "lemmaCroppedTitle": "性腺功能异常所致精神障碍", "lemmaDesc": "性腺功能异常所致精神障碍是指由于生理和病理的原因引起性腺激素平衡失调，致性腺功能...", "lemmaUrl": "http://baike.baidu.com/item/%E6%80%A7%E8%85%BA%E5%8A%9F%E8%83%BD%E5%BC%82%E5%B8%B8%E6%89%80%E8%87%B4%E7%B2%BE%E7%A5%9E%E9%9A%9C%E7%A2%8D/12000404", "lemmaPic": []}, {"lemmaId": 12676668, "lemmaTitle": "小儿雅克什综合征", "lemmaCroppedTitle": "小儿雅克什综合征", "lemmaDesc": "雅克什综合征即von Jaksch综合征又称婴儿假性白血病贫血婴儿脾大性贫血、感...", "lemmaUrl": "http://baike.baidu.com/item/%E5%B0%8F%E5%84%BF%E9%9B%85%E5%85%8B%E4%BB%80%E7%BB%BC%E5%90%88%E5%BE%81/12676668", "lemmaPic": []}, {"lemmaId": 3559719, "lemmaTitle": "急性盆腔结缔组织炎", "lemmaCroppedTitle": "急性盆腔结缔组织炎", "lemmaDesc": "盆腔结缔组织是腹膜外的组织，位于盆腔腹膜的后方，子宫两侧及膀胱前间隙处，这些部位...", "lemmaUrl": "http://baike.baidu.com/item/%E6%80%A5%E6%80%A7%E7%9B%86%E8%85%94%E7%BB%93%E7%BC%94%E7%BB%84%E7%BB%87%E7%82%8E/3559719", "lemmaPic": []}, {"lemmaId": 12677155, "lemmaTitle": "老年休克", "lemmaCroppedTitle": "老年休克", "lemmaDesc": "老年休克是机体由于各种致病因素引起的神经-体液因子失调与急性微循环障碍，导致组织...", "lemmaUrl": "http://baike.baidu.com/item/%E8%80%81%E5%B9%B4%E4%BC%91%E5%85%8B/12677155", "lemmaPic": []}, {"lemmaId": 18277602, "lemmaTitle": "慢性自身免疫性胰腺炎", "lemmaCroppedTitle": "慢性自身免疫性胰腺炎", "lemmaDesc": "自身免疫性胰腺炎（AIP），是胰腺对自身成分作为抗原，由CD4阳性的辅助细胞的识...", "lemmaUrl": "http://baike.baidu.com/item/%E6%85%A2%E6%80%A7%E8%87%AA%E8%BA%AB%E5%85%8D%E7%96%AB%E6%80%A7%E8%83%B0%E8%85%BA%E7%82%8E/18277602", "lemmaPic": []}, {"lemmaId": 12372738, "lemmaTitle": "金融导论", "lemmaCroppedTitle": "金融导论", "lemmaDesc": "内容介绍金融导论，ISBN：9787810917988，作者：张小琴\r\n1", "lemmaUrl": "http://baike.baidu.com/item/%E9%87%91%E8%9E%8D%E5%AF%BC%E8%AE%BA/12372738", "lemmaPic": {"width": 200, "height": 200, "url": "https://gss1.bdstatic.com/9vo3dSag_xI4khGkpoWK1HF6hhy/baike/w%3D168/sign=9560f0dde4cd7b89e96c3e8537254291/f703738da9773912f27c7576fa198618367ae24b.jpg"}}, {"lemmaId": 12677087, "lemmaTitle": "老年性昏迷", "lemmaCroppedTitle": "老年性昏迷", "lemmaDesc": "昏迷为脑功能发生高度抑制的病理状态。主要特征是严重的意识障碍，病人对体内外一切刺...", "lemmaUrl": "http://baike.baidu.com/item/%E8%80%81%E5%B9%B4%E6%80%A7%E6%98%8F%E8%BF%B7/12677087", "lemmaPic": []}, {"lemmaId": 16972542, "lemmaTitle": "发作性睡眠四联症", "lemmaCroppedTitle": "发作性睡眠四联症", "lemmaDesc": "概述1975年，在法国召开了第一次发作性睡眠四联症国际研讨会，会上对该病做了如下...", "lemmaUrl": "http://baike.baidu.com/item/%E5%8F%91%E4%BD%9C%E6%80%A7%E7%9D%A1%E7%9C%A0%E5%9B%9B%E8%81%94%E7%97%87/16972542", "lemmaPic": []}, {"lemmaId": 1566605, "lemmaTitle": "小儿共济失调毛细血管扩张Ⅰ型综合征", "lemmaCroppedTitle": "小儿共济失调毛细血管扩张Ⅰ型综合征", "lemmaDesc": "共济失调毛细血管扩张Ⅰ型综合征又称共济失调性毛细血管扩张症、共济失调毛细血管扩张...", "lemmaUrl": "http://baike.baidu.com/item/%E5%B0%8F%E5%84%BF%E5%85%B1%E6%B5%8E%E5%A4%B1%E8%B0%83%E6%AF%9B%E7%BB%86%E8%A1%80%E7%AE%A1%E6%89%A9%E5%BC%A0%E2%85%A0%E5%9E%8B%E7%BB%BC%E5%90%88%E5%BE%81/1566605", "lemmaPic": []}, {"lemmaId": 16746313, "lemmaTitle": "少见食管恶性肿瘤", "lemmaCroppedTitle": "少见食管恶性肿瘤", "lemmaDesc": "食管恶性肿瘤中最多见的是鳞状上皮细胞癌，占全部食管恶性肿瘤的95%以上，食管其他...", "lemmaUrl": "http://baike.baidu.com/item/%E5%B0%91%E8%A7%81%E9%A3%9F%E7%AE%A1%E6%81%B6%E6%80%A7%E8%82%BF%E7%98%A4/16746313", "lemmaPic": []}, {"lemmaId": 12676544, "lemmaTitle": "小儿烹调综合征", "lemmaCroppedTitle": "小儿烹调综合征", "lemmaDesc": "小儿烹调综合征是指进食中餐后，发生的一系列复合症状，由Kwork首次报道。可见全...", "lemmaUrl": "http://baike.baidu.com/item/%E5%B0%8F%E5%84%BF%E7%83%B9%E8%B0%83%E7%BB%BC%E5%90%88%E5%BE%81/12676544", "lemmaPic": []}, {"lemmaId": 12810965, "lemmaTitle": "小儿糖原贮积病Ⅲ型", "lemmaCroppedTitle": "小儿糖原贮积病Ⅲ型", "lemmaDesc": "小儿糖原贮积病Ⅲ型（GSD-Ⅲ）是常染色体隐性遗传疾病，一类先天性酶（脱支酶）缺...", "lemmaUrl": "http://baike.baidu.com/item/%E5%B0%8F%E5%84%BF%E7%B3%96%E5%8E%9F%E8%B4%AE%E7%A7%AF%E7%97%85%E2%85%A2%E5%9E%8B/12810965", "lemmaPic": []}, {"lemmaId": 12428702, "lemmaTitle": "小儿尿石症", "lemmaCroppedTitle": "小儿尿石症", "lemmaDesc": "泌尿系结石是泌尿外科的常见病、多发病，绝大多数是来自膀胱和肾脏的结石，少数原发于...", "lemmaUrl": "http://baike.baidu.com/item/%E5%B0%8F%E5%84%BF%E5%B0%BF%E7%9F%B3%E7%97%87/12428702", "lemmaPic": []}, {"lemmaId": 18277529, "lemmaTitle": "妊娠合并类风湿性关节炎", "lemmaCroppedTitle": "妊娠合并类风湿性关节炎", "lemmaDesc": "类风湿性关节炎（RA）是一种以关节滑膜为主要靶器官的自身免疫性疾病。主要表现为对...", "lemmaUrl": "http://baike.baidu.com/item/%E5%A6%8A%E5%A8%A0%E5%90%88%E5%B9%B6%E7%B1%BB%E9%A3%8E%E6%B9%BF%E6%80%A7%E5%85%B3%E8%8A%82%E7%82%8E/18277529", "lemmaPic": []}, {"lemmaId": 7253403, "lemmaTitle": "老年人期前收缩", "lemmaCroppedTitle": "老年人期前收缩", "lemmaDesc": "前收缩亦称过早搏动，简称早搏，是由异位起搏点提早发出冲动所引起的心脏搏动。按起搏...", "lemmaUrl": "http://baike.baidu.com/item/%E8%80%81%E5%B9%B4%E4%BA%BA%E6%9C%9F%E5%89%8D%E6%94%B6%E7%BC%A9/7253403", "lemmaPic": []}], "total": 7246, "totalPage": 73, "page": 69, "fromLemma": 0}