{"lemmaList": [{"lemmaId": 3289940, "lemmaTitle": "炎症性腹主动脉瘤", "lemmaCroppedTitle": "炎症性腹主动脉瘤", "lemmaDesc": "炎症性腹主动脉瘤的概念于1972年首先被人提出。其特征是伴有动脉瘤周围组织的慢性...", "lemmaUrl": "http://baike.baidu.com/item/%E7%82%8E%E7%97%87%E6%80%A7%E8%85%B9%E4%B8%BB%E5%8A%A8%E8%84%89%E7%98%A4/3289940", "lemmaPic": []}, {"lemmaId": 12093420, "lemmaTitle": "小儿巨脑畸形综合征", "lemmaCroppedTitle": "小儿巨脑畸形综合征", "lemmaDesc": "小儿巨脑畸形综合征即脑性巨人症、儿童期脑性巨人畸形综合征，又称儿童巨脑综合征、S...", "lemmaUrl": "http://baike.baidu.com/item/%E5%B0%8F%E5%84%BF%E5%B7%A8%E8%84%91%E7%95%B8%E5%BD%A2%E7%BB%BC%E5%90%88%E5%BE%81/12093420", "lemmaPic": []}, {"lemmaId": 12700740, "lemmaTitle": "肉芽肿性酒渣鼻", "lemmaCroppedTitle": "肉芽肿性酒渣鼻", "lemmaDesc": "肉芽肿性酒渣鼻是一种特殊形式的丘疹型酒渣鼻，临床特点为在颜面发生淡红色或黄褐色丘...", "lemmaUrl": "http://baike.baidu.com/item/%E8%82%89%E8%8A%BD%E8%82%BF%E6%80%A7%E9%85%92%E6%B8%A3%E9%BC%BB/12700740", "lemmaPic": []}, {"lemmaId": 892405, "lemmaTitle": "卵巢两性母细胞瘤", "lemmaCroppedTitle": "卵巢两性母细胞瘤", "lemmaDesc": "卵巢两性母细胞瘤（Gynandroblastoma）首由Meyer1930年报道...", "lemmaUrl": "http://baike.baidu.com/item/%E5%8D%B5%E5%B7%A2%E4%B8%A4%E6%80%A7%E6%AF%8D%E7%BB%86%E8%83%9E%E7%98%A4/892405", "lemmaPic": []}, {"lemmaId": 12676978, "lemmaTitle": "双侧束支传导阻滞", "lemmaCroppedTitle": "双侧束支传导阻滞", "lemmaDesc": "双侧束支传导阻滞（BBBB）简称双束支阻滞，是指左、右束支主干同时发生阻滞，左或...", "lemmaUrl": "http://baike.baidu.com/item/%E5%8F%8C%E4%BE%A7%E6%9D%9F%E6%94%AF%E4%BC%A0%E5%AF%BC%E9%98%BB%E6%BB%9E/12676978", "lemmaPic": []}, {"lemmaId": 7254753, "lemmaTitle": "跖骨头骨软骨病", "lemmaCroppedTitle": "跖骨头骨软骨病", "lemmaDesc": "跖骨头骨软骨病是发生在跖骨头骨的无菌性坏死，多发生在15～16岁青少年，女性更常...", "lemmaUrl": "http://baike.baidu.com/item/%E8%B7%96%E9%AA%A8%E5%A4%B4%E9%AA%A8%E8%BD%AF%E9%AA%A8%E7%97%85/7254753", "lemmaPic": []}, {"lemmaId": 2150625, "lemmaTitle": "肝性卟啉病", "lemmaCroppedTitle": "肝性卟啉病", "lemmaDesc": "卟啉病是一种卟啉代谢紊乱的疾病，以尿中和粪中卟啉和卟啉前体排泄增多为特点。卟啉病...", "lemmaUrl": "http://baike.baidu.com/item/%E8%82%9D%E6%80%A7%E5%8D%9F%E5%95%89%E7%97%85/2150625", "lemmaPic": []}, {"lemmaId": 5072756, "lemmaTitle": "混合型肾小管性酸中毒", "lemmaCroppedTitle": "混合型肾小管性酸中毒", "lemmaDesc": "混合型肾小管性酸中毒（混合型RTA）是Ⅰ、Ⅱ型RTA并存，兼有Ⅰ、Ⅱ型RTA的临...", "lemmaUrl": "http://baike.baidu.com/item/%E6%B7%B7%E5%90%88%E5%9E%8B%E8%82%BE%E5%B0%8F%E7%AE%A1%E6%80%A7%E9%85%B8%E4%B8%AD%E6%AF%92/5072756", "lemmaPic": []}, {"lemmaId": 1643943, "lemmaTitle": "卵巢环管状性索肿瘤", "lemmaCroppedTitle": "卵巢环管状性索肿瘤", "lemmaDesc": "卵巢环管状性索肿瘤1970年首先由Scully报道、命名，迄今为止国内外文献仅报...", "lemmaUrl": "http://baike.baidu.com/item/%E5%8D%B5%E5%B7%A2%E7%8E%AF%E7%AE%A1%E7%8A%B6%E6%80%A7%E7%B4%A2%E8%82%BF%E7%98%A4/1643943", "lemmaPic": []}, {"lemmaId": 7255085, "lemmaTitle": "遗传性感觉神经病", "lemmaCroppedTitle": "遗传性感觉神经病", "lemmaDesc": "遗传性感觉神经病归类于遗传性周围神经病，这是一组由遗传因素引起的以周围神经受损为...", "lemmaUrl": "http://baike.baidu.com/item/%E9%81%97%E4%BC%A0%E6%80%A7%E6%84%9F%E8%A7%89%E7%A5%9E%E7%BB%8F%E7%97%85/7255085", "lemmaPic": []}, {"lemmaId": 8009480, "lemmaTitle": "高脂蛋白血症Ⅲ型", "lemmaCroppedTitle": "高脂蛋白血症Ⅲ型", "lemmaDesc": "高脂蛋白血症Ⅲ型又名宽β疾病、β-脂蛋白不良血症。它是一个独立疾病，伴VLDLS...", "lemmaUrl": "http://baike.baidu.com/item/%E9%AB%98%E8%84%82%E8%9B%8B%E7%99%BD%E8%A1%80%E7%97%87%E2%85%A2%E5%9E%8B/8009480", "lemmaPic": []}, {"lemmaId": 3928084, "lemmaTitle": "肺青霉病", "lemmaCroppedTitle": "肺青霉病", "lemmaDesc": "青霉菌广泛存在于自然界，某些可产生抗生素如青霉素及多种酶和有机酸，多数常为污染菌...", "lemmaUrl": "http://baike.baidu.com/item/%E8%82%BA%E9%9D%92%E9%9C%89%E7%97%85/3928084", "lemmaPic": []}, {"lemmaId": 10307132, "lemmaTitle": "原藻病", "lemmaCroppedTitle": "原藻病", "lemmaDesc": "原藻病又名无绿藻病、原壁菌病，是无绿藻引起人皮肤、皮下组织、口腔、鼻、浆膜等处感...", "lemmaUrl": "http://baike.baidu.com/item/%E5%8E%9F%E8%97%BB%E7%97%85/10307132", "lemmaPic": []}, {"lemmaId": 10695591, "lemmaTitle": "甲状旁腺功能减退性心肌病", "lemmaCroppedTitle": "甲状旁腺功能减退性心肌病", "lemmaDesc": "未及时发现和治疗的慢性甲状旁腺功能减退可因长期低钙、低镁血症而累及心血管系统，表...", "lemmaUrl": "http://baike.baidu.com/item/%E7%94%B2%E7%8A%B6%E6%97%81%E8%85%BA%E5%8A%9F%E8%83%BD%E5%87%8F%E9%80%80%E6%80%A7%E5%BF%83%E8%82%8C%E7%97%85/10695591", "lemmaPic": []}, {"lemmaId": 10489361, "lemmaTitle": "胆石性肠梗阻", "lemmaCroppedTitle": "胆石性肠梗阻", "lemmaDesc": "胆石性肠梗阻是由胆结石进入肠道后引起肠道堵塞所致的肠梗阻，起病隐匿，病程初期常呈...", "lemmaUrl": "http://baike.baidu.com/item/%E8%83%86%E7%9F%B3%E6%80%A7%E8%82%A0%E6%A2%97%E9%98%BB/10489361", "lemmaPic": []}, {"lemmaId": 3830013, "lemmaTitle": "吞噬功能缺陷病", "lemmaCroppedTitle": "吞噬功能缺陷病", "lemmaDesc": "吞噬功能缺陷病，包括慢性肉芽肿病（CGD）和Chédiak-Higashi综合征...", "lemmaUrl": "http://baike.baidu.com/item/%E5%90%9E%E5%99%AC%E5%8A%9F%E8%83%BD%E7%BC%BA%E9%99%B7%E7%97%85/3830013", "lemmaPic": []}, {"lemmaId": 4272551, "lemmaTitle": "食管类癌", "lemmaCroppedTitle": "食管类癌", "lemmaDesc": "食管类癌是起源于消化道嗜铬细胞的分化良好的神经内分泌肿瘤，占消化道恶性肿瘤的0....", "lemmaUrl": "http://baike.baidu.com/item/%E9%A3%9F%E7%AE%A1%E7%B1%BB%E7%99%8C/4272551", "lemmaPic": []}, {"lemmaId": 6292948, "lemmaTitle": "α1抗胰蛋白酶缺乏性肝病", "lemmaCroppedTitle": "α1抗胰蛋白酶缺乏性肝病", "lemmaDesc": "α1抗胰蛋白酶缺乏性肝病是遗传性α1抗胰蛋白酶缺乏引起的代谢性肝脏疾病，以常染色...", "lemmaUrl": "http://baike.baidu.com/item/%CE%B11%E6%8A%97%E8%83%B0%E8%9B%8B%E7%99%BD%E9%85%B6%E7%BC%BA%E4%B9%8F%E6%80%A7%E8%82%9D%E7%97%85/6292948", "lemmaPic": []}, {"lemmaId": 8730816, "lemmaTitle": "高脂蛋白血症Ⅴ型", "lemmaCroppedTitle": "高脂蛋白血症Ⅴ型", "lemmaDesc": "高脂蛋白血症Ⅴ型又名脂肪和糖诱导的高脂血症、高乳糜微粒血症和高前β-脂蛋白血症、...", "lemmaUrl": "http://baike.baidu.com/item/%E9%AB%98%E8%84%82%E8%9B%8B%E7%99%BD%E8%A1%80%E7%97%87%E2%85%A4%E5%9E%8B/8730816", "lemmaPic": []}, {"lemmaId": 6519146, "lemmaTitle": "外伤性脑膜炎", "lemmaCroppedTitle": "外伤性脑膜炎", "lemmaDesc": "外伤性脑膜炎多见于开放性颅脑损伤、火器伤及颅底骨折患者。常与伤口处理过晚、清创不...", "lemmaUrl": "http://baike.baidu.com/item/%E5%A4%96%E4%BC%A4%E6%80%A7%E8%84%91%E8%86%9C%E7%82%8E/6519146", "lemmaPic": []}, {"lemmaId": 12982149, "lemmaTitle": "双糖酶缺乏症", "lemmaCroppedTitle": "双糖酶缺乏症", "lemmaDesc": "本病又称双糖不耐受症，系指各种先天性或后天性疾病使小肠黏膜刷状缘双糖酶缺乏，使双...", "lemmaUrl": "http://baike.baidu.com/item/%E5%8F%8C%E7%B3%96%E9%85%B6%E7%BC%BA%E4%B9%8F%E7%97%87/12982149", "lemmaPic": []}, {"lemmaId": 1679333, "lemmaTitle": "泪腺多形性腺癌", "lemmaCroppedTitle": "泪腺多形性腺癌", "lemmaDesc": "泪腺多形性腺癌，又称恶性泪腺混合瘤，其临床表现类似泪腺良性多形性腺瘤，但其预后却...", "lemmaUrl": "http://baike.baidu.com/item/%E6%B3%AA%E8%85%BA%E5%A4%9A%E5%BD%A2%E6%80%A7%E8%85%BA%E7%99%8C/1679333", "lemmaPic": []}, {"lemmaId": 2093815, "lemmaTitle": "小儿贾第虫病", "lemmaCroppedTitle": "小儿贾第虫病", "lemmaDesc": "蓝氏贾第鞭毛虫病，现通称贾第虫病，是由蓝氏贾第鞭毛虫寄生在人体小肠引起的原虫性疾...", "lemmaUrl": "http://baike.baidu.com/item/%E5%B0%8F%E5%84%BF%E8%B4%BE%E7%AC%AC%E8%99%AB%E7%97%85/2093815", "lemmaPic": []}, {"lemmaId": 4092495, "lemmaTitle": "梅毒性葡萄膜炎", "lemmaCroppedTitle": "梅毒性葡萄膜炎", "lemmaDesc": "梅毒性葡萄膜炎是由梅毒螺旋体引起的一种性传播或血源性传播的性疾病，它可分为先天性...", "lemmaUrl": "http://baike.baidu.com/item/%E6%A2%85%E6%AF%92%E6%80%A7%E8%91%A1%E8%90%84%E8%86%9C%E7%82%8E/4092495", "lemmaPic": []}, {"lemmaId": 4846425, "lemmaTitle": "妊娠合并急性膀胱炎", "lemmaCroppedTitle": "妊娠合并急性膀胱炎", "lemmaDesc": "急性膀胱炎在孕妇中可由无症状菌尿症发展而来，但亦有首次尿培养为阴性者，后者可能与...", "lemmaUrl": "http://baike.baidu.com/item/%E5%A6%8A%E5%A8%A0%E5%90%88%E5%B9%B6%E6%80%A5%E6%80%A7%E8%86%80%E8%83%B1%E7%82%8E/4846425", "lemmaPic": []}, {"lemmaId": 4583881, "lemmaTitle": "水痘-带状疱疹性葡萄膜炎", "lemmaCroppedTitle": "水痘-带状疱疹性葡萄膜炎", "lemmaDesc": "水痘-带状疱疹性葡萄膜炎可先天性的或获得性的，其所致的急性视网膜坏死综合征，已成...", "lemmaUrl": "http://baike.baidu.com/item/%E6%B0%B4%E7%97%98-%E5%B8%A6%E7%8A%B6%E7%96%B1%E7%96%B9%E6%80%A7%E8%91%A1%E8%90%84%E8%86%9C%E7%82%8E/4583881", "lemmaPic": []}, {"lemmaId": 4402145, "lemmaTitle": "原发性心脏淋巴瘤", "lemmaCroppedTitle": "原发性心脏淋巴瘤", "lemmaDesc": "原发性心脏淋巴瘤（primary cardiac lymphoma）是一种罕见的...", "lemmaUrl": "http://baike.baidu.com/item/%E5%8E%9F%E5%8F%91%E6%80%A7%E5%BF%83%E8%84%8F%E6%B7%8B%E5%B7%B4%E7%98%A4/4402145", "lemmaPic": []}, {"lemmaId": 4013848, "lemmaTitle": "外伤后颈内动脉闭塞", "lemmaCroppedTitle": "外伤后颈内动脉闭塞", "lemmaDesc": "外伤性颈内动脉闭塞，亦称为颈内动脉闭合性损伤。外伤性颈内动脉闭塞临床少见，系急性...", "lemmaUrl": "http://baike.baidu.com/item/%E5%A4%96%E4%BC%A4%E5%90%8E%E9%A2%88%E5%86%85%E5%8A%A8%E8%84%89%E9%97%AD%E5%A1%9E/4013848", "lemmaPic": []}, {"lemmaId": 3937012, "lemmaTitle": "胸部丝虫病", "lemmaCroppedTitle": "胸部丝虫病", "lemmaDesc": "由班氏丝虫、马来丝虫及犬恶丝虫或微丝蚴在胸部淋巴管内寄生引起淋巴道阻塞、引流障碍...", "lemmaUrl": "http://baike.baidu.com/item/%E8%83%B8%E9%83%A8%E4%B8%9D%E8%99%AB%E7%97%85/3937012", "lemmaPic": []}, {"lemmaId": 3974029, "lemmaTitle": "巴斯德菌肺炎", "lemmaCroppedTitle": "巴斯德菌肺炎", "lemmaDesc": "出血败血性巴斯德菌是猫和狗口腔正常菌丛，也是许多动物和鸟类常见的呼吸道感染病因。...", "lemmaUrl": "http://baike.baidu.com/item/%E5%B7%B4%E6%96%AF%E5%BE%B7%E8%8F%8C%E8%82%BA%E7%82%8E/3974029", "lemmaPic": []}, {"lemmaId": 3435891, "lemmaTitle": "老年人呼吸性酸中毒", "lemmaCroppedTitle": "老年人呼吸性酸中毒", "lemmaDesc": "老年人呼吸性酸中毒，别名老年呼吸性酸中毒。是呼吸性酸中毒（呼酸）常因CO2潴留所...", "lemmaUrl": "http://baike.baidu.com/item/%E8%80%81%E5%B9%B4%E4%BA%BA%E5%91%BC%E5%90%B8%E6%80%A7%E9%85%B8%E4%B8%AD%E6%AF%92/3435891", "lemmaPic": []}, {"lemmaId": 7254534, "lemmaTitle": "听小骨创伤", "lemmaCroppedTitle": "听小骨创伤", "lemmaDesc": "直接或间接外伤导致传导性听力损失一开始就超过50dB（分贝）HL（听力级），或在...", "lemmaUrl": "http://baike.baidu.com/item/%E5%90%AC%E5%B0%8F%E9%AA%A8%E5%88%9B%E4%BC%A4/7254534", "lemmaPic": []}, {"lemmaId": 2839006, "lemmaTitle": "头-面血管瘤综合征", "lemmaCroppedTitle": "头-面血管瘤综合征", "lemmaDesc": "头-面血管瘤综合征为一种累及面和脑的血管的先天性疾病，以面部血管痣、癫痫发作、颅...", "lemmaUrl": "http://baike.baidu.com/item/%E5%A4%B4-%E9%9D%A2%E8%A1%80%E7%AE%A1%E7%98%A4%E7%BB%BC%E5%90%88%E5%BE%81/2839006", "lemmaPic": []}, {"lemmaId": 3591739, "lemmaTitle": "创伤性气管及主支气管损伤", "lemmaCroppedTitle": "创伤性气管及主支气管损伤", "lemmaDesc": "穿透性创伤、锐性和钝性创伤都可以造成气管支气管损伤。穿透性气管损伤伤口一般在颈部...", "lemmaUrl": "http://baike.baidu.com/item/%E5%88%9B%E4%BC%A4%E6%80%A7%E6%B0%94%E7%AE%A1%E5%8F%8A%E4%B8%BB%E6%94%AF%E6%B0%94%E7%AE%A1%E6%8D%9F%E4%BC%A4/3591739", "lemmaPic": []}, {"lemmaId": 4485097, "lemmaTitle": "神经鞘黏液瘤", "lemmaCroppedTitle": "神经鞘黏液瘤", "lemmaDesc": "神经鞘黏液瘤为一种神经间质肿瘤，其特征为在黏液瘤性基质中呈现不同程度的神经鞘细胞...", "lemmaUrl": "http://baike.baidu.com/item/%E7%A5%9E%E7%BB%8F%E9%9E%98%E9%BB%8F%E6%B6%B2%E7%98%A4/4485097", "lemmaPic": []}, {"lemmaId": 4668286, "lemmaTitle": "肾上腺皮质功能减退性心脏病", "lemmaCroppedTitle": "肾上腺皮质功能减退性心脏病", "lemmaDesc": "肾上腺皮质功能减退症是自身免疫、结核及肿瘤等严重破坏双侧肾上腺致肾上腺皮质激素分...", "lemmaUrl": "http://baike.baidu.com/item/%E8%82%BE%E4%B8%8A%E8%85%BA%E7%9A%AE%E8%B4%A8%E5%8A%9F%E8%83%BD%E5%87%8F%E9%80%80%E6%80%A7%E5%BF%83%E8%84%8F%E7%97%85/4668286", "lemmaPic": []}, {"lemmaId": 5877711, "lemmaTitle": "放射性脊髓病", "lemmaCroppedTitle": "放射性脊髓病", "lemmaDesc": "放射性脊髓病是由电离辐射（х、γ中子及电子束辐射等）引起超过脊髓承受范围而造成的...", "lemmaUrl": "http://baike.baidu.com/item/%E6%94%BE%E5%B0%84%E6%80%A7%E8%84%8A%E9%AB%93%E7%97%85/5877711", "lemmaPic": []}, {"lemmaId": 10696332, "lemmaTitle": "甲状腺功能减退性心肌病", "lemmaCroppedTitle": "甲状腺功能减退性心肌病", "lemmaDesc": "甲状腺功能减退是由于甲状腺激素分泌不足，机体代谢低下所引起的临床综合征。甲减可以...", "lemmaUrl": "http://baike.baidu.com/item/%E7%94%B2%E7%8A%B6%E8%85%BA%E5%8A%9F%E8%83%BD%E5%87%8F%E9%80%80%E6%80%A7%E5%BF%83%E8%82%8C%E7%97%85/10696332", "lemmaPic": []}, {"lemmaId": 2839024, "lemmaTitle": "小儿单侧肺异常透亮综合征", "lemmaCroppedTitle": "小儿单侧肺异常透亮综合征", "lemmaDesc": "小儿单侧肺异常透亮综合征，也称为过度透亮综合征，是一种X线征象而不是一个病名，如...", "lemmaUrl": "http://baike.baidu.com/item/%E5%B0%8F%E5%84%BF%E5%8D%95%E4%BE%A7%E8%82%BA%E5%BC%82%E5%B8%B8%E9%80%8F%E4%BA%AE%E7%BB%BC%E5%90%88%E5%BE%81/2839024", "lemmaPic": []}, {"lemmaId": 5381609, "lemmaTitle": "小儿巨大膀胱-巨大输尿管综合征", "lemmaCroppedTitle": "小儿巨大膀胱-巨大输尿管综合征", "lemmaDesc": "又名巨大膀胱并发巨大输尿管征，其特征为膀胱-输尿管巨大增粗。症状以尿路感染、血尿...", "lemmaUrl": "http://baike.baidu.com/item/%E5%B0%8F%E5%84%BF%E5%B7%A8%E5%A4%A7%E8%86%80%E8%83%B1-%E5%B7%A8%E5%A4%A7%E8%BE%93%E5%B0%BF%E7%AE%A1%E7%BB%BC%E5%90%88%E5%BE%81/5381609", "lemmaPic": []}, {"lemmaId": 5432949, "lemmaTitle": "靶样含铁血黄素沉积性血管瘤", "lemmaCroppedTitle": "靶样含铁血黄素沉积性血管瘤", "lemmaDesc": "起初为真皮浅层显著扩张和不规则的薄壁血管腔增生。瘀斑性环为靶样含铁血黄素沉积性血...", "lemmaUrl": "http://baike.baidu.com/item/%E9%9D%B6%E6%A0%B7%E5%90%AB%E9%93%81%E8%A1%80%E9%BB%84%E7%B4%A0%E6%B2%89%E7%A7%AF%E6%80%A7%E8%A1%80%E7%AE%A1%E7%98%A4/5432949", "lemmaPic": []}, {"lemmaId": 1964348, "lemmaTitle": "原发性皮肤结核综合征", "lemmaCroppedTitle": "原发性皮肤结核综合征", "lemmaDesc": "原发性皮肤结核综合征又称结核性下疳，患者之前从未感染过各种类型结核病，缺乏对结核...", "lemmaUrl": "http://baike.baidu.com/item/%E5%8E%9F%E5%8F%91%E6%80%A7%E7%9A%AE%E8%82%A4%E7%BB%93%E6%A0%B8%E7%BB%BC%E5%90%88%E5%BE%81/1964348", "lemmaPic": []}, {"lemmaId": 893458, "lemmaTitle": "青少年及小儿子宫颈癌", "lemmaCroppedTitle": "青少年及小儿子宫颈癌", "lemmaDesc": "青少年及小儿子宫颈肿瘤一般良性多于恶性。所发生的子宫颈癌均为腺癌，宫颈鳞状上皮癌...", "lemmaUrl": "http://baike.baidu.com/item/%E9%9D%92%E5%B0%91%E5%B9%B4%E5%8F%8A%E5%B0%8F%E5%84%BF%E5%AD%90%E5%AE%AB%E9%A2%88%E7%99%8C/893458", "lemmaPic": []}, {"lemmaId": 2940102, "lemmaTitle": "甘露糖苷贮积症", "lemmaCroppedTitle": "甘露糖苷贮积症", "lemmaDesc": "甘露糖苷贮积症是一种因α-甘露糖苷酶缺乏所引起的全身性疾病。临床可出现进行性面容...", "lemmaUrl": "http://baike.baidu.com/item/%E7%94%98%E9%9C%B2%E7%B3%96%E8%8B%B7%E8%B4%AE%E7%A7%AF%E7%97%87/2940102", "lemmaPic": []}, {"lemmaId": 4987213, "lemmaTitle": "酒中毒性痴呆", "lemmaCroppedTitle": "酒中毒性痴呆", "lemmaDesc": "酒中毒性痴呆或酒精性痴呆是酒精对脑组织的慢性直接作用所致的原发性、特征性痴呆。系...", "lemmaUrl": "http://baike.baidu.com/item/%E9%85%92%E4%B8%AD%E6%AF%92%E6%80%A7%E7%97%B4%E5%91%86/4987213", "lemmaPic": []}, {"lemmaId": 2873503, "lemmaTitle": "炎症相关性青光眼", "lemmaCroppedTitle": "炎症相关性青光眼", "lemmaDesc": "炎症相关性青光眼，属于继发性青光眼，往往同时合并闭角与开角两种因素。炎症相关的继...", "lemmaUrl": "http://baike.baidu.com/item/%E7%82%8E%E7%97%87%E7%9B%B8%E5%85%B3%E6%80%A7%E9%9D%92%E5%85%89%E7%9C%BC/2873503", "lemmaPic": []}, {"lemmaId": 16746319, "lemmaTitle": "酚麻美敏", "lemmaCroppedTitle": "酚麻美敏", "lemmaDesc": "酚麻美敏是治疗感冒症状的甲类非处方药，是商品名称，其对应的药品分别为小儿用的酚麻...", "lemmaUrl": "http://baike.baidu.com/item/%E9%85%9A%E9%BA%BB%E7%BE%8E%E6%95%8F/16746319", "lemmaPic": []}, {"lemmaId": 15753717, "lemmaTitle": "乳头肌断裂", "lemmaCroppedTitle": "乳头肌断裂", "lemmaDesc": "乳头肌断裂为心脏破裂更少见的一种并发症。多数发生在急性心肌梗死后一周内。老年人乳...", "lemmaUrl": "http://baike.baidu.com/item/%E4%B9%B3%E5%A4%B4%E8%82%8C%E6%96%AD%E8%A3%82/15753717", "lemmaPic": []}, {"lemmaId": 9814198, "lemmaTitle": "新生儿低钠血症", "lemmaCroppedTitle": "新生儿低钠血症", "lemmaDesc": "由于各种原因所致的钠缺乏或水潴留导致新生儿血钠低于130mmol/L时，出现的临...", "lemmaUrl": "http://baike.baidu.com/item/%E6%96%B0%E7%94%9F%E5%84%BF%E4%BD%8E%E9%92%A0%E8%A1%80%E7%97%87/9814198", "lemmaPic": []}, {"lemmaId": 3002709, "lemmaTitle": "东方马型脑炎", "lemmaCroppedTitle": "东方马型脑炎", "lemmaDesc": "东方马型脑炎是由东方马型脑炎病毒引起的人畜共患急性病毒性传染疾病，主要侵犯马和人...", "lemmaUrl": "http://baike.baidu.com/item/%E4%B8%9C%E6%96%B9%E9%A9%AC%E5%9E%8B%E8%84%91%E7%82%8E/3002709", "lemmaPic": []}, {"lemmaId": 1520473, "lemmaTitle": "巴顿骨折", "lemmaCroppedTitle": "巴顿骨折", "lemmaDesc": "巴顿骨折是指桡骨远端关节面纵斜向断裂、伴有腕关节半脱位者。", "lemmaUrl": "http://baike.baidu.com/item/%E5%B7%B4%E9%A1%BF%E9%AA%A8%E6%8A%98/1520473", "lemmaPic": []}, {"lemmaId": 3600134, "lemmaTitle": "老年人阳性杆菌肺炎", "lemmaCroppedTitle": "老年人阳性杆菌肺炎", "lemmaDesc": "革兰阳性杆菌肺炎是由革兰阳性杆菌感染所致，因老年人免疫功能低下特别易患革兰阳性杆...", "lemmaUrl": "http://baike.baidu.com/item/%E8%80%81%E5%B9%B4%E4%BA%BA%E9%98%B3%E6%80%A7%E6%9D%86%E8%8F%8C%E8%82%BA%E7%82%8E/3600134", "lemmaPic": []}, {"lemmaId": 881964, "lemmaTitle": "食管蹼和食管环", "lemmaCroppedTitle": "食管蹼和食管环", "lemmaDesc": "食管蹼是由食管腔内仅由黏膜和黏膜下层构成的薄（2～3毫米）而脆的蹼状隔膜，可见于...", "lemmaUrl": "http://baike.baidu.com/item/%E9%A3%9F%E7%AE%A1%E8%B9%BC%E5%92%8C%E9%A3%9F%E7%AE%A1%E7%8E%AF/881964", "lemmaPic": []}, {"lemmaId": 10146723, "lemmaTitle": "眼眶转移性肿瘤", "lemmaCroppedTitle": "眼眶转移性肿瘤", "lemmaDesc": "眼眶转移性肿瘤在成人和儿童之间的转移癌有相当明显的差别。在成人，大多数眼眶转移性...", "lemmaUrl": "http://baike.baidu.com/item/%E7%9C%BC%E7%9C%B6%E8%BD%AC%E7%A7%BB%E6%80%A7%E8%82%BF%E7%98%A4/10146723", "lemmaPic": []}, {"lemmaId": 943725, "lemmaTitle": "前列腺异位", "lemmaCroppedTitle": "前列腺异位", "lemmaDesc": "Lowley（1929）首先报告前列腺异位，提出在前列腺正常部位以外发生的前列腺...", "lemmaUrl": "http://baike.baidu.com/item/%E5%89%8D%E5%88%97%E8%85%BA%E5%BC%82%E4%BD%8D/943725", "lemmaPic": []}, {"lemmaId": 9633891, "lemmaTitle": "外伤性胆管损伤", "lemmaCroppedTitle": "外伤性胆管损伤", "lemmaDesc": "胆管损伤是指创伤或者腹部手术误伤引起的肝内、外胆管的损伤，分为创伤性和医源性胆道...", "lemmaUrl": "http://baike.baidu.com/item/%E5%A4%96%E4%BC%A4%E6%80%A7%E8%83%86%E7%AE%A1%E6%8D%9F%E4%BC%A4/9633891", "lemmaPic": []}, {"lemmaId": 7565083, "lemmaTitle": "小儿过敏症", "lemmaCroppedTitle": "小儿过敏症", "lemmaDesc": "过敏症又称过敏性休克或严重过敏反应。是一种严重的、威胁生命的全身多系统速发过敏反...", "lemmaUrl": "http://baike.baidu.com/item/%E5%B0%8F%E5%84%BF%E8%BF%87%E6%95%8F%E7%97%87/7565083", "lemmaPic": []}, {"lemmaId": 9777468, "lemmaTitle": "门脉高压性肠病", "lemmaCroppedTitle": "门脉高压性肠病", "lemmaDesc": "门脉高压性肠病（PHC）是1991年由Kozarek提出，指在门静脉高压症（PH...", "lemmaUrl": "http://baike.baidu.com/item/%E9%97%A8%E8%84%89%E9%AB%98%E5%8E%8B%E6%80%A7%E8%82%A0%E7%97%85/9777468", "lemmaPic": []}, {"lemmaId": 10681428, "lemmaTitle": "冠状动脉异常起源于肺动脉", "lemmaCroppedTitle": "冠状动脉异常起源于肺动脉", "lemmaDesc": "冠状动脉起源于肺动脉是指一支冠状动脉或其分支（左前降冠状动脉或左回旋冠状动脉），...", "lemmaUrl": "http://baike.baidu.com/item/%E5%86%A0%E7%8A%B6%E5%8A%A8%E8%84%89%E5%BC%82%E5%B8%B8%E8%B5%B7%E6%BA%90%E4%BA%8E%E8%82%BA%E5%8A%A8%E8%84%89/10681428", "lemmaPic": []}, {"lemmaId": 3004589, "lemmaTitle": "烧伤后急性肾功能衰竭", "lemmaCroppedTitle": "烧伤后急性肾功能衰竭", "lemmaDesc": "烧伤后低血容量性休克是引起急性肾衰竭的主要原因。烧伤后急性肾功能衰竭的临床表现是...", "lemmaUrl": "http://baike.baidu.com/item/%E7%83%A7%E4%BC%A4%E5%90%8E%E6%80%A5%E6%80%A7%E8%82%BE%E5%8A%9F%E8%83%BD%E8%A1%B0%E7%AB%AD/3004589", "lemmaPic": []}, {"lemmaId": 2340383, "lemmaTitle": "原发性气管肿瘤", "lemmaCroppedTitle": "原发性气管肿瘤", "lemmaDesc": "原发性气管肿瘤比较少见，约占呼吸系统肿瘤的1%。原发性气管肿瘤按分化程度可分为恶...", "lemmaUrl": "http://baike.baidu.com/item/%E5%8E%9F%E5%8F%91%E6%80%A7%E6%B0%94%E7%AE%A1%E8%82%BF%E7%98%A4/2340383", "lemmaPic": []}, {"lemmaId": 12700734, "lemmaTitle": "迂回性线状鱼鳞病", "lemmaCroppedTitle": "迂回性线状鱼鳞病", "lemmaDesc": "本病是一种角化性疾病，可见奇形怪状的移行性环状和多环状红斑，为常染色体隐性遗传性...", "lemmaUrl": "http://baike.baidu.com/item/%E8%BF%82%E5%9B%9E%E6%80%A7%E7%BA%BF%E7%8A%B6%E9%B1%BC%E9%B3%9E%E7%97%85/12700734", "lemmaPic": []}, {"lemmaId": 2908222, "lemmaTitle": "天冬氨酰葡萄糖胺尿症", "lemmaCroppedTitle": "天冬氨酰葡萄糖胺尿症", "lemmaDesc": "天冬氨酰葡萄糖胺尿症是由于体内天冬氨酰氨基葡萄糖苷酶缺乏而引起的一种常染色体隐性...", "lemmaUrl": "http://baike.baidu.com/item/%E5%A4%A9%E5%86%AC%E6%B0%A8%E9%85%B0%E8%91%A1%E8%90%84%E7%B3%96%E8%83%BA%E5%B0%BF%E7%97%87/2908222", "lemmaPic": []}, {"lemmaId": 3698518, "lemmaTitle": "神经系统的放射性损伤", "lemmaCroppedTitle": "神经系统的放射性损伤", "lemmaDesc": "放射性神经系统损伤是指神经系统各部位经电离辐射所产生的组织不良反应，是头颈部恶性...", "lemmaUrl": "http://baike.baidu.com/item/%E7%A5%9E%E7%BB%8F%E7%B3%BB%E7%BB%9F%E7%9A%84%E6%94%BE%E5%B0%84%E6%80%A7%E6%8D%9F%E4%BC%A4/3698518", "lemmaPic": []}, {"lemmaId": 4019088, "lemmaTitle": "转移性小肠肿瘤", "lemmaCroppedTitle": "转移性小肠肿瘤", "lemmaDesc": "转移性小肠肿瘤临床罕见，常发生于恶性肿瘤晚期或广泛转移者，尤其是来源于其他消化道...", "lemmaUrl": "http://baike.baidu.com/item/%E8%BD%AC%E7%A7%BB%E6%80%A7%E5%B0%8F%E8%82%A0%E8%82%BF%E7%98%A4/4019088", "lemmaPic": []}, {"lemmaId": 7779315, "lemmaTitle": "反射性躯体神经病", "lemmaCroppedTitle": "反射性躯体神经病", "lemmaDesc": "反射性躯体神经病又称躯体神经病、反射性交感神经性营养不良。指由手、足轻微外伤引起...", "lemmaUrl": "http://baike.baidu.com/item/%E5%8F%8D%E5%B0%84%E6%80%A7%E8%BA%AF%E4%BD%93%E7%A5%9E%E7%BB%8F%E7%97%85/7779315", "lemmaPic": []}, {"lemmaId": 6780954, "lemmaTitle": "垂体性矮小病", "lemmaCroppedTitle": "垂体性矮小病", "lemmaDesc": "垂体性侏儒症系指青春期以前垂体前叶生长激素缺乏所致的生长发育障碍。目前对此病唯一...", "lemmaUrl": "http://baike.baidu.com/item/%E5%9E%82%E4%BD%93%E6%80%A7%E7%9F%AE%E5%B0%8F%E7%97%85/6780954", "lemmaPic": []}, {"lemmaId": 10981483, "lemmaTitle": "胆固醇肺炎", "lemmaCroppedTitle": "胆固醇肺炎", "lemmaDesc": "胆固醇肺炎是胆固醇长期沉积在肺内引起的一种慢性炎症，大致可分为原发及继发两种。继...", "lemmaUrl": "http://baike.baidu.com/item/%E8%83%86%E5%9B%BA%E9%86%87%E8%82%BA%E7%82%8E/10981483", "lemmaPic": []}, {"lemmaId": 6775106, "lemmaTitle": "异源内分泌综合征", "lemmaCroppedTitle": "异源内分泌综合征", "lemmaDesc": "异源内分泌综合征也叫伴瘤内分泌综合征，是指肿瘤产生激素或激素样多肽所引起的内分泌...", "lemmaUrl": "http://baike.baidu.com/item/%E5%BC%82%E6%BA%90%E5%86%85%E5%88%86%E6%B3%8C%E7%BB%BC%E5%90%88%E5%BE%81/6775106", "lemmaPic": []}, {"lemmaId": 6979371, "lemmaTitle": "晶状体脱位所致青光眼", "lemmaCroppedTitle": "晶状体脱位所致青光眼", "lemmaDesc": "晶状体位置变化是指在生理情况下，位于后房的晶状体偏离了中心位置，在临床上表现为晶...", "lemmaUrl": "http://baike.baidu.com/item/%E6%99%B6%E7%8A%B6%E4%BD%93%E8%84%B1%E4%BD%8D%E6%89%80%E8%87%B4%E9%9D%92%E5%85%89%E7%9C%BC/6979371", "lemmaPic": []}, {"lemmaId": 5257692, "lemmaTitle": "游走性结节性脂膜炎", "lemmaCroppedTitle": "游走性结节性脂膜炎", "lemmaDesc": "游走性结节性脂膜炎是一种特殊的临床综合征，其特征为双侧或单侧小腿前面出现一个或数...", "lemmaUrl": "http://baike.baidu.com/item/%E6%B8%B8%E8%B5%B0%E6%80%A7%E7%BB%93%E8%8A%82%E6%80%A7%E8%84%82%E8%86%9C%E7%82%8E/5257692", "lemmaPic": []}, {"lemmaId": 3304963, "lemmaTitle": "卵黄状黄斑营养不良", "lemmaCroppedTitle": "卵黄状黄斑营养不良", "lemmaDesc": "本病又称Best病、多形性黄斑变性。本病世界各地均有报道，并非罕见。通常见于儿童...", "lemmaUrl": "http://baike.baidu.com/item/%E5%8D%B5%E9%BB%84%E7%8A%B6%E9%BB%84%E6%96%91%E8%90%A5%E5%85%BB%E4%B8%8D%E8%89%AF/3304963", "lemmaPic": []}, {"lemmaId": 10455159, "lemmaTitle": "滤泡树突细胞肉瘤", "lemmaCroppedTitle": "滤泡树突细胞肉瘤", "lemmaDesc": "滤泡树突细胞肉瘤是一类形态学呈梭形或椭圆形的细胞和表型上呈现滤泡树突细胞特征的肿...", "lemmaUrl": "http://baike.baidu.com/item/%E6%BB%A4%E6%B3%A1%E6%A0%91%E7%AA%81%E7%BB%86%E8%83%9E%E8%82%89%E7%98%A4/10455159", "lemmaPic": []}, {"lemmaId": 3821825, "lemmaTitle": "肾上腺素能依赖性尖端扭转性室性心动过速", "lemmaCroppedTitle": "肾上腺素能依赖性尖端扭转性室性心动过速", "lemmaDesc": "肾上腺素能依赖性尖端扭转性室性心动过速（ADTdpVT）亦称肾上腺素能依赖性多形...", "lemmaUrl": "http://baike.baidu.com/item/%E8%82%BE%E4%B8%8A%E8%85%BA%E7%B4%A0%E8%83%BD%E4%BE%9D%E8%B5%96%E6%80%A7%E5%B0%96%E7%AB%AF%E6%89%AD%E8%BD%AC%E6%80%A7%E5%AE%A4%E6%80%A7%E5%BF%83%E5%8A%A8%E8%BF%87%E9%80%9F/3821825", "lemmaPic": []}, {"lemmaId": 6816419, "lemmaTitle": "单纯性寰枢椎脱位", "lemmaCroppedTitle": "单纯性寰枢椎脱位", "lemmaDesc": "单纯性寰枢椎脱位属于旋转半脱位。实质是第1颈椎的侧块在第2颈椎侧块上方发生位移；...", "lemmaUrl": "http://baike.baidu.com/item/%E5%8D%95%E7%BA%AF%E6%80%A7%E5%AF%B0%E6%9E%A2%E6%A4%8E%E8%84%B1%E4%BD%8D/6816419", "lemmaPic": []}, {"lemmaId": 6823667, "lemmaTitle": "外伤相关性青光眼", "lemmaCroppedTitle": "外伤相关性青光眼", "lemmaDesc": "与眼外伤相关性青光眼系多因素引起的眼病。如眼部顿挫伤、撕裂伤、化学性物质损伤、电...", "lemmaUrl": "http://baike.baidu.com/item/%E5%A4%96%E4%BC%A4%E7%9B%B8%E5%85%B3%E6%80%A7%E9%9D%92%E5%85%89%E7%9C%BC/6823667", "lemmaPic": []}, {"lemmaId": 3527597, "lemmaTitle": "致密性骨发育障碍", "lemmaCroppedTitle": "致密性骨发育障碍", "lemmaDesc": "致密性骨发育障碍又称为Toulouse-Lautrec综合征，为常染色体隐性遗传...", "lemmaUrl": "http://baike.baidu.com/item/%E8%87%B4%E5%AF%86%E6%80%A7%E9%AA%A8%E5%8F%91%E8%82%B2%E9%9A%9C%E7%A2%8D/3527597", "lemmaPic": []}, {"lemmaId": 5824548, "lemmaTitle": "神经源性角膜炎", "lemmaCroppedTitle": "神经源性角膜炎", "lemmaDesc": "神经营养性角膜炎是角膜上皮愈合障碍的一种变性疾病。它的特征是角膜感觉缺失，导致角...", "lemmaUrl": "http://baike.baidu.com/item/%E7%A5%9E%E7%BB%8F%E6%BA%90%E6%80%A7%E8%A7%92%E8%86%9C%E7%82%8E/5824548", "lemmaPic": []}, {"lemmaId": 12630033, "lemmaTitle": "颈椎先天融合畸形", "lemmaCroppedTitle": "颈椎先天融合畸形", "lemmaDesc": "先天性颈椎融合畸形也称颈椎分节不良，此病于1912年首先由Klippel和Fei...", "lemmaUrl": "http://baike.baidu.com/item/%E9%A2%88%E6%A4%8E%E5%85%88%E5%A4%A9%E8%9E%8D%E5%90%88%E7%95%B8%E5%BD%A2/12630033", "lemmaPic": []}, {"lemmaId": 12810953, "lemmaTitle": "拇僵硬", "lemmaCroppedTitle": "拇僵硬", "lemmaDesc": "拇僵硬是一种累及第一跖趾关节的疼痛性关节炎，主要表现为第一跖趾关节背伸受限与背侧...", "lemmaUrl": "http://baike.baidu.com/item/%E6%8B%87%E5%83%B5%E7%A1%AC/12810953", "lemmaPic": []}, {"lemmaId": 11006828, "lemmaTitle": "筋骨懈堕", "lemmaCroppedTitle": "筋骨懈堕", "lemmaDesc": "筋骨懈堕是指筋骨松弛无力，难以支撑身体的症状。", "lemmaUrl": "http://baike.baidu.com/item/%E7%AD%8B%E9%AA%A8%E6%87%88%E5%A0%95/11006828", "lemmaPic": []}, {"lemmaId": 12676937, "lemmaTitle": "乳房外湿疹样癌", "lemmaCroppedTitle": "乳房外湿疹样癌", "lemmaDesc": "乳房外湿疹样癌（EMPD）是起源于大汗腺导管开口部细胞，或是自表皮内向大汗腺分化...", "lemmaUrl": "http://baike.baidu.com/item/%E4%B9%B3%E6%88%BF%E5%A4%96%E6%B9%BF%E7%96%B9%E6%A0%B7%E7%99%8C/12676937", "lemmaPic": []}, {"lemmaId": 7254880, "lemmaTitle": "脊髓梅毒", "lemmaCroppedTitle": "脊髓梅毒", "lemmaDesc": "脊髓梅毒是中枢神经梅毒的重要类型，包括脊髓痨、脊髓膜血管性梅毒和梅毒性脊髓炎。梅...", "lemmaUrl": "http://baike.baidu.com/item/%E8%84%8A%E9%AB%93%E6%A2%85%E6%AF%92/7254880", "lemmaPic": []}, {"lemmaId": 2116160, "lemmaTitle": "小儿常染色体隐性小脑性共济失调", "lemmaCroppedTitle": "小儿常染色体隐性小脑性共济失调", "lemmaDesc": "常染色体隐性小脑性共济失调这类疾病中，较重要的有Friedreich共济失调、共...", "lemmaUrl": "http://baike.baidu.com/item/%E5%B0%8F%E5%84%BF%E5%B8%B8%E6%9F%93%E8%89%B2%E4%BD%93%E9%9A%90%E6%80%A7%E5%B0%8F%E8%84%91%E6%80%A7%E5%85%B1%E6%B5%8E%E5%A4%B1%E8%B0%83/2116160", "lemmaPic": []}, {"lemmaId": 1258599, "lemmaTitle": "青少年及小儿卵巢肿瘤", "lemmaCroppedTitle": "青少年及小儿卵巢肿瘤", "lemmaDesc": "青少年及小儿的卵巢肿瘤较成人少见，20岁以下卵巢肿瘤的发生率仅5%～10%，但于...", "lemmaUrl": "http://baike.baidu.com/item/%E9%9D%92%E5%B0%91%E5%B9%B4%E5%8F%8A%E5%B0%8F%E5%84%BF%E5%8D%B5%E5%B7%A2%E8%82%BF%E7%98%A4/1258599", "lemmaPic": []}, {"lemmaId": 2076764, "lemmaTitle": "婴儿及儿童期癫痫及癫痫综合征", "lemmaCroppedTitle": "婴儿及儿童期癫痫及癫痫综合征", "lemmaDesc": "发生在婴儿至儿童期，除临床常见的特发性及症状性癫痫综合征，其他许多婴儿及儿童期癫...", "lemmaUrl": "http://baike.baidu.com/item/%E5%A9%B4%E5%84%BF%E5%8F%8A%E5%84%BF%E7%AB%A5%E6%9C%9F%E7%99%AB%E7%97%AB%E5%8F%8A%E7%99%AB%E7%97%AB%E7%BB%BC%E5%90%88%E5%BE%81/2076764", "lemmaPic": []}, {"lemmaId": 9836539, "lemmaTitle": "胸骨裂", "lemmaCroppedTitle": "胸骨裂", "lemmaDesc": "胚胎时期胸骨始基形成左、右胸骨板是在第9～10周时，两侧胸骨板在中线相互融合而形...", "lemmaUrl": "http://baike.baidu.com/item/%E8%83%B8%E9%AA%A8%E8%A3%82/9836539", "lemmaPic": []}, {"lemmaId": 12810975, "lemmaTitle": "手部屈指屈肌腱损伤", "lemmaCroppedTitle": "手部屈指屈肌腱损伤", "lemmaDesc": "手指的屈指肌腱在发挥手握持功能中起主要作用，它的解剖结构比较特殊，适应于它的生理...", "lemmaUrl": "http://baike.baidu.com/item/%E6%89%8B%E9%83%A8%E5%B1%88%E6%8C%87%E5%B1%88%E8%82%8C%E8%85%B1%E6%8D%9F%E4%BC%A4/12810975", "lemmaPic": []}, {"lemmaId": 3341093, "lemmaTitle": "妊娠合并硬皮病", "lemmaCroppedTitle": "妊娠合并硬皮病", "lemmaDesc": "硬皮病（scleroderma）是一种从皮肤及内脏器官结缔组织局限性或弥漫性纤维...", "lemmaUrl": "http://baike.baidu.com/item/%E5%A6%8A%E5%A8%A0%E5%90%88%E5%B9%B6%E7%A1%AC%E7%9A%AE%E7%97%85/3341093", "lemmaPic": []}, {"lemmaId": 8195495, "lemmaTitle": "鼻窦鳞状细胞癌", "lemmaCroppedTitle": "鼻窦鳞状细胞癌", "lemmaDesc": "鼻腔及鼻窦恶性肿瘤较为常见，鼻窦的恶性肿瘤较原发于鼻腔者为多见，尤以上颌窦恶性肿...", "lemmaUrl": "http://baike.baidu.com/item/%E9%BC%BB%E7%AA%A6%E9%B3%9E%E7%8A%B6%E7%BB%86%E8%83%9E%E7%99%8C/8195495", "lemmaPic": []}, {"lemmaId": 1851706, "lemmaTitle": "白血病伴发的精神障碍", "lemmaCroppedTitle": "白血病伴发的精神障碍", "lemmaDesc": "白血病伴发的精神障碍虽可因其原发疾病的不同，精神症状有所差异，但都具有共同特点：...", "lemmaUrl": "http://baike.baidu.com/item/%E7%99%BD%E8%A1%80%E7%97%85%E4%BC%B4%E5%8F%91%E7%9A%84%E7%B2%BE%E7%A5%9E%E9%9A%9C%E7%A2%8D/1851706", "lemmaPic": []}, {"lemmaId": 4477571, "lemmaTitle": "匍行性血管瘤", "lemmaCroppedTitle": "匍行性血管瘤", "lemmaDesc": "匍行性血管瘤是一种累及真皮浅层的少见血管组织肿瘤，多发生于十六岁以下女孩。皮损为...", "lemmaUrl": "http://baike.baidu.com/item/%E5%8C%8D%E8%A1%8C%E6%80%A7%E8%A1%80%E7%AE%A1%E7%98%A4/4477571", "lemmaPic": []}, {"lemmaId": 1307277, "lemmaTitle": "先天性囊状腺样畸形", "lemmaCroppedTitle": "先天性囊状腺样畸形", "lemmaDesc": "先天性囊状腺样畸形是指肺局部发育不全，肺组织结构紊乱，终末细支气管过度生长，形成...", "lemmaUrl": "http://baike.baidu.com/item/%E5%85%88%E5%A4%A9%E6%80%A7%E5%9B%8A%E7%8A%B6%E8%85%BA%E6%A0%B7%E7%95%B8%E5%BD%A2/1307277", "lemmaPic": []}, {"lemmaId": 4716612, "lemmaTitle": "继发性单克隆免疫球蛋白病", "lemmaCroppedTitle": "继发性单克隆免疫球蛋白病", "lemmaDesc": "继发性单克隆免疫球蛋白病又称为伴发于非浆细胞性疾病的单克隆免疫球蛋白血症。单克隆...", "lemmaUrl": "http://baike.baidu.com/item/%E7%BB%A7%E5%8F%91%E6%80%A7%E5%8D%95%E5%85%8B%E9%9A%86%E5%85%8D%E7%96%AB%E7%90%83%E8%9B%8B%E7%99%BD%E7%97%85/4716612", "lemmaPic": []}, {"lemmaId": 5248135, "lemmaTitle": "卡斯钦-贝克病", "lemmaCroppedTitle": "卡斯钦-贝克病", "lemmaDesc": "卡斯钦-贝克病又称大骨节病，是以软骨坏死为主的变形性骨关节病。多发生于儿童和少年...", "lemmaUrl": "http://baike.baidu.com/item/%E5%8D%A1%E6%96%AF%E9%92%A6-%E8%B4%9D%E5%85%8B%E7%97%85/5248135", "lemmaPic": []}, {"lemmaId": 12428571, "lemmaTitle": "急性胃黏膜病变", "lemmaCroppedTitle": "急性胃黏膜病变", "lemmaDesc": "急性胃黏膜病变（AGML）是以胃黏膜发生不同程度糜烂、浅溃疡和出血为特征的病变，...", "lemmaUrl": "http://baike.baidu.com/item/%E6%80%A5%E6%80%A7%E8%83%83%E9%BB%8F%E8%86%9C%E7%97%85%E5%8F%98/12428571", "lemmaPic": []}, {"lemmaId": 3904513, "lemmaTitle": "胸部阿米巴病", "lemmaCroppedTitle": "胸部阿米巴病", "lemmaDesc": "阿米巴病是溶组织阿米巴原虫引起，在人体内有滋养体和包囊两种形式，包囊具有传染性，...", "lemmaUrl": "http://baike.baidu.com/item/%E8%83%B8%E9%83%A8%E9%98%BF%E7%B1%B3%E5%B7%B4%E7%97%85/3904513", "lemmaPic": []}, {"lemmaId": 4662814, "lemmaTitle": "出血性休克和脑病综合征", "lemmaCroppedTitle": "出血性休克和脑病综合征", "lemmaDesc": "出血性休克和脑病综合征为罕见疾病，患儿发生严重休克、脑病等症状，并导致极其严重的...", "lemmaUrl": "http://baike.baidu.com/item/%E5%87%BA%E8%A1%80%E6%80%A7%E4%BC%91%E5%85%8B%E5%92%8C%E8%84%91%E7%97%85%E7%BB%BC%E5%90%88%E5%BE%81/4662814", "lemmaPic": []}, {"lemmaId": 917398, "lemmaTitle": "先天性小喉", "lemmaCroppedTitle": "先天性小喉", "lemmaDesc": "新生儿声门前后径为7毫米，后端横径4毫米。若前者小于5毫米，后者小于3毫米，视为...", "lemmaUrl": "http://baike.baidu.com/item/%E5%85%88%E5%A4%A9%E6%80%A7%E5%B0%8F%E5%96%89/917398", "lemmaPic": []}, {"lemmaId": 1967248, "lemmaTitle": "胆囊平滑肌肉瘤", "lemmaCroppedTitle": "胆囊平滑肌肉瘤", "lemmaDesc": "胆囊平滑肌肉瘤是胆结石诱发的一种肿瘤，好发于50岁以上的中老年女性，女性与男性之...", "lemmaUrl": "http://baike.baidu.com/item/%E8%83%86%E5%9B%8A%E5%B9%B3%E6%BB%91%E8%82%8C%E8%82%89%E7%98%A4/1967248", "lemmaPic": []}], "total": 7246, "totalPage": 73, "page": 59, "fromLemma": 0}