{"lemmaList": [{"lemmaId": 6498040, "lemmaTitle": "Theodore上方角膜缘角结膜炎", "lemmaCroppedTitle": "Theodore上方角膜缘角结膜炎", "lemmaDesc": "上方角膜缘角结膜炎（SLK）是以上睑结膜、上方球结膜、上方角膜缘和邻近角膜反复发...", "lemmaUrl": "http://baike.baidu.com/item/Theodore%E4%B8%8A%E6%96%B9%E8%A7%92%E8%86%9C%E7%BC%98%E8%A7%92%E7%BB%93%E8%86%9C%E7%82%8E/6498040", "lemmaPic": []}, {"lemmaId": 10695310, "lemmaTitle": "家族性载脂蛋白B100缺陷症", "lemmaCroppedTitle": "家族性载脂蛋白B100缺陷症", "lemmaDesc": "家族性载脂蛋白B100缺陷症（FDB）于1986年首次发现。在研究血浆胆固醇水平...", "lemmaUrl": "http://baike.baidu.com/item/%E5%AE%B6%E6%97%8F%E6%80%A7%E8%BD%BD%E8%84%82%E8%9B%8B%E7%99%BDB100%E7%BC%BA%E9%99%B7%E7%97%87/10695310", "lemmaPic": []}, {"lemmaId": 7253625, "lemmaTitle": "小儿急性化脓性关节炎", "lemmaCroppedTitle": "小儿急性化脓性关节炎", "lemmaDesc": "急性化脓性关节炎是指关节部位受化脓性细菌引起的感染。常见的病原菌占85%以上是金...", "lemmaUrl": "http://baike.baidu.com/item/%E5%B0%8F%E5%84%BF%E6%80%A5%E6%80%A7%E5%8C%96%E8%84%93%E6%80%A7%E5%85%B3%E8%8A%82%E7%82%8E/7253625", "lemmaPic": []}, {"lemmaId": 7570351, "lemmaTitle": "小儿食物变态反应", "lemmaCroppedTitle": "小儿食物变态反应", "lemmaDesc": "小儿食物变态反应也称为食物过敏，是由于某种食物或食品添加剂等引起的IgE介导和非...", "lemmaUrl": "http://baike.baidu.com/item/%E5%B0%8F%E5%84%BF%E9%A3%9F%E7%89%A9%E5%8F%98%E6%80%81%E5%8F%8D%E5%BA%94/7570351", "lemmaPic": []}, {"lemmaId": 16972781, "lemmaTitle": "结脑", "lemmaCroppedTitle": "结脑", "lemmaDesc": "结核性脑膜炎（TBM）是由结核杆菌引起的脑膜和脊膜的非化脓性炎症性疾病。在肺外结...", "lemmaUrl": "http://baike.baidu.com/item/%E7%BB%93%E8%84%91/16972781", "lemmaPic": []}, {"lemmaId": 10980474, "lemmaTitle": "卡普兰综合征", "lemmaCroppedTitle": "卡普兰综合征", "lemmaDesc": "卡普兰综合征，又有类风湿尘肺综合征、类风湿关节炎-尘肺综合征、硅沉着病关节炎等之...", "lemmaUrl": "http://baike.baidu.com/item/%E5%8D%A1%E6%99%AE%E5%85%B0%E7%BB%BC%E5%90%88%E5%BE%81/10980474", "lemmaPic": []}, {"lemmaId": 10226405, "lemmaTitle": "去分化软骨肉瘤", "lemmaCroppedTitle": "去分化软骨肉瘤", "lemmaDesc": "去分化软骨肉瘤是指在组织学上称为恶性纤维组织细胞瘤、纤维肉瘤、骨肉瘤和血管肉瘤的...", "lemmaUrl": "http://baike.baidu.com/item/%E5%8E%BB%E5%88%86%E5%8C%96%E8%BD%AF%E9%AA%A8%E8%82%89%E7%98%A4/10226405", "lemmaPic": []}, {"lemmaId": 7254974, "lemmaTitle": "亚急性坏死性脊髓炎", "lemmaCroppedTitle": "亚急性坏死性脊髓炎", "lemmaDesc": "亚急性坏死性脊髓炎（subacute necrotic myelitis）又称为...", "lemmaUrl": "http://baike.baidu.com/item/%E4%BA%9A%E6%80%A5%E6%80%A7%E5%9D%8F%E6%AD%BB%E6%80%A7%E8%84%8A%E9%AB%93%E7%82%8E/7254974", "lemmaPic": []}, {"lemmaId": 7254148, "lemmaTitle": "慢性创伤性滑囊炎", "lemmaCroppedTitle": "慢性创伤性滑囊炎", "lemmaDesc": "滑囊炎是滑囊的急、慢性炎症，根据其病因和性质。可分为创伤性滑囊炎、化脓性滑囊炎、...", "lemmaUrl": "http://baike.baidu.com/item/%E6%85%A2%E6%80%A7%E5%88%9B%E4%BC%A4%E6%80%A7%E6%BB%91%E5%9B%8A%E7%82%8E/7254148", "lemmaPic": []}, {"lemmaId": 12428892, "lemmaTitle": "新生儿急性肾功能衰竭", "lemmaCroppedTitle": "新生儿急性肾功能衰竭", "lemmaDesc": "新生儿急性肾功能衰竭（ARF）是指新生儿由不同病因使肾功能在短时间内受到损害，新...", "lemmaUrl": "http://baike.baidu.com/item/%E6%96%B0%E7%94%9F%E5%84%BF%E6%80%A5%E6%80%A7%E8%82%BE%E5%8A%9F%E8%83%BD%E8%A1%B0%E7%AB%AD/12428892", "lemmaPic": []}, {"lemmaId": 4613251, "lemmaTitle": "小儿白细胞黏附分子缺陷Ⅰ型", "lemmaCroppedTitle": "小儿白细胞黏附分子缺陷Ⅰ型", "lemmaDesc": "小儿白细胞黏附分子缺陷Ⅰ型是一种较少见的原发性免疫缺陷病，临床表现为脐带脱落延迟...", "lemmaUrl": "http://baike.baidu.com/item/%E5%B0%8F%E5%84%BF%E7%99%BD%E7%BB%86%E8%83%9E%E9%BB%8F%E9%99%84%E5%88%86%E5%AD%90%E7%BC%BA%E9%99%B7%E2%85%A0%E5%9E%8B/4613251", "lemmaPic": []}, {"lemmaId": 7254610, "lemmaTitle": "桡神经感觉支卡压", "lemmaCroppedTitle": "桡神经感觉支卡压", "lemmaDesc": "Wartenbery于1932年首次描述了由桡神经感觉支引起手部疼痛的病例，临床...", "lemmaUrl": "http://baike.baidu.com/item/%E6%A1%A1%E7%A5%9E%E7%BB%8F%E6%84%9F%E8%A7%89%E6%94%AF%E5%8D%A1%E5%8E%8B/7254610", "lemmaPic": []}, {"lemmaId": 12428594, "lemmaTitle": "小儿汞中毒", "lemmaCroppedTitle": "小儿汞中毒", "lemmaDesc": "小儿汞中毒主要由于误服或服用过量含汞药物所致。汞（Hg）是银白色液态金属，俗称水...", "lemmaUrl": "http://baike.baidu.com/item/%E5%B0%8F%E5%84%BF%E6%B1%9E%E4%B8%AD%E6%AF%92/12428594", "lemmaPic": []}, {"lemmaId": 11064360, "lemmaTitle": "黏多糖贮积症Ⅲ型", "lemmaCroppedTitle": "黏多糖贮积症Ⅲ型", "lemmaDesc": "黏多糖贮积症Ⅲ型又名山菲利普综合征，为常染色体隐性遗传性病，该型的临床特征和生化...", "lemmaUrl": "http://baike.baidu.com/item/%E9%BB%8F%E5%A4%9A%E7%B3%96%E8%B4%AE%E7%A7%AF%E7%97%87%E2%85%A2%E5%9E%8B/11064360", "lemmaPic": []}, {"lemmaId": 12700749, "lemmaTitle": "连圈状秕糠疹", "lemmaCroppedTitle": "连圈状秕糠疹", "lemmaDesc": "连圈状秕糠疹是一种少见的轻度角化过度性皮肤病，又称正圆形秕糠疹、正圆形后天性假性...", "lemmaUrl": "http://baike.baidu.com/item/%E8%BF%9E%E5%9C%88%E7%8A%B6%E7%A7%95%E7%B3%A0%E7%96%B9/12700749", "lemmaPic": []}, {"lemmaId": 5249414, "lemmaTitle": "老年人心脏淀粉样变性", "lemmaCroppedTitle": "老年人心脏淀粉样变性", "lemmaDesc": "早在1850年，Virchow发现人体组织细胞间有一种沉积物，与碘接触后呈现类似...", "lemmaUrl": "http://baike.baidu.com/item/%E8%80%81%E5%B9%B4%E4%BA%BA%E5%BF%83%E8%84%8F%E6%B7%80%E7%B2%89%E6%A0%B7%E5%8F%98%E6%80%A7/5249414", "lemmaPic": []}, {"lemmaId": 3965706, "lemmaTitle": "毛囊漏斗部肿瘤", "lemmaCroppedTitle": "毛囊漏斗部肿瘤", "lemmaDesc": "毛囊漏斗部肿瘤也称漏斗瘤，是一种向毛囊峡部分化的肿瘤，称为峡部瘤更合适。见于中年...", "lemmaUrl": "http://baike.baidu.com/item/%E6%AF%9B%E5%9B%8A%E6%BC%8F%E6%96%97%E9%83%A8%E8%82%BF%E7%98%A4/3965706", "lemmaPic": []}, {"lemmaId": 1257403, "lemmaTitle": "腹腔肺吸虫病", "lemmaCroppedTitle": "腹腔肺吸虫病", "lemmaDesc": "腹腔肺吸虫病是因并殖吸虫感染而引致的免疫性疾病，是并殖吸虫的囊蚴经肠道进入腹腔、...", "lemmaUrl": "http://baike.baidu.com/item/%E8%85%B9%E8%85%94%E8%82%BA%E5%90%B8%E8%99%AB%E7%97%85/1257403", "lemmaPic": []}, {"lemmaId": 4202061, "lemmaTitle": "落屑性红皮病", "lemmaCroppedTitle": "落屑性红皮病", "lemmaDesc": "落屑性红皮病，又名Leiners病。本病为婴儿全身皮肤弥漫性潮红、脱屑，伴有腹泻...", "lemmaUrl": "http://baike.baidu.com/item/%E8%90%BD%E5%B1%91%E6%80%A7%E7%BA%A2%E7%9A%AE%E7%97%85/4202061", "lemmaPic": []}, {"lemmaId": 10226333, "lemmaTitle": "可变性红斑角化病", "lemmaCroppedTitle": "可变性红斑角化病", "lemmaDesc": "又名可变性图形红斑角化性皮病或斑疹型营养不良型大疱性表皮松解症，为常染色体显性遗...", "lemmaUrl": "http://baike.baidu.com/item/%E5%8F%AF%E5%8F%98%E6%80%A7%E7%BA%A2%E6%96%91%E8%A7%92%E5%8C%96%E7%97%85/10226333", "lemmaPic": []}, {"lemmaId": 12428484, "lemmaTitle": "胸壁骨肿瘤", "lemmaCroppedTitle": "胸壁骨肿瘤", "lemmaDesc": "胸壁骨肿瘤（bone tumor of chest wall）是一种少见疾病，约...", "lemmaUrl": "http://baike.baidu.com/item/%E8%83%B8%E5%A3%81%E9%AA%A8%E8%82%BF%E7%98%A4/12428484", "lemmaPic": []}, {"lemmaId": 3046025, "lemmaTitle": "小儿柞蚕蛹性脑病综合征", "lemmaCroppedTitle": "小儿柞蚕蛹性脑病综合征", "lemmaDesc": "柞蚕蛹性脑病综合征是我国20世纪80年代发现的因食用柞蚕蛹而发生的一种中枢神经系...", "lemmaUrl": "http://baike.baidu.com/item/%E5%B0%8F%E5%84%BF%E6%9F%9E%E8%9A%95%E8%9B%B9%E6%80%A7%E8%84%91%E7%97%85%E7%BB%BC%E5%90%88%E5%BE%81/3046025", "lemmaPic": []}, {"lemmaId": 11056052, "lemmaTitle": "老年人甲亢性心脏病", "lemmaCroppedTitle": "老年人甲亢性心脏病", "lemmaDesc": "甲状腺功能亢进心脏病（甲亢心）是由于甲状腺病态地分泌过量的甲状腺激素对心脏直接毒...", "lemmaUrl": "http://baike.baidu.com/item/%E8%80%81%E5%B9%B4%E4%BA%BA%E7%94%B2%E4%BA%A2%E6%80%A7%E5%BF%83%E8%84%8F%E7%97%85/11056052", "lemmaPic": []}, {"lemmaId": 4651005, "lemmaTitle": "小儿回盲肠综合征", "lemmaCroppedTitle": "小儿回盲肠综合征", "lemmaDesc": "小儿回盲肠综合征，又称粒细胞减少性肠病、粒细胞减少性小肠结肠炎，亦有称之为白血病...", "lemmaUrl": "http://baike.baidu.com/item/%E5%B0%8F%E5%84%BF%E5%9B%9E%E7%9B%B2%E8%82%A0%E7%BB%BC%E5%90%88%E5%BE%81/4651005", "lemmaPic": []}, {"lemmaId": 5799544, "lemmaTitle": "福克斯-阜太斯病", "lemmaCroppedTitle": "福克斯-阜太斯病", "lemmaDesc": "福克斯-阜太斯病亦称腋窝阴阜顶泌汗腺（大汗腺）炎、汗腺毛囊角化症。为慢性、瘙痒性...", "lemmaUrl": "http://baike.baidu.com/item/%E7%A6%8F%E5%85%8B%E6%96%AF-%E9%98%9C%E5%A4%AA%E6%96%AF%E7%97%85/5799544", "lemmaPic": []}, {"lemmaId": 9902307, "lemmaTitle": "忽略症", "lemmaCroppedTitle": "忽略症", "lemmaDesc": "忽略症是指对自身躯体或视野内物体的明显的不注意或感知反应发生障碍，称之为忽略症。...", "lemmaUrl": "http://baike.baidu.com/item/%E5%BF%BD%E7%95%A5%E7%97%87/9902307", "lemmaPic": []}, {"lemmaId": 4485783, "lemmaTitle": "皮肤脑膜瘤", "lemmaCroppedTitle": "皮肤脑膜瘤", "lemmaDesc": "皮肤脑膜瘤亦称沙样脑膜瘤。原发性皮肤脑膜瘤亦称残留性脑膜膨出，是一种发育性缺陷。...", "lemmaUrl": "http://baike.baidu.com/item/%E7%9A%AE%E8%82%A4%E8%84%91%E8%86%9C%E7%98%A4/4485783", "lemmaPic": []}, {"lemmaId": 5138749, "lemmaTitle": "汉德-许勒尔-克思斯琴病", "lemmaCroppedTitle": "汉德-许勒尔-克思斯琴病", "lemmaDesc": "汉德-许勒尔-克思斯琴病（Hand-Schüller-Christian dis...", "lemmaUrl": "http://baike.baidu.com/item/%E6%B1%89%E5%BE%B7-%E8%AE%B8%E5%8B%92%E5%B0%94-%E5%85%8B%E6%80%9D%E6%96%AF%E7%90%B4%E7%97%85/5138749", "lemmaPic": []}, {"lemmaId": 4679188, "lemmaTitle": "佩吉特病样网状细胞增生症", "lemmaCroppedTitle": "佩吉特病样网状细胞增生症", "lemmaDesc": "佩吉特病样网状细胞增生症，又名局限性亲表皮性网状细胞增生症，本病是一种少见的蕈样...", "lemmaUrl": "http://baike.baidu.com/item/%E4%BD%A9%E5%90%89%E7%89%B9%E7%97%85%E6%A0%B7%E7%BD%91%E7%8A%B6%E7%BB%86%E8%83%9E%E5%A2%9E%E7%94%9F%E7%97%87/4679188", "lemmaPic": []}, {"lemmaId": 7253784, "lemmaTitle": "小儿甲状旁腺功能减退症", "lemmaCroppedTitle": "小儿甲状旁腺功能减退症", "lemmaDesc": "甲状旁腺功能减退症，简称甲旁减。是指甲状旁腺激素（PTH）分泌减少和（或）功能障...", "lemmaUrl": "http://baike.baidu.com/item/%E5%B0%8F%E5%84%BF%E7%94%B2%E7%8A%B6%E6%97%81%E8%85%BA%E5%8A%9F%E8%83%BD%E5%87%8F%E9%80%80%E7%97%87/7253784", "lemmaPic": []}, {"lemmaId": 10441579, "lemmaTitle": "小儿内脏幼虫移行症", "lemmaCroppedTitle": "小儿内脏幼虫移行症", "lemmaDesc": "内脏幼虫移行综合征又称单纯性嗜酸细胞增多性肺浸润征（PIE），PIE综合征，嗜酸...", "lemmaUrl": "http://baike.baidu.com/item/%E5%B0%8F%E5%84%BF%E5%86%85%E8%84%8F%E5%B9%BC%E8%99%AB%E7%A7%BB%E8%A1%8C%E7%97%87/10441579", "lemmaPic": []}, {"lemmaId": 12677163, "lemmaTitle": "小儿周围淋巴结结核", "lemmaCroppedTitle": "小儿周围淋巴结结核", "lemmaDesc": "周围淋巴结结核是儿童期肺外结核的最常见类型，可见于各年龄期，但以婴幼儿及学龄前儿...", "lemmaUrl": "http://baike.baidu.com/item/%E5%B0%8F%E5%84%BF%E5%91%A8%E5%9B%B4%E6%B7%8B%E5%B7%B4%E7%BB%93%E7%BB%93%E6%A0%B8/12677163", "lemmaPic": []}, {"lemmaId": 1850640, "lemmaTitle": "心血管疾病伴发的精神障碍", "lemmaCroppedTitle": "心血管疾病伴发的精神障碍", "lemmaDesc": "拼音xīn xuè guǎn jí bìng bàn fā de jīng sh...", "lemmaUrl": "http://baike.baidu.com/item/%E5%BF%83%E8%A1%80%E7%AE%A1%E7%96%BE%E7%97%85%E4%BC%B4%E5%8F%91%E7%9A%84%E7%B2%BE%E7%A5%9E%E9%9A%9C%E7%A2%8D/1850640", "lemmaPic": []}, {"lemmaId": 6454604, "lemmaTitle": "幼年息肉", "lemmaCroppedTitle": "幼年息肉", "lemmaDesc": "幼年息肉又称简单息肉，或称潴留性息肉，多发生于2～10岁，发病率较高，约占小儿息...", "lemmaUrl": "http://baike.baidu.com/item/%E5%B9%BC%E5%B9%B4%E6%81%AF%E8%82%89/6454604", "lemmaPic": []}, {"lemmaId": 5069295, "lemmaTitle": "高温引起的溶血性贫血", "lemmaCroppedTitle": "高温引起的溶血性贫血", "lemmaDesc": "高温可直接导致血循环中红细胞损伤。高温引起溶血性贫血以烧伤为最多见。面积达15%...", "lemmaUrl": "http://baike.baidu.com/item/%E9%AB%98%E6%B8%A9%E5%BC%95%E8%B5%B7%E7%9A%84%E6%BA%B6%E8%A1%80%E6%80%A7%E8%B4%AB%E8%A1%80/5069295", "lemmaPic": []}, {"lemmaId": 6512799, "lemmaTitle": "肠道感染后反应性关节炎", "lemmaCroppedTitle": "肠道感染后反应性关节炎", "lemmaDesc": "反应性关节炎是关节外感染诱发的关节炎症，并不是病原体直接感染关节所致。肠道感染后...", "lemmaUrl": "http://baike.baidu.com/item/%E8%82%A0%E9%81%93%E6%84%9F%E6%9F%93%E5%90%8E%E5%8F%8D%E5%BA%94%E6%80%A7%E5%85%B3%E8%8A%82%E7%82%8E/6512799", "lemmaPic": []}, {"lemmaId": 7253323, "lemmaTitle": "蓝色橡皮泡痣综合征", "lemmaCroppedTitle": "蓝色橡皮泡痣综合征", "lemmaDesc": "蓝色橡皮泡痣综合征是指存在于皮肤和胃肠道的海绵状或毛细血管状血管瘤。1958年由...", "lemmaUrl": "http://baike.baidu.com/item/%E8%93%9D%E8%89%B2%E6%A9%A1%E7%9A%AE%E6%B3%A1%E7%97%A3%E7%BB%BC%E5%90%88%E5%BE%81/7253323", "lemmaPic": []}, {"lemmaId": 8034351, "lemmaTitle": "肠道短路关节炎皮炎综合征", "lemmaCroppedTitle": "肠道短路关节炎皮炎综合征", "lemmaDesc": "肠道短路手术（空肠回肠吻合术）是一种对病态肥胖症常用的治疗方法，但可能引发关节炎...", "lemmaUrl": "http://baike.baidu.com/item/%E8%82%A0%E9%81%93%E7%9F%AD%E8%B7%AF%E5%85%B3%E8%8A%82%E7%82%8E%E7%9A%AE%E7%82%8E%E7%BB%BC%E5%90%88%E5%BE%81/8034351", "lemmaPic": []}, {"lemmaId": 7252737, "lemmaTitle": "真菌过敏性哮喘", "lemmaCroppedTitle": "真菌过敏性哮喘", "lemmaDesc": "临床上对于真菌过敏性哮喘的认识已有200余年的历史， 1728 年John Fl...", "lemmaUrl": "http://baike.baidu.com/item/%E7%9C%9F%E8%8F%8C%E8%BF%87%E6%95%8F%E6%80%A7%E5%93%AE%E5%96%98/7252737", "lemmaPic": []}, {"lemmaId": 5264966, "lemmaTitle": "骨髓-胰腺综合征", "lemmaCroppedTitle": "骨髓-胰腺综合征", "lemmaDesc": "骨髓-胰腺综合征又称为Pearson综合征，是一种线粒体病，由于线粒体DNA的重...", "lemmaUrl": "http://baike.baidu.com/item/%E9%AA%A8%E9%AB%93-%E8%83%B0%E8%85%BA%E7%BB%BC%E5%90%88%E5%BE%81/5264966", "lemmaPic": []}, {"lemmaId": 10636548, "lemmaTitle": "二尖瓣和主动脉瓣的疾患", "lemmaCroppedTitle": "二尖瓣和主动脉瓣的疾患", "lemmaDesc": "二尖瓣和主动脉瓣双病变是最通常的多瓣膜病。多瓣膜病是指伴随侵犯两个或两个以上瓣膜...", "lemmaUrl": "http://baike.baidu.com/item/%E4%BA%8C%E5%B0%96%E7%93%A3%E5%92%8C%E4%B8%BB%E5%8A%A8%E8%84%89%E7%93%A3%E7%9A%84%E7%96%BE%E6%82%A3/10636548", "lemmaPic": []}, {"lemmaId": 12676623, "lemmaTitle": "小儿呼吸衰竭", "lemmaCroppedTitle": "小儿呼吸衰竭", "lemmaDesc": "小儿呼吸衰竭是一种重危的临床综合病征，为儿科常见的急症之一，也是引起死亡的多见原...", "lemmaUrl": "http://baike.baidu.com/item/%E5%B0%8F%E5%84%BF%E5%91%BC%E5%90%B8%E8%A1%B0%E7%AB%AD/12676623", "lemmaPic": []}, {"lemmaId": 12810940, "lemmaTitle": "假性甲状旁腺功能减退", "lemmaCroppedTitle": "假性甲状旁腺功能减退", "lemmaDesc": "假性甲状旁腺功能减退是一种具有甲状旁腺功能减退症的症状和特征性体征的遗传性疾病。...", "lemmaUrl": "http://baike.baidu.com/item/%E5%81%87%E6%80%A7%E7%94%B2%E7%8A%B6%E6%97%81%E8%85%BA%E5%8A%9F%E8%83%BD%E5%87%8F%E9%80%80/12810940", "lemmaPic": []}, {"lemmaId": 7238170, "lemmaTitle": "回旋形线状鱼鳞病", "lemmaCroppedTitle": "回旋形线状鱼鳞病", "lemmaDesc": "回旋形线状鱼鳞病亦称Netherton综合征，是一种常染色体隐性遗传病。发病机制...", "lemmaUrl": "http://baike.baidu.com/item/%E5%9B%9E%E6%97%8B%E5%BD%A2%E7%BA%BF%E7%8A%B6%E9%B1%BC%E9%B3%9E%E7%97%85/7238170", "lemmaPic": []}, {"lemmaId": 4614060, "lemmaTitle": "小儿迪格奥尔格综合征", "lemmaCroppedTitle": "小儿迪格奥尔格综合征", "lemmaDesc": "迪格奥尔格综合征（DGS）与染色体22q11缺陷有关，应该视为最严重的一组临床疾...", "lemmaUrl": "http://baike.baidu.com/item/%E5%B0%8F%E5%84%BF%E8%BF%AA%E6%A0%BC%E5%A5%A5%E5%B0%94%E6%A0%BC%E7%BB%BC%E5%90%88%E5%BE%81/4614060", "lemmaPic": []}, {"lemmaId": 15708581, "lemmaTitle": "黏液性水肿", "lemmaCroppedTitle": "黏液性水肿", "lemmaDesc": "黏液性水肿是由各种原因引起甲状腺功能不全导致甲状腺素缺少或甲状腺激素抵抗，皮下由...", "lemmaUrl": "http://baike.baidu.com/item/%E9%BB%8F%E6%B6%B2%E6%80%A7%E6%B0%B4%E8%82%BF/15708581", "lemmaPic": []}, {"lemmaId": 4629598, "lemmaTitle": "浅表脂肪瘤样痣", "lemmaCroppedTitle": "浅表脂肪瘤样痣", "lemmaDesc": "浅表脂肪瘤样痣结缔组织痣或错构瘤，好发于臀部和上股部。", "lemmaUrl": "http://baike.baidu.com/item/%E6%B5%85%E8%A1%A8%E8%84%82%E8%82%AA%E7%98%A4%E6%A0%B7%E7%97%A3/4629598", "lemmaPic": []}, {"lemmaId": 5696685, "lemmaTitle": "微小核糖核酸病毒性角膜炎", "lemmaCroppedTitle": "微小核糖核酸病毒性角膜炎", "lemmaDesc": "微小核糖核酸病毒所引起的急性出血性结膜角膜炎亦称流行性出血性结膜角膜炎（acut...", "lemmaUrl": "http://baike.baidu.com/item/%E5%BE%AE%E5%B0%8F%E6%A0%B8%E7%B3%96%E6%A0%B8%E9%85%B8%E7%97%85%E6%AF%92%E6%80%A7%E8%A7%92%E8%86%9C%E7%82%8E/5696685", "lemmaPic": []}, {"lemmaId": 7253450, "lemmaTitle": "食管自发性破裂", "lemmaCroppedTitle": "食管自发性破裂", "lemmaDesc": "食管自发性破裂系指健康人突然发生食管破裂，因多数发生于饮酒、呕吐之后，食管壁全层...", "lemmaUrl": "http://baike.baidu.com/item/%E9%A3%9F%E7%AE%A1%E8%87%AA%E5%8F%91%E6%80%A7%E7%A0%B4%E8%A3%82/7253450", "lemmaPic": []}, {"lemmaId": 12000403, "lemmaTitle": "脑血管病性精神障碍", "lemmaCroppedTitle": "脑血管病性精神障碍", "lemmaDesc": "脑血管病性精神障碍指由于大脑血液供应障碍，特别是反复发作的脑血管意外所致的精神神...", "lemmaUrl": "http://baike.baidu.com/item/%E8%84%91%E8%A1%80%E7%AE%A1%E7%97%85%E6%80%A7%E7%B2%BE%E7%A5%9E%E9%9A%9C%E7%A2%8D/12000403", "lemmaPic": []}, {"lemmaId": 6894424, "lemmaTitle": "结节性多动脉炎性巩膜炎", "lemmaCroppedTitle": "结节性多动脉炎性巩膜炎", "lemmaDesc": "结节性多动脉炎（PAN）最早在1866年由Kussmaul和Maier报道，是以...", "lemmaUrl": "http://baike.baidu.com/item/%E7%BB%93%E8%8A%82%E6%80%A7%E5%A4%9A%E5%8A%A8%E8%84%89%E7%82%8E%E6%80%A7%E5%B7%A9%E8%86%9C%E7%82%8E/6894424", "lemmaPic": []}, {"lemmaId": 12810939, "lemmaTitle": "高致病性禽流感病毒感染", "lemmaCroppedTitle": "高致病性禽流感病毒感染", "lemmaDesc": "高致病性禽流感病毒感染全称禽类流行性感冒病毒感染，是由禽甲型流感病毒某些亚型的毒...", "lemmaUrl": "http://baike.baidu.com/item/%E9%AB%98%E8%87%B4%E7%97%85%E6%80%A7%E7%A6%BD%E6%B5%81%E6%84%9F%E7%97%85%E6%AF%92%E6%84%9F%E6%9F%93/12810939", "lemmaPic": []}, {"lemmaId": 996742, "lemmaTitle": "外阴恶性神经鞘瘤", "lemmaCroppedTitle": "外阴恶性神经鞘瘤", "lemmaDesc": "外阴恶性神经鞘瘤是来源于施万细胞、神经细胞或神经元细胞的高度恶性肿瘤，易局部复发...", "lemmaUrl": "http://baike.baidu.com/item/%E5%A4%96%E9%98%B4%E6%81%B6%E6%80%A7%E7%A5%9E%E7%BB%8F%E9%9E%98%E7%98%A4/996742", "lemmaPic": []}, {"lemmaId": 6112960, "lemmaTitle": "脐部脐肠系膜管息肉", "lemmaCroppedTitle": "脐部脐肠系膜管息肉", "lemmaDesc": "脐部脐肠系膜管息肉罕见。生时即见或发生于儿童，表现为鲜红色息肉，直径2～20cm...", "lemmaUrl": "http://baike.baidu.com/item/%E8%84%90%E9%83%A8%E8%84%90%E8%82%A0%E7%B3%BB%E8%86%9C%E7%AE%A1%E6%81%AF%E8%82%89/6112960", "lemmaPic": []}, {"lemmaId": 10103969, "lemmaTitle": "水痛症", "lemmaCroppedTitle": "水痛症", "lemmaDesc": "水痛症是由水诱发的一种皮肤反应，在接触水几分钟后或刚停止接触水时就出现严重的刺痛...", "lemmaUrl": "http://baike.baidu.com/item/%E6%B0%B4%E7%97%9B%E7%97%87/10103969", "lemmaPic": []}, {"lemmaId": 12676572, "lemmaTitle": "小儿急性中毒", "lemmaCroppedTitle": "小儿急性中毒", "lemmaDesc": "急性中毒是儿科的常见急症之一，如酒精中毒等。以3岁以下儿童多见。造成小儿中毒的原...", "lemmaUrl": "http://baike.baidu.com/item/%E5%B0%8F%E5%84%BF%E6%80%A5%E6%80%A7%E4%B8%AD%E6%AF%92/12676572", "lemmaPic": []}, {"lemmaId": 7252675, "lemmaTitle": "营养障碍性多发性神经病", "lemmaCroppedTitle": "营养障碍性多发性神经病", "lemmaDesc": "营养障碍性多发性神经病是多发性神经病中常见的类型，是营养缺乏或代谢障碍所致以四肢...", "lemmaUrl": "http://baike.baidu.com/item/%E8%90%A5%E5%85%BB%E9%9A%9C%E7%A2%8D%E6%80%A7%E5%A4%9A%E5%8F%91%E6%80%A7%E7%A5%9E%E7%BB%8F%E7%97%85/7252675", "lemmaPic": []}, {"lemmaId": 1603054, "lemmaTitle": "纹状骨瘤", "lemmaCroppedTitle": "纹状骨瘤", "lemmaDesc": "纹状骨瘤的特征是骨骼上有带状或条纹状的密阴影，特别是在长骨的干骺端。本病临床症状...", "lemmaUrl": "http://baike.baidu.com/item/%E7%BA%B9%E7%8A%B6%E9%AA%A8%E7%98%A4/1603054", "lemmaPic": []}, {"lemmaId": 10021612, "lemmaTitle": "热带痉挛性轻截瘫", "lemmaCroppedTitle": "热带痉挛性轻截瘫", "lemmaDesc": "热带痉挛性轻截瘫（TSP）是流行于热带和亚热带国家的神经系统地方病。为人类T淋巴...", "lemmaUrl": "http://baike.baidu.com/item/%E7%83%AD%E5%B8%A6%E7%97%89%E6%8C%9B%E6%80%A7%E8%BD%BB%E6%88%AA%E7%98%AB/10021612", "lemmaPic": []}, {"lemmaId": 7253222, "lemmaTitle": "薄基膜肾病", "lemmaCroppedTitle": "薄基膜肾病", "lemmaDesc": "薄基膜肾病于1966年由McConcille等首次报道。1973年Rogers等...", "lemmaUrl": "http://baike.baidu.com/item/%E8%96%84%E5%9F%BA%E8%86%9C%E8%82%BE%E7%97%85/7253222", "lemmaPic": []}, {"lemmaId": 7496391, "lemmaTitle": "Reis-Bucklers角膜营养不良", "lemmaCroppedTitle": "Reis-Bucklers角膜营养不良", "lemmaDesc": "Reis-Bucklers角膜营养不良是一种较严重的角膜前部营养不良，为外显率很...", "lemmaUrl": "http://baike.baidu.com/item/Reis-Bucklers%E8%A7%92%E8%86%9C%E8%90%A5%E5%85%BB%E4%B8%8D%E8%89%AF/7496391", "lemmaPic": []}, {"lemmaId": 10664244, "lemmaTitle": "副流行性感冒", "lemmaCroppedTitle": "副流行性感冒", "lemmaDesc": "副流行性感冒在成人中常引起轻型上呼吸道感染，而5岁以下儿童主要为下呼吸道感染，且...", "lemmaUrl": "http://baike.baidu.com/item/%E5%89%AF%E6%B5%81%E8%A1%8C%E6%80%A7%E6%84%9F%E5%86%92/10664244", "lemmaPic": []}, {"lemmaId": 4613548, "lemmaTitle": "小儿白细胞黏附分子缺陷Ⅱ型", "lemmaCroppedTitle": "小儿白细胞黏附分子缺陷Ⅱ型", "lemmaDesc": "白细胞黏附分子缺陷Ⅱ型（LADⅡ）为一罕见的原发性免疫缺陷病，至今只有2例报道。...", "lemmaUrl": "http://baike.baidu.com/item/%E5%B0%8F%E5%84%BF%E7%99%BD%E7%BB%86%E8%83%9E%E9%BB%8F%E9%99%84%E5%88%86%E5%AD%90%E7%BC%BA%E9%99%B7%E2%85%A1%E5%9E%8B/4613548", "lemmaPic": []}, {"lemmaId": 7254456, "lemmaTitle": "先天性尺骨缺如", "lemmaCroppedTitle": "先天性尺骨缺如", "lemmaDesc": "1683年，Goller首先报道了这种少见的先天性畸形，又称尺骨棒状手，较桡骨棒...", "lemmaUrl": "http://baike.baidu.com/item/%E5%85%88%E5%A4%A9%E6%80%A7%E5%B0%BA%E9%AA%A8%E7%BC%BA%E5%A6%82/7254456", "lemmaPic": []}, {"lemmaId": 9428114, "lemmaTitle": "彼得异常", "lemmaCroppedTitle": "彼得异常", "lemmaDesc": "彼得异常的表现是角膜中央部有先天性白斑，并有相应部位的后基质层及后弹力层缺损。在...", "lemmaUrl": "http://baike.baidu.com/item/%E5%BD%BC%E5%BE%97%E5%BC%82%E5%B8%B8/9428114", "lemmaPic": []}, {"lemmaId": 18277503, "lemmaTitle": "蜘蛛指（趾）", "lemmaCroppedTitle": "蜘蛛指（趾）", "lemmaDesc": "蜘蛛指（趾）即马方综合征，亦称为先天性中胚层发育不良、Marfan综合征、肢体细...", "lemmaUrl": "http://baike.baidu.com/item/%E8%9C%98%E8%9B%9B%E6%8C%87%EF%BC%88%E8%B6%BE%EF%BC%89/18277503", "lemmaPic": []}, {"lemmaId": 12428861, "lemmaTitle": "小儿锁骨颅骨发育不全综合征", "lemmaCroppedTitle": "小儿锁骨颅骨发育不全综合征", "lemmaDesc": "锁骨颅骨发育不全综合征即Marie-Sainton综合征，又名Hulkerant...", "lemmaUrl": "http://baike.baidu.com/item/%E5%B0%8F%E5%84%BF%E9%94%81%E9%AA%A8%E9%A2%85%E9%AA%A8%E5%8F%91%E8%82%B2%E4%B8%8D%E5%85%A8%E7%BB%BC%E5%90%88%E5%BE%81/12428861", "lemmaPic": []}, {"lemmaId": 3175315, "lemmaTitle": "弥漫性食管壁内憩室", "lemmaCroppedTitle": "弥漫性食管壁内憩室", "lemmaDesc": "弥漫性食管壁内憩室是非常少见的良性病变，Mendl等于1960年首次描述此病。该...", "lemmaUrl": "http://baike.baidu.com/item/%E5%BC%A5%E6%BC%AB%E6%80%A7%E9%A3%9F%E7%AE%A1%E5%A3%81%E5%86%85%E6%86%A9%E5%AE%A4/3175315", "lemmaPic": []}, {"lemmaId": 12676976, "lemmaTitle": "间歇依赖型尖端扭转型室性心动过速", "lemmaCroppedTitle": "间歇依赖型尖端扭转型室性心动过速", "lemmaDesc": "间歇依赖性尖端扭转性室性心动过速（PTDPVT）常发生于较年长的患者，因服用某些...", "lemmaUrl": "http://baike.baidu.com/item/%E9%97%B4%E6%AD%87%E4%BE%9D%E8%B5%96%E5%9E%8B%E5%B0%96%E7%AB%AF%E6%89%AD%E8%BD%AC%E5%9E%8B%E5%AE%A4%E6%80%A7%E5%BF%83%E5%8A%A8%E8%BF%87%E9%80%9F/12676976", "lemmaPic": []}, {"lemmaId": 4620357, "lemmaTitle": "小儿发育性角回综合征", "lemmaCroppedTitle": "小儿发育性角回综合征", "lemmaDesc": "发育性角回综合征（DGS）是指儿童在左侧角回综合征（Gerstmann氏综合征）...", "lemmaUrl": "http://baike.baidu.com/item/%E5%B0%8F%E5%84%BF%E5%8F%91%E8%82%B2%E6%80%A7%E8%A7%92%E5%9B%9E%E7%BB%BC%E5%90%88%E5%BE%81/4620357", "lemmaPic": []}, {"lemmaId": 6425342, "lemmaTitle": "胃空肠输入襻综合征", "lemmaCroppedTitle": "胃空肠输入襻综合征", "lemmaDesc": "胃空肠输入襻综合征主要是指Billroth II式胃大部切除术后因输入襻梗阻引起...", "lemmaUrl": "http://baike.baidu.com/item/%E8%83%83%E7%A9%BA%E8%82%A0%E8%BE%93%E5%85%A5%E8%A5%BB%E7%BB%BC%E5%90%88%E5%BE%81/6425342", "lemmaPic": []}, {"lemmaId": 12700743, "lemmaTitle": "Hebra痒疹", "lemmaCroppedTitle": "Hebra痒疹", "lemmaDesc": "痒疹是一组急性或慢性炎症性瘙痒性皮肤病，临床上以风团样丘疹、结节和剧烈瘙痒为特征...", "lemmaUrl": "http://baike.baidu.com/item/Hebra%E7%97%92%E7%96%B9/12700743", "lemmaPic": []}, {"lemmaId": 10653196, "lemmaTitle": "戈登综合征", "lemmaCroppedTitle": "戈登综合征", "lemmaDesc": "戈登综合征是高血钾、高血氯、低肾素性高血压，也称为家族性高钾性高血压或Ⅱ型假性醛...", "lemmaUrl": "http://baike.baidu.com/item/%E6%88%88%E7%99%BB%E7%BB%BC%E5%90%88%E5%BE%81/10653196", "lemmaPic": []}, {"lemmaId": 6811876, "lemmaTitle": "花翳自陷", "lemmaCroppedTitle": "花翳自陷", "lemmaDesc": "花翳自陷应为“花翳白陷”。花翳白陷指黑睛生翳，四周高起，中间低陷，形似花瓣。现代...", "lemmaUrl": "http://baike.baidu.com/item/%E8%8A%B1%E7%BF%B3%E8%87%AA%E9%99%B7/6811876", "lemmaPic": []}, {"lemmaId": 4444682, "lemmaTitle": "皮肤腺样囊性癌", "lemmaCroppedTitle": "皮肤腺样囊性癌", "lemmaDesc": "皮肤腺样囊性癌，主要发生于唾液腺，其次为泪腺、耵聍腺和上呼吸道的黏液腺，亦有少数...", "lemmaUrl": "http://baike.baidu.com/item/%E7%9A%AE%E8%82%A4%E8%85%BA%E6%A0%B7%E5%9B%8A%E6%80%A7%E7%99%8C/4444682", "lemmaPic": []}, {"lemmaId": 12428576, "lemmaTitle": "老年人急性胰腺炎", "lemmaCroppedTitle": "老年人急性胰腺炎", "lemmaDesc": "老年急性胰腺炎是老年人胰腺自身消化所引起的胰腺急性炎症性病变。是老年人急腹症的一...", "lemmaUrl": "http://baike.baidu.com/item/%E8%80%81%E5%B9%B4%E4%BA%BA%E6%80%A5%E6%80%A7%E8%83%B0%E8%85%BA%E7%82%8E/12428576", "lemmaPic": []}, {"lemmaId": 1857009, "lemmaTitle": "颅内肿瘤伴发的精神障碍", "lemmaCroppedTitle": "颅内肿瘤伴发的精神障碍", "lemmaDesc": "颅内肿瘤并发精神障碍（mental disorders associated w...", "lemmaUrl": "http://baike.baidu.com/item/%E9%A2%85%E5%86%85%E8%82%BF%E7%98%A4%E4%BC%B4%E5%8F%91%E7%9A%84%E7%B2%BE%E7%A5%9E%E9%9A%9C%E7%A2%8D/1857009", "lemmaPic": []}, {"lemmaId": 10295898, "lemmaTitle": "十二指肠平滑肌瘤", "lemmaCroppedTitle": "十二指肠平滑肌瘤", "lemmaDesc": "十二指肠平滑肌瘤是起源于十二指肠黏膜肌层或固有肌层的肿瘤，根据其组织学特征，分为...", "lemmaUrl": "http://baike.baidu.com/item/%E5%8D%81%E4%BA%8C%E6%8C%87%E8%82%A0%E5%B9%B3%E6%BB%91%E8%82%8C%E7%98%A4/10295898", "lemmaPic": []}, {"lemmaId": 8403779, "lemmaTitle": "急性减压性骨坏死", "lemmaCroppedTitle": "急性减压性骨坏死", "lemmaDesc": "急性减压性骨坏死是高气压作业工人或潜水员所发生的骨坏死，从事高气压作业的工人中，...", "lemmaUrl": "http://baike.baidu.com/item/%E6%80%A5%E6%80%A7%E5%87%8F%E5%8E%8B%E6%80%A7%E9%AA%A8%E5%9D%8F%E6%AD%BB/8403779", "lemmaPic": []}, {"lemmaId": 4912353, "lemmaTitle": "合并马蹄肾的腹主动脉瘤", "lemmaCroppedTitle": "合并马蹄肾的腹主动脉瘤", "lemmaDesc": "马蹄肾是肾脏先天性畸形融合肾中最常见的一种，在正常人群中的发病率为1：400到1...", "lemmaUrl": "http://baike.baidu.com/item/%E5%90%88%E5%B9%B6%E9%A9%AC%E8%B9%84%E8%82%BE%E7%9A%84%E8%85%B9%E4%B8%BB%E5%8A%A8%E8%84%89%E7%98%A4/4912353", "lemmaPic": []}, {"lemmaId": 12676973, "lemmaTitle": "心包间皮瘤", "lemmaCroppedTitle": "心包间皮瘤", "lemmaDesc": "心包间皮瘤（Pericardial mesothelioma）是一种发病率很低的...", "lemmaUrl": "http://baike.baidu.com/item/%E5%BF%83%E5%8C%85%E9%97%B4%E7%9A%AE%E7%98%A4/12676973", "lemmaPic": []}, {"lemmaId": 7253419, "lemmaTitle": "硬化剂治疗引起的食管损害", "lemmaCroppedTitle": "硬化剂治疗引起的食管损害", "lemmaDesc": "食管静脉曲张硬化剂治疗（EVS）临床应用已达50余年。目前认为，EVS是食管静脉...", "lemmaUrl": "http://baike.baidu.com/item/%E7%A1%AC%E5%8C%96%E5%89%82%E6%B2%BB%E7%96%97%E5%BC%95%E8%B5%B7%E7%9A%84%E9%A3%9F%E7%AE%A1%E6%8D%9F%E5%AE%B3/7253419", "lemmaPic": []}, {"lemmaId": 6522539, "lemmaTitle": "食物变应性和不耐受性", "lemmaCroppedTitle": "食物变应性和不耐受性", "lemmaDesc": "食物变应性是指由于进食一种特殊食物后会反复发生症状，而此种食物已证明有免疫根据（...", "lemmaUrl": "http://baike.baidu.com/item/%E9%A3%9F%E7%89%A9%E5%8F%98%E5%BA%94%E6%80%A7%E5%92%8C%E4%B8%8D%E8%80%90%E5%8F%97%E6%80%A7/6522539", "lemmaPic": []}, {"lemmaId": 4803304, "lemmaTitle": "眼眶脑膜-脑膨出", "lemmaCroppedTitle": "眼眶脑膜-脑膨出", "lemmaDesc": "眼眶脑膜-脑膨出是先天性或后天性眶骨缺损致颅腔内容物（脑膜、脑及脑脊液）突入眼眶...", "lemmaUrl": "http://baike.baidu.com/item/%E7%9C%BC%E7%9C%B6%E8%84%91%E8%86%9C-%E8%84%91%E8%86%A8%E5%87%BA/4803304", "lemmaPic": []}, {"lemmaId": 12630021, "lemmaTitle": "小儿良性先天性肌弛缓综合征", "lemmaCroppedTitle": "小儿良性先天性肌弛缓综合征", "lemmaDesc": "先天性肌弛缓综合征包括一组原因不同的先天性神经肌肉疾病，1900年Oppenhe...", "lemmaUrl": "http://baike.baidu.com/item/%E5%B0%8F%E5%84%BF%E8%89%AF%E6%80%A7%E5%85%88%E5%A4%A9%E6%80%A7%E8%82%8C%E5%BC%9B%E7%BC%93%E7%BB%BC%E5%90%88%E5%BE%81/12630021", "lemmaPic": []}, {"lemmaId": 12677228, "lemmaTitle": "巨细胞动脉炎和风湿性多肌痛", "lemmaCroppedTitle": "巨细胞动脉炎和风湿性多肌痛", "lemmaDesc": "巨细胞动脉炎（GCA），是一种以侵犯颅动脉为主的系统性血管炎综合征。在19世纪，...", "lemmaUrl": "http://baike.baidu.com/item/%E5%B7%A8%E7%BB%86%E8%83%9E%E5%8A%A8%E8%84%89%E7%82%8E%E5%92%8C%E9%A3%8E%E6%B9%BF%E6%80%A7%E5%A4%9A%E8%82%8C%E7%97%9B/12677228", "lemmaPic": []}, {"lemmaId": 7253863, "lemmaTitle": "颅面裂畸形", "lemmaCroppedTitle": "颅面裂畸形", "lemmaDesc": "颅面裂畸形系指涉及颅面部的多种先天性裂隙畸形，畸形累及的部位以面部为主，但也可到...", "lemmaUrl": "http://baike.baidu.com/item/%E9%A2%85%E9%9D%A2%E8%A3%82%E7%95%B8%E5%BD%A2/7253863", "lemmaPic": []}, {"lemmaId": 4695610, "lemmaTitle": "小儿结节性脂膜炎", "lemmaCroppedTitle": "小儿结节性脂膜炎", "lemmaDesc": "结节性脂膜炎又称Weber-Christian病或回归热性结节性非化脓性脂膜炎，...", "lemmaUrl": "http://baike.baidu.com/item/%E5%B0%8F%E5%84%BF%E7%BB%93%E8%8A%82%E6%80%A7%E8%84%82%E8%86%9C%E7%82%8E/4695610", "lemmaPic": []}, {"lemmaId": 5660944, "lemmaTitle": "毛细血管或静脉血栓形成", "lemmaCroppedTitle": "毛细血管或静脉血栓形成", "lemmaDesc": "毛细血管或静脉血栓形成又称毛细血管动脉瘤。本病的重要性主要为临床上类似恶性黑色素...", "lemmaUrl": "http://baike.baidu.com/item/%E6%AF%9B%E7%BB%86%E8%A1%80%E7%AE%A1%E6%88%96%E9%9D%99%E8%84%89%E8%A1%80%E6%A0%93%E5%BD%A2%E6%88%90/5660944", "lemmaPic": []}, {"lemmaId": 3541905, "lemmaTitle": "乳房缺如", "lemmaCroppedTitle": "乳房缺如", "lemmaDesc": "乳房是成年女性的重要第二性征，是女性形体美最显著的标志，也是哺乳的器官，对于女性...", "lemmaUrl": "http://baike.baidu.com/item/%E4%B9%B3%E6%88%BF%E7%BC%BA%E5%A6%82/3541905", "lemmaPic": []}, {"lemmaId": 6894908, "lemmaTitle": "过敏性肉芽肿性血管炎相关巩膜炎", "lemmaCroppedTitle": "过敏性肉芽肿性血管炎相关巩膜炎", "lemmaDesc": "过敏性肉芽肿性血管炎(AGA)又称Churg-Strauss综合征，是一种类似于...", "lemmaUrl": "http://baike.baidu.com/item/%E8%BF%87%E6%95%8F%E6%80%A7%E8%82%89%E8%8A%BD%E8%82%BF%E6%80%A7%E8%A1%80%E7%AE%A1%E7%82%8E%E7%9B%B8%E5%85%B3%E5%B7%A9%E8%86%9C%E7%82%8E/6894908", "lemmaPic": []}, {"lemmaId": 9603264, "lemmaTitle": "乳房缺少症", "lemmaCroppedTitle": "乳房缺少症", "lemmaDesc": "乳房缺少症系胚胎发育异常所引起的先天性乳房畸形，临床较罕见。因常伴有胸廓组织的发...", "lemmaUrl": "http://baike.baidu.com/item/%E4%B9%B3%E6%88%BF%E7%BC%BA%E5%B0%91%E7%97%87/9603264", "lemmaPic": []}, {"lemmaId": 2775047, "lemmaTitle": "小儿脊髓损伤", "lemmaCroppedTitle": "小儿脊髓损伤", "lemmaDesc": "脊髓损伤是由外界暴力直接或间接作用于脊柱，引起脊椎骨的骨折或累及脊髓神经节的损伤...", "lemmaUrl": "http://baike.baidu.com/item/%E5%B0%8F%E5%84%BF%E8%84%8A%E9%AB%93%E6%8D%9F%E4%BC%A4/2775047", "lemmaPic": []}, {"lemmaId": 7041602, "lemmaTitle": "脊椎结核并发截瘫", "lemmaCroppedTitle": "脊椎结核并发截瘫", "lemmaDesc": "脊椎结核并发截瘫是脊柱结核重要的并发症,是造成死亡和病残的重要原因。并发截瘫约占...", "lemmaUrl": "http://baike.baidu.com/item/%E8%84%8A%E6%A4%8E%E7%BB%93%E6%A0%B8%E5%B9%B6%E5%8F%91%E6%88%AA%E7%98%AB/7041602", "lemmaPic": []}, {"lemmaId": 12676716, "lemmaTitle": "小儿肾上腺皮质功能不全", "lemmaCroppedTitle": "小儿肾上腺皮质功能不全", "lemmaDesc": "肾上腺皮质功能不全是由许多先天或后天的原因引起的肾上腺皮质分泌皮质醇和（或）醛固...", "lemmaUrl": "http://baike.baidu.com/item/%E5%B0%8F%E5%84%BF%E8%82%BE%E4%B8%8A%E8%85%BA%E7%9A%AE%E8%B4%A8%E5%8A%9F%E8%83%BD%E4%B8%8D%E5%85%A8/12676716", "lemmaPic": []}, {"lemmaId": 3176278, "lemmaTitle": "高血压病伴发的精神障碍", "lemmaCroppedTitle": "高血压病伴发的精神障碍", "lemmaDesc": "原发性高血压伴发的精神障碍是血管病伴发精神障碍中最多见的一种。指患原发性高血压的...", "lemmaUrl": "http://baike.baidu.com/item/%E9%AB%98%E8%A1%80%E5%8E%8B%E7%97%85%E4%BC%B4%E5%8F%91%E7%9A%84%E7%B2%BE%E7%A5%9E%E9%9A%9C%E7%A2%8D/3176278", "lemmaPic": []}, {"lemmaId": 6495631, "lemmaTitle": "非典型分枝杆菌性巩膜炎", "lemmaCroppedTitle": "非典型分枝杆菌性巩膜炎", "lemmaDesc": "近年来由分枝杆菌引起的眼部损害包括巩膜炎或巩膜外层炎少见，而由非典型分枝杆菌引起...", "lemmaUrl": "http://baike.baidu.com/item/%E9%9D%9E%E5%85%B8%E5%9E%8B%E5%88%86%E6%9E%9D%E6%9D%86%E8%8F%8C%E6%80%A7%E5%B7%A9%E8%86%9C%E7%82%8E/6495631", "lemmaPic": []}, {"lemmaId": 5630453, "lemmaTitle": "麻风性角膜病变", "lemmaCroppedTitle": "麻风性角膜病变", "lemmaDesc": "麻风是由麻风分枝杆菌引起的一种极为慢性具较低传染性的疾病。主要累及皮肤及外周神经...", "lemmaUrl": "http://baike.baidu.com/item/%E9%BA%BB%E9%A3%8E%E6%80%A7%E8%A7%92%E8%86%9C%E7%97%85%E5%8F%98/5630453", "lemmaPic": []}, {"lemmaId": 3697386, "lemmaTitle": "纯植物神经功能衰竭", "lemmaCroppedTitle": "纯植物神经功能衰竭", "lemmaDesc": "纯植物神经功能衰竭（PAF）为孤立的植物神经功能广泛的减失，主要损害交感神经节后...", "lemmaUrl": "http://baike.baidu.com/item/%E7%BA%AF%E6%A4%8D%E7%89%A9%E7%A5%9E%E7%BB%8F%E5%8A%9F%E8%83%BD%E8%A1%B0%E7%AB%AD/3697386", "lemmaPic": []}, {"lemmaId": 4624157, "lemmaTitle": "全身黏液性水肿", "lemmaCroppedTitle": "全身黏液性水肿", "lemmaDesc": "全身黏液性水肿也称真性黏液性水肿，系由甲状腺功能不全导致甲状腺素分泌减少或缺乏而...", "lemmaUrl": "http://baike.baidu.com/item/%E5%85%A8%E8%BA%AB%E9%BB%8F%E6%B6%B2%E6%80%A7%E6%B0%B4%E8%82%BF/4624157", "lemmaPic": []}], "total": 7246, "totalPage": 73, "page": 64, "fromLemma": 0}