{"lemmaList": [{"lemmaId": 3573791, "lemmaTitle": "肺转移瘤", "lemmaCroppedTitle": "肺转移瘤", "lemmaDesc": "肺转移瘤是指原发于其他部位的恶性肿瘤经血液或淋巴液转移到肺脏组织。死于恶性肿瘤的...", "lemmaUrl": "http://baike.baidu.com/item/%E8%82%BA%E8%BD%AC%E7%A7%BB%E7%98%A4/3573791", "lemmaPic": []}, {"lemmaId": 10501661, "lemmaTitle": "继发性青光眼", "lemmaCroppedTitle": "继发性青光眼", "lemmaDesc": "继发性青光眼是由于某些眼病或全身疾病，影响或破坏了正常的房水循环，使房水排出受阻...", "lemmaUrl": "http://baike.baidu.com/item/%E7%BB%A7%E5%8F%91%E6%80%A7%E9%9D%92%E5%85%89%E7%9C%BC/10501661", "lemmaPic": []}, {"lemmaId": 2311390, "lemmaTitle": "睾丸女性化综合征", "lemmaCroppedTitle": "睾丸女性化综合征", "lemmaDesc": "雄激素抵抗是指由于雄激素受体和配体结合异常或受体后信号传导的异常导致雄激素的作用...", "lemmaUrl": "http://baike.baidu.com/item/%E7%9D%BE%E4%B8%B8%E5%A5%B3%E6%80%A7%E5%8C%96%E7%BB%BC%E5%90%88%E5%BE%81/2311390", "lemmaPic": []}, {"lemmaId": 7123086, "lemmaTitle": "红皮病型银屑病", "lemmaCroppedTitle": "红皮病型银屑病", "lemmaDesc": "红皮病型银屑病是由寻常型银屑病进展期使用刺激性较强药物或长期大量应用皮质类固醇药...", "lemmaUrl": "http://baike.baidu.com/item/%E7%BA%A2%E7%9A%AE%E7%97%85%E5%9E%8B%E9%93%B6%E5%B1%91%E7%97%85/7123086", "lemmaPic": []}, {"lemmaId": 918013, "lemmaTitle": "舌白斑", "lemmaCroppedTitle": "舌白斑", "lemmaDesc": "舌黏膜上的白色斑块，按其恶变倾向分为良性的白色角化症和恶变前期病变的白斑。口腔白...", "lemmaUrl": "http://baike.baidu.com/item/%E8%88%8C%E7%99%BD%E6%96%91/918013", "lemmaPic": []}, {"lemmaId": 5119362, "lemmaTitle": "桡骨小头骨折", "lemmaCroppedTitle": "桡骨小头骨折", "lemmaDesc": "桡骨小头骨折是常见的肘部损伤，占全身骨折的0.8%，约有l/3患者合并关节其他部...", "lemmaUrl": "http://baike.baidu.com/item/%E6%A1%A1%E9%AA%A8%E5%B0%8F%E5%A4%B4%E9%AA%A8%E6%8A%98/5119362", "lemmaPic": []}, {"lemmaId": 5360421, "lemmaTitle": "木薯中毒", "lemmaCroppedTitle": "木薯中毒", "lemmaDesc": "木薯中毒系食用未经去毒或去毒不完全的薯块而引起。木薯中含有一种亚配糖体，经过其本...", "lemmaUrl": "http://baike.baidu.com/item/%E6%9C%A8%E8%96%AF%E4%B8%AD%E6%AF%92/5360421", "lemmaPic": []}, {"lemmaId": 6518597, "lemmaTitle": "十字韧带损伤", "lemmaCroppedTitle": "十字韧带损伤", "lemmaDesc": "十字韧带是膝关节的主要稳定结构，因而在膝关节受外伤时容易发生损伤，全面了解韧带损...", "lemmaUrl": "http://baike.baidu.com/item/%E5%8D%81%E5%AD%97%E9%9F%A7%E5%B8%A6%E6%8D%9F%E4%BC%A4/6518597", "lemmaPic": []}, {"lemmaId": 8357477, "lemmaTitle": "色欲伤", "lemmaCroppedTitle": "色欲伤", "lemmaDesc": "色欲伤是中医对先天禀赋薄弱，后天淫欲无度所产生的伤气、损精、丧神等临床表现的概称...", "lemmaUrl": "http://baike.baidu.com/item/%E8%89%B2%E6%AC%B2%E4%BC%A4/8357477", "lemmaPic": []}, {"lemmaId": 5120962, "lemmaTitle": "先天性动脉导管未闭", "lemmaCroppedTitle": "先天性动脉导管未闭", "lemmaDesc": "动脉导管未闭（PDA）是小儿先天性心脏病的常见类型之一，占先天性心脏病发病总数约...", "lemmaUrl": "http://baike.baidu.com/item/%E5%85%88%E5%A4%A9%E6%80%A7%E5%8A%A8%E8%84%89%E5%AF%BC%E7%AE%A1%E6%9C%AA%E9%97%AD/5120962", "lemmaPic": []}, {"lemmaId": 7322382, "lemmaTitle": "慢性滑膜炎", "lemmaCroppedTitle": "慢性滑膜炎", "lemmaDesc": "慢性滑膜炎是一种持续性、非特异性滑膜增生性疾病。一般单关节发病，很少累及骨和软骨...", "lemmaUrl": "http://baike.baidu.com/item/%E6%85%A2%E6%80%A7%E6%BB%91%E8%86%9C%E7%82%8E/7322382", "lemmaPic": []}, {"lemmaId": 1051258, "lemmaTitle": "晚期产后出血", "lemmaCroppedTitle": "晚期产后出血", "lemmaDesc": "晚期产后出血指分娩24小时后，在产褥期内发生的子宫大量出血，出血量超过500ml...", "lemmaUrl": "http://baike.baidu.com/item/%E6%99%9A%E6%9C%9F%E4%BA%A7%E5%90%8E%E5%87%BA%E8%A1%80/1051258", "lemmaPic": []}, {"lemmaId": 4970140, "lemmaTitle": "非特异性溃疡性结肠炎", "lemmaCroppedTitle": "非特异性溃疡性结肠炎", "lemmaDesc": "非特异性溃疡性结肠炎（Ulcerative Colitis，UC）是一种病因尚不...", "lemmaUrl": "http://baike.baidu.com/item/%E9%9D%9E%E7%89%B9%E5%BC%82%E6%80%A7%E6%BA%83%E7%96%A1%E6%80%A7%E7%BB%93%E8%82%A0%E7%82%8E/4970140", "lemmaPic": []}, {"lemmaId": 4201851, "lemmaTitle": "颅骨骨瘤", "lemmaCroppedTitle": "颅骨骨瘤", "lemmaDesc": "颅骨骨瘤（osteoma of skull）是一种常见的良性肿瘤，多隆突于骨面。...", "lemmaUrl": "http://baike.baidu.com/item/%E9%A2%85%E9%AA%A8%E9%AA%A8%E7%98%A4/4201851", "lemmaPic": []}, {"lemmaId": 10950722, "lemmaTitle": "Mirizzi综合征", "lemmaCroppedTitle": "Mirizzi综合征", "lemmaDesc": "Mirizzi综合征多指由于胆囊颈部或胆囊管结石嵌顿和（或）其他良性疾病压迫或炎...", "lemmaUrl": "http://baike.baidu.com/item/Mirizzi%E7%BB%BC%E5%90%88%E5%BE%81/10950722", "lemmaPic": []}, {"lemmaId": 5086236, "lemmaTitle": "致密性髂骨炎", "lemmaCroppedTitle": "致密性髂骨炎", "lemmaDesc": "骶髂关节髂骨部下1/2～2/3骨质密度增厚所引起的慢性腰腿痛，称致密性髂骨炎。可...", "lemmaUrl": "http://baike.baidu.com/item/%E8%87%B4%E5%AF%86%E6%80%A7%E9%AB%82%E9%AA%A8%E7%82%8E/5086236", "lemmaPic": []}, {"lemmaId": 12021749, "lemmaTitle": "颈部软组织疾病", "lemmaCroppedTitle": "颈部软组织疾病", "lemmaDesc": "颈部颈椎和椎间盘以外的软组织疾病，引起的疼痛，是一组疾病，但很长时间以来，诊断和...", "lemmaUrl": "http://baike.baidu.com/item/%E9%A2%88%E9%83%A8%E8%BD%AF%E7%BB%84%E7%BB%87%E7%96%BE%E7%97%85/12021749", "lemmaPic": []}, {"lemmaId": 672448, "lemmaTitle": "腹壁疝", "lemmaCroppedTitle": "腹壁疝", "lemmaDesc": "腹壁疝是发生在腹壁的腹外疝，是腹外疝中除去腹股沟疝、股疝以外的其他腹外疝的统称。...", "lemmaUrl": "http://baike.baidu.com/item/%E8%85%B9%E5%A3%81%E7%96%9D/672448", "lemmaPic": []}, {"lemmaId": 7794991, "lemmaTitle": "尿道综合征", "lemmaCroppedTitle": "尿道综合征", "lemmaDesc": "尿道综合征是指有尿频、尿急、尿痛等症状，但膀胱和尿道检查无明显器质性病变的一组非...", "lemmaUrl": "http://baike.baidu.com/item/%E5%B0%BF%E9%81%93%E7%BB%BC%E5%90%88%E5%BE%81/7794991", "lemmaPic": []}, {"lemmaId": 5278410, "lemmaTitle": "外伤性白内障", "lemmaCroppedTitle": "外伤性白内障", "lemmaDesc": "外伤性白内障大多由于伤情复杂，其形态学特点亦错综复杂。大多数病例可述及明显的外伤...", "lemmaUrl": "http://baike.baidu.com/item/%E5%A4%96%E4%BC%A4%E6%80%A7%E7%99%BD%E5%86%85%E9%9A%9C/5278410", "lemmaPic": []}, {"lemmaId": 4156402, "lemmaTitle": "高位肛瘘", "lemmaCroppedTitle": "高位肛瘘", "lemmaDesc": "高位肛瘘是指瘘管及其支管在肛提肌和肛管直肠环上方，中医称肛漏。本病可发生于各种年...", "lemmaUrl": "http://baike.baidu.com/item/%E9%AB%98%E4%BD%8D%E8%82%9B%E7%98%98/4156402", "lemmaPic": []}, {"lemmaId": 2519134, "lemmaTitle": "老年人尿失禁", "lemmaCroppedTitle": "老年人尿失禁", "lemmaDesc": "老年人尿失禁即膀胱内的尿不能控制而自行流出，尿失禁可发生于各年龄组的患者，但以老...", "lemmaUrl": "http://baike.baidu.com/item/%E8%80%81%E5%B9%B4%E4%BA%BA%E5%B0%BF%E5%A4%B1%E7%A6%81/2519134", "lemmaPic": []}, {"lemmaId": 352198, "lemmaTitle": "孢子丝菌病", "lemmaCroppedTitle": "孢子丝菌病", "lemmaDesc": "本病是由申克孢子丝菌引起的皮肤、皮下组织及其附近淋巴管的慢性感染，可引起化脓、溃...", "lemmaUrl": "http://baike.baidu.com/item/%E5%AD%A2%E5%AD%90%E4%B8%9D%E8%8F%8C%E7%97%85/352198", "lemmaPic": []}, {"lemmaId": 4667546, "lemmaTitle": "进行性肌肉萎缩症", "lemmaCroppedTitle": "进行性肌肉萎缩症", "lemmaDesc": "进行性肌萎缩（PMA）亦称进行性脊髓性肌萎缩，为肌萎缩侧索硬化（运动神经元病）的...", "lemmaUrl": "http://baike.baidu.com/item/%E8%BF%9B%E8%A1%8C%E6%80%A7%E8%82%8C%E8%82%89%E8%90%8E%E7%BC%A9%E7%97%87/4667546", "lemmaPic": []}, {"lemmaId": 5087039, "lemmaTitle": "桡骨小头半脱位", "lemmaCroppedTitle": "桡骨小头半脱位", "lemmaDesc": "1671年由Fournier首先描述。桡骨小头半脱位又称达拉肘，是婴幼儿常见的肘...", "lemmaUrl": "http://baike.baidu.com/item/%E6%A1%A1%E9%AA%A8%E5%B0%8F%E5%A4%B4%E5%8D%8A%E8%84%B1%E4%BD%8D/5087039", "lemmaPic": []}, {"lemmaId": 4532424, "lemmaTitle": "脓疱病", "lemmaCroppedTitle": "脓疱病", "lemmaDesc": "\n\t\t\t    \n\t\t\t    脓疱病是由细菌引起的有高度传染性的急性化脓性皮肤...", "lemmaUrl": "http://baike.baidu.com/item/%E8%84%93%E7%96%B1%E7%97%85/4532424", "lemmaPic": []}, {"lemmaId": 5121304, "lemmaTitle": "女性性高潮障碍", "lemmaCroppedTitle": "女性性高潮障碍", "lemmaDesc": "女性性高潮障碍属于一种独立的综合征，它与性欲障碍或性唤起困难是不同的。女性性高潮...", "lemmaUrl": "http://baike.baidu.com/item/%E5%A5%B3%E6%80%A7%E6%80%A7%E9%AB%98%E6%BD%AE%E9%9A%9C%E7%A2%8D/5121304", "lemmaPic": []}, {"lemmaId": 441041, "lemmaTitle": "纵隔气肿", "lemmaCroppedTitle": "纵隔气肿", "lemmaDesc": "纵隔气肿是指因各种原因空气进入纵隔胸膜内结缔组织间隙之间，可以是自发性，胸部创伤...", "lemmaUrl": "http://baike.baidu.com/item/%E7%BA%B5%E9%9A%94%E6%B0%94%E8%82%BF/441041", "lemmaPic": []}, {"lemmaId": 3378295, "lemmaTitle": "氨气中毒", "lemmaCroppedTitle": "氨气中毒", "lemmaDesc": "氨气主要经呼吸道吸入中毒。氨对人体的毒性与环境中氨的浓度及接触时间有关。低浓度氨...", "lemmaUrl": "http://baike.baidu.com/item/%E6%B0%A8%E6%B0%94%E4%B8%AD%E6%AF%92/3378295", "lemmaPic": []}, {"lemmaId": 8960817, "lemmaTitle": "肝癌腹水", "lemmaCroppedTitle": "肝癌腹水", "lemmaDesc": "肝癌腹水是晚期肝癌最常见的并发症之一，肝癌患者出现腹水主要是由于慢性肝功能受损，...", "lemmaUrl": "http://baike.baidu.com/item/%E8%82%9D%E7%99%8C%E8%85%B9%E6%B0%B4/8960817", "lemmaPic": []}, {"lemmaId": 4926827, "lemmaTitle": "反应性精神病", "lemmaCroppedTitle": "反应性精神病", "lemmaDesc": "反应性精神病是由于剧烈或持续的精神紧张性刺激直接引起的，其临床表现的主要内容与精...", "lemmaUrl": "http://baike.baidu.com/item/%E5%8F%8D%E5%BA%94%E6%80%A7%E7%B2%BE%E7%A5%9E%E7%97%85/4926827", "lemmaPic": []}, {"lemmaId": 1681420, "lemmaTitle": "膝关节病", "lemmaCroppedTitle": "膝关节病", "lemmaDesc": "膝关节是全身最大的关节之一，由股骨、胫骨和髌骨构成，它是人体的承重关节，也是最易...", "lemmaUrl": "http://baike.baidu.com/item/%E8%86%9D%E5%85%B3%E8%8A%82%E7%97%85/1681420", "lemmaPic": []}, {"lemmaId": 4873424, "lemmaTitle": "颈动脉体瘤", "lemmaCroppedTitle": "颈动脉体瘤", "lemmaDesc": "颈动脉体瘤是一种较为少见的化学感受器肿瘤，为副神经节瘤的一种，发生于颈总动脉分叉...", "lemmaUrl": "http://baike.baidu.com/item/%E9%A2%88%E5%8A%A8%E8%84%89%E4%BD%93%E7%98%A4/4873424", "lemmaPic": []}, {"lemmaId": 2085541, "lemmaTitle": "放射性皮炎", "lemmaCroppedTitle": "放射性皮炎", "lemmaDesc": "放射性皮炎是由于放射线（主要是β和γ射线及X线）照射引起的皮肤黏膜炎症性损害。本...", "lemmaUrl": "http://baike.baidu.com/item/%E6%94%BE%E5%B0%84%E6%80%A7%E7%9A%AE%E7%82%8E/2085541", "lemmaPic": []}, {"lemmaId": 8651260, "lemmaTitle": "产后甲状腺炎", "lemmaCroppedTitle": "产后甲状腺炎", "lemmaDesc": "发生在产后一年内的无痛性甲状腺炎又称产后甲状腺炎，无痛性甲状腺炎常常伴随甲状腺功...", "lemmaUrl": "http://baike.baidu.com/item/%E4%BA%A7%E5%90%8E%E7%94%B2%E7%8A%B6%E8%85%BA%E7%82%8E/8651260", "lemmaPic": []}, {"lemmaId": 8642579, "lemmaTitle": "肾上腺囊肿", "lemmaCroppedTitle": "肾上腺囊肿", "lemmaDesc": "肾上腺囊肿的大小可从数毫米到20厘米以上，多为单侧，双侧性囊肿占8%～10%。大...", "lemmaUrl": "http://baike.baidu.com/item/%E8%82%BE%E4%B8%8A%E8%85%BA%E5%9B%8A%E8%82%BF/8642579", "lemmaPic": []}, {"lemmaId": 10974088, "lemmaTitle": "慢性呼吸衰竭", "lemmaCroppedTitle": "慢性呼吸衰竭", "lemmaDesc": "肺各种原因引起的肺通气和（或）换气功能严重障碍，以致在静息状态下亦不能维持足够的...", "lemmaUrl": "http://baike.baidu.com/item/%E6%85%A2%E6%80%A7%E5%91%BC%E5%90%B8%E8%A1%B0%E7%AB%AD/10974088", "lemmaPic": []}, {"lemmaId": 5241754, "lemmaTitle": "肛门闭锁", "lemmaCroppedTitle": "肛门闭锁", "lemmaDesc": "肛门闭锁症又称锁肛、无肛门症。该病是常见的先天性消化道畸形，占新生儿1/1500...", "lemmaUrl": "http://baike.baidu.com/item/%E8%82%9B%E9%97%A8%E9%97%AD%E9%94%81/5241754", "lemmaPic": []}, {"lemmaId": 3723386, "lemmaTitle": "肾性糖尿", "lemmaCroppedTitle": "肾性糖尿", "lemmaDesc": "肾性糖尿是指在血糖浓度正常或低于正常肾糖阈的情况下，由于近端肾小管重吸收葡萄糖功...", "lemmaUrl": "http://baike.baidu.com/item/%E8%82%BE%E6%80%A7%E7%B3%96%E5%B0%BF/3723386", "lemmaPic": []}, {"lemmaId": 10739222, "lemmaTitle": "眼眶肿瘤", "lemmaCroppedTitle": "眼眶肿瘤", "lemmaDesc": "眼眶肿瘤是指位于眼眶部的有机体变异细胞过度增殖所形成的肿块，其生长和机体不协调，...", "lemmaUrl": "http://baike.baidu.com/item/%E7%9C%BC%E7%9C%B6%E8%82%BF%E7%98%A4/10739222", "lemmaPic": []}, {"lemmaId": 3336058, "lemmaTitle": "外阴肿瘤", "lemmaCroppedTitle": "外阴肿瘤", "lemmaDesc": "外阴肿瘤指生长在外阴部的各种肿瘤。根据肿瘤的性质可分为良性及恶性两类。良性外阴肿...", "lemmaUrl": "http://baike.baidu.com/item/%E5%A4%96%E9%98%B4%E8%82%BF%E7%98%A4/3336058", "lemmaPic": []}, {"lemmaId": 3573228, "lemmaTitle": "母儿血型不合", "lemmaCroppedTitle": "母儿血型不合", "lemmaDesc": "母儿血型不合主要是孕妇和胎儿之间血型不合而发生的疾病，新生儿溶血病是指由于母子血...", "lemmaUrl": "http://baike.baidu.com/item/%E6%AF%8D%E5%84%BF%E8%A1%80%E5%9E%8B%E4%B8%8D%E5%90%88/3573228", "lemmaPic": []}, {"lemmaId": 8470836, "lemmaTitle": "角化棘皮瘤", "lemmaCroppedTitle": "角化棘皮瘤", "lemmaDesc": "角化棘皮瘤是一种少见的、生长很快的皮肤良性肿瘤，具有自行消退的特征，但有时被认为...", "lemmaUrl": "http://baike.baidu.com/item/%E8%A7%92%E5%8C%96%E6%A3%98%E7%9A%AE%E7%98%A4/8470836", "lemmaPic": []}, {"lemmaId": 610933, "lemmaTitle": "输卵管阻塞性不孕", "lemmaCroppedTitle": "输卵管阻塞性不孕", "lemmaDesc": "输卵管阻塞性不孕即各种原因引起的输卵管阻塞，从而影响精子与卵细胞结合或者受精卵运...", "lemmaUrl": "http://baike.baidu.com/item/%E8%BE%93%E5%8D%B5%E7%AE%A1%E9%98%BB%E5%A1%9E%E6%80%A7%E4%B8%8D%E5%AD%95/610933", "lemmaPic": []}, {"lemmaId": 852073, "lemmaTitle": "胎儿生长受限", "lemmaCroppedTitle": "胎儿生长受限", "lemmaDesc": "胎儿生长受限（FGR）又称宫内生长受限（IUGR），是指胎儿大小异常，在宫内未达...", "lemmaUrl": "http://baike.baidu.com/item/%E8%83%8E%E5%84%BF%E7%94%9F%E9%95%BF%E5%8F%97%E9%99%90/852073", "lemmaPic": []}, {"lemmaId": 3384731, "lemmaTitle": "复发性多软骨炎", "lemmaCroppedTitle": "复发性多软骨炎", "lemmaDesc": "复发性多软骨炎（RP）是一少见的累及全身多系统的疾病，具有反复发作和缓解的进展性...", "lemmaUrl": "http://baike.baidu.com/item/%E5%A4%8D%E5%8F%91%E6%80%A7%E5%A4%9A%E8%BD%AF%E9%AA%A8%E7%82%8E/3384731", "lemmaPic": []}, {"lemmaId": 10395881, "lemmaTitle": "小儿胃炎", "lemmaCroppedTitle": "小儿胃炎", "lemmaDesc": "胃炎是指某一种或几种有害因子包括物理性、化学性或生物性因素作用于胃黏膜发生炎症性...", "lemmaUrl": "http://baike.baidu.com/item/%E5%B0%8F%E5%84%BF%E8%83%83%E7%82%8E/10395881", "lemmaPic": []}, {"lemmaId": 9964527, "lemmaTitle": "肌病", "lemmaCroppedTitle": "肌病", "lemmaDesc": "肌病是指肌肉的原发性结构或功能性病变，中枢神经系统（CNS）、下运动神经元、末梢...", "lemmaUrl": "http://baike.baidu.com/item/%E8%82%8C%E7%97%85/9964527", "lemmaPic": []}, {"lemmaId": 8505988, "lemmaTitle": "小儿白血病", "lemmaCroppedTitle": "小儿白血病", "lemmaDesc": "白血病是造血干细胞增殖分化异常而引起的恶性增殖性疾病。儿童白血病是小儿恶性肿瘤中...", "lemmaUrl": "http://baike.baidu.com/item/%E5%B0%8F%E5%84%BF%E7%99%BD%E8%A1%80%E7%97%85/8505988", "lemmaPic": []}, {"lemmaId": 9992354, "lemmaTitle": "脑外伤后综合征", "lemmaCroppedTitle": "脑外伤后综合征", "lemmaDesc": "脑外伤后综合征是常见的头部外伤后的表现。常表现为头部受伤3个月后，仍然存在或者出...", "lemmaUrl": "http://baike.baidu.com/item/%E8%84%91%E5%A4%96%E4%BC%A4%E5%90%8E%E7%BB%BC%E5%90%88%E5%BE%81/9992354", "lemmaPic": []}, {"lemmaId": 2942978, "lemmaTitle": "转移性肝癌", "lemmaCroppedTitle": "转移性肝癌", "lemmaDesc": "转移性肝癌系指全身各个脏器的癌肿转移至肝脏。中国原发性肝癌与转移性肝癌的发病率比...", "lemmaUrl": "http://baike.baidu.com/item/%E8%BD%AC%E7%A7%BB%E6%80%A7%E8%82%9D%E7%99%8C/2942978", "lemmaPic": []}, {"lemmaId": 11052896, "lemmaTitle": "原发性慢性肾上腺皮质功能减退症", "lemmaCroppedTitle": "原发性慢性肾上腺皮质功能减退症", "lemmaDesc": "当两侧肾上腺绝大部分被破坏，出现种种皮质激素不足的表现，称肾上腺皮质功能减退症。...", "lemmaUrl": "http://baike.baidu.com/item/%E5%8E%9F%E5%8F%91%E6%80%A7%E6%85%A2%E6%80%A7%E8%82%BE%E4%B8%8A%E8%85%BA%E7%9A%AE%E8%B4%A8%E5%8A%9F%E8%83%BD%E5%87%8F%E9%80%80%E7%97%87/11052896", "lemmaPic": []}, {"lemmaId": 5280855, "lemmaTitle": "急性泪囊炎", "lemmaCroppedTitle": "急性泪囊炎", "lemmaDesc": "急性泪囊炎多由慢性泪囊炎转变而来，但也有开始即为急性原发细菌感染者。常见致病微生...", "lemmaUrl": "http://baike.baidu.com/item/%E6%80%A5%E6%80%A7%E6%B3%AA%E5%9B%8A%E7%82%8E/5280855", "lemmaPic": []}, {"lemmaId": 4035019, "lemmaTitle": "脾囊肿", "lemmaCroppedTitle": "脾囊肿", "lemmaDesc": "脾囊肿是脾组织的瘤样囊性病变，临床上可分为寄生虫性囊肿和非寄生虫性囊肿，寄生虫性...", "lemmaUrl": "http://baike.baidu.com/item/%E8%84%BE%E5%9B%8A%E8%82%BF/4035019", "lemmaPic": []}, {"lemmaId": 3580712, "lemmaTitle": "僵人综合征", "lemmaCroppedTitle": "僵人综合征", "lemmaDesc": "僵人综合征是指一种以躯轴和下肢肌肉过度收缩，伴肌痛性肌肉痉挛为特征的罕见的、严重...", "lemmaUrl": "http://baike.baidu.com/item/%E5%83%B5%E4%BA%BA%E7%BB%BC%E5%90%88%E5%BE%81/3580712", "lemmaPic": []}, {"lemmaId": 2170750, "lemmaTitle": "卡他性结膜炎", "lemmaCroppedTitle": "卡他性结膜炎", "lemmaDesc": "春季卡他性结膜炎（vernal keratoconjunctivitis）又名春...", "lemmaUrl": "http://baike.baidu.com/item/%E5%8D%A1%E4%BB%96%E6%80%A7%E7%BB%93%E8%86%9C%E7%82%8E/2170750", "lemmaPic": []}, {"lemmaId": 9769268, "lemmaTitle": "盆腔脓肿", "lemmaCroppedTitle": "盆腔脓肿", "lemmaDesc": "盆腔脓肿是严重的盆腔炎性疾病，主要来自厌氧菌的感染，脓液有粪臭并有气泡。主要为抗...", "lemmaUrl": "http://baike.baidu.com/item/%E7%9B%86%E8%85%94%E8%84%93%E8%82%BF/9769268", "lemmaPic": []}, {"lemmaId": 5278173, "lemmaTitle": "急性子宫内膜炎", "lemmaCroppedTitle": "急性子宫内膜炎", "lemmaDesc": "子宫内膜炎是妇科常见疾病，当炎症发展至严重阶段时可影响子宫肌层，成为子宫内膜-肌...", "lemmaUrl": "http://baike.baidu.com/item/%E6%80%A5%E6%80%A7%E5%AD%90%E5%AE%AB%E5%86%85%E8%86%9C%E7%82%8E/5278173", "lemmaPic": []}, {"lemmaId": 8895042, "lemmaTitle": "小儿腮腺炎", "lemmaCroppedTitle": "小儿腮腺炎", "lemmaDesc": "小儿腮腺炎是由腮腺炎病毒引起的急性呼吸道传染病，呈世界性分布，在我国归属于法定丙...", "lemmaUrl": "http://baike.baidu.com/item/%E5%B0%8F%E5%84%BF%E8%85%AE%E8%85%BA%E7%82%8E/8895042", "lemmaPic": []}, {"lemmaId": 1024812, "lemmaTitle": "玻璃体积血", "lemmaCroppedTitle": "玻璃体积血", "lemmaDesc": "玻璃体积血是眼外伤或视网膜血管性疾病造成视力危害的一种常见并发症。出血不仅使屈光...", "lemmaUrl": "http://baike.baidu.com/item/%E7%8E%BB%E7%92%83%E4%BD%93%E7%A7%AF%E8%A1%80/1024812", "lemmaPic": []}, {"lemmaId": 3782179, "lemmaTitle": "重复阴茎", "lemmaCroppedTitle": "重复阴茎", "lemmaDesc": "重复阴茎为两个阴茎，多是并列的，常并发其他畸形如膀胱外翻、尿道上裂、尿道下裂，可...", "lemmaUrl": "http://baike.baidu.com/item/%E9%87%8D%E5%A4%8D%E9%98%B4%E8%8C%8E/3782179", "lemmaPic": []}, {"lemmaId": 467231, "lemmaTitle": "心室内传导阻滞", "lemmaCroppedTitle": "心室内传导阻滞", "lemmaDesc": "心室内传导阻滞指的是希氏束分支以下部位的传导阻滞，一般分为左、右束支传导阻滞及左...", "lemmaUrl": "http://baike.baidu.com/item/%E5%BF%83%E5%AE%A4%E5%86%85%E4%BC%A0%E5%AF%BC%E9%98%BB%E6%BB%9E/467231", "lemmaPic": []}, {"lemmaId": 4190976, "lemmaTitle": "多肌炎", "lemmaCroppedTitle": "多肌炎", "lemmaDesc": "多肌炎（polymyositis；PM）为系统性结缔组织疾病，特点是肌组织出现炎...", "lemmaUrl": "http://baike.baidu.com/item/%E5%A4%9A%E8%82%8C%E7%82%8E/4190976", "lemmaPic": []}, {"lemmaId": 3677396, "lemmaTitle": "输卵管结核", "lemmaCroppedTitle": "输卵管结核", "lemmaDesc": "结核性输卵管炎是结核菌所致输卵管炎，常呈肉芽肿样输卵管，可见到各种类型的慢性炎症...", "lemmaUrl": "http://baike.baidu.com/item/%E8%BE%93%E5%8D%B5%E7%AE%A1%E7%BB%93%E6%A0%B8/3677396", "lemmaPic": []}, {"lemmaId": 9172217, "lemmaTitle": "单纯疱疹病毒感染症", "lemmaCroppedTitle": "单纯疱疹病毒感染症", "lemmaDesc": "单纯疱疹病毒感染症简称单纯疱疹，是由单纯疤疹病毒感染所引起的一种急性疱疹性皮肤病...", "lemmaUrl": "http://baike.baidu.com/item/%E5%8D%95%E7%BA%AF%E7%96%B1%E7%96%B9%E7%97%85%E6%AF%92%E6%84%9F%E6%9F%93%E7%97%87/9172217", "lemmaPic": []}, {"lemmaId": 4137096, "lemmaTitle": "气虚咳嗽", "lemmaCroppedTitle": "气虚咳嗽", "lemmaDesc": "气虚咳嗽为病症名，即气虚引起的咳嗽。多因劳役过度，肺气有伤；或饮食劳倦，中气有损...", "lemmaUrl": "http://baike.baidu.com/item/%E6%B0%94%E8%99%9A%E5%92%B3%E5%97%BD/4137096", "lemmaPic": []}, {"lemmaId": 4174439, "lemmaTitle": "肱二头肌长头肌腱炎", "lemmaCroppedTitle": "肱二头肌长头肌腱炎", "lemmaDesc": "肱二头肌长头肌腱起于肩胛骨盂上结节，在肱骨结节间沟与横韧带形成的骨纤维管道中通过...", "lemmaUrl": "http://baike.baidu.com/item/%E8%82%B1%E4%BA%8C%E5%A4%B4%E8%82%8C%E9%95%BF%E5%A4%B4%E8%82%8C%E8%85%B1%E7%82%8E/4174439", "lemmaPic": []}, {"lemmaId": 6002396, "lemmaTitle": "小儿蛔虫病", "lemmaCroppedTitle": "小儿蛔虫病", "lemmaDesc": "人蛔虫亦称似蛔线虫，简称蛔虫。蛔虫病是儿童最常见的寄生虫病之一。成虫寄生于人体小...", "lemmaUrl": "http://baike.baidu.com/item/%E5%B0%8F%E5%84%BF%E8%9B%94%E8%99%AB%E7%97%85/6002396", "lemmaPic": []}, {"lemmaId": 8993034, "lemmaTitle": "脊柱畸形", "lemmaCroppedTitle": "脊柱畸形", "lemmaDesc": "脊柱的冠状位，矢状位或轴向位偏离正常位置，发生形态上异常的表现，称为脊柱畸形。", "lemmaUrl": "http://baike.baidu.com/item/%E8%84%8A%E6%9F%B1%E7%95%B8%E5%BD%A2/8993034", "lemmaPic": []}, {"lemmaId": 5449450, "lemmaTitle": "急性气管支气管炎", "lemmaCroppedTitle": "急性气管支气管炎", "lemmaDesc": "急性气管支气管炎是由于生物性或非生物性致病因素引起的支气管树黏膜急性炎症，为一个...", "lemmaUrl": "http://baike.baidu.com/item/%E6%80%A5%E6%80%A7%E6%B0%94%E7%AE%A1%E6%94%AF%E6%B0%94%E7%AE%A1%E7%82%8E/5449450", "lemmaPic": []}, {"lemmaId": 7254034, "lemmaTitle": "膝韧带损伤", "lemmaCroppedTitle": "膝韧带损伤", "lemmaDesc": "膝韧带抗拉力强，并具有一定的弹性，其功能为维持关节的稳定，并限制其超越生理范围的...", "lemmaUrl": "http://baike.baidu.com/item/%E8%86%9D%E9%9F%A7%E5%B8%A6%E6%8D%9F%E4%BC%A4/7254034", "lemmaPic": []}, {"lemmaId": 10008323, "lemmaTitle": "原发性硬化性胆管炎", "lemmaCroppedTitle": "原发性硬化性胆管炎", "lemmaDesc": "原发性硬化性胆管炎（Original sclerosing cholangiti...", "lemmaUrl": "http://baike.baidu.com/item/%E5%8E%9F%E5%8F%91%E6%80%A7%E7%A1%AC%E5%8C%96%E6%80%A7%E8%83%86%E7%AE%A1%E7%82%8E/10008323", "lemmaPic": []}, {"lemmaId": 10456089, "lemmaTitle": "咽扁桃体肥大", "lemmaCroppedTitle": "咽扁桃体肥大", "lemmaDesc": "咽扁桃体又称腺样体，正常生理情况下，儿童6～7岁时腺样体发育为最大，青春期后逐渐...", "lemmaUrl": "http://baike.baidu.com/item/%E5%92%BD%E6%89%81%E6%A1%83%E4%BD%93%E8%82%A5%E5%A4%A7/10456089", "lemmaPic": []}, {"lemmaId": 1462718, "lemmaTitle": "急性化脓性胆管炎", "lemmaCroppedTitle": "急性化脓性胆管炎", "lemmaDesc": "急性化脓性胆管炎又名急性梗阻性化脓性胆管炎，泛指由阻塞引起的急性化脓性胆道感染，...", "lemmaUrl": "http://baike.baidu.com/item/%E6%80%A5%E6%80%A7%E5%8C%96%E8%84%93%E6%80%A7%E8%83%86%E7%AE%A1%E7%82%8E/1462718", "lemmaPic": []}, {"lemmaId": 3489277, "lemmaTitle": "癔球症", "lemmaCroppedTitle": "癔球症", "lemmaDesc": "癔球症是主观上有某种说不清楚的东西或团块，在咽底部环状软骨水平处，引起胀满、受压...", "lemmaUrl": "http://baike.baidu.com/item/%E7%99%94%E7%90%83%E7%97%87/3489277", "lemmaPic": []}, {"lemmaId": 8013758, "lemmaTitle": "鳃裂囊肿", "lemmaCroppedTitle": "鳃裂囊肿", "lemmaDesc": "鳃裂囊肿属于鳃裂畸形，是先天性疾病，由各对鳃裂未完全退化的组织发育而成。1932...", "lemmaUrl": "http://baike.baidu.com/item/%E9%B3%83%E8%A3%82%E5%9B%8A%E8%82%BF/8013758", "lemmaPic": []}, {"lemmaId": 5119324, "lemmaTitle": "肱骨干骨折", "lemmaCroppedTitle": "肱骨干骨折", "lemmaDesc": "肱骨干骨折系指肱骨外科颈以下1～2厘米至肱骨髁上2厘米之间的骨折。多发于骨干的中...", "lemmaUrl": "http://baike.baidu.com/item/%E8%82%B1%E9%AA%A8%E5%B9%B2%E9%AA%A8%E6%8A%98/5119324", "lemmaPic": []}, {"lemmaId": 11014878, "lemmaTitle": "痹病", "lemmaCroppedTitle": "痹病", "lemmaDesc": "痹病泛指机体正气不足，卫外不固，风、寒、湿、热等邪气乘虚而入，致使气血凝滞，经络...", "lemmaUrl": "http://baike.baidu.com/item/%E7%97%B9%E7%97%85/11014878", "lemmaPic": []}, {"lemmaId": 357679, "lemmaTitle": "锰中毒", "lemmaCroppedTitle": "锰中毒", "lemmaDesc": "急性锰中毒可因口服高锰酸钾或吸入高浓度氧化锰烟雾引起急性腐蚀性胃肠炎或刺激性支气...", "lemmaUrl": "http://baike.baidu.com/item/%E9%94%B0%E4%B8%AD%E6%AF%92/357679", "lemmaPic": []}, {"lemmaId": 917684, "lemmaTitle": "慢性上颌窦炎", "lemmaCroppedTitle": "慢性上颌窦炎", "lemmaDesc": "慢性上颌窦炎是耳鼻咽喉科的常见病、多发病，农村尤多。其发病多由于周围组织炎性反应...", "lemmaUrl": "http://baike.baidu.com/item/%E6%85%A2%E6%80%A7%E4%B8%8A%E9%A2%8C%E7%AA%A6%E7%82%8E/917684", "lemmaPic": []}, {"lemmaId": 8843674, "lemmaTitle": "坐骨神经损伤", "lemmaCroppedTitle": "坐骨神经损伤", "lemmaDesc": "坐骨神经由L4、5和S1、2、3神经根组成。损伤原因多由股部或臀部火器伤引起，有...", "lemmaUrl": "http://baike.baidu.com/item/%E5%9D%90%E9%AA%A8%E7%A5%9E%E7%BB%8F%E6%8D%9F%E4%BC%A4/8843674", "lemmaPic": []}, {"lemmaId": 5087841, "lemmaTitle": "距骨骨折", "lemmaCroppedTitle": "距骨骨折", "lemmaDesc": "距骨骨折是以局部肿胀、疼痛、皮下淤斑、不能站立行走等为主要表现的距骨部骨折。距骨...", "lemmaUrl": "http://baike.baidu.com/item/%E8%B7%9D%E9%AA%A8%E9%AA%A8%E6%8A%98/5087841", "lemmaPic": []}, {"lemmaId": 10094755, "lemmaTitle": "急性出血性肠炎", "lemmaCroppedTitle": "急性出血性肠炎", "lemmaDesc": "急性出血性肠炎又称急性坏死性肠炎，是―种好发于小肠的局限性急性出血坏死性炎症，病...", "lemmaUrl": "http://baike.baidu.com/item/%E6%80%A5%E6%80%A7%E5%87%BA%E8%A1%80%E6%80%A7%E8%82%A0%E7%82%8E/10094755", "lemmaPic": []}, {"lemmaId": 5241679, "lemmaTitle": "真菌性肠炎", "lemmaCroppedTitle": "真菌性肠炎", "lemmaDesc": "真菌性肠炎主要是由白色念珠菌引起的。白色念珠菌是肠道正常菌群之一，长期使用广谱抗...", "lemmaUrl": "http://baike.baidu.com/item/%E7%9C%9F%E8%8F%8C%E6%80%A7%E8%82%A0%E7%82%8E/5241679", "lemmaPic": []}, {"lemmaId": 2086081, "lemmaTitle": "色汗症", "lemmaCroppedTitle": "色汗症", "lemmaDesc": "正常人的汗液是无色的。由于各种原因导致的汗液被着色，称为色汗症。色汗症为少见疾患...", "lemmaUrl": "http://baike.baidu.com/item/%E8%89%B2%E6%B1%97%E7%97%87/2086081", "lemmaPic": []}, {"lemmaId": 7907045, "lemmaTitle": "老年肺炎", "lemmaCroppedTitle": "老年肺炎", "lemmaDesc": "老年肺炎常缺乏明显呼吸系症状，症状多不典型，病性进展快，易发生漏诊、错诊。", "lemmaUrl": "http://baike.baidu.com/item/%E8%80%81%E5%B9%B4%E8%82%BA%E7%82%8E/7907045", "lemmaPic": []}, {"lemmaId": 7907157, "lemmaTitle": "金黄色葡萄球菌肺炎", "lemmaCroppedTitle": "金黄色葡萄球菌肺炎", "lemmaDesc": "金黄色葡萄球菌肺炎是由金黄色葡萄球菌引起的急性肺化脓性炎症。常发生于有基础疾病如...", "lemmaUrl": "http://baike.baidu.com/item/%E9%87%91%E9%BB%84%E8%89%B2%E8%91%A1%E8%90%84%E7%90%83%E8%8F%8C%E8%82%BA%E7%82%8E/7907157", "lemmaPic": []}, {"lemmaId": 6638859, "lemmaTitle": "汗腺瘤", "lemmaCroppedTitle": "汗腺瘤", "lemmaDesc": "汗腺瘤是一种良性皮肤附属器肿瘤，与汗孔瘤有密切关系，有些学者用肢端螺旋瘤来命名汗...", "lemmaUrl": "http://baike.baidu.com/item/%E6%B1%97%E8%85%BA%E7%98%A4/6638859", "lemmaPic": []}, {"lemmaId": 5243587, "lemmaTitle": "多胎妊娠", "lemmaCroppedTitle": "多胎妊娠", "lemmaDesc": "一次妊娠子宫腔内同时有两个或两个以上胎儿，称为多胎妊娠。多胎妊娠的发生率与种族、...", "lemmaUrl": "http://baike.baidu.com/item/%E5%A4%9A%E8%83%8E%E5%A6%8A%E5%A8%A0/5243587", "lemmaPic": []}, {"lemmaId": 1123716, "lemmaTitle": "毒蕈中毒", "lemmaCroppedTitle": "毒蕈中毒", "lemmaDesc": "蕈类又称蘑菇，属于真菌植物。毒蕈是指食后可引起中毒的蕈类，目前在我国已知者有10...", "lemmaUrl": "http://baike.baidu.com/item/%E6%AF%92%E8%95%88%E4%B8%AD%E6%AF%92/1123716", "lemmaPic": []}, {"lemmaId": 5277538, "lemmaTitle": "卵巢破裂", "lemmaCroppedTitle": "卵巢破裂", "lemmaDesc": "卵巢内成熟卵泡或黄体由于某种原因引起包壁破损、出血，严重者可造成大量腹腔内出血，...", "lemmaUrl": "http://baike.baidu.com/item/%E5%8D%B5%E5%B7%A2%E7%A0%B4%E8%A3%82/5277538", "lemmaPic": []}, {"lemmaId": 5055242, "lemmaTitle": "Reiter综合征", "lemmaCroppedTitle": "Reiter综合征", "lemmaDesc": "Reiter综合征也称肠病后类风湿、眼尿道关节炎综合征，临床上以结膜炎、尿道炎和...", "lemmaUrl": "http://baike.baidu.com/item/Reiter%E7%BB%BC%E5%90%88%E5%BE%81/5055242", "lemmaPic": []}, {"lemmaId": 10361529, "lemmaTitle": "肘外翻", "lemmaCroppedTitle": "肘外翻", "lemmaDesc": "正常肘关节完全伸直时有一轻度外翻，男性约10°，女性约15°。这个外翻角称为携带...", "lemmaUrl": "http://baike.baidu.com/item/%E8%82%98%E5%A4%96%E7%BF%BB/10361529", "lemmaPic": []}, {"lemmaId": 2502161, "lemmaTitle": "癣菌疹", "lemmaCroppedTitle": "癣菌疹", "lemmaDesc": "本病是指足癣、头癣等远隔部位发生的皮肤无菌性炎症的一种皮疹，是皮肤癣菌感染的一种...", "lemmaUrl": "http://baike.baidu.com/item/%E7%99%A3%E8%8F%8C%E7%96%B9/2502161", "lemmaPic": []}, {"lemmaId": 391326, "lemmaTitle": "蜂蜇伤", "lemmaCroppedTitle": "蜂蜇伤", "lemmaDesc": "单个蜜蜂蛰伤很少引起全身症状，仅有轻微局部症状，无需特殊处理。若为蜂群或黄蜂蛰伤...", "lemmaUrl": "http://baike.baidu.com/item/%E8%9C%82%E8%9C%87%E4%BC%A4/391326", "lemmaPic": []}, {"lemmaId": 10644839, "lemmaTitle": "非ST段抬高心肌梗死", "lemmaCroppedTitle": "非ST段抬高心肌梗死", "lemmaDesc": "不稳定性心绞痛（UA），非ST段抬高的心肌梗死（NSTEMI）和ST段抬高的心肌...", "lemmaUrl": "http://baike.baidu.com/item/%E9%9D%9EST%E6%AE%B5%E6%8A%AC%E9%AB%98%E5%BF%83%E8%82%8C%E6%A2%97%E6%AD%BB/10644839", "lemmaPic": []}, {"lemmaId": 7606411, "lemmaTitle": "Q热", "lemmaCroppedTitle": "Q热", "lemmaDesc": "Q热乃贝纳柯克斯体所致的急性传染病，是一种自然疫源性疾病。临床上起病急，高热，多...", "lemmaUrl": "http://baike.baidu.com/item/Q%E7%83%AD/7606411", "lemmaPic": []}, {"lemmaId": 8456550, "lemmaTitle": "慢性间质性肾炎", "lemmaCroppedTitle": "慢性间质性肾炎", "lemmaDesc": "慢性间质性肾炎是一组以小管萎缩、间质纤维化和不同程度细胞浸润为主要表现的疾病。肾...", "lemmaUrl": "http://baike.baidu.com/item/%E6%85%A2%E6%80%A7%E9%97%B4%E8%B4%A8%E6%80%A7%E8%82%BE%E7%82%8E/8456550", "lemmaPic": []}, {"lemmaId": 5741706, "lemmaTitle": "支原体尿路感染", "lemmaCroppedTitle": "支原体尿路感染", "lemmaDesc": "支原体尿路感染又称泌尿及生殖道支原体感染。支原体是一群介于细菌与病毒之间、目前所...", "lemmaUrl": "http://baike.baidu.com/item/%E6%94%AF%E5%8E%9F%E4%BD%93%E5%B0%BF%E8%B7%AF%E6%84%9F%E6%9F%93/5741706", "lemmaPic": []}, {"lemmaId": 3169161, "lemmaTitle": "范可尼综合征", "lemmaCroppedTitle": "范可尼综合征", "lemmaDesc": "范可尼综合征也称Fanconi综合征、骨软化-肾性糖尿-氨基酸尿-高磷酸尿综合征...", "lemmaUrl": "http://baike.baidu.com/item/%E8%8C%83%E5%8F%AF%E5%B0%BC%E7%BB%BC%E5%90%88%E5%BE%81/3169161", "lemmaPic": []}], "total": 7246, "totalPage": 73, "page": 23, "fromLemma": 0}