{"lemmaList": [{"lemmaId": 821317, "lemmaTitle": "股骨大粗隆结核", "lemmaCroppedTitle": "股骨大粗隆结核", "lemmaDesc": "股骨大粗隆易受慢性创伤，局部松质骨多，故股骨大粗隆结核较为常见，占全身骨关节结核...", "lemmaUrl": "http://baike.baidu.com/item/%E8%82%A1%E9%AA%A8%E5%A4%A7%E7%B2%97%E9%9A%86%E7%BB%93%E6%A0%B8/821317", "lemmaPic": []}, {"lemmaId": 7254135, "lemmaTitle": "急性髌骨脱位", "lemmaCroppedTitle": "急性髌骨脱位", "lemmaDesc": "暴力作用或同时存在结构上的异常，即可发生髌骨外伤性脱位。外伤主要为直接暴力打击在...", "lemmaUrl": "http://baike.baidu.com/item/%E6%80%A5%E6%80%A7%E9%AB%8C%E9%AA%A8%E8%84%B1%E4%BD%8D/7254135", "lemmaPic": []}, {"lemmaId": 5121352, "lemmaTitle": "胸降主动脉动脉瘤", "lemmaCroppedTitle": "胸降主动脉动脉瘤", "lemmaDesc": "胸降主动脉动脉瘤是胸主动脉动脉瘤中最常见的类型，发生在近段降主动脉，位于左锁骨下...", "lemmaUrl": "http://baike.baidu.com/item/%E8%83%B8%E9%99%8D%E4%B8%BB%E5%8A%A8%E8%84%89%E5%8A%A8%E8%84%89%E7%98%A4/5121352", "lemmaPic": []}, {"lemmaId": 1873158, "lemmaTitle": "类固醇肌病", "lemmaCroppedTitle": "类固醇肌病", "lemmaDesc": "类固醇肌病是指由皮质类固醇激素导致的肌肉萎缩和肌无力，也称为皮质类固醇性多发性肌...", "lemmaUrl": "http://baike.baidu.com/item/%E7%B1%BB%E5%9B%BA%E9%86%87%E8%82%8C%E7%97%85/1873158", "lemmaPic": []}, {"lemmaId": 1333154, "lemmaTitle": "舌骨骨折", "lemmaCroppedTitle": "舌骨骨折", "lemmaDesc": "舌骨呈马蹄形，由舌骨体、大角（2个）和小角（2个）构成，是舌体的主要支持者。下方...", "lemmaUrl": "http://baike.baidu.com/item/%E8%88%8C%E9%AA%A8%E9%AA%A8%E6%8A%98/1333154", "lemmaPic": []}, {"lemmaId": 8967667, "lemmaTitle": "神经鞘源性肿瘤", "lemmaCroppedTitle": "神经鞘源性肿瘤", "lemmaDesc": "周围神经系统肿瘤大致分为神经细胞系和神经鞘系两类。神经鞘瘤和神经纤维瘤均属于神经...", "lemmaUrl": "http://baike.baidu.com/item/%E7%A5%9E%E7%BB%8F%E9%9E%98%E6%BA%90%E6%80%A7%E8%82%BF%E7%98%A4/8967667", "lemmaPic": []}, {"lemmaId": 1769755, "lemmaTitle": "骨神经纤维瘤", "lemmaCroppedTitle": "骨神经纤维瘤", "lemmaDesc": "骨神经纤维瘤是生长在神经干处的以纤维细胞为主的良性肿瘤，是皮肤、深部软组织、神经...", "lemmaUrl": "http://baike.baidu.com/item/%E9%AA%A8%E7%A5%9E%E7%BB%8F%E7%BA%A4%E7%BB%B4%E7%98%A4/1769755", "lemmaPic": []}, {"lemmaId": 5321166, "lemmaTitle": "颞间隙感染", "lemmaCroppedTitle": "颞间隙感染", "lemmaDesc": "颞间隙感染是指颞间隙的急性化脓性感染，颞间隙位于颧弓上方的颞区，借颞肌分为颞浅与...", "lemmaUrl": "http://baike.baidu.com/item/%E9%A2%9E%E9%97%B4%E9%9A%99%E6%84%9F%E6%9F%93/5321166", "lemmaPic": []}, {"lemmaId": 10357120, "lemmaTitle": "先天性桡骨缺如", "lemmaCroppedTitle": "先天性桡骨缺如", "lemmaDesc": "先天性桡骨缺如，畸形程度从单纯的桡骨发育不良至桡骨完全缺如。这种畸形可以是孤立性...", "lemmaUrl": "http://baike.baidu.com/item/%E5%85%88%E5%A4%A9%E6%80%A7%E6%A1%A1%E9%AA%A8%E7%BC%BA%E5%A6%82/10357120", "lemmaPic": []}, {"lemmaId": 8818719, "lemmaTitle": "十二指肠白点综合征", "lemmaCroppedTitle": "十二指肠白点综合征", "lemmaDesc": "十二指肠白点综合征（DWSS）是近年来日本学者根据内镜所见提出的一个新综合征概念...", "lemmaUrl": "http://baike.baidu.com/item/%E5%8D%81%E4%BA%8C%E6%8C%87%E8%82%A0%E7%99%BD%E7%82%B9%E7%BB%BC%E5%90%88%E5%BE%81/8818719", "lemmaPic": []}, {"lemmaId": 3520464, "lemmaTitle": "消化道重复畸形", "lemmaCroppedTitle": "消化道重复畸形", "lemmaDesc": "消化道重复畸形是指附着于消化道系膜侧的，具有与消化道相同特性的球形或管形空腔肿物...", "lemmaUrl": "http://baike.baidu.com/item/%E6%B6%88%E5%8C%96%E9%81%93%E9%87%8D%E5%A4%8D%E7%95%B8%E5%BD%A2/3520464", "lemmaPic": []}, {"lemmaId": 8385820, "lemmaTitle": "胸椎椎管狭窄症", "lemmaCroppedTitle": "胸椎椎管狭窄症", "lemmaDesc": "胸椎椎管狭窄症多见于中年男性，其病因主要来自发育性胸椎椎管狭窄和后天退行性变所致...", "lemmaUrl": "http://baike.baidu.com/item/%E8%83%B8%E6%A4%8E%E6%A4%8E%E7%AE%A1%E7%8B%AD%E7%AA%84%E7%97%87/8385820", "lemmaPic": []}, {"lemmaId": 768407, "lemmaTitle": "颈椎小关节创伤性退变性关节炎", "lemmaCroppedTitle": "颈椎小关节创伤性退变性关节炎", "lemmaDesc": "颈椎小关节创伤性退变性关节炎是指因退行性变波及颈椎后方小关节的一部分或全部，呈现...", "lemmaUrl": "http://baike.baidu.com/item/%E9%A2%88%E6%A4%8E%E5%B0%8F%E5%85%B3%E8%8A%82%E5%88%9B%E4%BC%A4%E6%80%A7%E9%80%80%E5%8F%98%E6%80%A7%E5%85%B3%E8%8A%82%E7%82%8E/768407", "lemmaPic": []}, {"lemmaId": 3083112, "lemmaTitle": "上皮样囊肿", "lemmaCroppedTitle": "上皮样囊肿", "lemmaDesc": "上皮样囊肿是颅内最常见的外胚层组织肿瘤，约占原发性脑瘤的1%，亦称表皮样囊肿、胆...", "lemmaUrl": "http://baike.baidu.com/item/%E4%B8%8A%E7%9A%AE%E6%A0%B7%E5%9B%8A%E8%82%BF/3083112", "lemmaPic": []}, {"lemmaId": 1645105, "lemmaTitle": "麦格综合征", "lemmaCroppedTitle": "麦格综合征", "lemmaDesc": "麦格综合征指病人患有卵巢纤维瘤伴发胸腔积液及腹水，可为血性。在肿瘤切除之后，胸腔...", "lemmaUrl": "http://baike.baidu.com/item/%E9%BA%A6%E6%A0%BC%E7%BB%BC%E5%90%88%E5%BE%81/1645105", "lemmaPic": []}, {"lemmaId": 10726828, "lemmaTitle": "眼眶击出性骨折", "lemmaCroppedTitle": "眼眶击出性骨折", "lemmaDesc": "击出性骨折又称眶底爆折。眼前部受到钝器撞击，眶内组织向眶尖部挤压，眼内压急剧上升...", "lemmaUrl": "http://baike.baidu.com/item/%E7%9C%BC%E7%9C%B6%E5%87%BB%E5%87%BA%E6%80%A7%E9%AA%A8%E6%8A%98/10726828", "lemmaPic": []}, {"lemmaId": 8991878, "lemmaTitle": "化脓性脊椎炎", "lemmaCroppedTitle": "化脓性脊椎炎", "lemmaDesc": "化脓性脊椎炎是特殊部位骨髓炎中的一种，临床少见，占所有骨髓炎的2%～4%，多见于...", "lemmaUrl": "http://baike.baidu.com/item/%E5%8C%96%E8%84%93%E6%80%A7%E8%84%8A%E6%A4%8E%E7%82%8E/8991878", "lemmaPic": []}, {"lemmaId": 10456268, "lemmaTitle": "咽部结核", "lemmaCroppedTitle": "咽部结核", "lemmaDesc": "咽部结核的规范名称为咽结核，结核病虽以肺结核为主，但也可发生在耳鼻咽喉及颈部淋巴...", "lemmaUrl": "http://baike.baidu.com/item/%E5%92%BD%E9%83%A8%E7%BB%93%E6%A0%B8/10456268", "lemmaPic": []}, {"lemmaId": 3680583, "lemmaTitle": "淋病性关节炎", "lemmaCroppedTitle": "淋病性关节炎", "lemmaDesc": "淋病性关节炎是急性关节炎的一个特殊类型，是由淋球菌经性传播引起的关节炎。经性传播...", "lemmaUrl": "http://baike.baidu.com/item/%E6%B7%8B%E7%97%85%E6%80%A7%E5%85%B3%E8%8A%82%E7%82%8E/3680583", "lemmaPic": []}, {"lemmaId": 1663375, "lemmaTitle": "先天性副肌强直症", "lemmaCroppedTitle": "先天性副肌强直症", "lemmaDesc": "肌强直性肌病系指受累骨骼肌肉在收缩后不易放松，连续收缩后减轻或消失，寒冷能使症状...", "lemmaUrl": "http://baike.baidu.com/item/%E5%85%88%E5%A4%A9%E6%80%A7%E5%89%AF%E8%82%8C%E5%BC%BA%E7%9B%B4%E7%97%87/1663375", "lemmaPic": []}, {"lemmaId": 1845776, "lemmaTitle": "丘疹坏死性结核疹", "lemmaCroppedTitle": "丘疹坏死性结核疹", "lemmaDesc": "本病又称丘疹坏死性结核，临床特征为四肢发生散在丘疹，中央坏死形成溃疡和瘢痕。患者...", "lemmaUrl": "http://baike.baidu.com/item/%E4%B8%98%E7%96%B9%E5%9D%8F%E6%AD%BB%E6%80%A7%E7%BB%93%E6%A0%B8%E7%96%B9/1845776", "lemmaPic": []}, {"lemmaId": 9930557, "lemmaTitle": "Ⅰ型超敏反应性疾病", "lemmaCroppedTitle": "Ⅰ型超敏反应性疾病", "lemmaDesc": "与Ⅰ型超敏反应有关的疾病包括特应性疾病、变应性鼻炎、过敏性结膜炎、特应性皮炎和过...", "lemmaUrl": "http://baike.baidu.com/item/%E2%85%A0%E5%9E%8B%E8%B6%85%E6%95%8F%E5%8F%8D%E5%BA%94%E6%80%A7%E7%96%BE%E7%97%85/9930557", "lemmaPic": []}, {"lemmaId": 12810960, "lemmaTitle": "小儿气管支气管异物", "lemmaCroppedTitle": "小儿气管支气管异物", "lemmaDesc": "小儿气管支气管异物为耳鼻咽喉科常见急危疾病之一，多见于5岁以下儿童，3岁以下最多...", "lemmaUrl": "http://baike.baidu.com/item/%E5%B0%8F%E5%84%BF%E6%B0%94%E7%AE%A1%E6%94%AF%E6%B0%94%E7%AE%A1%E5%BC%82%E7%89%A9/12810960", "lemmaPic": []}, {"lemmaId": 12677346, "lemmaTitle": "升主动脉瘤", "lemmaCroppedTitle": "升主动脉瘤", "lemmaDesc": "升主动脉动脉瘤患者多为青、中年，常伴有主动脉瓣窦和瓣环扩大。扩大程度严重者，主动...", "lemmaUrl": "http://baike.baidu.com/item/%E5%8D%87%E4%B8%BB%E5%8A%A8%E8%84%89%E7%98%A4/12677346", "lemmaPic": []}, {"lemmaId": 235644, "lemmaTitle": "先天性支气管囊肿", "lemmaCroppedTitle": "先天性支气管囊肿", "lemmaDesc": "先天性支气管囊肿是胚胎发育时期气管支气管树分支异常的罕见畸形，分为纵隔囊肿、食道...", "lemmaUrl": "http://baike.baidu.com/item/%E5%85%88%E5%A4%A9%E6%80%A7%E6%94%AF%E6%B0%94%E7%AE%A1%E5%9B%8A%E8%82%BF/235644", "lemmaPic": []}, {"lemmaId": 5417616, "lemmaTitle": "肾及输尿管重复畸形", "lemmaCroppedTitle": "肾及输尿管重复畸形", "lemmaDesc": "肾及输尿管重复畸形是泌尿系统常见的先天畸形病。重复肾及输尿管畸形可以单侧性，亦可...", "lemmaUrl": "http://baike.baidu.com/item/%E8%82%BE%E5%8F%8A%E8%BE%93%E5%B0%BF%E7%AE%A1%E9%87%8D%E5%A4%8D%E7%95%B8%E5%BD%A2/5417616", "lemmaPic": []}, {"lemmaId": 10779013, "lemmaTitle": "创伤性口炎", "lemmaCroppedTitle": "创伤性口炎", "lemmaDesc": "创伤性口炎是由机械性、化学性、物理性等因素造成口腔黏膜损伤所致的非特异性急、慢性...", "lemmaUrl": "http://baike.baidu.com/item/%E5%88%9B%E4%BC%A4%E6%80%A7%E5%8F%A3%E7%82%8E/10779013", "lemmaPic": []}, {"lemmaId": 1410935, "lemmaTitle": "黄斑裂孔性视网膜脱离", "lemmaCroppedTitle": "黄斑裂孔性视网膜脱离", "lemmaDesc": "黄斑裂孔性视网膜脱离是一种特殊类型的裂孔性视网膜脱离，是黄斑全层裂孔形成后，液化...", "lemmaUrl": "http://baike.baidu.com/item/%E9%BB%84%E6%96%91%E8%A3%82%E5%AD%94%E6%80%A7%E8%A7%86%E7%BD%91%E8%86%9C%E8%84%B1%E7%A6%BB/1410935", "lemmaPic": []}, {"lemmaId": 11061933, "lemmaTitle": "沙雷菌肺炎", "lemmaCroppedTitle": "沙雷菌肺炎", "lemmaDesc": "沙雷菌肺炎是由沙雷菌感染所致，多为医院内获得性感染，近几年来发病率明显增多，且耐...", "lemmaUrl": "http://baike.baidu.com/item/%E6%B2%99%E9%9B%B7%E8%8F%8C%E8%82%BA%E7%82%8E/11061933", "lemmaPic": []}, {"lemmaId": 2068413, "lemmaTitle": "绝经后卵巢恶性肿瘤", "lemmaCroppedTitle": "绝经后卵巢恶性肿瘤", "lemmaDesc": "卵巢肿瘤是女性生殖器常见的肿瘤。卵巢恶性肿瘤是女性生殖器三大恶性肿瘤之一，卵巢癌...", "lemmaUrl": "http://baike.baidu.com/item/%E7%BB%9D%E7%BB%8F%E5%90%8E%E5%8D%B5%E5%B7%A2%E6%81%B6%E6%80%A7%E8%82%BF%E7%98%A4/2068413", "lemmaPic": []}, {"lemmaId": 894712, "lemmaTitle": "膜性口炎", "lemmaCroppedTitle": "膜性口炎", "lemmaDesc": "引发本病的细菌主要是金黄色葡萄球菌、草绿色链球菌、溶血性链球菌和肺炎双球菌等常驻...", "lemmaUrl": "http://baike.baidu.com/item/%E8%86%9C%E6%80%A7%E5%8F%A3%E7%82%8E/894712", "lemmaPic": []}, {"lemmaId": 12810938, "lemmaTitle": "艾滋病导致的肺结核", "lemmaCroppedTitle": "艾滋病导致的肺结核", "lemmaDesc": "艾滋病导致的肺结核。HIV阳性患者感染结核菌后，结核病发病率较HIV阴性者高30...", "lemmaUrl": "http://baike.baidu.com/item/%E8%89%BE%E6%BB%8B%E7%97%85%E5%AF%BC%E8%87%B4%E7%9A%84%E8%82%BA%E7%BB%93%E6%A0%B8/12810938", "lemmaPic": []}, {"lemmaId": 8531698, "lemmaTitle": "外伤后脑脂肪栓塞", "lemmaCroppedTitle": "外伤后脑脂肪栓塞", "lemmaDesc": "脑脂肪栓塞，多见于颅脑损伤合并肢体长骨骨折，或有大面积挤压伤的肥胖伤员，脂肪滴进...", "lemmaUrl": "http://baike.baidu.com/item/%E5%A4%96%E4%BC%A4%E5%90%8E%E8%84%91%E8%84%82%E8%82%AA%E6%A0%93%E5%A1%9E/8531698", "lemmaPic": []}, {"lemmaId": 12000417, "lemmaTitle": "闭塞性血栓性脉管炎", "lemmaCroppedTitle": "闭塞性血栓性脉管炎", "lemmaDesc": "闭塞性血栓性脉管炎是一种主要累及四肢末端中、小静脉，节段分布的慢性复发性血管炎，...", "lemmaUrl": "http://baike.baidu.com/item/%E9%97%AD%E5%A1%9E%E6%80%A7%E8%A1%80%E6%A0%93%E6%80%A7%E8%84%89%E7%AE%A1%E7%82%8E/12000417", "lemmaPic": []}, {"lemmaId": 1962847, "lemmaTitle": "乳头状汗管囊腺瘤", "lemmaCroppedTitle": "乳头状汗管囊腺瘤", "lemmaDesc": "乳头状汗管囊腺瘤的来源尚有争论，目前倾向大多数来源于顶泌汗腺，有些来源于小汗腺分...", "lemmaUrl": "http://baike.baidu.com/item/%E4%B9%B3%E5%A4%B4%E7%8A%B6%E6%B1%97%E7%AE%A1%E5%9B%8A%E8%85%BA%E7%98%A4/1962847", "lemmaPic": []}, {"lemmaId": 7943302, "lemmaTitle": "滑石尘肺", "lemmaCroppedTitle": "滑石尘肺", "lemmaDesc": "滑石尘肺是由长期吸入滑石粉尘而引起的弥漫性纤维化的一种疾病，属于硅酸盐类尘肺。主...", "lemmaUrl": "http://baike.baidu.com/item/%E6%BB%91%E7%9F%B3%E5%B0%98%E8%82%BA/7943302", "lemmaPic": []}, {"lemmaId": 2839138, "lemmaTitle": "老年人缺血性心肌病", "lemmaCroppedTitle": "老年人缺血性心肌病", "lemmaDesc": "老年人缺血性心肌病是指由于长期心肌缺血导致心肌局限性或弥漫性纤维化，从而产生收缩...", "lemmaUrl": "http://baike.baidu.com/item/%E8%80%81%E5%B9%B4%E4%BA%BA%E7%BC%BA%E8%A1%80%E6%80%A7%E5%BF%83%E8%82%8C%E7%97%85/2839138", "lemmaPic": []}, {"lemmaId": 743286, "lemmaTitle": "十二指肠憩室梗阻性黄疸综合征", "lemmaCroppedTitle": "十二指肠憩室梗阻性黄疸综合征", "lemmaDesc": "十二指肠憩室梗阻性黄疸综合征是指患有十二指肠憩室并压迫胆总管，影响胆汁和胰液的排...", "lemmaUrl": "http://baike.baidu.com/item/%E5%8D%81%E4%BA%8C%E6%8C%87%E8%82%A0%E6%86%A9%E5%AE%A4%E6%A2%97%E9%98%BB%E6%80%A7%E9%BB%84%E7%96%B8%E7%BB%BC%E5%90%88%E5%BE%81/743286", "lemmaPic": []}, {"lemmaId": 5893716, "lemmaTitle": "梗阻性尿路疾病", "lemmaCroppedTitle": "梗阻性尿路疾病", "lemmaDesc": "梗阻性尿路疾病是尿路的结构或功能改变妨碍了正常尿流，有时可导致肾功能不全。梗阻性...", "lemmaUrl": "http://baike.baidu.com/item/%E6%A2%97%E9%98%BB%E6%80%A7%E5%B0%BF%E8%B7%AF%E7%96%BE%E7%97%85/5893716", "lemmaPic": []}, {"lemmaId": 1231713, "lemmaTitle": "强脉冲光", "lemmaCroppedTitle": "强脉冲光", "lemmaDesc": "强脉冲光（IPL）或称脉冲强光，是以一种强度很高的光源经过聚焦和滤过后形成的一种...", "lemmaUrl": "http://baike.baidu.com/item/%E5%BC%BA%E8%84%89%E5%86%B2%E5%85%89/1231713", "lemmaPic": []}, {"lemmaId": 8668317, "lemmaTitle": "卫氏并殖吸虫病", "lemmaCroppedTitle": "卫氏并殖吸虫病", "lemmaDesc": "卫氏并殖吸虫病由寄生于人体内各脏器（以肺部为主）的并殖吸虫引起的慢性寄生虫病。临...", "lemmaUrl": "http://baike.baidu.com/item/%E5%8D%AB%E6%B0%8F%E5%B9%B6%E6%AE%96%E5%90%B8%E8%99%AB%E7%97%85/8668317", "lemmaPic": []}, {"lemmaId": 10642361, "lemmaTitle": "放射性心脏损害", "lemmaCroppedTitle": "放射性心脏损害", "lemmaDesc": "放射性心脏损害是指受到放射性物质辐射后产生的心肌病变。受到放射线照射的人和动物的...", "lemmaUrl": "http://baike.baidu.com/item/%E6%94%BE%E5%B0%84%E6%80%A7%E5%BF%83%E8%84%8F%E6%8D%9F%E5%AE%B3/10642361", "lemmaPic": []}, {"lemmaId": 5278356, "lemmaTitle": "特发性葡萄膜大脑炎", "lemmaCroppedTitle": "特发性葡萄膜大脑炎", "lemmaDesc": "特发性葡萄膜大脑炎是以眼前节炎症为主，伴有白发、疏发、皮肤白斑和听力障碍的综合病...", "lemmaUrl": "http://baike.baidu.com/item/%E7%89%B9%E5%8F%91%E6%80%A7%E8%91%A1%E8%90%84%E8%86%9C%E5%A4%A7%E8%84%91%E7%82%8E/5278356", "lemmaPic": []}, {"lemmaId": 6680501, "lemmaTitle": "特发性黄斑裂孔", "lemmaCroppedTitle": "特发性黄斑裂孔", "lemmaDesc": "特发性黄斑裂孔是指眼部无明显相关的原发病变如屈光不正、眼外伤及其他玻璃体视网膜病...", "lemmaUrl": "http://baike.baidu.com/item/%E7%89%B9%E5%8F%91%E6%80%A7%E9%BB%84%E6%96%91%E8%A3%82%E5%AD%94/6680501", "lemmaPic": []}, {"lemmaId": 1162447, "lemmaTitle": "钩虫皮炎", "lemmaCroppedTitle": "钩虫皮炎", "lemmaDesc": "钩虫皮炎是由于十二指肠钩虫或美洲钩虫的幼虫侵入皮肤引起的皮肤局部炎症反应。钩虫的...", "lemmaUrl": "http://baike.baidu.com/item/%E9%92%A9%E8%99%AB%E7%9A%AE%E7%82%8E/1162447", "lemmaPic": []}, {"lemmaId": 2236921, "lemmaTitle": "小儿干燥综合征", "lemmaCroppedTitle": "小儿干燥综合征", "lemmaDesc": "干燥综合征是一种自身免疫性外分泌腺体慢性炎症性疾病。它可同时累及其他器官，造成多...", "lemmaUrl": "http://baike.baidu.com/item/%E5%B0%8F%E5%84%BF%E5%B9%B2%E7%87%A5%E7%BB%BC%E5%90%88%E5%BE%81/2236921", "lemmaPic": []}, {"lemmaId": 896415, "lemmaTitle": "弥漫性空回肠溃疡", "lemmaCroppedTitle": "弥漫性空回肠溃疡", "lemmaDesc": "弥漫性空回肠溃疡较少见，也称为慢性肉芽肿性空回肠炎、慢性特发性溃疡性小肠炎。好发...", "lemmaUrl": "http://baike.baidu.com/item/%E5%BC%A5%E6%BC%AB%E6%80%A7%E7%A9%BA%E5%9B%9E%E8%82%A0%E6%BA%83%E7%96%A1/896415", "lemmaPic": []}, {"lemmaId": 3005206, "lemmaTitle": "大脑大静脉瘤", "lemmaCroppedTitle": "大脑大静脉瘤", "lemmaDesc": "大脑大静脉是位于中线部位的静脉结构，由大脑大静脉和Rosenthal基底静脉汇流...", "lemmaUrl": "http://baike.baidu.com/item/%E5%A4%A7%E8%84%91%E5%A4%A7%E9%9D%99%E8%84%89%E7%98%A4/3005206", "lemmaPic": []}, {"lemmaId": 6524585, "lemmaTitle": "水合氯醛中毒", "lemmaCroppedTitle": "水合氯醛中毒", "lemmaDesc": "水合氯醛是常用的镇静和解痉药，口服或灌肠，单次用量过大或短时间内重复用药过多，均...", "lemmaUrl": "http://baike.baidu.com/item/%E6%B0%B4%E5%90%88%E6%B0%AF%E9%86%9B%E4%B8%AD%E6%AF%92/6524585", "lemmaPic": []}, {"lemmaId": 5361237, "lemmaTitle": "溶组织内阿米巴病", "lemmaCroppedTitle": "溶组织内阿米巴病", "lemmaDesc": "溶组织内阿米巴也叫痢疾阿米巴，主要寄生于结肠内，引起阿米巴痢疾或阿米巴结肠炎。痢...", "lemmaUrl": "http://baike.baidu.com/item/%E6%BA%B6%E7%BB%84%E7%BB%87%E5%86%85%E9%98%BF%E7%B1%B3%E5%B7%B4%E7%97%85/5361237", "lemmaPic": []}, {"lemmaId": 883947, "lemmaTitle": "自发性脑室内出血", "lemmaCroppedTitle": "自发性脑室内出血", "lemmaDesc": "自发性脑室内出血（IVH）是指非外伤性因素所致的颅内血管破裂，血液进入脑室系统引...", "lemmaUrl": "http://baike.baidu.com/item/%E8%87%AA%E5%8F%91%E6%80%A7%E8%84%91%E5%AE%A4%E5%86%85%E5%87%BA%E8%A1%80/883947", "lemmaPic": []}, {"lemmaId": 2601233, "lemmaTitle": "喉气管瘢痕性狭窄", "lemmaCroppedTitle": "喉气管瘢痕性狭窄", "lemmaDesc": "喉气管瘢痕性狭窄是指喉或气管腔由于腔内瘢痕增生使气道变窄，而导致发声和（或）呼吸...", "lemmaUrl": "http://baike.baidu.com/item/%E5%96%89%E6%B0%94%E7%AE%A1%E7%98%A2%E7%97%95%E6%80%A7%E7%8B%AD%E7%AA%84/2601233", "lemmaPic": []}, {"lemmaId": 3698498, "lemmaTitle": "肾上腺髓质增生", "lemmaCroppedTitle": "肾上腺髓质增生", "lemmaDesc": "肾上腺髓质增生是一种自主性儿茶酚胺分泌过多的独立病症。以女性为多见，发病年龄多为...", "lemmaUrl": "http://baike.baidu.com/item/%E8%82%BE%E4%B8%8A%E8%85%BA%E9%AB%93%E8%B4%A8%E5%A2%9E%E7%94%9F/3698498", "lemmaPic": []}, {"lemmaId": 5423712, "lemmaTitle": "骨干续连症", "lemmaCroppedTitle": "骨干续连症", "lemmaDesc": "骨干续连症是一种软骨的发育障碍。表现为多发性外生骨疣及干骺端畸形，故亦称干骺端发...", "lemmaUrl": "http://baike.baidu.com/item/%E9%AA%A8%E5%B9%B2%E7%BB%AD%E8%BF%9E%E7%97%87/5423712", "lemmaPic": []}, {"lemmaId": 5321108, "lemmaTitle": "颏下间隙感染", "lemmaCroppedTitle": "颏下间隙感染", "lemmaDesc": "颏下间隙感染是指颏下间隙急性化脓性感染，主要临床表现有淋巴结肿大、颏下三角区皮肤...", "lemmaUrl": "http://baike.baidu.com/item/%E9%A2%8F%E4%B8%8B%E9%97%B4%E9%9A%99%E6%84%9F%E6%9F%93/5321108", "lemmaPic": []}, {"lemmaId": 3120346, "lemmaTitle": "虹膜黑色素瘤", "lemmaCroppedTitle": "虹膜黑色素瘤", "lemmaDesc": "虹膜黑色素瘤是一种较少见的发生于虹膜基质内黑色素细胞的恶性肿瘤。其发病率低于脉络...", "lemmaUrl": "http://baike.baidu.com/item/%E8%99%B9%E8%86%9C%E9%BB%91%E8%89%B2%E7%B4%A0%E7%98%A4/3120346", "lemmaPic": []}, {"lemmaId": 510248, "lemmaTitle": "单纯肾异位", "lemmaCroppedTitle": "单纯肾异位", "lemmaDesc": "肾异位是指发育完好的肾脏不能达到腹膜后肾窝内的正常位置。肾异位应与肾下垂相鉴别，...", "lemmaUrl": "http://baike.baidu.com/item/%E5%8D%95%E7%BA%AF%E8%82%BE%E5%BC%82%E4%BD%8D/510248", "lemmaPic": []}, {"lemmaId": 945507, "lemmaTitle": "食管克罗恩病", "lemmaCroppedTitle": "食管克罗恩病", "lemmaDesc": "食管克罗恩病是一种胃肠道的慢性、非特异性的全壁层肉芽肿性炎症，口腔、咽部可见溃疡...", "lemmaUrl": "http://baike.baidu.com/item/%E9%A3%9F%E7%AE%A1%E5%85%8B%E7%BD%97%E6%81%A9%E7%97%85/945507", "lemmaPic": []}, {"lemmaId": 5280479, "lemmaTitle": "匐行性角膜溃疡", "lemmaCroppedTitle": "匐行性角膜溃疡", "lemmaDesc": "匐行性角膜溃疡是一种常见的急性化脓性角膜溃疡，因病变呈中央匐行扩展而得名。前房常...", "lemmaUrl": "http://baike.baidu.com/item/%E5%8C%90%E8%A1%8C%E6%80%A7%E8%A7%92%E8%86%9C%E6%BA%83%E7%96%A1/5280479", "lemmaPic": []}, {"lemmaId": 8384270, "lemmaTitle": "红斑性肢痛病", "lemmaCroppedTitle": "红斑性肢痛病", "lemmaDesc": "红斑性肢痛症是一种原因不明的末梢血管舒缩功能障碍性疾病，临床特征为肢端皮肤红、肿...", "lemmaUrl": "http://baike.baidu.com/item/%E7%BA%A2%E6%96%91%E6%80%A7%E8%82%A2%E7%97%9B%E7%97%85/8384270", "lemmaPic": []}, {"lemmaId": 4274796, "lemmaTitle": "乳腺错构瘤", "lemmaCroppedTitle": "乳腺错构瘤", "lemmaDesc": "乳腺错构瘤是由乳腺组织中各种成分组成，是临床上比较罕见的乳腺良性肿瘤。乳腺最具代...", "lemmaUrl": "http://baike.baidu.com/item/%E4%B9%B3%E8%85%BA%E9%94%99%E6%9E%84%E7%98%A4/4274796", "lemmaPic": []}, {"lemmaId": 4677621, "lemmaTitle": "酒精中毒性神经疾病", "lemmaCroppedTitle": "酒精中毒性神经疾病", "lemmaDesc": "已证实无节制地大量饮酒对人体许多器官系统均有很大的损害作用，而神经系统是其致病的...", "lemmaUrl": "http://baike.baidu.com/item/%E9%85%92%E7%B2%BE%E4%B8%AD%E6%AF%92%E6%80%A7%E7%A5%9E%E7%BB%8F%E7%96%BE%E7%97%85/4677621", "lemmaPic": []}, {"lemmaId": 7253353, "lemmaTitle": "矫正型大动脉转位", "lemmaCroppedTitle": "矫正型大动脉转位", "lemmaDesc": "正常原始心管的弯曲突向右侧，故名右翼（D-Loop），使右心室位于右侧靠前，而左...", "lemmaUrl": "http://baike.baidu.com/item/%E7%9F%AB%E6%AD%A3%E5%9E%8B%E5%A4%A7%E5%8A%A8%E8%84%89%E8%BD%AC%E4%BD%8D/7253353", "lemmaPic": []}, {"lemmaId": 10277310, "lemmaTitle": "伏格特-小柳-原田综合征", "lemmaCroppedTitle": "伏格特-小柳-原田综合征", "lemmaDesc": "伏格特-小柳-原田综合征（VKH 综合征）是一种有特异性全身症状的急性弥漫性色素...", "lemmaUrl": "http://baike.baidu.com/item/%E4%BC%8F%E6%A0%BC%E7%89%B9-%E5%B0%8F%E6%9F%B3-%E5%8E%9F%E7%94%B0%E7%BB%BC%E5%90%88%E5%BE%81/10277310", "lemmaPic": []}, {"lemmaId": 895971, "lemmaTitle": "急性化脓性乳突炎", "lemmaCroppedTitle": "急性化脓性乳突炎", "lemmaDesc": "急性化脓性乳突炎实际上为急性中耳炎之后续，故常称为急性化脓性中耳乳突炎。中耳乳突...", "lemmaUrl": "http://baike.baidu.com/item/%E6%80%A5%E6%80%A7%E5%8C%96%E8%84%93%E6%80%A7%E4%B9%B3%E7%AA%81%E7%82%8E/895971", "lemmaPic": []}, {"lemmaId": 8067454, "lemmaTitle": "老年性癫痫", "lemmaCroppedTitle": "老年性癫痫", "lemmaDesc": "成年期起病的癫痫称晚发性癫痫。临床上多选择20岁作为其年龄起点，而将60岁以上发...", "lemmaUrl": "http://baike.baidu.com/item/%E8%80%81%E5%B9%B4%E6%80%A7%E7%99%AB%E7%97%AB/8067454", "lemmaPic": []}, {"lemmaId": 6807234, "lemmaTitle": "迷路震荡", "lemmaCroppedTitle": "迷路震荡", "lemmaDesc": "迷路震荡是指颅脑闭合伤时无颞骨骨折的迷路损伤，有时可伴有迷路窗破裂。常与脑震荡同...", "lemmaUrl": "http://baike.baidu.com/item/%E8%BF%B7%E8%B7%AF%E9%9C%87%E8%8D%A1/6807234", "lemmaPic": []}, {"lemmaId": 5085444, "lemmaTitle": "水过多", "lemmaCroppedTitle": "水过多", "lemmaDesc": "水过多是指机体摄入或输入水过多，以致水在体内潴留，引起血液渗透压下降和循环血量增...", "lemmaUrl": "http://baike.baidu.com/item/%E6%B0%B4%E8%BF%87%E5%A4%9A/5085444", "lemmaPic": []}, {"lemmaId": 3748553, "lemmaTitle": "胆源性慢性胰腺炎", "lemmaCroppedTitle": "胆源性慢性胰腺炎", "lemmaDesc": "胆道系统的疾病不仅可引起急性胰腺炎，而且常引起胰腺弥漫性或局限性反复发作的渐进性...", "lemmaUrl": "http://baike.baidu.com/item/%E8%83%86%E6%BA%90%E6%80%A7%E6%85%A2%E6%80%A7%E8%83%B0%E8%85%BA%E7%82%8E/3748553", "lemmaPic": []}, {"lemmaId": 478393, "lemmaTitle": "小儿无脾综合征", "lemmaCroppedTitle": "小儿无脾综合征", "lemmaDesc": "小儿无脾综合症其特征是指先天性脾脏发育不全或无脾，伴有心脏大血管畸形兼有腔、肺静...", "lemmaUrl": "http://baike.baidu.com/item/%E5%B0%8F%E5%84%BF%E6%97%A0%E8%84%BE%E7%BB%BC%E5%90%88%E5%BE%81/478393", "lemmaPic": []}, {"lemmaId": 10358164, "lemmaTitle": "软骨发育异常", "lemmaCroppedTitle": "软骨发育异常", "lemmaDesc": "软骨发育异常又称内生软骨瘤病，多发内生软骨瘤病(Ollier病)等。其特征为，长...", "lemmaUrl": "http://baike.baidu.com/item/%E8%BD%AF%E9%AA%A8%E5%8F%91%E8%82%B2%E5%BC%82%E5%B8%B8/10358164", "lemmaPic": []}, {"lemmaId": 5433470, "lemmaTitle": "股神经卡压综合征", "lemmaCroppedTitle": "股神经卡压综合征", "lemmaDesc": "股神经经过腹股沟韧带深层髂腰肌膜鞘管处受压，产生感觉及运动功能障碍。任何原因引起...", "lemmaUrl": "http://baike.baidu.com/item/%E8%82%A1%E7%A5%9E%E7%BB%8F%E5%8D%A1%E5%8E%8B%E7%BB%BC%E5%90%88%E5%BE%81/5433470", "lemmaPic": []}, {"lemmaId": 5085506, "lemmaTitle": "镁过多症", "lemmaCroppedTitle": "镁过多症", "lemmaDesc": "镁过多症系一种少见的生化异常，肾功能损害是发生高血镁最主要的原因。但大多数引起症...", "lemmaUrl": "http://baike.baidu.com/item/%E9%95%81%E8%BF%87%E5%A4%9A%E7%97%87/5085506", "lemmaPic": []}, {"lemmaId": 5278788, "lemmaTitle": "后天性视网膜劈裂", "lemmaCroppedTitle": "后天性视网膜劈裂", "lemmaDesc": "后天性视网膜劈裂或称老年性视网膜劈裂症，但在20岁以后青年人中也有发生。后天性视...", "lemmaUrl": "http://baike.baidu.com/item/%E5%90%8E%E5%A4%A9%E6%80%A7%E8%A7%86%E7%BD%91%E8%86%9C%E5%8A%88%E8%A3%82/5278788", "lemmaPic": []}, {"lemmaId": 2595413, "lemmaTitle": "虹膜新生血管", "lemmaCroppedTitle": "虹膜新生血管", "lemmaDesc": "虹膜新生血管并非虹膜的原发性疾病，而是继发于许多眼病及某些全身性疾病。由于它可以...", "lemmaUrl": "http://baike.baidu.com/item/%E8%99%B9%E8%86%9C%E6%96%B0%E7%94%9F%E8%A1%80%E7%AE%A1/2595413", "lemmaPic": []}, {"lemmaId": 6643187, "lemmaTitle": "自发性血胸", "lemmaCroppedTitle": "自发性血胸", "lemmaDesc": "自发性血胸是指非创伤性血胸，常发生于既往无全身或胸、肺疾病史者。青壮年常见，男性...", "lemmaUrl": "http://baike.baidu.com/item/%E8%87%AA%E5%8F%91%E6%80%A7%E8%A1%80%E8%83%B8/6643187", "lemmaPic": []}, {"lemmaId": 6846109, "lemmaTitle": "胆道运动功能障碍综合征", "lemmaCroppedTitle": "胆道运动功能障碍综合征", "lemmaDesc": "胆道运动功能障碍综合征又称为Oddi括约肌功能不全、Oddi括约肌闭锁不全、Od...", "lemmaUrl": "http://baike.baidu.com/item/%E8%83%86%E9%81%93%E8%BF%90%E5%8A%A8%E5%8A%9F%E8%83%BD%E9%9A%9C%E7%A2%8D%E7%BB%BC%E5%90%88%E5%BE%81/6846109", "lemmaPic": []}, {"lemmaId": 3639844, "lemmaTitle": "眼眶横纹肌肉瘤", "lemmaCroppedTitle": "眼眶横纹肌肉瘤", "lemmaDesc": "眼眶横纹肌肉瘤（orbital rhabdomyosarcoma）是由分化程度不...", "lemmaUrl": "http://baike.baidu.com/item/%E7%9C%BC%E7%9C%B6%E6%A8%AA%E7%BA%B9%E8%82%8C%E8%82%89%E7%98%A4/3639844", "lemmaPic": []}, {"lemmaId": 8967416, "lemmaTitle": "副神经节起源的肿瘤", "lemmaCroppedTitle": "副神经节起源的肿瘤", "lemmaDesc": "副神经节起源的肿瘤包括有生物活性的嗜铬细胞瘤和无生物活性的非嗜铬细胞瘤，二者均可...", "lemmaUrl": "http://baike.baidu.com/item/%E5%89%AF%E7%A5%9E%E7%BB%8F%E8%8A%82%E8%B5%B7%E6%BA%90%E7%9A%84%E8%82%BF%E7%98%A4/8967416", "lemmaPic": []}, {"lemmaId": 3856280, "lemmaTitle": "躯体疾病伴发的精神障碍", "lemmaCroppedTitle": "躯体疾病伴发的精神障碍", "lemmaDesc": "当病毒、细菌、螺旋体、真菌、原生虫及寄生虫侵入机体引发疾病时，精神障碍的发生与上...", "lemmaUrl": "http://baike.baidu.com/item/%E8%BA%AF%E4%BD%93%E7%96%BE%E7%97%85%E4%BC%B4%E5%8F%91%E7%9A%84%E7%B2%BE%E7%A5%9E%E9%9A%9C%E7%A2%8D/3856280", "lemmaPic": []}, {"lemmaId": 2567140, "lemmaTitle": "男子乳房发育症", "lemmaCroppedTitle": "男子乳房发育症", "lemmaDesc": "男性乳腺发育症是常见的临床问题。病人关心的问题是：带来不适，影响美观，怀疑癌肿。...", "lemmaUrl": "http://baike.baidu.com/item/%E7%94%B7%E5%AD%90%E4%B9%B3%E6%88%BF%E5%8F%91%E8%82%B2%E7%97%87/2567140", "lemmaPic": []}, {"lemmaId": 5056093, "lemmaTitle": "肝源性肾损害", "lemmaCroppedTitle": "肝源性肾损害", "lemmaDesc": "肝源性肾损害主要包括：①乙型肝炎病毒导致的肾小球肾炎；②肝硬化时体内免疫、生理和...", "lemmaUrl": "http://baike.baidu.com/item/%E8%82%9D%E6%BA%90%E6%80%A7%E8%82%BE%E6%8D%9F%E5%AE%B3/5056093", "lemmaPic": []}, {"lemmaId": 9271605, "lemmaTitle": "胃窦血管扩张症", "lemmaCroppedTitle": "胃窦血管扩张症", "lemmaDesc": "胃窦血管扩张症（GAVE）根据胃镜下表现，被形象地称为“西瓜胃”，胃窦部纵向、含...", "lemmaUrl": "http://baike.baidu.com/item/%E8%83%83%E7%AA%A6%E8%A1%80%E7%AE%A1%E6%89%A9%E5%BC%A0%E7%97%87/9271605", "lemmaPic": []}, {"lemmaId": 2600936, "lemmaTitle": "耳源性脑膜炎", "lemmaCroppedTitle": "耳源性脑膜炎", "lemmaDesc": "耳源性脑膜炎是急性或慢性化脓性中耳乳突炎所并发的软脑膜、蛛网膜的急性化脓性炎症。...", "lemmaUrl": "http://baike.baidu.com/item/%E8%80%B3%E6%BA%90%E6%80%A7%E8%84%91%E8%86%9C%E7%82%8E/2600936", "lemmaPic": []}, {"lemmaId": 7328671, "lemmaTitle": "毛囊性鱼鳞病", "lemmaCroppedTitle": "毛囊性鱼鳞病", "lemmaDesc": "毛囊性鱼鳞病是指临床表现为全身性角化过度，伴呈肉色与刺状的泛发性皮肤毛囊突起，好...", "lemmaUrl": "http://baike.baidu.com/item/%E6%AF%9B%E5%9B%8A%E6%80%A7%E9%B1%BC%E9%B3%9E%E7%97%85/7328671", "lemmaPic": []}, {"lemmaId": 3887570, "lemmaTitle": "慢性劳损性腰背痛", "lemmaCroppedTitle": "慢性劳损性腰背痛", "lemmaDesc": "慢性劳损性腰背痛又名慢性腰背肌劳损，是临床上常见的疾患之一，多见于潮湿、寒冷条件...", "lemmaUrl": "http://baike.baidu.com/item/%E6%85%A2%E6%80%A7%E5%8A%B3%E6%8D%9F%E6%80%A7%E8%85%B0%E8%83%8C%E7%97%9B/3887570", "lemmaPic": []}, {"lemmaId": 3678055, "lemmaTitle": "产科休克", "lemmaCroppedTitle": "产科休克", "lemmaDesc": "产科休克仅指发生于孕产妇特有的休克，系指与妊娠、分娩有直接关系发生的休克。产科休...", "lemmaUrl": "http://baike.baidu.com/item/%E4%BA%A7%E7%A7%91%E4%BC%91%E5%85%8B/3678055", "lemmaPic": []}, {"lemmaId": 5085747, "lemmaTitle": "松毛虫性骨关节病", "lemmaCroppedTitle": "松毛虫性骨关节病", "lemmaDesc": "松毛虫性骨关节病在我国南方省份如福建，广东，湖北，湖南，浙江林区均有流行。多在夏...", "lemmaUrl": "http://baike.baidu.com/item/%E6%9D%BE%E6%AF%9B%E8%99%AB%E6%80%A7%E9%AA%A8%E5%85%B3%E8%8A%82%E7%97%85/5085747", "lemmaPic": []}, {"lemmaId": 5359256, "lemmaTitle": "心内膜弹性纤维增生症", "lemmaCroppedTitle": "心内膜弹性纤维增生症", "lemmaDesc": "心内膜弹性纤维增生症（EFE）又名心内膜硬化症，其病因尚未明了。为小儿原发性心肌...", "lemmaUrl": "http://baike.baidu.com/item/%E5%BF%83%E5%86%85%E8%86%9C%E5%BC%B9%E6%80%A7%E7%BA%A4%E7%BB%B4%E5%A2%9E%E7%94%9F%E7%97%87/5359256", "lemmaPic": []}, {"lemmaId": 11024640, "lemmaTitle": "不动杆菌感染", "lemmaCroppedTitle": "不动杆菌感染", "lemmaDesc": "不动杆菌是一类不发酵糖类的革兰阴性杆菌，是条件致病菌，也是人体正常菌丛的组成部分...", "lemmaUrl": "http://baike.baidu.com/item/%E4%B8%8D%E5%8A%A8%E6%9D%86%E8%8F%8C%E6%84%9F%E6%9F%93/11024640", "lemmaPic": []}, {"lemmaId": 6674336, "lemmaTitle": "纵隔脓肿", "lemmaCroppedTitle": "纵隔脓肿", "lemmaDesc": "纵隔脓肿是指由金黄色葡萄球菌侵入纵隔的组织或血管内，使组织坏死、液化，形成脓液积...", "lemmaUrl": "http://baike.baidu.com/item/%E7%BA%B5%E9%9A%94%E8%84%93%E8%82%BF/6674336", "lemmaPic": []}, {"lemmaId": 7833590, "lemmaTitle": "颌面部淋巴管瘤", "lemmaCroppedTitle": "颌面部淋巴管瘤", "lemmaDesc": "淋巴管瘤是淋巴管发育畸形所形成的良性肿瘤，按其临床表现及组织特征分为三种类型：毛...", "lemmaUrl": "http://baike.baidu.com/item/%E9%A2%8C%E9%9D%A2%E9%83%A8%E6%B7%8B%E5%B7%B4%E7%AE%A1%E7%98%A4/7833590", "lemmaPic": []}, {"lemmaId": 1939824, "lemmaTitle": "肾动脉闭塞", "lemmaCroppedTitle": "肾动脉闭塞", "lemmaDesc": "肾动脉闭塞是指肾动脉主干或较大分支由于血管壁或血液因素导致肾动脉腔内发生的完全闭...", "lemmaUrl": "http://baike.baidu.com/item/%E8%82%BE%E5%8A%A8%E8%84%89%E9%97%AD%E5%A1%9E/1939824", "lemmaPic": []}, {"lemmaId": 4312398, "lemmaTitle": "腹膜后脂肪瘤", "lemmaCroppedTitle": "腹膜后脂肪瘤", "lemmaDesc": "腹膜后脂肪瘤亦称为原发性腹膜后脂肪瘤，肾脏或原发性腹膜后腹源脏器外脂肪瘤，即不包...", "lemmaUrl": "http://baike.baidu.com/item/%E8%85%B9%E8%86%9C%E5%90%8E%E8%84%82%E8%82%AA%E7%98%A4/4312398", "lemmaPic": []}, {"lemmaId": 636977, "lemmaTitle": "热带口炎性腹泻", "lemmaCroppedTitle": "热带口炎性腹泻", "lemmaDesc": "热带口炎性腹泻好发于热带居民，在南美、非洲、印度等东南亚各国最为常见，任何年龄均...", "lemmaUrl": "http://baike.baidu.com/item/%E7%83%AD%E5%B8%A6%E5%8F%A3%E7%82%8E%E6%80%A7%E8%85%B9%E6%B3%BB/636977", "lemmaPic": []}, {"lemmaId": 5054463, "lemmaTitle": "碱性磷酸钙结晶沉积病", "lemmaCroppedTitle": "碱性磷酸钙结晶沉积病", "lemmaDesc": "碱性磷酸钙结晶沉积病是包括羟基磷灰石、磷酸八钙、磷酸三钙等晶体沉积在关节及关节周...", "lemmaUrl": "http://baike.baidu.com/item/%E7%A2%B1%E6%80%A7%E7%A3%B7%E9%85%B8%E9%92%99%E7%BB%93%E6%99%B6%E6%B2%89%E7%A7%AF%E7%97%85/5054463", "lemmaPic": []}, {"lemmaId": 7253435, "lemmaTitle": "胰腺真性囊肿", "lemmaCroppedTitle": "胰腺真性囊肿", "lemmaDesc": "胰腺真性囊肿较为少见，囊肿发生于胰腺内，囊内壁为腺管或腺上皮构成。胰腺真性囊肿较...", "lemmaUrl": "http://baike.baidu.com/item/%E8%83%B0%E8%85%BA%E7%9C%9F%E6%80%A7%E5%9B%8A%E8%82%BF/7253435", "lemmaPic": []}, {"lemmaId": 8091122, "lemmaTitle": "无症状性心肌缺血", "lemmaCroppedTitle": "无症状性心肌缺血", "lemmaDesc": "无症状性心肌缺血（SMI）是指有心肌缺血的客观证据而无心绞痛及其有关症状，老年人...", "lemmaUrl": "http://baike.baidu.com/item/%E6%97%A0%E7%97%87%E7%8A%B6%E6%80%A7%E5%BF%83%E8%82%8C%E7%BC%BA%E8%A1%80/8091122", "lemmaPic": []}, {"lemmaId": 2130773, "lemmaTitle": "特发性阻塞性细支气管炎伴机化性肺炎", "lemmaCroppedTitle": "特发性阻塞性细支气管炎伴机化性肺炎", "lemmaDesc": "阻塞性细支气管炎伴机化性肺炎（bronchiolitis obhterans w...", "lemmaUrl": "http://baike.baidu.com/item/%E7%89%B9%E5%8F%91%E6%80%A7%E9%98%BB%E5%A1%9E%E6%80%A7%E7%BB%86%E6%94%AF%E6%B0%94%E7%AE%A1%E7%82%8E%E4%BC%B4%E6%9C%BA%E5%8C%96%E6%80%A7%E8%82%BA%E7%82%8E/2130773", "lemmaPic": []}, {"lemmaId": 9942149, "lemmaTitle": "视交叉病变", "lemmaCroppedTitle": "视交叉病变", "lemmaDesc": "引起视交叉损害的疾病最常见的是垂体瘤，此外颅咽管瘤。蝶鞍上脑膜瘤和基底动脉环的动...", "lemmaUrl": "http://baike.baidu.com/item/%E8%A7%86%E4%BA%A4%E5%8F%89%E7%97%85%E5%8F%98/9942149", "lemmaPic": []}], "total": 7246, "totalPage": 73, "page": 45, "fromLemma": 0}