{"lemmaList": [{"lemmaId": 5280799, "lemmaTitle": "霰粒肿", "lemmaCroppedTitle": "霰粒肿", "lemmaDesc": "霰粒肿是因睑板腺排出管道阻塞和分泌物潴留的基础上而形成的睑板腺慢性炎性肉芽肿。又...", "lemmaUrl": "http://baike.baidu.com/item/%E9%9C%B0%E7%B2%92%E8%82%BF/5280799", "lemmaPic": []}, {"lemmaId": 1375114, "lemmaTitle": "结核性胸膜炎", "lemmaCroppedTitle": "结核性胸膜炎", "lemmaDesc": "结核性胸膜炎是结核杆菌及其自溶产物、代谢产物进入超敏感机体的胸膜腔而引起的胸膜炎...", "lemmaUrl": "http://baike.baidu.com/item/%E7%BB%93%E6%A0%B8%E6%80%A7%E8%83%B8%E8%86%9C%E7%82%8E/1375114", "lemmaPic": []}, {"lemmaId": 3406331, "lemmaTitle": "甲沟炎和甲下脓肿", "lemmaCroppedTitle": "甲沟炎和甲下脓肿", "lemmaDesc": "指甲除游离缘外，其余三边均与皮肤皱褶相接，连接部形成沟状，称为甲沟。甲沟炎即在甲...", "lemmaUrl": "http://baike.baidu.com/item/%E7%94%B2%E6%B2%9F%E7%82%8E%E5%92%8C%E7%94%B2%E4%B8%8B%E8%84%93%E8%82%BF/3406331", "lemmaPic": []}, {"lemmaId": 5278468, "lemmaTitle": "玻璃体混浊", "lemmaCroppedTitle": "玻璃体混浊", "lemmaDesc": "正常玻璃体是一种特殊的黏液性胶样组织，呈透明的凝胶状态，本身无血管及神经组织，其...", "lemmaUrl": "http://baike.baidu.com/item/%E7%8E%BB%E7%92%83%E4%BD%93%E6%B7%B7%E6%B5%8A/5278468", "lemmaPic": []}, {"lemmaId": 1807927, "lemmaTitle": "高尿酸血症", "lemmaCroppedTitle": "高尿酸血症", "lemmaDesc": "高尿酸血症（HUA）是指在正常嘌呤饮食状态下，非同日两次空腹血尿酸水平男性高于4...", "lemmaUrl": "http://baike.baidu.com/item/%E9%AB%98%E5%B0%BF%E9%85%B8%E8%A1%80%E7%97%87/1807927", "lemmaPic": []}, {"lemmaId": 6129290, "lemmaTitle": "小儿疝气", "lemmaCroppedTitle": "小儿疝气", "lemmaDesc": "小儿疝气是小儿外科和疝外科的最常见疾病之一，主要包括先天性的腹股沟疝和脐疝两种。...", "lemmaUrl": "http://baike.baidu.com/item/%E5%B0%8F%E5%84%BF%E7%96%9D%E6%B0%94/6129290", "lemmaPic": []}, {"lemmaId": 3764521, "lemmaTitle": "尿潴留", "lemmaCroppedTitle": "尿潴留", "lemmaDesc": "尿潴留是指膀胱内充满尿液而不能正常排出。按其病史、特点分急性尿潴留和慢性尿潴留两...", "lemmaUrl": "http://baike.baidu.com/item/%E5%B0%BF%E6%BD%B4%E7%95%99/3764521", "lemmaPic": []}, {"lemmaId": 5119909, "lemmaTitle": "阴茎癌", "lemmaCroppedTitle": "阴茎癌", "lemmaDesc": "阴茎癌是起源于阴茎头、冠状沟和包皮内板黏膜以及阴茎皮肤的恶性肿瘤。是阴茎最常见的...", "lemmaUrl": "http://baike.baidu.com/item/%E9%98%B4%E8%8C%8E%E7%99%8C/5119909", "lemmaPic": []}, {"lemmaId": 3370924, "lemmaTitle": "膝关节半月板损伤", "lemmaCroppedTitle": "膝关节半月板损伤", "lemmaDesc": "是一种以膝关节局限性疼痛，部分患者有打软腿或膝关节交锁现象，股四头肌萎缩，膝关节...", "lemmaUrl": "http://baike.baidu.com/item/%E8%86%9D%E5%85%B3%E8%8A%82%E5%8D%8A%E6%9C%88%E6%9D%BF%E6%8D%9F%E4%BC%A4/3370924", "lemmaPic": []}, {"lemmaId": 2204237, "lemmaTitle": "脑卒中", "lemmaCroppedTitle": "脑卒中", "lemmaDesc": "“脑卒中”（cerebral stroke）又称“中风”、“脑血管意外”（cer...", "lemmaUrl": "http://baike.baidu.com/item/%E8%84%91%E5%8D%92%E4%B8%AD/2204237", "lemmaPic": []}, {"lemmaId": 3365, "lemmaTitle": "色盲", "lemmaCroppedTitle": "色盲", "lemmaDesc": "先天性色觉障碍通常称为色盲，它不能分辨自然光谱中的各种颜色或某种颜色；而对颜色的...", "lemmaUrl": "http://baike.baidu.com/item/%E8%89%B2%E7%9B%B2/3365", "lemmaPic": []}, {"lemmaId": 10495040, "lemmaTitle": "公主病", "lemmaCroppedTitle": "公主病", "lemmaDesc": "公主病，指一些自信心过盛，要求获得公主般的待遇的女性，类似的名称有港女。公主病者...", "lemmaUrl": "http://baike.baidu.com/item/%E5%85%AC%E4%B8%BB%E7%97%85/10495040", "lemmaPic": []}, {"lemmaId": 1164770, "lemmaTitle": "酒渣鼻", "lemmaCroppedTitle": "酒渣鼻", "lemmaDesc": "酒渣鼻，又称玫瑰痤疮，是一种主要发生于面部中央的红斑和毛细血管扩张的慢性炎症性皮...", "lemmaUrl": "http://baike.baidu.com/item/%E9%85%92%E6%B8%A3%E9%BC%BB/1164770", "lemmaPic": []}, {"lemmaId": 1802479, "lemmaTitle": "子宫内膜息肉", "lemmaCroppedTitle": "子宫内膜息肉", "lemmaDesc": "子宫内膜息肉（endometrial polyps）是妇科的常见病，是由子宫内膜...", "lemmaUrl": "http://baike.baidu.com/item/%E5%AD%90%E5%AE%AB%E5%86%85%E8%86%9C%E6%81%AF%E8%82%89/1802479", "lemmaPic": []}, {"lemmaId": 720555, "lemmaTitle": "中性粒细胞", "lemmaCroppedTitle": "中性粒细胞", "lemmaDesc": "中性粒细胞（neutrophil）是在瑞氏（Wright）染色血涂片中，胞质呈无...", "lemmaUrl": "http://baike.baidu.com/item/%E4%B8%AD%E6%80%A7%E7%B2%92%E7%BB%86%E8%83%9E/720555", "lemmaPic": []}, {"lemmaId": 1996692, "lemmaTitle": "非霍奇金淋巴瘤", "lemmaCroppedTitle": "非霍奇金淋巴瘤", "lemmaDesc": "非霍奇金淋巴瘤（NHL）是具有很强异质性的一组独立疾病的总称。在我国也是比较常见...", "lemmaUrl": "http://baike.baidu.com/item/%E9%9D%9E%E9%9C%8D%E5%A5%87%E9%87%91%E6%B7%8B%E5%B7%B4%E7%98%A4/1996692", "lemmaPic": []}, {"lemmaId": 6721465, "lemmaTitle": "耳石症", "lemmaCroppedTitle": "耳石症", "lemmaDesc": "耳石症又称为良性阵发性位置性眩晕，是指头部迅速运动至某一特定头位时出现的短暂阵发...", "lemmaUrl": "http://baike.baidu.com/item/%E8%80%B3%E7%9F%B3%E7%97%87/6721465", "lemmaPic": []}, {"lemmaId": 562938, "lemmaTitle": "软下疳", "lemmaCroppedTitle": "软下疳", "lemmaDesc": "软下疳是由杜克雷嗜血杆菌感染引起，主要发生于生殖器部位多个痛性溃疡，多伴有腹股沟...", "lemmaUrl": "http://baike.baidu.com/item/%E8%BD%AF%E4%B8%8B%E7%96%B3/562938", "lemmaPic": []}, {"lemmaId": 2996614, "lemmaTitle": "骨关节炎", "lemmaCroppedTitle": "骨关节炎", "lemmaDesc": "骨关节炎为一种退行性病变，系由于增龄、肥胖、劳损、创伤、关节先天性异常、关节畸形...", "lemmaUrl": "http://baike.baidu.com/item/%E9%AA%A8%E5%85%B3%E8%8A%82%E7%82%8E/2996614", "lemmaPic": []}, {"lemmaId": 3186896, "lemmaTitle": "梅核气", "lemmaCroppedTitle": "梅核气", "lemmaDesc": "梅核气，中医病证名，指因情志不遂，肝气瘀滞，痰气互结，停聚于咽所致，以咽中似有梅...", "lemmaUrl": "http://baike.baidu.com/item/%E6%A2%85%E6%A0%B8%E6%B0%94/3186896", "lemmaPic": []}, {"lemmaId": 4632626, "lemmaTitle": "增生性骨关节病", "lemmaCroppedTitle": "增生性骨关节病", "lemmaDesc": "增生性骨关节病是指由于关节退行性变，以致关节软骨被破坏而引起的慢性关节病。又称退...", "lemmaUrl": "http://baike.baidu.com/item/%E5%A2%9E%E7%94%9F%E6%80%A7%E9%AA%A8%E5%85%B3%E8%8A%82%E7%97%85/4632626", "lemmaPic": []}, {"lemmaId": 6999870, "lemmaTitle": "唇炎", "lemmaCroppedTitle": "唇炎", "lemmaDesc": "唇炎是发生于唇部的炎症性疾病的总称。根据病程分类有急性唇炎和慢性唇炎；根据临床症...", "lemmaUrl": "http://baike.baidu.com/item/%E5%94%87%E7%82%8E/6999870", "lemmaPic": []}, {"lemmaId": 2602218, "lemmaTitle": "急性咽炎", "lemmaCroppedTitle": "急性咽炎", "lemmaDesc": "急性咽炎为咽部黏膜与黏膜下组织的急性炎症，咽部的淋巴组织亦常常被累及。炎症可以波...", "lemmaUrl": "http://baike.baidu.com/item/%E6%80%A5%E6%80%A7%E5%92%BD%E7%82%8E/2602218", "lemmaPic": []}, {"lemmaId": 5891268, "lemmaTitle": "重症急性呼吸综合征", "lemmaCroppedTitle": "重症急性呼吸综合征", "lemmaDesc": "重症急性呼吸综合征（SARS）为一种由SARS冠状病毒（SARS-CoV）引起的...", "lemmaUrl": "http://baike.baidu.com/item/%E9%87%8D%E7%97%87%E6%80%A5%E6%80%A7%E5%91%BC%E5%90%B8%E7%BB%BC%E5%90%88%E5%BE%81/5891268", "lemmaPic": []}, {"lemmaId": 10545328, "lemmaTitle": "骨膜炎", "lemmaCroppedTitle": "骨膜炎", "lemmaDesc": "骨膜炎是由于骨膜及骨膜血管扩张、充血、水肿或骨膜下出血，血肿机化，骨膜增生及炎症...", "lemmaUrl": "http://baike.baidu.com/item/%E9%AA%A8%E8%86%9C%E7%82%8E/10545328", "lemmaPic": []}, {"lemmaId": 714635, "lemmaTitle": "无痛分娩", "lemmaCroppedTitle": "无痛分娩", "lemmaDesc": "通常所说的“无痛分娩”，在医学上称为“分娩镇痛”，是使用各种方法使分娩时的疼痛减...", "lemmaUrl": "http://baike.baidu.com/item/%E6%97%A0%E7%97%9B%E5%88%86%E5%A8%A9/714635", "lemmaPic": []}, {"lemmaId": 8322343, "lemmaTitle": "胃肠型感冒", "lemmaCroppedTitle": "胃肠型感冒", "lemmaDesc": "胃肠型感冒是感冒的一种，胃肠型感冒主要是由一种叫“柯萨奇”的病毒引起的，同时伴有...", "lemmaUrl": "http://baike.baidu.com/item/%E8%83%83%E8%82%A0%E5%9E%8B%E6%84%9F%E5%86%92/8322343", "lemmaPic": []}, {"lemmaId": 5400223, "lemmaTitle": "阴虱病", "lemmaCroppedTitle": "阴虱病", "lemmaDesc": "阴虱病（pediculosis pubis）是虱病的一种，是由寄生在人体阴毛和肛...", "lemmaUrl": "http://baike.baidu.com/item/%E9%98%B4%E8%99%B1%E7%97%85/5400223", "lemmaPic": []}, {"lemmaId": 6037409, "lemmaTitle": "糜烂性胃炎", "lemmaCroppedTitle": "糜烂性胃炎", "lemmaDesc": "糜烂性胃炎分为急性糜烂性胃炎和慢性糜烂性胃炎。急性糜烂性胃炎是以胃黏膜多发性糜烂...", "lemmaUrl": "http://baike.baidu.com/item/%E7%B3%9C%E7%83%82%E6%80%A7%E8%83%83%E7%82%8E/6037409", "lemmaPic": []}, {"lemmaId": 5053823, "lemmaTitle": "慢性淋巴细胞性甲状腺炎", "lemmaCroppedTitle": "慢性淋巴细胞性甲状腺炎", "lemmaDesc": "慢性淋巴细胞性甲状腺炎（CLT）又称自身免疫性甲状腺炎，是一种以自身甲状腺组织为...", "lemmaUrl": "http://baike.baidu.com/item/%E6%85%A2%E6%80%A7%E6%B7%8B%E5%B7%B4%E7%BB%86%E8%83%9E%E6%80%A7%E7%94%B2%E7%8A%B6%E8%85%BA%E7%82%8E/5053823", "lemmaPic": []}, {"lemmaId": 4766321, "lemmaTitle": "汗疱症", "lemmaCroppedTitle": "汗疱症", "lemmaDesc": "汗疱症又称为出汗不良性湿疹，为一种手掌、足跖部的水疱性疾病。本病多发生于春末夏初...", "lemmaUrl": "http://baike.baidu.com/item/%E6%B1%97%E7%96%B1%E7%97%87/4766321", "lemmaPic": []}, {"lemmaId": 982120, "lemmaTitle": "急性支气管炎", "lemmaCroppedTitle": "急性支气管炎", "lemmaDesc": "急性支气管炎是病毒或细菌等病原体感染所致的支气管黏膜炎症。是婴幼儿时期的常见病、...", "lemmaUrl": "http://baike.baidu.com/item/%E6%80%A5%E6%80%A7%E6%94%AF%E6%B0%94%E7%AE%A1%E7%82%8E/982120", "lemmaPic": []}, {"lemmaId": 149517, "lemmaTitle": "急性上呼吸道感染", "lemmaCroppedTitle": "急性上呼吸道感染", "lemmaDesc": "急性上呼吸道感染简称上感，又称普通感冒。是包括鼻腔、咽或喉部急性炎症的总称。广义...", "lemmaUrl": "http://baike.baidu.com/item/%E6%80%A5%E6%80%A7%E4%B8%8A%E5%91%BC%E5%90%B8%E9%81%93%E6%84%9F%E6%9F%93/149517", "lemmaPic": []}, {"lemmaId": 10357037, "lemmaTitle": "肌肉萎缩", "lemmaCroppedTitle": "肌肉萎缩", "lemmaDesc": "肌肉萎缩（myatrophy；myophagism）是指横纹肌营养障碍，肌肉纤维...", "lemmaUrl": "http://baike.baidu.com/item/%E8%82%8C%E8%82%89%E8%90%8E%E7%BC%A9/10357037", "lemmaPic": []}, {"lemmaId": 1124329, "lemmaTitle": "流行性腮腺炎", "lemmaCroppedTitle": "流行性腮腺炎", "lemmaDesc": "流行性腮腺炎简称流腮，俗称痄腮。四季均有流行，以冬、春季常见。是儿童和青少年期常...", "lemmaUrl": "http://baike.baidu.com/item/%E6%B5%81%E8%A1%8C%E6%80%A7%E8%85%AE%E8%85%BA%E7%82%8E/1124329", "lemmaPic": []}, {"lemmaId": 8098758, "lemmaTitle": "帕金森综合征", "lemmaCroppedTitle": "帕金森综合征", "lemmaDesc": "帕金森病(PD)又名震颤麻痹，是一种常见的中老年人神经系统变性疾病。主要病变在黑...", "lemmaUrl": "http://baike.baidu.com/item/%E5%B8%95%E9%87%91%E6%A3%AE%E7%BB%BC%E5%90%88%E5%BE%81/8098758", "lemmaPic": []}, {"lemmaId": 4070863, "lemmaTitle": "慢性肾炎", "lemmaCroppedTitle": "慢性肾炎", "lemmaDesc": "慢性肾小球肾炎简称为慢性肾炎，系指蛋白尿、血尿、高血压、水肿为基本临床表现，起病...", "lemmaUrl": "http://baike.baidu.com/item/%E6%85%A2%E6%80%A7%E8%82%BE%E7%82%8E/4070863", "lemmaPic": []}, {"lemmaId": 709206, "lemmaTitle": "新生儿肺炎", "lemmaCroppedTitle": "新生儿肺炎", "lemmaDesc": "新生儿肺炎根据病因不同可分为：新生儿吸入性肺炎和新生儿感染性肺炎。前者又可分为羊...", "lemmaUrl": "http://baike.baidu.com/item/%E6%96%B0%E7%94%9F%E5%84%BF%E8%82%BA%E7%82%8E/709206", "lemmaPic": []}, {"lemmaId": 2249848, "lemmaTitle": "多发性骨髓瘤", "lemmaCroppedTitle": "多发性骨髓瘤", "lemmaDesc": "多发性骨髓瘤（MM）是一种恶性浆细胞病，其肿瘤细胞起源于骨髓中的浆细胞，而浆细胞...", "lemmaUrl": "http://baike.baidu.com/item/%E5%A4%9A%E5%8F%91%E6%80%A7%E9%AA%A8%E9%AB%93%E7%98%A4/2249848", "lemmaPic": []}, {"lemmaId": 4825169, "lemmaTitle": "性交疼痛", "lemmaCroppedTitle": "性交疼痛", "lemmaDesc": "性交疼痛是指夫妻性交时未感到愉快而是不适甚至疼痛。疼痛或发生在婚后不久，或很久才...", "lemmaUrl": "http://baike.baidu.com/item/%E6%80%A7%E4%BA%A4%E7%96%BC%E7%97%9B/4825169", "lemmaPic": []}, {"lemmaId": 1209907, "lemmaTitle": "屈光不正", "lemmaCroppedTitle": "屈光不正", "lemmaDesc": "屈光不正是指眼在不使用调节时，平行光线通过眼的屈光作用后，不能在视网膜上形成清晰...", "lemmaUrl": "http://baike.baidu.com/item/%E5%B1%88%E5%85%89%E4%B8%8D%E6%AD%A3/1209907", "lemmaPic": []}, {"lemmaId": 7993699, "lemmaTitle": "肝内胆管结石", "lemmaCroppedTitle": "肝内胆管结石", "lemmaDesc": "肝内胆管结石是胆管结石的一种类型，是指左右肝管汇合部以上各分枝胆管内的结石。它可...", "lemmaUrl": "http://baike.baidu.com/item/%E8%82%9D%E5%86%85%E8%83%86%E7%AE%A1%E7%BB%93%E7%9F%B3/7993699", "lemmaPic": []}, {"lemmaId": 1400630, "lemmaTitle": "血小板减少性紫癜", "lemmaCroppedTitle": "血小板减少性紫癜", "lemmaDesc": "血小板减少性紫癜，是一种以血小板减少为特征的出血性疾病，主要表现为皮肤及脏器的出...", "lemmaUrl": "http://baike.baidu.com/item/%E8%A1%80%E5%B0%8F%E6%9D%BF%E5%87%8F%E5%B0%91%E6%80%A7%E7%B4%AB%E7%99%9C/1400630", "lemmaPic": []}, {"lemmaId": 1499084, "lemmaTitle": "智齿冠周炎", "lemmaCroppedTitle": "智齿冠周炎", "lemmaDesc": "智齿冠周炎是指第三磨牙（又称智齿）牙冠周围的软组织炎症。常发生于18～25岁的青...", "lemmaUrl": "http://baike.baidu.com/item/%E6%99%BA%E9%BD%BF%E5%86%A0%E5%91%A8%E7%82%8E/1499084", "lemmaPic": []}, {"lemmaId": 2082986, "lemmaTitle": "牙周病", "lemmaCroppedTitle": "牙周病", "lemmaDesc": "牙周病是指发生在牙支持组织（牙周组织）的疾病，包括仅累及牙龈组织的牙龈病和波及深...", "lemmaUrl": "http://baike.baidu.com/item/%E7%89%99%E5%91%A8%E7%97%85/2082986", "lemmaPic": []}, {"lemmaId": 1385502, "lemmaTitle": "肾癌", "lemmaCroppedTitle": "肾癌", "lemmaDesc": "肾癌是起源于肾实质泌尿小管上皮系统的恶性肿瘤，学术名词全称为肾细胞癌，又称肾腺癌...", "lemmaUrl": "http://baike.baidu.com/item/%E8%82%BE%E7%99%8C/1385502", "lemmaPic": []}, {"lemmaId": 4496664, "lemmaTitle": "脱毛", "lemmaCroppedTitle": "脱毛", "lemmaDesc": "脱毛是指体毛过长或过于浓密，特别是一些女性唇部汗毛浓密，看上去像长了胡子一般，严...", "lemmaUrl": "http://baike.baidu.com/item/%E8%84%B1%E6%AF%9B/4496664", "lemmaPic": []}, {"lemmaId": 9747743, "lemmaTitle": "舌苔发黑", "lemmaCroppedTitle": "舌苔发黑", "lemmaDesc": "黑苔是临床上很少见的一种舌象，是多系统多种疾病发展过程中的一种体征，多见于疾病的...", "lemmaUrl": "http://baike.baidu.com/item/%E8%88%8C%E8%8B%94%E5%8F%91%E9%BB%91/9747743", "lemmaPic": []}, {"lemmaId": 11029608, "lemmaTitle": "化脓性扁桃体炎", "lemmaCroppedTitle": "化脓性扁桃体炎", "lemmaDesc": "化脓性扁桃体炎（suppurative tonsillitis）为各种致病微生物...", "lemmaUrl": "http://baike.baidu.com/item/%E5%8C%96%E8%84%93%E6%80%A7%E6%89%81%E6%A1%83%E4%BD%93%E7%82%8E/11029608", "lemmaPic": []}, {"lemmaId": 817856, "lemmaTitle": "乙肝携带者", "lemmaCroppedTitle": "乙肝携带者", "lemmaDesc": "乙肝病毒携带者（hepatitis B virus carrier，AsC）是指...", "lemmaUrl": "http://baike.baidu.com/item/%E4%B9%99%E8%82%9D%E6%90%BA%E5%B8%A6%E8%80%85/817856", "lemmaPic": []}, {"lemmaId": 7862980, "lemmaTitle": "原发性高血压", "lemmaCroppedTitle": "原发性高血压", "lemmaDesc": "基于目前的医学发展水平和检查手段，能够发现导致血压升高的确切病因，称之为继发性高...", "lemmaUrl": "http://baike.baidu.com/item/%E5%8E%9F%E5%8F%91%E6%80%A7%E9%AB%98%E8%A1%80%E5%8E%8B/7862980", "lemmaPic": []}, {"lemmaId": 723336, "lemmaTitle": "白喉", "lemmaCroppedTitle": "白喉", "lemmaDesc": "白喉（diphtheria）是由白喉杆菌所引起的一种急性呼吸道传染病，以发热，气...", "lemmaUrl": "http://baike.baidu.com/item/%E7%99%BD%E5%96%89/723336", "lemmaPic": []}, {"lemmaId": 4441462, "lemmaTitle": "口苦", "lemmaCroppedTitle": "口苦", "lemmaDesc": "任何一种疾病在发生发展以及病机转归方向不同都有可能发生口苦，正常情况下，人的感受...", "lemmaUrl": "http://baike.baidu.com/item/%E5%8F%A3%E8%8B%A6/4441462", "lemmaPic": []}, {"lemmaId": 4776647, "lemmaTitle": "肠息肉", "lemmaCroppedTitle": "肠息肉", "lemmaDesc": "肠息肉是指肠黏膜表面突出的异常生长的组织，在没有确定病理性质前统称为息肉。其发生...", "lemmaUrl": "http://baike.baidu.com/item/%E8%82%A0%E6%81%AF%E8%82%89/4776647", "lemmaPic": []}, {"lemmaId": 2255567, "lemmaTitle": "胸腔积液", "lemmaCroppedTitle": "胸腔积液", "lemmaDesc": "胸腔积液（pleural effusion）是以胸膜腔内病理性液体积聚为特征的一...", "lemmaUrl": "http://baike.baidu.com/item/%E8%83%B8%E8%85%94%E7%A7%AF%E6%B6%B2/2255567", "lemmaPic": []}, {"lemmaId": 7862961, "lemmaTitle": "肺动脉高压", "lemmaCroppedTitle": "肺动脉高压", "lemmaDesc": "肺动脉高压指肺动脉压力升高超过一定界值的一种血流动力学和病理生理状态，可导致右心...", "lemmaUrl": "http://baike.baidu.com/item/%E8%82%BA%E5%8A%A8%E8%84%89%E9%AB%98%E5%8E%8B/7862961", "lemmaPic": []}, {"lemmaId": 5884819, "lemmaTitle": "外阴白色病变", "lemmaCroppedTitle": "外阴白色病变", "lemmaDesc": "外阴白色病变包括外阴白色病损、外阴白斑或外阴营养不良，既往认为是血管营养失调，但...", "lemmaUrl": "http://baike.baidu.com/item/%E5%A4%96%E9%98%B4%E7%99%BD%E8%89%B2%E7%97%85%E5%8F%98/5884819", "lemmaPic": []}, {"lemmaId": 8944945, "lemmaTitle": "脾大", "lemmaCroppedTitle": "脾大", "lemmaDesc": "脾大是重要的病理体征。在正常情况下腹部一般摸不到脾，如仰卧位或侧卧位能摸到脾边缘...", "lemmaUrl": "http://baike.baidu.com/item/%E8%84%BE%E5%A4%A7/8944945", "lemmaPic": []}, {"lemmaId": 1712592, "lemmaTitle": "干燥综合征", "lemmaCroppedTitle": "干燥综合征", "lemmaDesc": "干燥综合征(SS)是一个主要累及外分泌腺体的慢性炎症性自身免疫病，又名自身免疫性...", "lemmaUrl": "http://baike.baidu.com/item/%E5%B9%B2%E7%87%A5%E7%BB%BC%E5%90%88%E5%BE%81/1712592", "lemmaPic": []}, {"lemmaId": 4872028, "lemmaTitle": "直肠脱垂", "lemmaCroppedTitle": "直肠脱垂", "lemmaDesc": "直肠壁部分或全层向下移位，称为直肠脱垂（rectal prolapse）。直肠壁...", "lemmaUrl": "http://baike.baidu.com/item/%E7%9B%B4%E8%82%A0%E8%84%B1%E5%9E%82/4872028", "lemmaPic": []}, {"lemmaId": 22828, "lemmaTitle": "洁癖", "lemmaCroppedTitle": "洁癖", "lemmaDesc": "洁癖是强迫症的一种，即把正常卫生范围内的事物认为是肮脏的，感到焦虑，强迫性地清洗...", "lemmaUrl": "http://baike.baidu.com/item/%E6%B4%81%E7%99%96/22828", "lemmaPic": []}, {"lemmaId": 1245342, "lemmaTitle": "窦性心律失常", "lemmaCroppedTitle": "窦性心律失常", "lemmaDesc": "凡起源于窦房结的心律，称为窦性心律。窦性心律属于正常节律。窦性心动过速、窦性心动...", "lemmaUrl": "http://baike.baidu.com/item/%E7%AA%A6%E6%80%A7%E5%BF%83%E5%BE%8B%E5%A4%B1%E5%B8%B8/1245342", "lemmaPic": []}, {"lemmaId": 5059177, "lemmaTitle": "慢性胆囊炎", "lemmaCroppedTitle": "慢性胆囊炎", "lemmaDesc": "慢性胆囊炎是由急性或亚急性胆囊炎反复发作，或长期存在的胆囊结石所致胆囊功能异常，...", "lemmaUrl": "http://baike.baidu.com/item/%E6%85%A2%E6%80%A7%E8%83%86%E5%9B%8A%E7%82%8E/5059177", "lemmaPic": []}, {"lemmaId": 2789926, "lemmaTitle": "乳糖不耐受", "lemmaCroppedTitle": "乳糖不耐受", "lemmaDesc": "乳糖不耐受是由于乳糖酶分泌少，不能完全消化分解母乳或牛乳中的乳糖所引起的非感染性...", "lemmaUrl": "http://baike.baidu.com/item/%E4%B9%B3%E7%B3%96%E4%B8%8D%E8%80%90%E5%8F%97/2789926", "lemmaPic": []}, {"lemmaId": 733157, "lemmaTitle": "血吸虫病", "lemmaCroppedTitle": "血吸虫病", "lemmaDesc": "血吸虫病是由裂体吸虫属血吸虫引起的一种慢性寄生虫病，主要流行于亚、非、拉美的73...", "lemmaUrl": "http://baike.baidu.com/item/%E8%A1%80%E5%90%B8%E8%99%AB%E7%97%85/733157", "lemmaPic": []}, {"lemmaId": 3154833, "lemmaTitle": "胃穿孔", "lemmaCroppedTitle": "胃穿孔", "lemmaDesc": "胃穿孔是溃疡病患者最严重的并发症之一。胃穿孔最常见的原因是在胃溃疡的基础上暴饮暴...", "lemmaUrl": "http://baike.baidu.com/item/%E8%83%83%E7%A9%BF%E5%AD%94/3154833", "lemmaPic": []}, {"lemmaId": 2049865, "lemmaTitle": "胃食管反流", "lemmaCroppedTitle": "胃食管反流", "lemmaDesc": "胃食管腔因过度接触（或暴露于）胃液而引起的临床胃食管反流症和食管黏膜损伤的疾病称...", "lemmaUrl": "http://baike.baidu.com/item/%E8%83%83%E9%A3%9F%E7%AE%A1%E5%8F%8D%E6%B5%81/2049865", "lemmaPic": []}, {"lemmaId": 923834, "lemmaTitle": "脑瘤", "lemmaCroppedTitle": "脑瘤", "lemmaDesc": "生长于颅内的肿瘤通称为脑瘤，包括由脑实质发生的原发性脑瘤和由身体其他部位转移至颅...", "lemmaUrl": "http://baike.baidu.com/item/%E8%84%91%E7%98%A4/923834", "lemmaPic": []}, {"lemmaId": 2250519, "lemmaTitle": "支气管肺炎", "lemmaCroppedTitle": "支气管肺炎", "lemmaDesc": "支气管肺炎又称小叶肺炎，是小儿的一种主要常见病，尤多见于婴幼儿，也是婴儿时期主要...", "lemmaUrl": "http://baike.baidu.com/item/%E6%94%AF%E6%B0%94%E7%AE%A1%E8%82%BA%E7%82%8E/2250519", "lemmaPic": []}, {"lemmaId": 8402913, "lemmaTitle": "急性荨麻疹", "lemmaCroppedTitle": "急性荨麻疹", "lemmaDesc": "急性荨麻疹（AU）是一种临床常见病，以瘙痒、风团或伴有血管性水肿为特征的变应性皮...", "lemmaUrl": "http://baike.baidu.com/item/%E6%80%A5%E6%80%A7%E8%8D%A8%E9%BA%BB%E7%96%B9/8402913", "lemmaPic": []}, {"lemmaId": 5056036, "lemmaTitle": "糖尿病肾病", "lemmaCroppedTitle": "糖尿病肾病", "lemmaDesc": "糖尿病肾病是糖尿病病人最重要的合并症之一。我国的发病率亦呈上升趋势，目前已成为终...", "lemmaUrl": "http://baike.baidu.com/item/%E7%B3%96%E5%B0%BF%E7%97%85%E8%82%BE%E7%97%85/5056036", "lemmaPic": []}, {"lemmaId": 7369500, "lemmaTitle": "多重人格", "lemmaCroppedTitle": "多重人格", "lemmaDesc": "多重人格障碍是心理疾病的一种，精神疾病诊断与统计手册中归类于第一轴的解离症的一种...", "lemmaUrl": "http://baike.baidu.com/item/%E5%A4%9A%E9%87%8D%E4%BA%BA%E6%A0%BC/7369500", "lemmaPic": []}, {"lemmaId": 1469748, "lemmaTitle": "垂体瘤", "lemmaCroppedTitle": "垂体瘤", "lemmaDesc": "垂体瘤是一组从垂体前叶和后叶及颅咽管上皮残余细胞发生的肿瘤。临床上有明显症状者约...", "lemmaUrl": "http://baike.baidu.com/item/%E5%9E%82%E4%BD%93%E7%98%A4/1469748", "lemmaPic": []}, {"lemmaId": 9917786, "lemmaTitle": "1型糖尿病", "lemmaCroppedTitle": "1型糖尿病", "lemmaDesc": "1型糖尿病，原名胰岛素依赖型糖尿病，多发生在儿童和青少年，也可发生于各种年龄。起...", "lemmaUrl": "http://baike.baidu.com/item/1%E5%9E%8B%E7%B3%96%E5%B0%BF%E7%97%85/9917786", "lemmaPic": []}, {"lemmaId": 3405601, "lemmaTitle": "小儿荨麻疹", "lemmaCroppedTitle": "小儿荨麻疹", "lemmaDesc": "小儿荨麻疹（pediatric urticaria），俗称风疹团，是一种常见的皮...", "lemmaUrl": "http://baike.baidu.com/item/%E5%B0%8F%E5%84%BF%E8%8D%A8%E9%BA%BB%E7%96%B9/3405601", "lemmaPic": []}, {"lemmaId": 7244755, "lemmaTitle": "单纯性肝囊肿", "lemmaCroppedTitle": "单纯性肝囊肿", "lemmaDesc": "单纯性肝囊肿为先天性、非遗传性肝内囊性病变。囊腔通常不与肝内胆管系交通，囊肿是由...", "lemmaUrl": "http://baike.baidu.com/item/%E5%8D%95%E7%BA%AF%E6%80%A7%E8%82%9D%E5%9B%8A%E8%82%BF/7244755", "lemmaPic": []}, {"lemmaId": 683941, "lemmaTitle": "小脑萎缩", "lemmaCroppedTitle": "小脑萎缩", "lemmaDesc": "小脑萎缩（cerebellar atrophy）准确来说不是一种疾病，而是一种神...", "lemmaUrl": "http://baike.baidu.com/item/%E5%B0%8F%E8%84%91%E8%90%8E%E7%BC%A9/683941", "lemmaPic": []}, {"lemmaId": 9034450, "lemmaTitle": "小儿两性畸形", "lemmaCroppedTitle": "小儿两性畸形", "lemmaDesc": "两性畸形是在胚胎发育期间分化异常所致的性别畸形，一般根据性染色体、染色质、性腺及...", "lemmaUrl": "http://baike.baidu.com/item/%E5%B0%8F%E5%84%BF%E4%B8%A4%E6%80%A7%E7%95%B8%E5%BD%A2/9034450", "lemmaPic": []}, {"lemmaId": 5185652, "lemmaTitle": "静脉炎", "lemmaCroppedTitle": "静脉炎", "lemmaDesc": "静脉炎（全称血栓性静脉炎）是指静脉血管的急性无菌性炎症。根据病变部位不同，静脉炎...", "lemmaUrl": "http://baike.baidu.com/item/%E9%9D%99%E8%84%89%E7%82%8E/5185652", "lemmaPic": []}, {"lemmaId": 1123497, "lemmaTitle": "一氧化碳中毒", "lemmaCroppedTitle": "一氧化碳中毒", "lemmaDesc": "一氧化碳中毒是含碳物质燃烧不完全时的产物经呼吸道吸入引起中毒。中毒机理是一氧化碳...", "lemmaUrl": "http://baike.baidu.com/item/%E4%B8%80%E6%B0%A7%E5%8C%96%E7%A2%B3%E4%B8%AD%E6%AF%92/1123497", "lemmaPic": []}, {"lemmaId": 1802461, "lemmaTitle": "子宫脱垂", "lemmaCroppedTitle": "子宫脱垂", "lemmaDesc": "子宫脱垂（uterine prolapse）是指子宫从正常位置沿阴道下降，宫颈外...", "lemmaUrl": "http://baike.baidu.com/item/%E5%AD%90%E5%AE%AB%E8%84%B1%E5%9E%82/1802461", "lemmaPic": []}, {"lemmaId": 1376698, "lemmaTitle": "尿崩症", "lemmaCroppedTitle": "尿崩症", "lemmaDesc": "尿崩症（DI）是由于下丘脑-神经垂体病变引起精氨酸加压素（AVP）又称抗利尿激素...", "lemmaUrl": "http://baike.baidu.com/item/%E5%B0%BF%E5%B4%A9%E7%97%87/1376698", "lemmaPic": []}, {"lemmaId": 9731888, "lemmaTitle": "子宫息肉", "lemmaCroppedTitle": "子宫息肉", "lemmaDesc": "子宫息肉（metropolypus）是妇科常见病，从广义上讲是指所有借细长的蒂附...", "lemmaUrl": "http://baike.baidu.com/item/%E5%AD%90%E5%AE%AB%E6%81%AF%E8%82%89/9731888", "lemmaPic": []}, {"lemmaId": 10150511, "lemmaTitle": "无痛胃镜", "lemmaCroppedTitle": "无痛胃镜", "lemmaDesc": "无痛胃镜是在普通胃镜检查的基础上，先通过静脉给予一定剂量的短效麻醉剂，帮助患者迅...", "lemmaUrl": "http://baike.baidu.com/item/%E6%97%A0%E7%97%9B%E8%83%83%E9%95%9C/10150511", "lemmaPic": []}, {"lemmaId": 1696455, "lemmaTitle": "水中毒", "lemmaCroppedTitle": "水中毒", "lemmaDesc": "当机体所摄入水总量大大超过了排出水量，以致水分在体内潴留，引起血浆渗透压下降和循...", "lemmaUrl": "http://baike.baidu.com/item/%E6%B0%B4%E4%B8%AD%E6%AF%92/1696455", "lemmaPic": []}, {"lemmaId": 2427759, "lemmaTitle": "慢性肠胃炎", "lemmaCroppedTitle": "慢性肠胃炎", "lemmaDesc": "慢性肠胃炎是胃黏膜和肠黏膜慢性炎症。其名称不确切，有人称之为慢性胃肠炎。主要临床...", "lemmaUrl": "http://baike.baidu.com/item/%E6%85%A2%E6%80%A7%E8%82%A0%E8%83%83%E7%82%8E/2427759", "lemmaPic": []}, {"lemmaId": 9303873, "lemmaTitle": "功能性消化不良", "lemmaCroppedTitle": "功能性消化不良", "lemmaDesc": "功能性消化不良（FD）又称消化不良，是指具有上腹痛、上腹胀、早饱、嗳气、食欲不振...", "lemmaUrl": "http://baike.baidu.com/item/%E5%8A%9F%E8%83%BD%E6%80%A7%E6%B6%88%E5%8C%96%E4%B8%8D%E8%89%AF/9303873", "lemmaPic": []}, {"lemmaId": 2049092, "lemmaTitle": "疱疹性咽峡炎", "lemmaCroppedTitle": "疱疹性咽峡炎", "lemmaDesc": "疱疹性咽峡炎（herpangina）是由肠道病毒引起的以急性发热和咽峡部疱疹溃疡...", "lemmaUrl": "http://baike.baidu.com/item/%E7%96%B1%E7%96%B9%E6%80%A7%E5%92%BD%E5%B3%A1%E7%82%8E/2049092", "lemmaPic": []}, {"lemmaId": 8287348, "lemmaTitle": "膝关节滑膜炎", "lemmaCroppedTitle": "膝关节滑膜炎", "lemmaDesc": "膝关节滑膜炎是一种无菌型炎症，是由于膝关节扭伤和多种关节内损伤而引起的。滑膜的功...", "lemmaUrl": "http://baike.baidu.com/item/%E8%86%9D%E5%85%B3%E8%8A%82%E6%BB%91%E8%86%9C%E7%82%8E/8287348", "lemmaPic": []}, {"lemmaId": 344481, "lemmaTitle": "病毒性肝炎", "lemmaCroppedTitle": "病毒性肝炎", "lemmaDesc": "病毒性肝炎是由多种肝炎病毒引起的以肝脏病变为主的一种传染病。临床上以食欲减退、恶...", "lemmaUrl": "http://baike.baidu.com/item/%E7%97%85%E6%AF%92%E6%80%A7%E8%82%9D%E7%82%8E/344481", "lemmaPic": []}, {"lemmaId": 3629429, "lemmaTitle": "子宫腺肌病", "lemmaCroppedTitle": "子宫腺肌病", "lemmaDesc": "子宫腺肌病是子宫内膜腺体和间质侵入子宫肌层形成弥漫或局限性的病变，是妇科常见病。...", "lemmaUrl": "http://baike.baidu.com/item/%E5%AD%90%E5%AE%AB%E8%85%BA%E8%82%8C%E7%97%85/3629429", "lemmaPic": []}, {"lemmaId": 7368177, "lemmaTitle": "视网膜脱落", "lemmaCroppedTitle": "视网膜脱落", "lemmaDesc": "视网膜脱离是视网膜的神经上皮层与色素上皮层的分离。两层之间有一潜在间隙，分离后间...", "lemmaUrl": "http://baike.baidu.com/item/%E8%A7%86%E7%BD%91%E8%86%9C%E8%84%B1%E8%90%BD/7368177", "lemmaPic": []}, {"lemmaId": 9121483, "lemmaTitle": "花斑糠疹", "lemmaCroppedTitle": "花斑糠疹", "lemmaDesc": "花斑糠疹，旧称花斑癣，俗称汗斑，是由马拉色菌感染表皮角质层引起的一种浅表真菌病。...", "lemmaUrl": "http://baike.baidu.com/item/%E8%8A%B1%E6%96%91%E7%B3%A0%E7%96%B9/9121483", "lemmaPic": []}, {"lemmaId": 776680, "lemmaTitle": "磨牙症", "lemmaCroppedTitle": "磨牙症", "lemmaDesc": "磨牙症（bruxism）是牙在无意识状态下承受一定强度咬合力的同时，下颌作一定节...", "lemmaUrl": "http://baike.baidu.com/item/%E7%A3%A8%E7%89%99%E7%97%87/776680", "lemmaPic": []}, {"lemmaId": 1329593, "lemmaTitle": "甲状腺功能减退症", "lemmaCroppedTitle": "甲状腺功能减退症", "lemmaDesc": "甲状腺功能减退症（简称甲减），是由于甲状腺激素合成及分泌减少，或其生理效应不足所...", "lemmaUrl": "http://baike.baidu.com/item/%E7%94%B2%E7%8A%B6%E8%85%BA%E5%8A%9F%E8%83%BD%E5%87%8F%E9%80%80%E7%97%87/1329593", "lemmaPic": []}, {"lemmaId": 1215661, "lemmaTitle": "心脏起搏器", "lemmaCroppedTitle": "心脏起搏器", "lemmaDesc": "心脏起搏器是一种植入于体内的电子治疗仪器，通过脉冲发生器发放由电池提供能量的电脉...", "lemmaUrl": "http://baike.baidu.com/item/%E5%BF%83%E8%84%8F%E8%B5%B7%E6%90%8F%E5%99%A8/1215661", "lemmaPic": []}, {"lemmaId": 5812236, "lemmaTitle": "经期推迟", "lemmaCroppedTitle": "经期推迟", "lemmaDesc": "经期推迟即月经推迟，又称“月经稀发”、“月经错后”、“月经过期”等,是月经失调的...", "lemmaUrl": "http://baike.baidu.com/item/%E7%BB%8F%E6%9C%9F%E6%8E%A8%E8%BF%9F/5812236", "lemmaPic": []}, {"lemmaId": 2252466, "lemmaTitle": "肺栓塞", "lemmaCroppedTitle": "肺栓塞", "lemmaDesc": "体循环的各种栓子脱落阻塞肺动脉及其分支引起肺循环障碍的临床病理生理综合征（PE）...", "lemmaUrl": "http://baike.baidu.com/item/%E8%82%BA%E6%A0%93%E5%A1%9E/2252466", "lemmaPic": []}, {"lemmaId": 2347522, "lemmaTitle": "千日疮", "lemmaCroppedTitle": "千日疮", "lemmaDesc": "千日疮，又名疣目、枯筋箭、悔气疮、瘊子等，俗称刺瘊。其特点是肤生赘疣，初如赤豆，...", "lemmaUrl": "http://baike.baidu.com/item/%E5%8D%83%E6%97%A5%E7%96%AE/2347522", "lemmaPic": []}, {"lemmaId": 5313615, "lemmaTitle": "汞中毒", "lemmaCroppedTitle": "汞中毒", "lemmaDesc": "汞为银白色的液态金属，常温中即有蒸发。汞中毒以慢性为多见，主要发生在生产活动中，...", "lemmaUrl": "http://baike.baidu.com/item/%E6%B1%9E%E4%B8%AD%E6%AF%92/5313615", "lemmaPic": []}], "total": 7246, "totalPage": 73, "page": 5, "fromLemma": 0}