{"lemmaList": [{"lemmaId": 183922, "lemmaTitle": "神经病", "lemmaCroppedTitle": "神经病", "lemmaDesc": "神经病（neuropathy）特指周围神经疾病，以往也称神经炎，是一类周围神经系...", "lemmaUrl": "http://baike.baidu.com/item/%E7%A5%9E%E7%BB%8F%E7%97%85/183922", "lemmaPic": []}, {"lemmaId": 2830187, "lemmaTitle": "突发性耳聋", "lemmaCroppedTitle": "突发性耳聋", "lemmaDesc": "突发性耳聋或称“特发性突发性聋”，简称“突发性聋”或“突聋”，是指突然发生的、原...", "lemmaUrl": "http://baike.baidu.com/item/%E7%AA%81%E5%8F%91%E6%80%A7%E8%80%B3%E8%81%8B/2830187", "lemmaPic": []}, {"lemmaId": 983998, "lemmaTitle": "消化性溃疡", "lemmaCroppedTitle": "消化性溃疡", "lemmaDesc": "消化性溃疡主要指发生于胃和十二指肠的慢性溃疡，是一多发病、常见病。溃疡的形成有各...", "lemmaUrl": "http://baike.baidu.com/item/%E6%B6%88%E5%8C%96%E6%80%A7%E6%BA%83%E7%96%A1/983998", "lemmaPic": []}, {"lemmaId": 4040385, "lemmaTitle": "衣原体感染", "lemmaCroppedTitle": "衣原体感染", "lemmaDesc": "衣原体感染是由各种衣原体感染引起的一组感染性疾病。可引起动物和人类的子宫感染、早...", "lemmaUrl": "http://baike.baidu.com/item/%E8%A1%A3%E5%8E%9F%E4%BD%93%E6%84%9F%E6%9F%93/4040385", "lemmaPic": []}, {"lemmaId": 9505131, "lemmaTitle": "慢性阻塞性肺疾病", "lemmaCroppedTitle": "慢性阻塞性肺疾病", "lemmaDesc": "慢性阻塞性肺疾病是一种具有气流阻塞特征的慢性支气管炎和（或）肺气肿，可进一步发展...", "lemmaUrl": "http://baike.baidu.com/item/%E6%85%A2%E6%80%A7%E9%98%BB%E5%A1%9E%E6%80%A7%E8%82%BA%E7%96%BE%E7%97%85/9505131", "lemmaPic": []}, {"lemmaId": 5102285, "lemmaTitle": "肌萎缩侧索硬化症", "lemmaCroppedTitle": "肌萎缩侧索硬化症", "lemmaDesc": "肌萎缩侧索硬化症，又称渐冻人症，是运动神经元病的一种，是累及上运动神经元（大脑、...", "lemmaUrl": "http://baike.baidu.com/item/%E8%82%8C%E8%90%8E%E7%BC%A9%E4%BE%A7%E7%B4%A2%E7%A1%AC%E5%8C%96%E7%97%87/5102285", "lemmaPic": []}, {"lemmaId": 2167483, "lemmaTitle": "皮肌炎", "lemmaCroppedTitle": "皮肌炎", "lemmaDesc": "皮肌炎是一种主要累及横纹肌，以淋巴细胞浸润为主的非化脓性炎症病变，可伴有或不伴有...", "lemmaUrl": "http://baike.baidu.com/item/%E7%9A%AE%E8%82%8C%E7%82%8E/2167483", "lemmaPic": []}, {"lemmaId": 1082697, "lemmaTitle": "鞘膜积液", "lemmaCroppedTitle": "鞘膜积液", "lemmaDesc": "鞘膜积液是指鞘膜腔内积聚的液体超过正常量而形成的囊肿。本病可发生于任何年龄。当鞘...", "lemmaUrl": "http://baike.baidu.com/item/%E9%9E%98%E8%86%9C%E7%A7%AF%E6%B6%B2/1082697", "lemmaPic": []}, {"lemmaId": 1374470, "lemmaTitle": "硬皮病", "lemmaCroppedTitle": "硬皮病", "lemmaDesc": "硬皮病是一种以皮肤炎性、变性、增厚和纤维化进而硬化和萎缩为特征的结缔组织病，此病...", "lemmaUrl": "http://baike.baidu.com/item/%E7%A1%AC%E7%9A%AE%E7%97%85/1374470", "lemmaPic": []}, {"lemmaId": 12093316, "lemmaTitle": "阿斯伯格综合征", "lemmaCroppedTitle": "阿斯伯格综合征", "lemmaDesc": "阿斯伯格综合征（AS）属于孤独症谱系障碍（ASD）或广泛性发育障碍（PDD），具...", "lemmaUrl": "http://baike.baidu.com/item/%E9%98%BF%E6%96%AF%E4%BC%AF%E6%A0%BC%E7%BB%BC%E5%90%88%E5%BE%81/12093316", "lemmaPic": []}, {"lemmaId": 8495816, "lemmaTitle": "宫腔镜", "lemmaCroppedTitle": "宫腔镜", "lemmaDesc": "宫腔镜是一项新的、微创性妇科诊疗技术，用于子宫腔内检查和治疗的一种纤维光源内窥镜...", "lemmaUrl": "http://baike.baidu.com/item/%E5%AE%AB%E8%85%94%E9%95%9C/8495816", "lemmaPic": []}, {"lemmaId": 3100468, "lemmaTitle": "瘢痕", "lemmaCroppedTitle": "瘢痕", "lemmaDesc": "瘢痕（scar）是各种创伤后所引起的正常皮肤组织的外观形态和组织病理学改变的统称...", "lemmaUrl": "http://baike.baidu.com/item/%E7%98%A2%E7%97%95/3100468", "lemmaPic": []}, {"lemmaId": 9873000, "lemmaTitle": "足底筋膜炎", "lemmaCroppedTitle": "足底筋膜炎", "lemmaDesc": "足底筋膜炎是足底的肌腱或者筋膜发生无菌性炎症所致。最常见症状是脚跟的疼痛与不适，...", "lemmaUrl": "http://baike.baidu.com/item/%E8%B6%B3%E5%BA%95%E7%AD%8B%E8%86%9C%E7%82%8E/9873000", "lemmaPic": []}, {"lemmaId": 5445960, "lemmaTitle": "创伤后应激障碍", "lemmaCroppedTitle": "创伤后应激障碍", "lemmaDesc": "创伤后应激障碍（ PTSD）是指个体经历、目睹或遭遇到一个或多个涉及自身或他人的...", "lemmaUrl": "http://baike.baidu.com/item/%E5%88%9B%E4%BC%A4%E5%90%8E%E5%BA%94%E6%BF%80%E9%9A%9C%E7%A2%8D/5445960", "lemmaPic": []}, {"lemmaId": 12700733, "lemmaTitle": "鼻旁窦炎", "lemmaCroppedTitle": "鼻旁窦炎", "lemmaDesc": "鼻旁窦炎即鼻窦炎，包括急性鼻旁窦炎和慢性鼻旁窦炎。为鼻科常见疾病，慢性者居多。前...", "lemmaUrl": "http://baike.baidu.com/item/%E9%BC%BB%E6%97%81%E7%AA%A6%E7%82%8E/12700733", "lemmaPic": []}, {"lemmaId": 2291968, "lemmaTitle": "肠套叠", "lemmaCroppedTitle": "肠套叠", "lemmaDesc": "肠套叠是指一段肠管套入与其相连的肠腔内，并导致肠内容物通过障碍。肠套叠占肠梗阻的...", "lemmaUrl": "http://baike.baidu.com/item/%E8%82%A0%E5%A5%97%E5%8F%A0/2291968", "lemmaPic": []}, {"lemmaId": 3154684, "lemmaTitle": "胃息肉", "lemmaCroppedTitle": "胃息肉", "lemmaDesc": "胃息肉是指胃黏膜表面长出的突起状乳头状组织，较小时常无明显症状，一般都是在胃肠钡...", "lemmaUrl": "http://baike.baidu.com/item/%E8%83%83%E6%81%AF%E8%82%89/3154684", "lemmaPic": []}, {"lemmaId": 1170, "lemmaTitle": "性功能障碍", "lemmaCroppedTitle": "性功能障碍", "lemmaDesc": "性功能是一个复杂的生理过程。正常性功能的维持依赖人体多系统的协作，涉及到神经系统...", "lemmaUrl": "http://baike.baidu.com/item/%E6%80%A7%E5%8A%9F%E8%83%BD%E9%9A%9C%E7%A2%8D/1170", "lemmaPic": []}, {"lemmaId": 2827515, "lemmaTitle": "肝性脑病", "lemmaCroppedTitle": "肝性脑病", "lemmaDesc": "肝性脑病（HE）又称肝性昏迷，是指严重肝病引起的、以代谢紊乱为基础的中枢神经系统...", "lemmaUrl": "http://baike.baidu.com/item/%E8%82%9D%E6%80%A7%E8%84%91%E7%97%85/2827515", "lemmaPic": []}, {"lemmaId": 6350903, "lemmaTitle": "肝火", "lemmaCroppedTitle": "肝火", "lemmaDesc": "肝火，中医名词。指肝经火胜，内扰于肝的一种病理现象。多由于情志不遂、郁而化火、嗜...", "lemmaUrl": "http://baike.baidu.com/item/%E8%82%9D%E7%81%AB/6350903", "lemmaPic": []}, {"lemmaId": 10588865, "lemmaTitle": "开眼角", "lemmaCroppedTitle": "开眼角", "lemmaDesc": "内外眦成形术俗称开眼角。它是通过手术方式，分别对内、外侧眼角进行矫正放大，以去除...", "lemmaUrl": "http://baike.baidu.com/item/%E5%BC%80%E7%9C%BC%E8%A7%92/10588865", "lemmaPic": []}, {"lemmaId": 6078216, "lemmaTitle": "夏季感冒", "lemmaCroppedTitle": "夏季感冒", "lemmaDesc": "夏季感冒中医又称为暑湿感冒，与冬天的风寒感冒和风热感冒是有区别的。风寒感冒主要是...", "lemmaUrl": "http://baike.baidu.com/item/%E5%A4%8F%E5%AD%A3%E6%84%9F%E5%86%92/6078216", "lemmaPic": []}, {"lemmaId": 5796024, "lemmaTitle": "铊中毒", "lemmaCroppedTitle": "铊中毒", "lemmaDesc": "铊中毒是机体摄入含铊化合物后产生的中毒反应。铊对哺乳动物的毒性高于铅、汞等金属元...", "lemmaUrl": "http://baike.baidu.com/item/%E9%93%8A%E4%B8%AD%E6%AF%92/5796024", "lemmaPic": []}, {"lemmaId": 939948, "lemmaTitle": "卵巢恶性肿瘤", "lemmaCroppedTitle": "卵巢恶性肿瘤", "lemmaDesc": "卵巢恶性肿瘤是女性生殖器官常见的恶性肿瘤之一，发病率仅次于子宫颈癌和子宫体癌而列...", "lemmaUrl": "http://baike.baidu.com/item/%E5%8D%B5%E5%B7%A2%E6%81%B6%E6%80%A7%E8%82%BF%E7%98%A4/939948", "lemmaPic": []}, {"lemmaId": 1904, "lemmaTitle": "胎记", "lemmaCroppedTitle": "胎记", "lemmaDesc": "胎记一般可分为色素型及血管型，常见的色素型包括太田痣、先天性色素痣、咖啡斑等；血...", "lemmaUrl": "http://baike.baidu.com/item/%E8%83%8E%E8%AE%B0/1904", "lemmaPic": []}, {"lemmaId": 2829347, "lemmaTitle": "鳞状细胞癌", "lemmaCroppedTitle": "鳞状细胞癌", "lemmaDesc": "鳞状细胞癌简称鳞癌，又名表皮癌，是发生于表皮或附属器细胞的一种恶性肿瘤，癌细胞有...", "lemmaUrl": "http://baike.baidu.com/item/%E9%B3%9E%E7%8A%B6%E7%BB%86%E8%83%9E%E7%99%8C/2829347", "lemmaPic": []}, {"lemmaId": 792453, "lemmaTitle": "癣", "lemmaCroppedTitle": "癣", "lemmaDesc": "癣是霉菌引起传染性皮肤病，可分浅部霉菌病和深部霉菌病，如肛周皮肤癣属于浅部霉菌病...", "lemmaUrl": "http://baike.baidu.com/item/%E7%99%A3/792453", "lemmaPic": []}, {"lemmaId": 5120155, "lemmaTitle": "尿失禁", "lemmaCroppedTitle": "尿失禁", "lemmaDesc": "老年尿失禁即膀胱内的尿不能控制而自行流出。尿失禁可发生于各年龄组的患者，但老年患...", "lemmaUrl": "http://baike.baidu.com/item/%E5%B0%BF%E5%A4%B1%E7%A6%81/5120155", "lemmaPic": []}, {"lemmaId": 2129537, "lemmaTitle": "甲状腺囊肿", "lemmaCroppedTitle": "甲状腺囊肿", "lemmaDesc": "甲状腺囊肿是指在甲状腺中发现含有液体的囊状物。肿块呈圆形，直径多在2～5厘米之间...", "lemmaUrl": "http://baike.baidu.com/item/%E7%94%B2%E7%8A%B6%E8%85%BA%E5%9B%8A%E8%82%BF/2129537", "lemmaPic": []}, {"lemmaId": 1939203, "lemmaTitle": "恶性黑素瘤", "lemmaCroppedTitle": "恶性黑素瘤", "lemmaDesc": "恶性黑素瘤是由皮肤和其他器官黑素细胞产生的肿瘤。皮肤黑素瘤表现为色素性皮损在数月...", "lemmaUrl": "http://baike.baidu.com/item/%E6%81%B6%E6%80%A7%E9%BB%91%E7%B4%A0%E7%98%A4/1939203", "lemmaPic": []}, {"lemmaId": 4466256, "lemmaTitle": "神经性耳聋", "lemmaCroppedTitle": "神经性耳聋", "lemmaDesc": "人体听觉系统中的传音、感音或分析综合部位的任何结构或功能发生障碍，都可表现为听力...", "lemmaUrl": "http://baike.baidu.com/item/%E7%A5%9E%E7%BB%8F%E6%80%A7%E8%80%B3%E8%81%8B/4466256", "lemmaPic": []}, {"lemmaId": 1940708, "lemmaTitle": "早产儿", "lemmaCroppedTitle": "早产儿", "lemmaDesc": "胎龄在37足周以前出生的活产婴儿称为早产儿或未成熟儿。其出生体重大部分在2500...", "lemmaUrl": "http://baike.baidu.com/item/%E6%97%A9%E4%BA%A7%E5%84%BF/1940708", "lemmaPic": []}, {"lemmaId": 5331365, "lemmaTitle": "慢性咳嗽", "lemmaCroppedTitle": "慢性咳嗽", "lemmaDesc": "慢性咳嗽的定义目前认为咳嗽时间持续≥8周以上，X线胸片无明显肺疾病证据的咳嗽称为...", "lemmaUrl": "http://baike.baidu.com/item/%E6%85%A2%E6%80%A7%E5%92%B3%E5%97%BD/5331365", "lemmaPic": []}, {"lemmaId": 10852473, "lemmaTitle": "肺纤维化", "lemmaCroppedTitle": "肺纤维化", "lemmaDesc": "肺纤维化是以成纤维细胞增殖及大量细胞外基质聚集并伴炎症损伤、组织结构破坏为特征的...", "lemmaUrl": "http://baike.baidu.com/item/%E8%82%BA%E7%BA%A4%E7%BB%B4%E5%8C%96/10852473", "lemmaPic": []}, {"lemmaId": 10942165, "lemmaTitle": "胸痛", "lemmaCroppedTitle": "胸痛", "lemmaDesc": "胸痛是一种常见而又能危及生命的病症，造成胸痛的原因复杂多样，包括急性冠脉综合征（...", "lemmaUrl": "http://baike.baidu.com/item/%E8%83%B8%E7%97%9B/10942165", "lemmaPic": []}, {"lemmaId": 3144528, "lemmaTitle": "斜视", "lemmaCroppedTitle": "斜视", "lemmaDesc": "斜视（squint）是指两眼不能同时注视目标，属眼外肌疾病，可分为共同性斜视和麻...", "lemmaUrl": "http://baike.baidu.com/item/%E6%96%9C%E8%A7%86/3144528", "lemmaPic": []}, {"lemmaId": 5321354, "lemmaTitle": "颞下颌关节紊乱综合征", "lemmaCroppedTitle": "颞下颌关节紊乱综合征", "lemmaDesc": "颞下颌关节紊乱综合征是口腔颌面部最常见的疾病，发病机制尚未完全明了。本症的主要临...", "lemmaUrl": "http://baike.baidu.com/item/%E9%A2%9E%E4%B8%8B%E9%A2%8C%E5%85%B3%E8%8A%82%E7%B4%8A%E4%B9%B1%E7%BB%BC%E5%90%88%E5%BE%81/5321354", "lemmaPic": []}, {"lemmaId": 8577846, "lemmaTitle": "慢性湿疹", "lemmaCroppedTitle": "慢性湿疹", "lemmaDesc": "湿疹是由于复杂的内外因素激发而引起的一种皮肤炎症反应。慢性湿疹一般局限而有浸润和...", "lemmaUrl": "http://baike.baidu.com/item/%E6%85%A2%E6%80%A7%E6%B9%BF%E7%96%B9/8577846", "lemmaPic": []}, {"lemmaId": 1119122, "lemmaTitle": "不孕症", "lemmaCroppedTitle": "不孕症", "lemmaDesc": "不孕的医学定义为一年未采取任何避孕措施，性生活正常而没有成功妊娠。主要分为原发不...", "lemmaUrl": "http://baike.baidu.com/item/%E4%B8%8D%E5%AD%95%E7%97%87/1119122", "lemmaPic": []}, {"lemmaId": 2064889, "lemmaTitle": "跟腱炎", "lemmaCroppedTitle": "跟腱炎", "lemmaDesc": "跟腱是由连接小腿后方肌群与跟骨的带状肌腱纤维组成，张力通过肌肉收缩传递到跟腱。由...", "lemmaUrl": "http://baike.baidu.com/item/%E8%B7%9F%E8%85%B1%E7%82%8E/2064889", "lemmaPic": []}, {"lemmaId": 950528, "lemmaTitle": "血管炎", "lemmaCroppedTitle": "血管炎", "lemmaDesc": "血管炎是血管壁及血管周围有炎细胞浸润，并伴有血管损伤，包括纤维素沉积、胶原纤维变...", "lemmaUrl": "http://baike.baidu.com/item/%E8%A1%80%E7%AE%A1%E7%82%8E/950528", "lemmaPic": []}, {"lemmaId": 2729, "lemmaTitle": "妄想症", "lemmaCroppedTitle": "妄想症", "lemmaDesc": "妄想症又称妄想性障碍，是一种精神病学诊断，指“抱有一个或多个非怪诞性的妄想，同时...", "lemmaUrl": "http://baike.baidu.com/item/%E5%A6%84%E6%83%B3%E7%97%87/2729", "lemmaPic": {"width": 571, "height": 316, "url": "https://gss0.bdstatic.com/-4o3dSag_xI4khGkpoWK1HF6hhy/baike/w%3D168/sign=f14cdb994010b912bfc1f2f8fbfdfcb5/d833c895d143ad4bed4edae285025aafa40f06ab.jpg"}}, {"lemmaId": 9633892, "lemmaTitle": "色斑", "lemmaCroppedTitle": "色斑", "lemmaDesc": "色斑，是指和周围颜色不同的斑点。包括雀斑、黑斑、黄褐斑和老年斑等，属色素障碍性皮...", "lemmaUrl": "http://baike.baidu.com/item/%E8%89%B2%E6%96%91/9633892", "lemmaPic": []}, {"lemmaId": 5359945, "lemmaTitle": "母乳性黄疸", "lemmaCroppedTitle": "母乳性黄疸", "lemmaDesc": "母乳喂养的婴儿在生后4～7天出现黄疸，2～4周达高峰（血清胆红素可超过256.6...", "lemmaUrl": "http://baike.baidu.com/item/%E6%AF%8D%E4%B9%B3%E6%80%A7%E9%BB%84%E7%96%B8/5359945", "lemmaPic": []}, {"lemmaId": 1823037, "lemmaTitle": "脓疱疮", "lemmaCroppedTitle": "脓疱疮", "lemmaDesc": "又名“传染性脓疱病”，俗称“黄水疮”，是一种常见的、通过接触传染的浅表皮肤感染性...", "lemmaUrl": "http://baike.baidu.com/item/%E8%84%93%E7%96%B1%E7%96%AE/1823037", "lemmaPic": []}, {"lemmaId": 924264, "lemmaTitle": "急性结膜炎", "lemmaCroppedTitle": "急性结膜炎", "lemmaDesc": "正常情况下，结膜具有一定防御能力，但当防御能力减弱或外界致病因素增加时，将引起结...", "lemmaUrl": "http://baike.baidu.com/item/%E6%80%A5%E6%80%A7%E7%BB%93%E8%86%9C%E7%82%8E/924264", "lemmaPic": []}, {"lemmaId": 990044, "lemmaTitle": "性早熟", "lemmaCroppedTitle": "性早熟", "lemmaDesc": "性早熟是一种以性成熟提前出现为特征的性发育异常。性早熟是指在性发育年龄以前出现了...", "lemmaUrl": "http://baike.baidu.com/item/%E6%80%A7%E6%97%A9%E7%86%9F/990044", "lemmaPic": []}, {"lemmaId": 10702587, "lemmaTitle": "宫颈癌前病变", "lemmaCroppedTitle": "宫颈癌前病变", "lemmaDesc": "宫颈癌前病变是指有癌变倾向，但又不能诊断为原位癌的宫颈异常增殖性病变，具有发展成...", "lemmaUrl": "http://baike.baidu.com/item/%E5%AE%AB%E9%A2%88%E7%99%8C%E5%89%8D%E7%97%85%E5%8F%98/10702587", "lemmaPic": []}, {"lemmaId": 5360108, "lemmaTitle": "维生素D缺乏性佝偻病", "lemmaCroppedTitle": "维生素D缺乏性佝偻病", "lemmaDesc": "维生素D缺乏性佝偻病，又叫骨软化症即骨矿化不足，为新形成的骨基质钙化障碍，是以维...", "lemmaUrl": "http://baike.baidu.com/item/%E7%BB%B4%E7%94%9F%E7%B4%A0D%E7%BC%BA%E4%B9%8F%E6%80%A7%E4%BD%9D%E5%81%BB%E7%97%85/5360108", "lemmaPic": []}, {"lemmaId": 1487805, "lemmaTitle": "尿道结石", "lemmaCroppedTitle": "尿道结石", "lemmaDesc": "尿道结石（urethral calculus）还可分为原发性和继发性两类，原发性...", "lemmaUrl": "http://baike.baidu.com/item/%E5%B0%BF%E9%81%93%E7%BB%93%E7%9F%B3/1487805", "lemmaPic": []}, {"lemmaId": 1403643, "lemmaTitle": "传染性单核细胞增多症", "lemmaCroppedTitle": "传染性单核细胞增多症", "lemmaDesc": "传染性单核细胞增多症主要是由EB感染引起的急性自限性传染病。典型临床三联征为发热...", "lemmaUrl": "http://baike.baidu.com/item/%E4%BC%A0%E6%9F%93%E6%80%A7%E5%8D%95%E6%A0%B8%E7%BB%86%E8%83%9E%E5%A2%9E%E5%A4%9A%E7%97%87/1403643", "lemmaPic": []}, {"lemmaId": 5087464, "lemmaTitle": "偏头疼", "lemmaCroppedTitle": "偏头疼", "lemmaDesc": "偏头痛多为一侧或两侧颞部反复发作的搏动性头痛，发作前可伴视觉、体觉先兆，发作时常...", "lemmaUrl": "http://baike.baidu.com/item/%E5%81%8F%E5%A4%B4%E7%96%BC/5087464", "lemmaPic": []}, {"lemmaId": 4806738, "lemmaTitle": "肛门瘘管", "lemmaCroppedTitle": "肛门瘘管", "lemmaDesc": "肛瘘又称“肛门直肠瘘”，大部分肛瘘由肛门直肠脓肿破溃或切开排脓后形成。脓肿逐渐缩...", "lemmaUrl": "http://baike.baidu.com/item/%E8%82%9B%E9%97%A8%E7%98%98%E7%AE%A1/4806738", "lemmaPic": []}, {"lemmaId": 5278115, "lemmaTitle": "前庭大腺囊肿", "lemmaCroppedTitle": "前庭大腺囊肿", "lemmaDesc": "前庭大腺囊肿系因前庭大腺管阻塞，分泌物积聚而成。在急性炎症消退后腺管堵塞，分泌物...", "lemmaUrl": "http://baike.baidu.com/item/%E5%89%8D%E5%BA%AD%E5%A4%A7%E8%85%BA%E5%9B%8A%E8%82%BF/5278115", "lemmaPic": []}, {"lemmaId": 10097919, "lemmaTitle": "汗管瘤", "lemmaCroppedTitle": "汗管瘤", "lemmaDesc": "汗管瘤是一种附属器肿瘤，本病实质上为向小汗腺末端导管分化的一种错构瘤。", "lemmaUrl": "http://baike.baidu.com/item/%E6%B1%97%E7%AE%A1%E7%98%A4/10097919", "lemmaPic": []}, {"lemmaId": 5319012, "lemmaTitle": "神经性厌食", "lemmaCroppedTitle": "神经性厌食", "lemmaDesc": "神经性厌食（AN）指个体通过节食等手段，有意造成并维持体重明显低于正常标准为特征...", "lemmaUrl": "http://baike.baidu.com/item/%E7%A5%9E%E7%BB%8F%E6%80%A7%E5%8E%8C%E9%A3%9F/5319012", "lemmaPic": []}, {"lemmaId": 10877566, "lemmaTitle": "绝经", "lemmaCroppedTitle": "绝经", "lemmaDesc": "妇女绝经是指卵巢功能衰退，月经停止。绝经可分为自然绝经和人工绝经两种。自然绝经指...", "lemmaUrl": "http://baike.baidu.com/item/%E7%BB%9D%E7%BB%8F/10877566", "lemmaPic": []}, {"lemmaId": 10336227, "lemmaTitle": "放射治疗", "lemmaCroppedTitle": "放射治疗", "lemmaDesc": "肿瘤放射治疗是利用放射线治疗肿瘤的一种局部治疗方法。放射线包括放射性同位素产生的...", "lemmaUrl": "http://baike.baidu.com/item/%E6%94%BE%E5%B0%84%E6%B2%BB%E7%96%97/10336227", "lemmaPic": []}, {"lemmaId": 1377867, "lemmaTitle": "单纯性甲状腺肿", "lemmaCroppedTitle": "单纯性甲状腺肿", "lemmaDesc": "单纯性甲状腺肿是甲状腺功能正常的甲状腺肿，是以缺碘、致甲状腺肿物质或相关酶缺陷等...", "lemmaUrl": "http://baike.baidu.com/item/%E5%8D%95%E7%BA%AF%E6%80%A7%E7%94%B2%E7%8A%B6%E8%85%BA%E8%82%BF/1377867", "lemmaPic": []}, {"lemmaId": 10523489, "lemmaTitle": "慢性肾衰竭", "lemmaCroppedTitle": "慢性肾衰竭", "lemmaDesc": "慢性肾衰竭（CRF）是指各种原因造成慢性进行性肾实质损害，致使肾脏明显萎缩，不能...", "lemmaUrl": "http://baike.baidu.com/item/%E6%85%A2%E6%80%A7%E8%82%BE%E8%A1%B0%E7%AB%AD/10523489", "lemmaPic": []}, {"lemmaId": 1329695, "lemmaTitle": "亚急性甲状腺炎", "lemmaCroppedTitle": "亚急性甲状腺炎", "lemmaDesc": "亚急性甲状腺炎又称亚急性肉芽肿性甲状腺炎、（假）巨细胞甲状腺炎、非感染性甲状腺炎...", "lemmaUrl": "http://baike.baidu.com/item/%E4%BA%9A%E6%80%A5%E6%80%A7%E7%94%B2%E7%8A%B6%E8%85%BA%E7%82%8E/1329695", "lemmaPic": []}, {"lemmaId": 1164214, "lemmaTitle": "甲型病毒性肝炎", "lemmaCroppedTitle": "甲型病毒性肝炎", "lemmaDesc": "甲型病毒性肝炎，简称甲型肝炎、甲肝，是由甲型肝炎病毒（HAV）引起的，以肝脏炎症...", "lemmaUrl": "http://baike.baidu.com/item/%E7%94%B2%E5%9E%8B%E7%97%85%E6%AF%92%E6%80%A7%E8%82%9D%E7%82%8E/1164214", "lemmaPic": []}, {"lemmaId": 3566200, "lemmaTitle": "念珠菌性阴道炎", "lemmaCroppedTitle": "念珠菌性阴道炎", "lemmaDesc": "念珠菌性阴道炎也称霉菌性阴道炎，是由念珠菌感染引起。其发病率仅次于细菌性阴道病。...", "lemmaUrl": "http://baike.baidu.com/item/%E5%BF%B5%E7%8F%A0%E8%8F%8C%E6%80%A7%E9%98%B4%E9%81%93%E7%82%8E/3566200", "lemmaPic": []}, {"lemmaId": 1144467, "lemmaTitle": "白色糠疹", "lemmaCroppedTitle": "白色糠疹", "lemmaDesc": "本病又称单纯糠疹或面部干性糠疹，是一种原因不明的慢性皮肤病，表现为边缘模糊的色素...", "lemmaUrl": "http://baike.baidu.com/item/%E7%99%BD%E8%89%B2%E7%B3%A0%E7%96%B9/1144467", "lemmaPic": []}, {"lemmaId": 516722, "lemmaTitle": "植物人", "lemmaCroppedTitle": "植物人", "lemmaDesc": "植物人（PVS）是与植物生存状态相似的特殊的人体状态。除保留一些本能性的神经反射...", "lemmaUrl": "http://baike.baidu.com/item/%E6%A4%8D%E7%89%A9%E4%BA%BA/516722", "lemmaPic": []}, {"lemmaId": 2602010, "lemmaTitle": "慢性扁桃体炎", "lemmaCroppedTitle": "慢性扁桃体炎", "lemmaDesc": "慢性扁桃体炎多由急性扁桃体炎反复发作转为慢性。患急性传染病（如猩红热、麻疹、流感...", "lemmaUrl": "http://baike.baidu.com/item/%E6%85%A2%E6%80%A7%E6%89%81%E6%A1%83%E4%BD%93%E7%82%8E/2602010", "lemmaPic": []}, {"lemmaId": 10744228, "lemmaTitle": "奶癣", "lemmaCroppedTitle": "奶癣", "lemmaDesc": "奶癣，又名胎癣、胎疮，为发于婴儿的一种湿疮，好发于婴幼儿之头面部，或可延展于其他...", "lemmaUrl": "http://baike.baidu.com/item/%E5%A5%B6%E7%99%A3/10744228", "lemmaPic": []}, {"lemmaId": 1535020, "lemmaTitle": "马方综合征", "lemmaCroppedTitle": "马方综合征", "lemmaDesc": "马方综合征又称为马凡综合征，为一种遗传性结缔组织疾病，为常染色体显性遗传，患病特...", "lemmaUrl": "http://baike.baidu.com/item/%E9%A9%AC%E6%96%B9%E7%BB%BC%E5%90%88%E5%BE%81/1535020", "lemmaPic": []}, {"lemmaId": 9242915, "lemmaTitle": "脑梗", "lemmaCroppedTitle": "脑梗", "lemmaDesc": "脑梗死又称缺血性脑卒中，是指局部脑组织因血液循环障碍，缺血、缺氧而发生的软化坏死...", "lemmaUrl": "http://baike.baidu.com/item/%E8%84%91%E6%A2%97/9242915", "lemmaPic": []}, {"lemmaId": 1123864, "lemmaTitle": "恐高症", "lemmaCroppedTitle": "恐高症", "lemmaDesc": "恐高症又称畏高症。恐高的基本症状就是眩晕、恶心、食欲不振。国外调查资料显示，现代...", "lemmaUrl": "http://baike.baidu.com/item/%E6%81%90%E9%AB%98%E7%97%87/1123864", "lemmaPic": []}, {"lemmaId": 12017452, "lemmaTitle": "幽闭恐惧症", "lemmaCroppedTitle": "幽闭恐惧症", "lemmaDesc": "幽闭恐惧症属于恐惧症中较为常见的一种。幽闭恐惧症是对封闭空间的一种焦虑症。幽闭恐...", "lemmaUrl": "http://baike.baidu.com/item/%E5%B9%BD%E9%97%AD%E6%81%90%E6%83%A7%E7%97%87/12017452", "lemmaPic": []}, {"lemmaId": 8437712, "lemmaTitle": "病毒性脑膜炎", "lemmaCroppedTitle": "病毒性脑膜炎", "lemmaDesc": "病毒性脑膜炎是一组由各种病毒感染引起的软脑膜（软膜和蛛网膜）弥漫性炎症综合征，主...", "lemmaUrl": "http://baike.baidu.com/item/%E7%97%85%E6%AF%92%E6%80%A7%E8%84%91%E8%86%9C%E7%82%8E/8437712", "lemmaPic": []}, {"lemmaId": 4505849, "lemmaTitle": "母乳喂养", "lemmaCroppedTitle": "母乳喂养", "lemmaDesc": "母乳喂养是指用母亲的乳汁喂养婴儿的方式。研究显示，用母乳喂养的婴儿发展更为健康，...", "lemmaUrl": "http://baike.baidu.com/item/%E6%AF%8D%E4%B9%B3%E5%96%82%E5%85%BB/4505849", "lemmaPic": []}, {"lemmaId": 259150, "lemmaTitle": "急性肾盂肾炎", "lemmaCroppedTitle": "急性肾盂肾炎", "lemmaDesc": "急性肾盂肾炎是指肾盂黏膜及肾实质的急性感染性疾病，主要是大肠杆菌的感染，另外还有...", "lemmaUrl": "http://baike.baidu.com/item/%E6%80%A5%E6%80%A7%E8%82%BE%E7%9B%82%E8%82%BE%E7%82%8E/259150", "lemmaPic": []}, {"lemmaId": 2298146, "lemmaTitle": "尘肺", "lemmaCroppedTitle": "尘肺", "lemmaDesc": "尘肺的规范名称是肺尘埃沉着病，该病是由于在职业活动中长期吸入生产性粉尘（灰尘），...", "lemmaUrl": "http://baike.baidu.com/item/%E5%B0%98%E8%82%BA/2298146", "lemmaPic": []}, {"lemmaId": 2932255, "lemmaTitle": "褥疮", "lemmaCroppedTitle": "褥疮", "lemmaDesc": "褥疮（又称压疮，压力性溃疡）是由于局部组织长期受压，发生持续缺血、缺氧、营养不良...", "lemmaUrl": "http://baike.baidu.com/item/%E8%A4%A5%E7%96%AE/2932255", "lemmaPic": []}, {"lemmaId": 10209487, "lemmaTitle": "脑出血后遗症", "lemmaCroppedTitle": "脑出血后遗症", "lemmaDesc": "脑出血是指非外伤性脑实质内出血，约占全部脑卒中的20%～30%，发生的原因主要与...", "lemmaUrl": "http://baike.baidu.com/item/%E8%84%91%E5%87%BA%E8%A1%80%E5%90%8E%E9%81%97%E7%97%87/10209487", "lemmaPic": []}, {"lemmaId": 1226130, "lemmaTitle": "恐怖症", "lemmaCroppedTitle": "恐怖症", "lemmaDesc": "恐怖症是以恐怖症状为主要临床表现的一种神经症。患者对某些特定的对象或处境产生强烈...", "lemmaUrl": "http://baike.baidu.com/item/%E6%81%90%E6%80%96%E7%97%87/1226130", "lemmaPic": []}, {"lemmaId": 5056251, "lemmaTitle": "胆囊癌", "lemmaCroppedTitle": "胆囊癌", "lemmaDesc": "在胆囊恶性肿瘤中胆囊癌占首位，其他尚有肉瘤、类癌、原发性恶性黑色素瘤、巨细胞腺癌...", "lemmaUrl": "http://baike.baidu.com/item/%E8%83%86%E5%9B%8A%E7%99%8C/5056251", "lemmaPic": []}, {"lemmaId": 2330285, "lemmaTitle": "介入治疗", "lemmaCroppedTitle": "介入治疗", "lemmaDesc": "介入放射学又称介入治疗学，是近年迅速发展起来的一门融合了影像诊断和临床治疗于一体...", "lemmaUrl": "http://baike.baidu.com/item/%E4%BB%8B%E5%85%A5%E6%B2%BB%E7%96%97/2330285", "lemmaPic": []}, {"lemmaId": 10647295, "lemmaTitle": "义眼", "lemmaCroppedTitle": "义眼", "lemmaDesc": "义眼就是人工佩戴假眼。佩戴义眼并不能够使患者的视力得到恢复，而是一种面部缺陷的补...", "lemmaUrl": "http://baike.baidu.com/item/%E4%B9%89%E7%9C%BC/10647295", "lemmaPic": []}, {"lemmaId": 1678438, "lemmaTitle": "口吃", "lemmaCroppedTitle": "口吃", "lemmaDesc": "口吃（俗称“结巴”、“磕巴”）是一种言语障碍，表现为言语频繁地与正常流利的人在频...", "lemmaUrl": "http://baike.baidu.com/item/%E5%8F%A3%E5%90%83/1678438", "lemmaPic": []}, {"lemmaId": 1760481, "lemmaTitle": "婴幼儿腹泻", "lemmaCroppedTitle": "婴幼儿腹泻", "lemmaDesc": "婴幼儿腹泻是婴幼儿期的一种胃肠道功能紊乱，以腹泻、呕吐为主的综合征，以夏秋季节发...", "lemmaUrl": "http://baike.baidu.com/item/%E5%A9%B4%E5%B9%BC%E5%84%BF%E8%85%B9%E6%B3%BB/1760481", "lemmaPic": []}, {"lemmaId": 35980, "lemmaTitle": "遗忘", "lemmaCroppedTitle": "遗忘", "lemmaDesc": "遗忘是对识记过的材料不能再认与回忆，或者错误的再认与回忆，是一种记忆的丧失。遗忘...", "lemmaUrl": "http://baike.baidu.com/item/%E9%81%97%E5%BF%98/35980", "lemmaPic": []}, {"lemmaId": 5914894, "lemmaTitle": "完全性右束支传导阻滞", "lemmaCroppedTitle": "完全性右束支传导阻滞", "lemmaDesc": "完全性右束支传导阻滞是临床上常见的心律失常之一，是束支传导阻滞中的一种类型。右束...", "lemmaUrl": "http://baike.baidu.com/item/%E5%AE%8C%E5%85%A8%E6%80%A7%E5%8F%B3%E6%9D%9F%E6%94%AF%E4%BC%A0%E5%AF%BC%E9%98%BB%E6%BB%9E/5914894", "lemmaPic": []}, {"lemmaId": 3377, "lemmaTitle": "呼吸衰竭", "lemmaCroppedTitle": "呼吸衰竭", "lemmaDesc": "呼吸衰竭是各种原因引起的肺通气和（或）换气功能严重障碍，以致不能进行有效的气体交...", "lemmaUrl": "http://baike.baidu.com/item/%E5%91%BC%E5%90%B8%E8%A1%B0%E7%AB%AD/3377", "lemmaPic": []}, {"lemmaId": 2952523, "lemmaTitle": "糖尿病酮症酸中毒", "lemmaCroppedTitle": "糖尿病酮症酸中毒", "lemmaDesc": "糖尿病酮症酸中毒（DKA）指糖尿病患者在各种诱因的作用下，胰岛素明显不足，生糖激...", "lemmaUrl": "http://baike.baidu.com/item/%E7%B3%96%E5%B0%BF%E7%97%85%E9%85%AE%E7%97%87%E9%85%B8%E4%B8%AD%E6%AF%92/2952523", "lemmaPic": []}, {"lemmaId": 9591481, "lemmaTitle": "咯血", "lemmaCroppedTitle": "咯血", "lemmaDesc": "咯血是指喉部以下的呼吸器官（即气管、支气管或肺组织）出血，并经咳嗽动作从口腔排出...", "lemmaUrl": "http://baike.baidu.com/item/%E5%92%AF%E8%A1%80/9591481", "lemmaPic": []}, {"lemmaId": 508306, "lemmaTitle": "痈", "lemmaCroppedTitle": "痈", "lemmaDesc": "本病是由金黄色葡萄球菌感染引起的多个临近毛囊的深部感染。常发生于抵抗力低下者，如...", "lemmaUrl": "http://baike.baidu.com/item/%E7%97%88/508306", "lemmaPic": []}, {"lemmaId": 827112, "lemmaTitle": "恋物癖", "lemmaCroppedTitle": "恋物癖", "lemmaDesc": "恋物癖指在强烈的性欲望与性兴奋的驱使下，反复收集异性使用的物品。所恋物品均为直接...", "lemmaUrl": "http://baike.baidu.com/item/%E6%81%8B%E7%89%A9%E7%99%96/827112", "lemmaPic": []}, {"lemmaId": 2250968, "lemmaTitle": "肥胖症", "lemmaCroppedTitle": "肥胖症", "lemmaDesc": "肥胖症是一组常见的代谢症群。当人体进食热量多于消耗热量时，多余热量以脂肪形式储存...", "lemmaUrl": "http://baike.baidu.com/item/%E8%82%A5%E8%83%96%E7%97%87/2250968", "lemmaPic": []}, {"lemmaId": 8293418, "lemmaTitle": "假性宫缩", "lemmaCroppedTitle": "假性宫缩", "lemmaDesc": "假性宫缩，也叫迁延宫缩。其特点是出现的时间无规律，程度也时强时弱。临产前，由于子...", "lemmaUrl": "http://baike.baidu.com/item/%E5%81%87%E6%80%A7%E5%AE%AB%E7%BC%A9/8293418", "lemmaPic": []}, {"lemmaId": 4845018, "lemmaTitle": "注意缺陷多动障碍", "lemmaCroppedTitle": "注意缺陷多动障碍", "lemmaDesc": "注意缺陷多动障碍（ADHD）在我国称为多动症，是儿童期常见的一类心理障碍。表现为...", "lemmaUrl": "http://baike.baidu.com/item/%E6%B3%A8%E6%84%8F%E7%BC%BA%E9%99%B7%E5%A4%9A%E5%8A%A8%E9%9A%9C%E7%A2%8D/4845018", "lemmaPic": []}, {"lemmaId": 3537440, "lemmaTitle": "声带息肉", "lemmaCroppedTitle": "声带息肉", "lemmaDesc": "声带息肉是发生于声带固有层浅层的良性增生性病变，也是一种特殊类型的慢性喉炎。最主...", "lemmaUrl": "http://baike.baidu.com/item/%E5%A3%B0%E5%B8%A6%E6%81%AF%E8%82%89/3537440", "lemmaPic": []}, {"lemmaId": 10307686, "lemmaTitle": "过敏性结膜炎", "lemmaCroppedTitle": "过敏性结膜炎", "lemmaDesc": "过敏性结膜炎又称为变态反应性结膜炎，是结膜对外界变应原产生的一种超敏反应。主要包...", "lemmaUrl": "http://baike.baidu.com/item/%E8%BF%87%E6%95%8F%E6%80%A7%E7%BB%93%E8%86%9C%E7%82%8E/10307686", "lemmaPic": []}, {"lemmaId": 517332, "lemmaTitle": "骨髓炎", "lemmaCroppedTitle": "骨髓炎", "lemmaDesc": "骨髓炎为一种骨的感染和破坏，可由需氧或厌氧菌，分枝杆菌及真菌引起。骨髓炎好发于长...", "lemmaUrl": "http://baike.baidu.com/item/%E9%AA%A8%E9%AB%93%E7%82%8E/517332", "lemmaPic": []}, {"lemmaId": 561342, "lemmaTitle": "胼胝", "lemmaCroppedTitle": "胼胝", "lemmaDesc": "胼胝俗称“老茧”，是皮肤长期受压迫和摩擦而引起的手、足皮肤局部扁平角质增生。", "lemmaUrl": "http://baike.baidu.com/item/%E8%83%BC%E8%83%9D/561342", "lemmaPic": []}, {"lemmaId": 7460064, "lemmaTitle": "色素痣", "lemmaCroppedTitle": "色素痣", "lemmaDesc": "色素痣是由痣细胞组成的良性新生物，又名痣细胞痣、细胞痣、黑素细胞痣、痣。本病常见...", "lemmaUrl": "http://baike.baidu.com/item/%E8%89%B2%E7%B4%A0%E7%97%A3/7460064", "lemmaPic": []}, {"lemmaId": 8675385, "lemmaTitle": "卟啉病", "lemmaCroppedTitle": "卟啉病", "lemmaDesc": "本病又名血紫质病，是血红素合成途径当中，由于缺乏某种酶或酶活性降低，而引起的一组...", "lemmaUrl": "http://baike.baidu.com/item/%E5%8D%9F%E5%95%89%E7%97%85/8675385", "lemmaPic": []}, {"lemmaId": 185790, "lemmaTitle": "早产", "lemmaCroppedTitle": "早产", "lemmaDesc": "早产是指妊娠满28周至不足37周间分娩者。此时娩出的新生儿称早产儿，体重1000...", "lemmaUrl": "http://baike.baidu.com/item/%E6%97%A9%E4%BA%A7/185790", "lemmaPic": []}], "total": 7246, "totalPage": 73, "page": 6, "fromLemma": 0}