{"lemmaList": [{"lemmaId": 826387, "lemmaTitle": "自律性房性心动过速", "lemmaCroppedTitle": "自律性房性心动过速", "lemmaDesc": "自律性房性心动过速（AAT）是指心房内异位起搏点自律性强度中度增高，发放激动的频...", "lemmaUrl": "http://baike.baidu.com/item/%E8%87%AA%E5%BE%8B%E6%80%A7%E6%88%BF%E6%80%A7%E5%BF%83%E5%8A%A8%E8%BF%87%E9%80%9F/826387", "lemmaPic": []}, {"lemmaId": 8843577, "lemmaTitle": "慢性血源性骨髓炎", "lemmaCroppedTitle": "慢性血源性骨髓炎", "lemmaDesc": "慢性血源性骨髓炎的致病菌常为多种细菌的混合感染，但金黄色葡萄球菌仍是主要的病原体...", "lemmaUrl": "http://baike.baidu.com/item/%E6%85%A2%E6%80%A7%E8%A1%80%E6%BA%90%E6%80%A7%E9%AA%A8%E9%AB%93%E7%82%8E/8843577", "lemmaPic": []}, {"lemmaId": 5321204, "lemmaTitle": "舌下间隙感染", "lemmaCroppedTitle": "舌下间隙感染", "lemmaDesc": "舌下间隙感染是指舌下间隙的急性化脓性感染。舌下间隙位于舌和口底黏膜之下，下颌舌骨...", "lemmaUrl": "http://baike.baidu.com/item/%E8%88%8C%E4%B8%8B%E9%97%B4%E9%9A%99%E6%84%9F%E6%9F%93/5321204", "lemmaPic": []}, {"lemmaId": 5086329, "lemmaTitle": "跟骨骨髓炎", "lemmaCroppedTitle": "跟骨骨髓炎", "lemmaDesc": "人体站立时，跟骨位于最低位，受重力影响血液回流缓慢，有利于细菌在该骨停留繁殖。特...", "lemmaUrl": "http://baike.baidu.com/item/%E8%B7%9F%E9%AA%A8%E9%AA%A8%E9%AB%93%E7%82%8E/5086329", "lemmaPic": []}, {"lemmaId": 10335146, "lemmaTitle": "顶叶癫痫", "lemmaCroppedTitle": "顶叶癫痫", "lemmaDesc": "顶叶癫痫以感觉发作为主，继发全身性发作，如痫性放电超出顶叶常表现为复杂部分性发作...", "lemmaUrl": "http://baike.baidu.com/item/%E9%A1%B6%E5%8F%B6%E7%99%AB%E7%97%AB/10335146", "lemmaPic": []}, {"lemmaId": 273505, "lemmaTitle": "小儿急性呼吸衰竭", "lemmaCroppedTitle": "小儿急性呼吸衰竭", "lemmaDesc": "急性呼吸衰竭是呼吸系统和非呼吸系统疾病所致呼吸中枢和/或呼吸器官病变引起通气和换...", "lemmaUrl": "http://baike.baidu.com/item/%E5%B0%8F%E5%84%BF%E6%80%A5%E6%80%A7%E5%91%BC%E5%90%B8%E8%A1%B0%E7%AB%AD/273505", "lemmaPic": []}, {"lemmaId": 7706764, "lemmaTitle": "重金属中毒性肾病", "lemmaCroppedTitle": "重金属中毒性肾病", "lemmaDesc": "重金属中毒性肾病是由于长期接触重金属后引起的急、慢性肾损伤。金属可按密度的大小分...", "lemmaUrl": "http://baike.baidu.com/item/%E9%87%8D%E9%87%91%E5%B1%9E%E4%B8%AD%E6%AF%92%E6%80%A7%E8%82%BE%E7%97%85/7706764", "lemmaPic": []}, {"lemmaId": 9848939, "lemmaTitle": "先天性肺发育不全", "lemmaCroppedTitle": "先天性肺发育不全", "lemmaDesc": "先天性肺发育不全肺先天性发育不全可根据其发生程度分为3类：肺未发生一侧或双侧肺缺...", "lemmaUrl": "http://baike.baidu.com/item/%E5%85%88%E5%A4%A9%E6%80%A7%E8%82%BA%E5%8F%91%E8%82%B2%E4%B8%8D%E5%85%A8/9848939", "lemmaPic": []}, {"lemmaId": 2899314, "lemmaTitle": "副神经损伤", "lemmaCroppedTitle": "副神经损伤", "lemmaDesc": "副神经为纯运动神经，分为脑神经和脊神经根两部分，分别起自延髓和上颈髓。其延髓部较...", "lemmaUrl": "http://baike.baidu.com/item/%E5%89%AF%E7%A5%9E%E7%BB%8F%E6%8D%9F%E4%BC%A4/2899314", "lemmaPic": []}, {"lemmaId": 5879128, "lemmaTitle": "羊水与胎粪吸入综合征", "lemmaCroppedTitle": "羊水与胎粪吸入综合征", "lemmaDesc": "羊水与胎粪吸入综合征多见于足月儿和过期产儿。主要是胎儿在出生过程中吸入染有胎粪的...", "lemmaUrl": "http://baike.baidu.com/item/%E7%BE%8A%E6%B0%B4%E4%B8%8E%E8%83%8E%E7%B2%AA%E5%90%B8%E5%85%A5%E7%BB%BC%E5%90%88%E5%BE%81/5879128", "lemmaPic": []}, {"lemmaId": 1311582, "lemmaTitle": "复发性腹股沟疝", "lemmaCroppedTitle": "复发性腹股沟疝", "lemmaDesc": "临床根据复发疝的发生过程将其分为二类：真性复发疝和假性复发疝。前者系指在初次疝手...", "lemmaUrl": "http://baike.baidu.com/item/%E5%A4%8D%E5%8F%91%E6%80%A7%E8%85%B9%E8%82%A1%E6%B2%9F%E7%96%9D/1311582", "lemmaPic": []}, {"lemmaId": 1915246, "lemmaTitle": "股后肌劳损", "lemmaCroppedTitle": "股后肌劳损", "lemmaDesc": "股四头肌在跑跳时起屈髋、伸膝作用，而N绳肌是其拮抗肌。当绳肌强度小于股头肌的60...", "lemmaUrl": "http://baike.baidu.com/item/%E8%82%A1%E5%90%8E%E8%82%8C%E5%8A%B3%E6%8D%9F/1915246", "lemmaPic": []}, {"lemmaId": 3686723, "lemmaTitle": "乳积", "lemmaCroppedTitle": "乳积", "lemmaDesc": "乳积即乳食积滞（又名伤乳），见于《证治准绳・幼科》。指1岁以下小儿因伤乳所致的积...", "lemmaUrl": "http://baike.baidu.com/item/%E4%B9%B3%E7%A7%AF/3686723", "lemmaPic": []}, {"lemmaId": 5240932, "lemmaTitle": "小肠损伤", "lemmaCroppedTitle": "小肠损伤", "lemmaDesc": "小肠在腹腔内占据的位置最大、分布面广、相对表浅、缺少骨骼的保护容易受到损伤。在开...", "lemmaUrl": "http://baike.baidu.com/item/%E5%B0%8F%E8%82%A0%E6%8D%9F%E4%BC%A4/5240932", "lemmaPic": []}, {"lemmaId": 4610679, "lemmaTitle": "小儿X-连锁无丙种球蛋白血症", "lemmaCroppedTitle": "小儿X-连锁无丙种球蛋白血症", "lemmaDesc": "X-连锁无丙种球蛋白血症（XLA）是由于人类B细胞系列发育障碍引起的原发性免疫缺...", "lemmaUrl": "http://baike.baidu.com/item/%E5%B0%8F%E5%84%BFX-%E8%BF%9E%E9%94%81%E6%97%A0%E4%B8%99%E7%A7%8D%E7%90%83%E8%9B%8B%E7%99%BD%E8%A1%80%E7%97%87/4610679", "lemmaPic": []}, {"lemmaId": 10728262, "lemmaTitle": "结缔组织痣", "lemmaCroppedTitle": "结缔组织痣", "lemmaDesc": "结缔组织痣是由真皮细胞外基质成分如胶原纤维、弹性纤维或粘多糖等构成的错构瘤。与常...", "lemmaUrl": "http://baike.baidu.com/item/%E7%BB%93%E7%BC%94%E7%BB%84%E7%BB%87%E7%97%A3/10728262", "lemmaPic": []}, {"lemmaId": 6172612, "lemmaTitle": "情感性交叉擦腿症", "lemmaCroppedTitle": "情感性交叉擦腿症", "lemmaDesc": "情感性交叉擦腿症又称习惯性交叉擦腿综合征，是指小儿通过摩擦会阴部引起兴奋的一种习...", "lemmaUrl": "http://baike.baidu.com/item/%E6%83%85%E6%84%9F%E6%80%A7%E4%BA%A4%E5%8F%89%E6%93%A6%E8%85%BF%E7%97%87/6172612", "lemmaPic": []}, {"lemmaId": 4202450, "lemmaTitle": "矢状窦旁脑膜瘤", "lemmaCroppedTitle": "矢状窦旁脑膜瘤", "lemmaDesc": "矢状窦旁脑膜瘤（parasagittal meningioma）占脑膜瘤的23%...", "lemmaUrl": "http://baike.baidu.com/item/%E7%9F%A2%E7%8A%B6%E7%AA%A6%E6%97%81%E8%84%91%E8%86%9C%E7%98%A4/4202450", "lemmaPic": []}, {"lemmaId": 5321128, "lemmaTitle": "口底多间隙感染", "lemmaCroppedTitle": "口底多间隙感染", "lemmaDesc": "口底多间隙感染又称口底蜂窝组织炎，曾被认为是颌面部最严重而治疗最困难的炎症之一。...", "lemmaUrl": "http://baike.baidu.com/item/%E5%8F%A3%E5%BA%95%E5%A4%9A%E9%97%B4%E9%9A%99%E6%84%9F%E6%9F%93/5321128", "lemmaPic": []}, {"lemmaId": 3639695, "lemmaTitle": "脉络膜骨瘤", "lemmaCroppedTitle": "脉络膜骨瘤", "lemmaDesc": "脉络膜骨瘤是一种发生于脉络膜组织的良性肿瘤，主要由成熟骨组织构成。该病多见于20...", "lemmaUrl": "http://baike.baidu.com/item/%E8%84%89%E7%BB%9C%E8%86%9C%E9%AA%A8%E7%98%A4/3639695", "lemmaPic": []}, {"lemmaId": 15181305, "lemmaTitle": "鼻腔鼻窦癌", "lemmaCroppedTitle": "鼻腔鼻窦癌", "lemmaDesc": "鼻腔及鼻窦恶性肿瘤的发病率位居耳鼻咽喉科恶性肿瘤的第三位，仅次于鼻咽癌和喉癌。其...", "lemmaUrl": "http://baike.baidu.com/item/%E9%BC%BB%E8%85%94%E9%BC%BB%E7%AA%A6%E7%99%8C/15181305", "lemmaPic": []}, {"lemmaId": 5280952, "lemmaTitle": "泪液分泌过多", "lemmaCroppedTitle": "泪液分泌过多", "lemmaDesc": "泪液分泌过多是泪腺功能亢进的结果，一般情况下，除了需不断擦拭泪液外，无不良反应。...", "lemmaUrl": "http://baike.baidu.com/item/%E6%B3%AA%E6%B6%B2%E5%88%86%E6%B3%8C%E8%BF%87%E5%A4%9A/5280952", "lemmaPic": []}, {"lemmaId": 12428322, "lemmaTitle": "高尿酸血症与痛风", "lemmaCroppedTitle": "高尿酸血症与痛风", "lemmaDesc": "高尿酸血症与痛风是嘌呤代谢障碍引起的代谢性疾病，但痛风发病有明显的异质性，除高尿...", "lemmaUrl": "http://baike.baidu.com/item/%E9%AB%98%E5%B0%BF%E9%85%B8%E8%A1%80%E7%97%87%E4%B8%8E%E7%97%9B%E9%A3%8E/12428322", "lemmaPic": []}, {"lemmaId": 700271, "lemmaTitle": "肾盂肿瘤和输尿管肿瘤", "lemmaCroppedTitle": "肾盂肿瘤和输尿管肿瘤", "lemmaDesc": "肾盂癌系发生在肾盂或肾盏上皮的一种肿瘤，约占所有尿路上皮肿瘤的10%左右。本病多...", "lemmaUrl": "http://baike.baidu.com/item/%E8%82%BE%E7%9B%82%E8%82%BF%E7%98%A4%E5%92%8C%E8%BE%93%E5%B0%BF%E7%AE%A1%E8%82%BF%E7%98%A4/700271", "lemmaPic": []}, {"lemmaId": 5280499, "lemmaTitle": "绿脓杆菌性角膜溃疡", "lemmaCroppedTitle": "绿脓杆菌性角膜溃疡", "lemmaDesc": "绿脓杆菌性角膜溃疡由绿脓杆菌感染引起，是一种严重的化脓性角膜炎，症状剧烈，发展迅...", "lemmaUrl": "http://baike.baidu.com/item/%E7%BB%BF%E8%84%93%E6%9D%86%E8%8F%8C%E6%80%A7%E8%A7%92%E8%86%9C%E6%BA%83%E7%96%A1/5280499", "lemmaPic": []}, {"lemmaId": 2830320, "lemmaTitle": "爆震性聋", "lemmaCroppedTitle": "爆震性聋", "lemmaDesc": "爆震性聋指由于枪炮射击、炸弹及其他爆炸物爆炸时所产生的压力波引起中耳、内耳损伤，...", "lemmaUrl": "http://baike.baidu.com/item/%E7%88%86%E9%9C%87%E6%80%A7%E8%81%8B/2830320", "lemmaPic": []}, {"lemmaId": 10258361, "lemmaTitle": "阴囊损伤", "lemmaCroppedTitle": "阴囊损伤", "lemmaDesc": "阴囊损伤常见于战时的枪伤和锐器伤，运动场上或工农业劳动中的撞伤，玩耍、斗殴时的踢...", "lemmaUrl": "http://baike.baidu.com/item/%E9%98%B4%E5%9B%8A%E6%8D%9F%E4%BC%A4/10258361", "lemmaPic": []}, {"lemmaId": 2346300, "lemmaTitle": "急性硫化氢中毒", "lemmaCroppedTitle": "急性硫化氢中毒", "lemmaDesc": "急性硫化氢中毒是在短期内吸入较大量硫化氢气体后引起的以中枢神经系统、呼吸系统为主...", "lemmaUrl": "http://baike.baidu.com/item/%E6%80%A5%E6%80%A7%E7%A1%AB%E5%8C%96%E6%B0%A2%E4%B8%AD%E6%AF%92/2346300", "lemmaPic": []}, {"lemmaId": 7933078, "lemmaTitle": "肠系膜脂肪炎", "lemmaCroppedTitle": "肠系膜脂肪炎", "lemmaDesc": "肠系膜脂肪炎是一种少见的肠系膜病变，临床上主要表现为腹痛、腹部包块。Dgder于...", "lemmaUrl": "http://baike.baidu.com/item/%E8%82%A0%E7%B3%BB%E8%86%9C%E8%84%82%E8%82%AA%E7%82%8E/7933078", "lemmaPic": []}, {"lemmaId": 7254563, "lemmaTitle": "尾骨骨折与脱位", "lemmaCroppedTitle": "尾骨骨折与脱位", "lemmaDesc": "尾部骨折与脱位较骶骨骨折明显多见，尤以女性为多，常见于生活及运动意外时。疼痛程度...", "lemmaUrl": "http://baike.baidu.com/item/%E5%B0%BE%E9%AA%A8%E9%AA%A8%E6%8A%98%E4%B8%8E%E8%84%B1%E4%BD%8D/7254563", "lemmaPic": []}, {"lemmaId": 896884, "lemmaTitle": "诺瓦克病毒性胃肠炎", "lemmaCroppedTitle": "诺瓦克病毒性胃肠炎", "lemmaDesc": "诺瓦克病毒是急性胃肠炎的主要病原之一。本病全年均可发生，多在寒冷季节发病。197...", "lemmaUrl": "http://baike.baidu.com/item/%E8%AF%BA%E7%93%A6%E5%85%8B%E7%97%85%E6%AF%92%E6%80%A7%E8%83%83%E8%82%A0%E7%82%8E/896884", "lemmaPic": []}, {"lemmaId": 11006837, "lemmaTitle": "筋痿", "lemmaCroppedTitle": "筋痿", "lemmaDesc": "痿病系指外感或内伤，使精血受损，肌肉筋脉失养以致肢体弛缓、软弱无力，甚至日久不用...", "lemmaUrl": "http://baike.baidu.com/item/%E7%AD%8B%E7%97%BF/11006837", "lemmaPic": []}, {"lemmaId": 8532777, "lemmaTitle": "高原适应不全症", "lemmaCroppedTitle": "高原适应不全症", "lemmaDesc": "海拔在3000m以上的地区，称为高原地区，其特点为气压低，氧分压也相应降低，易导...", "lemmaUrl": "http://baike.baidu.com/item/%E9%AB%98%E5%8E%9F%E9%80%82%E5%BA%94%E4%B8%8D%E5%85%A8%E7%97%87/8532777", "lemmaPic": []}, {"lemmaId": 4019513, "lemmaTitle": "小肠原发性恶性淋巴瘤", "lemmaCroppedTitle": "小肠原发性恶性淋巴瘤", "lemmaDesc": "小肠原发性恶性淋巴瘤起源于小肠黏膜下的淋巴滤泡，较常见，大多数肠道淋巴瘤是全身性...", "lemmaUrl": "http://baike.baidu.com/item/%E5%B0%8F%E8%82%A0%E5%8E%9F%E5%8F%91%E6%80%A7%E6%81%B6%E6%80%A7%E6%B7%8B%E5%B7%B4%E7%98%A4/4019513", "lemmaPic": []}, {"lemmaId": 10009100, "lemmaTitle": "职业性痤疮", "lemmaCroppedTitle": "职业性痤疮", "lemmaDesc": "职业性痤疮是指在生产劳动中接触矿物油类或某些卤代烃类引起的皮肤毛囊、皮脂腺系统的...", "lemmaUrl": "http://baike.baidu.com/item/%E8%81%8C%E4%B8%9A%E6%80%A7%E7%97%A4%E7%96%AE/10009100", "lemmaPic": []}, {"lemmaId": 4637354, "lemmaTitle": "颅骨骨髓炎", "lemmaCroppedTitle": "颅骨骨髓炎", "lemmaDesc": "颅骨骨髓炎（osteomyelitis of skull）是致病菌侵入颅骨引起的...", "lemmaUrl": "http://baike.baidu.com/item/%E9%A2%85%E9%AA%A8%E9%AA%A8%E9%AB%93%E7%82%8E/4637354", "lemmaPic": []}, {"lemmaId": 1380966, "lemmaTitle": "功能性下丘脑性闭经", "lemmaCroppedTitle": "功能性下丘脑性闭经", "lemmaDesc": "下丘脑是生殖的重要器官，下丘脑通过神经传导及垂体-门脉系统调节垂体的功能，使垂体...", "lemmaUrl": "http://baike.baidu.com/item/%E5%8A%9F%E8%83%BD%E6%80%A7%E4%B8%8B%E4%B8%98%E8%84%91%E6%80%A7%E9%97%AD%E7%BB%8F/1380966", "lemmaPic": []}, {"lemmaId": 2389938, "lemmaTitle": "股骨转子下骨折", "lemmaCroppedTitle": "股骨转子下骨折", "lemmaDesc": "股骨转子下骨折，是指自股骨小转子至股骨干中段与近端交界处――即骨髓腔最狭窄处（峡...", "lemmaUrl": "http://baike.baidu.com/item/%E8%82%A1%E9%AA%A8%E8%BD%AC%E5%AD%90%E4%B8%8B%E9%AA%A8%E6%8A%98/2389938", "lemmaPic": []}, {"lemmaId": 10938516, "lemmaTitle": "阴道子宫内膜间质肉瘤", "lemmaCroppedTitle": "阴道子宫内膜间质肉瘤", "lemmaDesc": "阴道子宫内膜间质肉瘤根据恶性程度不同分为低度恶性和高度恶性两种。低度恶性子宫内膜...", "lemmaUrl": "http://baike.baidu.com/item/%E9%98%B4%E9%81%93%E5%AD%90%E5%AE%AB%E5%86%85%E8%86%9C%E9%97%B4%E8%B4%A8%E8%82%89%E7%98%A4/10938516", "lemmaPic": []}, {"lemmaId": 888600, "lemmaTitle": "多重肺部感染", "lemmaCroppedTitle": "多重肺部感染", "lemmaDesc": "多重肺部感染指两种以上（含两种）病原微生物的肺部感染。近年来在重症医院内肺炎和免...", "lemmaUrl": "http://baike.baidu.com/item/%E5%A4%9A%E9%87%8D%E8%82%BA%E9%83%A8%E6%84%9F%E6%9F%93/888600", "lemmaPic": []}, {"lemmaId": 2095499, "lemmaTitle": "老年人恶性心包积液", "lemmaCroppedTitle": "老年人恶性心包积液", "lemmaDesc": "恶性肿瘤进展时侵犯心脏并非少见；原发灶以支气管肺癌纵隔肿瘤多见。结缔组织病、红斑...", "lemmaUrl": "http://baike.baidu.com/item/%E8%80%81%E5%B9%B4%E4%BA%BA%E6%81%B6%E6%80%A7%E5%BF%83%E5%8C%85%E7%A7%AF%E6%B6%B2/2095499", "lemmaPic": []}, {"lemmaId": 15181317, "lemmaTitle": "鼻后滴漏综合征", "lemmaCroppedTitle": "鼻后滴漏综合征", "lemmaDesc": "鼻后滴漏综合征（PNDS）是指鼻炎、鼻窦炎病人鼻腔炎性分泌物倒流，经后鼻孔流入鼻...", "lemmaUrl": "http://baike.baidu.com/item/%E9%BC%BB%E5%90%8E%E6%BB%B4%E6%BC%8F%E7%BB%BC%E5%90%88%E5%BE%81/15181317", "lemmaPic": []}, {"lemmaId": 2446199, "lemmaTitle": "肠出血性大肠埃希杆菌感染", "lemmaCroppedTitle": "肠出血性大肠埃希杆菌感染", "lemmaDesc": "由肠出血性大肠埃希杆菌（EHEC）引起的肠道传染病。EHEC为出血性肠炎之病原，...", "lemmaUrl": "http://baike.baidu.com/item/%E8%82%A0%E5%87%BA%E8%A1%80%E6%80%A7%E5%A4%A7%E8%82%A0%E5%9F%83%E5%B8%8C%E6%9D%86%E8%8F%8C%E6%84%9F%E6%9F%93/2446199", "lemmaPic": []}, {"lemmaId": 5321259, "lemmaTitle": "翼下颌间隙感染", "lemmaCroppedTitle": "翼下颌间隙感染", "lemmaDesc": "翼下颌间隙感染是指翼下颌间隙的急性化脓性感染，主要临床表现是张口受限、咀嚼吞咽疼...", "lemmaUrl": "http://baike.baidu.com/item/%E7%BF%BC%E4%B8%8B%E9%A2%8C%E9%97%B4%E9%9A%99%E6%84%9F%E6%9F%93/5321259", "lemmaPic": []}, {"lemmaId": 4926532, "lemmaTitle": "恐缩症", "lemmaCroppedTitle": "恐缩症", "lemmaDesc": "恐缩症，又称缩阳症，是以恐惧生殖器缩入体内致死的恐怖焦虑发作为特征的一种与文化相...", "lemmaUrl": "http://baike.baidu.com/item/%E6%81%90%E7%BC%A9%E7%97%87/4926532", "lemmaPic": []}, {"lemmaId": 4559671, "lemmaTitle": "重症联合免疫缺陷", "lemmaCroppedTitle": "重症联合免疫缺陷", "lemmaDesc": "由于淋巴样干细胞先天性分化异常，婴儿生后缺乏T细胞和B细胞，故使体液免疫和细胞免...", "lemmaUrl": "http://baike.baidu.com/item/%E9%87%8D%E7%97%87%E8%81%94%E5%90%88%E5%85%8D%E7%96%AB%E7%BC%BA%E9%99%B7/4559671", "lemmaPic": []}, {"lemmaId": 1488068, "lemmaTitle": "肠间脓肿", "lemmaCroppedTitle": "肠间脓肿", "lemmaDesc": "脓液在腹腔内积聚，由肠袢、内脏、肠壁、网膜或肠系膜等粘连包围，与游离腹腔隔离，形...", "lemmaUrl": "http://baike.baidu.com/item/%E8%82%A0%E9%97%B4%E8%84%93%E8%82%BF/1488068", "lemmaPic": []}, {"lemmaId": 8817547, "lemmaTitle": "腐蚀性食管灼伤", "lemmaCroppedTitle": "腐蚀性食管灼伤", "lemmaDesc": "腐蚀性食管灼伤多为误吞强酸或强碱等化学腐蚀剂引起食管化学性灼伤。强碱使食管产生较...", "lemmaUrl": "http://baike.baidu.com/item/%E8%85%90%E8%9A%80%E6%80%A7%E9%A3%9F%E7%AE%A1%E7%81%BC%E4%BC%A4/8817547", "lemmaPic": []}, {"lemmaId": 9463462, "lemmaTitle": "纵隔非霍奇金淋巴瘤", "lemmaCroppedTitle": "纵隔非霍奇金淋巴瘤", "lemmaDesc": "恶性淋巴瘤（malignant lymphoma，ML）是常见恶性肿瘤之一，包括...", "lemmaUrl": "http://baike.baidu.com/item/%E7%BA%B5%E9%9A%94%E9%9D%9E%E9%9C%8D%E5%A5%87%E9%87%91%E6%B7%8B%E5%B7%B4%E7%98%A4/9463462", "lemmaPic": {"width": 694, "height": 437, "url": "https://gss1.bdstatic.com/9vo3dSag_xI4khGkpoWK1HF6hhy/baike/w%3D168/sign=a95e4014bda1cd1105b676268113c8b0/0eb30f2442a7d93399174057aa4bd11373f00152.jpg"}}, {"lemmaId": 12000422, "lemmaTitle": "大脑胶质瘤病", "lemmaCroppedTitle": "大脑胶质瘤病", "lemmaDesc": "大脑胶质瘤病（GC），又名弥漫性星形细胞瘤、脑弥漫性胶质瘤等，是一种临床少见的中...", "lemmaUrl": "http://baike.baidu.com/item/%E5%A4%A7%E8%84%91%E8%83%B6%E8%B4%A8%E7%98%A4%E7%97%85/12000422", "lemmaPic": []}, {"lemmaId": 10455190, "lemmaTitle": "室性逸搏及室性逸搏心律", "lemmaCroppedTitle": "室性逸搏及室性逸搏心律", "lemmaDesc": "当窦房结或心房内的激动由于某些原因不能按时下传，则下一级的起搏点房室交接区，应发...", "lemmaUrl": "http://baike.baidu.com/item/%E5%AE%A4%E6%80%A7%E9%80%B8%E6%90%8F%E5%8F%8A%E5%AE%A4%E6%80%A7%E9%80%B8%E6%90%8F%E5%BF%83%E5%BE%8B/10455190", "lemmaPic": []}, {"lemmaId": 9004898, "lemmaTitle": "闭合性脑外伤", "lemmaCroppedTitle": "闭合性脑外伤", "lemmaDesc": "闭合性脑外伤又称闭合性脑损伤，多为交通事故、跌倒、坠落等意外伤及产伤所致。战时多...", "lemmaUrl": "http://baike.baidu.com/item/%E9%97%AD%E5%90%88%E6%80%A7%E8%84%91%E5%A4%96%E4%BC%A4/9004898", "lemmaPic": []}, {"lemmaId": 3968611, "lemmaTitle": "毛母细胞瘤", "lemmaCroppedTitle": "毛母细胞瘤", "lemmaDesc": "毛母细胞瘤和毛发上皮瘤指主要向毛囊生发部分分化的良性肿瘤。不同作者对毛囊生发部肿...", "lemmaUrl": "http://baike.baidu.com/item/%E6%AF%9B%E6%AF%8D%E7%BB%86%E8%83%9E%E7%98%A4/3968611", "lemmaPic": []}, {"lemmaId": 373684, "lemmaTitle": "单纯性乳腺增生症", "lemmaCroppedTitle": "单纯性乳腺增生症", "lemmaDesc": "单纯性乳腺上皮增生症是乳腺结构不良症的早期病变。主要表现为乳房胀痛、乳房肿块，并...", "lemmaUrl": "http://baike.baidu.com/item/%E5%8D%95%E7%BA%AF%E6%80%A7%E4%B9%B3%E8%85%BA%E5%A2%9E%E7%94%9F%E7%97%87/373684", "lemmaPic": []}, {"lemmaId": 3883400, "lemmaTitle": "血管角化瘤", "lemmaCroppedTitle": "血管角化瘤", "lemmaDesc": "血管角化瘤也称血管角皮瘤，是一种以真皮上部毛细血管扩张和表皮角化过度为特征的皮肤...", "lemmaUrl": "http://baike.baidu.com/item/%E8%A1%80%E7%AE%A1%E8%A7%92%E5%8C%96%E7%98%A4/3883400", "lemmaPic": []}, {"lemmaId": 2288039, "lemmaTitle": "缺血性坏死", "lemmaCroppedTitle": "缺血性坏死", "lemmaDesc": "缺血性坏死的特征性病理学改变是由于血液供应受阻而导致的骨细胞死亡，缺血性坏死的严...", "lemmaUrl": "http://baike.baidu.com/item/%E7%BC%BA%E8%A1%80%E6%80%A7%E5%9D%8F%E6%AD%BB/2288039", "lemmaPic": []}, {"lemmaId": 6518818, "lemmaTitle": "结肠脂肪瘤", "lemmaCroppedTitle": "结肠脂肪瘤", "lemmaDesc": "脂肪瘤是常见的大肠内非上皮性良性肿瘤，结肠近端多见，尤以盲肠为甚。本病病因不明，...", "lemmaUrl": "http://baike.baidu.com/item/%E7%BB%93%E8%82%A0%E8%84%82%E8%82%AA%E7%98%A4/6518818", "lemmaPic": []}, {"lemmaId": 2845926, "lemmaTitle": "真性小眼球", "lemmaCroppedTitle": "真性小眼球", "lemmaDesc": "真性小眼球是胎儿发育过程中眼球在胚胎裂闭合以后停止发育，使眼球体积较正常者小，但...", "lemmaUrl": "http://baike.baidu.com/item/%E7%9C%9F%E6%80%A7%E5%B0%8F%E7%9C%BC%E7%90%83/2845926", "lemmaPic": []}, {"lemmaId": 5318955, "lemmaTitle": "神经发育迟滞", "lemmaCroppedTitle": "神经发育迟滞", "lemmaDesc": "发育迟缓是指在生长发育过程中出现速度放慢或是顺序异常等现象，发病率在6～8%之间...", "lemmaUrl": "http://baike.baidu.com/item/%E7%A5%9E%E7%BB%8F%E5%8F%91%E8%82%B2%E8%BF%9F%E6%BB%9E/5318955", "lemmaPic": []}, {"lemmaId": 2774837, "lemmaTitle": "微小病毒感染", "lemmaCroppedTitle": "微小病毒感染", "lemmaDesc": "微小病毒是目前已知最小的DNA病毒，早已知道微小病毒可在小的哺乳动物中引起疾病，...", "lemmaUrl": "http://baike.baidu.com/item/%E5%BE%AE%E5%B0%8F%E7%97%85%E6%AF%92%E6%84%9F%E6%9F%93/2774837", "lemmaPic": []}, {"lemmaId": 1857409, "lemmaTitle": "消化道憩室病", "lemmaCroppedTitle": "消化道憩室病", "lemmaDesc": "消化道憩室病是消化道的局部囊样膨出，有真性（全层膨出）与假性（仅有黏膜和黏膜下层...", "lemmaUrl": "http://baike.baidu.com/item/%E6%B6%88%E5%8C%96%E9%81%93%E6%86%A9%E5%AE%A4%E7%97%85/1857409", "lemmaPic": []}, {"lemmaId": 2174231, "lemmaTitle": "周围动脉栓塞", "lemmaCroppedTitle": "周围动脉栓塞", "lemmaDesc": "周围动脉栓塞指周围动脉被来自某个部位的血栓或栓子堵塞，继而造成远端发生急性缺血，...", "lemmaUrl": "http://baike.baidu.com/item/%E5%91%A8%E5%9B%B4%E5%8A%A8%E8%84%89%E6%A0%93%E5%A1%9E/2174231", "lemmaPic": []}, {"lemmaId": 3455671, "lemmaTitle": "小儿烧伤", "lemmaCroppedTitle": "小儿烧伤", "lemmaDesc": "烧伤是小儿常见的意外事故之一。因年龄的特点及活动范围与成人不同，日常生活中以热水...", "lemmaUrl": "http://baike.baidu.com/item/%E5%B0%8F%E5%84%BF%E7%83%A7%E4%BC%A4/3455671", "lemmaPic": []}, {"lemmaId": 490160, "lemmaTitle": "陶瓷样胆囊", "lemmaCroppedTitle": "陶瓷样胆囊", "lemmaDesc": "陶瓷样胆囊即胆囊壁的广泛钙化，也称钙化性胆囊、瓷瓶样胆囊、瓷胆囊、陶瓷样胆囊病等...", "lemmaUrl": "http://baike.baidu.com/item/%E9%99%B6%E7%93%B7%E6%A0%B7%E8%83%86%E5%9B%8A/490160", "lemmaPic": []}, {"lemmaId": 11039274, "lemmaTitle": "妊娠合并白血病", "lemmaCroppedTitle": "妊娠合并白血病", "lemmaDesc": "白血病是一种原因不明的造血组织常见的恶性疾病，其特征是某一类型白细胞在骨髓或其他...", "lemmaUrl": "http://baike.baidu.com/item/%E5%A6%8A%E5%A8%A0%E5%90%88%E5%B9%B6%E7%99%BD%E8%A1%80%E7%97%85/11039274", "lemmaPic": []}, {"lemmaId": 7127894, "lemmaTitle": "肠扭转综合征", "lemmaCroppedTitle": "肠扭转综合征", "lemmaDesc": "肠扭转综合征系指末端回肠与乙状结肠互相缠绕、扭结而产生的一组肠梗阻症候群。它可致...", "lemmaUrl": "http://baike.baidu.com/item/%E8%82%A0%E6%89%AD%E8%BD%AC%E7%BB%BC%E5%90%88%E5%BE%81/7127894", "lemmaPic": []}, {"lemmaId": 2180081, "lemmaTitle": "出血性输卵管炎", "lemmaCroppedTitle": "出血性输卵管炎", "lemmaDesc": "出血性输卵管炎是急性输卵管炎的一种特殊类型，在输卵管间质层发生出血，突破黏膜上皮...", "lemmaUrl": "http://baike.baidu.com/item/%E5%87%BA%E8%A1%80%E6%80%A7%E8%BE%93%E5%8D%B5%E7%AE%A1%E7%82%8E/2180081", "lemmaPic": []}, {"lemmaId": 944089, "lemmaTitle": "先天性食管狭窄", "lemmaCroppedTitle": "先天性食管狭窄", "lemmaDesc": "先天性食管狭窄（CES）是指生后即已存在的因食管壁结构内在狭窄的畸形，在临床上十...", "lemmaUrl": "http://baike.baidu.com/item/%E5%85%88%E5%A4%A9%E6%80%A7%E9%A3%9F%E7%AE%A1%E7%8B%AD%E7%AA%84/944089", "lemmaPic": []}, {"lemmaId": 3325207, "lemmaTitle": "甲状腺结核", "lemmaCroppedTitle": "甲状腺结核", "lemmaDesc": "甲状腺结核是在临床上罕见的结核病，近年研究认为，人类免疫缺陷时肺外结核的患病率明...", "lemmaUrl": "http://baike.baidu.com/item/%E7%94%B2%E7%8A%B6%E8%85%BA%E7%BB%93%E6%A0%B8/3325207", "lemmaPic": []}, {"lemmaId": 3455213, "lemmaTitle": "十二指肠瘘", "lemmaCroppedTitle": "十二指肠瘘", "lemmaDesc": "十二指肠瘘是一种严重并发症，它引起一系列全身和局部病理生理紊乱，处理上十分棘手。...", "lemmaUrl": "http://baike.baidu.com/item/%E5%8D%81%E4%BA%8C%E6%8C%87%E8%82%A0%E7%98%98/3455213", "lemmaPic": []}, {"lemmaId": 361294, "lemmaTitle": "脾脓肿", "lemmaCroppedTitle": "脾脓肿", "lemmaDesc": "脾脓肿是一种少见病。脾脏是血液中微生物的高选过滤器和吞噬活动中心，具有抵抗局部感...", "lemmaUrl": "http://baike.baidu.com/item/%E8%84%BE%E8%84%93%E8%82%BF/361294", "lemmaPic": []}, {"lemmaId": 9208535, "lemmaTitle": "绿猴病", "lemmaCroppedTitle": "绿猴病", "lemmaDesc": "绿猴病又称马尔堡病，非洲出血热，马尔堡-埃博拉病毒病。中国尚无绿猴病发生和流行的...", "lemmaUrl": "http://baike.baidu.com/item/%E7%BB%BF%E7%8C%B4%E7%97%85/9208535", "lemmaPic": []}, {"lemmaId": 490676, "lemmaTitle": "单侧肾缺如", "lemmaCroppedTitle": "单侧肾缺如", "lemmaDesc": "单侧肾缺如即单侧肾未发育，又称单侧肾，比双肾缺如的发生频率要高。但因没有特异性的...", "lemmaUrl": "http://baike.baidu.com/item/%E5%8D%95%E4%BE%A7%E8%82%BE%E7%BC%BA%E5%A6%82/490676", "lemmaPic": []}, {"lemmaId": 7568080, "lemmaTitle": "真菌过敏症", "lemmaCroppedTitle": "真菌过敏症", "lemmaDesc": "真菌（含霉菌及不发霉的菌株）的孢子和菌丝经各种途径进入人体后，都有可能引起过敏反...", "lemmaUrl": "http://baike.baidu.com/item/%E7%9C%9F%E8%8F%8C%E8%BF%87%E6%95%8F%E7%97%87/7568080", "lemmaPic": []}, {"lemmaId": 6904697, "lemmaTitle": "异色性虹膜睫状体炎", "lemmaCroppedTitle": "异色性虹膜睫状体炎", "lemmaDesc": "异色性虹膜睫状体炎（HI）是一种主要累及单眼的慢性非肉芽肿性虹膜睫状体炎。又称F...", "lemmaUrl": "http://baike.baidu.com/item/%E5%BC%82%E8%89%B2%E6%80%A7%E8%99%B9%E8%86%9C%E7%9D%AB%E7%8A%B6%E4%BD%93%E7%82%8E/6904697", "lemmaPic": []}, {"lemmaId": 9832002, "lemmaTitle": "儿童遗粪症", "lemmaCroppedTitle": "儿童遗粪症", "lemmaDesc": "遗粪症是指4岁以后的儿童仍不能自行控制大便，但无明显器质性病因的一种疾病，属排泄...", "lemmaUrl": "http://baike.baidu.com/item/%E5%84%BF%E7%AB%A5%E9%81%97%E7%B2%AA%E7%97%87/9832002", "lemmaPic": []}, {"lemmaId": 10455270, "lemmaTitle": "韧带样型纤维瘤病", "lemmaCroppedTitle": "韧带样型纤维瘤病", "lemmaDesc": "韧带样型纤维瘤病是成纤维细胞克隆性增生性病变，位于深部软组织，以浸润性生长和易于...", "lemmaUrl": "http://baike.baidu.com/item/%E9%9F%A7%E5%B8%A6%E6%A0%B7%E5%9E%8B%E7%BA%A4%E7%BB%B4%E7%98%A4%E7%97%85/10455270", "lemmaPic": []}, {"lemmaId": 930577, "lemmaTitle": "瘢痕性类天疱疮", "lemmaCroppedTitle": "瘢痕性类天疱疮", "lemmaDesc": "瘢痕性类天疱疮为一自身免疫疾病，由于抗结膜基底膜抗体与抗原的结合导致炎症。结膜慢...", "lemmaUrl": "http://baike.baidu.com/item/%E7%98%A2%E7%97%95%E6%80%A7%E7%B1%BB%E5%A4%A9%E7%96%B1%E7%96%AE/930577", "lemmaPic": []}, {"lemmaId": 5120344, "lemmaTitle": "完全性大动脉错位", "lemmaCroppedTitle": "完全性大动脉错位", "lemmaDesc": "由于发育畸形而引起大血管间关系的变化，都可称为大血管错位，包括完全性大血管错位、...", "lemmaUrl": "http://baike.baidu.com/item/%E5%AE%8C%E5%85%A8%E6%80%A7%E5%A4%A7%E5%8A%A8%E8%84%89%E9%94%99%E4%BD%8D/5120344", "lemmaPic": []}, {"lemmaId": 3599260, "lemmaTitle": "嗜酸细胞增多性非变态反应性鼻炎", "lemmaCroppedTitle": "嗜酸细胞增多性非变态反应性鼻炎", "lemmaDesc": "嗜酸细胞增多性非变态反应性鼻又称非变应性鼻炎伴嗜酸细胞增多综合征（NARES），...", "lemmaUrl": "http://baike.baidu.com/item/%E5%97%9C%E9%85%B8%E7%BB%86%E8%83%9E%E5%A2%9E%E5%A4%9A%E6%80%A7%E9%9D%9E%E5%8F%98%E6%80%81%E5%8F%8D%E5%BA%94%E6%80%A7%E9%BC%BB%E7%82%8E/3599260", "lemmaPic": []}, {"lemmaId": 5243172, "lemmaTitle": "A-V综合征", "lemmaCroppedTitle": "A-V综合征", "lemmaDesc": "A-V综合征又称A-V现象，是一种水平性斜视的亚型，水平位的偏斜程度与垂直方向有...", "lemmaUrl": "http://baike.baidu.com/item/A-V%E7%BB%BC%E5%90%88%E5%BE%81/5243172", "lemmaPic": []}, {"lemmaId": 8470095, "lemmaTitle": "立克次体痘", "lemmaCroppedTitle": "立克次体痘", "lemmaDesc": "立克次体痘是一种急性发热性疾病。媒介为一种小的无色螨，血异皮螨，分布广泛。它感染...", "lemmaUrl": "http://baike.baidu.com/item/%E7%AB%8B%E5%85%8B%E6%AC%A1%E4%BD%93%E7%97%98/8470095", "lemmaPic": []}, {"lemmaId": 6710375, "lemmaTitle": "子宫颈平滑肌瘤", "lemmaCroppedTitle": "子宫颈平滑肌瘤", "lemmaDesc": "子宫颈平滑肌瘤比较少见，因为部位特殊，与发生于子宫体部的子宫肌瘤相比，其症状、体...", "lemmaUrl": "http://baike.baidu.com/item/%E5%AD%90%E5%AE%AB%E9%A2%88%E5%B9%B3%E6%BB%91%E8%82%8C%E7%98%A4/6710375", "lemmaPic": []}, {"lemmaId": 12676605, "lemmaTitle": "小儿呼吸道合胞病毒肺炎", "lemmaCroppedTitle": "小儿呼吸道合胞病毒肺炎", "lemmaDesc": "呼吸道合胞病毒肺炎简称合胞病毒肺炎，是一种小儿常见的间质性肺炎，多发生于婴幼儿。...", "lemmaUrl": "http://baike.baidu.com/item/%E5%B0%8F%E5%84%BF%E5%91%BC%E5%90%B8%E9%81%93%E5%90%88%E8%83%9E%E7%97%85%E6%AF%92%E8%82%BA%E7%82%8E/12676605", "lemmaPic": []}, {"lemmaId": 10816163, "lemmaTitle": "蟹睛", "lemmaCroppedTitle": "蟹睛", "lemmaDesc": "病证名。系指黑睛破损，黄仁从破口突出如珠，形似蟹眼，周围绕以白翳，眼痛剧烈的病证...", "lemmaUrl": "http://baike.baidu.com/item/%E8%9F%B9%E7%9D%9B/10816163", "lemmaPic": []}, {"lemmaId": 3767867, "lemmaTitle": "老年人肾病综合征", "lemmaCroppedTitle": "老年人肾病综合征", "lemmaDesc": "肾病综合征是以大量蛋白尿（≥3.5克/天）、低蛋白血症（≤30克/天）、高脂血症...", "lemmaUrl": "http://baike.baidu.com/item/%E8%80%81%E5%B9%B4%E4%BA%BA%E8%82%BE%E7%97%85%E7%BB%BC%E5%90%88%E5%BE%81/3767867", "lemmaPic": []}, {"lemmaId": 9261071, "lemmaTitle": "胡桃夹食管", "lemmaCroppedTitle": "胡桃夹食管", "lemmaDesc": "也称高压性食管蠕动、超挤压食管及高振幅蠕动食管等。本病是一种以食管动力异常-症状...", "lemmaUrl": "http://baike.baidu.com/item/%E8%83%A1%E6%A1%83%E5%A4%B9%E9%A3%9F%E7%AE%A1/9261071", "lemmaPic": []}, {"lemmaId": 5120531, "lemmaTitle": "房室管畸形", "lemmaCroppedTitle": "房室管畸形", "lemmaDesc": "房室管畸形又称心内膜垫缺损和房室间隔缺损，是胚胎发育过程中心内膜垫发育不全或停顿...", "lemmaUrl": "http://baike.baidu.com/item/%E6%88%BF%E5%AE%A4%E7%AE%A1%E7%95%B8%E5%BD%A2/5120531", "lemmaPic": []}, {"lemmaId": 8455794, "lemmaTitle": "肺炎球菌脑膜炎", "lemmaCroppedTitle": "肺炎球菌脑膜炎", "lemmaDesc": "肺炎球菌脑膜炎呈散发，多见于冬春季，以婴幼儿及老年或有慢性病患者为多，但成人也不...", "lemmaUrl": "http://baike.baidu.com/item/%E8%82%BA%E7%82%8E%E7%90%83%E8%8F%8C%E8%84%91%E8%86%9C%E7%82%8E/8455794", "lemmaPic": []}, {"lemmaId": 4444262, "lemmaTitle": "皮肤淋巴细胞瘤", "lemmaCroppedTitle": "皮肤淋巴细胞瘤", "lemmaDesc": "皮肤淋巴细胞瘤又称Spiegler-fendt肉样瘤，反应性良性淋巴组织增生。该...", "lemmaUrl": "http://baike.baidu.com/item/%E7%9A%AE%E8%82%A4%E6%B7%8B%E5%B7%B4%E7%BB%86%E8%83%9E%E7%98%A4/4444262", "lemmaPic": []}, {"lemmaId": 4653246, "lemmaTitle": "新生儿晚期代谢性酸中毒", "lemmaCroppedTitle": "新生儿晚期代谢性酸中毒", "lemmaDesc": "新生儿晚期代谢性酸中毒与饮食中蛋白质的质和量、肾功能发育不完善及肾脏酸负荷过高等...", "lemmaUrl": "http://baike.baidu.com/item/%E6%96%B0%E7%94%9F%E5%84%BF%E6%99%9A%E6%9C%9F%E4%BB%A3%E8%B0%A2%E6%80%A7%E9%85%B8%E4%B8%AD%E6%AF%92/4653246", "lemmaPic": []}, {"lemmaId": 3984149, "lemmaTitle": "柯萨奇病毒疹", "lemmaCroppedTitle": "柯萨奇病毒疹", "lemmaDesc": "柯萨奇病毒疹是指由柯萨奇病毒引起的斑疹及丘疹等皮肤损害。柯萨奇病毒常见A组及B级...", "lemmaUrl": "http://baike.baidu.com/item/%E6%9F%AF%E8%90%A8%E5%A5%87%E7%97%85%E6%AF%92%E7%96%B9/3984149", "lemmaPic": []}, {"lemmaId": 12677263, "lemmaTitle": "髓内肿瘤", "lemmaCroppedTitle": "髓内肿瘤", "lemmaDesc": "髓内肿瘤（intramedullary tumor）又称脊髓髓内肿瘤（intra...", "lemmaUrl": "http://baike.baidu.com/item/%E9%AB%93%E5%86%85%E8%82%BF%E7%98%A4/12677263", "lemmaPic": []}, {"lemmaId": 3470727, "lemmaTitle": "放射性甲状腺炎", "lemmaCroppedTitle": "放射性甲状腺炎", "lemmaDesc": "放射性甲状腺炎是因电离辐射导致甲状腺不同程度的炎症性变化，并引起甲状腺功能不同的...", "lemmaUrl": "http://baike.baidu.com/item/%E6%94%BE%E5%B0%84%E6%80%A7%E7%94%B2%E7%8A%B6%E8%85%BA%E7%82%8E/3470727", "lemmaPic": []}, {"lemmaId": 743251, "lemmaTitle": "特发性非硬化性门脉高压综合征", "lemmaCroppedTitle": "特发性非硬化性门脉高压综合征", "lemmaDesc": "特发性非硬化性门脉高压综合征又名肝内型窦前阻塞性门脉高压症。门静脉血栓形成、门静...", "lemmaUrl": "http://baike.baidu.com/item/%E7%89%B9%E5%8F%91%E6%80%A7%E9%9D%9E%E7%A1%AC%E5%8C%96%E6%80%A7%E9%97%A8%E8%84%89%E9%AB%98%E5%8E%8B%E7%BB%BC%E5%90%88%E5%BE%81/743251", "lemmaPic": []}, {"lemmaId": 3720410, "lemmaTitle": "片形吸虫病", "lemmaCroppedTitle": "片形吸虫病", "lemmaDesc": "片形吸虫病是指由肝片形吸虫和巨片形吸虫寄生于草食性哺乳动物的肝胆管内或人体，而引...", "lemmaUrl": "http://baike.baidu.com/item/%E7%89%87%E5%BD%A2%E5%90%B8%E8%99%AB%E7%97%85/3720410", "lemmaPic": []}, {"lemmaId": 568291, "lemmaTitle": "宫颈微小型浸润癌", "lemmaCroppedTitle": "宫颈微小型浸润癌", "lemmaDesc": "宫颈微小型浸润癌是指只能在显微镜下检出而临床难以发现的临床前宫颈癌。宫颈微小型浸...", "lemmaUrl": "http://baike.baidu.com/item/%E5%AE%AB%E9%A2%88%E5%BE%AE%E5%B0%8F%E5%9E%8B%E6%B5%B8%E6%B6%A6%E7%99%8C/568291", "lemmaPic": []}, {"lemmaId": 2075811, "lemmaTitle": "老年人多发性骨髓瘤", "lemmaCroppedTitle": "老年人多发性骨髓瘤", "lemmaDesc": "多发性骨髓瘤是以克隆性浆细胞无节制增生为特点的恶性肿瘤，增生的浆细胞浸润及其所生...", "lemmaUrl": "http://baike.baidu.com/item/%E8%80%81%E5%B9%B4%E4%BA%BA%E5%A4%9A%E5%8F%91%E6%80%A7%E9%AA%A8%E9%AB%93%E7%98%A4/2075811", "lemmaPic": []}, {"lemmaId": 712149, "lemmaTitle": "腹主动脉血栓形成综合征", "lemmaCroppedTitle": "腹主动脉血栓形成综合征", "lemmaDesc": "腹主动脉血栓形成综合征，又称主动脉分叉闭塞综合征或末端主动脉血栓形成综合征、渐进...", "lemmaUrl": "http://baike.baidu.com/item/%E8%85%B9%E4%B8%BB%E5%8A%A8%E8%84%89%E8%A1%80%E6%A0%93%E5%BD%A2%E6%88%90%E7%BB%BC%E5%90%88%E5%BE%81/712149", "lemmaPic": []}, {"lemmaId": 3143431, "lemmaTitle": "面神经瘤", "lemmaCroppedTitle": "面神经瘤", "lemmaDesc": "原发于面神经鞘膜的肿瘤，又称为神经鞘膜瘤或雪旺鞘膜瘤。可发生在全程面神经的一段纤...", "lemmaUrl": "http://baike.baidu.com/item/%E9%9D%A2%E7%A5%9E%E7%BB%8F%E7%98%A4/3143431", "lemmaPic": []}], "total": 7246, "totalPage": 73, "page": 42, "fromLemma": 0}