{"lemmaList": [{"lemmaId": 12000414, "lemmaTitle": "痴呆伴发精神行为障碍", "lemmaCroppedTitle": "痴呆伴发精神行为障碍", "lemmaDesc": "痴呆伴发精神行为障碍（BPSD）是指痴呆的症状之一。包括幻觉、妄想、偏执、猜疑、...", "lemmaUrl": "http://baike.baidu.com/item/%E7%97%B4%E5%91%86%E4%BC%B4%E5%8F%91%E7%B2%BE%E7%A5%9E%E8%A1%8C%E4%B8%BA%E9%9A%9C%E7%A2%8D/12000414", "lemmaPic": []}, {"lemmaId": 12757277, "lemmaTitle": "乳腺神经纤维瘤", "lemmaCroppedTitle": "乳腺神经纤维瘤", "lemmaDesc": "神经纤维瘤是发生在神经主干或神经末梢的一种良性肿瘤，可单发或多发。多发性神经纤维...", "lemmaUrl": "http://baike.baidu.com/item/%E4%B9%B3%E8%85%BA%E7%A5%9E%E7%BB%8F%E7%BA%A4%E7%BB%B4%E7%98%A4/12757277", "lemmaPic": []}, {"lemmaId": 4251158, "lemmaTitle": "瘢痕型芽生菌病", "lemmaCroppedTitle": "瘢痕型芽生菌病", "lemmaDesc": "又称洛博芽生菌病、罗佰病，是由Loboa结节孢子菌引起的一种瘢痕型、疣状、结节性...", "lemmaUrl": "http://baike.baidu.com/item/%E7%98%A2%E7%97%95%E5%9E%8B%E8%8A%BD%E7%94%9F%E8%8F%8C%E7%97%85/4251158", "lemmaPic": []}, {"lemmaId": 12428709, "lemmaTitle": "小儿结核性胸膜炎", "lemmaCroppedTitle": "小儿结核性胸膜炎", "lemmaDesc": "胸膜炎指由结核菌感染引起的渗出性炎症，常伴有胸腔积液。可为原发灶直接侵入或血行播...", "lemmaUrl": "http://baike.baidu.com/item/%E5%B0%8F%E5%84%BF%E7%BB%93%E6%A0%B8%E6%80%A7%E8%83%B8%E8%86%9C%E7%82%8E/12428709", "lemmaPic": []}, {"lemmaId": 12700756, "lemmaTitle": "枕颈（寰）关节损伤", "lemmaCroppedTitle": "枕颈（寰）关节损伤", "lemmaDesc": "枕颈（寰）关节损伤占严重颈椎损伤的1%～6%。通常是由剧烈的暴力如交通事故及高处...", "lemmaUrl": "http://baike.baidu.com/item/%E6%9E%95%E9%A2%88%EF%BC%88%E5%AF%B0%EF%BC%89%E5%85%B3%E8%8A%82%E6%8D%9F%E4%BC%A4/12700756", "lemmaPic": []}, {"lemmaId": 12428981, "lemmaTitle": "胸-腰椎椎体单纯性楔形压缩骨折", "lemmaCroppedTitle": "胸-腰椎椎体单纯性楔形压缩骨折", "lemmaDesc": "胸-腰椎椎体单纯性楔形压缩骨折为临床上最为多见的类型，多由高处落下臀部或足跟部着...", "lemmaUrl": "http://baike.baidu.com/item/%E8%83%B8-%E8%85%B0%E6%A4%8E%E6%A4%8E%E4%BD%93%E5%8D%95%E7%BA%AF%E6%80%A7%E6%A5%94%E5%BD%A2%E5%8E%8B%E7%BC%A9%E9%AA%A8%E6%8A%98/12428981", "lemmaPic": []}, {"lemmaId": 4584286, "lemmaTitle": "诺卡菌性巩膜炎", "lemmaCroppedTitle": "诺卡菌性巩膜炎", "lemmaDesc": "诺卡菌性巩膜炎为坏死性前巩膜炎（necrotizing anterior scl...", "lemmaUrl": "http://baike.baidu.com/item/%E8%AF%BA%E5%8D%A1%E8%8F%8C%E6%80%A7%E5%B7%A9%E8%86%9C%E7%82%8E/4584286", "lemmaPic": []}, {"lemmaId": 4616938, "lemmaTitle": "小儿动脉瘤样骨囊肿", "lemmaCroppedTitle": "小儿动脉瘤样骨囊肿", "lemmaDesc": "动脉瘤样骨囊肿是一种良性单发骨肿瘤，特点是瘤内有均匀泡沫状透亮区。本症常发生在较...", "lemmaUrl": "http://baike.baidu.com/item/%E5%B0%8F%E5%84%BF%E5%8A%A8%E8%84%89%E7%98%A4%E6%A0%B7%E9%AA%A8%E5%9B%8A%E8%82%BF/4616938", "lemmaPic": []}, {"lemmaId": 12676703, "lemmaTitle": "小儿发作性睡病", "lemmaCroppedTitle": "小儿发作性睡病", "lemmaDesc": "发作性睡病是一种发病机制尚未明确的睡眠障碍性疾病，常常影响患者工作、学习和生活。...", "lemmaUrl": "http://baike.baidu.com/item/%E5%B0%8F%E5%84%BF%E5%8F%91%E4%BD%9C%E6%80%A7%E7%9D%A1%E7%97%85/12676703", "lemmaPic": []}, {"lemmaId": 15181315, "lemmaTitle": "一氧化碳中毒迟发型脑病", "lemmaCroppedTitle": "一氧化碳中毒迟发型脑病", "lemmaDesc": "急性一氧化碳（CO）中毒迟发型脑病又称急性CO中毒后续症、后发症、续发症等，是指...", "lemmaUrl": "http://baike.baidu.com/item/%E4%B8%80%E6%B0%A7%E5%8C%96%E7%A2%B3%E4%B8%AD%E6%AF%92%E8%BF%9F%E5%8F%91%E5%9E%8B%E8%84%91%E7%97%85/15181315", "lemmaPic": []}, {"lemmaId": 12428467, "lemmaTitle": "卡他莫拉菌感染", "lemmaCroppedTitle": "卡他莫拉菌感染", "lemmaDesc": "随着对本属细菌的深入研究其命名还将会发生变化。卡他莫拉（MC）菌是一种革兰阴性双...", "lemmaUrl": "http://baike.baidu.com/item/%E5%8D%A1%E4%BB%96%E8%8E%AB%E6%8B%89%E8%8F%8C%E6%84%9F%E6%9F%93/12428467", "lemmaPic": []}, {"lemmaId": 4551607, "lemmaTitle": "小儿巴德-吉亚利综合征", "lemmaCroppedTitle": "小儿巴德-吉亚利综合征", "lemmaDesc": "巴德-吉亚利综合征，也名布-加综合征（BCS）。它指的是由肝静脉或其开口以上的下...", "lemmaUrl": "http://baike.baidu.com/item/%E5%B0%8F%E5%84%BF%E5%B7%B4%E5%BE%B7-%E5%90%89%E4%BA%9A%E5%88%A9%E7%BB%BC%E5%90%88%E5%BE%81/4551607", "lemmaPic": []}, {"lemmaId": 9804716, "lemmaTitle": "结节性多动脉炎伴发的葡萄膜炎", "lemmaCroppedTitle": "结节性多动脉炎伴发的葡萄膜炎", "lemmaDesc": "结节性多动脉炎是一种以坏死性血管炎为特征的累及多系统、多器官的少见的疾病。主要累...", "lemmaUrl": "http://baike.baidu.com/item/%E7%BB%93%E8%8A%82%E6%80%A7%E5%A4%9A%E5%8A%A8%E8%84%89%E7%82%8E%E4%BC%B4%E5%8F%91%E7%9A%84%E8%91%A1%E8%90%84%E8%86%9C%E7%82%8E/9804716", "lemmaPic": []}, {"lemmaId": 12731400, "lemmaTitle": "维斯科特-奥尔德里奇综合征", "lemmaCroppedTitle": "维斯科特-奥尔德里奇综合征", "lemmaDesc": "维斯科特-奥尔德里奇综合征（WAS）即湿疹血小板减少伴免疫缺陷综合征，是一种少见...", "lemmaUrl": "http://baike.baidu.com/item/%E7%BB%B4%E6%96%AF%E7%A7%91%E7%89%B9-%E5%A5%A5%E5%B0%94%E5%BE%B7%E9%87%8C%E5%A5%87%E7%BB%BC%E5%90%88%E5%BE%81/12731400", "lemmaPic": []}, {"lemmaId": 10085606, "lemmaTitle": "妊娠合并重症肌无力", "lemmaCroppedTitle": "妊娠合并重症肌无力", "lemmaDesc": "重症肌无力（MG）是一种神经-肌肉传递障碍的获得性自身免疫性疾病，临床特征为部分...", "lemmaUrl": "http://baike.baidu.com/item/%E5%A6%8A%E5%A8%A0%E5%90%88%E5%B9%B6%E9%87%8D%E7%97%87%E8%82%8C%E6%97%A0%E5%8A%9B/10085606", "lemmaPic": []}, {"lemmaId": 12982051, "lemmaTitle": "成人肥厚性幽门狭窄", "lemmaCroppedTitle": "成人肥厚性幽门狭窄", "lemmaDesc": "成人肥厚性幽门狭窄症是因幽门环形肌肥厚所致的幽门管狭窄。表现为自婴儿期即有周期性...", "lemmaUrl": "http://baike.baidu.com/item/%E6%88%90%E4%BA%BA%E8%82%A5%E5%8E%9A%E6%80%A7%E5%B9%BD%E9%97%A8%E7%8B%AD%E7%AA%84/12982051", "lemmaPic": []}, {"lemmaId": 6425081, "lemmaTitle": "强直性脊柱炎伴发葡萄膜炎", "lemmaCroppedTitle": "强直性脊柱炎伴发葡萄膜炎", "lemmaDesc": "20%～30%的强直性脊椎炎（AS）患者发生前葡萄膜炎。在男性急性前葡萄膜炎患者...", "lemmaUrl": "http://baike.baidu.com/item/%E5%BC%BA%E7%9B%B4%E6%80%A7%E8%84%8A%E6%9F%B1%E7%82%8E%E4%BC%B4%E5%8F%91%E8%91%A1%E8%90%84%E8%86%9C%E7%82%8E/6425081", "lemmaPic": []}, {"lemmaId": 12428413, "lemmaTitle": "小儿肝肿瘤", "lemmaCroppedTitle": "小儿肝肿瘤", "lemmaDesc": "小儿肝脏肿瘤临床上并不少见，有人认为原发性肝肿瘤的发病率仅次于肾母细胞瘤及神经母...", "lemmaUrl": "http://baike.baidu.com/item/%E5%B0%8F%E5%84%BF%E8%82%9D%E8%82%BF%E7%98%A4/12428413", "lemmaPic": []}, {"lemmaId": 7254180, "lemmaTitle": "棘突滑囊炎", "lemmaCroppedTitle": "棘突滑囊炎", "lemmaDesc": "棘突滑囊炎是其背部皮下组织深层可继发形成滑囊结构，以腰骶部最为该滑囊国内名称较多...", "lemmaUrl": "http://baike.baidu.com/item/%E6%A3%98%E7%AA%81%E6%BB%91%E5%9B%8A%E7%82%8E/7254180", "lemmaPic": []}, {"lemmaId": 12630003, "lemmaTitle": "脑真菌性肉芽肿", "lemmaCroppedTitle": "脑真菌性肉芽肿", "lemmaDesc": "颅内肉芽肿属于颅内占位性病变，可引起颅内压增高及局限性病灶。颅内肉芽肿多数是由于...", "lemmaUrl": "http://baike.baidu.com/item/%E8%84%91%E7%9C%9F%E8%8F%8C%E6%80%A7%E8%82%89%E8%8A%BD%E8%82%BF/12630003", "lemmaPic": []}, {"lemmaId": 4991577, "lemmaTitle": "老年人高钾血症", "lemmaCroppedTitle": "老年人高钾血症", "lemmaDesc": "老年人高钾血症是指血清钾&amp;gt;5.5mmol/L，高血钾时体钾总量并不...", "lemmaUrl": "http://baike.baidu.com/item/%E8%80%81%E5%B9%B4%E4%BA%BA%E9%AB%98%E9%92%BE%E8%A1%80%E7%97%87/4991577", "lemmaPic": []}, {"lemmaId": 8008886, "lemmaTitle": "高脂蛋白血症Ⅳ型", "lemmaCroppedTitle": "高脂蛋白血症Ⅳ型", "lemmaDesc": "本病为一种常见的疾患，常呈家族性分布，以血浆甘油三酯升高为特征，甘油三酯以极低密...", "lemmaUrl": "http://baike.baidu.com/item/%E9%AB%98%E8%84%82%E8%9B%8B%E7%99%BD%E8%A1%80%E7%97%87%E2%85%A3%E5%9E%8B/8008886", "lemmaPic": []}, {"lemmaId": 10226417, "lemmaTitle": "骨外尤文瘤", "lemmaCroppedTitle": "骨外尤文瘤", "lemmaDesc": "骨外尤文瘤是发生于软组织中的肿瘤，在组织学上同骨尤文瘤。本病好发于青壮年，以四肢...", "lemmaUrl": "http://baike.baidu.com/item/%E9%AA%A8%E5%A4%96%E5%B0%A4%E6%96%87%E7%98%A4/10226417", "lemmaPic": []}, {"lemmaId": 7254960, "lemmaTitle": "麻风性周围神经病", "lemmaCroppedTitle": "麻风性周围神经病", "lemmaDesc": "麻风杆菌侵犯周围神经，使之受损称为麻风性神经病。患者临床可出现肿胀、疼痛、压痛或...", "lemmaUrl": "http://baike.baidu.com/item/%E9%BA%BB%E9%A3%8E%E6%80%A7%E5%91%A8%E5%9B%B4%E7%A5%9E%E7%BB%8F%E7%97%85/7254960", "lemmaPic": []}, {"lemmaId": 8190002, "lemmaTitle": "溃疡坏死性口炎", "lemmaCroppedTitle": "溃疡坏死性口炎", "lemmaDesc": "溃疡坏死性口炎是一种严重的由Vincent螺旋体或梭形杆菌感染而引起的口腔坏疽性...", "lemmaUrl": "http://baike.baidu.com/item/%E6%BA%83%E7%96%A1%E5%9D%8F%E6%AD%BB%E6%80%A7%E5%8F%A3%E7%82%8E/8190002", "lemmaPic": []}, {"lemmaId": 7253116, "lemmaTitle": "老年性慢性硬膜下血肿", "lemmaCroppedTitle": "老年性慢性硬膜下血肿", "lemmaDesc": "硬膜下血肿是指位于硬脑膜和蛛网膜之间有完整包膜的血肿，伤后3周以后出现症状者称为...", "lemmaUrl": "http://baike.baidu.com/item/%E8%80%81%E5%B9%B4%E6%80%A7%E6%85%A2%E6%80%A7%E7%A1%AC%E8%86%9C%E4%B8%8B%E8%A1%80%E8%82%BF/7253116", "lemmaPic": []}, {"lemmaId": 13883820, "lemmaTitle": "手指老年骨性关节炎", "lemmaCroppedTitle": "手指老年骨性关节炎", "lemmaDesc": "老年人手指关节退变老化普遍，因此与退变相应的骨性关节炎在老年人群中较常见，但常被...", "lemmaUrl": "http://baike.baidu.com/item/%E6%89%8B%E6%8C%87%E8%80%81%E5%B9%B4%E9%AA%A8%E6%80%A7%E5%85%B3%E8%8A%82%E7%82%8E/13883820", "lemmaPic": []}, {"lemmaId": 5260058, "lemmaTitle": "C5功能不全综合征", "lemmaCroppedTitle": "C5功能不全综合征", "lemmaDesc": "C5功能不全综合征又称家族性C5功能缺陷（familialdysfunction...", "lemmaUrl": "http://baike.baidu.com/item/C5%E5%8A%9F%E8%83%BD%E4%B8%8D%E5%85%A8%E7%BB%BC%E5%90%88%E5%BE%81/5260058", "lemmaPic": []}, {"lemmaId": 8305466, "lemmaTitle": "尾神经丛痛", "lemmaCroppedTitle": "尾神经丛痛", "lemmaDesc": "临床上多见，尤其好发于跌倒所致臀部着地后，女性中的发生率明显高于男性。由尾1，骶...", "lemmaUrl": "http://baike.baidu.com/item/%E5%B0%BE%E7%A5%9E%E7%BB%8F%E4%B8%9B%E7%97%9B/8305466", "lemmaPic": []}, {"lemmaId": 5661006, "lemmaTitle": "新生儿低镁血症", "lemmaCroppedTitle": "新生儿低镁血症", "lemmaDesc": "正常新生儿血清镁为0.6～1.1mmol/L(1.2～2.8mg/dl)，离子镁...", "lemmaUrl": "http://baike.baidu.com/item/%E6%96%B0%E7%94%9F%E5%84%BF%E4%BD%8E%E9%95%81%E8%A1%80%E7%97%87/5661006", "lemmaPic": []}, {"lemmaId": 12428590, "lemmaTitle": "肝炎再生障碍性贫血综合征", "lemmaCroppedTitle": "肝炎再生障碍性贫血综合征", "lemmaDesc": "肝炎再生障碍性贫血综合征又称肝炎并发再生障碍性贫血或肝炎后再生障碍性贫血，常为儿...", "lemmaUrl": "http://baike.baidu.com/item/%E8%82%9D%E7%82%8E%E5%86%8D%E7%94%9F%E9%9A%9C%E7%A2%8D%E6%80%A7%E8%B4%AB%E8%A1%80%E7%BB%BC%E5%90%88%E5%BE%81/12428590", "lemmaPic": []}, {"lemmaId": 12676789, "lemmaTitle": "老年人帕金森病", "lemmaCroppedTitle": "老年人帕金森病", "lemmaDesc": "帕金森病(PD)又名震颤麻痹，是一种常见的中老年人神经系统变性疾病。主要病变在黑...", "lemmaUrl": "http://baike.baidu.com/item/%E8%80%81%E5%B9%B4%E4%BA%BA%E5%B8%95%E9%87%91%E6%A3%AE%E7%97%85/12676789", "lemmaPic": []}, {"lemmaId": 12428999, "lemmaTitle": "髂腹股沟神经干痛", "lemmaCroppedTitle": "髂腹股沟神经干痛", "lemmaDesc": "临床上较为多见，且80%以上属医源性，多发生在与该神经有关的手术后，尤以髂骨取骨...", "lemmaUrl": "http://baike.baidu.com/item/%E9%AB%82%E8%85%B9%E8%82%A1%E6%B2%9F%E7%A5%9E%E7%BB%8F%E5%B9%B2%E7%97%9B/12428999", "lemmaPic": []}, {"lemmaId": 4665467, "lemmaTitle": "第Ⅳ型脊髓血管畸形", "lemmaCroppedTitle": "第Ⅳ型脊髓血管畸形", "lemmaDesc": "本型为硬膜内脊髓周围动静脉瘘，其病变实质为硬膜内直接由脊髓前动脉供应的动静脉瘘。...", "lemmaUrl": "http://baike.baidu.com/item/%E7%AC%AC%E2%85%A3%E5%9E%8B%E8%84%8A%E9%AB%93%E8%A1%80%E7%AE%A1%E7%95%B8%E5%BD%A2/4665467", "lemmaPic": []}, {"lemmaId": 10637515, "lemmaTitle": "房室交接区性期前收缩", "lemmaCroppedTitle": "房室交接区性期前收缩", "lemmaDesc": "房室交接区性期前收缩又称房室交接区过早搏动（JPBs），简称交接区性早搏或交接性...", "lemmaUrl": "http://baike.baidu.com/item/%E6%88%BF%E5%AE%A4%E4%BA%A4%E6%8E%A5%E5%8C%BA%E6%80%A7%E6%9C%9F%E5%89%8D%E6%94%B6%E7%BC%A9/10637515", "lemmaPic": []}, {"lemmaId": 12677197, "lemmaTitle": "单神经病与神经丛神经病", "lemmaCroppedTitle": "单神经病与神经丛神经病", "lemmaDesc": "周围神经是嗅、视神经以外的脑神经和脊神经，包括10对脑神经和31对脊神经。周围神...", "lemmaUrl": "http://baike.baidu.com/item/%E5%8D%95%E7%A5%9E%E7%BB%8F%E7%97%85%E4%B8%8E%E7%A5%9E%E7%BB%8F%E4%B8%9B%E7%A5%9E%E7%BB%8F%E7%97%85/12677197", "lemmaPic": []}, {"lemmaId": 1568421, "lemmaTitle": "小儿马方综合征", "lemmaCroppedTitle": "小儿马方综合征", "lemmaDesc": "本病为一种遗传性结缔组织疾病，呈常染色体显性遗传，基因定位于15q15～q21....", "lemmaUrl": "http://baike.baidu.com/item/%E5%B0%8F%E5%84%BF%E9%A9%AC%E6%96%B9%E7%BB%BC%E5%90%88%E5%BE%81/1568421", "lemmaPic": []}, {"lemmaId": 1525730, "lemmaTitle": "小儿扩张型心肌病", "lemmaCroppedTitle": "小儿扩张型心肌病", "lemmaDesc": "扩张型心肌病（DCM）又称充血型心肌病（CCM），是最常见的心肌病，有心脏扩大、...", "lemmaUrl": "http://baike.baidu.com/item/%E5%B0%8F%E5%84%BF%E6%89%A9%E5%BC%A0%E5%9E%8B%E5%BF%83%E8%82%8C%E7%97%85/1525730", "lemmaPic": []}, {"lemmaId": 12000419, "lemmaTitle": "双胃", "lemmaCroppedTitle": "双胃", "lemmaDesc": "双胃又称胃重复畸形，临床上极为少见，约占整个消化道畸形的9%。本病的发病多为个别...", "lemmaUrl": "http://baike.baidu.com/item/%E5%8F%8C%E8%83%83/12000419", "lemmaPic": []}, {"lemmaId": 1115589, "lemmaTitle": "泌尿道肿瘤", "lemmaCroppedTitle": "泌尿道肿瘤", "lemmaDesc": "泌尿道肿瘤，4.5%皮肤转移癌来源于肾，8.2%来源于膀胱。", "lemmaUrl": "http://baike.baidu.com/item/%E6%B3%8C%E5%B0%BF%E9%81%93%E8%82%BF%E7%98%A4/1115589", "lemmaPic": []}, {"lemmaId": 7254624, "lemmaTitle": "桡骨小头骨骺分离", "lemmaCroppedTitle": "桡骨小头骨骺分离", "lemmaDesc": "桡骨小头骨骺分离多因跌倒时肩关节外展，肘关节伸直并外翻，桡骨小头撞击肱骨小头引起...", "lemmaUrl": "http://baike.baidu.com/item/%E6%A1%A1%E9%AA%A8%E5%B0%8F%E5%A4%B4%E9%AA%A8%E9%AA%BA%E5%88%86%E7%A6%BB/7254624", "lemmaPic": []}, {"lemmaId": 5615588, "lemmaTitle": "类鼻疽杆菌肺炎", "lemmaCroppedTitle": "类鼻疽杆菌肺炎", "lemmaDesc": "类鼻疽杆菌肺炎即惠氏杆菌肺炎，是由于类鼻疽假单胞杆菌入侵人体引起的疾病。本病流行...", "lemmaUrl": "http://baike.baidu.com/item/%E7%B1%BB%E9%BC%BB%E7%96%BD%E6%9D%86%E8%8F%8C%E8%82%BA%E7%82%8E/5615588", "lemmaPic": []}, {"lemmaId": 10455202, "lemmaTitle": "慢性自律性房性心动过速", "lemmaCroppedTitle": "慢性自律性房性心动过速", "lemmaDesc": "慢性自律性房性心动过速（CAAT）亦称慢性房性心动过速（CAT）、持久性房性心动...", "lemmaUrl": "http://baike.baidu.com/item/%E6%85%A2%E6%80%A7%E8%87%AA%E5%BE%8B%E6%80%A7%E6%88%BF%E6%80%A7%E5%BF%83%E5%8A%A8%E8%BF%87%E9%80%9F/10455202", "lemmaPic": []}, {"lemmaId": 8004077, "lemmaTitle": "胆固醇脓胸", "lemmaCroppedTitle": "胆固醇脓胸", "lemmaDesc": "临床上尚属少见，且多因结核性渗出性胸膜炎治疗不当，病程迁延，致使脓液长期不吸收所...", "lemmaUrl": "http://baike.baidu.com/item/%E8%83%86%E5%9B%BA%E9%86%87%E8%84%93%E8%83%B8/8004077", "lemmaPic": []}, {"lemmaId": 12676501, "lemmaTitle": "妊娠合并类风湿关节炎", "lemmaCroppedTitle": "妊娠合并类风湿关节炎", "lemmaDesc": "妊娠合并类风湿关节炎（RA），简称类风关，是一种慢性的进行性关节病变为主的自身免...", "lemmaUrl": "http://baike.baidu.com/item/%E5%A6%8A%E5%A8%A0%E5%90%88%E5%B9%B6%E7%B1%BB%E9%A3%8E%E6%B9%BF%E5%85%B3%E8%8A%82%E7%82%8E/12676501", "lemmaPic": []}, {"lemmaId": 7253971, "lemmaTitle": "腹肌缺乏综合征", "lemmaCroppedTitle": "腹肌缺乏综合征", "lemmaDesc": "腹肌缺乏综合征为腹肌发育不良，又称腹肌发育不全综合征。常合并四肢、泌尿系统、胃肠...", "lemmaUrl": "http://baike.baidu.com/item/%E8%85%B9%E8%82%8C%E7%BC%BA%E4%B9%8F%E7%BB%BC%E5%90%88%E5%BE%81/7253971", "lemmaPic": []}, {"lemmaId": 10085667, "lemmaTitle": "颈椎椎体楔形压缩骨折", "lemmaCroppedTitle": "颈椎椎体楔形压缩骨折", "lemmaDesc": "临床上多见，症状轻，暴力主要波及椎节前柱，因此多属稳定型。也可能有少数伴有后方小...", "lemmaUrl": "http://baike.baidu.com/item/%E9%A2%88%E6%A4%8E%E6%A4%8E%E4%BD%93%E6%A5%94%E5%BD%A2%E5%8E%8B%E7%BC%A9%E9%AA%A8%E6%8A%98/10085667", "lemmaPic": []}, {"lemmaId": 12676508, "lemmaTitle": "小儿丙酸血症", "lemmaCroppedTitle": "小儿丙酸血症", "lemmaDesc": "小儿丙酸血症为常染色体隐性遗传性疾患，由于丙酰辅酶A羧化酶缺乏，导致有机酸血症以...", "lemmaUrl": "http://baike.baidu.com/item/%E5%B0%8F%E5%84%BF%E4%B8%99%E9%85%B8%E8%A1%80%E7%97%87/12676508", "lemmaPic": []}, {"lemmaId": 12676654, "lemmaTitle": "小儿继发性血小板增多症", "lemmaCroppedTitle": "小儿继发性血小板增多症", "lemmaDesc": "血小板增多症是指血小板计数超过正常值上限，以黏膜出血为主，如血尿、胃肠出血、鼻出...", "lemmaUrl": "http://baike.baidu.com/item/%E5%B0%8F%E5%84%BF%E7%BB%A7%E5%8F%91%E6%80%A7%E8%A1%80%E5%B0%8F%E6%9D%BF%E5%A2%9E%E5%A4%9A%E7%97%87/12676654", "lemmaPic": []}, {"lemmaId": 7253147, "lemmaTitle": "酒中毒性小脑变性", "lemmaCroppedTitle": "酒中毒性小脑变性", "lemmaDesc": "酒中毒性小脑变性是以运动失调为主要症状，临床上是以肢体共济失调和构音障碍为主要特...", "lemmaUrl": "http://baike.baidu.com/item/%E9%85%92%E4%B8%AD%E6%AF%92%E6%80%A7%E5%B0%8F%E8%84%91%E5%8F%98%E6%80%A7/7253147", "lemmaPic": []}, {"lemmaId": 12428513, "lemmaTitle": "小儿混合性结缔组织病", "lemmaCroppedTitle": "小儿混合性结缔组织病", "lemmaDesc": "混合性结缔组织病（MCTD）具有系统性红斑狼疮（SLE）、系统性硬化症（PSS）...", "lemmaUrl": "http://baike.baidu.com/item/%E5%B0%8F%E5%84%BF%E6%B7%B7%E5%90%88%E6%80%A7%E7%BB%93%E7%BC%94%E7%BB%84%E7%BB%87%E7%97%85/12428513", "lemmaPic": []}, {"lemmaId": 12676735, "lemmaTitle": "流感嗜血杆菌脑膜炎", "lemmaCroppedTitle": "流感嗜血杆菌脑膜炎", "lemmaDesc": "流感嗜血杆菌脑膜炎是1892年Pfeiter从一名流感患者鼻咽部分泌物中分离所得...", "lemmaUrl": "http://baike.baidu.com/item/%E6%B5%81%E6%84%9F%E5%97%9C%E8%A1%80%E6%9D%86%E8%8F%8C%E8%84%91%E8%86%9C%E7%82%8E/12676735", "lemmaPic": []}, {"lemmaId": 17659733, "lemmaTitle": "儿童慢性肾衰竭", "lemmaCroppedTitle": "儿童慢性肾衰竭", "lemmaDesc": "慢性肾衰竭（CRF）简称慢性肾衰，是慢性肾脏疾病(CKD)的严重阶段，也是儿科肾...", "lemmaUrl": "http://baike.baidu.com/item/%E5%84%BF%E7%AB%A5%E6%85%A2%E6%80%A7%E8%82%BE%E8%A1%B0%E7%AB%AD/17659733", "lemmaPic": []}, {"lemmaId": 5660977, "lemmaTitle": "锁骨下动脉-腋动脉瘤", "lemmaCroppedTitle": "锁骨下动脉-腋动脉瘤", "lemmaDesc": "锁骨下动脉远端的动脉瘤合并累及第1段腋动脉时，统称为锁骨下动脉-腋动脉瘤，最常见...", "lemmaUrl": "http://baike.baidu.com/item/%E9%94%81%E9%AA%A8%E4%B8%8B%E5%8A%A8%E8%84%89-%E8%85%8B%E5%8A%A8%E8%84%89%E7%98%A4/5660977", "lemmaPic": []}, {"lemmaId": 7254519, "lemmaTitle": "前骨间神经卡压综合征", "lemmaCroppedTitle": "前骨间神经卡压综合征", "lemmaDesc": "前骨间神经卡压综合征是由Kiloh和Nevin于1952年报道的。随后，有关病例...", "lemmaUrl": "http://baike.baidu.com/item/%E5%89%8D%E9%AA%A8%E9%97%B4%E7%A5%9E%E7%BB%8F%E5%8D%A1%E5%8E%8B%E7%BB%BC%E5%90%88%E5%BE%81/7254519", "lemmaPic": []}, {"lemmaId": 11256734, "lemmaTitle": "柯兴综合征", "lemmaCroppedTitle": "柯兴综合征", "lemmaDesc": "柯兴综合征即库欣综合征，是由于各种原因引起皮质醇分泌过多所致的一组临床综合征。本...", "lemmaUrl": "http://baike.baidu.com/item/%E6%9F%AF%E5%85%B4%E7%BB%BC%E5%90%88%E5%BE%81/11256734", "lemmaPic": []}, {"lemmaId": 4677183, "lemmaTitle": "楚尔盖分枝杆菌感染", "lemmaCroppedTitle": "楚尔盖分枝杆菌感染", "lemmaDesc": "楚尔盖分枝杆菌是1972年由Marks证实为人类致病菌，属暗产色分枝杆菌。25℃...", "lemmaUrl": "http://baike.baidu.com/item/%E6%A5%9A%E5%B0%94%E7%9B%96%E5%88%86%E6%9E%9D%E6%9D%86%E8%8F%8C%E6%84%9F%E6%9F%93/4677183", "lemmaPic": []}, {"lemmaId": 12676569, "lemmaTitle": "小儿一氧化碳中毒", "lemmaCroppedTitle": "小儿一氧化碳中毒", "lemmaDesc": "一氧化碳中毒（Carbon monoxide poisoning）俗称煤气中毒，...", "lemmaUrl": "http://baike.baidu.com/item/%E5%B0%8F%E5%84%BF%E4%B8%80%E6%B0%A7%E5%8C%96%E7%A2%B3%E4%B8%AD%E6%AF%92/12676569", "lemmaPic": []}, {"lemmaId": 9578127, "lemmaTitle": "其他弧菌感染", "lemmaCroppedTitle": "其他弧菌感染", "lemmaDesc": "弧菌科细菌包括弧菌属和类弧菌属。人群普遍易感，青壮年患病较多。免疫缺陷者、酒精中...", "lemmaUrl": "http://baike.baidu.com/item/%E5%85%B6%E4%BB%96%E5%BC%A7%E8%8F%8C%E6%84%9F%E6%9F%93/9578127", "lemmaPic": []}, {"lemmaId": 7253462, "lemmaTitle": "药物相关性胃病", "lemmaCroppedTitle": "药物相关性胃病", "lemmaDesc": "药物相关性胃病是药物引起胃的不良反应，多为药物的副作用。许多口服药物可引起胃部不...", "lemmaUrl": "http://baike.baidu.com/item/%E8%8D%AF%E7%89%A9%E7%9B%B8%E5%85%B3%E6%80%A7%E8%83%83%E7%97%85/7253462", "lemmaPic": []}, {"lemmaId": 12428883, "lemmaTitle": "小儿自身免疫性淋巴细胞增生综合征", "lemmaCroppedTitle": "小儿自身免疫性淋巴细胞增生综合征", "lemmaDesc": "自身免疫性淋巴细胞增生综合征（ALPS）是一种Fas基因介导的凋亡受损导致淋巴细...", "lemmaUrl": "http://baike.baidu.com/item/%E5%B0%8F%E5%84%BF%E8%87%AA%E8%BA%AB%E5%85%8D%E7%96%AB%E6%80%A7%E6%B7%8B%E5%B7%B4%E7%BB%86%E8%83%9E%E5%A2%9E%E7%94%9F%E7%BB%BC%E5%90%88%E5%BE%81/12428883", "lemmaPic": []}, {"lemmaId": 7252802, "lemmaTitle": "肾上腺皮质功能异常伴发的精神障碍", "lemmaCroppedTitle": "肾上腺皮质功能异常伴发的精神障碍", "lemmaDesc": "肾上腺皮质醇增多症伴发的精神障碍和肾上腺皮质功能减退伴发精神障碍均属于肾上腺皮质...", "lemmaUrl": "http://baike.baidu.com/item/%E8%82%BE%E4%B8%8A%E8%85%BA%E7%9A%AE%E8%B4%A8%E5%8A%9F%E8%83%BD%E5%BC%82%E5%B8%B8%E4%BC%B4%E5%8F%91%E7%9A%84%E7%B2%BE%E7%A5%9E%E9%9A%9C%E7%A2%8D/7252802", "lemmaPic": []}, {"lemmaId": 12630039, "lemmaTitle": "克罗伊茨费尔特-雅各布病", "lemmaCroppedTitle": "克罗伊茨费尔特-雅各布病", "lemmaDesc": "克罗伊茨费尔特-雅各布病为可传递性中枢神经系统变性疾病中常见类型。该病较罕见，发...", "lemmaUrl": "http://baike.baidu.com/item/%E5%85%8B%E7%BD%97%E4%BC%8A%E8%8C%A8%E8%B4%B9%E5%B0%94%E7%89%B9-%E9%9B%85%E5%90%84%E5%B8%83%E7%97%85/12630039", "lemmaPic": []}, {"lemmaId": 12677140, "lemmaTitle": "主动脉肠道瘘", "lemmaCroppedTitle": "主动脉肠道瘘", "lemmaDesc": "主动脉肠道瘘（AEF）是指主动脉与邻近肠道发生的病理性沟通。根据发病原因可分为原...", "lemmaUrl": "http://baike.baidu.com/item/%E4%B8%BB%E5%8A%A8%E8%84%89%E8%82%A0%E9%81%93%E7%98%98/12677140", "lemmaPic": []}, {"lemmaId": 12021745, "lemmaTitle": "甲肥厚", "lemmaCroppedTitle": "甲肥厚", "lemmaDesc": "甲肥厚可由甲母质功能异常引起甲肥大，或可由于甲床病理改变造成厚甲。前者可见于银屑...", "lemmaUrl": "http://baike.baidu.com/item/%E7%94%B2%E8%82%A5%E5%8E%9A/12021745", "lemmaPic": []}, {"lemmaId": 12676518, "lemmaTitle": "小儿肺炎链球菌脑膜炎", "lemmaCroppedTitle": "小儿肺炎链球菌脑膜炎", "lemmaDesc": "肺炎链球菌脑膜炎在婴儿期较多见，新生儿也可发病。肺炎链球菌脑膜炎的发病率仅次于流...", "lemmaUrl": "http://baike.baidu.com/item/%E5%B0%8F%E5%84%BF%E8%82%BA%E7%82%8E%E9%93%BE%E7%90%83%E8%8F%8C%E8%84%91%E8%86%9C%E7%82%8E/12676518", "lemmaPic": []}, {"lemmaId": 12000408, "lemmaTitle": "肾脏疾病伴发的精神障碍", "lemmaCroppedTitle": "肾脏疾病伴发的精神障碍", "lemmaDesc": "肾脏疾病伴发的精神障碍是指各种肾脏疾病引起的急慢性肾功能不全和肾性脑病并包括透析...", "lemmaUrl": "http://baike.baidu.com/item/%E8%82%BE%E8%84%8F%E7%96%BE%E7%97%85%E4%BC%B4%E5%8F%91%E7%9A%84%E7%B2%BE%E7%A5%9E%E9%9A%9C%E7%A2%8D/12000408", "lemmaPic": []}, {"lemmaId": 12428582, "lemmaTitle": "小肠系膜损伤", "lemmaCroppedTitle": "小肠系膜损伤", "lemmaDesc": "小肠及其系膜在腹腔内所占体积大、分布广、又缺乏坚强的保护，易受损伤，约占腹部脏器...", "lemmaUrl": "http://baike.baidu.com/item/%E5%B0%8F%E8%82%A0%E7%B3%BB%E8%86%9C%E6%8D%9F%E4%BC%A4/12428582", "lemmaPic": []}, {"lemmaId": 12810929, "lemmaTitle": "卵泡膜细胞增殖综合征", "lemmaCroppedTitle": "卵泡膜细胞增殖综合征", "lemmaDesc": "卵泡膜细胞增殖综合征指患者临床上出现女性男性化等一系列症状和体征，同时具有卵巢泡...", "lemmaUrl": "http://baike.baidu.com/item/%E5%8D%B5%E6%B3%A1%E8%86%9C%E7%BB%86%E8%83%9E%E5%A2%9E%E6%AE%96%E7%BB%BC%E5%90%88%E5%BE%81/12810929", "lemmaPic": []}, {"lemmaId": 7254848, "lemmaTitle": "肌阵挛性小脑协调障碍", "lemmaCroppedTitle": "肌阵挛性小脑协调障碍", "lemmaDesc": "肌阵挛性小脑协调障碍是以肌阵挛、癫痫、小脑性共济失调为特征的临床综合征，又称Ra...", "lemmaUrl": "http://baike.baidu.com/item/%E8%82%8C%E9%98%B5%E6%8C%9B%E6%80%A7%E5%B0%8F%E8%84%91%E5%8D%8F%E8%B0%83%E9%9A%9C%E7%A2%8D/7254848", "lemmaPic": []}, {"lemmaId": 4632761, "lemmaTitle": "皮肤间变大细胞淋巴瘤", "lemmaCroppedTitle": "皮肤间变大细胞淋巴瘤", "lemmaDesc": "根据WHO-EORTC（世界卫生组织－欧洲癌症研究和治疗组织）最新分类，原发皮肤...", "lemmaUrl": "http://baike.baidu.com/item/%E7%9A%AE%E8%82%A4%E9%97%B4%E5%8F%98%E5%A4%A7%E7%BB%86%E8%83%9E%E6%B7%8B%E5%B7%B4%E7%98%A4/4632761", "lemmaPic": []}, {"lemmaId": 6425222, "lemmaTitle": "外阴皮脂溢出性皮炎", "lemmaCroppedTitle": "外阴皮脂溢出性皮炎", "lemmaDesc": "外阴部皮脂腺分泌增加引起的皮肤炎症反应被称为外阴皮脂溢出性皮炎。目前多认为与遗传...", "lemmaUrl": "http://baike.baidu.com/item/%E5%A4%96%E9%98%B4%E7%9A%AE%E8%84%82%E6%BA%A2%E5%87%BA%E6%80%A7%E7%9A%AE%E7%82%8E/6425222", "lemmaPic": []}, {"lemmaId": 5282444, "lemmaTitle": "塞泽里综合征", "lemmaCroppedTitle": "塞泽里综合征", "lemmaDesc": "塞泽里综合征为一白血病性、红皮病性低度恶性T细胞淋巴瘤。其特点为全身红皮病，表浅...", "lemmaUrl": "http://baike.baidu.com/item/%E5%A1%9E%E6%B3%BD%E9%87%8C%E7%BB%BC%E5%90%88%E5%BE%81/5282444", "lemmaPic": []}, {"lemmaId": 4694826, "lemmaTitle": "小儿克山病", "lemmaCroppedTitle": "小儿克山病", "lemmaDesc": "克山病是我国一种病因未明的以心肌损伤为主的地方性心肌病。1935年首先发现在黑龙...", "lemmaUrl": "http://baike.baidu.com/item/%E5%B0%8F%E5%84%BF%E5%85%8B%E5%B1%B1%E7%97%85/4694826", "lemmaPic": []}, {"lemmaId": 7254086, "lemmaTitle": "寰枢椎旋转脱位固定", "lemmaCroppedTitle": "寰枢椎旋转脱位固定", "lemmaDesc": "寰枢椎旋转脱位固定的实质是陈旧性脱位。Fielding（1977年）把自发出现或...", "lemmaUrl": "http://baike.baidu.com/item/%E5%AF%B0%E6%9E%A2%E6%A4%8E%E6%97%8B%E8%BD%AC%E8%84%B1%E4%BD%8D%E5%9B%BA%E5%AE%9A/7254086", "lemmaPic": []}, {"lemmaId": 12428589, "lemmaTitle": "小儿巴特综合征", "lemmaCroppedTitle": "小儿巴特综合征", "lemmaDesc": "小儿巴特综合征又称Bartter-Gietlman综合征、Bartter综合征、...", "lemmaUrl": "http://baike.baidu.com/item/%E5%B0%8F%E5%84%BF%E5%B7%B4%E7%89%B9%E7%BB%BC%E5%90%88%E5%BE%81/12428589", "lemmaPic": []}, {"lemmaId": 12810970, "lemmaTitle": "小儿血管-骨肥大综合征", "lemmaCroppedTitle": "小儿血管-骨肥大综合征", "lemmaDesc": "血管-骨肥大综合征、又称肥大性血管扩张症、血管扩张性肥大症、骨肥大症、痣-静脉曲...", "lemmaUrl": "http://baike.baidu.com/item/%E5%B0%8F%E5%84%BF%E8%A1%80%E7%AE%A1-%E9%AA%A8%E8%82%A5%E5%A4%A7%E7%BB%BC%E5%90%88%E5%BE%81/12810970", "lemmaPic": []}, {"lemmaId": 12700757, "lemmaTitle": "腰椎退变性小关节损伤性骨关节炎", "lemmaCroppedTitle": "腰椎退变性小关节损伤性骨关节炎", "lemmaDesc": "因退行性改变波及到腰椎后方小关节的一部或全部，呈损伤性骨关节炎反应，并产生腰腿痛...", "lemmaUrl": "http://baike.baidu.com/item/%E8%85%B0%E6%A4%8E%E9%80%80%E5%8F%98%E6%80%A7%E5%B0%8F%E5%85%B3%E8%8A%82%E6%8D%9F%E4%BC%A4%E6%80%A7%E9%AA%A8%E5%85%B3%E8%8A%82%E7%82%8E/12700757", "lemmaPic": []}, {"lemmaId": 4988974, "lemmaTitle": "老年人肠易激综合征", "lemmaCroppedTitle": "老年人肠易激综合征", "lemmaDesc": "肠易激综合征（IBS）是一组持续或间歇发作，以腹痛、腹胀、排便习惯和（或）大便性...", "lemmaUrl": "http://baike.baidu.com/item/%E8%80%81%E5%B9%B4%E4%BA%BA%E8%82%A0%E6%98%93%E6%BF%80%E7%BB%BC%E5%90%88%E5%BE%81/4988974", "lemmaPic": []}, {"lemmaId": 1852183, "lemmaTitle": "散发性脑炎伴发的精神障碍", "lemmaCroppedTitle": "散发性脑炎伴发的精神障碍", "lemmaDesc": "病毒侵入脑部大多引起弥漫病变，但也有较严重损害的局部病变。通常经节肢动物传播的脑...", "lemmaUrl": "http://baike.baidu.com/item/%E6%95%A3%E5%8F%91%E6%80%A7%E8%84%91%E7%82%8E%E4%BC%B4%E5%8F%91%E7%9A%84%E7%B2%BE%E7%A5%9E%E9%9A%9C%E7%A2%8D/1852183", "lemmaPic": []}, {"lemmaId": 2775283, "lemmaTitle": "老年人上腔静脉受压综合征", "lemmaCroppedTitle": "老年人上腔静脉受压综合征", "lemmaDesc": "上腔静脉受压综合征是一种亚急性征群，真正急性者比较少见。上腔静脉系统血流回到右心...", "lemmaUrl": "http://baike.baidu.com/item/%E8%80%81%E5%B9%B4%E4%BA%BA%E4%B8%8A%E8%85%94%E9%9D%99%E8%84%89%E5%8F%97%E5%8E%8B%E7%BB%BC%E5%90%88%E5%BE%81/2775283", "lemmaPic": []}, {"lemmaId": 5250009, "lemmaTitle": "黏多糖贮积症Ⅷ型", "lemmaCroppedTitle": "黏多糖贮积症Ⅷ型", "lemmaDesc": "也称Diferrante综合征。其特征表现为身材矮小，智力低下，毛发多而粗，肝大...", "lemmaUrl": "http://baike.baidu.com/item/%E9%BB%8F%E5%A4%9A%E7%B3%96%E8%B4%AE%E7%A7%AF%E7%97%87%E2%85%A7%E5%9E%8B/5250009", "lemmaPic": []}, {"lemmaId": 9345329, "lemmaTitle": "颈椎单侧小关节脱位", "lemmaCroppedTitle": "颈椎单侧小关节脱位", "lemmaDesc": "颈椎小关节脱位又称关节交锁，无论有或无骨折的关节突脱位均属严重损伤，由于其引起椎...", "lemmaUrl": "http://baike.baidu.com/item/%E9%A2%88%E6%A4%8E%E5%8D%95%E4%BE%A7%E5%B0%8F%E5%85%B3%E8%8A%82%E8%84%B1%E4%BD%8D/9345329", "lemmaPic": []}, {"lemmaId": 12677010, "lemmaTitle": "老年人腹主动脉瘤", "lemmaCroppedTitle": "老年人腹主动脉瘤", "lemmaDesc": "腹主动脉瘤为老年性疾病之一常发生于男性，发病年龄多在60岁以上。该病绝大多数在动...", "lemmaUrl": "http://baike.baidu.com/item/%E8%80%81%E5%B9%B4%E4%BA%BA%E8%85%B9%E4%B8%BB%E5%8A%A8%E8%84%89%E7%98%A4/12677010", "lemmaPic": []}, {"lemmaId": 5686197, "lemmaTitle": "甲状旁腺功能异常伴发的精神障碍", "lemmaCroppedTitle": "甲状旁腺功能异常伴发的精神障碍", "lemmaDesc": "甲状旁腺功能异常包括甲状旁腺功能亢进和甲状旁腺功能减退。甲状旁腺功能亢进可分原发...", "lemmaUrl": "http://baike.baidu.com/item/%E7%94%B2%E7%8A%B6%E6%97%81%E8%85%BA%E5%8A%9F%E8%83%BD%E5%BC%82%E5%B8%B8%E4%BC%B4%E5%8F%91%E7%9A%84%E7%B2%BE%E7%A5%9E%E9%9A%9C%E7%A2%8D/5686197", "lemmaPic": []}, {"lemmaId": 5359887, "lemmaTitle": "新生儿低血糖症与高血糖症", "lemmaCroppedTitle": "新生儿低血糖症与高血糖症", "lemmaDesc": "新生儿低血糖症与高血糖症：糖代谢紊乱在新生儿期极常见。由于采集血标本和检测血液中...", "lemmaUrl": "http://baike.baidu.com/item/%E6%96%B0%E7%94%9F%E5%84%BF%E4%BD%8E%E8%A1%80%E7%B3%96%E7%97%87%E4%B8%8E%E9%AB%98%E8%A1%80%E7%B3%96%E7%97%87/5359887", "lemmaPic": []}, {"lemmaId": 2775119, "lemmaTitle": "外伤性腹膜后出血或血肿", "lemmaCroppedTitle": "外伤性腹膜后出血或血肿", "lemmaDesc": "腹膜后血肿为腹腰部损伤的常见并发症，可因直接或间接暴力造成。最常见原因是骨盆及脊...", "lemmaUrl": "http://baike.baidu.com/item/%E5%A4%96%E4%BC%A4%E6%80%A7%E8%85%B9%E8%86%9C%E5%90%8E%E5%87%BA%E8%A1%80%E6%88%96%E8%A1%80%E8%82%BF/2775119", "lemmaPic": []}, {"lemmaId": 12676631, "lemmaTitle": "小儿肥厚型心肌病", "lemmaCroppedTitle": "小儿肥厚型心肌病", "lemmaDesc": "肥厚型心肌病(HCM)是一种遗传性疾病，其特征为心室肥厚，心腔无扩大，HCM又称...", "lemmaUrl": "http://baike.baidu.com/item/%E5%B0%8F%E5%84%BF%E8%82%A5%E5%8E%9A%E5%9E%8B%E5%BF%83%E8%82%8C%E7%97%85/12676631", "lemmaPic": []}, {"lemmaId": 7253801, "lemmaTitle": "小儿肾性尿崩症", "lemmaCroppedTitle": "小儿肾性尿崩症", "lemmaDesc": "肾性尿崩症（NDI）是一种肾小管对水重吸收功能障碍的疾病，属尿浓缩功能障碍疾病范...", "lemmaUrl": "http://baike.baidu.com/item/%E5%B0%8F%E5%84%BF%E8%82%BE%E6%80%A7%E5%B0%BF%E5%B4%A9%E7%97%87/7253801", "lemmaPic": []}, {"lemmaId": 12677123, "lemmaTitle": "工业毒物中毒性周围神经病", "lemmaCroppedTitle": "工业毒物中毒性周围神经病", "lemmaDesc": "许多工业生产中的原料，中间产物和最终产品对人体具有毒性，称为工业毒物。其中有些可...", "lemmaUrl": "http://baike.baidu.com/item/%E5%B7%A5%E4%B8%9A%E6%AF%92%E7%89%A9%E4%B8%AD%E6%AF%92%E6%80%A7%E5%91%A8%E5%9B%B4%E7%A5%9E%E7%BB%8F%E7%97%85/12677123", "lemmaPic": []}, {"lemmaId": 12676946, "lemmaTitle": "糖尿病所致脊髓病", "lemmaCroppedTitle": "糖尿病所致脊髓病", "lemmaDesc": "糖尿病所致脊髓病又称糖尿病脊髓综合征。糖尿病并发症多，神经系统并发症多见于病程长...", "lemmaUrl": "http://baike.baidu.com/item/%E7%B3%96%E5%B0%BF%E7%97%85%E6%89%80%E8%87%B4%E8%84%8A%E9%AB%93%E7%97%85/12676946", "lemmaPic": []}, {"lemmaId": 5481236, "lemmaTitle": "老年人脑栓塞", "lemmaCroppedTitle": "老年人脑栓塞", "lemmaDesc": "老年人脑栓塞指脑动脉被进入血液循环的栓子堵塞所引起的急性脑血管疾病，占脑卒中的1...", "lemmaUrl": "http://baike.baidu.com/item/%E8%80%81%E5%B9%B4%E4%BA%BA%E8%84%91%E6%A0%93%E5%A1%9E/5481236", "lemmaPic": []}, {"lemmaId": 6425095, "lemmaTitle": "晶状体异位和脱位", "lemmaCroppedTitle": "晶状体异位和脱位", "lemmaDesc": "在正常情况下，晶状体由晶状体悬韧带悬挂于睫状体上，其轴与视轴几乎一致。由于先天性...", "lemmaUrl": "http://baike.baidu.com/item/%E6%99%B6%E7%8A%B6%E4%BD%93%E5%BC%82%E4%BD%8D%E5%92%8C%E8%84%B1%E4%BD%8D/6425095", "lemmaPic": []}, {"lemmaId": 7099806, "lemmaTitle": "外阴-阴道-牙龈综合征", "lemmaCroppedTitle": "外阴-阴道-牙龈综合征", "lemmaDesc": "外阴-阴道-牙龈综合征（VVGS）是一种新型的多发性黏膜糜烂性扁平苔藓，表现为外...", "lemmaUrl": "http://baike.baidu.com/item/%E5%A4%96%E9%98%B4-%E9%98%B4%E9%81%93-%E7%89%99%E9%BE%88%E7%BB%BC%E5%90%88%E5%BE%81/7099806", "lemmaPic": []}, {"lemmaId": 12676639, "lemmaTitle": "小儿室性心动过速", "lemmaCroppedTitle": "小儿室性心动过速", "lemmaDesc": "室性心动过速（VT），简称室速，是指发生在希氏束及其分叉以下的3～5个以上宽大畸...", "lemmaUrl": "http://baike.baidu.com/item/%E5%B0%8F%E5%84%BF%E5%AE%A4%E6%80%A7%E5%BF%83%E5%8A%A8%E8%BF%87%E9%80%9F/12676639", "lemmaPic": []}, {"lemmaId": 3266287, "lemmaTitle": "黏多糖贮积症Ⅶ型", "lemmaCroppedTitle": "黏多糖贮积症Ⅶ型", "lemmaDesc": "又称戈尔伯杰综合征、β-葡萄糖苷酸酶缺乏症。其特征为智力正常或略落后、骨骼改变、...", "lemmaUrl": "http://baike.baidu.com/item/%E9%BB%8F%E5%A4%9A%E7%B3%96%E8%B4%AE%E7%A7%AF%E7%97%87%E2%85%A6%E5%9E%8B/3266287", "lemmaPic": []}, {"lemmaId": 4621702, "lemmaTitle": "甲状腺功能亢进性骨矿盐疾病", "lemmaCroppedTitle": "甲状腺功能亢进性骨矿盐疾病", "lemmaDesc": "甲状腺功能亢进（甲亢）是比较常见的内分泌系统疾病之一，除有甲状腺激素分泌增多、高...", "lemmaUrl": "http://baike.baidu.com/item/%E7%94%B2%E7%8A%B6%E8%85%BA%E5%8A%9F%E8%83%BD%E4%BA%A2%E8%BF%9B%E6%80%A7%E9%AA%A8%E7%9F%BF%E7%9B%90%E7%96%BE%E7%97%85/4621702", "lemmaPic": []}, {"lemmaId": 4019938, "lemmaTitle": "原发性小肠淋巴管扩张症", "lemmaCroppedTitle": "原发性小肠淋巴管扩张症", "lemmaDesc": "原发性小肠淋巴管扩张症的特征是小肠黏膜淋巴管结构缺陷，从而导致淋巴管扩张和功能性...", "lemmaUrl": "http://baike.baidu.com/item/%E5%8E%9F%E5%8F%91%E6%80%A7%E5%B0%8F%E8%82%A0%E6%B7%8B%E5%B7%B4%E7%AE%A1%E6%89%A9%E5%BC%A0%E7%97%87/4019938", "lemmaPic": []}, {"lemmaId": 9345317, "lemmaTitle": "Kaposi's肉瘤", "lemmaCroppedTitle": "Kaposi's肉瘤", "lemmaDesc": "Kaposi&amp;#39;s肉瘤肉瘤（KS）又称多发性特发性出血性肉瘤，临床...", "lemmaUrl": "http://baike.baidu.com/item/Kaposi%27s%E8%82%89%E7%98%A4/9345317", "lemmaPic": []}, {"lemmaId": 7253610, "lemmaTitle": "后颅窝室管膜瘤", "lemmaCroppedTitle": "后颅窝室管膜瘤", "lemmaDesc": "室管膜瘤发生于脑室的室管膜细胞，好发于后颅窝。室管膜瘤和室管膜母细胞瘤的发病率在...", "lemmaUrl": "http://baike.baidu.com/item/%E5%90%8E%E9%A2%85%E7%AA%9D%E5%AE%A4%E7%AE%A1%E8%86%9C%E7%98%A4/7253610", "lemmaPic": []}], "total": 7246, "totalPage": 73, "page": 65, "fromLemma": 0}