{"lemmaList": [{"lemmaId": 11008615, "lemmaTitle": "非洲锥虫病", "lemmaCroppedTitle": "非洲锥虫病", "lemmaDesc": "非洲锥虫病又称非洲睡眠病或嗜睡性脑炎，是一种由布氏锥虫经舌蝇（俗称采采蝇）叮咬而...", "lemmaUrl": "http://baike.baidu.com/item/%E9%9D%9E%E6%B4%B2%E9%94%A5%E8%99%AB%E7%97%85/11008615", "lemmaPic": []}, {"lemmaId": 1276264, "lemmaTitle": "正常眼压性青光眼", "lemmaCroppedTitle": "正常眼压性青光眼", "lemmaDesc": "目前正常眼压性青光眼是指具有与其他青光眼相似的视盘损害，视网膜神经纤维层缺损及相...", "lemmaUrl": "http://baike.baidu.com/item/%E6%AD%A3%E5%B8%B8%E7%9C%BC%E5%8E%8B%E6%80%A7%E9%9D%92%E5%85%89%E7%9C%BC/1276264", "lemmaPic": []}, {"lemmaId": 6275578, "lemmaTitle": "肝腺瘤", "lemmaCroppedTitle": "肝腺瘤", "lemmaDesc": "肝腺瘤亦称肝细胞腺瘤（HCA），是较少见的肝脏良性肿瘤。20世纪60年代后有关肝...", "lemmaUrl": "http://baike.baidu.com/item/%E8%82%9D%E8%85%BA%E7%98%A4/6275578", "lemmaPic": []}, {"lemmaId": 3678018, "lemmaTitle": "肝结核", "lemmaCroppedTitle": "肝结核", "lemmaDesc": "肝结核较为少见，因缺乏特异的症状和体征，故临床误诊误治率较高。多数肝结核系全身粟...", "lemmaUrl": "http://baike.baidu.com/item/%E8%82%9D%E7%BB%93%E6%A0%B8/3678018", "lemmaPic": []}, {"lemmaId": 2615483, "lemmaTitle": "口腔颌面部肿瘤", "lemmaCroppedTitle": "口腔颌面部肿瘤", "lemmaDesc": "口腔颌面部的恶性肿瘤以癌为常见，肉瘤较少。癌肿中绝大多数为鳞状细胞癌，其次为腺性...", "lemmaUrl": "http://baike.baidu.com/item/%E5%8F%A3%E8%85%94%E9%A2%8C%E9%9D%A2%E9%83%A8%E8%82%BF%E7%98%A4/2615483", "lemmaPic": []}, {"lemmaId": 5358800, "lemmaTitle": "小儿泌尿系统感染", "lemmaCroppedTitle": "小儿泌尿系统感染", "lemmaDesc": "泌尿系感染（urinary tract infection）简称泌感，是由细菌直...", "lemmaUrl": "http://baike.baidu.com/item/%E5%B0%8F%E5%84%BF%E6%B3%8C%E5%B0%BF%E7%B3%BB%E7%BB%9F%E6%84%9F%E6%9F%93/5358800", "lemmaPic": []}, {"lemmaId": 951948, "lemmaTitle": "小儿颅内出血", "lemmaCroppedTitle": "小儿颅内出血", "lemmaDesc": "颅内出血（ICH）又称为出血性脑血管病或出血性卒中，系因脑血管破裂使血液外溢至颅...", "lemmaUrl": "http://baike.baidu.com/item/%E5%B0%8F%E5%84%BF%E9%A2%85%E5%86%85%E5%87%BA%E8%A1%80/951948", "lemmaPic": []}, {"lemmaId": 7371648, "lemmaTitle": "肾小球硬化", "lemmaCroppedTitle": "肾小球硬化", "lemmaDesc": "肾小球硬化是以肾小球病变的一种病理形态学特点。病变特征是肾小球毛细血管袢发生的硬...", "lemmaUrl": "http://baike.baidu.com/item/%E8%82%BE%E5%B0%8F%E7%90%83%E7%A1%AC%E5%8C%96/7371648", "lemmaPic": []}, {"lemmaId": 819820, "lemmaTitle": "急性高原病", "lemmaCroppedTitle": "急性高原病", "lemmaDesc": "急性高原病是进入高原地区，人体短期内暴露于低氧环境后产生的各种病理性反应，是高原...", "lemmaUrl": "http://baike.baidu.com/item/%E6%80%A5%E6%80%A7%E9%AB%98%E5%8E%9F%E7%97%85/819820", "lemmaPic": []}, {"lemmaId": 5502110, "lemmaTitle": "冰点无痛脱毛", "lemmaCroppedTitle": "冰点无痛脱毛", "lemmaDesc": "冰点无痛脱毛激光（soprano）采用特殊设计的双脉冲激光（dual pluse...", "lemmaUrl": "http://baike.baidu.com/item/%E5%86%B0%E7%82%B9%E6%97%A0%E7%97%9B%E8%84%B1%E6%AF%9B/5502110", "lemmaPic": []}, {"lemmaId": 2065402, "lemmaTitle": "阴沟肠杆菌感染", "lemmaCroppedTitle": "阴沟肠杆菌感染", "lemmaDesc": "阴沟肠杆菌广泛存在于自然界中，在人和动物的粪便中，泥土、植物中均可检出，是肠道正...", "lemmaUrl": "http://baike.baidu.com/item/%E9%98%B4%E6%B2%9F%E8%82%A0%E6%9D%86%E8%8F%8C%E6%84%9F%E6%9F%93/2065402", "lemmaPic": []}, {"lemmaId": 7972165, "lemmaTitle": "脑动脉粥样硬化", "lemmaCroppedTitle": "脑动脉粥样硬化", "lemmaDesc": "脑动脉粥样硬化是以进行性脂质沉积、纤维组织增生和炎性细胞浸润为特征的累及全身大、...", "lemmaUrl": "http://baike.baidu.com/item/%E8%84%91%E5%8A%A8%E8%84%89%E7%B2%A5%E6%A0%B7%E7%A1%AC%E5%8C%96/7972165", "lemmaPic": []}, {"lemmaId": 10728576, "lemmaTitle": "结核性心包炎", "lemmaCroppedTitle": "结核性心包炎", "lemmaDesc": "结核性心包炎早期为纤维素性和血性心包炎，继以心包积液，随后心包肥厚，可转为亚急性...", "lemmaUrl": "http://baike.baidu.com/item/%E7%BB%93%E6%A0%B8%E6%80%A7%E5%BF%83%E5%8C%85%E7%82%8E/10728576", "lemmaPic": []}, {"lemmaId": 2533483, "lemmaTitle": "喉阻塞", "lemmaCroppedTitle": "喉阻塞", "lemmaDesc": "喉阻塞是喉部或邻近器官的病变使喉部气道变窄以致发生呼吸困难。其为一组症候群。由于...", "lemmaUrl": "http://baike.baidu.com/item/%E5%96%89%E9%98%BB%E5%A1%9E/2533483", "lemmaPic": []}, {"lemmaId": 5241256, "lemmaTitle": "白线疝", "lemmaCroppedTitle": "白线疝", "lemmaDesc": "白线疝是发生在腹壁中线（即白线）的腹外疝，绝大多数发生于脐与剑突之间（在两者中点...", "lemmaUrl": "http://baike.baidu.com/item/%E7%99%BD%E7%BA%BF%E7%96%9D/5241256", "lemmaPic": []}, {"lemmaId": 1462681, "lemmaTitle": "慢性胆管炎", "lemmaCroppedTitle": "慢性胆管炎", "lemmaDesc": "急性胆管炎经非手术治疗后，急性炎症获得控制，但未解决胆管内的原发病因（如肝内外胆...", "lemmaUrl": "http://baike.baidu.com/item/%E6%85%A2%E6%80%A7%E8%83%86%E7%AE%A1%E7%82%8E/1462681", "lemmaPic": []}, {"lemmaId": 5320676, "lemmaTitle": "前牙深覆盖", "lemmaCroppedTitle": "前牙深覆盖", "lemmaDesc": "前牙深覆盖是指自上前牙切端至下前牙唇面的最大水平距离超过3mm者。这是临床上较常...", "lemmaUrl": "http://baike.baidu.com/item/%E5%89%8D%E7%89%99%E6%B7%B1%E8%A6%86%E7%9B%96/5320676", "lemmaPic": []}, {"lemmaId": 2630759, "lemmaTitle": "慢性髓性白血病", "lemmaCroppedTitle": "慢性髓性白血病", "lemmaDesc": "慢性髓性白血病（CML）是骨髓造血干细胞克隆性增殖形成的恶性肿瘤，绝大多数患者缓...", "lemmaUrl": "http://baike.baidu.com/item/%E6%85%A2%E6%80%A7%E9%AB%93%E6%80%A7%E7%99%BD%E8%A1%80%E7%97%85/2630759", "lemmaPic": []}, {"lemmaId": 6636009, "lemmaTitle": "积乳囊肿", "lemmaCroppedTitle": "积乳囊肿", "lemmaDesc": "积乳囊肿亦称乳汁潴留囊肿或乳汁郁积症，是妊娠期、哺乳期妇女的良性疾病。哺乳期乳房...", "lemmaUrl": "http://baike.baidu.com/item/%E7%A7%AF%E4%B9%B3%E5%9B%8A%E8%82%BF/6636009", "lemmaPic": []}, {"lemmaId": 5982869, "lemmaTitle": "胃纳呆滞", "lemmaCroppedTitle": "胃纳呆滞", "lemmaDesc": "胃接受和容纳食物的功能称作“胃主受纳”，因邪气扰动，胃气不降；或脾胃功能虚弱，出...", "lemmaUrl": "http://baike.baidu.com/item/%E8%83%83%E7%BA%B3%E5%91%86%E6%BB%9E/5982869", "lemmaPic": []}, {"lemmaId": 10600484, "lemmaTitle": "典型预激综合征", "lemmaCroppedTitle": "典型预激综合征", "lemmaDesc": "典型预激综合征亦称WPW综合征，是各型预激综合征中最多见的一种，发生率为0.1‰...", "lemmaUrl": "http://baike.baidu.com/item/%E5%85%B8%E5%9E%8B%E9%A2%84%E6%BF%80%E7%BB%BC%E5%90%88%E5%BE%81/10600484", "lemmaPic": []}, {"lemmaId": 7784019, "lemmaTitle": "肉芽肿性唇炎", "lemmaCroppedTitle": "肉芽肿性唇炎", "lemmaDesc": "肉芽肿性唇炎又称米舍尔肉芽肿性唇炎，本病应与牙源性感染引起的唇部肿胀、唇血管神经...", "lemmaUrl": "http://baike.baidu.com/item/%E8%82%89%E8%8A%BD%E8%82%BF%E6%80%A7%E5%94%87%E7%82%8E/7784019", "lemmaPic": []}, {"lemmaId": 834059, "lemmaTitle": "肝阴虚证", "lemmaCroppedTitle": "肝阴虚证", "lemmaDesc": "肝脏阴液亏虚不足而虚热内扰所导致，临床以头晕耳鸣，胁肋隐痛，烦热目涩等为主要表现...", "lemmaUrl": "http://baike.baidu.com/item/%E8%82%9D%E9%98%B4%E8%99%9A%E8%AF%81/834059", "lemmaPic": []}, {"lemmaId": 5403102, "lemmaTitle": "异位胰腺", "lemmaCroppedTitle": "异位胰腺", "lemmaDesc": "异位胰腺又称迷路胰腺或副胰，凡在胰腺本身以外生长的、与正常胰腺组织既无解剖上的联...", "lemmaUrl": "http://baike.baidu.com/item/%E5%BC%82%E4%BD%8D%E8%83%B0%E8%85%BA/5403102", "lemmaPic": []}, {"lemmaId": 8712783, "lemmaTitle": "颅底凹陷症", "lemmaCroppedTitle": "颅底凹陷症", "lemmaDesc": "颅底凹陷症（basilar invagination）是枕骨大孔周围的颅底骨向上...", "lemmaUrl": "http://baike.baidu.com/item/%E9%A2%85%E5%BA%95%E5%87%B9%E9%99%B7%E7%97%87/8712783", "lemmaPic": []}, {"lemmaId": 10465149, "lemmaTitle": "黄曲霉毒素中毒", "lemmaCroppedTitle": "黄曲霉毒素中毒", "lemmaDesc": "黄曲霉毒素主要由黄曲霉菌产生，其他曲霉菌和青霉菌也可产生少许，这些真菌主要寄生于...", "lemmaUrl": "http://baike.baidu.com/item/%E9%BB%84%E6%9B%B2%E9%9C%89%E6%AF%92%E7%B4%A0%E4%B8%AD%E6%AF%92/10465149", "lemmaPic": []}, {"lemmaId": 5242439, "lemmaTitle": "创伤性气胸", "lemmaCroppedTitle": "创伤性气胸", "lemmaDesc": "创伤性气胸发生率在钝性伤中占15%～50%，在穿透性伤中占30%～87.6%。多...", "lemmaUrl": "http://baike.baidu.com/item/%E5%88%9B%E4%BC%A4%E6%80%A7%E6%B0%94%E8%83%B8/5242439", "lemmaPic": []}, {"lemmaId": 3743576, "lemmaTitle": "颅压增高", "lemmaCroppedTitle": "颅压增高", "lemmaDesc": "正常成人如超过1.96kPa(200mmH2O）即为颅内压增高。颅内占位性病变、...", "lemmaUrl": "http://baike.baidu.com/item/%E9%A2%85%E5%8E%8B%E5%A2%9E%E9%AB%98/3743576", "lemmaPic": []}, {"lemmaId": 5055715, "lemmaTitle": "膜性肾小球肾炎", "lemmaCroppedTitle": "膜性肾小球肾炎", "lemmaDesc": "膜性肾小球肾炎（membranous glomerulonephritis），又...", "lemmaUrl": "http://baike.baidu.com/item/%E8%86%9C%E6%80%A7%E8%82%BE%E5%B0%8F%E7%90%83%E8%82%BE%E7%82%8E/5055715", "lemmaPic": []}, {"lemmaId": 10809363, "lemmaTitle": "风邪致病", "lemmaCroppedTitle": "风邪致病", "lemmaDesc": "引起外感病的原因是外邪，中医将外邪分为风、寒、暑、湿、燥、热（火）六种，称为“六...", "lemmaUrl": "http://baike.baidu.com/item/%E9%A3%8E%E9%82%AA%E8%87%B4%E7%97%85/10809363", "lemmaPic": []}, {"lemmaId": 8456608, "lemmaTitle": "急性间质性肾炎", "lemmaCroppedTitle": "急性间质性肾炎", "lemmaDesc": "急性间质性肾炎（AIN）是以急性肾小管间质炎症为基本特征的一组肾脏疾病，可由多种...", "lemmaUrl": "http://baike.baidu.com/item/%E6%80%A5%E6%80%A7%E9%97%B4%E8%B4%A8%E6%80%A7%E8%82%BE%E7%82%8E/8456608", "lemmaPic": []}, {"lemmaId": 7998971, "lemmaTitle": "膀胱移行细胞癌", "lemmaCroppedTitle": "膀胱移行细胞癌", "lemmaDesc": "膀胱移行细胞癌是泌尿系统最常见的肿瘤，占男性肿瘤的6%，死亡率为2.5%。病因尚...", "lemmaUrl": "http://baike.baidu.com/item/%E8%86%80%E8%83%B1%E7%A7%BB%E8%A1%8C%E7%BB%86%E8%83%9E%E7%99%8C/7998971", "lemmaPic": []}, {"lemmaId": 4877146, "lemmaTitle": "绿色瘤", "lemmaCroppedTitle": "绿色瘤", "lemmaDesc": "绿色瘤系为髓性白血病，异常白细胞在骨膜下或软组织内所形成的一种局限性浸润。因其颜...", "lemmaUrl": "http://baike.baidu.com/item/%E7%BB%BF%E8%89%B2%E7%98%A4/4877146", "lemmaPic": []}, {"lemmaId": 2703390, "lemmaTitle": "良性前列腺增生症", "lemmaCroppedTitle": "良性前列腺增生症", "lemmaDesc": "良性前列腺增生症是一种中老年男性常见的疾病，50岁以上的男性约有一半会出现临床症...", "lemmaUrl": "http://baike.baidu.com/item/%E8%89%AF%E6%80%A7%E5%89%8D%E5%88%97%E8%85%BA%E5%A2%9E%E7%94%9F%E7%97%87/2703390", "lemmaPic": []}, {"lemmaId": 1145877, "lemmaTitle": "皮脂腺腺瘤", "lemmaCroppedTitle": "皮脂腺腺瘤", "lemmaDesc": "皮脂腺腺瘤通常指浅表的良性皮脂腺肿瘤，有明显的向成熟皮脂腺细胞分化现象。", "lemmaUrl": "http://baike.baidu.com/item/%E7%9A%AE%E8%84%82%E8%85%BA%E8%85%BA%E7%98%A4/1145877", "lemmaPic": []}, {"lemmaId": 10777391, "lemmaTitle": "Meckel憩室", "lemmaCroppedTitle": "Meckel憩室", "lemmaDesc": "Meckel憩室是末端回肠壁上的指状突出物，为卵黄肠管部分未闭所遗留下来的一种先...", "lemmaUrl": "http://baike.baidu.com/item/Meckel%E6%86%A9%E5%AE%A4/10777391", "lemmaPic": []}, {"lemmaId": 4193543, "lemmaTitle": "气不足", "lemmaCroppedTitle": "气不足", "lemmaDesc": "气不足，病因病理学名词。指正气不足。《灵枢・口问》：“故邪之所在，皆为不足。故上...", "lemmaUrl": "http://baike.baidu.com/item/%E6%B0%94%E4%B8%8D%E8%B6%B3/4193543", "lemmaPic": []}, {"lemmaId": 923017, "lemmaTitle": "胃石症", "lemmaCroppedTitle": "胃石症", "lemmaDesc": "由于摄入了某些植物成分或吞入毛发及某些矿物质如碳酸钙、钡剂、铋剂等在胃内凝结而形...", "lemmaUrl": "http://baike.baidu.com/item/%E8%83%83%E7%9F%B3%E7%97%87/923017", "lemmaPic": []}, {"lemmaId": 5243735, "lemmaTitle": "妊娠期心脏病", "lemmaCroppedTitle": "妊娠期心脏病", "lemmaDesc": "妊娠期心脏病可分为两大类，第一类为妊娠之前就存在的心脏病，以风湿性及先天性心脏病...", "lemmaUrl": "http://baike.baidu.com/item/%E5%A6%8A%E5%A8%A0%E6%9C%9F%E5%BF%83%E8%84%8F%E7%97%85/5243735", "lemmaPic": []}, {"lemmaId": 7933591, "lemmaTitle": "乙型肝炎病毒相关性肾炎", "lemmaCroppedTitle": "乙型肝炎病毒相关性肾炎", "lemmaDesc": "乙型肝炎病毒相关性肾炎（HBV―GN）简称乙肝相关性肾炎，是指HBV感染人体后通...", "lemmaUrl": "http://baike.baidu.com/item/%E4%B9%99%E5%9E%8B%E8%82%9D%E7%82%8E%E7%97%85%E6%AF%92%E7%9B%B8%E5%85%B3%E6%80%A7%E8%82%BE%E7%82%8E/7933591", "lemmaPic": []}, {"lemmaId": 5322162, "lemmaTitle": "食管异物", "lemmaCroppedTitle": "食管异物", "lemmaDesc": "食管异物是指因饮食不慎，误咽异物，如鱼刺、骨片或脱落的假牙等，异物可暂时停留或嵌...", "lemmaUrl": "http://baike.baidu.com/item/%E9%A3%9F%E7%AE%A1%E5%BC%82%E7%89%A9/5322162", "lemmaPic": []}, {"lemmaId": 5317264, "lemmaTitle": "眼睑湿疹", "lemmaCroppedTitle": "眼睑湿疹", "lemmaDesc": "眼睑湿疹是一种过敏性皮肤病，分急性、亚急性和慢性三种表现。可单发于眼睑部，亦可为...", "lemmaUrl": "http://baike.baidu.com/item/%E7%9C%BC%E7%9D%91%E6%B9%BF%E7%96%B9/5317264", "lemmaPic": []}, {"lemmaId": 10357392, "lemmaTitle": "非骨化性纤维瘤", "lemmaCroppedTitle": "非骨化性纤维瘤", "lemmaDesc": "非骨化性纤维瘤是由组织成纤维细胞组成的干骺端错构瘤，又称干骺端纤维性缺损、非成骨...", "lemmaUrl": "http://baike.baidu.com/item/%E9%9D%9E%E9%AA%A8%E5%8C%96%E6%80%A7%E7%BA%A4%E7%BB%B4%E7%98%A4/10357392", "lemmaPic": []}, {"lemmaId": 9502228, "lemmaTitle": "原发性肾上腺皮质功能减退症", "lemmaCroppedTitle": "原发性肾上腺皮质功能减退症", "lemmaDesc": "原发性肾上腺皮质功能减退症又称艾迪生病，是由肾上腺皮质功能低下引起的一种全身性疾...", "lemmaUrl": "http://baike.baidu.com/item/%E5%8E%9F%E5%8F%91%E6%80%A7%E8%82%BE%E4%B8%8A%E8%85%BA%E7%9A%AE%E8%B4%A8%E5%8A%9F%E8%83%BD%E5%87%8F%E9%80%80%E7%97%87/9502228", "lemmaPic": []}, {"lemmaId": 3587184, "lemmaTitle": "胸主动脉瘤", "lemmaCroppedTitle": "胸主动脉瘤", "lemmaDesc": "胸主动脉瘤是由于各种原因造成的主动脉一处或多处向外膨出，出现的像“瘤子一样”的改...", "lemmaUrl": "http://baike.baidu.com/item/%E8%83%B8%E4%B8%BB%E5%8A%A8%E8%84%89%E7%98%A4/3587184", "lemmaPic": []}, {"lemmaId": 279601, "lemmaTitle": "腹部损伤", "lemmaCroppedTitle": "腹部损伤", "lemmaDesc": "多数腹部损伤同时有严重的内脏损伤，如果伴有腹腔实质脏器或大血管损伤，可因大出血而...", "lemmaUrl": "http://baike.baidu.com/item/%E8%85%B9%E9%83%A8%E6%8D%9F%E4%BC%A4/279601", "lemmaPic": []}, {"lemmaId": 2546831, "lemmaTitle": "小儿细菌性痢疾", "lemmaCroppedTitle": "小儿细菌性痢疾", "lemmaDesc": "细菌性痢疾简称菌痢，是由志贺菌属引起的常见肠道传染病。各年龄组小儿均易感，多见于...", "lemmaUrl": "http://baike.baidu.com/item/%E5%B0%8F%E5%84%BF%E7%BB%86%E8%8F%8C%E6%80%A7%E7%97%A2%E7%96%BE/2546831", "lemmaPic": []}, {"lemmaId": 2105507, "lemmaTitle": "高危儿", "lemmaCroppedTitle": "高危儿", "lemmaDesc": "高危儿是指在胎儿期、分娩时、新生儿期受到各种高危因素的危害，已发生或可能发生危重...", "lemmaUrl": "http://baike.baidu.com/item/%E9%AB%98%E5%8D%B1%E5%84%BF/2105507", "lemmaPic": []}, {"lemmaId": 10491014, "lemmaTitle": "慢性闭角型青光眼", "lemmaCroppedTitle": "慢性闭角型青光眼", "lemmaDesc": "慢性闭角型青光眼发病机制尚不十分明确，眼压（IOP）升高时前房角关闭，发作时眼前...", "lemmaUrl": "http://baike.baidu.com/item/%E6%85%A2%E6%80%A7%E9%97%AD%E8%A7%92%E5%9E%8B%E9%9D%92%E5%85%89%E7%9C%BC/10491014", "lemmaPic": []}, {"lemmaId": 1927704, "lemmaTitle": "扭转痉挛", "lemmaCroppedTitle": "扭转痉挛", "lemmaDesc": "扭转痉挛又称特发性扭转痉挛（ITS）、扭转性肌张力障碍、原发性肌张力障碍，临床以...", "lemmaUrl": "http://baike.baidu.com/item/%E6%89%AD%E8%BD%AC%E7%97%89%E6%8C%9B/1927704", "lemmaPic": []}, {"lemmaId": 1051544, "lemmaTitle": "脐带打结", "lemmaCroppedTitle": "脐带打结", "lemmaDesc": "脐带打结为脐带异常情况中的一种。脐带打结有脐带假结及脐带真结两种。脐带假结是指因...", "lemmaUrl": "http://baike.baidu.com/item/%E8%84%90%E5%B8%A6%E6%89%93%E7%BB%93/1051544", "lemmaPic": []}, {"lemmaId": 1968314, "lemmaTitle": "急惊风", "lemmaCroppedTitle": "急惊风", "lemmaDesc": "惊风是小儿时期常见的一种急重病症，以临床出现抽搐、昏迷为主要症状。又称“惊厥”，...", "lemmaUrl": "http://baike.baidu.com/item/%E6%80%A5%E6%83%8A%E9%A3%8E/1968314", "lemmaPic": []}, {"lemmaId": 3030287, "lemmaTitle": "曼陀罗中毒", "lemmaCroppedTitle": "曼陀罗中毒", "lemmaDesc": "曼陀罗又称疯茄儿，其花称洋金花，是常用的中药之一。误食茄科曼陀罗属植物的种子，浆...", "lemmaUrl": "http://baike.baidu.com/item/%E6%9B%BC%E9%99%80%E7%BD%97%E4%B8%AD%E6%AF%92/3030287", "lemmaPic": []}, {"lemmaId": 7968633, "lemmaTitle": "胎粪吸入综合征", "lemmaCroppedTitle": "胎粪吸入综合征", "lemmaDesc": "胎粪吸入综合征（MAS）是指胎儿在宫内或娩出过程中吸入被胎粪污染的羊水，发生气道...", "lemmaUrl": "http://baike.baidu.com/item/%E8%83%8E%E7%B2%AA%E5%90%B8%E5%85%A5%E7%BB%BC%E5%90%88%E5%BE%81/7968633", "lemmaPic": []}, {"lemmaId": 1123385, "lemmaTitle": "维生素D中毒症", "lemmaCroppedTitle": "维生素D中毒症", "lemmaDesc": "维生素D中毒症是医源性疾病之一。主要由于在防治佝偻病时错误诊断和过量使用维生素D...", "lemmaUrl": "http://baike.baidu.com/item/%E7%BB%B4%E7%94%9F%E7%B4%A0D%E4%B8%AD%E6%AF%92%E7%97%87/1123385", "lemmaPic": []}, {"lemmaId": 8252897, "lemmaTitle": "色素失禁症", "lemmaCroppedTitle": "色素失禁症", "lemmaDesc": "色素失禁症，也称Bloch-Sulzberger病，主要见于女性，是一种X连锁显...", "lemmaUrl": "http://baike.baidu.com/item/%E8%89%B2%E7%B4%A0%E5%A4%B1%E7%A6%81%E7%97%87/8252897", "lemmaPic": []}, {"lemmaId": 5085817, "lemmaTitle": "脊椎结核", "lemmaCroppedTitle": "脊椎结核", "lemmaDesc": "脊椎结核：椎体病变因循环障碍及结核感染，有骨质破坏及坏死，有干酪样改变和脓肿形成...", "lemmaUrl": "http://baike.baidu.com/item/%E8%84%8A%E6%A4%8E%E7%BB%93%E6%A0%B8/5085817", "lemmaPic": []}, {"lemmaId": 3771110, "lemmaTitle": "经期综合征", "lemmaCroppedTitle": "经期综合征", "lemmaDesc": "经期综合征是指在经期或行经期前后发生的下腹部疼痛，常伴随有恶心、呕吐、腹泻等，严...", "lemmaUrl": "http://baike.baidu.com/item/%E7%BB%8F%E6%9C%9F%E7%BB%BC%E5%90%88%E5%BE%81/3771110", "lemmaPic": []}, {"lemmaId": 359901, "lemmaTitle": "汽油中毒", "lemmaCroppedTitle": "汽油中毒", "lemmaDesc": "汽油为麻醉性毒物，主要作用于中枢神经系统，引起神经功能紊乱，低浓度引起人体条件反...", "lemmaUrl": "http://baike.baidu.com/item/%E6%B1%BD%E6%B2%B9%E4%B8%AD%E6%AF%92/359901", "lemmaPic": []}, {"lemmaId": 5169227, "lemmaTitle": "男性生殖器畸形", "lemmaCroppedTitle": "男性生殖器畸形", "lemmaDesc": "男性生殖器畸形包括很多，有的先天性畸形只影响生育力，如单纯性输精管缺如，而有的还...", "lemmaUrl": "http://baike.baidu.com/item/%E7%94%B7%E6%80%A7%E7%94%9F%E6%AE%96%E5%99%A8%E7%95%B8%E5%BD%A2/5169227", "lemmaPic": []}, {"lemmaId": 5983020, "lemmaTitle": "肝火犯肺", "lemmaCroppedTitle": "肝火犯肺", "lemmaDesc": "本证多由情志郁结，气郁化火，灼伤肺阴，或邪热蕴结肝胆，上犯于肺，肺失清肃或肺络受...", "lemmaUrl": "http://baike.baidu.com/item/%E8%82%9D%E7%81%AB%E7%8A%AF%E8%82%BA/5983020", "lemmaPic": []}, {"lemmaId": 87930, "lemmaTitle": "鼓胀", "lemmaCroppedTitle": "鼓胀", "lemmaDesc": "鼓胀系指肝病日久，肝脾肾功能失调，气滞、血瘀、水停于腹中所导致的以腹胀大如鼓，皮...", "lemmaUrl": "http://baike.baidu.com/item/%E9%BC%93%E8%83%80/87930", "lemmaPic": []}, {"lemmaId": 2936211, "lemmaTitle": "毛母质瘤", "lemmaCroppedTitle": "毛母质瘤", "lemmaDesc": "毛母质瘤又称钙化上皮瘤，是源自向毛母质细胞分化的原始上皮胚芽细胞的一种良性肿瘤。...", "lemmaUrl": "http://baike.baidu.com/item/%E6%AF%9B%E6%AF%8D%E8%B4%A8%E7%98%A4/2936211", "lemmaPic": []}, {"lemmaId": 2130583, "lemmaTitle": "卡氏肺孢子虫肺炎", "lemmaCroppedTitle": "卡氏肺孢子虫肺炎", "lemmaDesc": "卡氏肺孢子虫肺炎，又称卡氏肺囊虫肺炎，是由卡氏肺孢子虫引起的间质性浆细胞性肺炎，...", "lemmaUrl": "http://baike.baidu.com/item/%E5%8D%A1%E6%B0%8F%E8%82%BA%E5%AD%A2%E5%AD%90%E8%99%AB%E8%82%BA%E7%82%8E/2130583", "lemmaPic": []}, {"lemmaId": 8053479, "lemmaTitle": "颈动脉窦综合征", "lemmaCroppedTitle": "颈动脉窦综合征", "lemmaDesc": "颈动脉窦综合征（css）是一组自发地突发性头昏、乏力、耳鸣以至晕厥的临床综合征。...", "lemmaUrl": "http://baike.baidu.com/item/%E9%A2%88%E5%8A%A8%E8%84%89%E7%AA%A6%E7%BB%BC%E5%90%88%E5%BE%81/8053479", "lemmaPic": []}, {"lemmaId": 4227661, "lemmaTitle": "球孢子菌病", "lemmaCroppedTitle": "球孢子菌病", "lemmaDesc": "球孢子菌病，又称球孢子菌性肉芽肿，是由粗球孢子菌引起的一种疾病。常表现为急性良性...", "lemmaUrl": "http://baike.baidu.com/item/%E7%90%83%E5%AD%A2%E5%AD%90%E8%8F%8C%E7%97%85/4227661", "lemmaPic": []}, {"lemmaId": 995558, "lemmaTitle": "慢性肥厚性咽炎", "lemmaCroppedTitle": "慢性肥厚性咽炎", "lemmaDesc": "又称慢性颗粒性咽炎及咽侧炎、慢性咽炎。本病较多见。咽部黏膜充血增厚，黏膜及黏膜下...", "lemmaUrl": "http://baike.baidu.com/item/%E6%85%A2%E6%80%A7%E8%82%A5%E5%8E%9A%E6%80%A7%E5%92%BD%E7%82%8E/995558", "lemmaPic": []}, {"lemmaId": 2259541, "lemmaTitle": "颞动脉炎", "lemmaCroppedTitle": "颞动脉炎", "lemmaDesc": "颞动脉炎也称颅动脉炎，是以解剖部位命名的。它属一种大、中动脉炎症，可累及多个部位...", "lemmaUrl": "http://baike.baidu.com/item/%E9%A2%9E%E5%8A%A8%E8%84%89%E7%82%8E/2259541", "lemmaPic": []}, {"lemmaId": 10002036, "lemmaTitle": "小儿急性肾小球肾炎", "lemmaCroppedTitle": "小儿急性肾小球肾炎", "lemmaDesc": "小儿急性肾小球肾炎简称急性肾炎，是指一组病因不一，临床表现为急性起病，以血尿为主...", "lemmaUrl": "http://baike.baidu.com/item/%E5%B0%8F%E5%84%BF%E6%80%A5%E6%80%A7%E8%82%BE%E5%B0%8F%E7%90%83%E8%82%BE%E7%82%8E/10002036", "lemmaPic": []}, {"lemmaId": 6272949, "lemmaTitle": "沙门氏菌属食物中毒", "lemmaCroppedTitle": "沙门氏菌属食物中毒", "lemmaDesc": "沙门氏菌属食物中毒是一种常见的细菌性食物中毒，由一群革兰氏阴性杆菌组成的尤其是对...", "lemmaUrl": "http://baike.baidu.com/item/%E6%B2%99%E9%97%A8%E6%B0%8F%E8%8F%8C%E5%B1%9E%E9%A3%9F%E7%89%A9%E4%B8%AD%E6%AF%92/6272949", "lemmaPic": []}, {"lemmaId": 7365476, "lemmaTitle": "脾火", "lemmaCroppedTitle": "脾火", "lemmaDesc": "脾火，证候多同胃火。本证常因饮食不节，嗜食辛辣香燥之品，过食肥甘之物，或嗜酒；或...", "lemmaUrl": "http://baike.baidu.com/item/%E8%84%BE%E7%81%AB/7365476", "lemmaPic": []}, {"lemmaId": 8571519, "lemmaTitle": "踝管综合征", "lemmaCroppedTitle": "踝管综合征", "lemmaDesc": "踝管综合征是由胫神经或其终末支（足底内侧或外侧神经）在小腿或踝关节处卡压引起。屈...", "lemmaUrl": "http://baike.baidu.com/item/%E8%B8%9D%E7%AE%A1%E7%BB%BC%E5%90%88%E5%BE%81/8571519", "lemmaPic": []}, {"lemmaId": 463685, "lemmaTitle": "鼻疽", "lemmaCroppedTitle": "鼻疽", "lemmaDesc": "鼻疽属于人兽共患病，其病原体是不运动的革兰阴性鼻疽假单胞菌。人对鼻疽十分易感，主...", "lemmaUrl": "http://baike.baidu.com/item/%E9%BC%BB%E7%96%BD/463685", "lemmaPic": []}, {"lemmaId": 8537696, "lemmaTitle": "日本血吸虫病", "lemmaCroppedTitle": "日本血吸虫病", "lemmaDesc": "日本血吸虫病是日本血吸虫寄生在门静脉系统所引起的疾病。由皮肤接触含尾蚴的疫水而感...", "lemmaUrl": "http://baike.baidu.com/item/%E6%97%A5%E6%9C%AC%E8%A1%80%E5%90%B8%E8%99%AB%E7%97%85/8537696", "lemmaPic": []}, {"lemmaId": 1622810, "lemmaTitle": "放线菌病", "lemmaCroppedTitle": "放线菌病", "lemmaDesc": "由放线菌引起的慢性化脓性肉芽肿性疾病。病变好发于面颈部及胸腹部，以向周围组织扩展...", "lemmaUrl": "http://baike.baidu.com/item/%E6%94%BE%E7%BA%BF%E8%8F%8C%E7%97%85/1622810", "lemmaPic": []}, {"lemmaId": 1128014, "lemmaTitle": "卫气营血辨证", "lemmaCroppedTitle": "卫气营血辨证", "lemmaDesc": "诊断学名词。辨证方法之一。用于温病辨证，清代叶天士所创。即以外感温病由浅入深或由...", "lemmaUrl": "http://baike.baidu.com/item/%E5%8D%AB%E6%B0%94%E8%90%A5%E8%A1%80%E8%BE%A8%E8%AF%81/1128014", "lemmaPic": []}, {"lemmaId": 6003809, "lemmaTitle": "肱骨大结节骨折", "lemmaCroppedTitle": "肱骨大结节骨折", "lemmaDesc": "肱骨大结节骨折，少数为单独发生，大多系肩关节前脱位时并发，故诊断时应注意有无肩关...", "lemmaUrl": "http://baike.baidu.com/item/%E8%82%B1%E9%AA%A8%E5%A4%A7%E7%BB%93%E8%8A%82%E9%AA%A8%E6%8A%98/6003809", "lemmaPic": []}, {"lemmaId": 10356908, "lemmaTitle": "急性甲状腺炎", "lemmaCroppedTitle": "急性甲状腺炎", "lemmaDesc": "急性甲状腺炎是甲状腺发生的急性化脓性感染，又称为急性化脓性甲状腺炎（AST），是...", "lemmaUrl": "http://baike.baidu.com/item/%E6%80%A5%E6%80%A7%E7%94%B2%E7%8A%B6%E8%85%BA%E7%82%8E/10356908", "lemmaPic": []}, {"lemmaId": 1089270, "lemmaTitle": "胃气痛", "lemmaCroppedTitle": "胃气痛", "lemmaDesc": "胃脘气机失调所致胃脘部疼痛。见《春脚集》卷二。《经验奇方》卷下：“胃气痛，此症甚...", "lemmaUrl": "http://baike.baidu.com/item/%E8%83%83%E6%B0%94%E7%97%9B/1089270", "lemmaPic": []}, {"lemmaId": 10393383, "lemmaTitle": "睾丸损伤", "lemmaCroppedTitle": "睾丸损伤", "lemmaDesc": "阴囊软组织松弛，睾丸活动度较大，但阴囊内容物组织脆嫩，抗损伤能力较差。因此，阴囊...", "lemmaUrl": "http://baike.baidu.com/item/%E7%9D%BE%E4%B8%B8%E6%8D%9F%E4%BC%A4/10393383", "lemmaPic": []}, {"lemmaId": 9655967, "lemmaTitle": "附红细胞体病", "lemmaCroppedTitle": "附红细胞体病", "lemmaDesc": "附红细胞体病是由附红细胞体寄生于多种动物和人的红细胞表面、血浆及骨髓等部位所引起...", "lemmaUrl": "http://baike.baidu.com/item/%E9%99%84%E7%BA%A2%E7%BB%86%E8%83%9E%E4%BD%93%E7%97%85/9655967", "lemmaPic": []}, {"lemmaId": 1144023, "lemmaTitle": "淤积性皮炎", "lemmaCroppedTitle": "淤积性皮炎", "lemmaDesc": "淤积性皮炎又名淤积性湿疹、静脉曲张性湿疹、重力性湿疹、低张力性皮炎。淤积性皮炎是...", "lemmaUrl": "http://baike.baidu.com/item/%E6%B7%A4%E7%A7%AF%E6%80%A7%E7%9A%AE%E7%82%8E/1144023", "lemmaPic": []}, {"lemmaId": 10222036, "lemmaTitle": "急性出血性坏死性肠炎", "lemmaCroppedTitle": "急性出血性坏死性肠炎", "lemmaDesc": "急性出血性坏死性肠炎（AHNE）是一种危及生命的暴发性疾病，病因不清，其发病与肠...", "lemmaUrl": "http://baike.baidu.com/item/%E6%80%A5%E6%80%A7%E5%87%BA%E8%A1%80%E6%80%A7%E5%9D%8F%E6%AD%BB%E6%80%A7%E8%82%A0%E7%82%8E/10222036", "lemmaPic": []}, {"lemmaId": 1968212, "lemmaTitle": "阴道鳞状上皮癌", "lemmaCroppedTitle": "阴道鳞状上皮癌", "lemmaDesc": "阴道鳞状上皮癌的病因不明，阴道癌在中国发病率并不是很高，较为少见，但是其他原发癌...", "lemmaUrl": "http://baike.baidu.com/item/%E9%98%B4%E9%81%93%E9%B3%9E%E7%8A%B6%E4%B8%8A%E7%9A%AE%E7%99%8C/1968212", "lemmaPic": []}, {"lemmaId": 3569354, "lemmaTitle": "非酮性高渗性糖尿病昏迷", "lemmaCroppedTitle": "非酮性高渗性糖尿病昏迷", "lemmaDesc": "非酮性高渗性糖尿病昏迷简称糖尿病高渗性昏迷，是由于应激情况性体内胰岛素相对不足，...", "lemmaUrl": "http://baike.baidu.com/item/%E9%9D%9E%E9%85%AE%E6%80%A7%E9%AB%98%E6%B8%97%E6%80%A7%E7%B3%96%E5%B0%BF%E7%97%85%E6%98%8F%E8%BF%B7/3569354", "lemmaPic": []}, {"lemmaId": 7515666, "lemmaTitle": "软骨母细胞瘤", "lemmaCroppedTitle": "软骨母细胞瘤", "lemmaDesc": "软骨母细胞瘤又称Codman肿瘤。软骨母细胞瘤为来源于幼稚软骨细胞（软骨母细胞）...", "lemmaUrl": "http://baike.baidu.com/item/%E8%BD%AF%E9%AA%A8%E6%AF%8D%E7%BB%86%E8%83%9E%E7%98%A4/7515666", "lemmaPic": []}, {"lemmaId": 9363031, "lemmaTitle": "青春期综合征", "lemmaCroppedTitle": "青春期综合征", "lemmaDesc": "青春期是每个人在成长过程中的必经之路，它也是人们从依赖走向独立的过程。在这个过程...", "lemmaUrl": "http://baike.baidu.com/item/%E9%9D%92%E6%98%A5%E6%9C%9F%E7%BB%BC%E5%90%88%E5%BE%81/9363031", "lemmaPic": []}, {"lemmaId": 10784017, "lemmaTitle": "眼丹", "lemmaCroppedTitle": "眼丹", "lemmaDesc": "眼丹是指胞睑红肿如涂丹，{痛严重，后期则化脓溃破，且常伴显著的全身反应，如恶寒、...", "lemmaUrl": "http://baike.baidu.com/item/%E7%9C%BC%E4%B8%B9/10784017", "lemmaPic": []}, {"lemmaId": 2454546, "lemmaTitle": "月经疹", "lemmaCroppedTitle": "月经疹", "lemmaDesc": "月经疹（Exanthema Menstruale）是一种与月经周期密切有关发疹性...", "lemmaUrl": "http://baike.baidu.com/item/%E6%9C%88%E7%BB%8F%E7%96%B9/2454546", "lemmaPic": []}, {"lemmaId": 2222700, "lemmaTitle": "结节性筋膜炎", "lemmaCroppedTitle": "结节性筋膜炎", "lemmaDesc": "结节性筋膜炎是一种生长迅速、具有自限的浅筋膜结节性纤维母细胞增生病变，具有反应性...", "lemmaUrl": "http://baike.baidu.com/item/%E7%BB%93%E8%8A%82%E6%80%A7%E7%AD%8B%E8%86%9C%E7%82%8E/2222700", "lemmaPic": []}, {"lemmaId": 2511292, "lemmaTitle": "肾上腺危象", "lemmaCroppedTitle": "肾上腺危象", "lemmaDesc": "指由各种原因导致肾上腺皮质激素分泌不足或缺如而引起的一系列临床症状，可累及多个系...", "lemmaUrl": "http://baike.baidu.com/item/%E8%82%BE%E4%B8%8A%E8%85%BA%E5%8D%B1%E8%B1%A1/2511292", "lemmaPic": []}, {"lemmaId": 968469, "lemmaTitle": "放射性食管炎", "lemmaCroppedTitle": "放射性食管炎", "lemmaDesc": "放射治疗简称放疗，广泛地应用于胸腔纵隔恶性肿瘤的处理，但由于放射线对生物体产生的...", "lemmaUrl": "http://baike.baidu.com/item/%E6%94%BE%E5%B0%84%E6%80%A7%E9%A3%9F%E7%AE%A1%E7%82%8E/968469", "lemmaPic": []}, {"lemmaId": 10005665, "lemmaTitle": "颈动脉海绵窦瘘", "lemmaCroppedTitle": "颈动脉海绵窦瘘", "lemmaDesc": "颈动脉海绵窦瘘（carotid-cavernous fistula，CCF）一般...", "lemmaUrl": "http://baike.baidu.com/item/%E9%A2%88%E5%8A%A8%E8%84%89%E6%B5%B7%E7%BB%B5%E7%AA%A6%E7%98%98/10005665", "lemmaPic": []}, {"lemmaId": 3622784, "lemmaTitle": "goodpasture综合征", "lemmaCroppedTitle": "goodpasture综合征", "lemmaDesc": "Goodpasture综合征为病因不明的过敏性疾病，血内有循环抗肾小球基底膜抗体...", "lemmaUrl": "http://baike.baidu.com/item/goodpasture%E7%BB%BC%E5%90%88%E5%BE%81/3622784", "lemmaPic": []}, {"lemmaId": 3791498, "lemmaTitle": "髋关节结核", "lemmaCroppedTitle": "髋关节结核", "lemmaDesc": "髋关节结核在全身骨关节结核中约占7.20%，仅次于脊椎结核而居第二位。多见于儿童...", "lemmaUrl": "http://baike.baidu.com/item/%E9%AB%8B%E5%85%B3%E8%8A%82%E7%BB%93%E6%A0%B8/3791498", "lemmaPic": []}, {"lemmaId": 10213037, "lemmaTitle": "内翻性乳头状瘤", "lemmaCroppedTitle": "内翻性乳头状瘤", "lemmaDesc": "鼻内翻性乳头状瘤（NIP）是鼻科最常见的良性肿瘤之一，其病理特征为上皮组织高度增...", "lemmaUrl": "http://baike.baidu.com/item/%E5%86%85%E7%BF%BB%E6%80%A7%E4%B9%B3%E5%A4%B4%E7%8A%B6%E7%98%A4/10213037", "lemmaPic": []}, {"lemmaId": 10987967, "lemmaTitle": "低位肛瘘", "lemmaCroppedTitle": "低位肛瘘", "lemmaDesc": "低位肛瘘是指瘘管管道或创腔位于肛门外括约肌深层以下的肛瘘，中医称肛漏。本病可发生...", "lemmaUrl": "http://baike.baidu.com/item/%E4%BD%8E%E4%BD%8D%E8%82%9B%E7%98%98/10987967", "lemmaPic": []}, {"lemmaId": 3708605, "lemmaTitle": "维生素中毒症", "lemmaCroppedTitle": "维生素中毒症", "lemmaDesc": "所谓维生素中毒症。就是服用过量的维生素后所发生的中毒性病症。多年来，一直认为儿童...", "lemmaUrl": "http://baike.baidu.com/item/%E7%BB%B4%E7%94%9F%E7%B4%A0%E4%B8%AD%E6%AF%92%E7%97%87/3708605", "lemmaPic": []}, {"lemmaId": 2827583, "lemmaTitle": "癫痫性精神障碍", "lemmaCroppedTitle": "癫痫性精神障碍", "lemmaDesc": "癫痫性精神障碍人们通过长期观察发现，癫痫患者容易出现多种类型的精神问题，情感障碍...", "lemmaUrl": "http://baike.baidu.com/item/%E7%99%AB%E7%97%AB%E6%80%A7%E7%B2%BE%E7%A5%9E%E9%9A%9C%E7%A2%8D/2827583", "lemmaPic": []}, {"lemmaId": 4003106, "lemmaTitle": "共同性斜视", "lemmaCroppedTitle": "共同性斜视", "lemmaDesc": "所谓共同性斜视，是指两眼视轴不互相平行，又不能同时注视一个目标，以致一眼正位时，...", "lemmaUrl": "http://baike.baidu.com/item/%E5%85%B1%E5%90%8C%E6%80%A7%E6%96%9C%E8%A7%86/4003106", "lemmaPic": []}], "total": 7246, "totalPage": 73, "page": 26, "fromLemma": 0}