{"lemmaList": [{"lemmaId": 8477135, "lemmaTitle": "手部神经损伤", "lemmaCroppedTitle": "手部神经损伤", "lemmaDesc": "手部的神经支配主要来自正中神经、尺神经和桡神经。由于神经损伤后，不仅会引起感觉的...", "lemmaUrl": "http://baike.baidu.com/item/%E6%89%8B%E9%83%A8%E7%A5%9E%E7%BB%8F%E6%8D%9F%E4%BC%A4/8477135", "lemmaPic": []}, {"lemmaId": 2236576, "lemmaTitle": "慢性额窦炎", "lemmaCroppedTitle": "慢性额窦炎", "lemmaDesc": "急性额窦炎发病30天后仍有炎症迁延者，称为慢性额窦炎。常在一定条件下急性发作，并...", "lemmaUrl": "http://baike.baidu.com/item/%E6%85%A2%E6%80%A7%E9%A2%9D%E7%AA%A6%E7%82%8E/2236576", "lemmaPic": []}, {"lemmaId": 10169670, "lemmaTitle": "丹痧", "lemmaCroppedTitle": "丹痧", "lemmaDesc": "丹痧也称烂喉痧、烂喉丹痧、疫疹、疫痧，是因感受痧毒之邪引起的具有强烈传染性的急性...", "lemmaUrl": "http://baike.baidu.com/item/%E4%B8%B9%E7%97%A7/10169670", "lemmaPic": []}, {"lemmaId": 1197520, "lemmaTitle": "先天性食管闭锁", "lemmaCroppedTitle": "先天性食管闭锁", "lemmaDesc": "先天性食管闭锁和气管食管瘘简称先天性食管闭锁，是新生儿期消化道的一种严重发育畸形...", "lemmaUrl": "http://baike.baidu.com/item/%E5%85%88%E5%A4%A9%E6%80%A7%E9%A3%9F%E7%AE%A1%E9%97%AD%E9%94%81/1197520", "lemmaPic": []}, {"lemmaId": 7315609, "lemmaTitle": "旅途精神病", "lemmaCroppedTitle": "旅途精神病", "lemmaDesc": "旅途精神病又叫旅行性精神障碍，是旅行者在旅途中常见的一种突发性精神障碍。此病在铁...", "lemmaUrl": "http://baike.baidu.com/item/%E6%97%85%E9%80%94%E7%B2%BE%E7%A5%9E%E7%97%85/7315609", "lemmaPic": []}, {"lemmaId": 2843002, "lemmaTitle": "阴道发育异常", "lemmaCroppedTitle": "阴道发育异常", "lemmaDesc": "阴道由副中肾管（又称苗勒管）和泌尿生殖窦发育而来。在胚胎发育过程中，双侧副中肾管...", "lemmaUrl": "http://baike.baidu.com/item/%E9%98%B4%E9%81%93%E5%8F%91%E8%82%B2%E5%BC%82%E5%B8%B8/2843002", "lemmaPic": []}, {"lemmaId": 2879401, "lemmaTitle": "流痰", "lemmaCroppedTitle": "流痰", "lemmaDesc": "流痰是发生在骨与关节间的慢性化脓性疾病。因其成脓后，可沿组织间隙流窜于病变附近或...", "lemmaUrl": "http://baike.baidu.com/item/%E6%B5%81%E7%97%B0/2879401", "lemmaPic": []}, {"lemmaId": 799671, "lemmaTitle": "软腭癌", "lemmaCroppedTitle": "软腭癌", "lemmaDesc": "软腭癌占原发腭部恶性肿瘤的13.5%。病理类型以腺性上皮多见，鳞状上皮次之，恶性...", "lemmaUrl": "http://baike.baidu.com/item/%E8%BD%AF%E8%85%AD%E7%99%8C/799671", "lemmaPic": []}, {"lemmaId": 1065219, "lemmaTitle": "小儿甲基丙二酸血症", "lemmaCroppedTitle": "小儿甲基丙二酸血症", "lemmaDesc": "也称甲基丙二酸尿症，属常染色体隐性遗传。临床主要表现为早期起病，严重的间歇性酮酸...", "lemmaUrl": "http://baike.baidu.com/item/%E5%B0%8F%E5%84%BF%E7%94%B2%E5%9F%BA%E4%B8%99%E4%BA%8C%E9%85%B8%E8%A1%80%E7%97%87/1065219", "lemmaPic": []}, {"lemmaId": 3302396, "lemmaTitle": "hunt综合征", "lemmaCroppedTitle": "hunt综合征", "lemmaDesc": "Hunt综合征即耳带状疱疹，是由水痘-带状疱疹病毒感染所致的疾病。因面神经膝状神...", "lemmaUrl": "http://baike.baidu.com/item/hunt%E7%BB%BC%E5%90%88%E5%BE%81/3302396", "lemmaPic": []}, {"lemmaId": 5264048, "lemmaTitle": "亚急性皮肤红斑狼疮", "lemmaCroppedTitle": "亚急性皮肤红斑狼疮", "lemmaDesc": "亚急性皮肤红斑狼疮（SCLE）又称浅表性播散性狼疮、亚急性播散性狼疮、环状红斑、...", "lemmaUrl": "http://baike.baidu.com/item/%E4%BA%9A%E6%80%A5%E6%80%A7%E7%9A%AE%E8%82%A4%E7%BA%A2%E6%96%91%E7%8B%BC%E7%96%AE/5264048", "lemmaPic": []}, {"lemmaId": 6092961, "lemmaTitle": "钡中毒", "lemmaCroppedTitle": "钡中毒", "lemmaDesc": "钡（Ba）为稍有光泽的银白色金属，只有可溶性钡盐才能引起急性中毒。钡及其化合物可...", "lemmaUrl": "http://baike.baidu.com/item/%E9%92%A1%E4%B8%AD%E6%AF%92/6092961", "lemmaPic": []}, {"lemmaId": 5783190, "lemmaTitle": "命门火衰证", "lemmaCroppedTitle": "命门火衰证", "lemmaDesc": "命门火衰为中医病证名，又称肾阳衰微、肾阳虚衰、下元虚惫、真元下虚，即肾阴和肾阳相...", "lemmaUrl": "http://baike.baidu.com/item/%E5%91%BD%E9%97%A8%E7%81%AB%E8%A1%B0%E8%AF%81/5783190", "lemmaPic": []}, {"lemmaId": 3984659, "lemmaTitle": "小儿衣原体肺炎", "lemmaCroppedTitle": "小儿衣原体肺炎", "lemmaDesc": "小儿衣原体肺炎是由肺炎衣原体引起的急性肺部炎症。沙眼衣原体肺炎主要在新生儿及小婴...", "lemmaUrl": "http://baike.baidu.com/item/%E5%B0%8F%E5%84%BF%E8%A1%A3%E5%8E%9F%E4%BD%93%E8%82%BA%E7%82%8E/3984659", "lemmaPic": []}, {"lemmaId": 9882072, "lemmaTitle": "妊娠合并巨细胞病毒感染", "lemmaCroppedTitle": "妊娠合并巨细胞病毒感染", "lemmaDesc": "巨细胞病毒感染是先天性感染疾病的最常见病因，能引起胎儿、婴儿严重损害，甚至死亡。...", "lemmaUrl": "http://baike.baidu.com/item/%E5%A6%8A%E5%A8%A0%E5%90%88%E5%B9%B6%E5%B7%A8%E7%BB%86%E8%83%9E%E7%97%85%E6%AF%92%E6%84%9F%E6%9F%93/9882072", "lemmaPic": []}, {"lemmaId": 8016494, "lemmaTitle": "职业性哮喘", "lemmaCroppedTitle": "职业性哮喘", "lemmaDesc": "2014GINA指南对哮喘的定义：哮喘为一种异质性疾病，常以慢性气道炎症为特征，...", "lemmaUrl": "http://baike.baidu.com/item/%E8%81%8C%E4%B8%9A%E6%80%A7%E5%93%AE%E5%96%98/8016494", "lemmaPic": []}, {"lemmaId": 4872718, "lemmaTitle": "胆道出血", "lemmaCroppedTitle": "胆道出血", "lemmaDesc": "由于各种原因导致胆管与伴行血管间形成异常通道引起的上消化道出血称胆道出血。胆道大...", "lemmaUrl": "http://baike.baidu.com/item/%E8%83%86%E9%81%93%E5%87%BA%E8%A1%80/4872718", "lemmaPic": []}, {"lemmaId": 9063922, "lemmaTitle": "痧子", "lemmaCroppedTitle": "痧子", "lemmaDesc": "痧子是麻疹的别称，见《麻证新书》，又称痧疹。是小儿常见的一种传染病，是由感受麻疹...", "lemmaUrl": "http://baike.baidu.com/item/%E7%97%A7%E5%AD%90/9063922", "lemmaPic": []}, {"lemmaId": 5131213, "lemmaTitle": "外阴色素痣", "lemmaCroppedTitle": "外阴色素痣", "lemmaDesc": "外阴皮肤色素细胞生长过度而形成色素痣。生长于外阴部的痣长期受到刺激如挤压、摩擦、...", "lemmaUrl": "http://baike.baidu.com/item/%E5%A4%96%E9%98%B4%E8%89%B2%E7%B4%A0%E7%97%A3/5131213", "lemmaPic": []}, {"lemmaId": 4400648, "lemmaTitle": "原发性腮腺淋巴瘤", "lemmaCroppedTitle": "原发性腮腺淋巴瘤", "lemmaDesc": "原发性腮腺淋巴瘤是唾液腺淋巴瘤的一种，发生于涎腺的少见恶性淋巴瘤。原发性腮腺淋巴...", "lemmaUrl": "http://baike.baidu.com/item/%E5%8E%9F%E5%8F%91%E6%80%A7%E8%85%AE%E8%85%BA%E6%B7%8B%E5%B7%B4%E7%98%A4/4400648", "lemmaPic": []}, {"lemmaId": 6003840, "lemmaTitle": "桡骨头骨折", "lemmaCroppedTitle": "桡骨头骨折", "lemmaDesc": "桡骨头骨折是成年人容易发生的肘部损伤。通常疼痛症状较轻，临床上容易误诊。桡骨头骨...", "lemmaUrl": "http://baike.baidu.com/item/%E6%A1%A1%E9%AA%A8%E5%A4%B4%E9%AA%A8%E6%8A%98/6003840", "lemmaPic": []}, {"lemmaId": 4629583, "lemmaTitle": "肾盂癌和输尿管癌", "lemmaCroppedTitle": "肾盂癌和输尿管癌", "lemmaDesc": "肾盂癌和输尿管癌是指发生在肾盂、肾盏、输尿管被覆上皮来源的恶性肿瘤。尿路系统从上...", "lemmaUrl": "http://baike.baidu.com/item/%E8%82%BE%E7%9B%82%E7%99%8C%E5%92%8C%E8%BE%93%E5%B0%BF%E7%AE%A1%E7%99%8C/4629583", "lemmaPic": []}, {"lemmaId": 3985097, "lemmaTitle": "慢性髓细胞白血病", "lemmaCroppedTitle": "慢性髓细胞白血病", "lemmaDesc": "慢性髓细胞白血病是我国慢性白血病的主要病种，约占慢性白血病的70%，而西方国家则...", "lemmaUrl": "http://baike.baidu.com/item/%E6%85%A2%E6%80%A7%E9%AB%93%E7%BB%86%E8%83%9E%E7%99%BD%E8%A1%80%E7%97%85/3985097", "lemmaPic": []}, {"lemmaId": 12676663, "lemmaTitle": "小儿传染性单核细胞增多症", "lemmaCroppedTitle": "小儿传染性单核细胞增多症", "lemmaDesc": "小儿传染性单核细胞增多症，是一种单核-巨噬细胞系统急性增生性传染病，主要由EB病...", "lemmaUrl": "http://baike.baidu.com/item/%E5%B0%8F%E5%84%BF%E4%BC%A0%E6%9F%93%E6%80%A7%E5%8D%95%E6%A0%B8%E7%BB%86%E8%83%9E%E5%A2%9E%E5%A4%9A%E7%97%87/12676663", "lemmaPic": []}, {"lemmaId": 8017506, "lemmaTitle": "硬化性骨髓炎", "lemmaCroppedTitle": "硬化性骨髓炎", "lemmaDesc": "硬化性骨髓炎因首先由瑞士医生Garré所描述，故又名Garré骨髓炎。以病程缓慢...", "lemmaUrl": "http://baike.baidu.com/item/%E7%A1%AC%E5%8C%96%E6%80%A7%E9%AA%A8%E9%AB%93%E7%82%8E/8017506", "lemmaPic": []}, {"lemmaId": 8671041, "lemmaTitle": "慢性炎症性脱髓鞘性多发性神经病", "lemmaCroppedTitle": "慢性炎症性脱髓鞘性多发性神经病", "lemmaDesc": "慢性炎性脱髓鞘性多发性神经根神经病（CIDP）是以周围神经近端慢性脱髓鞘为主要病...", "lemmaUrl": "http://baike.baidu.com/item/%E6%85%A2%E6%80%A7%E7%82%8E%E7%97%87%E6%80%A7%E8%84%B1%E9%AB%93%E9%9E%98%E6%80%A7%E5%A4%9A%E5%8F%91%E6%80%A7%E7%A5%9E%E7%BB%8F%E7%97%85/8671041", "lemmaPic": []}, {"lemmaId": 3979595, "lemmaTitle": "氨基酸代谢病", "lemmaCroppedTitle": "氨基酸代谢病", "lemmaDesc": "又称氨基酸病，氨基酸尿症，当神经系统受累时，通常只出现轻度精神运动发育迟滞，直到...", "lemmaUrl": "http://baike.baidu.com/item/%E6%B0%A8%E5%9F%BA%E9%85%B8%E4%BB%A3%E8%B0%A2%E7%97%85/3979595", "lemmaPic": []}, {"lemmaId": 2215612, "lemmaTitle": "特发性脊柱侧凸", "lemmaCroppedTitle": "特发性脊柱侧凸", "lemmaDesc": "生长发育期间原因不清的脊柱侧凸称为特发性脊柱侧凸。根据发病年龄一般将特发性脊柱侧...", "lemmaUrl": "http://baike.baidu.com/item/%E7%89%B9%E5%8F%91%E6%80%A7%E8%84%8A%E6%9F%B1%E4%BE%A7%E5%87%B8/2215612", "lemmaPic": []}, {"lemmaId": 9990162, "lemmaTitle": "Chance骨折", "lemmaCroppedTitle": "Chance骨折", "lemmaDesc": "指横越椎骨的屈曲牵张性骨折，多见于高速公路紧急刹车时上身突然前屈所致。近年来临床...", "lemmaUrl": "http://baike.baidu.com/item/Chance%E9%AA%A8%E6%8A%98/9990162", "lemmaPic": []}, {"lemmaId": 5121241, "lemmaTitle": "风湿性二尖瓣关闭不全", "lemmaCroppedTitle": "风湿性二尖瓣关闭不全", "lemmaDesc": "风湿二尖瓣关闭不全最多见的病变是瓣叶和腱索增厚、挛缩、瓣膜面积缩小、瓣叶活动度受...", "lemmaUrl": "http://baike.baidu.com/item/%E9%A3%8E%E6%B9%BF%E6%80%A7%E4%BA%8C%E5%B0%96%E7%93%A3%E5%85%B3%E9%97%AD%E4%B8%8D%E5%85%A8/5121241", "lemmaPic": []}, {"lemmaId": 5281533, "lemmaTitle": "椎管内神经鞘瘤", "lemmaCroppedTitle": "椎管内神经鞘瘤", "lemmaDesc": "椎管内神经鞘瘤又叫椎管内雪旺细胞瘤，约占硬膜内椎管肿瘤的25%左右，在整个椎管的...", "lemmaUrl": "http://baike.baidu.com/item/%E6%A4%8E%E7%AE%A1%E5%86%85%E7%A5%9E%E7%BB%8F%E9%9E%98%E7%98%A4/5281533", "lemmaPic": []}, {"lemmaId": 6244542, "lemmaTitle": "中耳胆脂瘤", "lemmaCroppedTitle": "中耳胆脂瘤", "lemmaDesc": "中耳乳突胆脂瘤是产生角蛋白的鳞状上皮异常积聚，常发生在中鼓室，上鼓室，乳突或岩尖...", "lemmaUrl": "http://baike.baidu.com/item/%E4%B8%AD%E8%80%B3%E8%83%86%E8%84%82%E7%98%A4/6244542", "lemmaPic": []}, {"lemmaId": 7555113, "lemmaTitle": "史密斯骨折", "lemmaCroppedTitle": "史密斯骨折", "lemmaDesc": "史密斯骨折是指发生在桡骨远端3cm范围内的桡骨远端骨折，其远折端向掌侧移位合并下...", "lemmaUrl": "http://baike.baidu.com/item/%E5%8F%B2%E5%AF%86%E6%96%AF%E9%AA%A8%E6%8A%98/7555113", "lemmaPic": []}, {"lemmaId": 1605186, "lemmaTitle": "心尖肥厚型心肌病", "lemmaCroppedTitle": "心尖肥厚型心肌病", "lemmaDesc": "心尖肥厚型心肌病（AHCM）属于原发性肥厚型心肌病中的特殊类型，首先由日本学者Y...", "lemmaUrl": "http://baike.baidu.com/item/%E5%BF%83%E5%B0%96%E8%82%A5%E5%8E%9A%E5%9E%8B%E5%BF%83%E8%82%8C%E7%97%85/1605186", "lemmaPic": []}, {"lemmaId": 10926414, "lemmaTitle": "气滞证", "lemmaCroppedTitle": "气滞证", "lemmaDesc": "气滞证是指人体的某一脏腑或某一部位气机阻滞、运行不畅所表现的证候。以胸胁脘腹胀闷...", "lemmaUrl": "http://baike.baidu.com/item/%E6%B0%94%E6%BB%9E%E8%AF%81/10926414", "lemmaPic": []}, {"lemmaId": 10425678, "lemmaTitle": "注意缺陷障碍", "lemmaCroppedTitle": "注意缺陷障碍", "lemmaDesc": "注意力缺失症（ADD）在美国，大约百分之三至五的儿童患注意力缺失/过动症。患者难...", "lemmaUrl": "http://baike.baidu.com/item/%E6%B3%A8%E6%84%8F%E7%BC%BA%E9%99%B7%E9%9A%9C%E7%A2%8D/10425678", "lemmaPic": []}, {"lemmaId": 5085386, "lemmaTitle": "颈部囊状淋巴管瘤", "lemmaCroppedTitle": "颈部囊状淋巴管瘤", "lemmaDesc": "淋巴管瘤并非真性肿瘤，而是一种先天性良性错构瘤。由于胚胎发育过程中，某些部位的原...", "lemmaUrl": "http://baike.baidu.com/item/%E9%A2%88%E9%83%A8%E5%9B%8A%E7%8A%B6%E6%B7%8B%E5%B7%B4%E7%AE%A1%E7%98%A4/5085386", "lemmaPic": []}, {"lemmaId": 7229786, "lemmaTitle": "心气虚证", "lemmaCroppedTitle": "心气虚证", "lemmaDesc": "心气虚即“心气不足”。为心气虚损，功能减退，致运血无力，心动失常的病理变化。主要...", "lemmaUrl": "http://baike.baidu.com/item/%E5%BF%83%E6%B0%94%E8%99%9A%E8%AF%81/7229786", "lemmaPic": []}, {"lemmaId": 6434009, "lemmaTitle": "糖尿病性周围神经病", "lemmaCroppedTitle": "糖尿病性周围神经病", "lemmaDesc": "糖尿病性周围神经病是糖尿病最常见的慢性并发症，是一组以感觉神经和自主神经症状为主...", "lemmaUrl": "http://baike.baidu.com/item/%E7%B3%96%E5%B0%BF%E7%97%85%E6%80%A7%E5%91%A8%E5%9B%B4%E7%A5%9E%E7%BB%8F%E7%97%85/6434009", "lemmaPic": []}, {"lemmaId": 2830675, "lemmaTitle": "急性乳突炎", "lemmaCroppedTitle": "急性乳突炎", "lemmaDesc": "急性乳突炎是乳突气房粘-骨膜特别是骨质的急性化脓性炎症，是急性化脓性中耳炎主要表...", "lemmaUrl": "http://baike.baidu.com/item/%E6%80%A5%E6%80%A7%E4%B9%B3%E7%AA%81%E7%82%8E/2830675", "lemmaPic": []}, {"lemmaId": 6891603, "lemmaTitle": "儿童尖锐湿疣", "lemmaCroppedTitle": "儿童尖锐湿疣", "lemmaDesc": "尖锐湿疣是由人类乳头瘤病毒引起的性传播性疾病，临床上表现为尖刺状，表面湿润，故而...", "lemmaUrl": "http://baike.baidu.com/item/%E5%84%BF%E7%AB%A5%E5%B0%96%E9%94%90%E6%B9%BF%E7%96%A3/6891603", "lemmaPic": []}, {"lemmaId": 10729225, "lemmaTitle": "先天性颈椎融合畸形", "lemmaCroppedTitle": "先天性颈椎融合畸形", "lemmaDesc": "先天性颈椎融合畸形也称颈椎分节不良，此病于1912年首先由Klippel和Fei...", "lemmaUrl": "http://baike.baidu.com/item/%E5%85%88%E5%A4%A9%E6%80%A7%E9%A2%88%E6%A4%8E%E8%9E%8D%E5%90%88%E7%95%B8%E5%BD%A2/10729225", "lemmaPic": []}, {"lemmaId": 9160149, "lemmaTitle": "子嗽", "lemmaCroppedTitle": "子嗽", "lemmaDesc": "指妊娠期间，咳嗽或久咳不已称为“妊娠咳嗽”。若久咳不愈，精神倦怠，形体消瘦，潮热...", "lemmaUrl": "http://baike.baidu.com/item/%E5%AD%90%E5%97%BD/9160149", "lemmaPic": []}, {"lemmaId": 5360402, "lemmaTitle": "葡萄球菌性食物中毒", "lemmaCroppedTitle": "葡萄球菌性食物中毒", "lemmaDesc": "葡萄球菌性食物中毒是由于进食被金黄色葡萄球菌及其所产生的肠毒素所污染的食物而引起...", "lemmaUrl": "http://baike.baidu.com/item/%E8%91%A1%E8%90%84%E7%90%83%E8%8F%8C%E6%80%A7%E9%A3%9F%E7%89%A9%E4%B8%AD%E6%AF%92/5360402", "lemmaPic": []}, {"lemmaId": 10976026, "lemmaTitle": "痉病", "lemmaCroppedTitle": "痉病", "lemmaDesc": "痉病，中医病名。以项背强急，四肢抽搐，甚至口噤，角弓反张为主要表现的疾病。临床上...", "lemmaUrl": "http://baike.baidu.com/item/%E7%97%89%E7%97%85/10976026", "lemmaPic": []}, {"lemmaId": 6031108, "lemmaTitle": "白痢", "lemmaCroppedTitle": "白痢", "lemmaDesc": "病名。痢疾便下白色黏冻或脓液者。古称白滞痢。临证须辨寒热。《太平圣惠方》卷五十九...", "lemmaUrl": "http://baike.baidu.com/item/%E7%99%BD%E7%97%A2/6031108", "lemmaPic": []}, {"lemmaId": 1741763, "lemmaTitle": "慢惊风", "lemmaCroppedTitle": "慢惊风", "lemmaDesc": "惊风是小儿时期常见的一种急重病症，以临床出现抽搐、昏迷为主要症状。又称“惊厥”，...", "lemmaUrl": "http://baike.baidu.com/item/%E6%85%A2%E6%83%8A%E9%A3%8E/1741763", "lemmaPic": []}, {"lemmaId": 113522, "lemmaTitle": "色素绒毛结节性滑膜炎", "lemmaCroppedTitle": "色素绒毛结节性滑膜炎", "lemmaDesc": "色素绒毛结节性滑膜炎（PVNS）比较少见，有绒毛型和结节型两种。患者多青壮年男性...", "lemmaUrl": "http://baike.baidu.com/item/%E8%89%B2%E7%B4%A0%E7%BB%92%E6%AF%9B%E7%BB%93%E8%8A%82%E6%80%A7%E6%BB%91%E8%86%9C%E7%82%8E/113522", "lemmaPic": []}, {"lemmaId": 5321410, "lemmaTitle": "颌骨骨折", "lemmaCroppedTitle": "颌骨骨折", "lemmaDesc": "颌骨骨折包括上颌骨骨折和下颌骨骨折；按照骨折创伤是否暴露，可分为开放性骨折和闭合...", "lemmaUrl": "http://baike.baidu.com/item/%E9%A2%8C%E9%AA%A8%E9%AA%A8%E6%8A%98/5321410", "lemmaPic": []}, {"lemmaId": 967617, "lemmaTitle": "食管贲门黏膜撕裂综合征", "lemmaCroppedTitle": "食管贲门黏膜撕裂综合征", "lemmaDesc": "频繁剧烈的呕吐致腹内压骤然增加情况下，造成胃的贲门、食管远端的黏膜和黏膜下层撕裂...", "lemmaUrl": "http://baike.baidu.com/item/%E9%A3%9F%E7%AE%A1%E8%B4%B2%E9%97%A8%E9%BB%8F%E8%86%9C%E6%92%95%E8%A3%82%E7%BB%BC%E5%90%88%E5%BE%81/967617", "lemmaPic": []}, {"lemmaId": 3269771, "lemmaTitle": "脾约", "lemmaCroppedTitle": "脾约", "lemmaDesc": "病名，便秘的一种。指脾虚津少，肠液枯燥以致大便艰涩难出的病证。出《伤寒论・辨阳明...", "lemmaUrl": "http://baike.baidu.com/item/%E8%84%BE%E7%BA%A6/3269771", "lemmaPic": []}, {"lemmaId": 4379784, "lemmaTitle": "水痘肺炎", "lemmaCroppedTitle": "水痘肺炎", "lemmaDesc": "水痘-带状疱疹病毒肺炎由水痘病毒引起，多发生于成年人。冬、春为好发季节。肺炎症状...", "lemmaUrl": "http://baike.baidu.com/item/%E6%B0%B4%E7%97%98%E8%82%BA%E7%82%8E/4379784", "lemmaPic": []}, {"lemmaId": 849775, "lemmaTitle": "颈椎半脱位", "lemmaCroppedTitle": "颈椎半脱位", "lemmaDesc": "下颈椎的半脱位通常是由高能量创伤造成，暴力使椎体小关节之间发生轻度的移位。颈椎半...", "lemmaUrl": "http://baike.baidu.com/item/%E9%A2%88%E6%A4%8E%E5%8D%8A%E8%84%B1%E4%BD%8D/849775", "lemmaPic": []}, {"lemmaId": 5147411, "lemmaTitle": "肿瘤性息肉", "lemmaCroppedTitle": "肿瘤性息肉", "lemmaDesc": "肿瘤性息肉是大肠膜上皮细胞增生的真性肿瘤，其单发者统称为腺瘤，根据其组织学特征和...", "lemmaUrl": "http://baike.baidu.com/item/%E8%82%BF%E7%98%A4%E6%80%A7%E6%81%AF%E8%82%89/5147411", "lemmaPic": []}, {"lemmaId": 5359827, "lemmaTitle": "过期产儿", "lemmaCroppedTitle": "过期产儿", "lemmaDesc": "妊娠期超过42周（≥294天）出生的新生儿称为过期产儿（又称过熟儿）。多数过期产...", "lemmaUrl": "http://baike.baidu.com/item/%E8%BF%87%E6%9C%9F%E4%BA%A7%E5%84%BF/5359827", "lemmaPic": []}, {"lemmaId": 2742139, "lemmaTitle": "时行感冒", "lemmaCroppedTitle": "时行感冒", "lemmaDesc": "时行感冒，病名。感受四时不正之气，发病呈流行性之感冒病证。病情常较一般感冒为重。...", "lemmaUrl": "http://baike.baidu.com/item/%E6%97%B6%E8%A1%8C%E6%84%9F%E5%86%92/2742139", "lemmaPic": []}, {"lemmaId": 10638279, "lemmaTitle": "房室结折返性心动过速", "lemmaCroppedTitle": "房室结折返性心动过速", "lemmaDesc": "房室结折返性心动过速（AVNRT），又称房室交界区折返性心动过速（AVJRT）可...", "lemmaUrl": "http://baike.baidu.com/item/%E6%88%BF%E5%AE%A4%E7%BB%93%E6%8A%98%E8%BF%94%E6%80%A7%E5%BF%83%E5%8A%A8%E8%BF%87%E9%80%9F/10638279", "lemmaPic": []}, {"lemmaId": 411898, "lemmaTitle": "早产儿贫血", "lemmaCroppedTitle": "早产儿贫血", "lemmaDesc": "早产儿贫血是指早产儿生后一年内发生的贫血。这与胎儿期各种生理功能发育尚不完善有关...", "lemmaUrl": "http://baike.baidu.com/item/%E6%97%A9%E4%BA%A7%E5%84%BF%E8%B4%AB%E8%A1%80/411898", "lemmaPic": []}, {"lemmaId": 3118791, "lemmaTitle": "过敏性眼睑皮肤炎", "lemmaCroppedTitle": "过敏性眼睑皮肤炎", "lemmaDesc": "过敏性眼睑皮肤炎最常见的为眼睑湿疹，它是一种由内外因素引起的具有明显渗出或鳞屑的...", "lemmaUrl": "http://baike.baidu.com/item/%E8%BF%87%E6%95%8F%E6%80%A7%E7%9C%BC%E7%9D%91%E7%9A%AE%E8%82%A4%E7%82%8E/3118791", "lemmaPic": []}, {"lemmaId": 9433545, "lemmaTitle": "史蒂文斯-约翰逊综合征", "lemmaCroppedTitle": "史蒂文斯-约翰逊综合征", "lemmaDesc": "1922年Stevens-Johnson首先报道该病，作为重症型多形红斑列入多形...", "lemmaUrl": "http://baike.baidu.com/item/%E5%8F%B2%E8%92%82%E6%96%87%E6%96%AF-%E7%BA%A6%E7%BF%B0%E9%80%8A%E7%BB%BC%E5%90%88%E5%BE%81/9433545", "lemmaPic": []}, {"lemmaId": 5280911, "lemmaTitle": "慢性泪腺炎", "lemmaCroppedTitle": "慢性泪腺炎", "lemmaDesc": "慢性泪腺炎在临床上较急性泪腺炎普遍，常与全身感染有关。多为原发性，亦可由急性转变...", "lemmaUrl": "http://baike.baidu.com/item/%E6%85%A2%E6%80%A7%E6%B3%AA%E8%85%BA%E7%82%8E/5280911", "lemmaPic": []}, {"lemmaId": 6001185, "lemmaTitle": "痿病", "lemmaCroppedTitle": "痿病", "lemmaDesc": "痿病系指外感或内伤，使精血受损，肌肉筋脉失养以致肢体弛缓、软弱无力，甚至日久不用...", "lemmaUrl": "http://baike.baidu.com/item/%E7%97%BF%E7%97%85/6001185", "lemmaPic": []}, {"lemmaId": 5241047, "lemmaTitle": "胰腺损伤", "lemmaCroppedTitle": "胰腺损伤", "lemmaDesc": "胰腺损伤可分开放性穿透伤、闭合性钝器伤以及医源性手术误伤。其中闭合性钝器伤不易诊...", "lemmaUrl": "http://baike.baidu.com/item/%E8%83%B0%E8%85%BA%E6%8D%9F%E4%BC%A4/5241047", "lemmaPic": []}, {"lemmaId": 833181, "lemmaTitle": "着痹", "lemmaCroppedTitle": "着痹", "lemmaDesc": "病证名。痹病中的一种。风寒湿三气合而致病，以湿邪为主，表现肢体疼生酸困、病处不移...", "lemmaUrl": "http://baike.baidu.com/item/%E7%9D%80%E7%97%B9/833181", "lemmaPic": []}, {"lemmaId": 2602894, "lemmaTitle": "失用症", "lemmaCroppedTitle": "失用症", "lemmaDesc": "失用症即为运用障碍，是指脑损伤后大脑高级部位功能失调，表现为不存在瘫痪和深感觉障...", "lemmaUrl": "http://baike.baidu.com/item/%E5%A4%B1%E7%94%A8%E7%97%87/2602894", "lemmaPic": []}, {"lemmaId": 3171286, "lemmaTitle": "胸壁软组织损伤", "lemmaCroppedTitle": "胸壁软组织损伤", "lemmaDesc": "胸壁软组织损伤是指胸壁的皮肤、皮下组织、胸肌及肋间组织在外力的作用下造成的机械性...", "lemmaUrl": "http://baike.baidu.com/item/%E8%83%B8%E5%A3%81%E8%BD%AF%E7%BB%84%E7%BB%87%E6%8D%9F%E4%BC%A4/3171286", "lemmaPic": []}, {"lemmaId": 11006902, "lemmaTitle": "痨瘵", "lemmaCroppedTitle": "痨瘵", "lemmaDesc": "痨瘵是由于痨虫侵袭肺叶而引起的一种具有传染性的慢性虚弱疾患，或称肺痨、尸注、转注...", "lemmaUrl": "http://baike.baidu.com/item/%E7%97%A8%E7%98%B5/11006902", "lemmaPic": []}, {"lemmaId": 894843, "lemmaTitle": "双颌前突", "lemmaCroppedTitle": "双颌前突", "lemmaDesc": "双颌前凸是上下颌都向前突出。临床上并不常见，由于牙齿排列比较整齐，未引起家长的注...", "lemmaUrl": "http://baike.baidu.com/item/%E5%8F%8C%E9%A2%8C%E5%89%8D%E7%AA%81/894843", "lemmaPic": []}, {"lemmaId": 10975762, "lemmaTitle": "疣状癌", "lemmaCroppedTitle": "疣状癌", "lemmaDesc": "疣状癌是一种少见的鳞状细胞癌亚型，低度恶性，极少转移。", "lemmaUrl": "http://baike.baidu.com/item/%E7%96%A3%E7%8A%B6%E7%99%8C/10975762", "lemmaPic": []}, {"lemmaId": 9851721, "lemmaTitle": "彼得潘综合征", "lemmaCroppedTitle": "彼得潘综合征", "lemmaDesc": "彼得潘综合征是个流行的心理学名词，用来叙述一个在社会未成熟的成人。这个词汇通常用...", "lemmaUrl": "http://baike.baidu.com/item/%E5%BD%BC%E5%BE%97%E6%BD%98%E7%BB%BC%E5%90%88%E5%BE%81/9851721", "lemmaPic": []}, {"lemmaId": 1700115, "lemmaTitle": "复杂性肛瘘", "lemmaCroppedTitle": "复杂性肛瘘", "lemmaDesc": "复杂性肛瘘是指有2个或以上内口或外口，有2条以上瘘管或支管、盲管的肛瘘。复杂性肛...", "lemmaUrl": "http://baike.baidu.com/item/%E5%A4%8D%E6%9D%82%E6%80%A7%E8%82%9B%E7%98%98/1700115", "lemmaPic": []}, {"lemmaId": 2750080, "lemmaTitle": "原发性阿米巴脑膜脑炎", "lemmaCroppedTitle": "原发性阿米巴脑膜脑炎", "lemmaDesc": "原发性阿米巴脑膜脑炎（primary amebic meningo-enceph...", "lemmaUrl": "http://baike.baidu.com/item/%E5%8E%9F%E5%8F%91%E6%80%A7%E9%98%BF%E7%B1%B3%E5%B7%B4%E8%84%91%E8%86%9C%E8%84%91%E7%82%8E/2750080", "lemmaPic": []}, {"lemmaId": 9638383, "lemmaTitle": "膈肌麻痹", "lemmaCroppedTitle": "膈肌麻痹", "lemmaDesc": "膈肌麻痹是由于膈神经受损，神经冲动被阻断而产生的一侧或两侧的膈肌麻痹上升，运动障...", "lemmaUrl": "http://baike.baidu.com/item/%E8%86%88%E8%82%8C%E9%BA%BB%E7%97%B9/9638383", "lemmaPic": []}, {"lemmaId": 4925950, "lemmaTitle": "麻痹性痴呆", "lemmaCroppedTitle": "麻痹性痴呆", "lemmaDesc": "麻痹性痴呆（GPI）是由梅毒螺旋体侵犯大脑引起的一种晚期梅毒的临床表现，以神经麻...", "lemmaUrl": "http://baike.baidu.com/item/%E9%BA%BB%E7%97%B9%E6%80%A7%E7%97%B4%E5%91%86/4925950", "lemmaPic": []}, {"lemmaId": 9656704, "lemmaTitle": "小于胎龄儿", "lemmaCroppedTitle": "小于胎龄儿", "lemmaDesc": "小于胎龄儿（small for gestational age infant，S...", "lemmaUrl": "http://baike.baidu.com/item/%E5%B0%8F%E4%BA%8E%E8%83%8E%E9%BE%84%E5%84%BF/9656704", "lemmaPic": []}, {"lemmaId": 7952251, "lemmaTitle": "新生儿寒冷损伤综合征", "lemmaCroppedTitle": "新生儿寒冷损伤综合征", "lemmaDesc": "新生儿寒冷损伤综合征简称新生儿冻伤，亦称新生儿硬肿症，是由于寒冷和（或）多种疾病...", "lemmaUrl": "http://baike.baidu.com/item/%E6%96%B0%E7%94%9F%E5%84%BF%E5%AF%92%E5%86%B7%E6%8D%9F%E4%BC%A4%E7%BB%BC%E5%90%88%E5%BE%81/7952251", "lemmaPic": []}, {"lemmaId": 1300066, "lemmaTitle": "下腰椎不稳症", "lemmaCroppedTitle": "下腰椎不稳症", "lemmaDesc": "腰椎不稳是指腰部椎间关节在正常负荷下，不能维持其生理解剖关系的能力，所谓正常生理...", "lemmaUrl": "http://baike.baidu.com/item/%E4%B8%8B%E8%85%B0%E6%A4%8E%E4%B8%8D%E7%A8%B3%E7%97%87/1300066", "lemmaPic": []}, {"lemmaId": 1980086, "lemmaTitle": "汗腺癌", "lemmaCroppedTitle": "汗腺癌", "lemmaDesc": "汗腺癌是比较少见的皮肤恶性肿瘤，占皮肤恶性肿瘤的2.2%～8.4%，好发于40～...", "lemmaUrl": "http://baike.baidu.com/item/%E6%B1%97%E8%85%BA%E7%99%8C/1980086", "lemmaPic": []}, {"lemmaId": 389074, "lemmaTitle": "婴幼儿胃食管反流", "lemmaCroppedTitle": "婴幼儿胃食管反流", "lemmaDesc": "胃食管反流（GER）是指胃及（或）十二指肠内容物反流入食管。GER在小儿十分常见...", "lemmaUrl": "http://baike.baidu.com/item/%E5%A9%B4%E5%B9%BC%E5%84%BF%E8%83%83%E9%A3%9F%E7%AE%A1%E5%8F%8D%E6%B5%81/389074", "lemmaPic": []}, {"lemmaId": 10146280, "lemmaTitle": "鼻咽纤维血管瘤", "lemmaCroppedTitle": "鼻咽纤维血管瘤", "lemmaDesc": "鼻咽纤维血管瘤为鼻咽部各种良性肿瘤中之较常见者，常发生于10～25岁的男性青年，...", "lemmaUrl": "http://baike.baidu.com/item/%E9%BC%BB%E5%92%BD%E7%BA%A4%E7%BB%B4%E8%A1%80%E7%AE%A1%E7%98%A4/10146280", "lemmaPic": []}, {"lemmaId": 2341720, "lemmaTitle": "手部屈指肌腱损伤", "lemmaCroppedTitle": "手部屈指肌腱损伤", "lemmaDesc": "手指的屈指肌腱在发挥手握持功能中起主要作用，它的解剖结构比较特殊，适应于它的生理...", "lemmaUrl": "http://baike.baidu.com/item/%E6%89%8B%E9%83%A8%E5%B1%88%E6%8C%87%E8%82%8C%E8%85%B1%E6%8D%9F%E4%BC%A4/2341720", "lemmaPic": []}, {"lemmaId": 324039, "lemmaTitle": "套筒冠义齿", "lemmaCroppedTitle": "套筒冠义齿", "lemmaDesc": "口腔卫生对身体健康的重要性，有关科学家呼吁，预防心血管疾病要从预防口腔疾病开始。...", "lemmaUrl": "http://baike.baidu.com/item/%E5%A5%97%E7%AD%92%E5%86%A0%E4%B9%89%E9%BD%BF/324039", "lemmaPic": []}, {"lemmaId": 6522796, "lemmaTitle": "食管破裂", "lemmaCroppedTitle": "食管破裂", "lemmaDesc": "食管破裂可发生于钝性损伤、锐器伤及火器伤，也可因剧烈呕吐致自发性食管破裂。由于含...", "lemmaUrl": "http://baike.baidu.com/item/%E9%A3%9F%E7%AE%A1%E7%A0%B4%E8%A3%82/6522796", "lemmaPic": []}, {"lemmaId": 2915571, "lemmaTitle": "并殖吸虫病", "lemmaCroppedTitle": "并殖吸虫病", "lemmaDesc": "并殖吸虫病由寄生于人体内各脏器（以肺部为主）的并殖吸虫引起的慢性寄生虫病。并殖吸...", "lemmaUrl": "http://baike.baidu.com/item/%E5%B9%B6%E6%AE%96%E5%90%B8%E8%99%AB%E7%97%85/2915571", "lemmaPic": []}, {"lemmaId": 7254641, "lemmaTitle": "桡骨骨折", "lemmaCroppedTitle": "桡骨骨折", "lemmaDesc": "桡骨骨折多发生于远端，极为常见，约占平时骨折的1/10。多见于老年妇女、儿童及青...", "lemmaUrl": "http://baike.baidu.com/item/%E6%A1%A1%E9%AA%A8%E9%AA%A8%E6%8A%98/7254641", "lemmaPic": []}, {"lemmaId": 883233, "lemmaTitle": "卵巢黄体囊肿破裂", "lemmaCroppedTitle": "卵巢黄体囊肿破裂", "lemmaDesc": "卵巢在排卵后形成黄体，正常成熟黄体直径2～3cm。若黄体腔内有大量的积液，使腔的...", "lemmaUrl": "http://baike.baidu.com/item/%E5%8D%B5%E5%B7%A2%E9%BB%84%E4%BD%93%E5%9B%8A%E8%82%BF%E7%A0%B4%E8%A3%82/883233", "lemmaPic": []}, {"lemmaId": 12700751, "lemmaTitle": "青春期前痤疮", "lemmaCroppedTitle": "青春期前痤疮", "lemmaDesc": "本病可分为新生儿、婴儿和儿童三个阶段。其中新生儿痤疮较为常见，男性多于女性。主要...", "lemmaUrl": "http://baike.baidu.com/item/%E9%9D%92%E6%98%A5%E6%9C%9F%E5%89%8D%E7%97%A4%E7%96%AE/12700751", "lemmaPic": []}, {"lemmaId": 2031863, "lemmaTitle": "脊髓蛛网膜炎", "lemmaCroppedTitle": "脊髓蛛网膜炎", "lemmaDesc": "脊髓蛛网膜炎也称粘连性脊蛛网膜炎，是蛛网膜的一种慢性炎症过程，在某种病因的作用下...", "lemmaUrl": "http://baike.baidu.com/item/%E8%84%8A%E9%AB%93%E8%9B%9B%E7%BD%91%E8%86%9C%E7%82%8E/2031863", "lemmaPic": []}, {"lemmaId": 1591845, "lemmaTitle": "零号病人", "lemmaCroppedTitle": "零号病人", "lemmaDesc": "“零号病人”指的是第一个得传染病，并开始散播病毒的患者。在流行病调查中，也可叫“...", "lemmaUrl": "http://baike.baidu.com/item/%E9%9B%B6%E5%8F%B7%E7%97%85%E4%BA%BA/1591845", "lemmaPic": []}, {"lemmaId": 7706343, "lemmaTitle": "异尖线虫病", "lemmaCroppedTitle": "异尖线虫病", "lemmaDesc": "异尖线虫病是异尖线虫第三期幼虫寄生在胃肠道引起的疾病，人因生食含活幼虫的海鱼而感...", "lemmaUrl": "http://baike.baidu.com/item/%E5%BC%82%E5%B0%96%E7%BA%BF%E8%99%AB%E7%97%85/7706343", "lemmaPic": []}, {"lemmaId": 5358688, "lemmaTitle": "小儿充血性心力衰竭", "lemmaCroppedTitle": "小儿充血性心力衰竭", "lemmaDesc": "充血性心力衰竭简称心衰。心力衰竭为心功能障碍，心输出量减低不能满足机体需要。临床...", "lemmaUrl": "http://baike.baidu.com/item/%E5%B0%8F%E5%84%BF%E5%85%85%E8%A1%80%E6%80%A7%E5%BF%83%E5%8A%9B%E8%A1%B0%E7%AB%AD/5358688", "lemmaPic": []}, {"lemmaId": 12810971, "lemmaTitle": "局灶性硬皮病", "lemmaCroppedTitle": "局灶性硬皮病", "lemmaDesc": "局灶性硬皮病又称硬斑病，是一种限局性皮肤肿胀，逐渐发生硬化萎缩的皮肤病。好发于头...", "lemmaUrl": "http://baike.baidu.com/item/%E5%B1%80%E7%81%B6%E6%80%A7%E7%A1%AC%E7%9A%AE%E7%97%85/12810971", "lemmaPic": []}, {"lemmaId": 11066198, "lemmaTitle": "传导性聋", "lemmaCroppedTitle": "传导性聋", "lemmaDesc": "传导性聋又称传音性聋。耳部传音系统有外耳道、鼓膜、听骨链、蜗窗等。外界声波传入内...", "lemmaUrl": "http://baike.baidu.com/item/%E4%BC%A0%E5%AF%BC%E6%80%A7%E8%81%8B/11066198", "lemmaPic": []}, {"lemmaId": 2419427, "lemmaTitle": "假性肠梗阻", "lemmaCroppedTitle": "假性肠梗阻", "lemmaDesc": "假性肠梗阻（IPO）是由于神经抑制，毒素刺激或肠壁平滑肌本身的病变，导致的肠壁肌...", "lemmaUrl": "http://baike.baidu.com/item/%E5%81%87%E6%80%A7%E8%82%A0%E6%A2%97%E9%98%BB/2419427", "lemmaPic": []}, {"lemmaId": 7233112, "lemmaTitle": "对称性进行性红斑角化症", "lemmaCroppedTitle": "对称性进行性红斑角化症", "lemmaDesc": "对称性进行性红斑角化症是常染色体显性遗传的角化异常性疾病，主要表现为双侧掌跖的进...", "lemmaUrl": "http://baike.baidu.com/item/%E5%AF%B9%E7%A7%B0%E6%80%A7%E8%BF%9B%E8%A1%8C%E6%80%A7%E7%BA%A2%E6%96%91%E8%A7%92%E5%8C%96%E7%97%87/7233112", "lemmaPic": []}, {"lemmaId": 4926002, "lemmaTitle": "麻痹性臂丛神经炎", "lemmaCroppedTitle": "麻痹性臂丛神经炎", "lemmaDesc": "麻痹性臂丛神经炎又称神经痛性肌萎缩，病因未明，可能与感染、变态反应等有关。主要表...", "lemmaUrl": "http://baike.baidu.com/item/%E9%BA%BB%E7%97%B9%E6%80%A7%E8%87%82%E4%B8%9B%E7%A5%9E%E7%BB%8F%E7%82%8E/4926002", "lemmaPic": []}, {"lemmaId": 8711141, "lemmaTitle": "桡神经麻痹", "lemmaCroppedTitle": "桡神经麻痹", "lemmaDesc": "桡神经由C5～T1的神经根组成，是臂丛后束的主要神经，所支配各肌的主要功能是伸肘...", "lemmaUrl": "http://baike.baidu.com/item/%E6%A1%A1%E7%A5%9E%E7%BB%8F%E9%BA%BB%E7%97%B9/8711141", "lemmaPic": []}, {"lemmaId": 3376132, "lemmaTitle": "踝关节软骨损伤", "lemmaCroppedTitle": "踝关节软骨损伤", "lemmaDesc": "踝关节软骨损伤在踝关节疾病中较为常见，严重者可出现患侧踝关节疼痛及功能受限。踝关...", "lemmaUrl": "http://baike.baidu.com/item/%E8%B8%9D%E5%85%B3%E8%8A%82%E8%BD%AF%E9%AA%A8%E6%8D%9F%E4%BC%A4/3376132", "lemmaPic": []}, {"lemmaId": 6425322, "lemmaTitle": "急性胃十二指肠溃疡穿孔", "lemmaCroppedTitle": "急性胃十二指肠溃疡穿孔", "lemmaDesc": "急性穿孔是胃十二指肠溃疡严重并发症，为常见的外科急腹症。起病急、病情重、变化快，...", "lemmaUrl": "http://baike.baidu.com/item/%E6%80%A5%E6%80%A7%E8%83%83%E5%8D%81%E4%BA%8C%E6%8C%87%E8%82%A0%E6%BA%83%E7%96%A1%E7%A9%BF%E5%AD%94/6425322", "lemmaPic": []}, {"lemmaId": 1926953, "lemmaTitle": "男性生殖腺机能减退症", "lemmaCroppedTitle": "男性生殖腺机能减退症", "lemmaDesc": "男性生殖腺机能减退症是指各种原因引起男性睾丸功能减退而出现的一系列表现。男性生殖...", "lemmaUrl": "http://baike.baidu.com/item/%E7%94%B7%E6%80%A7%E7%94%9F%E6%AE%96%E8%85%BA%E6%9C%BA%E8%83%BD%E5%87%8F%E9%80%80%E7%97%87/1926953", "lemmaPic": []}], "total": 7246, "totalPage": 73, "page": 31, "fromLemma": 0}