{"lemmaList": [{"lemmaId": 2252368, "lemmaTitle": "肺曲菌病", "lemmaCroppedTitle": "肺曲菌病", "lemmaDesc": "肺曲菌病的主要致病菌为烟曲菌，部分致病菌有黄曲菌、棒状曲菌、土曲菌、黑曲菌、构巢...", "lemmaUrl": "http://baike.baidu.com/item/%E8%82%BA%E6%9B%B2%E8%8F%8C%E7%97%85/2252368", "lemmaPic": []}, {"lemmaId": 5121530, "lemmaTitle": "舟骨骨折", "lemmaCroppedTitle": "舟骨骨折", "lemmaDesc": "舟骨骨折是一种常见的骨折，多是因间接暴力造成的，发生舟骨骨折后，严重的影响了患者...", "lemmaUrl": "http://baike.baidu.com/item/%E8%88%9F%E9%AA%A8%E9%AA%A8%E6%8A%98/5121530", "lemmaPic": []}, {"lemmaId": 8049780, "lemmaTitle": "铁中毒", "lemmaCroppedTitle": "铁中毒", "lemmaDesc": "铁中毒又称血色病。血色病分为原发性的血色病与继发性血色病两种。原发性血色病的病因...", "lemmaUrl": "http://baike.baidu.com/item/%E9%93%81%E4%B8%AD%E6%AF%92/8049780", "lemmaPic": []}, {"lemmaId": 5087877, "lemmaTitle": "跖骨趾骨骨折", "lemmaCroppedTitle": "跖骨趾骨骨折", "lemmaDesc": "跖骨趾骨骨折是常见骨折，多因重物打击足背、辗压足、内翻扭伤或误踢硬物引起。本病主...", "lemmaUrl": "http://baike.baidu.com/item/%E8%B7%96%E9%AA%A8%E8%B6%BE%E9%AA%A8%E9%AA%A8%E6%8A%98/5087877", "lemmaPic": []}, {"lemmaId": 5240914, "lemmaTitle": "腹膜后血肿", "lemmaCroppedTitle": "腹膜后血肿", "lemmaDesc": "腹膜后血肿为腹腰部损伤的常见并发症，可因直接或间接暴力造成。最常见原因是骨盆及脊...", "lemmaUrl": "http://baike.baidu.com/item/%E8%85%B9%E8%86%9C%E5%90%8E%E8%A1%80%E8%82%BF/5240914", "lemmaPic": []}, {"lemmaId": 11023281, "lemmaTitle": "前十字韧带损伤", "lemmaCroppedTitle": "前十字韧带损伤", "lemmaDesc": "前十字韧带又称前交叉韧带，位于膝关节内，起于股骨外侧髁部的内侧向前下方止于胫骨平...", "lemmaUrl": "http://baike.baidu.com/item/%E5%89%8D%E5%8D%81%E5%AD%97%E9%9F%A7%E5%B8%A6%E6%8D%9F%E4%BC%A4/11023281", "lemmaPic": []}, {"lemmaId": 2849853, "lemmaTitle": "垂体卒中", "lemmaCroppedTitle": "垂体卒中", "lemmaDesc": "垂体突发出血、缺血、梗塞、坏死，并引起突发性鞍旁压迫和颅内高压症或脑膜刺激为特征...", "lemmaUrl": "http://baike.baidu.com/item/%E5%9E%82%E4%BD%93%E5%8D%92%E4%B8%AD/2849853", "lemmaPic": []}, {"lemmaId": 269799, "lemmaTitle": "头皮损伤", "lemmaCroppedTitle": "头皮损伤", "lemmaDesc": "头皮损伤是原发性颅脑损伤中最常见的一种，它的范围可由轻微擦伤到整个头皮的撕脱伤，...", "lemmaUrl": "http://baike.baidu.com/item/%E5%A4%B4%E7%9A%AE%E6%8D%9F%E4%BC%A4/269799", "lemmaPic": []}, {"lemmaId": 5060021, "lemmaTitle": "Whipple病", "lemmaCroppedTitle": "Whipple病", "lemmaDesc": "Whipple病又称惠普尔病，即肠源性脂肪代谢障碍，是一种罕见的慢性感染性疾病。...", "lemmaUrl": "http://baike.baidu.com/item/Whipple%E7%97%85/5060021", "lemmaPic": []}, {"lemmaId": 2825660, "lemmaTitle": "散发性脑炎", "lemmaCroppedTitle": "散发性脑炎", "lemmaDesc": "散发性脑炎又名非特异性脑炎及非典型性脑炎等。它是神经系统常见的综合征之一，本疾病...", "lemmaUrl": "http://baike.baidu.com/item/%E6%95%A3%E5%8F%91%E6%80%A7%E8%84%91%E7%82%8E/2825660", "lemmaPic": []}, {"lemmaId": 4751506, "lemmaTitle": "小儿肾病综合征", "lemmaCroppedTitle": "小儿肾病综合征", "lemmaDesc": "小儿肾病综合征（NS）是一种常见的儿科肾脏疾病，是由于多种病因造成肾小球基底膜通...", "lemmaUrl": "http://baike.baidu.com/item/%E5%B0%8F%E5%84%BF%E8%82%BE%E7%97%85%E7%BB%BC%E5%90%88%E5%BE%81/4751506", "lemmaPic": []}, {"lemmaId": 2253115, "lemmaTitle": "急性心功能不全", "lemmaCroppedTitle": "急性心功能不全", "lemmaDesc": "心功能不全是指由心肌梗死、心肌病、血流动力学负荷过重、炎症等各种原因引起心肌结构...", "lemmaUrl": "http://baike.baidu.com/item/%E6%80%A5%E6%80%A7%E5%BF%83%E5%8A%9F%E8%83%BD%E4%B8%8D%E5%85%A8/2253115", "lemmaPic": []}, {"lemmaId": 4227873, "lemmaTitle": "赖特综合征", "lemmaCroppedTitle": "赖特综合征", "lemmaDesc": "反应性关节炎（reactive arthritis，ReA）是一种发生于某些特定...", "lemmaUrl": "http://baike.baidu.com/item/%E8%B5%96%E7%89%B9%E7%BB%BC%E5%90%88%E5%BE%81/4227873", "lemmaPic": []}, {"lemmaId": 5053933, "lemmaTitle": "糖尿病乳酸性酸中毒", "lemmaCroppedTitle": "糖尿病乳酸性酸中毒", "lemmaDesc": "糖尿病乳酸性酸中毒系不同原因引起血乳酸持续增高和PH减低（&amp;lt;7.3...", "lemmaUrl": "http://baike.baidu.com/item/%E7%B3%96%E5%B0%BF%E7%97%85%E4%B9%B3%E9%85%B8%E6%80%A7%E9%85%B8%E4%B8%AD%E6%AF%92/5053933", "lemmaPic": []}, {"lemmaId": 652225, "lemmaTitle": "小儿消化不良", "lemmaCroppedTitle": "小儿消化不良", "lemmaDesc": "我国儿科患者中功能性消化不良（FD）的发病率尚无规范统计，但已经成为儿科消化门诊...", "lemmaUrl": "http://baike.baidu.com/item/%E5%B0%8F%E5%84%BF%E6%B6%88%E5%8C%96%E4%B8%8D%E8%89%AF/652225", "lemmaPic": []}, {"lemmaId": 4386751, "lemmaTitle": "Kartagener综合征", "lemmaCroppedTitle": "Kartagener综合征", "lemmaDesc": "Kartagener由支气管扩张、慢性鼻窦炎或鼻息肉、内脏反位三联征组成，主要以...", "lemmaUrl": "http://baike.baidu.com/item/Kartagener%E7%BB%BC%E5%90%88%E5%BE%81/4386751", "lemmaPic": []}, {"lemmaId": 5243866, "lemmaTitle": "妊娠合并甲状腺功能亢进", "lemmaCroppedTitle": "妊娠合并甲状腺功能亢进", "lemmaDesc": "甲亢是一种常见的内分泌疾病，系甲状腺素分泌过多所致。其发生率1997年Mestm...", "lemmaUrl": "http://baike.baidu.com/item/%E5%A6%8A%E5%A8%A0%E5%90%88%E5%B9%B6%E7%94%B2%E7%8A%B6%E8%85%BA%E5%8A%9F%E8%83%BD%E4%BA%A2%E8%BF%9B/5243866", "lemmaPic": []}, {"lemmaId": 3767011, "lemmaTitle": "青年心肌梗死", "lemmaCroppedTitle": "青年心肌梗死", "lemmaDesc": "青年心肌梗死是指年龄在40岁以下的青年，不论病因如何而发生的急性心肌梗死。青年心...", "lemmaUrl": "http://baike.baidu.com/item/%E9%9D%92%E5%B9%B4%E5%BF%83%E8%82%8C%E6%A2%97%E6%AD%BB/3767011", "lemmaPic": []}, {"lemmaId": 9666561, "lemmaTitle": "妊娠恶阻", "lemmaCroppedTitle": "妊娠恶阻", "lemmaDesc": "妊娠早期出现恶心呕吐，头晕倦怠，甚至食入即吐者，成为“妊娠恶阻”。亦称为“子病”...", "lemmaUrl": "http://baike.baidu.com/item/%E5%A6%8A%E5%A8%A0%E6%81%B6%E9%98%BB/9666561", "lemmaPic": []}, {"lemmaId": 5318200, "lemmaTitle": "小舞蹈病", "lemmaCroppedTitle": "小舞蹈病", "lemmaDesc": "小舞蹈病又称风湿性舞蹈病或Sydenham舞蹈病，多见于5～15岁女童，表现为不...", "lemmaUrl": "http://baike.baidu.com/item/%E5%B0%8F%E8%88%9E%E8%B9%88%E7%97%85/5318200", "lemmaPic": []}, {"lemmaId": 10153785, "lemmaTitle": "外耳道乳头状瘤", "lemmaCroppedTitle": "外耳道乳头状瘤", "lemmaDesc": "外耳道乳头状瘤多发生于外耳道外段皮肤，是外耳道最常见的良性肿瘤之一，是其鳞状细胞...", "lemmaUrl": "http://baike.baidu.com/item/%E5%A4%96%E8%80%B3%E9%81%93%E4%B9%B3%E5%A4%B4%E7%8A%B6%E7%98%A4/10153785", "lemmaPic": []}, {"lemmaId": 5055074, "lemmaTitle": "荨麻疹和血管性水肿", "lemmaCroppedTitle": "荨麻疹和血管性水肿", "lemmaDesc": "荨麻疹和血管性水肿又称风疹块和血管神经性水肿，二者可分别出现或同时发生；表现为皮...", "lemmaUrl": "http://baike.baidu.com/item/%E8%8D%A8%E9%BA%BB%E7%96%B9%E5%92%8C%E8%A1%80%E7%AE%A1%E6%80%A7%E6%B0%B4%E8%82%BF/5055074", "lemmaPic": []}, {"lemmaId": 2644200, "lemmaTitle": "脉络膜新生血管", "lemmaCroppedTitle": "脉络膜新生血管", "lemmaDesc": "脉络膜新生血管是指来自脉络膜毛细血管的增殖血管，通过Bruch膜的裂口而扩展，在...", "lemmaUrl": "http://baike.baidu.com/item/%E8%84%89%E7%BB%9C%E8%86%9C%E6%96%B0%E7%94%9F%E8%A1%80%E7%AE%A1/2644200", "lemmaPic": []}, {"lemmaId": 10108676, "lemmaTitle": "毛发上皮瘤", "lemmaCroppedTitle": "毛发上皮瘤", "lemmaDesc": "毛发上皮瘤此肿瘤系起源于毛发的良性肿瘤。一般认为本病可能起源于多潜能的基底细胞，...", "lemmaUrl": "http://baike.baidu.com/item/%E6%AF%9B%E5%8F%91%E4%B8%8A%E7%9A%AE%E7%98%A4/10108676", "lemmaPic": []}, {"lemmaId": 3327706, "lemmaTitle": "眼球运动障碍", "lemmaCroppedTitle": "眼球运动障碍", "lemmaDesc": "动眼、滑车、外展神经具有支配眼球眼外肌运动的功能，称为眼球运动神经。当上述神经或...", "lemmaUrl": "http://baike.baidu.com/item/%E7%9C%BC%E7%90%83%E8%BF%90%E5%8A%A8%E9%9A%9C%E7%A2%8D/3327706", "lemmaPic": []}, {"lemmaId": 1940375, "lemmaTitle": "急性硬膜下血肿", "lemmaCroppedTitle": "急性硬膜下血肿", "lemmaDesc": "急性硬膜下血肿（acute subdural hematoma）的血肿位于硬膜下...", "lemmaUrl": "http://baike.baidu.com/item/%E6%80%A5%E6%80%A7%E7%A1%AC%E8%86%9C%E4%B8%8B%E8%A1%80%E8%82%BF/1940375", "lemmaPic": []}, {"lemmaId": 7525395, "lemmaTitle": "小儿神经母细胞瘤", "lemmaCroppedTitle": "小儿神经母细胞瘤", "lemmaDesc": "小儿神经母细胞瘤（NB）从原始神经嵴细胞演化而来，交感神经链、肾上腺髓质是最常见...", "lemmaUrl": "http://baike.baidu.com/item/%E5%B0%8F%E5%84%BF%E7%A5%9E%E7%BB%8F%E6%AF%8D%E7%BB%86%E8%83%9E%E7%98%A4/7525395", "lemmaPic": []}, {"lemmaId": 4671370, "lemmaTitle": "肝脏局灶性结节性增生", "lemmaCroppedTitle": "肝脏局灶性结节性增生", "lemmaDesc": "肝脏局灶性结节性增生（FNH）是肝脏一种少见的良性病变，是仅次于肝血管瘤的肝脏良...", "lemmaUrl": "http://baike.baidu.com/item/%E8%82%9D%E8%84%8F%E5%B1%80%E7%81%B6%E6%80%A7%E7%BB%93%E8%8A%82%E6%80%A7%E5%A2%9E%E7%94%9F/4671370", "lemmaPic": []}, {"lemmaId": 2401878, "lemmaTitle": "樱桃状血管瘤", "lemmaCroppedTitle": "樱桃状血管瘤", "lemmaDesc": "樱桃状血管瘤又称老年性血管瘤，为最常见的血管瘤，在成年早期即可开始出现，随年龄增...", "lemmaUrl": "http://baike.baidu.com/item/%E6%A8%B1%E6%A1%83%E7%8A%B6%E8%A1%80%E7%AE%A1%E7%98%A4/2401878", "lemmaPic": []}, {"lemmaId": 894452, "lemmaTitle": "妊娠合并子宫肌瘤", "lemmaCroppedTitle": "妊娠合并子宫肌瘤", "lemmaDesc": "子宫肌瘤是女性生殖器官中最常见的一种良性肿瘤，也是人体中最常见的肿瘤之一，其又称...", "lemmaUrl": "http://baike.baidu.com/item/%E5%A6%8A%E5%A8%A0%E5%90%88%E5%B9%B6%E5%AD%90%E5%AE%AB%E8%82%8C%E7%98%A4/894452", "lemmaPic": []}, {"lemmaId": 8531770, "lemmaTitle": "颅骨缺损", "lemmaCroppedTitle": "颅骨缺损", "lemmaDesc": "颅骨缺损（defect of skull）部分是由于开放性颅脑创伤或火器性穿通伤...", "lemmaUrl": "http://baike.baidu.com/item/%E9%A2%85%E9%AA%A8%E7%BC%BA%E6%8D%9F/8531770", "lemmaPic": []}, {"lemmaId": 8455570, "lemmaTitle": "嗜酸性筋膜炎", "lemmaCroppedTitle": "嗜酸性筋膜炎", "lemmaDesc": "嗜酸性筋膜炎是指一种累及肢体皮肤深筋膜而有硬皮病样表现的结缔组织疾病，又称伴高γ...", "lemmaUrl": "http://baike.baidu.com/item/%E5%97%9C%E9%85%B8%E6%80%A7%E7%AD%8B%E8%86%9C%E7%82%8E/8455570", "lemmaPic": []}, {"lemmaId": 4847808, "lemmaTitle": "妊娠合并特发性血小板减少性紫癜", "lemmaCroppedTitle": "妊娠合并特发性血小板减少性紫癜", "lemmaDesc": "妊娠合并特发性血小板减少性紫癜（ITP）是产科较为常见的血液系统合并症，妊娠期的...", "lemmaUrl": "http://baike.baidu.com/item/%E5%A6%8A%E5%A8%A0%E5%90%88%E5%B9%B6%E7%89%B9%E5%8F%91%E6%80%A7%E8%A1%80%E5%B0%8F%E6%9D%BF%E5%87%8F%E5%B0%91%E6%80%A7%E7%B4%AB%E7%99%9C/4847808", "lemmaPic": []}, {"lemmaId": 897632, "lemmaTitle": "嗜酸细胞性胃肠炎", "lemmaCroppedTitle": "嗜酸细胞性胃肠炎", "lemmaDesc": "是一种以周围血嗜酸性粒细胞增多为特征的胃肠道疾病，胃和小肠有不同程度的嗜酸性粒细...", "lemmaUrl": "http://baike.baidu.com/item/%E5%97%9C%E9%85%B8%E7%BB%86%E8%83%9E%E6%80%A7%E8%83%83%E8%82%A0%E7%82%8E/897632", "lemmaPic": []}, {"lemmaId": 2068602, "lemmaTitle": "羊膜带综合征", "lemmaCroppedTitle": "羊膜带综合征", "lemmaDesc": "羊膜带综合征的名称很多，如先天性环状粘连带蛛网综合征等，是指部分羊膜破裂产生纤维...", "lemmaUrl": "http://baike.baidu.com/item/%E7%BE%8A%E8%86%9C%E5%B8%A6%E7%BB%BC%E5%90%88%E5%BE%81/2068602", "lemmaPic": []}, {"lemmaId": 10456202, "lemmaTitle": "萎缩性咽炎", "lemmaCroppedTitle": "萎缩性咽炎", "lemmaDesc": "萎缩性咽炎常继发于萎缩性鼻炎，病因不明，临床上也很少见。主要病理变化为咽部腺体和...", "lemmaUrl": "http://baike.baidu.com/item/%E8%90%8E%E7%BC%A9%E6%80%A7%E5%92%BD%E7%82%8E/10456202", "lemmaPic": []}, {"lemmaId": 3155410, "lemmaTitle": "胃结核", "lemmaCroppedTitle": "胃结核", "lemmaDesc": "胃结核是人体各器官结核感染中最罕见的一种。结核的临床表现很不一，有些无症状或很轻...", "lemmaUrl": "http://baike.baidu.com/item/%E8%83%83%E7%BB%93%E6%A0%B8/3155410", "lemmaPic": []}, {"lemmaId": 4523868, "lemmaTitle": "Lennox-Gastaut综合征", "lemmaCroppedTitle": "Lennox-Gastaut综合征", "lemmaDesc": "Lennox-Gastaut综合征（LGS），是一种与年龄有关的隐源性或症状性全...", "lemmaUrl": "http://baike.baidu.com/item/Lennox-Gastaut%E7%BB%BC%E5%90%88%E5%BE%81/4523868", "lemmaPic": []}, {"lemmaId": 11033828, "lemmaTitle": "小儿变蒸", "lemmaCroppedTitle": "小儿变蒸", "lemmaDesc": "小儿变蒸，又称“变蒸”，俗称“烧长”或“生长热”，是古代医家用来解释婴幼儿生长发...", "lemmaUrl": "http://baike.baidu.com/item/%E5%B0%8F%E5%84%BF%E5%8F%98%E8%92%B8/11033828", "lemmaPic": []}, {"lemmaId": 712367, "lemmaTitle": "腹膜后淋巴结炎", "lemmaCroppedTitle": "腹膜后淋巴结炎", "lemmaDesc": "腹膜后淋巴结炎是由于细菌、病毒或结核杆菌感染形成的急性、慢性或结核性腹膜后淋巴结...", "lemmaUrl": "http://baike.baidu.com/item/%E8%85%B9%E8%86%9C%E5%90%8E%E6%B7%8B%E5%B7%B4%E7%BB%93%E7%82%8E/712367", "lemmaPic": []}, {"lemmaId": 584692, "lemmaTitle": "卵巢未成熟畸胎瘤", "lemmaCroppedTitle": "卵巢未成熟畸胎瘤", "lemmaDesc": "卵巢未成熟畸胎瘤属于卵巢恶性生殖细胞肿瘤，恶性程度高。本病病因不明。临床表现常见...", "lemmaUrl": "http://baike.baidu.com/item/%E5%8D%B5%E5%B7%A2%E6%9C%AA%E6%88%90%E7%86%9F%E7%95%B8%E8%83%8E%E7%98%A4/584692", "lemmaPic": []}, {"lemmaId": 10537594, "lemmaTitle": "混合瘤", "lemmaCroppedTitle": "混合瘤", "lemmaDesc": "混合瘤是指两种或两种以上新生物组织结构形成的肿瘤，称为混合瘤。如畸胎瘤、肾胚胎瘤...", "lemmaUrl": "http://baike.baidu.com/item/%E6%B7%B7%E5%90%88%E7%98%A4/10537594", "lemmaPic": []}, {"lemmaId": 8531680, "lemmaTitle": "面神经损伤", "lemmaCroppedTitle": "面神经损伤", "lemmaDesc": "颅脑创伤和医源性损伤是造成面神经损伤（facial nerve injury）的...", "lemmaUrl": "http://baike.baidu.com/item/%E9%9D%A2%E7%A5%9E%E7%BB%8F%E6%8D%9F%E4%BC%A4/8531680", "lemmaPic": []}, {"lemmaId": 9006056, "lemmaTitle": "分裂情感性精神病", "lemmaCroppedTitle": "分裂情感性精神病", "lemmaDesc": "分裂情感性精神病为一发作性精神障碍，分裂症状与情感症状在同一次发病中均很明显，两...", "lemmaUrl": "http://baike.baidu.com/item/%E5%88%86%E8%A3%82%E6%83%85%E6%84%9F%E6%80%A7%E7%B2%BE%E7%A5%9E%E7%97%85/9006056", "lemmaPic": []}, {"lemmaId": 7729150, "lemmaTitle": "新生儿咽下综合征", "lemmaCroppedTitle": "新生儿咽下综合征", "lemmaDesc": "咽下综合征指在分娩过程中胎婴儿咽下过多被胎粪或细菌污染的羊水、母血或阴道内黏液分...", "lemmaUrl": "http://baike.baidu.com/item/%E6%96%B0%E7%94%9F%E5%84%BF%E5%92%BD%E4%B8%8B%E7%BB%BC%E5%90%88%E5%BE%81/7729150", "lemmaPic": []}, {"lemmaId": 6327601, "lemmaTitle": "先天性膈疝", "lemmaCroppedTitle": "先天性膈疝", "lemmaDesc": "膈疝在膈肌疾病中最为常见，在膈肌发育过程中，如胚胎时的裂隙未能完全闭合，而在横膈...", "lemmaUrl": "http://baike.baidu.com/item/%E5%85%88%E5%A4%A9%E6%80%A7%E8%86%88%E7%96%9D/6327601", "lemmaPic": []}, {"lemmaId": 944009, "lemmaTitle": "先天性十二指肠闭锁", "lemmaCroppedTitle": "先天性十二指肠闭锁", "lemmaDesc": "先天性十二指肠闭锁是胚胎时期，肠管空泡化不全所引致，属肠管发育障碍性疾病，可伴有...", "lemmaUrl": "http://baike.baidu.com/item/%E5%85%88%E5%A4%A9%E6%80%A7%E5%8D%81%E4%BA%8C%E6%8C%87%E8%82%A0%E9%97%AD%E9%94%81/944009", "lemmaPic": []}, {"lemmaId": 5068650, "lemmaTitle": "高免疫球蛋白E综合征", "lemmaCroppedTitle": "高免疫球蛋白E综合征", "lemmaDesc": "高免疫球蛋白E综合征(HIES)即Job综合征，又称姚皮炎综合征、慢性肉芽肿病变...", "lemmaUrl": "http://baike.baidu.com/item/%E9%AB%98%E5%85%8D%E7%96%AB%E7%90%83%E8%9B%8B%E7%99%BDE%E7%BB%BC%E5%90%88%E5%BE%81/5068650", "lemmaPic": []}, {"lemmaId": 10059866, "lemmaTitle": "费尔蒂综合征", "lemmaCroppedTitle": "费尔蒂综合征", "lemmaDesc": "费尔蒂综合征（Felty综合征）是指除有典型的类风湿关节炎临床表现外，还伴有脾脏...", "lemmaUrl": "http://baike.baidu.com/item/%E8%B4%B9%E5%B0%94%E8%92%82%E7%BB%BC%E5%90%88%E5%BE%81/10059866", "lemmaPic": []}, {"lemmaId": 5317149, "lemmaTitle": "基底细胞瘤", "lemmaCroppedTitle": "基底细胞瘤", "lemmaDesc": "基底细胞瘤亦称蚕蚀性溃疡，是皮肤癌中最多见的一种，发病率很高，占眼睑恶性肿瘤的第...", "lemmaUrl": "http://baike.baidu.com/item/%E5%9F%BA%E5%BA%95%E7%BB%86%E8%83%9E%E7%98%A4/5317149", "lemmaPic": []}, {"lemmaId": 672803, "lemmaTitle": "电子喉", "lemmaCroppedTitle": "电子喉", "lemmaDesc": "电子喉是带有一个塑料振动膜的手握式半导体装置，大小与电动剃胡刀相仿，为了能发出声...", "lemmaUrl": "http://baike.baidu.com/item/%E7%94%B5%E5%AD%90%E5%96%89/672803", "lemmaPic": []}, {"lemmaId": 7976505, "lemmaTitle": "黧黑斑", "lemmaCroppedTitle": "黧黑斑", "lemmaDesc": "黧黑斑是一种发生于颜面部的色素沉着性疾病，临床表现为颧颊、前额、鼻、唇周、颏部皮...", "lemmaUrl": "http://baike.baidu.com/item/%E9%BB%A7%E9%BB%91%E6%96%91/7976505", "lemmaPic": []}, {"lemmaId": 526485, "lemmaTitle": "复发性卵巢恶性肿瘤", "lemmaCroppedTitle": "复发性卵巢恶性肿瘤", "lemmaDesc": "卵巢癌是妇科常见的恶性肿瘤之一，其死亡率居妇科恶性肿瘤之首。大多数患者在发现卵巢...", "lemmaUrl": "http://baike.baidu.com/item/%E5%A4%8D%E5%8F%91%E6%80%A7%E5%8D%B5%E5%B7%A2%E6%81%B6%E6%80%A7%E8%82%BF%E7%98%A4/526485", "lemmaPic": []}, {"lemmaId": 5277967, "lemmaTitle": "阿片类药物中毒", "lemmaCroppedTitle": "阿片类药物中毒", "lemmaDesc": "阿片类药物包括阿片、吗啡、可待因、复方樟脑酊和罂粟碱等，以吗啡为代表（阿片含10...", "lemmaUrl": "http://baike.baidu.com/item/%E9%98%BF%E7%89%87%E7%B1%BB%E8%8D%AF%E7%89%A9%E4%B8%AD%E6%AF%92/5277967", "lemmaPic": []}, {"lemmaId": 314389, "lemmaTitle": "盆腔结缔组织炎", "lemmaCroppedTitle": "盆腔结缔组织炎", "lemmaDesc": "盆腔结缔组织是腹膜外的组织，位于盆腔腹膜的后方，子宫两侧及膀胱前间隙处，这些部位...", "lemmaUrl": "http://baike.baidu.com/item/%E7%9B%86%E8%85%94%E7%BB%93%E7%BC%94%E7%BB%84%E7%BB%87%E7%82%8E/314389", "lemmaPic": []}, {"lemmaId": 10223259, "lemmaTitle": "斜视性弱视", "lemmaCroppedTitle": "斜视性弱视", "lemmaDesc": "斜视性弱视是由于当人的双眼视轴平行，维持双眼黄斑中心凹注视，才能产生双眼单视觉功...", "lemmaUrl": "http://baike.baidu.com/item/%E6%96%9C%E8%A7%86%E6%80%A7%E5%BC%B1%E8%A7%86/10223259", "lemmaPic": []}, {"lemmaId": 5243436, "lemmaTitle": "共同性外斜视", "lemmaCroppedTitle": "共同性外斜视", "lemmaDesc": "共同性外斜视分为原发性及继发性两种。原发性者包括外隐斜、间歇性外斜视及恒定性外斜...", "lemmaUrl": "http://baike.baidu.com/item/%E5%85%B1%E5%90%8C%E6%80%A7%E5%A4%96%E6%96%9C%E8%A7%86/5243436", "lemmaPic": []}, {"lemmaId": 6454414, "lemmaTitle": "急性化脓性腹膜炎", "lemmaCroppedTitle": "急性化脓性腹膜炎", "lemmaDesc": "急性化脓性腹膜炎按发病机制分为原发性腹膜炎和继发性腹膜炎。原发性腹膜炎（又称为自...", "lemmaUrl": "http://baike.baidu.com/item/%E6%80%A5%E6%80%A7%E5%8C%96%E8%84%93%E6%80%A7%E8%85%B9%E8%86%9C%E7%82%8E/6454414", "lemmaPic": []}, {"lemmaId": 2049897, "lemmaTitle": "膀胱输尿管反流", "lemmaCroppedTitle": "膀胱输尿管反流", "lemmaDesc": "膀胱输尿管反流（VUR）是指排尿时尿液从膀胱反流至输尿管和肾盂。反流性肾病（RN...", "lemmaUrl": "http://baike.baidu.com/item/%E8%86%80%E8%83%B1%E8%BE%93%E5%B0%BF%E7%AE%A1%E5%8F%8D%E6%B5%81/2049897", "lemmaPic": []}, {"lemmaId": 923927, "lemmaTitle": "急性化脓性鼻窦炎", "lemmaCroppedTitle": "急性化脓性鼻窦炎", "lemmaDesc": "急性化脓性鼻窦炎是鼻窦黏膜的急性化脓性炎症，重者可累及骨质。上颌因窦腔较大，窦底...", "lemmaUrl": "http://baike.baidu.com/item/%E6%80%A5%E6%80%A7%E5%8C%96%E8%84%93%E6%80%A7%E9%BC%BB%E7%AA%A6%E7%82%8E/923927", "lemmaPic": []}, {"lemmaId": 5087956, "lemmaTitle": "肱骨内上髁骨折", "lemmaCroppedTitle": "肱骨内上髁骨折", "lemmaDesc": "肱骨内上髁骨折是肘部损伤中最常见的一种，约占肘关节骨折的10%，仅次于肱骨髁上骨...", "lemmaUrl": "http://baike.baidu.com/item/%E8%82%B1%E9%AA%A8%E5%86%85%E4%B8%8A%E9%AB%81%E9%AA%A8%E6%8A%98/5087956", "lemmaPic": []}, {"lemmaId": 3153251, "lemmaTitle": "咳嗽反射", "lemmaCroppedTitle": "咳嗽反射", "lemmaDesc": "咳嗽属于人体的一种保护性反射动作，也就是说当一个人的呼吸道内有病理性分泌物（最常...", "lemmaUrl": "http://baike.baidu.com/item/%E5%92%B3%E5%97%BD%E5%8F%8D%E5%B0%84/3153251", "lemmaPic": []}, {"lemmaId": 10343736, "lemmaTitle": "足窍阴", "lemmaCroppedTitle": "足窍阴", "lemmaDesc": "足，相对于头而言，指足部；窍，孔窍；阴，指五脏之阴；目为肝窍，耳为肾窍，舌为心窍...", "lemmaUrl": "http://baike.baidu.com/item/%E8%B6%B3%E7%AA%8D%E9%98%B4/10343736", "lemmaPic": []}, {"lemmaId": 5120830, "lemmaTitle": "慢性缩窄性心包炎", "lemmaCroppedTitle": "慢性缩窄性心包炎", "lemmaDesc": "慢性缩窄性心包炎是心包纤维增厚、粘连收缩，限制了心室舒张，造成心排量减少、静脉回...", "lemmaUrl": "http://baike.baidu.com/item/%E6%85%A2%E6%80%A7%E7%BC%A9%E7%AA%84%E6%80%A7%E5%BF%83%E5%8C%85%E7%82%8E/5120830", "lemmaPic": []}, {"lemmaId": 938395, "lemmaTitle": "虱病", "lemmaCroppedTitle": "虱病", "lemmaDesc": "虱叮咬皮肤所致的皮肤病，称为虱病或虱咬症。虱叮咬皮肤，不仅可以引起皮肤损害，而且...", "lemmaUrl": "http://baike.baidu.com/item/%E8%99%B1%E7%97%85/938395", "lemmaPic": []}, {"lemmaId": 1486947, "lemmaTitle": "家族性结肠息肉病", "lemmaCroppedTitle": "家族性结肠息肉病", "lemmaDesc": "家族性结肠息肉病（FPC）是一种常染色单体显性遗传性疾病，30%～50%的病例有...", "lemmaUrl": "http://baike.baidu.com/item/%E5%AE%B6%E6%97%8F%E6%80%A7%E7%BB%93%E8%82%A0%E6%81%AF%E8%82%89%E7%97%85/1486947", "lemmaPic": []}, {"lemmaId": 5087823, "lemmaTitle": "踝部骨折", "lemmaCroppedTitle": "踝部骨折", "lemmaDesc": "踝关节和足部的骨折、脱位是骨科常见的损伤，踝关节的关节面比髋、膝关节的关节面小，...", "lemmaUrl": "http://baike.baidu.com/item/%E8%B8%9D%E9%83%A8%E9%AA%A8%E6%8A%98/5087823", "lemmaPic": []}, {"lemmaId": 404481, "lemmaTitle": "屈光不正性弱视", "lemmaCroppedTitle": "屈光不正性弱视", "lemmaDesc": "屈光不正性弱视，双眼均有明显的远视、近视、散光，不能双眼单视造成视物模糊，即使配...", "lemmaUrl": "http://baike.baidu.com/item/%E5%B1%88%E5%85%89%E4%B8%8D%E6%AD%A3%E6%80%A7%E5%BC%B1%E8%A7%86/404481", "lemmaPic": []}, {"lemmaId": 10361924, "lemmaTitle": "髋关节后脱位", "lemmaCroppedTitle": "髋关节后脱位", "lemmaDesc": "髋关节是由髋臼和股骨头组成，髋臼深而且大，能容纳股骨头的大部分，两者互相密合，形...", "lemmaUrl": "http://baike.baidu.com/item/%E9%AB%8B%E5%85%B3%E8%8A%82%E5%90%8E%E8%84%B1%E4%BD%8D/10361924", "lemmaPic": []}, {"lemmaId": 5545407, "lemmaTitle": "李斯特菌病", "lemmaCroppedTitle": "李斯特菌病", "lemmaDesc": "李斯特菌病，是由单核细胞增多性李斯特菌[或译为产单核细胞性李斯特菌病]引起的急性...", "lemmaUrl": "http://baike.baidu.com/item/%E6%9D%8E%E6%96%AF%E7%89%B9%E8%8F%8C%E7%97%85/5545407", "lemmaPic": []}, {"lemmaId": 5121755, "lemmaTitle": "蓝氏贾第鞭毛虫病", "lemmaCroppedTitle": "蓝氏贾第鞭毛虫病", "lemmaDesc": "蓝氏贾第鞭毛虫病是由于感染虫体对机体产生的机械和化学作用，导致机体产生非特异性和...", "lemmaUrl": "http://baike.baidu.com/item/%E8%93%9D%E6%B0%8F%E8%B4%BE%E7%AC%AC%E9%9E%AD%E6%AF%9B%E8%99%AB%E7%97%85/5121755", "lemmaPic": []}, {"lemmaId": 11006108, "lemmaTitle": "原发性三叉神经痛", "lemmaCroppedTitle": "原发性三叉神经痛", "lemmaDesc": "三叉神经痛是原发性三叉神经痛的简称，表现为三叉神经分布区内短暂的反复发作性剧痛。...", "lemmaUrl": "http://baike.baidu.com/item/%E5%8E%9F%E5%8F%91%E6%80%A7%E4%B8%89%E5%8F%89%E7%A5%9E%E7%BB%8F%E7%97%9B/11006108", "lemmaPic": []}, {"lemmaId": 2235554, "lemmaTitle": "中枢神经细胞瘤", "lemmaCroppedTitle": "中枢神经细胞瘤", "lemmaDesc": "中枢神经细胞瘤是生长于侧脑室和第三脑室的小细胞神经元肿瘤，其主要发生部位在透明隔...", "lemmaUrl": "http://baike.baidu.com/item/%E4%B8%AD%E6%9E%A2%E7%A5%9E%E7%BB%8F%E7%BB%86%E8%83%9E%E7%98%A4/2235554", "lemmaPic": []}, {"lemmaId": 3104847, "lemmaTitle": "前列腺脓肿", "lemmaCroppedTitle": "前列腺脓肿", "lemmaDesc": "前列腺脓肿是急性前列腺炎，尿道炎和附睾炎的一种并发症。常见致病菌为需氧革兰阴性杆...", "lemmaUrl": "http://baike.baidu.com/item/%E5%89%8D%E5%88%97%E8%85%BA%E8%84%93%E8%82%BF/3104847", "lemmaPic": []}, {"lemmaId": 2065175, "lemmaTitle": "多灶性运动神经病", "lemmaCroppedTitle": "多灶性运动神经病", "lemmaDesc": "多灶性运动神经病（MMN）又称多灶性脱髓鞘性运动神经病，是一种以运动神经受累为主...", "lemmaUrl": "http://baike.baidu.com/item/%E5%A4%9A%E7%81%B6%E6%80%A7%E8%BF%90%E5%8A%A8%E7%A5%9E%E7%BB%8F%E7%97%85/2065175", "lemmaPic": []}, {"lemmaId": 638528, "lemmaTitle": "异位ACTH综合征", "lemmaCroppedTitle": "异位ACTH综合征", "lemmaDesc": "库欣综合征又称皮质醇增多症，是由各种原因引起的肾上腺皮质长期分泌过量皮质醇引起的...", "lemmaUrl": "http://baike.baidu.com/item/%E5%BC%82%E4%BD%8DACTH%E7%BB%BC%E5%90%88%E5%BE%81/638528", "lemmaPic": []}, {"lemmaId": 2254214, "lemmaTitle": "三尖瓣狭窄", "lemmaCroppedTitle": "三尖瓣狭窄", "lemmaDesc": "三尖瓣狭窄的最常见病因仍为风湿热，常伴关闭不全、二尖瓣和主动脉瓣损害。其他少见病...", "lemmaUrl": "http://baike.baidu.com/item/%E4%B8%89%E5%B0%96%E7%93%A3%E7%8B%AD%E7%AA%84/2254214", "lemmaPic": []}, {"lemmaId": 6003950, "lemmaTitle": "足舟骨骨折", "lemmaCroppedTitle": "足舟骨骨折", "lemmaDesc": "足舟骨同楔骨和骰骨一起组成中跗关节，又称为跗横关节。这一关节易因外伤而脱位。所以...", "lemmaUrl": "http://baike.baidu.com/item/%E8%B6%B3%E8%88%9F%E9%AA%A8%E9%AA%A8%E6%8A%98/6003950", "lemmaPic": []}, {"lemmaId": 5280646, "lemmaTitle": "脉络膜炎", "lemmaCroppedTitle": "脉络膜炎", "lemmaDesc": "脉络膜炎是后葡萄膜炎的一种类型。因脉络膜血管源于睫状后短动脉，故可单独发病。但因...", "lemmaUrl": "http://baike.baidu.com/item/%E8%84%89%E7%BB%9C%E8%86%9C%E7%82%8E/5280646", "lemmaPic": []}, {"lemmaId": 1601468, "lemmaTitle": "Marfan综合征", "lemmaCroppedTitle": "Marfan综合征", "lemmaDesc": "马方综合征（Marfan syndrome）为一先天性中胚叶发育不良性疾病，为一...", "lemmaUrl": "http://baike.baidu.com/item/Marfan%E7%BB%BC%E5%90%88%E5%BE%81/1601468", "lemmaPic": []}, {"lemmaId": 5085490, "lemmaTitle": "镁缺乏症", "lemmaCroppedTitle": "镁缺乏症", "lemmaDesc": "镁是人体必需元素之一，细胞内的阳离子中镁的含量仅次于钾，镁广泛存在于体内各组织中...", "lemmaUrl": "http://baike.baidu.com/item/%E9%95%81%E7%BC%BA%E4%B9%8F%E7%97%87/5085490", "lemmaPic": []}, {"lemmaId": 8533378, "lemmaTitle": "婴儿捂热综合症", "lemmaCroppedTitle": "婴儿捂热综合症", "lemmaDesc": "婴儿捂热综合征又称婴儿蒙被综合征，是由于过度保暖、捂闷过久引起婴儿缺氧、高热、大...", "lemmaUrl": "http://baike.baidu.com/item/%E5%A9%B4%E5%84%BF%E6%8D%82%E7%83%AD%E7%BB%BC%E5%90%88%E7%97%87/8533378", "lemmaPic": []}, {"lemmaId": 2049586, "lemmaTitle": "梅克尔憩室", "lemmaCroppedTitle": "梅克尔憩室", "lemmaDesc": "梅克尔憩室是一种先天性消化道畸形，发生率为1%～3%，男女比例约为3：1，绝大多...", "lemmaUrl": "http://baike.baidu.com/item/%E6%A2%85%E5%85%8B%E5%B0%94%E6%86%A9%E5%AE%A4/2049586", "lemmaPic": []}, {"lemmaId": 3959767, "lemmaTitle": "清热化湿", "lemmaCroppedTitle": "清热化湿", "lemmaDesc": "清热化湿，治疗学术语。系祛湿法之一。治疗湿热病邪互结中、上焦的方法。症见胸闷腹胀...", "lemmaUrl": "http://baike.baidu.com/item/%E6%B8%85%E7%83%AD%E5%8C%96%E6%B9%BF/3959767", "lemmaPic": []}, {"lemmaId": 8469958, "lemmaTitle": "贾第虫病", "lemmaCroppedTitle": "贾第虫病", "lemmaDesc": "蓝氏贾第鞭毛虫病现通称贾第虫病，是由蓝氏贾第鞭毛虫寄生在人体小肠引起的原虫性疾患...", "lemmaUrl": "http://baike.baidu.com/item/%E8%B4%BE%E7%AC%AC%E8%99%AB%E7%97%85/8469958", "lemmaPic": []}, {"lemmaId": 5086405, "lemmaTitle": "伸指肌腱损伤", "lemmaCroppedTitle": "伸指肌腱损伤", "lemmaDesc": "伸指肌腱损伤多为开放性，以切割伤较多，常合并神经血管伤或骨关节损伤，也可发生闭合...", "lemmaUrl": "http://baike.baidu.com/item/%E4%BC%B8%E6%8C%87%E8%82%8C%E8%85%B1%E6%8D%9F%E4%BC%A4/5086405", "lemmaPic": []}, {"lemmaId": 2136445, "lemmaTitle": "Gardner综合征", "lemmaCroppedTitle": "Gardner综合征", "lemmaDesc": "Gardner综合征又称为魏纳-加德娜综合征、家族性多发性结肠息肉-骨瘤-软组织...", "lemmaUrl": "http://baike.baidu.com/item/Gardner%E7%BB%BC%E5%90%88%E5%BE%81/2136445", "lemmaPic": []}, {"lemmaId": 9610365, "lemmaTitle": "胃肠型食物中毒", "lemmaCroppedTitle": "胃肠型食物中毒", "lemmaDesc": "细菌性食物中毒是指由于进食被细菌或细菌毒素所污染的食物而引起的急性感染中毒性疾病...", "lemmaUrl": "http://baike.baidu.com/item/%E8%83%83%E8%82%A0%E5%9E%8B%E9%A3%9F%E7%89%A9%E4%B8%AD%E6%AF%92/9610365", "lemmaPic": []}, {"lemmaId": 6637560, "lemmaTitle": "乳房导管内乳头状瘤", "lemmaCroppedTitle": "乳房导管内乳头状瘤", "lemmaDesc": "乳房导管内乳头状瘤，又称大导管乳头状瘤、囊内乳头状瘤等，是发生于乳头及乳晕区大导...", "lemmaUrl": "http://baike.baidu.com/item/%E4%B9%B3%E6%88%BF%E5%AF%BC%E7%AE%A1%E5%86%85%E4%B9%B3%E5%A4%B4%E7%8A%B6%E7%98%A4/6637560", "lemmaPic": []}, {"lemmaId": 9188281, "lemmaTitle": "先天性脊柱侧凸", "lemmaCroppedTitle": "先天性脊柱侧凸", "lemmaDesc": "先天性脊柱侧凸即通过X线，MRI或手术证实的特定的先天性椎体异常而引起的脊柱侧凸...", "lemmaUrl": "http://baike.baidu.com/item/%E5%85%88%E5%A4%A9%E6%80%A7%E8%84%8A%E6%9F%B1%E4%BE%A7%E5%87%B8/9188281", "lemmaPic": []}, {"lemmaId": 10926376, "lemmaTitle": "漆疮", "lemmaCroppedTitle": "漆疮", "lemmaDesc": "漆疮又称漆咬，即漆性皮炎，因接触漆树、漆液、新漆未干的漆器，或仅嗅及漆气而引起的...", "lemmaUrl": "http://baike.baidu.com/item/%E6%BC%86%E7%96%AE/10926376", "lemmaPic": []}, {"lemmaId": 5358063, "lemmaTitle": "慢性化脓性鼻窦炎", "lemmaCroppedTitle": "慢性化脓性鼻窦炎", "lemmaDesc": "慢性化脓性鼻窦炎，是鼻疾病中最常见的疾病，常为急性鼻窦炎未彻底治愈，或反复发作而...", "lemmaUrl": "http://baike.baidu.com/item/%E6%85%A2%E6%80%A7%E5%8C%96%E8%84%93%E6%80%A7%E9%BC%BB%E7%AA%A6%E7%82%8E/5358063", "lemmaPic": []}, {"lemmaId": 2255637, "lemmaTitle": "休克型肺炎", "lemmaCroppedTitle": "休克型肺炎", "lemmaDesc": "休克型肺炎是指伴有休克的一种重症肺炎，多由毒力极强的革兰阳或阴性菌感染所致，病情...", "lemmaUrl": "http://baike.baidu.com/item/%E4%BC%91%E5%85%8B%E5%9E%8B%E8%82%BA%E7%82%8E/2255637", "lemmaPic": []}, {"lemmaId": 4870105, "lemmaTitle": "维生素B2缺乏病", "lemmaCroppedTitle": "维生素B2缺乏病", "lemmaDesc": "维生素B2又名核黄素，核黄素在人体经肠道吸收后，进入肝脏贮存，经肾脏排出或重吸收...", "lemmaUrl": "http://baike.baidu.com/item/%E7%BB%B4%E7%94%9F%E7%B4%A0B2%E7%BC%BA%E4%B9%8F%E7%97%85/4870105", "lemmaPic": []}, {"lemmaId": 4199660, "lemmaTitle": "新生儿中毒性红斑", "lemmaCroppedTitle": "新生儿中毒性红斑", "lemmaDesc": "新生儿中毒性红斑又称新生儿荨麻疹、新生儿过敏性红斑、新生儿红斑，为新生儿常见疾病...", "lemmaUrl": "http://baike.baidu.com/item/%E6%96%B0%E7%94%9F%E5%84%BF%E4%B8%AD%E6%AF%92%E6%80%A7%E7%BA%A2%E6%96%91/4199660", "lemmaPic": []}, {"lemmaId": 2792219, "lemmaTitle": "伊藤痣", "lemmaCroppedTitle": "伊藤痣", "lemmaDesc": "由伊藤于1954年首先报告，故命名“伊藤痣”。色斑位于锁骨上后支和皮肤臂神经侧支...", "lemmaUrl": "http://baike.baidu.com/item/%E4%BC%8A%E8%97%A4%E7%97%A3/2792219", "lemmaPic": []}, {"lemmaId": 2252239, "lemmaTitle": "肺念珠菌病", "lemmaCroppedTitle": "肺念珠菌病", "lemmaDesc": "肺念珠菌病是念珠菌属引起的急性、亚急性或慢性支气管、肺部感染。在肺部真菌感染中较...", "lemmaUrl": "http://baike.baidu.com/item/%E8%82%BA%E5%BF%B5%E7%8F%A0%E8%8F%8C%E7%97%85/2252239", "lemmaPic": []}, {"lemmaId": 3285572, "lemmaTitle": "高原性心脏病", "lemmaCroppedTitle": "高原性心脏病", "lemmaDesc": "高原性心脏病以慢性低压低氧引起的肺动脉高压为基本特征，并有右心室肥厚或右心功能不...", "lemmaUrl": "http://baike.baidu.com/item/%E9%AB%98%E5%8E%9F%E6%80%A7%E5%BF%83%E8%84%8F%E7%97%85/3285572", "lemmaPic": []}, {"lemmaId": 10085617, "lemmaTitle": "肩峰下撞击综合征", "lemmaCroppedTitle": "肩峰下撞击综合征", "lemmaDesc": "DeSeze和Robinson等对肩峰下的特殊构造以及大结节的运动轨迹进行了研究...", "lemmaUrl": "http://baike.baidu.com/item/%E8%82%A9%E5%B3%B0%E4%B8%8B%E6%92%9E%E5%87%BB%E7%BB%BC%E5%90%88%E5%BE%81/10085617", "lemmaPic": []}, {"lemmaId": 5056588, "lemmaTitle": "吻合口溃疡", "lemmaCroppedTitle": "吻合口溃疡", "lemmaDesc": "消化道溃疡经胃切除术后再发生的溃疡称为复发性消化道溃疡，其中尤以吻合口或吻合口附...", "lemmaUrl": "http://baike.baidu.com/item/%E5%90%BB%E5%90%88%E5%8F%A3%E6%BA%83%E7%96%A1/5056588", "lemmaPic": []}], "total": 7246, "totalPage": 73, "page": 29, "fromLemma": 0}