{"lemmaList": [{"lemmaId": 2005539, "lemmaTitle": "贝尔麻痹", "lemmaCroppedTitle": "贝尔麻痹", "lemmaDesc": "贝尔麻痹即Bell麻痹，又称急性特发性周围性面神经麻痹。由于为病因不明的急性单侧...", "lemmaUrl": "http://baike.baidu.com/item/%E8%B4%9D%E5%B0%94%E9%BA%BB%E7%97%B9/2005539", "lemmaPic": []}, {"lemmaId": 1142858, "lemmaTitle": "蛔虫性肠梗阻", "lemmaCroppedTitle": "蛔虫性肠梗阻", "lemmaDesc": "蛔虫性肠梗阻是因蛔虫聚结成团引起肠管机械性的堵塞所致。在非肿瘤性堵塞性肠梗阻中占...", "lemmaUrl": "http://baike.baidu.com/item/%E8%9B%94%E8%99%AB%E6%80%A7%E8%82%A0%E6%A2%97%E9%98%BB/1142858", "lemmaPic": []}, {"lemmaId": 5815426, "lemmaTitle": "爆震伤", "lemmaCroppedTitle": "爆震伤", "lemmaDesc": "爆震伤（即冲击伤）是指冲击波击中人体时释放出的能量而造成的各种损伤，冲击波作用于...", "lemmaUrl": "http://baike.baidu.com/item/%E7%88%86%E9%9C%87%E4%BC%A4/5815426", "lemmaPic": []}, {"lemmaId": 1825554, "lemmaTitle": "社会获得性肺炎", "lemmaCroppedTitle": "社会获得性肺炎", "lemmaDesc": "社会获得性肺炎是在院外由细菌、病毒、衣原体和支原体等多种微生物所引起的。主要临床...", "lemmaUrl": "http://baike.baidu.com/item/%E7%A4%BE%E4%BC%9A%E8%8E%B7%E5%BE%97%E6%80%A7%E8%82%BA%E7%82%8E/1825554", "lemmaPic": []}, {"lemmaId": 3375992, "lemmaTitle": "职业黑变病", "lemmaCroppedTitle": "职业黑变病", "lemmaDesc": "职业黑变病是由于工人长期接触沥青、煤焦油、石油类产品或长期吸入这类物质的挥发物而...", "lemmaUrl": "http://baike.baidu.com/item/%E8%81%8C%E4%B8%9A%E9%BB%91%E5%8F%98%E7%97%85/3375992", "lemmaPic": []}, {"lemmaId": 1996607, "lemmaTitle": "淋巴丝虫病", "lemmaCroppedTitle": "淋巴丝虫病", "lemmaDesc": "淋巴丝虫病由班氏、马来和帝汶丝虫等引起，其临床特征主要是急性期的淋巴管炎与淋巴结...", "lemmaUrl": "http://baike.baidu.com/item/%E6%B7%8B%E5%B7%B4%E4%B8%9D%E8%99%AB%E7%97%85/1996607", "lemmaPic": []}, {"lemmaId": 1907342, "lemmaTitle": "阴道壁息肉", "lemmaCroppedTitle": "阴道壁息肉", "lemmaDesc": "阴道壁息肉（阴道顶端肉芽组织）通常指全子宫切除术后，阴道顶缝合处肉芽组织性息肉，...", "lemmaUrl": "http://baike.baidu.com/item/%E9%98%B4%E9%81%93%E5%A3%81%E6%81%AF%E8%82%89/1907342", "lemmaPic": []}, {"lemmaId": 3785563, "lemmaTitle": "微小病变型肾病", "lemmaCroppedTitle": "微小病变型肾病", "lemmaDesc": "微小病变型肾病（MCN）既往称为类脂性肾病，大多数病人对糖皮质激素治疗敏感。本病...", "lemmaUrl": "http://baike.baidu.com/item/%E5%BE%AE%E5%B0%8F%E7%97%85%E5%8F%98%E5%9E%8B%E8%82%BE%E7%97%85/3785563", "lemmaPic": []}, {"lemmaId": 1940143, "lemmaTitle": "颚口线虫病", "lemmaCroppedTitle": "颚口线虫病", "lemmaDesc": "颚口线虫病是我国较为少见的一种蠕虫蚴移行症，病原体为棘颚口线虫的第三期幼虫。临床...", "lemmaUrl": "http://baike.baidu.com/item/%E9%A2%9A%E5%8F%A3%E7%BA%BF%E8%99%AB%E7%97%85/1940143", "lemmaPic": []}, {"lemmaId": 2205136, "lemmaTitle": "小儿厌食", "lemmaCroppedTitle": "小儿厌食", "lemmaDesc": "小儿厌食症是指长期的食欲减退或消失、以食量减少为主要症状，是一种慢性消化功能紊乱...", "lemmaUrl": "http://baike.baidu.com/item/%E5%B0%8F%E5%84%BF%E5%8E%8C%E9%A3%9F/2205136", "lemmaPic": []}, {"lemmaId": 5360775, "lemmaTitle": "地方性斑疹伤寒", "lemmaCroppedTitle": "地方性斑疹伤寒", "lemmaDesc": "地方性斑疹伤寒为莫氏立克次体通过鼠蚤传播而引起的急性传染病。又称蚤传斑疹伤寒或鼠...", "lemmaUrl": "http://baike.baidu.com/item/%E5%9C%B0%E6%96%B9%E6%80%A7%E6%96%91%E7%96%B9%E4%BC%A4%E5%AF%92/5360775", "lemmaPic": []}, {"lemmaId": 283991, "lemmaTitle": "肠息肉病", "lemmaCroppedTitle": "肠息肉病", "lemmaDesc": "息肉是一种从黏膜表面畸形突出到达腔内部的突起样病变的统称。在肠道广泛出现数目多于...", "lemmaUrl": "http://baike.baidu.com/item/%E8%82%A0%E6%81%AF%E8%82%89%E7%97%85/283991", "lemmaPic": []}, {"lemmaId": 4489557, "lemmaTitle": "脊膜瘤", "lemmaCroppedTitle": "脊膜瘤", "lemmaDesc": "脊膜瘤起源于蛛网膜内皮细胞或硬脊膜的纤维细胞，是一种良性脊髓肿瘤。主要发病于40...", "lemmaUrl": "http://baike.baidu.com/item/%E8%84%8A%E8%86%9C%E7%98%A4/4489557", "lemmaPic": []}, {"lemmaId": 10129038, "lemmaTitle": "Pancoast综合征", "lemmaCroppedTitle": "Pancoast综合征", "lemmaDesc": "Pancoast综合征又称肺尖肿瘤综合征，是指因肺尖部的肿瘤浸润、压迫而引起的上...", "lemmaUrl": "http://baike.baidu.com/item/Pancoast%E7%BB%BC%E5%90%88%E5%BE%81/10129038", "lemmaPic": []}, {"lemmaId": 5084913, "lemmaTitle": "急性动脉栓塞", "lemmaCroppedTitle": "急性动脉栓塞", "lemmaDesc": "急性动脉栓塞是指来自于心脏、近端动脉壁，或者其他来源的栓子随动脉血流冲入并栓塞远...", "lemmaUrl": "http://baike.baidu.com/item/%E6%80%A5%E6%80%A7%E5%8A%A8%E8%84%89%E6%A0%93%E5%A1%9E/5084913", "lemmaPic": []}, {"lemmaId": 4236484, "lemmaTitle": "婴儿痤疮", "lemmaCroppedTitle": "婴儿痤疮", "lemmaDesc": "婴儿痤疮又称新生儿痤疮。发病原因不清，可能出生时，雄激素分泌增加所致。有家族倾向...", "lemmaUrl": "http://baike.baidu.com/item/%E5%A9%B4%E5%84%BF%E7%97%A4%E7%96%AE/4236484", "lemmaPic": []}, {"lemmaId": 407457, "lemmaTitle": "股骨骨折", "lemmaCroppedTitle": "股骨骨折", "lemmaDesc": "暴力直接打击、从高处坠跌、车辆撞击、碾压等都可造成股骨骨折。发生股骨骨折时，下肢...", "lemmaUrl": "http://baike.baidu.com/item/%E8%82%A1%E9%AA%A8%E9%AA%A8%E6%8A%98/407457", "lemmaPic": []}, {"lemmaId": 3582401, "lemmaTitle": "胸骨骨折", "lemmaCroppedTitle": "胸骨骨折", "lemmaDesc": "胸骨骨折非常罕见，常因暴力直接作用于胸骨区或挤压所致。骨折常发生在靠近胸骨体与胸...", "lemmaUrl": "http://baike.baidu.com/item/%E8%83%B8%E9%AA%A8%E9%AA%A8%E6%8A%98/3582401", "lemmaPic": []}, {"lemmaId": 8531356, "lemmaTitle": "硬脑膜下血肿", "lemmaCroppedTitle": "硬脑膜下血肿", "lemmaDesc": "硬脑膜下血肿指位于硬脑膜与蛛网膜之间，具有包膜的血肿。是颅脑损伤常见的继发性损害...", "lemmaUrl": "http://baike.baidu.com/item/%E7%A1%AC%E8%84%91%E8%86%9C%E4%B8%8B%E8%A1%80%E8%82%BF/8531356", "lemmaPic": []}, {"lemmaId": 4627043, "lemmaTitle": "牙釉质发育不全", "lemmaCroppedTitle": "牙釉质发育不全", "lemmaDesc": "牙釉质发育不全和牙釉质钙化不全均属于牙釉质发育异常，是牙齿结构异常的一种疾病，是...", "lemmaUrl": "http://baike.baidu.com/item/%E7%89%99%E9%87%89%E8%B4%A8%E5%8F%91%E8%82%B2%E4%B8%8D%E5%85%A8/4627043", "lemmaPic": []}, {"lemmaId": 10735930, "lemmaTitle": "附骨疽", "lemmaCroppedTitle": "附骨疽", "lemmaDesc": "附骨疽，指毒气深沉，结聚于骨而发生的深部脓疡，又称骨痈、贴骨痈。因溃后常脱出败骨...", "lemmaUrl": "http://baike.baidu.com/item/%E9%99%84%E9%AA%A8%E7%96%BD/10735930", "lemmaPic": []}, {"lemmaId": 1998021, "lemmaTitle": "感染性关节炎", "lemmaCroppedTitle": "感染性关节炎", "lemmaDesc": "感染性关节炎是指细菌、病毒等微生物入侵关节腔内导致的关节炎症。患者多为身体抵抗力...", "lemmaUrl": "http://baike.baidu.com/item/%E6%84%9F%E6%9F%93%E6%80%A7%E5%85%B3%E8%8A%82%E7%82%8E/1998021", "lemmaPic": []}, {"lemmaId": 11039146, "lemmaTitle": "传染性淋巴细胞增多症", "lemmaCroppedTitle": "传染性淋巴细胞增多症", "lemmaDesc": "传染性淋巴细胞增多症是一种传染病，主要发生于儿童，少数散发于成人。1941年由S...", "lemmaUrl": "http://baike.baidu.com/item/%E4%BC%A0%E6%9F%93%E6%80%A7%E6%B7%8B%E5%B7%B4%E7%BB%86%E8%83%9E%E5%A2%9E%E5%A4%9A%E7%97%87/11039146", "lemmaPic": []}, {"lemmaId": 6433628, "lemmaTitle": "寰枢椎脱位", "lemmaCroppedTitle": "寰枢椎脱位", "lemmaDesc": "寰枢椎脱位是指先天畸形、创伤、退变、肿瘤、感染炎症和手术等因素造成的寰椎与枢椎（...", "lemmaUrl": "http://baike.baidu.com/item/%E5%AF%B0%E6%9E%A2%E6%A4%8E%E8%84%B1%E4%BD%8D/6433628", "lemmaPic": []}, {"lemmaId": 10502057, "lemmaTitle": "慢性干燥性鼻炎", "lemmaCroppedTitle": "慢性干燥性鼻炎", "lemmaDesc": "慢性干燥性鼻炎是以鼻黏膜干燥，分泌物减少，但无鼻黏膜和鼻甲萎缩为特征的慢性鼻病。...", "lemmaUrl": "http://baike.baidu.com/item/%E6%85%A2%E6%80%A7%E5%B9%B2%E7%87%A5%E6%80%A7%E9%BC%BB%E7%82%8E/10502057", "lemmaPic": []}, {"lemmaId": 1462832, "lemmaTitle": "药物性肝病", "lemmaCroppedTitle": "药物性肝病", "lemmaDesc": "药物性肝病是指某些药物对肝的直接或间接损伤引起的疾病。随着医药工业的迅速发展，国...", "lemmaUrl": "http://baike.baidu.com/item/%E8%8D%AF%E7%89%A9%E6%80%A7%E8%82%9D%E7%97%85/1462832", "lemmaPic": []}, {"lemmaId": 5102737, "lemmaTitle": "桡骨下端骨折", "lemmaCroppedTitle": "桡骨下端骨折", "lemmaDesc": "桡骨下端骨折是指距桡骨下端关节面3厘米以内的骨折，这个部位是松质骨与密质骨的交界...", "lemmaUrl": "http://baike.baidu.com/item/%E6%A1%A1%E9%AA%A8%E4%B8%8B%E7%AB%AF%E9%AA%A8%E6%8A%98/5102737", "lemmaPic": []}, {"lemmaId": 8324627, "lemmaTitle": "皮肤恶性黑色素瘤", "lemmaCroppedTitle": "皮肤恶性黑色素瘤", "lemmaDesc": "皮肤恶性黑色素瘤是源于表皮正常黑素细胞或原有痣细胞的一种恶性肿瘤，虽较皮肤癌少见...", "lemmaUrl": "http://baike.baidu.com/item/%E7%9A%AE%E8%82%A4%E6%81%B6%E6%80%A7%E9%BB%91%E8%89%B2%E7%B4%A0%E7%98%A4/8324627", "lemmaPic": []}, {"lemmaId": 799545, "lemmaTitle": "腺淋巴瘤", "lemmaCroppedTitle": "腺淋巴瘤", "lemmaDesc": "腺淋巴瘤又称乳头状淋巴囊腺瘤或Warthin瘤。腺淋巴瘤绝大多数发生在腮腺，这是...", "lemmaUrl": "http://baike.baidu.com/item/%E8%85%BA%E6%B7%8B%E5%B7%B4%E7%98%A4/799545", "lemmaPic": []}, {"lemmaId": 10008723, "lemmaTitle": "指节垫", "lemmaCroppedTitle": "指节垫", "lemmaDesc": "指节垫是指关节伸侧皮肤纤维性增厚，无自觉症状，病因不明，散在发生，常有家族史。临...", "lemmaUrl": "http://baike.baidu.com/item/%E6%8C%87%E8%8A%82%E5%9E%AB/10008723", "lemmaPic": []}, {"lemmaId": 5321445, "lemmaTitle": "颧骨骨折", "lemmaCroppedTitle": "颧骨骨折", "lemmaDesc": "颧骨和颧弓是面部比较突出的部分，易受撞击而发生骨折。颧骨与上颌骨、额骨，蝶骨和颞...", "lemmaUrl": "http://baike.baidu.com/item/%E9%A2%A7%E9%AA%A8%E9%AA%A8%E6%8A%98/5321445", "lemmaPic": []}, {"lemmaId": 5359216, "lemmaTitle": "小儿流行性感冒", "lemmaCroppedTitle": "小儿流行性感冒", "lemmaDesc": "小儿流行性感冒主要指发生于婴幼儿的流行性感冒（简称流感），是流行性感冒病毒引起的...", "lemmaUrl": "http://baike.baidu.com/item/%E5%B0%8F%E5%84%BF%E6%B5%81%E8%A1%8C%E6%80%A7%E6%84%9F%E5%86%92/5359216", "lemmaPic": []}, {"lemmaId": 8111242, "lemmaTitle": "干酪性鼻炎", "lemmaCroppedTitle": "干酪性鼻炎", "lemmaDesc": "干酪性鼻炎及鼻窦炎是鼻腔或鼻窦内积聚恶臭的干酪状团块，日久侵袭周围组织和骨质，严...", "lemmaUrl": "http://baike.baidu.com/item/%E5%B9%B2%E9%85%AA%E6%80%A7%E9%BC%BB%E7%82%8E/8111242", "lemmaPic": []}, {"lemmaId": 237259, "lemmaTitle": "胆汁淤积性黄疸", "lemmaCroppedTitle": "胆汁淤积性黄疸", "lemmaDesc": "胆汁淤积性黄疸是指因胆汁淤积而使血中胆汁酸和胆红素均高于正常值。所谓胆汁淤积系由...", "lemmaUrl": "http://baike.baidu.com/item/%E8%83%86%E6%B1%81%E6%B7%A4%E7%A7%AF%E6%80%A7%E9%BB%84%E7%96%B8/237259", "lemmaPic": []}, {"lemmaId": 2504535, "lemmaTitle": "胃癌前病变", "lemmaCroppedTitle": "胃癌前病变", "lemmaDesc": "胃的癌前病变是指一类容易发生癌变的胃黏膜病理组织学变化，即胃黏膜的异型增生和肠上...", "lemmaUrl": "http://baike.baidu.com/item/%E8%83%83%E7%99%8C%E5%89%8D%E7%97%85%E5%8F%98/2504535", "lemmaPic": []}, {"lemmaId": 1246759, "lemmaTitle": "卵巢冠囊肿", "lemmaCroppedTitle": "卵巢冠囊肿", "lemmaDesc": "卵巢冠囊肿是位于阔韧带内靠近输卵管或卵巢的囊肿。卵巢冠囊肿这个名称并不涉及组织发...", "lemmaUrl": "http://baike.baidu.com/item/%E5%8D%B5%E5%B7%A2%E5%86%A0%E5%9B%8A%E8%82%BF/1246759", "lemmaPic": []}, {"lemmaId": 3720768, "lemmaTitle": "姜片虫病", "lemmaCroppedTitle": "姜片虫病", "lemmaDesc": "姜片虫病是由布氏姜片吸虫，简称姜片虫，寄生于人、猪肠内引起的一种人畜共患寄生虫病...", "lemmaUrl": "http://baike.baidu.com/item/%E5%A7%9C%E7%89%87%E8%99%AB%E7%97%85/3720768", "lemmaPic": []}, {"lemmaId": 6059569, "lemmaTitle": "生殖器疣", "lemmaCroppedTitle": "生殖器疣", "lemmaDesc": "生殖器疣又称尖锐湿疣或性病疣，是一种由人类乳头瘤病毒（HPV）引起的生殖器肛周增...", "lemmaUrl": "http://baike.baidu.com/item/%E7%94%9F%E6%AE%96%E5%99%A8%E7%96%A3/6059569", "lemmaPic": []}, {"lemmaId": 5902766, "lemmaTitle": "指骨骨折", "lemmaCroppedTitle": "指骨骨折", "lemmaDesc": "指骨骨折在手部最为常见，多为开放性骨折。且多为直接暴力所致，可于手指的任何部位导...", "lemmaUrl": "http://baike.baidu.com/item/%E6%8C%87%E9%AA%A8%E9%AA%A8%E6%8A%98/5902766", "lemmaPic": []}, {"lemmaId": 1176023, "lemmaTitle": "化学烧伤", "lemmaCroppedTitle": "化学烧伤", "lemmaDesc": "化学烧伤的损害程度，与化学品的性质、剂量、浓度、物理状态（固态、液态、气态）、接...", "lemmaUrl": "http://baike.baidu.com/item/%E5%8C%96%E5%AD%A6%E7%83%A7%E4%BC%A4/1176023", "lemmaPic": []}, {"lemmaId": 10490946, "lemmaTitle": "糖尿病性白内障", "lemmaCroppedTitle": "糖尿病性白内障", "lemmaDesc": "代谢性白内障又可称并发性白内障，与晶状体的代谢有关，与老年性白内障相似，只是发病...", "lemmaUrl": "http://baike.baidu.com/item/%E7%B3%96%E5%B0%BF%E7%97%85%E6%80%A7%E7%99%BD%E5%86%85%E9%9A%9C/10490946", "lemmaPic": []}, {"lemmaId": 10456469, "lemmaTitle": "咽部乳头状瘤", "lemmaCroppedTitle": "咽部乳头状瘤", "lemmaDesc": "乳头状瘤为咽部较常见的良性肿瘤，可能与病毒感染有关。男性占多数，多为单发。鳞状上...", "lemmaUrl": "http://baike.baidu.com/item/%E5%92%BD%E9%83%A8%E4%B9%B3%E5%A4%B4%E7%8A%B6%E7%98%A4/10456469", "lemmaPic": []}, {"lemmaId": 149831, "lemmaTitle": "肺泡蛋白沉着症", "lemmaCroppedTitle": "肺泡蛋白沉着症", "lemmaDesc": "肺泡蛋白沉着症（PAP）是一种原因未明的少见疾病。其特点是肺泡内有不可溶性磷脂蛋...", "lemmaUrl": "http://baike.baidu.com/item/%E8%82%BA%E6%B3%A1%E8%9B%8B%E7%99%BD%E6%B2%89%E7%9D%80%E7%97%87/149831", "lemmaPic": []}, {"lemmaId": 997402, "lemmaTitle": "左后分支传导阻滞", "lemmaCroppedTitle": "左后分支传导阻滞", "lemmaDesc": "左后分支传导阻滞又称左后半阻滞。左后分支阻滞本身无明显症状，如其合并右束支阻滞，...", "lemmaUrl": "http://baike.baidu.com/item/%E5%B7%A6%E5%90%8E%E5%88%86%E6%94%AF%E4%BC%A0%E5%AF%BC%E9%98%BB%E6%BB%9E/997402", "lemmaPic": []}, {"lemmaId": 9052916, "lemmaTitle": "短P-R综合征", "lemmaCroppedTitle": "短P-R综合征", "lemmaDesc": "Lown、Ganong、Levine于1952年报道了一种呈现短的P-R间期（&...", "lemmaUrl": "http://baike.baidu.com/item/%E7%9F%ADP-R%E7%BB%BC%E5%90%88%E5%BE%81/9052916", "lemmaPic": []}, {"lemmaId": 6720437, "lemmaTitle": "火激红斑", "lemmaCroppedTitle": "火激红斑", "lemmaDesc": "本病因皮肤长期暴露于高热，引起局部毛细血管扩张性网状红斑与色素沉着，又称为热激性...", "lemmaUrl": "http://baike.baidu.com/item/%E7%81%AB%E6%BF%80%E7%BA%A2%E6%96%91/6720437", "lemmaPic": []}, {"lemmaId": 11020969, "lemmaTitle": "变应性皮肤血管炎", "lemmaCroppedTitle": "变应性皮肤血管炎", "lemmaDesc": "本病又称皮肤小血管血管炎、皮肤白细胞碎裂性血管炎，是一种病因不明的主要引起皮肤小...", "lemmaUrl": "http://baike.baidu.com/item/%E5%8F%98%E5%BA%94%E6%80%A7%E7%9A%AE%E8%82%A4%E8%A1%80%E7%AE%A1%E7%82%8E/11020969", "lemmaPic": []}, {"lemmaId": 6522105, "lemmaTitle": "乳头状腺瘤", "lemmaCroppedTitle": "乳头状腺瘤", "lemmaDesc": "在临床上此病也称绒毛状腺瘤，不同于息肉状腺瘤，其特点是腺瘤隆起于肠壁不十分突出。...", "lemmaUrl": "http://baike.baidu.com/item/%E4%B9%B3%E5%A4%B4%E7%8A%B6%E8%85%BA%E7%98%A4/6522105", "lemmaPic": []}, {"lemmaId": 10778587, "lemmaTitle": "心火上炎", "lemmaCroppedTitle": "心火上炎", "lemmaDesc": "病证名。指心经虚火上升的病证。症见舌生疮，口腔糜烂，心烦失眠，舌尖红绛等。治宜导...", "lemmaUrl": "http://baike.baidu.com/item/%E5%BF%83%E7%81%AB%E4%B8%8A%E7%82%8E/10778587", "lemmaPic": []}, {"lemmaId": 940150, "lemmaTitle": "外阴硬化性苔藓", "lemmaCroppedTitle": "外阴硬化性苔藓", "lemmaDesc": "外阴硬化性苔藓是以外阴、肛周皮肤萎缩变薄为主的皮肤疾病。病变主要侵犯阴蒂及其包皮...", "lemmaUrl": "http://baike.baidu.com/item/%E5%A4%96%E9%98%B4%E7%A1%AC%E5%8C%96%E6%80%A7%E8%8B%94%E8%97%93/940150", "lemmaPic": []}, {"lemmaId": 10930646, "lemmaTitle": "急性感染性心内膜炎", "lemmaCroppedTitle": "急性感染性心内膜炎", "lemmaDesc": "急性感染性心内膜炎（AIE）多为全身严重感染的一部分，致病微生物毒性强，如金黄色...", "lemmaUrl": "http://baike.baidu.com/item/%E6%80%A5%E6%80%A7%E6%84%9F%E6%9F%93%E6%80%A7%E5%BF%83%E5%86%85%E8%86%9C%E7%82%8E/10930646", "lemmaPic": []}, {"lemmaId": 9992517, "lemmaTitle": "硬脑膜外血肿", "lemmaCroppedTitle": "硬脑膜外血肿", "lemmaDesc": "硬膜外血肿是位于颅骨内板与硬脑膜之间的血肿，好发于小脑幕上半球凸面，十分常见，约...", "lemmaUrl": "http://baike.baidu.com/item/%E7%A1%AC%E8%84%91%E8%86%9C%E5%A4%96%E8%A1%80%E8%82%BF/9992517", "lemmaPic": []}, {"lemmaId": 5085868, "lemmaTitle": "剥脱性骨软骨炎", "lemmaCroppedTitle": "剥脱性骨软骨炎", "lemmaDesc": "剥脱性骨软骨炎是指外伤后，骨软骨骨折或反复轻度外伤导致血运障碍，骨软骨坏死脱落所...", "lemmaUrl": "http://baike.baidu.com/item/%E5%89%A5%E8%84%B1%E6%80%A7%E9%AA%A8%E8%BD%AF%E9%AA%A8%E7%82%8E/5085868", "lemmaPic": []}, {"lemmaId": 3589605, "lemmaTitle": "乙状结肠扭转", "lemmaCroppedTitle": "乙状结肠扭转", "lemmaDesc": "是结肠绞窄性梗阻较为多见的一种，患者年龄多在40岁～50岁，北方多见而南方少见，...", "lemmaUrl": "http://baike.baidu.com/item/%E4%B9%99%E7%8A%B6%E7%BB%93%E8%82%A0%E6%89%AD%E8%BD%AC/3589605", "lemmaPic": []}, {"lemmaId": 10122473, "lemmaTitle": "肠系膜上动脉压迫综合征", "lemmaCroppedTitle": "肠系膜上动脉压迫综合征", "lemmaDesc": "\n\t\t\t    \n\t\t\t    肠系膜上动脉压迫综合征是由于肠系膜上动脉或其分支...", "lemmaUrl": "http://baike.baidu.com/item/%E8%82%A0%E7%B3%BB%E8%86%9C%E4%B8%8A%E5%8A%A8%E8%84%89%E5%8E%8B%E8%BF%AB%E7%BB%BC%E5%90%88%E5%BE%81/10122473", "lemmaPic": []}, {"lemmaId": 9218008, "lemmaTitle": "毛细胞白血病", "lemmaCroppedTitle": "毛细胞白血病", "lemmaDesc": "毛细胞白血病是一种淋巴系统的恶性肿瘤，由于此种白血病细胞在显微镜下，尤其在电子显...", "lemmaUrl": "http://baike.baidu.com/item/%E6%AF%9B%E7%BB%86%E8%83%9E%E7%99%BD%E8%A1%80%E7%97%85/9218008", "lemmaPic": []}, {"lemmaId": 8252927, "lemmaTitle": "硬红斑", "lemmaCroppedTitle": "硬红斑", "lemmaDesc": "又称Bazin病或硬结性皮肤结核。多见于青年女性，常与身体其他部位结核并发。结核...", "lemmaUrl": "http://baike.baidu.com/item/%E7%A1%AC%E7%BA%A2%E6%96%91/8252927", "lemmaPic": []}, {"lemmaId": 2830817, "lemmaTitle": "粘连性中耳炎", "lemmaCroppedTitle": "粘连性中耳炎", "lemmaDesc": "粘连性中耳炎又称不张性中耳炎，是指各种原因导致的中耳传音结构之间及其与鼓室壁纤维...", "lemmaUrl": "http://baike.baidu.com/item/%E7%B2%98%E8%BF%9E%E6%80%A7%E4%B8%AD%E8%80%B3%E7%82%8E/2830817", "lemmaPic": []}, {"lemmaId": 5085848, "lemmaTitle": "膝关节结核", "lemmaCroppedTitle": "膝关节结核", "lemmaDesc": "膝关节结核与其他骨关节结核一样，是一种继发性病变，绝大多数由肺结核转变而来。在国...", "lemmaUrl": "http://baike.baidu.com/item/%E8%86%9D%E5%85%B3%E8%8A%82%E7%BB%93%E6%A0%B8/5085848", "lemmaPic": []}, {"lemmaId": 8451568, "lemmaTitle": "分裂情感性障碍", "lemmaCroppedTitle": "分裂情感性障碍", "lemmaDesc": "分裂情感性障碍是一组精神分裂症和躁狂症两种病同时存在或交替发生，症状又同样典型，...", "lemmaUrl": "http://baike.baidu.com/item/%E5%88%86%E8%A3%82%E6%83%85%E6%84%9F%E6%80%A7%E9%9A%9C%E7%A2%8D/8451568", "lemmaPic": []}, {"lemmaId": 6308473, "lemmaTitle": "静脉尿路造影", "lemmaCroppedTitle": "静脉尿路造影", "lemmaDesc": "静脉尿路造影（IVU），又称排泄性尿路造影，系由静脉注入含碘造影剂（有机碘化物水...", "lemmaUrl": "http://baike.baidu.com/item/%E9%9D%99%E8%84%89%E5%B0%BF%E8%B7%AF%E9%80%A0%E5%BD%B1/6308473", "lemmaPic": []}, {"lemmaId": 5902484, "lemmaTitle": "尺桡骨双骨折", "lemmaCroppedTitle": "尺桡骨双骨折", "lemmaDesc": "尺桡骨双骨折是指尺骨干和桡骨干同时发生的骨折。由于局部特殊的解剖结构，骨折后易出...", "lemmaUrl": "http://baike.baidu.com/item/%E5%B0%BA%E6%A1%A1%E9%AA%A8%E5%8F%8C%E9%AA%A8%E6%8A%98/5902484", "lemmaPic": []}, {"lemmaId": 3847488, "lemmaTitle": "热疖", "lemmaCroppedTitle": "热疖", "lemmaDesc": "热疖，又称暑疖，指夏日所生之小脓肿。因感受暑毒之气而成。具体指易发于夏秋季节的单...", "lemmaUrl": "http://baike.baidu.com/item/%E7%83%AD%E7%96%96/3847488", "lemmaPic": []}, {"lemmaId": 4381783, "lemmaTitle": "脾虚证", "lemmaCroppedTitle": "脾虚证", "lemmaDesc": "脾虚证是指脾气不足，失其健运所表现的证候。多因饮食不节，劳累过度，久病耗伤脾气所...", "lemmaUrl": "http://baike.baidu.com/item/%E8%84%BE%E8%99%9A%E8%AF%81/4381783", "lemmaPic": []}, {"lemmaId": 1950104, "lemmaTitle": "食管压迫型颈椎病", "lemmaCroppedTitle": "食管压迫型颈椎病", "lemmaDesc": "食管压迫型颈椎病又称吞咽困难型颈椎病，主要由于椎间盘退变继发前纵韧带及骨膜下撕裂...", "lemmaUrl": "http://baike.baidu.com/item/%E9%A3%9F%E7%AE%A1%E5%8E%8B%E8%BF%AB%E5%9E%8B%E9%A2%88%E6%A4%8E%E7%97%85/1950104", "lemmaPic": []}, {"lemmaId": 2828780, "lemmaTitle": "视网膜静脉周围炎", "lemmaCroppedTitle": "视网膜静脉周围炎", "lemmaDesc": "视网膜静脉周围炎，亦称青年复发性视网膜玻璃体出血，又名Eales病。多发生于20...", "lemmaUrl": "http://baike.baidu.com/item/%E8%A7%86%E7%BD%91%E8%86%9C%E9%9D%99%E8%84%89%E5%91%A8%E5%9B%B4%E7%82%8E/2828780", "lemmaPic": []}, {"lemmaId": 5242497, "lemmaTitle": "创伤性窒息", "lemmaCroppedTitle": "创伤性窒息", "lemmaDesc": "创伤性窒息是钝性暴力作用于胸部所致的上半身广泛皮肤、黏膜、末梢毛细血管淤血及出血...", "lemmaUrl": "http://baike.baidu.com/item/%E5%88%9B%E4%BC%A4%E6%80%A7%E7%AA%92%E6%81%AF/5242497", "lemmaPic": []}, {"lemmaId": 10334987, "lemmaTitle": "额叶癫痫", "lemmaCroppedTitle": "额叶癫痫", "lemmaDesc": "起源于额叶的具有单纯部分性发作、复杂部分性发作以及继发性全身性发作或这些发作的混...", "lemmaUrl": "http://baike.baidu.com/item/%E9%A2%9D%E5%8F%B6%E7%99%AB%E7%97%AB/10334987", "lemmaPic": []}, {"lemmaId": 3451533, "lemmaTitle": "喉上神经损伤", "lemmaCroppedTitle": "喉上神经损伤", "lemmaDesc": "喉上神经来自迷走神经的结状神经节，其位置靠近颈静脉孔，在舌骨平面上分为内支及外支...", "lemmaUrl": "http://baike.baidu.com/item/%E5%96%89%E4%B8%8A%E7%A5%9E%E7%BB%8F%E6%8D%9F%E4%BC%A4/3451533", "lemmaPic": []}, {"lemmaId": 1978706, "lemmaTitle": "胆囊胆固醇沉着症", "lemmaCroppedTitle": "胆囊胆固醇沉着症", "lemmaDesc": "胆囊胆固醇沉着症是慢性胆囊炎的一种特殊类型。因大量的胆固醇酯颗粒沉积在胆囊黏膜上...", "lemmaUrl": "http://baike.baidu.com/item/%E8%83%86%E5%9B%8A%E8%83%86%E5%9B%BA%E9%86%87%E6%B2%89%E7%9D%80%E7%97%87/1978706", "lemmaPic": []}, {"lemmaId": 11055600, "lemmaTitle": "中期引产", "lemmaCroppedTitle": "中期引产", "lemmaDesc": "引产是指妊娠12周后，因母体或胎儿方面的原因，须用人工方法诱发子宫收缩而结束妊娠...", "lemmaUrl": "http://baike.baidu.com/item/%E4%B8%AD%E6%9C%9F%E5%BC%95%E4%BA%A7/11055600", "lemmaPic": []}, {"lemmaId": 1043598, "lemmaTitle": "高血压视网膜病变", "lemmaCroppedTitle": "高血压视网膜病变", "lemmaDesc": "高血压视网膜病变是一种常见的心血管系统疾病。视网膜中央动脉是全身惟一能够在活体上...", "lemmaUrl": "http://baike.baidu.com/item/%E9%AB%98%E8%A1%80%E5%8E%8B%E8%A7%86%E7%BD%91%E8%86%9C%E7%97%85%E5%8F%98/1043598", "lemmaPic": []}, {"lemmaId": 3490899, "lemmaTitle": "急进性肾炎", "lemmaCroppedTitle": "急进性肾炎", "lemmaDesc": "急进性肾炎也称急进性肾小球肾炎（RPGN），是1942年由Ellis首先提出，在...", "lemmaUrl": "http://baike.baidu.com/item/%E6%80%A5%E8%BF%9B%E6%80%A7%E8%82%BE%E7%82%8E/3490899", "lemmaPic": []}, {"lemmaId": 6845926, "lemmaTitle": "氨基甲酸酯类农药中毒", "lemmaCroppedTitle": "氨基甲酸酯类农药中毒", "lemmaDesc": "氨基甲酸酯类用作农药的杀虫剂、除草剂、杀菌剂等，也用作灭蚊药、灭蟑药。该类农药分...", "lemmaUrl": "http://baike.baidu.com/item/%E6%B0%A8%E5%9F%BA%E7%94%B2%E9%85%B8%E9%85%AF%E7%B1%BB%E5%86%9C%E8%8D%AF%E4%B8%AD%E6%AF%92/6845926", "lemmaPic": []}, {"lemmaId": 5318767, "lemmaTitle": "急性应激反应", "lemmaCroppedTitle": "急性应激反应", "lemmaDesc": "急性应激反应即急性应激障碍（ASD），是指在遭受到急剧、严重的精神创伤性事件后数...", "lemmaUrl": "http://baike.baidu.com/item/%E6%80%A5%E6%80%A7%E5%BA%94%E6%BF%80%E5%8F%8D%E5%BA%94/5318767", "lemmaPic": []}, {"lemmaId": 5243756, "lemmaTitle": "妊娠合并病毒性肝炎", "lemmaCroppedTitle": "妊娠合并病毒性肝炎", "lemmaDesc": "妊娠合并病毒性肝炎是产科常见的传染病，对母婴的影响均较大，日益受到重视，特别是近...", "lemmaUrl": "http://baike.baidu.com/item/%E5%A6%8A%E5%A8%A0%E5%90%88%E5%B9%B6%E7%97%85%E6%AF%92%E6%80%A7%E8%82%9D%E7%82%8E/5243756", "lemmaPic": []}, {"lemmaId": 8238663, "lemmaTitle": "前葡萄膜炎", "lemmaCroppedTitle": "前葡萄膜炎", "lemmaDesc": "前葡萄膜炎是葡萄膜炎中最常见的一种类型，占葡萄膜炎总数的50%以上，可表现为急性...", "lemmaUrl": "http://baike.baidu.com/item/%E5%89%8D%E8%91%A1%E8%90%84%E8%86%9C%E7%82%8E/8238663", "lemmaPic": []}, {"lemmaId": 2558687, "lemmaTitle": "眼眶炎性假瘤", "lemmaCroppedTitle": "眼眶炎性假瘤", "lemmaDesc": "眼眶炎性假瘤是一种特发性、良性、非特异性的炎症。因其病变外观类似肿瘤，故称之为炎...", "lemmaUrl": "http://baike.baidu.com/item/%E7%9C%BC%E7%9C%B6%E7%82%8E%E6%80%A7%E5%81%87%E7%98%A4/2558687", "lemmaPic": []}, {"lemmaId": 10744330, "lemmaTitle": "肥疮", "lemmaCroppedTitle": "肥疮", "lemmaDesc": "肥疮是多发生在头部的一种癣，以结黄痂、发秃落为特征，可见于现代医学中的黄癣。", "lemmaUrl": "http://baike.baidu.com/item/%E8%82%A5%E7%96%AE/10744330", "lemmaPic": []}, {"lemmaId": 896143, "lemmaTitle": "咽鼓管异常开放症", "lemmaCroppedTitle": "咽鼓管异常开放症", "lemmaDesc": "咽鼓管咽口正常处于关闭状态，只在吞咽、呵欠、张大口和擤鼻等动作时方作瞬息开放，进...", "lemmaUrl": "http://baike.baidu.com/item/%E5%92%BD%E9%BC%93%E7%AE%A1%E5%BC%82%E5%B8%B8%E5%BC%80%E6%94%BE%E7%97%87/896143", "lemmaPic": []}, {"lemmaId": 1927147, "lemmaTitle": "进行性延髓麻痹", "lemmaCroppedTitle": "进行性延髓麻痹", "lemmaDesc": "进行性延髓麻痹是延髓和桥脑颅神经运动核的变性疾病，为运动神经元病的一种类型，呈进...", "lemmaUrl": "http://baike.baidu.com/item/%E8%BF%9B%E8%A1%8C%E6%80%A7%E5%BB%B6%E9%AB%93%E9%BA%BB%E7%97%B9/1927147", "lemmaPic": []}, {"lemmaId": 8011369, "lemmaTitle": "胃良性肿瘤", "lemmaCroppedTitle": "胃良性肿瘤", "lemmaDesc": "胃良性肿瘤一类源于胃壁黏膜上皮组织的腺瘤或息肉样腺瘤。另一类源于胃壁间叶组织的平...", "lemmaUrl": "http://baike.baidu.com/item/%E8%83%83%E8%89%AF%E6%80%A7%E8%82%BF%E7%98%A4/8011369", "lemmaPic": []}, {"lemmaId": 8017429, "lemmaTitle": "后发性白内障", "lemmaCroppedTitle": "后发性白内障", "lemmaDesc": "白内障囊外摘除或晶状体外伤后，残留的皮质和脱落在晶状体后囊上的上皮细胞增生，在瞳...", "lemmaUrl": "http://baike.baidu.com/item/%E5%90%8E%E5%8F%91%E6%80%A7%E7%99%BD%E5%86%85%E9%9A%9C/8017429", "lemmaPic": []}, {"lemmaId": 3445645, "lemmaTitle": "肌腱炎和腱鞘炎", "lemmaCroppedTitle": "肌腱炎和腱鞘炎", "lemmaDesc": "肌腱炎和腱鞘炎通常同时发生。衬有滑膜的腱鞘一般为炎症最重的部位，但炎症反应可累及...", "lemmaUrl": "http://baike.baidu.com/item/%E8%82%8C%E8%85%B1%E7%82%8E%E5%92%8C%E8%85%B1%E9%9E%98%E7%82%8E/3445645", "lemmaPic": []}, {"lemmaId": 10138103, "lemmaTitle": "风痰", "lemmaCroppedTitle": "风痰", "lemmaDesc": "风痰，病证名。痰扰肝经的病证。风痰证有以下两方面的含义：一是指痰扰肝经的病证。《...", "lemmaUrl": "http://baike.baidu.com/item/%E9%A3%8E%E7%97%B0/10138103", "lemmaPic": []}, {"lemmaId": 10432564, "lemmaTitle": "新生儿喉喘鸣", "lemmaCroppedTitle": "新生儿喉喘鸣", "lemmaDesc": "新生儿喉喘鸣指出生时或出生后数周内出现的喉部喘鸣声音，是由于在呼吸时气流通过狭窄...", "lemmaUrl": "http://baike.baidu.com/item/%E6%96%B0%E7%94%9F%E5%84%BF%E5%96%89%E5%96%98%E9%B8%A3/10432564", "lemmaPic": []}, {"lemmaId": 10484675, "lemmaTitle": "颗粒细胞瘤", "lemmaCroppedTitle": "颗粒细胞瘤", "lemmaDesc": "颗粒细胞瘤有两种类型，一类表现为临床恶性、组织学良性；另一类表现为临床和组织学均...", "lemmaUrl": "http://baike.baidu.com/item/%E9%A2%97%E7%B2%92%E7%BB%86%E8%83%9E%E7%98%A4/10484675", "lemmaPic": []}, {"lemmaId": 332580, "lemmaTitle": "锥虫病", "lemmaCroppedTitle": "锥虫病", "lemmaDesc": "锥虫病锥虫寄生于脊椎动物血液和组织引起的疾病。病原体为锥虫。非洲锥虫病又称昏睡病...", "lemmaUrl": "http://baike.baidu.com/item/%E9%94%A5%E8%99%AB%E7%97%85/332580", "lemmaPic": []}, {"lemmaId": 2602817, "lemmaTitle": "失认症", "lemmaCroppedTitle": "失认症", "lemmaDesc": "失认症（agnosia）是感觉到的物象与以往记忆的材料失去联络而变得不认识，即认...", "lemmaUrl": "http://baike.baidu.com/item/%E5%A4%B1%E8%AE%A4%E7%97%87/2602817", "lemmaPic": []}, {"lemmaId": 221816, "lemmaTitle": "颈淋巴结结核", "lemmaCroppedTitle": "颈淋巴结结核", "lemmaDesc": "颈淋巴结结核中医称为“瘰疠”，结核杆菌多由口腔（龋齿）或扁桃体侵入，在侵入部位临...", "lemmaUrl": "http://baike.baidu.com/item/%E9%A2%88%E6%B7%8B%E5%B7%B4%E7%BB%93%E7%BB%93%E6%A0%B8/221816", "lemmaPic": []}, {"lemmaId": 8009414, "lemmaTitle": "难治性癫痫", "lemmaCroppedTitle": "难治性癫痫", "lemmaDesc": "癫痫是一组有不同病因所引起的脑部神经元高度同步化，且常具自限性的异常放电所导致，...", "lemmaUrl": "http://baike.baidu.com/item/%E9%9A%BE%E6%B2%BB%E6%80%A7%E7%99%AB%E7%97%AB/8009414", "lemmaPic": []}, {"lemmaId": 10455984, "lemmaTitle": "咽肌痉挛", "lemmaCroppedTitle": "咽肌痉挛", "lemmaDesc": "咽肌痉挛又名腭部肌阵挛，是一种少见的疾病，为软腭或咽缩肌的不随意而有节律地收缩运...", "lemmaUrl": "http://baike.baidu.com/item/%E5%92%BD%E8%82%8C%E7%97%89%E6%8C%9B/10455984", "lemmaPic": []}, {"lemmaId": 5087805, "lemmaTitle": "胫腓骨干骨折", "lemmaCroppedTitle": "胫腓骨干骨折", "lemmaDesc": "胫腓骨是长管状骨中最常发生骨折的部位，约占全身骨折的13.7%。10岁以下儿童尤...", "lemmaUrl": "http://baike.baidu.com/item/%E8%83%AB%E8%85%93%E9%AA%A8%E5%B9%B2%E9%AA%A8%E6%8A%98/5087805", "lemmaPic": []}, {"lemmaId": 3947286, "lemmaTitle": "疳疾", "lemmaCroppedTitle": "疳疾", "lemmaDesc": "疳疾，指小儿脾胃虚弱，运化失常，以致干枯羸瘦的疾患。由多种慢性疾患引起，临床以面...", "lemmaUrl": "http://baike.baidu.com/item/%E7%96%B3%E7%96%BE/3947286", "lemmaPic": []}, {"lemmaId": 5791727, "lemmaTitle": "特发性肺动脉高压", "lemmaCroppedTitle": "特发性肺动脉高压", "lemmaDesc": "特发性肺动脉高压（IPAH）是指原因不明的肺血管阻力增加，引起持续性肺动脉高压力...", "lemmaUrl": "http://baike.baidu.com/item/%E7%89%B9%E5%8F%91%E6%80%A7%E8%82%BA%E5%8A%A8%E8%84%89%E9%AB%98%E5%8E%8B/5791727", "lemmaPic": []}, {"lemmaId": 6183546, "lemmaTitle": "髋臼骨折", "lemmaCroppedTitle": "髋臼骨折", "lemmaDesc": "髋骨由髂骨、坐骨和耻骨三部分组成，其外侧面有一个大而深的窝称为髋臼，与股骨头组成...", "lemmaUrl": "http://baike.baidu.com/item/%E9%AB%8B%E8%87%BC%E9%AA%A8%E6%8A%98/6183546", "lemmaPic": []}, {"lemmaId": 10779864, "lemmaTitle": "青少年牙周炎", "lemmaCroppedTitle": "青少年牙周炎", "lemmaDesc": "青少年牙周炎是指发生在青少年时期的一种特殊类型的牙周炎。病情发展较快。病因尚未完...", "lemmaUrl": "http://baike.baidu.com/item/%E9%9D%92%E5%B0%91%E5%B9%B4%E7%89%99%E5%91%A8%E7%82%8E/10779864", "lemmaPic": []}, {"lemmaId": 2190636, "lemmaTitle": "痛痹", "lemmaCroppedTitle": "痛痹", "lemmaDesc": "痛痹，病名。据文献记载有两个含义：其一指以关节疼痛为主证的痹证。《素问・痹论》：...", "lemmaUrl": "http://baike.baidu.com/item/%E7%97%9B%E7%97%B9/2190636", "lemmaPic": []}, {"lemmaId": 2842810, "lemmaTitle": "下背部痛", "lemmaCroppedTitle": "下背部痛", "lemmaDesc": "下背部痛是指下部腰椎，腰骶区或骶髂区感觉到的疼痛。常伴有坐骨神经痛，疼痛向一侧或...", "lemmaUrl": "http://baike.baidu.com/item/%E4%B8%8B%E8%83%8C%E9%83%A8%E7%97%9B/2842810", "lemmaPic": []}, {"lemmaId": 350594, "lemmaTitle": "柯萨奇病毒感染", "lemmaCroppedTitle": "柯萨奇病毒感染", "lemmaDesc": "柯萨奇病毒是一种肠病毒，分为A和B两类，一般在夏秋季呈流行或散在发生，传播途径是...", "lemmaUrl": "http://baike.baidu.com/item/%E6%9F%AF%E8%90%A8%E5%A5%87%E7%97%85%E6%AF%92%E6%84%9F%E6%9F%93/350594", "lemmaPic": []}], "total": 7246, "totalPage": 73, "page": 27, "fromLemma": 0}