{"lemmaList": [{"lemmaId": 3124741, "lemmaTitle": "新生儿低血糖症", "lemmaCroppedTitle": "新生儿低血糖症", "lemmaDesc": "新生儿低血糖症是指无论胎龄和日龄，静脉血糖低于2.2mmol/L即可诊断，而低于...", "lemmaUrl": "http://baike.baidu.com/item/%E6%96%B0%E7%94%9F%E5%84%BF%E4%BD%8E%E8%A1%80%E7%B3%96%E7%97%87/3124741", "lemmaPic": []}, {"lemmaId": 15181323, "lemmaTitle": "小儿病毒性脑炎和脑膜炎", "lemmaCroppedTitle": "小儿病毒性脑炎和脑膜炎", "lemmaDesc": "病毒性脑炎和病毒性脑膜炎均是指由多种病毒引起的颅内急性炎症。由于病原体致病性能和...", "lemmaUrl": "http://baike.baidu.com/item/%E5%B0%8F%E5%84%BF%E7%97%85%E6%AF%92%E6%80%A7%E8%84%91%E7%82%8E%E5%92%8C%E8%84%91%E8%86%9C%E7%82%8E/15181323", "lemmaPic": []}, {"lemmaId": 2371179, "lemmaTitle": "虫积", "lemmaCroppedTitle": "虫积", "lemmaDesc": "虫积，因肠道寄生虫引起的，以饮食异常，脐腹疼痛，面黄肌瘦，面有虫斑为主要表现的常...", "lemmaUrl": "http://baike.baidu.com/item/%E8%99%AB%E7%A7%AF/2371179", "lemmaPic": []}, {"lemmaId": 2314354, "lemmaTitle": "皮肤白细胞破碎性血管炎", "lemmaCroppedTitle": "皮肤白细胞破碎性血管炎", "lemmaDesc": "皮肤白细胞破碎性血管炎（CLV）是一种由多种原因引起的仅累及皮肤的血管炎症病变。...", "lemmaUrl": "http://baike.baidu.com/item/%E7%9A%AE%E8%82%A4%E7%99%BD%E7%BB%86%E8%83%9E%E7%A0%B4%E7%A2%8E%E6%80%A7%E8%A1%80%E7%AE%A1%E7%82%8E/2314354", "lemmaPic": []}, {"lemmaId": 3873371, "lemmaTitle": "髌骨不稳定", "lemmaCroppedTitle": "髌骨不稳定", "lemmaDesc": "髌骨不稳定以年轻女性多见，是前膝疼的常见原因，是髌股关节常见的疾病，是髌骨软骨软...", "lemmaUrl": "http://baike.baidu.com/item/%E9%AB%8C%E9%AA%A8%E4%B8%8D%E7%A8%B3%E5%AE%9A/3873371", "lemmaPic": []}, {"lemmaId": 5338685, "lemmaTitle": "前列腺肉瘤", "lemmaCroppedTitle": "前列腺肉瘤", "lemmaDesc": "前列腺肉瘤是发生于前列腺的一种侵袭性恶性肿瘤，临床少见，包括横纹肌肉瘤、平滑肌肉...", "lemmaUrl": "http://baike.baidu.com/item/%E5%89%8D%E5%88%97%E8%85%BA%E8%82%89%E7%98%A4/5338685", "lemmaPic": []}, {"lemmaId": 4111216, "lemmaTitle": "中枢神经系统淋巴瘤", "lemmaCroppedTitle": "中枢神经系统淋巴瘤", "lemmaDesc": "中枢神经系统淋巴瘤包括原发中枢神经系统的淋巴瘤和全身淋巴瘤侵入中枢神经系统的继发...", "lemmaUrl": "http://baike.baidu.com/item/%E4%B8%AD%E6%9E%A2%E7%A5%9E%E7%BB%8F%E7%B3%BB%E7%BB%9F%E6%B7%8B%E5%B7%B4%E7%98%A4/4111216", "lemmaPic": []}, {"lemmaId": 249098, "lemmaTitle": "诺卡菌病", "lemmaCroppedTitle": "诺卡菌病", "lemmaDesc": "诺卡菌病为诺卡菌引起的一种人兽共患的传染病，多数为亚急性或慢性化脓性，少数为肉芽...", "lemmaUrl": "http://baike.baidu.com/item/%E8%AF%BA%E5%8D%A1%E8%8F%8C%E7%97%85/249098", "lemmaPic": []}, {"lemmaId": 5305397, "lemmaTitle": "休止期脱发", "lemmaCroppedTitle": "休止期脱发", "lemmaDesc": "休止期脱发是由多种应激因素引起的正常的休止期杵状发过多的脱落。这种脱发最常发生于...", "lemmaUrl": "http://baike.baidu.com/item/%E4%BC%91%E6%AD%A2%E6%9C%9F%E8%84%B1%E5%8F%91/5305397", "lemmaPic": []}, {"lemmaId": 1920044, "lemmaTitle": "变形性骨炎", "lemmaCroppedTitle": "变形性骨炎", "lemmaDesc": "变形性骨炎是指一种病因不明，以进行性风湿样骨关节痛、脊柱和四肢畸形、病理性骨折及...", "lemmaUrl": "http://baike.baidu.com/item/%E5%8F%98%E5%BD%A2%E6%80%A7%E9%AA%A8%E7%82%8E/1920044", "lemmaPic": []}, {"lemmaId": 3011439, "lemmaTitle": "高原脑水肿", "lemmaCroppedTitle": "高原脑水肿", "lemmaDesc": "高原脑水肿是由急性缺氧引起的中枢神经系统功能严重障碍。其特点为发病急，临床表现以...", "lemmaUrl": "http://baike.baidu.com/item/%E9%AB%98%E5%8E%9F%E8%84%91%E6%B0%B4%E8%82%BF/3011439", "lemmaPic": []}, {"lemmaId": 8993271, "lemmaTitle": "慢性化脓性骨髓炎", "lemmaCroppedTitle": "慢性化脓性骨髓炎", "lemmaDesc": "慢性化脓性骨髓炎是急性化脓性骨髓炎的延续，全身症状大多消失后，症状限于局部，往往...", "lemmaUrl": "http://baike.baidu.com/item/%E6%85%A2%E6%80%A7%E5%8C%96%E8%84%93%E6%80%A7%E9%AA%A8%E9%AB%93%E7%82%8E/8993271", "lemmaPic": []}, {"lemmaId": 3254313, "lemmaTitle": "干血痨", "lemmaCroppedTitle": "干血痨", "lemmaDesc": "指虚火久蒸、干血内结、经闭不行所致经闭不行、骨蒸潮热、身体蠃瘦等一系列虚损病症者...", "lemmaUrl": "http://baike.baidu.com/item/%E5%B9%B2%E8%A1%80%E7%97%A8/3254313", "lemmaPic": []}, {"lemmaId": 489819, "lemmaTitle": "新生儿水肿", "lemmaCroppedTitle": "新生儿水肿", "lemmaDesc": "水肿是新生儿期常见的症状之一，其突出表现是体重增加，系由体液在组织间隙内积聚过多...", "lemmaUrl": "http://baike.baidu.com/item/%E6%96%B0%E7%94%9F%E5%84%BF%E6%B0%B4%E8%82%BF/489819", "lemmaPic": []}, {"lemmaId": 4850416, "lemmaTitle": "咽喉异物", "lemmaCroppedTitle": "咽喉异物", "lemmaDesc": "咽喉异物为耳鼻喉科门急诊常见疾病之一。异物种类很多，包括动物骨骼、假牙以及其他异...", "lemmaUrl": "http://baike.baidu.com/item/%E5%92%BD%E5%96%89%E5%BC%82%E7%89%A9/4850416", "lemmaPic": []}, {"lemmaId": 6060524, "lemmaTitle": "视神经乳头炎", "lemmaCroppedTitle": "视神经乳头炎", "lemmaDesc": "视神经乳头炎是紧邻筛板区的视神经的急性炎症，发病急，急剧视力障碍，严重多累及双眼...", "lemmaUrl": "http://baike.baidu.com/item/%E8%A7%86%E7%A5%9E%E7%BB%8F%E4%B9%B3%E5%A4%B4%E7%82%8E/6060524", "lemmaPic": []}, {"lemmaId": 4347592, "lemmaTitle": "新生儿乙型肝炎", "lemmaCroppedTitle": "新生儿乙型肝炎", "lemmaDesc": "乙型肝炎是由乙型肝炎病毒（HBV）感染引起，新生儿HBV感染主要来源于母婴传播。...", "lemmaUrl": "http://baike.baidu.com/item/%E6%96%B0%E7%94%9F%E5%84%BF%E4%B9%99%E5%9E%8B%E8%82%9D%E7%82%8E/4347592", "lemmaPic": []}, {"lemmaId": 1673776, "lemmaTitle": "第五日综合征", "lemmaCroppedTitle": "第五日综合征", "lemmaDesc": "第五日综合征又名小儿阑尾切除术后第五日综合征。小儿阑尾炎手术过程顺利，术后4～5...", "lemmaUrl": "http://baike.baidu.com/item/%E7%AC%AC%E4%BA%94%E6%97%A5%E7%BB%BC%E5%90%88%E5%BE%81/1673776", "lemmaPic": []}, {"lemmaId": 4601390, "lemmaTitle": "Rh血型不合", "lemmaCroppedTitle": "Rh血型不合", "lemmaDesc": "Rh血型抗原是受第1对染色体上3对紧密连锁的等位基因决定的。共有6种抗原，即C与...", "lemmaUrl": "http://baike.baidu.com/item/Rh%E8%A1%80%E5%9E%8B%E4%B8%8D%E5%90%88/4601390", "lemmaPic": []}, {"lemmaId": 918322, "lemmaTitle": "成人多囊肾", "lemmaCroppedTitle": "成人多囊肾", "lemmaDesc": "成人多囊肾是一种常染色体显性遗传性疾病，几乎都是双侧性的。成人多囊肾通常40岁前...", "lemmaUrl": "http://baike.baidu.com/item/%E6%88%90%E4%BA%BA%E5%A4%9A%E5%9B%8A%E8%82%BE/918322", "lemmaPic": []}, {"lemmaId": 211319, "lemmaTitle": "颅骨纤维异常增生症", "lemmaCroppedTitle": "颅骨纤维异常增生症", "lemmaDesc": "颅骨纤维异常增生症（fribrous dysplasia of skull）又称...", "lemmaUrl": "http://baike.baidu.com/item/%E9%A2%85%E9%AA%A8%E7%BA%A4%E7%BB%B4%E5%BC%82%E5%B8%B8%E5%A2%9E%E7%94%9F%E7%97%87/211319", "lemmaPic": []}, {"lemmaId": 9563862, "lemmaTitle": "石膏综合征", "lemmaCroppedTitle": "石膏综合征", "lemmaDesc": "1878年Willatt首先报道1例因使用髋人字石膏后出现急性胃扩张症状，而命名...", "lemmaUrl": "http://baike.baidu.com/item/%E7%9F%B3%E8%86%8F%E7%BB%BC%E5%90%88%E5%BE%81/9563862", "lemmaPic": []}, {"lemmaId": 1465804, "lemmaTitle": "急性出血性坏死性小肠炎", "lemmaCroppedTitle": "急性出血性坏死性小肠炎", "lemmaDesc": "急性出血性坏死性肠炎是与C型产气荚膜芽胞杆菌感染有联系的一种急性肠炎，病变主要在...", "lemmaUrl": "http://baike.baidu.com/item/%E6%80%A5%E6%80%A7%E5%87%BA%E8%A1%80%E6%80%A7%E5%9D%8F%E6%AD%BB%E6%80%A7%E5%B0%8F%E8%82%A0%E7%82%8E/1465804", "lemmaPic": []}, {"lemmaId": 9251761, "lemmaTitle": "糖原贮积病", "lemmaCroppedTitle": "糖原贮积病", "lemmaDesc": "糖原贮积病是少见的一组常染色体相关的隐性遗传病，患者不能正常代谢糖原，使糖原合成...", "lemmaUrl": "http://baike.baidu.com/item/%E7%B3%96%E5%8E%9F%E8%B4%AE%E7%A7%AF%E7%97%85/9251761", "lemmaPic": []}, {"lemmaId": 12428741, "lemmaTitle": "小儿轮状病毒性肠炎", "lemmaCroppedTitle": "小儿轮状病毒性肠炎", "lemmaDesc": "轮状病毒（rotavirus）肠炎是由轮状病毒所致的急性消化道传染病。病原体主要...", "lemmaUrl": "http://baike.baidu.com/item/%E5%B0%8F%E5%84%BF%E8%BD%AE%E7%8A%B6%E7%97%85%E6%AF%92%E6%80%A7%E8%82%A0%E7%82%8E/12428741", "lemmaPic": []}, {"lemmaId": 6879026, "lemmaTitle": "小儿房间隔缺损", "lemmaCroppedTitle": "小儿房间隔缺损", "lemmaDesc": "房间隔缺损是左右心房之间的间隔发育不全遗留缺损造成血流可相通的先天性畸形。先天性...", "lemmaUrl": "http://baike.baidu.com/item/%E5%B0%8F%E5%84%BF%E6%88%BF%E9%97%B4%E9%9A%94%E7%BC%BA%E6%8D%9F/6879026", "lemmaPic": []}, {"lemmaId": 636906, "lemmaTitle": "α1-抗胰蛋白酶缺乏症", "lemmaCroppedTitle": "α1-抗胰蛋白酶缺乏症", "lemmaDesc": "α1-抗胰蛋白酶缺乏症是血中抗蛋白酶成分-α1-抗胰蛋白酶（简称α1-AT）缺乏...", "lemmaUrl": "http://baike.baidu.com/item/%CE%B11-%E6%8A%97%E8%83%B0%E8%9B%8B%E7%99%BD%E9%85%B6%E7%BC%BA%E4%B9%8F%E7%97%87/636906", "lemmaPic": []}, {"lemmaId": 6359756, "lemmaTitle": "骨软骨病", "lemmaCroppedTitle": "骨软骨病", "lemmaDesc": "骨软骨病是一种关节软骨和骺软骨软骨内骨化障碍的非炎性疾病。临床上常见的骨软骨病有...", "lemmaUrl": "http://baike.baidu.com/item/%E9%AA%A8%E8%BD%AF%E9%AA%A8%E7%97%85/6359756", "lemmaPic": []}, {"lemmaId": 9832058, "lemmaTitle": "藏毛囊肿", "lemmaCroppedTitle": "藏毛囊肿", "lemmaDesc": "又名藏毛窦、藏毛病，先天或后天发生，好发于男性白种人。临床表现为疼痛性囊肿，多见...", "lemmaUrl": "http://baike.baidu.com/item/%E8%97%8F%E6%AF%9B%E5%9B%8A%E8%82%BF/9832058", "lemmaPic": []}, {"lemmaId": 6211990, "lemmaTitle": "盆腔炎性肿块", "lemmaCroppedTitle": "盆腔炎性肿块", "lemmaDesc": "盆腔炎性肿块，为女性盆腔脏器的炎症未得到正规、有效地治疗，导致盆腔慢性炎症性组织...", "lemmaUrl": "http://baike.baidu.com/item/%E7%9B%86%E8%85%94%E7%82%8E%E6%80%A7%E8%82%BF%E5%9D%97/6211990", "lemmaPic": []}, {"lemmaId": 12731406, "lemmaTitle": "维生素中毒", "lemmaCroppedTitle": "维生素中毒", "lemmaDesc": "维生素中毒即服用过量的维生素后所发生的中毒性病症。多年来，一直认为儿童和运动员需...", "lemmaUrl": "http://baike.baidu.com/item/%E7%BB%B4%E7%94%9F%E7%B4%A0%E4%B8%AD%E6%AF%92/12731406", "lemmaPic": []}, {"lemmaId": 685073, "lemmaTitle": "蓖麻子中毒", "lemmaCroppedTitle": "蓖麻子中毒", "lemmaDesc": "  蓖麻子是蓖麻的果实，为油料作物，俗称大麻子。蓖麻全株有毒，有毒成分为蓖麻毒素...", "lemmaUrl": "http://baike.baidu.com/item/%E8%93%96%E9%BA%BB%E5%AD%90%E4%B8%AD%E6%AF%92/685073", "lemmaPic": []}, {"lemmaId": 4108119, "lemmaTitle": "农民肺", "lemmaCroppedTitle": "农民肺", "lemmaDesc": "农民肺是外源性过敏性肺泡炎或外源性过敏性细支气管肺泡炎的一种，它是农民或其他劳动...", "lemmaUrl": "http://baike.baidu.com/item/%E5%86%9C%E6%B0%91%E8%82%BA/4108119", "lemmaPic": []}, {"lemmaId": 10646793, "lemmaTitle": "肺血管炎", "lemmaCroppedTitle": "肺血管炎", "lemmaDesc": "血管炎（Vasculitis）是以血管壁的炎症性改变为主要病理表现的一组疾病。血...", "lemmaUrl": "http://baike.baidu.com/item/%E8%82%BA%E8%A1%80%E7%AE%A1%E7%82%8E/10646793", "lemmaPic": []}, {"lemmaId": 10430015, "lemmaTitle": "急性便秘", "lemmaCroppedTitle": "急性便秘", "lemmaDesc": "急性便秘是指近期突然发生的便秘，包括器质性便秘、暂时性功能性便秘。急性器质性便秘...", "lemmaUrl": "http://baike.baidu.com/item/%E6%80%A5%E6%80%A7%E4%BE%BF%E7%A7%98/10430015", "lemmaPic": []}, {"lemmaId": 3777637, "lemmaTitle": "小儿毛细支气管炎", "lemmaCroppedTitle": "小儿毛细支气管炎", "lemmaDesc": "小儿毛细支气管炎(bronchiolitis in infant)是一种婴幼儿较...", "lemmaUrl": "http://baike.baidu.com/item/%E5%B0%8F%E5%84%BF%E6%AF%9B%E7%BB%86%E6%94%AF%E6%B0%94%E7%AE%A1%E7%82%8E/3777637", "lemmaPic": []}, {"lemmaId": 5249578, "lemmaTitle": "慢性黏膜皮肤念珠菌病", "lemmaCroppedTitle": "慢性黏膜皮肤念珠菌病", "lemmaDesc": "慢性黏膜皮肤念珠菌病是指T淋巴细胞免疫缺陷，属于原发性细胞免疫缺陷病。本病为常染...", "lemmaUrl": "http://baike.baidu.com/item/%E6%85%A2%E6%80%A7%E9%BB%8F%E8%86%9C%E7%9A%AE%E8%82%A4%E5%BF%B5%E7%8F%A0%E8%8F%8C%E7%97%85/5249578", "lemmaPic": []}, {"lemmaId": 7830477, "lemmaTitle": "远端肾小管性酸中毒", "lemmaCroppedTitle": "远端肾小管性酸中毒", "lemmaDesc": "远端肾小管性酸中毒（DRTA）是由于远端肾小管泌氢障碍，尿NH4+及可滴定酸排出...", "lemmaUrl": "http://baike.baidu.com/item/%E8%BF%9C%E7%AB%AF%E8%82%BE%E5%B0%8F%E7%AE%A1%E6%80%A7%E9%85%B8%E4%B8%AD%E6%AF%92/7830477", "lemmaPic": []}, {"lemmaId": 2790321, "lemmaTitle": "踝关节脱位", "lemmaCroppedTitle": "踝关节脱位", "lemmaDesc": "踝关节是人体重量最大的屈戌关节，是由胫腓骨下端的内外踝和距骨组成，距骨由胫骨的内...", "lemmaUrl": "http://baike.baidu.com/item/%E8%B8%9D%E5%85%B3%E8%8A%82%E8%84%B1%E4%BD%8D/2790321", "lemmaPic": []}, {"lemmaId": 8330624, "lemmaTitle": "淋巴瘤样丘疹病", "lemmaCroppedTitle": "淋巴瘤样丘疹病", "lemmaDesc": "淋巴瘤样丘疹病是一种慢性、复发性、自愈性、丘疹坏死或丘疹结节性皮肤病。基本损害是...", "lemmaUrl": "http://baike.baidu.com/item/%E6%B7%8B%E5%B7%B4%E7%98%A4%E6%A0%B7%E4%B8%98%E7%96%B9%E7%97%85/8330624", "lemmaPic": []}, {"lemmaId": 2254817, "lemmaTitle": "外源性过敏性肺泡炎", "lemmaCroppedTitle": "外源性过敏性肺泡炎", "lemmaDesc": "外源性过敏性肺泡炎是反复吸入某些具有抗原性的有机粉尘所引起的过敏性肺泡炎，常同时...", "lemmaUrl": "http://baike.baidu.com/item/%E5%A4%96%E6%BA%90%E6%80%A7%E8%BF%87%E6%95%8F%E6%80%A7%E8%82%BA%E6%B3%A1%E7%82%8E/2254817", "lemmaPic": []}, {"lemmaId": 5101457, "lemmaTitle": "新生儿低钙血症", "lemmaCroppedTitle": "新生儿低钙血症", "lemmaDesc": "新生儿出生后来自母亲的钙来源突然终止，血钙水平开始下降。血液中总钙的正常浓度是2...", "lemmaUrl": "http://baike.baidu.com/item/%E6%96%B0%E7%94%9F%E5%84%BF%E4%BD%8E%E9%92%99%E8%A1%80%E7%97%87/5101457", "lemmaPic": []}, {"lemmaId": 5252142, "lemmaTitle": "Liddle综合征", "lemmaCroppedTitle": "Liddle综合征", "lemmaDesc": "Liddle综合征又称假性醛固酮增多症，是1963年Liddle等首先报告，故称...", "lemmaUrl": "http://baike.baidu.com/item/Liddle%E7%BB%BC%E5%90%88%E5%BE%81/5252142", "lemmaPic": []}, {"lemmaId": 1674009, "lemmaTitle": "多巴反应性肌张力障碍", "lemmaCroppedTitle": "多巴反应性肌张力障碍", "lemmaDesc": "多巴反应性肌张力障碍（DRD）是指一种好发于儿童或青少年的以肌张力障碍或步态异常...", "lemmaUrl": "http://baike.baidu.com/item/%E5%A4%9A%E5%B7%B4%E5%8F%8D%E5%BA%94%E6%80%A7%E8%82%8C%E5%BC%A0%E5%8A%9B%E9%9A%9C%E7%A2%8D/1674009", "lemmaPic": []}, {"lemmaId": 5245297, "lemmaTitle": "压迫性视神经病变", "lemmaCroppedTitle": "压迫性视神经病变", "lemmaDesc": "由于眶内或颅内肿瘤或转移癌直接压迫或浸润所致，临床上有时易误诊，应引起警惕。", "lemmaUrl": "http://baike.baidu.com/item/%E5%8E%8B%E8%BF%AB%E6%80%A7%E8%A7%86%E7%A5%9E%E7%BB%8F%E7%97%85%E5%8F%98/5245297", "lemmaPic": []}, {"lemmaId": 7252960, "lemmaTitle": "女性尿漏", "lemmaCroppedTitle": "女性尿漏", "lemmaDesc": "尿漏是指泌尿系统与其他系统和器官之间存在异常通道。本病多见于生育期妇女，在发达国...", "lemmaUrl": "http://baike.baidu.com/item/%E5%A5%B3%E6%80%A7%E5%B0%BF%E6%BC%8F/7252960", "lemmaPic": []}, {"lemmaId": 3638033, "lemmaTitle": "膀胱外翻", "lemmaCroppedTitle": "膀胱外翻", "lemmaDesc": "膀胱外翻是一种少见而复杂的先天性畸形，是胚胎期泄殖腔膜发育异常，阻碍间充质组织的...", "lemmaUrl": "http://baike.baidu.com/item/%E8%86%80%E8%83%B1%E5%A4%96%E7%BF%BB/3638033", "lemmaPic": []}, {"lemmaId": 3583398, "lemmaTitle": "骨血管瘤", "lemmaCroppedTitle": "骨血管瘤", "lemmaDesc": "骨血管瘤是一种呈瘤样增生的血管组织，掺杂于骨小梁之间，不易将其单独分离。从组织学...", "lemmaUrl": "http://baike.baidu.com/item/%E9%AA%A8%E8%A1%80%E7%AE%A1%E7%98%A4/3583398", "lemmaPic": []}, {"lemmaId": 7959842, "lemmaTitle": "新生儿脓疱疮", "lemmaCroppedTitle": "新生儿脓疱疮", "lemmaDesc": "新生儿脓疱疮为新生儿常见的，主要以金黄色葡萄球菌感染引起的，一种以皮肤大疱为主要...", "lemmaUrl": "http://baike.baidu.com/item/%E6%96%B0%E7%94%9F%E5%84%BF%E8%84%93%E7%96%B1%E7%96%AE/7959842", "lemmaPic": []}, {"lemmaId": 5243286, "lemmaTitle": "内隐斜", "lemmaCroppedTitle": "内隐斜", "lemmaDesc": "内隐斜是眼位有向内偏斜的倾向，平时可用矫正性融合反射来控制，不出现斜位，并能保持...", "lemmaUrl": "http://baike.baidu.com/item/%E5%86%85%E9%9A%90%E6%96%9C/5243286", "lemmaPic": []}, {"lemmaId": 6002080, "lemmaTitle": "赤游丹", "lemmaCroppedTitle": "赤游丹", "lemmaDesc": "赤游丹是一种由溶血性链球菌感染引起的急性皮肤病，以局部皮肤红赤如丹，形如片云，游...", "lemmaUrl": "http://baike.baidu.com/item/%E8%B5%A4%E6%B8%B8%E4%B8%B9/6002080", "lemmaPic": []}, {"lemmaId": 3015871, "lemmaTitle": "橄榄体脑桥小脑萎缩", "lemmaCroppedTitle": "橄榄体脑桥小脑萎缩", "lemmaDesc": "橄榄体脑桥小脑萎缩（OPCA），是以明显脑桥及小脑萎缩为病理特点，以小脑性共济失...", "lemmaUrl": "http://baike.baidu.com/item/%E6%A9%84%E6%A6%84%E4%BD%93%E8%84%91%E6%A1%A5%E5%B0%8F%E8%84%91%E8%90%8E%E7%BC%A9/3015871", "lemmaPic": []}, {"lemmaId": 5084946, "lemmaTitle": "原发性下肢静脉瓣膜关闭不全", "lemmaCroppedTitle": "原发性下肢静脉瓣膜关闭不全", "lemmaDesc": "下肢静脉瓣膜关闭不全是一种常见疾病，多发生在持久从事体力劳动或站立工作人员，在农...", "lemmaUrl": "http://baike.baidu.com/item/%E5%8E%9F%E5%8F%91%E6%80%A7%E4%B8%8B%E8%82%A2%E9%9D%99%E8%84%89%E7%93%A3%E8%86%9C%E5%85%B3%E9%97%AD%E4%B8%8D%E5%85%A8/5084946", "lemmaPic": []}, {"lemmaId": 5087787, "lemmaTitle": "胫骨髁骨折", "lemmaCroppedTitle": "胫骨髁骨折", "lemmaDesc": "胫骨髁（平台）骨折约占全身骨折中的0.38%。是较为常见的骨折。好发于青壮年，男...", "lemmaUrl": "http://baike.baidu.com/item/%E8%83%AB%E9%AA%A8%E9%AB%81%E9%AA%A8%E6%8A%98/5087787", "lemmaPic": []}, {"lemmaId": 10727982, "lemmaTitle": "生长激素缺乏性侏儒症", "lemmaCroppedTitle": "生长激素缺乏性侏儒症", "lemmaDesc": "生长激素缺乏性侏儒症（又称垂体性侏儒症。是指自儿童期起病的腺垂体生长激素缺乏而导...", "lemmaUrl": "http://baike.baidu.com/item/%E7%94%9F%E9%95%BF%E6%BF%80%E7%B4%A0%E7%BC%BA%E4%B9%8F%E6%80%A7%E4%BE%8F%E5%84%92%E7%97%87/10727982", "lemmaPic": []}, {"lemmaId": 7347444, "lemmaTitle": "窥阴症", "lemmaCroppedTitle": "窥阴症", "lemmaDesc": "窥阴症是一种反复出现或持续存在的窥视他人性活动或亲呢行为，如脱衣作为自己性兴奋的...", "lemmaUrl": "http://baike.baidu.com/item/%E7%AA%A5%E9%98%B4%E7%97%87/7347444", "lemmaPic": []}, {"lemmaId": 4873517, "lemmaTitle": "胰高血糖素瘤", "lemmaCroppedTitle": "胰高血糖素瘤", "lemmaDesc": "是胰岛α细胞瘤，分泌过量的胰高血糖素，主要表现为皮肤游走性、坏死溶解性红斑、糖尿...", "lemmaUrl": "http://baike.baidu.com/item/%E8%83%B0%E9%AB%98%E8%A1%80%E7%B3%96%E7%B4%A0%E7%98%A4/4873517", "lemmaPic": []}, {"lemmaId": 8402920, "lemmaTitle": "下尺桡关节脱位", "lemmaCroppedTitle": "下尺桡关节脱位", "lemmaDesc": "下尺桡关节的功能是稳定桡骨在尺骨远端的旋转。其稳定性由下尺桡掌侧韧带、下尺桡背侧...", "lemmaUrl": "http://baike.baidu.com/item/%E4%B8%8B%E5%B0%BA%E6%A1%A1%E5%85%B3%E8%8A%82%E8%84%B1%E4%BD%8D/8402920", "lemmaPic": []}, {"lemmaId": 3941630, "lemmaTitle": "迷走神经损伤", "lemmaCroppedTitle": "迷走神经损伤", "lemmaDesc": "迷走神经是行程最长和分布最广的脑神经，它与舌咽神经和副神经经颈静脉孔一并出颅后，...", "lemmaUrl": "http://baike.baidu.com/item/%E8%BF%B7%E8%B5%B0%E7%A5%9E%E7%BB%8F%E6%8D%9F%E4%BC%A4/3941630", "lemmaPic": []}, {"lemmaId": 768509, "lemmaTitle": "第四脑室肿瘤", "lemmaCroppedTitle": "第四脑室肿瘤", "lemmaDesc": "第四脑室接受由第三脑室通过中脑导水管流来的脑脊液，并通过中孔或侧孔流向蛛网膜下腔...", "lemmaUrl": "http://baike.baidu.com/item/%E7%AC%AC%E5%9B%9B%E8%84%91%E5%AE%A4%E8%82%BF%E7%98%A4/768509", "lemmaPic": []}, {"lemmaId": 5120439, "lemmaTitle": "三房心", "lemmaCroppedTitle": "三房心", "lemmaDesc": "三房心系胚胎期原发隔异常发育，形成左心房内有畸形隔膜，使左心房分为副房及真正左心...", "lemmaUrl": "http://baike.baidu.com/item/%E4%B8%89%E6%88%BF%E5%BF%83/5120439", "lemmaPic": []}, {"lemmaId": 5136851, "lemmaTitle": "夜间哮喘", "lemmaCroppedTitle": "夜间哮喘", "lemmaDesc": "2014GINA指南对哮喘的定义：哮喘为一种异质性疾病，常以慢性气道炎症为特征，...", "lemmaUrl": "http://baike.baidu.com/item/%E5%A4%9C%E9%97%B4%E5%93%AE%E5%96%98/5136851", "lemmaPic": []}, {"lemmaId": 10095426, "lemmaTitle": "原发性甲状旁腺功能亢进", "lemmaCroppedTitle": "原发性甲状旁腺功能亢进", "lemmaDesc": "原发性甲状旁腺功能亢进，在临床上极易被忽略，但当出现不明原因的骨痛、病理性骨折、...", "lemmaUrl": "http://baike.baidu.com/item/%E5%8E%9F%E5%8F%91%E6%80%A7%E7%94%B2%E7%8A%B6%E6%97%81%E8%85%BA%E5%8A%9F%E8%83%BD%E4%BA%A2%E8%BF%9B/10095426", "lemmaPic": []}, {"lemmaId": 2599760, "lemmaTitle": "急性颌下腺炎", "lemmaCroppedTitle": "急性颌下腺炎", "lemmaDesc": "因导管的阻塞和狭窄而导致颌下腺逆行性炎症，称为颌下腺炎，常与涎石并发。颌下腺炎主...", "lemmaUrl": "http://baike.baidu.com/item/%E6%80%A5%E6%80%A7%E9%A2%8C%E4%B8%8B%E8%85%BA%E7%82%8E/2599760", "lemmaPic": []}, {"lemmaId": 6214218, "lemmaTitle": "史-约综合征", "lemmaCroppedTitle": "史-约综合征", "lemmaDesc": "史-约综合征是一种累及皮肤和黏膜的急性水疱病变。又称Stevens-Johnso...", "lemmaUrl": "http://baike.baidu.com/item/%E5%8F%B2-%E7%BA%A6%E7%BB%BC%E5%90%88%E5%BE%81/6214218", "lemmaPic": []}, {"lemmaId": 2182156, "lemmaTitle": "显微镜下多血管炎", "lemmaCroppedTitle": "显微镜下多血管炎", "lemmaDesc": "1948年，Davson等首次提出在结节性多动脉炎中存在一种以节段性坏死性肾小球...", "lemmaUrl": "http://baike.baidu.com/item/%E6%98%BE%E5%BE%AE%E9%95%9C%E4%B8%8B%E5%A4%9A%E8%A1%80%E7%AE%A1%E7%82%8E/2182156", "lemmaPic": []}, {"lemmaId": 12630022, "lemmaTitle": "小儿葡萄糖-6-磷酸脱氢酶缺乏症", "lemmaCroppedTitle": "小儿葡萄糖-6-磷酸脱氢酶缺乏症", "lemmaDesc": "为红细胞葡萄糖-6-磷酸脱氢酶（G-6-PD）显著缺乏所致的一组遗传性溶血性疾病...", "lemmaUrl": "http://baike.baidu.com/item/%E5%B0%8F%E5%84%BF%E8%91%A1%E8%90%84%E7%B3%96-6-%E7%A3%B7%E9%85%B8%E8%84%B1%E6%B0%A2%E9%85%B6%E7%BC%BA%E4%B9%8F%E7%97%87/12630022", "lemmaPic": []}, {"lemmaId": 9943957, "lemmaTitle": "单发性骨软骨瘤", "lemmaCroppedTitle": "单发性骨软骨瘤", "lemmaDesc": "单发性骨软骨瘤是临床常见的良性骨肿瘤之一，是源于生长软骨异常的骨膜下增生的一种错...", "lemmaUrl": "http://baike.baidu.com/item/%E5%8D%95%E5%8F%91%E6%80%A7%E9%AA%A8%E8%BD%AF%E9%AA%A8%E7%98%A4/9943957", "lemmaPic": []}, {"lemmaId": 8319332, "lemmaTitle": "老年人骨质疏松症", "lemmaCroppedTitle": "老年人骨质疏松症", "lemmaDesc": "原发性骨质疏松症是指骨单位体积量减少，骨组织微结构退变，骨的脆性增加，以致易于发...", "lemmaUrl": "http://baike.baidu.com/item/%E8%80%81%E5%B9%B4%E4%BA%BA%E9%AA%A8%E8%B4%A8%E7%96%8F%E6%9D%BE%E7%97%87/8319332", "lemmaPic": []}, {"lemmaId": 5731256, "lemmaTitle": "乳汁吸入性肺炎", "lemmaCroppedTitle": "乳汁吸入性肺炎", "lemmaDesc": "乳汁吸入性肺炎是由于乳汁在吞咽时被吸入呼吸道或因在咽部排空时间延长，残留的乳汁被...", "lemmaUrl": "http://baike.baidu.com/item/%E4%B9%B3%E6%B1%81%E5%90%B8%E5%85%A5%E6%80%A7%E8%82%BA%E7%82%8E/5731256", "lemmaPic": []}, {"lemmaId": 3955947, "lemmaTitle": "马尔尼菲青霉病", "lemmaCroppedTitle": "马尔尼菲青霉病", "lemmaDesc": "马尔尼菲青霉菌（PM）是青霉菌中惟一的呈温度双相型的致病菌，是一罕见的致病菌。本...", "lemmaUrl": "http://baike.baidu.com/item/%E9%A9%AC%E5%B0%94%E5%B0%BC%E8%8F%B2%E9%9D%92%E9%9C%89%E7%97%85/3955947", "lemmaPic": []}, {"lemmaId": 1081110, "lemmaTitle": "曲霉病", "lemmaCroppedTitle": "曲霉病", "lemmaDesc": "曲霉病是感染曲霉所引起的一种慢性霉菌病，可侵犯皮肤、黏膜、眼、外耳道、鼻、鼻窦、...", "lemmaUrl": "http://baike.baidu.com/item/%E6%9B%B2%E9%9C%89%E7%97%85/1081110", "lemmaPic": []}, {"lemmaId": 7254581, "lemmaTitle": "无菌性肋软骨炎", "lemmaCroppedTitle": "无菌性肋软骨炎", "lemmaDesc": "无菌性肋软骨炎是一种非特异性、非化脓性肋软骨炎性病变，临床上较多见。主要临床表现...", "lemmaUrl": "http://baike.baidu.com/item/%E6%97%A0%E8%8F%8C%E6%80%A7%E8%82%8B%E8%BD%AF%E9%AA%A8%E7%82%8E/7254581", "lemmaPic": []}, {"lemmaId": 5280990, "lemmaTitle": "慢性卡他性结膜炎", "lemmaCroppedTitle": "慢性卡他性结膜炎", "lemmaDesc": "慢性卡他性结膜炎为由多种原因引起的结膜慢性炎症，多双侧发病。根据病因的不同，自觉...", "lemmaUrl": "http://baike.baidu.com/item/%E6%85%A2%E6%80%A7%E5%8D%A1%E4%BB%96%E6%80%A7%E7%BB%93%E8%86%9C%E7%82%8E/5280990", "lemmaPic": []}, {"lemmaId": 6850803, "lemmaTitle": "B链球菌群感染", "lemmaCroppedTitle": "B链球菌群感染", "lemmaDesc": "B链球菌属条件致病菌，可定植男性和女性生殖道、肠道和尿道，可经性传播。新生儿可直...", "lemmaUrl": "http://baike.baidu.com/item/B%E9%93%BE%E7%90%83%E8%8F%8C%E7%BE%A4%E6%84%9F%E6%9F%93/6850803", "lemmaPic": []}, {"lemmaId": 5801350, "lemmaTitle": "阴道蚂蟥叮吸", "lemmaCroppedTitle": "阴道蚂蟥叮吸", "lemmaDesc": "蚂蟥即水蛭的俗称，亦即蚂蝗，属蠕形环节虫类，种类多。蚂蟥体软，在水中迅速游动，遇...", "lemmaUrl": "http://baike.baidu.com/item/%E9%98%B4%E9%81%93%E8%9A%82%E8%9F%A5%E5%8F%AE%E5%90%B8/5801350", "lemmaPic": []}, {"lemmaId": 1675891, "lemmaTitle": "神经元蜡样脂褐质沉积症", "lemmaCroppedTitle": "神经元蜡样脂褐质沉积症", "lemmaDesc": "神经元蜡样脂褐质沉积症（NCL）是一组儿童最常见的遗传性进行性神经系统变性病。虽...", "lemmaUrl": "http://baike.baidu.com/item/%E7%A5%9E%E7%BB%8F%E5%85%83%E8%9C%A1%E6%A0%B7%E8%84%82%E8%A4%90%E8%B4%A8%E6%B2%89%E7%A7%AF%E7%97%87/1675891", "lemmaPic": []}, {"lemmaId": 2199885, "lemmaTitle": "舌下神经损伤", "lemmaCroppedTitle": "舌下神经损伤", "lemmaDesc": "舌下神经是十二对颅神经的最后一对，其损伤在临床上很常见，往往发生在与延髓相关的病...", "lemmaUrl": "http://baike.baidu.com/item/%E8%88%8C%E4%B8%8B%E7%A5%9E%E7%BB%8F%E6%8D%9F%E4%BC%A4/2199885", "lemmaPic": []}, {"lemmaId": 4479044, "lemmaTitle": "血管周细胞瘤", "lemmaCroppedTitle": "血管周细胞瘤", "lemmaDesc": "血管周细胞瘤（HPC）又称血管外皮细胞瘤，是一种罕见的软组织肿瘤，来源于毛细血管...", "lemmaUrl": "http://baike.baidu.com/item/%E8%A1%80%E7%AE%A1%E5%91%A8%E7%BB%86%E8%83%9E%E7%98%A4/4479044", "lemmaPic": []}, {"lemmaId": 3143597, "lemmaTitle": "脊髓血管病", "lemmaCroppedTitle": "脊髓血管病", "lemmaDesc": "脊髓的血液供应来源于脊髓前动脉、脊髓后动脉和根动脉。脊髓前动脉起源于椎动脉，供应...", "lemmaUrl": "http://baike.baidu.com/item/%E8%84%8A%E9%AB%93%E8%A1%80%E7%AE%A1%E7%97%85/3143597", "lemmaPic": []}, {"lemmaId": 8825894, "lemmaTitle": "肱骨髁间骨折", "lemmaCroppedTitle": "肱骨髁间骨折", "lemmaDesc": "肱骨髁间骨折是肘关节的一种严重损伤，好发于青壮年，骨折常呈粉碎性，闭合复位困难，...", "lemmaUrl": "http://baike.baidu.com/item/%E8%82%B1%E9%AA%A8%E9%AB%81%E9%97%B4%E9%AA%A8%E6%8A%98/8825894", "lemmaPic": []}, {"lemmaId": 2253833, "lemmaTitle": "梅毒性心血管病", "lemmaCroppedTitle": "梅毒性心血管病", "lemmaDesc": "梅毒性心血管病是梅毒螺旋体侵入人体后引起的心血管病，包括梅毒性主动脉炎、梅毒性主...", "lemmaUrl": "http://baike.baidu.com/item/%E6%A2%85%E6%AF%92%E6%80%A7%E5%BF%83%E8%A1%80%E7%AE%A1%E7%97%85/2253833", "lemmaPic": []}, {"lemmaId": 7723723, "lemmaTitle": "肩胛骨体部骨折", "lemmaCroppedTitle": "肩胛骨体部骨折", "lemmaDesc": "肩胛骨前后均为肌肉包绕，骨折少见，约占全身骨折的0.2%左右。肩胛骨体部骨折常为...", "lemmaUrl": "http://baike.baidu.com/item/%E8%82%A9%E8%83%9B%E9%AA%A8%E4%BD%93%E9%83%A8%E9%AA%A8%E6%8A%98/7723723", "lemmaPic": []}, {"lemmaId": 3745558, "lemmaTitle": "旅行者腹泻", "lemmaCroppedTitle": "旅行者腹泻", "lemmaDesc": "旅行者腹泻（DT）是指在旅行期间或旅行后，每天有3次或3次以上未成形粪便，或未成...", "lemmaUrl": "http://baike.baidu.com/item/%E6%97%85%E8%A1%8C%E8%80%85%E8%85%B9%E6%B3%BB/3745558", "lemmaPic": []}, {"lemmaId": 369152, "lemmaTitle": "五软", "lemmaCroppedTitle": "五软", "lemmaDesc": "五软，又名软瘫，是指小儿头项软、口软、手软、足软、肌肉软，为小儿时期生长发育障碍...", "lemmaUrl": "http://baike.baidu.com/item/%E4%BA%94%E8%BD%AF/369152", "lemmaPic": []}, {"lemmaId": 10728595, "lemmaTitle": "主动脉夹层分离", "lemmaCroppedTitle": "主动脉夹层分离", "lemmaDesc": "主动脉夹层分离指主动脉腔内血液从主动脉内膜撕裂处进入主动脉中膜分离，沿主动脉长轴...", "lemmaUrl": "http://baike.baidu.com/item/%E4%B8%BB%E5%8A%A8%E8%84%89%E5%A4%B9%E5%B1%82%E5%88%86%E7%A6%BB/10728595", "lemmaPic": []}, {"lemmaId": 4627121, "lemmaTitle": "乳腺Paget's病", "lemmaCroppedTitle": "乳腺Paget's病", "lemmaDesc": "乳腺Paget’s病是一种特殊类型的乳腺癌，其特征性的临床表现为乳头乳晕皮肤瘙痒...", "lemmaUrl": "http://baike.baidu.com/item/%E4%B9%B3%E8%85%BAPaget%27s%E7%97%85/4627121", "lemmaPic": []}, {"lemmaId": 7252769, "lemmaTitle": "肺炎克雷白杆菌肺炎", "lemmaCroppedTitle": "肺炎克雷白杆菌肺炎", "lemmaDesc": "肺炎克雷白杆菌，又称肺炎杆菌或Friedlander杆菌，是最早被认识可引起肺炎...", "lemmaUrl": "http://baike.baidu.com/item/%E8%82%BA%E7%82%8E%E5%85%8B%E9%9B%B7%E7%99%BD%E6%9D%86%E8%8F%8C%E8%82%BA%E7%82%8E/7252769", "lemmaPic": []}, {"lemmaId": 4662555, "lemmaTitle": "类肺炎性胸腔积液", "lemmaCroppedTitle": "类肺炎性胸腔积液", "lemmaDesc": "尽管目前许多强有力的抗生素在临床应用，肺炎仍然是最常见的疾病之一。在美国，肺炎伴...", "lemmaUrl": "http://baike.baidu.com/item/%E7%B1%BB%E8%82%BA%E7%82%8E%E6%80%A7%E8%83%B8%E8%85%94%E7%A7%AF%E6%B6%B2/4662555", "lemmaPic": []}, {"lemmaId": 9831821, "lemmaTitle": "剥脱性皮炎型药疹", "lemmaCroppedTitle": "剥脱性皮炎型药疹", "lemmaDesc": "本病是由药物引起的重症药疹之一，能引起该病的药物包括阿司匹林、柳氮磺吡啶、磺胺类...", "lemmaUrl": "http://baike.baidu.com/item/%E5%89%A5%E8%84%B1%E6%80%A7%E7%9A%AE%E7%82%8E%E5%9E%8B%E8%8D%AF%E7%96%B9/9831821", "lemmaPic": []}, {"lemmaId": 10095590, "lemmaTitle": "妊娠合并急性阑尾炎", "lemmaCroppedTitle": "妊娠合并急性阑尾炎", "lemmaDesc": "急性阑尾炎是妊娠期较常见的外科并发症。孕妇急性阑尾炎于妊娠期发病率，国外资料为0...", "lemmaUrl": "http://baike.baidu.com/item/%E5%A6%8A%E5%A8%A0%E5%90%88%E5%B9%B6%E6%80%A5%E6%80%A7%E9%98%91%E5%B0%BE%E7%82%8E/10095590", "lemmaPic": []}, {"lemmaId": 2322552, "lemmaTitle": "锑中毒", "lemmaCroppedTitle": "锑中毒", "lemmaDesc": "锑中毒大多是由于误用大量锑剂如酒石酸锑钾、次没锑钠、葡萄糖酸锑钠抗癌锑以及误食含...", "lemmaUrl": "http://baike.baidu.com/item/%E9%94%91%E4%B8%AD%E6%AF%92/2322552", "lemmaPic": []}, {"lemmaId": 8766731, "lemmaTitle": "髂静脉压迫综合征", "lemmaCroppedTitle": "髂静脉压迫综合征", "lemmaDesc": "髂静脉受压和（或）存在腔内异常粘连结构所引起的下肢和盆腔静脉回流障碍性疾病。髂静...", "lemmaUrl": "http://baike.baidu.com/item/%E9%AB%82%E9%9D%99%E8%84%89%E5%8E%8B%E8%BF%AB%E7%BB%BC%E5%90%88%E5%BE%81/8766731", "lemmaPic": []}, {"lemmaId": 9902536, "lemmaTitle": "睑外翻", "lemmaCroppedTitle": "睑外翻", "lemmaDesc": "睑外翻是指眼睑向外翻转离开眼球，睑结膜常不同程度的暴露在外，常合并睑裂闭合不全，...", "lemmaUrl": "http://baike.baidu.com/item/%E7%9D%91%E5%A4%96%E7%BF%BB/9902536", "lemmaPic": []}, {"lemmaId": 6089304, "lemmaTitle": "铋中毒", "lemmaCroppedTitle": "铋中毒", "lemmaDesc": "铋中毒常因治疗腹泻时过量服用次硝酸铋所引起，多见于儿童。患儿有恶心、呕吐、流涎、...", "lemmaUrl": "http://baike.baidu.com/item/%E9%93%8B%E4%B8%AD%E6%AF%92/6089304", "lemmaPic": []}, {"lemmaId": 820561, "lemmaTitle": "新生儿脓疱病", "lemmaCroppedTitle": "新生儿脓疱病", "lemmaDesc": "新生儿脓疱病又称新生儿大疱性脓疱病或新生儿天疱疮，为新生儿常见的一种以大疱为主的...", "lemmaUrl": "http://baike.baidu.com/item/%E6%96%B0%E7%94%9F%E5%84%BF%E8%84%93%E7%96%B1%E7%97%85/820561", "lemmaPic": []}, {"lemmaId": 882425, "lemmaTitle": "老年性外阴萎缩", "lemmaCroppedTitle": "老年性外阴萎缩", "lemmaDesc": "老年性外阴萎缩是由于皮肤营养障碍所致外阴皮肤黏膜全部或部分出现不同程度的皮肤组织...", "lemmaUrl": "http://baike.baidu.com/item/%E8%80%81%E5%B9%B4%E6%80%A7%E5%A4%96%E9%98%B4%E8%90%8E%E7%BC%A9/882425", "lemmaPic": []}, {"lemmaId": 1008585, "lemmaTitle": "烟酸缺乏", "lemmaCroppedTitle": "烟酸缺乏", "lemmaDesc": "烟酸缺乏症又称糙皮病，是因烟酸类维生素缺乏，临床以皮炎、舌炎、肠炎、精神异常及周...", "lemmaUrl": "http://baike.baidu.com/item/%E7%83%9F%E9%85%B8%E7%BC%BA%E4%B9%8F/1008585", "lemmaPic": []}, {"lemmaId": 4508841, "lemmaTitle": "牛带绦虫病", "lemmaCroppedTitle": "牛带绦虫病", "lemmaDesc": "牛带绦虫病是由牛带绦虫成虫寄生人体小肠引起的一种肠绦虫病，又称牛肉绦虫病、肥胖带...", "lemmaUrl": "http://baike.baidu.com/item/%E7%89%9B%E5%B8%A6%E7%BB%A6%E8%99%AB%E7%97%85/4508841", "lemmaPic": []}, {"lemmaId": 2210815, "lemmaTitle": "中毒性肾病", "lemmaCroppedTitle": "中毒性肾病", "lemmaDesc": "中毒性肾病是由肾毒物质引起的肾脏损害。常以肾毒物质的名称命名。随着工业发展，金属...", "lemmaUrl": "http://baike.baidu.com/item/%E4%B8%AD%E6%AF%92%E6%80%A7%E8%82%BE%E7%97%85/2210815", "lemmaPic": []}], "total": 7246, "totalPage": 73, "page": 34, "fromLemma": 0}