{"lemmaList": [{"lemmaId": 728000, "lemmaTitle": "残窦综合征", "lemmaCroppedTitle": "残窦综合征", "lemmaDesc": "残窦综合征是指BillrochⅡ式手术时，胃窦切除不全，残留胃窦所致的吻合口溃疡...", "lemmaUrl": "http://baike.baidu.com/item/%E6%AE%8B%E7%AA%A6%E7%BB%BC%E5%90%88%E5%BE%81/728000", "lemmaPic": []}, {"lemmaId": 7829955, "lemmaTitle": "肺嗜酸细胞组织细胞增生症", "lemmaCroppedTitle": "肺嗜酸细胞组织细胞增生症", "lemmaDesc": "肺嗜酸细胞肉芽肿是指Langerhans组织细胞的增生性病变，以前包括在组织细胞...", "lemmaUrl": "http://baike.baidu.com/item/%E8%82%BA%E5%97%9C%E9%85%B8%E7%BB%86%E8%83%9E%E7%BB%84%E7%BB%87%E7%BB%86%E8%83%9E%E5%A2%9E%E7%94%9F%E7%97%87/7829955", "lemmaPic": []}, {"lemmaId": 15385410, "lemmaTitle": "尤文肉瘤/原始神经外胚层肿瘤", "lemmaCroppedTitle": "尤文肉瘤/原始神经外胚层肿瘤", "lemmaDesc": "尤文（Ewing）肉瘤/原始神经外胚层肿瘤（PNET）被定义为：圆细胞肉瘤，显示...", "lemmaUrl": "http://baike.baidu.com/item/%E5%B0%A4%E6%96%87%E8%82%89%E7%98%A4%2F%E5%8E%9F%E5%A7%8B%E7%A5%9E%E7%BB%8F%E5%A4%96%E8%83%9A%E5%B1%82%E8%82%BF%E7%98%A4/15385410", "lemmaPic": []}, {"lemmaId": 2810276, "lemmaTitle": "腹壁纤维肉瘤", "lemmaCroppedTitle": "腹壁纤维肉瘤", "lemmaDesc": "纤维肉瘤又名黏液纤维肉瘤，是一种常见的成纤维细胞的低度恶性软组织肿瘤。生长缓慢，...", "lemmaUrl": "http://baike.baidu.com/item/%E8%85%B9%E5%A3%81%E7%BA%A4%E7%BB%B4%E8%82%89%E7%98%A4/2810276", "lemmaPic": []}, {"lemmaId": 3864993, "lemmaTitle": "曲霉球", "lemmaCroppedTitle": "曲霉球", "lemmaDesc": "曲霉球是一种易于识别的和最常见的非侵入性真菌球。其他真菌特别是毛霉菌属偶尔也可以...", "lemmaUrl": "http://baike.baidu.com/item/%E6%9B%B2%E9%9C%89%E7%90%83/3864993", "lemmaPic": []}, {"lemmaId": 7327570, "lemmaTitle": "脑膜转移瘤", "lemmaCroppedTitle": "脑膜转移瘤", "lemmaDesc": "脑膜转移瘤（meningeal metastasis）是恶性肿瘤通过血行转移、脑...", "lemmaUrl": "http://baike.baidu.com/item/%E8%84%91%E8%86%9C%E8%BD%AC%E7%A7%BB%E7%98%A4/7327570", "lemmaPic": []}, {"lemmaId": 2447665, "lemmaTitle": "多灶性脉络膜炎伴全葡萄膜炎", "lemmaCroppedTitle": "多灶性脉络膜炎伴全葡萄膜炎", "lemmaDesc": "多灶性脉络膜炎伴全葡萄膜炎（MCP）是1984年由Dreyer和Gass首先报道...", "lemmaUrl": "http://baike.baidu.com/item/%E5%A4%9A%E7%81%B6%E6%80%A7%E8%84%89%E7%BB%9C%E8%86%9C%E7%82%8E%E4%BC%B4%E5%85%A8%E8%91%A1%E8%90%84%E8%86%9C%E7%82%8E/2447665", "lemmaPic": []}, {"lemmaId": 876247, "lemmaTitle": "纵隔非霍奇金恶性淋巴肿瘤", "lemmaCroppedTitle": "纵隔非霍奇金恶性淋巴肿瘤", "lemmaDesc": "恶性淋巴瘤除霍奇金淋巴瘤外都为非霍奇金淋巴瘤。非霍奇金淋巴瘤不是单纯的一个疾病整...", "lemmaUrl": "http://baike.baidu.com/item/%E7%BA%B5%E9%9A%94%E9%9D%9E%E9%9C%8D%E5%A5%87%E9%87%91%E6%81%B6%E6%80%A7%E6%B7%8B%E5%B7%B4%E8%82%BF%E7%98%A4/876247", "lemmaPic": []}, {"lemmaId": 4231460, "lemmaTitle": "支气管中心性肉芽肿病", "lemmaCroppedTitle": "支气管中心性肉芽肿病", "lemmaDesc": "支气管中心性肉芽肿病是一种免疫性疾病，其患者可分为伴有哮喘者和不伴有哮喘者。病理...", "lemmaUrl": "http://baike.baidu.com/item/%E6%94%AF%E6%B0%94%E7%AE%A1%E4%B8%AD%E5%BF%83%E6%80%A7%E8%82%89%E8%8A%BD%E8%82%BF%E7%97%85/4231460", "lemmaPic": []}, {"lemmaId": 4877515, "lemmaTitle": "迟发性低丙球血症", "lemmaCroppedTitle": "迟发性低丙球血症", "lemmaDesc": "迟发性低丙球血症是一组丙种球蛋白失衡的病症，其特点是患者血中某些免疫球蛋白（Ig...", "lemmaUrl": "http://baike.baidu.com/item/%E8%BF%9F%E5%8F%91%E6%80%A7%E4%BD%8E%E4%B8%99%E7%90%83%E8%A1%80%E7%97%87/4877515", "lemmaPic": []}, {"lemmaId": 10652474, "lemmaTitle": "高血压性心肌病", "lemmaCroppedTitle": "高血压性心肌病", "lemmaDesc": "高血压性心肌病是指高血压病引起的左心室壁或左心室腔异常变化。严重者引起左心室肥厚...", "lemmaUrl": "http://baike.baidu.com/item/%E9%AB%98%E8%A1%80%E5%8E%8B%E6%80%A7%E5%BF%83%E8%82%8C%E7%97%85/10652474", "lemmaPic": []}, {"lemmaId": 9646989, "lemmaTitle": "卵巢重度水肿", "lemmaCroppedTitle": "卵巢重度水肿", "lemmaDesc": "卵巢重度水肿是水肿液在卵巢间质内潴留，分离正常的卵泡及间质组织，致使卵巢严重增大...", "lemmaUrl": "http://baike.baidu.com/item/%E5%8D%B5%E5%B7%A2%E9%87%8D%E5%BA%A6%E6%B0%B4%E8%82%BF/9646989", "lemmaPic": []}, {"lemmaId": 4606322, "lemmaTitle": "小儿X-连锁高免疫球蛋白M血症", "lemmaCroppedTitle": "小儿X-连锁高免疫球蛋白M血症", "lemmaDesc": "X-连锁高免疫球蛋白M血症（XHIM）为一较罕见的原发性免疫缺陷病。该病以反复感...", "lemmaUrl": "http://baike.baidu.com/item/%E5%B0%8F%E5%84%BFX-%E8%BF%9E%E9%94%81%E9%AB%98%E5%85%8D%E7%96%AB%E7%90%83%E8%9B%8B%E7%99%BDM%E8%A1%80%E7%97%87/4606322", "lemmaPic": []}, {"lemmaId": 1091062, "lemmaTitle": "家庭氧疗", "lemmaCroppedTitle": "家庭氧疗", "lemmaDesc": "临床上常见到一些患者因慢性阻塞性肺疾病或肺心病而住院，经治疗后病情基本得到控制，...", "lemmaUrl": "http://baike.baidu.com/item/%E5%AE%B6%E5%BA%AD%E6%B0%A7%E7%96%97/1091062", "lemmaPic": []}, {"lemmaId": 11061919, "lemmaTitle": "结节病性心肌病", "lemmaCroppedTitle": "结节病性心肌病", "lemmaDesc": "结节病是一种肉芽肿炎症性疾病，病因不明，以侵犯肺实质为主，并累及全身多脏器，如淋...", "lemmaUrl": "http://baike.baidu.com/item/%E7%BB%93%E8%8A%82%E7%97%85%E6%80%A7%E5%BF%83%E8%82%8C%E7%97%85/11061919", "lemmaPic": []}, {"lemmaId": 780880, "lemmaTitle": "细菌性心包炎", "lemmaCroppedTitle": "细菌性心包炎", "lemmaDesc": "细菌性心包炎在以往较为常见，发病率和死亡率均较高。自从抗生素及磺胺类药物在临床上...", "lemmaUrl": "http://baike.baidu.com/item/%E7%BB%86%E8%8F%8C%E6%80%A7%E5%BF%83%E5%8C%85%E7%82%8E/780880", "lemmaPic": []}, {"lemmaId": 1623373, "lemmaTitle": "气管闭合性损伤", "lemmaCroppedTitle": "气管闭合性损伤", "lemmaDesc": "气管闭合性损伤，临床上不多见。这是由于气管前方有下颌骨及胸骨，后方有脊柱的保护，...", "lemmaUrl": "http://baike.baidu.com/item/%E6%B0%94%E7%AE%A1%E9%97%AD%E5%90%88%E6%80%A7%E6%8D%9F%E4%BC%A4/1623373", "lemmaPic": []}, {"lemmaId": 2644530, "lemmaTitle": "原发性婴幼儿型青光眼", "lemmaCroppedTitle": "原发性婴幼儿型青光眼", "lemmaDesc": "原发性婴幼儿型青光眼是一种先天遗传性小梁网或房角发育不良，阻碍了房水排出而形成新...", "lemmaUrl": "http://baike.baidu.com/item/%E5%8E%9F%E5%8F%91%E6%80%A7%E5%A9%B4%E5%B9%BC%E5%84%BF%E5%9E%8B%E9%9D%92%E5%85%89%E7%9C%BC/2644530", "lemmaPic": []}, {"lemmaId": 3459016, "lemmaTitle": "化脓性角膜炎", "lemmaCroppedTitle": "化脓性角膜炎", "lemmaDesc": "化脓性角膜炎是由细菌、真菌或原虫等感染引起的化脓性眼病。青壮年多见，发病迅猛，进...", "lemmaUrl": "http://baike.baidu.com/item/%E5%8C%96%E8%84%93%E6%80%A7%E8%A7%92%E8%86%9C%E7%82%8E/3459016", "lemmaPic": []}, {"lemmaId": 9803620, "lemmaTitle": "坐骨神经盆腔出口狭窄症", "lemmaCroppedTitle": "坐骨神经盆腔出口狭窄症", "lemmaDesc": "坐骨神经盆腔出口狭窄症与梨状肌症候群，是发生在坐骨神经自骶丛神经分开后，在走经骨...", "lemmaUrl": "http://baike.baidu.com/item/%E5%9D%90%E9%AA%A8%E7%A5%9E%E7%BB%8F%E7%9B%86%E8%85%94%E5%87%BA%E5%8F%A3%E7%8B%AD%E7%AA%84%E7%97%87/9803620", "lemmaPic": []}, {"lemmaId": 2646098, "lemmaTitle": "中央晕轮状脉络膜萎缩", "lemmaCroppedTitle": "中央晕轮状脉络膜萎缩", "lemmaDesc": "中央晕轮状脉络膜萎缩是一种常染色体显性遗传性疾病，是原发性脉络膜毛细血管萎缩的一...", "lemmaUrl": "http://baike.baidu.com/item/%E4%B8%AD%E5%A4%AE%E6%99%95%E8%BD%AE%E7%8A%B6%E8%84%89%E7%BB%9C%E8%86%9C%E8%90%8E%E7%BC%A9/2646098", "lemmaPic": []}, {"lemmaId": 10436732, "lemmaTitle": "弗郎西丝菌肺炎", "lemmaCroppedTitle": "弗郎西丝菌肺炎", "lemmaDesc": "弗郎西丝菌肺炎也叫土拉热菌病，在美国是常见的动物传染性疾病。其致病菌土拉热弗郎西...", "lemmaUrl": "http://baike.baidu.com/item/%E5%BC%97%E9%83%8E%E8%A5%BF%E4%B8%9D%E8%8F%8C%E8%82%BA%E7%82%8E/10436732", "lemmaPic": []}, {"lemmaId": 12021737, "lemmaTitle": "急性球后视神经炎", "lemmaCroppedTitle": "急性球后视神经炎", "lemmaDesc": "急性球后视神经炎又称急性特发性视神经炎，由于视神经受侵犯的部位不同，急性球后视神...", "lemmaUrl": "http://baike.baidu.com/item/%E6%80%A5%E6%80%A7%E7%90%83%E5%90%8E%E8%A7%86%E7%A5%9E%E7%BB%8F%E7%82%8E/12021737", "lemmaPic": []}, {"lemmaId": 736186, "lemmaTitle": "Kaposi水痘样疹", "lemmaCroppedTitle": "Kaposi水痘样疹", "lemmaDesc": "本病系在患有湿疹、特应性皮炎或其他某种皮肤病损害的基础上，感染单纯疱疹病毒而致的...", "lemmaUrl": "http://baike.baidu.com/item/Kaposi%E6%B0%B4%E7%97%98%E6%A0%B7%E7%96%B9/736186", "lemmaPic": []}, {"lemmaId": 7252989, "lemmaTitle": "皮质类固醇激素依赖性皮炎", "lemmaCroppedTitle": "皮质类固醇激素依赖性皮炎", "lemmaDesc": "皮质类固醇激素依赖性皮炎，简称激素依赖性皮炎是因由于长期反复不当的外用激素引起的...", "lemmaUrl": "http://baike.baidu.com/item/%E7%9A%AE%E8%B4%A8%E7%B1%BB%E5%9B%BA%E9%86%87%E6%BF%80%E7%B4%A0%E4%BE%9D%E8%B5%96%E6%80%A7%E7%9A%AE%E7%82%8E/7252989", "lemmaPic": []}, {"lemmaId": 2261499, "lemmaTitle": "僵a", "lemmaCroppedTitle": "僵a", "lemmaDesc": "是第1跖趾关节的骨关节炎。极为常见，常由于第1跖骨位置变异引起，由于踝过度内转（...", "lemmaUrl": "http://baike.baidu.com/item/%E5%83%B5%E9%89%A7/2261499", "lemmaPic": []}, {"lemmaId": 12652634, "lemmaTitle": "同步放化疗", "lemmaCroppedTitle": "同步放化疗", "lemmaDesc": "放化综合治疗是肿瘤临床治疗中最常见的组合模式。“同步放化疗”就是在放疗的同时，给...", "lemmaUrl": "http://baike.baidu.com/item/%E5%90%8C%E6%AD%A5%E6%94%BE%E5%8C%96%E7%96%97/12652634", "lemmaPic": []}, {"lemmaId": 10455827, "lemmaTitle": "咽部瘢痕狭窄", "lemmaCroppedTitle": "咽部瘢痕狭窄", "lemmaDesc": "咽部瘢痕狭窄为软腭及腭咽弓与咽后壁之间的瘢痕粘连，使鼻咽与口咽之间的正常通道变小...", "lemmaUrl": "http://baike.baidu.com/item/%E5%92%BD%E9%83%A8%E7%98%A2%E7%97%95%E7%8B%AD%E7%AA%84/10455827", "lemmaPic": []}, {"lemmaId": 7731778, "lemmaTitle": "小儿慢性肾小球肾炎", "lemmaCroppedTitle": "小儿慢性肾小球肾炎", "lemmaDesc": "病程超过1年的肾小球肾炎伴有肾功能减退和（或）高血压及贫血者称之为慢性肾小球肾炎...", "lemmaUrl": "http://baike.baidu.com/item/%E5%B0%8F%E5%84%BF%E6%85%A2%E6%80%A7%E8%82%BE%E5%B0%8F%E7%90%83%E8%82%BE%E7%82%8E/7731778", "lemmaPic": []}, {"lemmaId": 2352459, "lemmaTitle": "小儿散发性甲状腺肿", "lemmaCroppedTitle": "小儿散发性甲状腺肿", "lemmaDesc": "小儿散发性甲状腺肿是指患儿来自非地方性甲状腺肿流行地区，非肿瘤或炎症等原因所致的...", "lemmaUrl": "http://baike.baidu.com/item/%E5%B0%8F%E5%84%BF%E6%95%A3%E5%8F%91%E6%80%A7%E7%94%B2%E7%8A%B6%E8%85%BA%E8%82%BF/2352459", "lemmaPic": []}, {"lemmaId": 5661020, "lemmaTitle": "新生儿反应低下", "lemmaCroppedTitle": "新生儿反应低下", "lemmaDesc": "新生儿反应低下是一组临床症状，包含一定程度的哭声弱和吸吮无力，肌张力减退，肢体活...", "lemmaUrl": "http://baike.baidu.com/item/%E6%96%B0%E7%94%9F%E5%84%BF%E5%8F%8D%E5%BA%94%E4%BD%8E%E4%B8%8B/5661020", "lemmaPic": []}, {"lemmaId": 7253578, "lemmaTitle": "维生素D依赖性佝偻病", "lemmaCroppedTitle": "维生素D依赖性佝偻病", "lemmaDesc": "维生素D依赖性佝偻病（VDDR）为常染色体隐性遗传，临床特征与典型维生素D缺乏症...", "lemmaUrl": "http://baike.baidu.com/item/%E7%BB%B4%E7%94%9F%E7%B4%A0D%E4%BE%9D%E8%B5%96%E6%80%A7%E4%BD%9D%E5%81%BB%E7%97%85/7253578", "lemmaPic": []}, {"lemmaId": 10609277, "lemmaTitle": "窦性期前收缩", "lemmaCroppedTitle": "窦性期前收缩", "lemmaDesc": "窦性期前收缩又称窦房结内折返性期前收缩。窦性激动在窦房结内折返1～2次，形成窦性...", "lemmaUrl": "http://baike.baidu.com/item/%E7%AA%A6%E6%80%A7%E6%9C%9F%E5%89%8D%E6%94%B6%E7%BC%A9/10609277", "lemmaPic": []}, {"lemmaId": 147087, "lemmaTitle": "光线性弹力纤维病", "lemmaCroppedTitle": "光线性弹力纤维病", "lemmaDesc": "光线性弹力纤维病又称日光性弹性组织变性综合征，系一组长期暴露于日光下引起的皮肤退...", "lemmaUrl": "http://baike.baidu.com/item/%E5%85%89%E7%BA%BF%E6%80%A7%E5%BC%B9%E5%8A%9B%E7%BA%A4%E7%BB%B4%E7%97%85/147087", "lemmaPic": []}, {"lemmaId": 2065098, "lemmaTitle": "距骨后外结节骨折", "lemmaCroppedTitle": "距骨后外结节骨折", "lemmaDesc": "距骨后外结节骨折是跖屈损伤的结果，压力从胫骨后下唇作用于距骨结节。软骨接合部骨折...", "lemmaUrl": "http://baike.baidu.com/item/%E8%B7%9D%E9%AA%A8%E5%90%8E%E5%A4%96%E7%BB%93%E8%8A%82%E9%AA%A8%E6%8A%98/2065098", "lemmaPic": []}, {"lemmaId": 8531563, "lemmaTitle": "外伤后脑膨出", "lemmaCroppedTitle": "外伤后脑膨出", "lemmaDesc": "外伤后脑膨出是指开放性颅脑损伤特别是穿透性火器伤之后，由于头皮、颅骨及硬脑膜均已...", "lemmaUrl": "http://baike.baidu.com/item/%E5%A4%96%E4%BC%A4%E5%90%8E%E8%84%91%E8%86%A8%E5%87%BA/8531563", "lemmaPic": []}, {"lemmaId": 844605, "lemmaTitle": "平滑骨肉瘤", "lemmaCroppedTitle": "平滑骨肉瘤", "lemmaDesc": "平滑骨肉瘤根据发生部位的不同，分为三个类型：①皮肤，皮下型。②后腹膜，肠系膜型。...", "lemmaUrl": "http://baike.baidu.com/item/%E5%B9%B3%E6%BB%91%E9%AA%A8%E8%82%89%E7%98%A4/844605", "lemmaPic": []}, {"lemmaId": 2709688, "lemmaTitle": "外伤性乳房血肿", "lemmaCroppedTitle": "外伤性乳房血肿", "lemmaDesc": "外伤性乳房血肿，顾名思义是因为女性胸部受到外伤后，所致的乳房内血性囊肿，主要是钝...", "lemmaUrl": "http://baike.baidu.com/item/%E5%A4%96%E4%BC%A4%E6%80%A7%E4%B9%B3%E6%88%BF%E8%A1%80%E8%82%BF/2709688", "lemmaPic": []}, {"lemmaId": 7959357, "lemmaTitle": "新生儿尿布皮炎", "lemmaCroppedTitle": "新生儿尿布皮炎", "lemmaDesc": "尿布皮炎是婴儿臀部受尿液、粪便以及不洁潮湿尿布刺激、磨擦后，引起皮肤发红，重者可...", "lemmaUrl": "http://baike.baidu.com/item/%E6%96%B0%E7%94%9F%E5%84%BF%E5%B0%BF%E5%B8%83%E7%9A%AE%E7%82%8E/7959357", "lemmaPic": []}, {"lemmaId": 2593945, "lemmaTitle": "匐行性脉络膜炎", "lemmaCroppedTitle": "匐行性脉络膜炎", "lemmaDesc": "匐行性脉络膜炎是一种少见的双侧慢性进行性复发性的炎症性疾病，主要累及视网膜色素上...", "lemmaUrl": "http://baike.baidu.com/item/%E5%8C%90%E8%A1%8C%E6%80%A7%E8%84%89%E7%BB%9C%E8%86%9C%E7%82%8E/2593945", "lemmaPic": []}, {"lemmaId": 967789, "lemmaTitle": "食管穿透性损伤", "lemmaCroppedTitle": "食管穿透性损伤", "lemmaDesc": "食管的穿透性损伤（penetrating injury of esophagus...", "lemmaUrl": "http://baike.baidu.com/item/%E9%A3%9F%E7%AE%A1%E7%A9%BF%E9%80%8F%E6%80%A7%E6%8D%9F%E4%BC%A4/967789", "lemmaPic": []}, {"lemmaId": 799826, "lemmaTitle": "颌面部放线菌病", "lemmaCroppedTitle": "颌面部放线菌病", "lemmaDesc": "放线菌病是一种慢性特异性炎症。面颈部是放线菌病的好发部位之一，亦可累及涎腺，但比...", "lemmaUrl": "http://baike.baidu.com/item/%E9%A2%8C%E9%9D%A2%E9%83%A8%E6%94%BE%E7%BA%BF%E8%8F%8C%E7%97%85/799826", "lemmaPic": []}, {"lemmaId": 880838, "lemmaTitle": "腹壁挫伤", "lemmaCroppedTitle": "腹壁挫伤", "lemmaDesc": "腹壁挫伤系指腹壁软组织因连续受外力作用而分离，并无解剖上完全中断。若致伤力为螺旋...", "lemmaUrl": "http://baike.baidu.com/item/%E8%85%B9%E5%A3%81%E6%8C%AB%E4%BC%A4/880838", "lemmaPic": []}, {"lemmaId": 7996591, "lemmaTitle": "脂蛋白肾病", "lemmaCroppedTitle": "脂蛋白肾病", "lemmaDesc": "脂蛋白肾病是一种近年来新认识的肾小球疾病，其病理特征为肾小球毛细血管襻腔中存在脂...", "lemmaUrl": "http://baike.baidu.com/item/%E8%84%82%E8%9B%8B%E7%99%BD%E8%82%BE%E7%97%85/7996591", "lemmaPic": []}, {"lemmaId": 10456430, "lemmaTitle": "咽部混合瘤", "lemmaCroppedTitle": "咽部混合瘤", "lemmaDesc": "混合瘤发生于涎腺的腺上皮，起初对此瘤结构的多样化认识不清，误以为其来源于两个胚层...", "lemmaUrl": "http://baike.baidu.com/item/%E5%92%BD%E9%83%A8%E6%B7%B7%E5%90%88%E7%98%A4/10456430", "lemmaPic": []}, {"lemmaId": 5073890, "lemmaTitle": "脊柱裂和有关畸形", "lemmaCroppedTitle": "脊柱裂和有关畸形", "lemmaDesc": "脊柱裂和有关畸形属于神经管闭合不全性畸形，覆盖脊髓的脊椎形成不全。脊柱裂可以是广...", "lemmaUrl": "http://baike.baidu.com/item/%E8%84%8A%E6%9F%B1%E8%A3%82%E5%92%8C%E6%9C%89%E5%85%B3%E7%95%B8%E5%BD%A2/5073890", "lemmaPic": []}, {"lemmaId": 495838, "lemmaTitle": "不动杆菌肺炎", "lemmaCroppedTitle": "不动杆菌肺炎", "lemmaDesc": "不动杆菌是一种机会致病菌，可引起肺部炎症，往往发生在长期住院或机体抵抗力降低患者...", "lemmaUrl": "http://baike.baidu.com/item/%E4%B8%8D%E5%8A%A8%E6%9D%86%E8%8F%8C%E8%82%BA%E7%82%8E/495838", "lemmaPic": []}, {"lemmaId": 10096062, "lemmaTitle": "非冻结性冷伤", "lemmaCroppedTitle": "非冻结性冷伤", "lemmaDesc": "非冻结性冷伤，是在10℃以下至冰点以上的低温、潮湿条件下所造成的冷伤，如冻疮、战...", "lemmaUrl": "http://baike.baidu.com/item/%E9%9D%9E%E5%86%BB%E7%BB%93%E6%80%A7%E5%86%B7%E4%BC%A4/10096062", "lemmaPic": []}, {"lemmaId": 6001682, "lemmaTitle": "子喑", "lemmaCroppedTitle": "子喑", "lemmaDesc": "子喑又名妊娠失音。子喑多因肺肾阴虚等所致。以妊娠晚期出现声音嘶哑，音浊不扬，甚至...", "lemmaUrl": "http://baike.baidu.com/item/%E5%AD%90%E5%96%91/6001682", "lemmaPic": []}, {"lemmaId": 8537621, "lemmaTitle": "巴德-吉亚利综合征", "lemmaCroppedTitle": "巴德-吉亚利综合征", "lemmaDesc": "巴德-吉亚利综合征(BCS)是由于各种原因所致的肝静脉和邻近的下腔静脉狭窄闭塞，...", "lemmaUrl": "http://baike.baidu.com/item/%E5%B7%B4%E5%BE%B7-%E5%90%89%E4%BA%9A%E5%88%A9%E7%BB%BC%E5%90%88%E5%BE%81/8537621", "lemmaPic": []}, {"lemmaId": 8905183, "lemmaTitle": "外阴转移性癌", "lemmaCroppedTitle": "外阴转移性癌", "lemmaDesc": "外阴转移性癌比较少见，全身其他部位的任何癌肿均有可能转移至外阴，癌转移至外阴已属...", "lemmaUrl": "http://baike.baidu.com/item/%E5%A4%96%E9%98%B4%E8%BD%AC%E7%A7%BB%E6%80%A7%E7%99%8C/8905183", "lemmaPic": []}, {"lemmaId": 727836, "lemmaTitle": "儿童胰腺功能不全并中性粒细胞减少症综合征", "lemmaCroppedTitle": "儿童胰腺功能不全并中性粒细胞减少症综合征", "lemmaDesc": "儿童胰腺功能不全并中性粒细胞减少综合征是由Shwachman1964年报告的，故...", "lemmaUrl": "http://baike.baidu.com/item/%E5%84%BF%E7%AB%A5%E8%83%B0%E8%85%BA%E5%8A%9F%E8%83%BD%E4%B8%8D%E5%85%A8%E5%B9%B6%E4%B8%AD%E6%80%A7%E7%B2%92%E7%BB%86%E8%83%9E%E5%87%8F%E5%B0%91%E7%97%87%E7%BB%BC%E5%90%88%E5%BE%81/727836", "lemmaPic": []}, {"lemmaId": 12676571, "lemmaTitle": "小儿溶血尿毒综合征", "lemmaCroppedTitle": "小儿溶血尿毒综合征", "lemmaDesc": "小儿溶血尿毒综合征（HUS）是多种病因引起血管内溶血的微血管病，以微血管病性溶血...", "lemmaUrl": "http://baike.baidu.com/item/%E5%B0%8F%E5%84%BF%E6%BA%B6%E8%A1%80%E5%B0%BF%E6%AF%92%E7%BB%BC%E5%90%88%E5%BE%81/12676571", "lemmaPic": []}, {"lemmaId": 6833490, "lemmaTitle": "眼眶脓肿", "lemmaCroppedTitle": "眼眶脓肿", "lemmaDesc": "眼眶脓肿是坏死组织和化脓性病菌聚积在眶脂肪内所形成的脓肿。是一种炎症性反应，脓肿...", "lemmaUrl": "http://baike.baidu.com/item/%E7%9C%BC%E7%9C%B6%E8%84%93%E8%82%BF/6833490", "lemmaPic": []}, {"lemmaId": 2353232, "lemmaTitle": "单纯疱疹性葡萄膜炎", "lemmaCroppedTitle": "单纯疱疹性葡萄膜炎", "lemmaDesc": "单纯疱疹性葡萄膜炎是由于单纯疱疹病毒（HSV）侵入机体后，通过直接侵犯或通过诱发...", "lemmaUrl": "http://baike.baidu.com/item/%E5%8D%95%E7%BA%AF%E7%96%B1%E7%96%B9%E6%80%A7%E8%91%A1%E8%90%84%E8%86%9C%E7%82%8E/2353232", "lemmaPic": []}, {"lemmaId": 3331767, "lemmaTitle": "妊娠合并尿石症", "lemmaCroppedTitle": "妊娠合并尿石症", "lemmaDesc": "妊娠合并尿石症临床较为少见。如处理不当，可危及母婴安全。泌尿系统结石病不论结石位...", "lemmaUrl": "http://baike.baidu.com/item/%E5%A6%8A%E5%A8%A0%E5%90%88%E5%B9%B6%E5%B0%BF%E7%9F%B3%E7%97%87/3331767", "lemmaPic": []}, {"lemmaId": 4424367, "lemmaTitle": "短膜壳绦虫病", "lemmaCroppedTitle": "短膜壳绦虫病", "lemmaDesc": "短膜壳绦虫病是由短膜壳绦虫（微小膜壳绦虫）寄生人体肠道所致疾病。临床主要症状有恶...", "lemmaUrl": "http://baike.baidu.com/item/%E7%9F%AD%E8%86%9C%E5%A3%B3%E7%BB%A6%E8%99%AB%E7%97%85/4424367", "lemmaPic": []}, {"lemmaId": 1718043, "lemmaTitle": "鄂木斯克出血热", "lemmaCroppedTitle": "鄂木斯克出血热", "lemmaDesc": "鄂木斯克出血热是一种急性发热性疾病，其特征为病毒性抗原、自然疫源性、出血症状和良...", "lemmaUrl": "http://baike.baidu.com/item/%E9%84%82%E6%9C%A8%E6%96%AF%E5%85%8B%E5%87%BA%E8%A1%80%E7%83%AD/1718043", "lemmaPic": []}, {"lemmaId": 9585984, "lemmaTitle": "甲状腺功能亢进伴发的精神障碍", "lemmaCroppedTitle": "甲状腺功能亢进伴发的精神障碍", "lemmaDesc": "甲状腺功能亢进疾病是甲状腺素分泌过多导致的躯体症状和神经精神障碍，本病患者几乎都...", "lemmaUrl": "http://baike.baidu.com/item/%E7%94%B2%E7%8A%B6%E8%85%BA%E5%8A%9F%E8%83%BD%E4%BA%A2%E8%BF%9B%E4%BC%B4%E5%8F%91%E7%9A%84%E7%B2%BE%E7%A5%9E%E9%9A%9C%E7%A2%8D/9585984", "lemmaPic": []}, {"lemmaId": 2065447, "lemmaTitle": "小儿慢性骨髓炎", "lemmaCroppedTitle": "小儿慢性骨髓炎", "lemmaDesc": "小儿慢性骨髓炎是化脓性细菌侵入骨组织所引起的一种骨感染性疾病，常反复发作多年不愈...", "lemmaUrl": "http://baike.baidu.com/item/%E5%B0%8F%E5%84%BF%E6%85%A2%E6%80%A7%E9%AA%A8%E9%AB%93%E7%82%8E/2065447", "lemmaPic": []}, {"lemmaId": 6707515, "lemmaTitle": "妊娠合并肺栓塞", "lemmaCroppedTitle": "妊娠合并肺栓塞", "lemmaDesc": "体循环的各种栓子脱落均可引起肺栓塞。最常见的肺栓子为血栓，由血栓引起的肺栓塞（P...", "lemmaUrl": "http://baike.baidu.com/item/%E5%A6%8A%E5%A8%A0%E5%90%88%E5%B9%B6%E8%82%BA%E6%A0%93%E5%A1%9E/6707515", "lemmaPic": []}, {"lemmaId": 9414550, "lemmaTitle": "心脏黏液瘤", "lemmaCroppedTitle": "心脏黏液瘤", "lemmaDesc": "心脏黏液瘤大约7%是家族性的，典型黏液瘤为孤立的单个，表面光滑、球形、大小各异、...", "lemmaUrl": "http://baike.baidu.com/item/%E5%BF%83%E8%84%8F%E9%BB%8F%E6%B6%B2%E7%98%A4/9414550", "lemmaPic": []}, {"lemmaId": 7686115, "lemmaTitle": "痉挛性肠梗阻", "lemmaCroppedTitle": "痉挛性肠梗阻", "lemmaDesc": "肠壁肌肉因痉挛性收缩而致肠内容物运行不畅称为痉挛性肠梗阻，多见于小肠。临床上极为...", "lemmaUrl": "http://baike.baidu.com/item/%E7%97%89%E6%8C%9B%E6%80%A7%E8%82%A0%E6%A2%97%E9%98%BB/7686115", "lemmaPic": []}, {"lemmaId": 12602123, "lemmaTitle": "淋巴管肌瘤病", "lemmaCroppedTitle": "淋巴管肌瘤病", "lemmaDesc": "淋巴管肌瘤病（LAM）是一种比较罕见的疾病，几乎所有的病例均发生于女性，以育龄期...", "lemmaUrl": "http://baike.baidu.com/item/%E6%B7%8B%E5%B7%B4%E7%AE%A1%E8%82%8C%E7%98%A4%E7%97%85/12602123", "lemmaPic": []}, {"lemmaId": 1390269, "lemmaTitle": "婴幼儿脐疝", "lemmaCroppedTitle": "婴幼儿脐疝", "lemmaDesc": "婴幼儿脐疝是一种先天性发育缺陷性疾病，随着年龄的增加，该病逐渐减少，大多数可在2...", "lemmaUrl": "http://baike.baidu.com/item/%E5%A9%B4%E5%B9%BC%E5%84%BF%E8%84%90%E7%96%9D/1390269", "lemmaPic": []}, {"lemmaId": 6412044, "lemmaTitle": "小儿色素荨麻疹", "lemmaCroppedTitle": "小儿色素荨麻疹", "lemmaDesc": "小儿色素荨麻疹是肥大细胞增生病中的一个类型，即良性泛发性皮肤肥大细胞增生病，以皮...", "lemmaUrl": "http://baike.baidu.com/item/%E5%B0%8F%E5%84%BF%E8%89%B2%E7%B4%A0%E8%8D%A8%E9%BA%BB%E7%96%B9/6412044", "lemmaPic": []}, {"lemmaId": 8877373, "lemmaTitle": "肾小管间质性肾炎葡萄膜炎综合征", "lemmaCroppedTitle": "肾小管间质性肾炎葡萄膜炎综合征", "lemmaDesc": "肾小管间质性肾炎葡萄膜炎综合征或称肾小管间质性肾炎-眼色素膜炎综合征，简称TIN...", "lemmaUrl": "http://baike.baidu.com/item/%E8%82%BE%E5%B0%8F%E7%AE%A1%E9%97%B4%E8%B4%A8%E6%80%A7%E8%82%BE%E7%82%8E%E8%91%A1%E8%90%84%E8%86%9C%E7%82%8E%E7%BB%BC%E5%90%88%E5%BE%81/8877373", "lemmaPic": []}, {"lemmaId": 7252975, "lemmaTitle": "阴部鲍恩样丘疹病", "lemmaCroppedTitle": "阴部鲍恩样丘疹病", "lemmaDesc": "阴部鲍恩样丘疹病是一种发生于年轻人外生殖器的多发性扁平丘疹，组织病理为低度恶性鳞...", "lemmaUrl": "http://baike.baidu.com/item/%E9%98%B4%E9%83%A8%E9%B2%8D%E6%81%A9%E6%A0%B7%E4%B8%98%E7%96%B9%E7%97%85/7252975", "lemmaPic": []}, {"lemmaId": 12021744, "lemmaTitle": "大疱性表皮松解坏死型药疹", "lemmaCroppedTitle": "大疱性表皮松解坏死型药疹", "lemmaDesc": "本病即药物引起的中毒性表皮坏死症。是药疹中最严重的一型，该病发病急，发展迅速，受...", "lemmaUrl": "http://baike.baidu.com/item/%E5%A4%A7%E7%96%B1%E6%80%A7%E8%A1%A8%E7%9A%AE%E6%9D%BE%E8%A7%A3%E5%9D%8F%E6%AD%BB%E5%9E%8B%E8%8D%AF%E7%96%B9/12021744", "lemmaPic": []}, {"lemmaId": 877699, "lemmaTitle": "新生儿肝脾肿大", "lemmaCroppedTitle": "新生儿肝脾肿大", "lemmaDesc": "新生儿肝脾肿大，是指临床上新生儿肝脏和脾脏增大。即肝脾大小超出正常范围，正常新生...", "lemmaUrl": "http://baike.baidu.com/item/%E6%96%B0%E7%94%9F%E5%84%BF%E8%82%9D%E8%84%BE%E8%82%BF%E5%A4%A7/877699", "lemmaPic": []}, {"lemmaId": 2302789, "lemmaTitle": "丘疹性血管增生", "lemmaCroppedTitle": "丘疹性血管增生", "lemmaDesc": "丘疹性血管增生1970年由Wilson Jones和Marks首先提出此一病名。...", "lemmaUrl": "http://baike.baidu.com/item/%E4%B8%98%E7%96%B9%E6%80%A7%E8%A1%80%E7%AE%A1%E5%A2%9E%E7%94%9F/2302789", "lemmaPic": []}, {"lemmaId": 1591875, "lemmaTitle": "脑肺吸虫病", "lemmaCroppedTitle": "脑肺吸虫病", "lemmaDesc": "脑肺吸虫病是肺吸虫成虫寄生于脑内并不断移行造成的机械性损伤，及其代谢物等引起免疫...", "lemmaUrl": "http://baike.baidu.com/item/%E8%84%91%E8%82%BA%E5%90%B8%E8%99%AB%E7%97%85/1591875", "lemmaPic": []}, {"lemmaId": 4623963, "lemmaTitle": "阴囊派杰病", "lemmaCroppedTitle": "阴囊派杰病", "lemmaDesc": "阴囊派杰病（阴囊Paget病），又被称为阴囊湿疹样癌或阴囊炎性癌，属于皮肤附属器...", "lemmaUrl": "http://baike.baidu.com/item/%E9%98%B4%E5%9B%8A%E6%B4%BE%E6%9D%B0%E7%97%85/4623963", "lemmaPic": []}, {"lemmaId": 3234591, "lemmaTitle": "小儿弓形腿综合征", "lemmaCroppedTitle": "小儿弓形腿综合征", "lemmaDesc": "弓形腿综合征即胫骨畸形-骨软骨病，又称Blount-Barber综合征、Blou...", "lemmaUrl": "http://baike.baidu.com/item/%E5%B0%8F%E5%84%BF%E5%BC%93%E5%BD%A2%E8%85%BF%E7%BB%BC%E5%90%88%E5%BE%81/3234591", "lemmaPic": []}, {"lemmaId": 3007588, "lemmaTitle": "肺泡通气低下综合征", "lemmaCroppedTitle": "肺泡通气低下综合征", "lemmaDesc": "肺泡通气低下综合征系指肺泡的换气量不能适应组织代谢水平的需要，使肺泡中氧分压和动...", "lemmaUrl": "http://baike.baidu.com/item/%E8%82%BA%E6%B3%A1%E9%80%9A%E6%B0%94%E4%BD%8E%E4%B8%8B%E7%BB%BC%E5%90%88%E5%BE%81/3007588", "lemmaPic": []}, {"lemmaId": 1116557, "lemmaTitle": "结肠平滑肌瘤", "lemmaCroppedTitle": "结肠平滑肌瘤", "lemmaDesc": "结肠平滑肌瘤非常少见。病因不明，可能与慢性刺激、胚原性等因素有关。以腹痛、消化道...", "lemmaUrl": "http://baike.baidu.com/item/%E7%BB%93%E8%82%A0%E5%B9%B3%E6%BB%91%E8%82%8C%E7%98%A4/1116557", "lemmaPic": []}, {"lemmaId": 3775130, "lemmaTitle": "五氯酚钠中毒", "lemmaCroppedTitle": "五氯酚钠中毒", "lemmaDesc": "五氯酚钠可由呼吸道、消化道以及皮肤进入人体，进入体内超过一定量以后会引起五氯酚钠...", "lemmaUrl": "http://baike.baidu.com/item/%E4%BA%94%E6%B0%AF%E9%85%9A%E9%92%A0%E4%B8%AD%E6%AF%92/3775130", "lemmaPic": []}, {"lemmaId": 10357265, "lemmaTitle": "纤维软骨间质瘤", "lemmaCroppedTitle": "纤维软骨间质瘤", "lemmaDesc": "纤维软骨间质瘤由二种不同组织组成，一种是软骨样组织，是良性的，相似于生长中的骺板...", "lemmaUrl": "http://baike.baidu.com/item/%E7%BA%A4%E7%BB%B4%E8%BD%AF%E9%AA%A8%E9%97%B4%E8%B4%A8%E7%98%A4/10357265", "lemmaPic": []}, {"lemmaId": 8360699, "lemmaTitle": "脑膜炎奈瑟菌肺炎", "lemmaCroppedTitle": "脑膜炎奈瑟菌肺炎", "lemmaDesc": "脑膜炎奈瑟菌肺炎，是继发于脑膜炎奈瑟菌败血症的一种少见的化脓性迁徙合并症。脑膜炎...", "lemmaUrl": "http://baike.baidu.com/item/%E8%84%91%E8%86%9C%E7%82%8E%E5%A5%88%E7%91%9F%E8%8F%8C%E8%82%BA%E7%82%8E/8360699", "lemmaPic": []}, {"lemmaId": 8484912, "lemmaTitle": "妊娠合并肺炎", "lemmaCroppedTitle": "妊娠合并肺炎", "lemmaDesc": "妊娠合并肺炎是由不同的病原体引起的肺实质炎症，常累及小支气管及肺泡，是妊娠期严重...", "lemmaUrl": "http://baike.baidu.com/item/%E5%A6%8A%E5%A8%A0%E5%90%88%E5%B9%B6%E8%82%BA%E7%82%8E/8484912", "lemmaPic": []}, {"lemmaId": 876639, "lemmaTitle": "妊娠合并血栓性血小板减少性紫癜", "lemmaCroppedTitle": "妊娠合并血栓性血小板减少性紫癜", "lemmaDesc": "血栓性血小板减少性紫癜（TTP）为一罕见的微血管血栓-出血综合征，其主要特征为发...", "lemmaUrl": "http://baike.baidu.com/item/%E5%A6%8A%E5%A8%A0%E5%90%88%E5%B9%B6%E8%A1%80%E6%A0%93%E6%80%A7%E8%A1%80%E5%B0%8F%E6%9D%BF%E5%87%8F%E5%B0%91%E6%80%A7%E7%B4%AB%E7%99%9C/876639", "lemmaPic": []}, {"lemmaId": 6032036, "lemmaTitle": "多发性骨骺发育不良", "lemmaCroppedTitle": "多发性骨骺发育不良", "lemmaDesc": "少见的先天性骨发育障碍，为常染色体显性遗传性骨病，仅侵犯骨骺软骨，主要为软骨发育...", "lemmaUrl": "http://baike.baidu.com/item/%E5%A4%9A%E5%8F%91%E6%80%A7%E9%AA%A8%E9%AA%BA%E5%8F%91%E8%82%B2%E4%B8%8D%E8%89%AF/6032036", "lemmaPic": []}, {"lemmaId": 4313438, "lemmaTitle": "肠系膜动脉瘤", "lemmaCroppedTitle": "肠系膜动脉瘤", "lemmaDesc": "肠系膜动脉瘤是指肠系膜上、下动脉及其分支扩张形成的动脉瘤，肠系膜上动脉瘤多见，发...", "lemmaUrl": "http://baike.baidu.com/item/%E8%82%A0%E7%B3%BB%E8%86%9C%E5%8A%A8%E8%84%89%E7%98%A4/4313438", "lemmaPic": []}, {"lemmaId": 5243417, "lemmaTitle": "旋转隐斜", "lemmaCroppedTitle": "旋转隐斜", "lemmaDesc": "旋转隐斜是一眼或二眼的角膜12点钟方位有偏向鼻侧或颞侧的倾向，通过上下斜肌的平衡...", "lemmaUrl": "http://baike.baidu.com/item/%E6%97%8B%E8%BD%AC%E9%9A%90%E6%96%9C/5243417", "lemmaPic": []}, {"lemmaId": 881239, "lemmaTitle": "外阴脂肪肉瘤", "lemmaCroppedTitle": "外阴脂肪肉瘤", "lemmaDesc": "脂肪肉瘤常见于躯干、肢体和腹部，发生于外阴的脂肪肉瘤罕见。主要表现为皮下缓慢生长...", "lemmaUrl": "http://baike.baidu.com/item/%E5%A4%96%E9%98%B4%E8%84%82%E8%82%AA%E8%82%89%E7%98%A4/881239", "lemmaPic": []}, {"lemmaId": 2774931, "lemmaTitle": "成人骨坏死", "lemmaCroppedTitle": "成人骨坏死", "lemmaDesc": "骨坏死可分为感染性或非感染性两大类，前者属于炎性病变的结果与表现，而非感染性骨坏...", "lemmaUrl": "http://baike.baidu.com/item/%E6%88%90%E4%BA%BA%E9%AA%A8%E5%9D%8F%E6%AD%BB/2774931", "lemmaPic": []}, {"lemmaId": 6593894, "lemmaTitle": "眼底血管样条纹", "lemmaCroppedTitle": "眼底血管样条纹", "lemmaDesc": "眼底血管样条纹是指一种Bruch膜的疾病，由脉络膜的Bruch膜的中胚叶成分即弹...", "lemmaUrl": "http://baike.baidu.com/item/%E7%9C%BC%E5%BA%95%E8%A1%80%E7%AE%A1%E6%A0%B7%E6%9D%A1%E7%BA%B9/6593894", "lemmaPic": []}, {"lemmaId": 11034367, "lemmaTitle": "胃隔膜", "lemmaCroppedTitle": "胃隔膜", "lemmaDesc": "胃隔膜是一种罕见的消化道畸形。其发病率约为1/10万，约占消化道闭锁的1%。现认...", "lemmaUrl": "http://baike.baidu.com/item/%E8%83%83%E9%9A%94%E8%86%9C/11034367", "lemmaPic": []}, {"lemmaId": 13551016, "lemmaTitle": "睾丸畸胎瘤", "lemmaCroppedTitle": "睾丸畸胎瘤", "lemmaDesc": "由一种或几种不同胚层（内、中、外胚层）组织构成的睾丸生殖细胞肿瘤。2004年世界...", "lemmaUrl": "http://baike.baidu.com/item/%E7%9D%BE%E4%B8%B8%E7%95%B8%E8%83%8E%E7%98%A4/13551016", "lemmaPic": []}, {"lemmaId": 3848116, "lemmaTitle": "继发性系统性淀粉样变", "lemmaCroppedTitle": "继发性系统性淀粉样变", "lemmaDesc": "继发性系统性淀粉样变是指继发于某些病变，如自身免疫病慢性炎症、慢性局部或系统性细...", "lemmaUrl": "http://baike.baidu.com/item/%E7%BB%A7%E5%8F%91%E6%80%A7%E7%B3%BB%E7%BB%9F%E6%80%A7%E6%B7%80%E7%B2%89%E6%A0%B7%E5%8F%98/3848116", "lemmaPic": []}, {"lemmaId": 4016659, "lemmaTitle": "小肠脂肪瘤", "lemmaCroppedTitle": "小肠脂肪瘤", "lemmaDesc": "小肠脂肪瘤是源自小肠黏膜下或浆膜下脂肪组织的良性肿瘤，国内患者好发部位依次为回肠...", "lemmaUrl": "http://baike.baidu.com/item/%E5%B0%8F%E8%82%A0%E8%84%82%E8%82%AA%E7%98%A4/4016659", "lemmaPic": []}, {"lemmaId": 1839073, "lemmaTitle": "眼眶嗜酸性肉芽肿", "lemmaCroppedTitle": "眼眶嗜酸性肉芽肿", "lemmaDesc": "朗格汉斯细胞组织细胞增生症(LCH)是一种原因不明、临床少见的非肿瘤性树突状细胞...", "lemmaUrl": "http://baike.baidu.com/item/%E7%9C%BC%E7%9C%B6%E5%97%9C%E9%85%B8%E6%80%A7%E8%82%89%E8%8A%BD%E8%82%BF/1839073", "lemmaPic": []}, {"lemmaId": 1601578, "lemmaTitle": "小儿帕套综合征", "lemmaCroppedTitle": "小儿帕套综合征", "lemmaDesc": "Patau综合征，也叫13-三体综合征、帕套综合征。是一种较为常见的染色体畸变疾...", "lemmaUrl": "http://baike.baidu.com/item/%E5%B0%8F%E5%84%BF%E5%B8%95%E5%A5%97%E7%BB%BC%E5%90%88%E5%BE%81/1601578", "lemmaPic": []}, {"lemmaId": 1189520, "lemmaTitle": "裂头绦虫病", "lemmaCroppedTitle": "裂头绦虫病", "lemmaDesc": "裂头绦虫病是由阔节裂头绦虫寄生人体肠道所致的疾病。多见于亚寒带及温带的湖泊水区，...", "lemmaUrl": "http://baike.baidu.com/item/%E8%A3%82%E5%A4%B4%E7%BB%A6%E8%99%AB%E7%97%85/1189520", "lemmaPic": []}, {"lemmaId": 1700089, "lemmaTitle": "眼球震颤阻滞综合征", "lemmaCroppedTitle": "眼球震颤阻滞综合征", "lemmaDesc": "眼球震颤阻滞综合征以婴儿早期发生眼球震颤伴有内斜视、代偿头位，以及假性外展神经麻...", "lemmaUrl": "http://baike.baidu.com/item/%E7%9C%BC%E7%90%83%E9%9C%87%E9%A2%A4%E9%98%BB%E6%BB%9E%E7%BB%BC%E5%90%88%E5%BE%81/1700089", "lemmaPic": []}, {"lemmaId": 10639878, "lemmaTitle": "房性心动过速伴房室传导阻滞", "lemmaCroppedTitle": "房性心动过速伴房室传导阻滞", "lemmaDesc": "房性心动过速伴房室传导阻滞无论在病因、心脏基本状态、临床表现、心电图改变、治疗及...", "lemmaUrl": "http://baike.baidu.com/item/%E6%88%BF%E6%80%A7%E5%BF%83%E5%8A%A8%E8%BF%87%E9%80%9F%E4%BC%B4%E6%88%BF%E5%AE%A4%E4%BC%A0%E5%AF%BC%E9%98%BB%E6%BB%9E/10639878", "lemmaPic": []}, {"lemmaId": 10815829, "lemmaTitle": "赤膜下垂", "lemmaCroppedTitle": "赤膜下垂", "lemmaDesc": "赤膜下垂，又名“垂帘障”，类似沙眼性角膜血管翳。本病多是椒疮（砂眼）失治或调治失...", "lemmaUrl": "http://baike.baidu.com/item/%E8%B5%A4%E8%86%9C%E4%B8%8B%E5%9E%82/10815829", "lemmaPic": []}, {"lemmaId": 8386596, "lemmaTitle": "颅后窝室管膜瘤", "lemmaCroppedTitle": "颅后窝室管膜瘤", "lemmaDesc": "室管膜瘤由脑室壁的膜细胞产生，生长缓慢，位置在幕下者明显多于幕上者。后颅窝室管膜...", "lemmaUrl": "http://baike.baidu.com/item/%E9%A2%85%E5%90%8E%E7%AA%9D%E5%AE%A4%E7%AE%A1%E8%86%9C%E7%98%A4/8386596", "lemmaPic": []}, {"lemmaId": 2235660, "lemmaTitle": "原发性胃淋巴瘤", "lemmaCroppedTitle": "原发性胃淋巴瘤", "lemmaDesc": "原发于淋巴组织的肿瘤都是恶性肿瘤，原发性胃淋巴瘤多发生于50-60岁年龄组，男性...", "lemmaUrl": "http://baike.baidu.com/item/%E5%8E%9F%E5%8F%91%E6%80%A7%E8%83%83%E6%B7%8B%E5%B7%B4%E7%98%A4/2235660", "lemmaPic": []}, {"lemmaId": 438540, "lemmaTitle": "原发性卵巢类癌综合征", "lemmaCroppedTitle": "原发性卵巢类癌综合征", "lemmaDesc": "原发性卵巢类癌综合征系指原发性类癌的部位在卵巢，是一种发源于神经内分泌细胞的特殊...", "lemmaUrl": "http://baike.baidu.com/item/%E5%8E%9F%E5%8F%91%E6%80%A7%E5%8D%B5%E5%B7%A2%E7%B1%BB%E7%99%8C%E7%BB%BC%E5%90%88%E5%BE%81/438540", "lemmaPic": []}], "total": 7246, "totalPage": 73, "page": 54, "fromLemma": 0}