{"lemmaList": [{"lemmaId": 1972947, "lemmaTitle": "非依赖性物质伴发依赖", "lemmaCroppedTitle": "非依赖性物质伴发依赖", "lemmaDesc": "非依赖性物质伴发依赖是指应用精神活性物质以后紧接着产生心理生理症状、行为或反应方...", "lemmaUrl": "http://baike.baidu.com/item/%E9%9D%9E%E4%BE%9D%E8%B5%96%E6%80%A7%E7%89%A9%E8%B4%A8%E4%BC%B4%E5%8F%91%E4%BE%9D%E8%B5%96/1972947", "lemmaPic": []}, {"lemmaId": 5054556, "lemmaTitle": "羟磷灰石沉积病", "lemmaCroppedTitle": "羟磷灰石沉积病", "lemmaDesc": "羟磷灰石（HA）是骨骼（包括牙齿）的主要矿盐，它在骨骼、牙齿外组织沉积，即为异位...", "lemmaUrl": "http://baike.baidu.com/item/%E7%BE%9F%E7%A3%B7%E7%81%B0%E7%9F%B3%E6%B2%89%E7%A7%AF%E7%97%85/5054556", "lemmaPic": []}, {"lemmaId": 1115671, "lemmaTitle": "女性生殖道多部位原发癌", "lemmaCroppedTitle": "女性生殖道多部位原发癌", "lemmaDesc": "原发癌是指原来正常组织和器官的正常细胞，在各种内外致癌因素的长期作用下，逐渐转变...", "lemmaUrl": "http://baike.baidu.com/item/%E5%A5%B3%E6%80%A7%E7%94%9F%E6%AE%96%E9%81%93%E5%A4%9A%E9%83%A8%E4%BD%8D%E5%8E%9F%E5%8F%91%E7%99%8C/1115671", "lemmaPic": []}, {"lemmaId": 2130566, "lemmaTitle": "链球菌性肺炎", "lemmaCroppedTitle": "链球菌性肺炎", "lemmaDesc": "据部分调查，病原菌以肺炎链球菌第12、3、4、6、7、8、12、14、18及19...", "lemmaUrl": "http://baike.baidu.com/item/%E9%93%BE%E7%90%83%E8%8F%8C%E6%80%A7%E8%82%BA%E7%82%8E/2130566", "lemmaPic": []}, {"lemmaId": 7968519, "lemmaTitle": "手机上网综合症", "lemmaCroppedTitle": "手机上网综合症", "lemmaDesc": "已经严重依赖手机上网、具备手机网瘾，这种病症被称手机上网依赖症。经常用手机上网。...", "lemmaUrl": "http://baike.baidu.com/item/%E6%89%8B%E6%9C%BA%E4%B8%8A%E7%BD%91%E7%BB%BC%E5%90%88%E7%97%87/7968519", "lemmaPic": []}, {"lemmaId": 8470141, "lemmaTitle": "埃里希体病", "lemmaCroppedTitle": "埃里希体病", "lemmaDesc": "埃里希体病是一种由蜱传播，埃里希体属，一种立克次体样病原微生物引起的发热性疾病。...", "lemmaUrl": "http://baike.baidu.com/item/%E5%9F%83%E9%87%8C%E5%B8%8C%E4%BD%93%E7%97%85/8470141", "lemmaPic": []}, {"lemmaId": 17659719, "lemmaTitle": "急性脑梗死", "lemmaCroppedTitle": "急性脑梗死", "lemmaDesc": "急性脑梗死（Acute cerebral infarct）是指脑血供突然中断后导...", "lemmaUrl": "http://baike.baidu.com/item/%E6%80%A5%E6%80%A7%E8%84%91%E6%A2%97%E6%AD%BB/17659719", "lemmaPic": []}, {"lemmaId": 781907, "lemmaTitle": "原发性十二指肠恶性淋巴瘤", "lemmaCroppedTitle": "原发性十二指肠恶性淋巴瘤", "lemmaDesc": "原发性十二指肠恶性淋巴瘤是指原发于十二指肠肠壁淋巴组织的恶性肿瘤，这有别于全身恶...", "lemmaUrl": "http://baike.baidu.com/item/%E5%8E%9F%E5%8F%91%E6%80%A7%E5%8D%81%E4%BA%8C%E6%8C%87%E8%82%A0%E6%81%B6%E6%80%A7%E6%B7%8B%E5%B7%B4%E7%98%A4/781907", "lemmaPic": []}, {"lemmaId": 3790384, "lemmaTitle": "脑猪囊尾蚴病", "lemmaCroppedTitle": "脑猪囊尾蚴病", "lemmaDesc": "猪囊尾蚴病为人兽共患性寄生虫病。由于囊虫侵入部位和数量不同，临床症状复杂多样，又...", "lemmaUrl": "http://baike.baidu.com/item/%E8%84%91%E7%8C%AA%E5%9B%8A%E5%B0%BE%E8%9A%B4%E7%97%85/3790384", "lemmaPic": []}, {"lemmaId": 6520006, "lemmaTitle": "痢疾后综合症", "lemmaCroppedTitle": "痢疾后综合症", "lemmaDesc": "痢疾后综合症，也称Reiter综合征、肠病后类风湿，眼尿道关节炎综合征，临床上以...", "lemmaUrl": "http://baike.baidu.com/item/%E7%97%A2%E7%96%BE%E5%90%8E%E7%BB%BC%E5%90%88%E7%97%87/6520006", "lemmaPic": []}, {"lemmaId": 10645550, "lemmaTitle": "非阵发性交接区性心动过速", "lemmaCroppedTitle": "非阵发性交接区性心动过速", "lemmaDesc": "非阵发性交接区性心动过速（NPJT）又称加速性交接区性心动过速、加速性交接性逸搏...", "lemmaUrl": "http://baike.baidu.com/item/%E9%9D%9E%E9%98%B5%E5%8F%91%E6%80%A7%E4%BA%A4%E6%8E%A5%E5%8C%BA%E6%80%A7%E5%BF%83%E5%8A%A8%E8%BF%87%E9%80%9F/10645550", "lemmaPic": []}, {"lemmaId": 1837089, "lemmaTitle": "眼眶内静脉曲张", "lemmaCroppedTitle": "眼眶内静脉曲张", "lemmaDesc": "静脉曲张是发生于眼眶内常见的静脉畸形性扩张。病变为一条或多条或囊状扩张的静脉构成...", "lemmaUrl": "http://baike.baidu.com/item/%E7%9C%BC%E7%9C%B6%E5%86%85%E9%9D%99%E8%84%89%E6%9B%B2%E5%BC%A0/1837089", "lemmaPic": []}, {"lemmaId": 2428934, "lemmaTitle": "大肠类癌", "lemmaCroppedTitle": "大肠类癌", "lemmaDesc": "大肠类癌是一种少见的低度恶性肿瘤，呈局部性、浸润性生长，很少转移。类癌好发于胃、...", "lemmaUrl": "http://baike.baidu.com/item/%E5%A4%A7%E8%82%A0%E7%B1%BB%E7%99%8C/2428934", "lemmaPic": []}, {"lemmaId": 508531, "lemmaTitle": "枢椎齿突骨折", "lemmaCroppedTitle": "枢椎齿突骨折", "lemmaDesc": "枢椎齿突骨折是累及寰枢椎区域稳定性的严重损伤，发生率约占颈椎损伤的10%。由于具...", "lemmaUrl": "http://baike.baidu.com/item/%E6%9E%A2%E6%A4%8E%E9%BD%BF%E7%AA%81%E9%AA%A8%E6%8A%98/508531", "lemmaPic": []}, {"lemmaId": 1331152, "lemmaTitle": "半月线疝", "lemmaCroppedTitle": "半月线疝", "lemmaDesc": "半月线位于腹直肌鞘外缘，是伸展于第九肋骨和耻骨结节之间的一条弧线，也就是腹内斜肌...", "lemmaUrl": "http://baike.baidu.com/item/%E5%8D%8A%E6%9C%88%E7%BA%BF%E7%96%9D/1331152", "lemmaPic": []}, {"lemmaId": 847262, "lemmaTitle": "油彩皮炎", "lemmaCroppedTitle": "油彩皮炎", "lemmaDesc": "油彩皮炎又名演员油彩皮炎，系指从事戏剧、电影、电视等文艺工作者因使用油彩化妆引起...", "lemmaUrl": "http://baike.baidu.com/item/%E6%B2%B9%E5%BD%A9%E7%9A%AE%E7%82%8E/847262", "lemmaPic": []}, {"lemmaId": 4547006, "lemmaTitle": "巨细胞病毒性葡萄膜炎", "lemmaCroppedTitle": "巨细胞病毒性葡萄膜炎", "lemmaDesc": "巨细胞病毒性葡萄膜炎是由于巨细胞病毒（CMV）引起的葡萄膜炎，免疫功能正常者一般...", "lemmaUrl": "http://baike.baidu.com/item/%E5%B7%A8%E7%BB%86%E8%83%9E%E7%97%85%E6%AF%92%E6%80%A7%E8%91%A1%E8%90%84%E8%86%9C%E7%82%8E/4547006", "lemmaPic": []}, {"lemmaId": 7708929, "lemmaTitle": "小儿先天性斜颈", "lemmaCroppedTitle": "小儿先天性斜颈", "lemmaDesc": "本词条由:唐山市人民医院 骨科  \t\t\t\t\t\t\t\t\t\t\t\t\t\t\t\t\t\t\t\t\t\t\t...", "lemmaUrl": "http://baike.baidu.com/item/%E5%B0%8F%E5%84%BF%E5%85%88%E5%A4%A9%E6%80%A7%E6%96%9C%E9%A2%88/7708929", "lemmaPic": []}, {"lemmaId": 9919436, "lemmaTitle": "莱姆心脏炎", "lemmaCroppedTitle": "莱姆心脏炎", "lemmaDesc": "莱姆病（Lymedisease，LD），又称为蜱媒螺旋体病或莱姆疏螺旋体病，是一...", "lemmaUrl": "http://baike.baidu.com/item/%E8%8E%B1%E5%A7%86%E5%BF%83%E8%84%8F%E7%82%8E/9919436", "lemmaPic": []}, {"lemmaId": 7253720, "lemmaTitle": "小儿女性性早熟", "lemmaCroppedTitle": "小儿女性性早熟", "lemmaDesc": "性早熟即青春期发育明显提前，女性性早熟占全部女性的0.2‰左右。由于每个正常儿童...", "lemmaUrl": "http://baike.baidu.com/item/%E5%B0%8F%E5%84%BF%E5%A5%B3%E6%80%A7%E6%80%A7%E6%97%A9%E7%86%9F/7253720", "lemmaPic": []}, {"lemmaId": 9839323, "lemmaTitle": "肠道病毒Cox A16型手足口病", "lemmaCroppedTitle": "肠道病毒Cox A16型手足口病", "lemmaDesc": "肠道病毒Cox A16手足口病是由肠道病毒柯萨奇A16（Cox A16）感染所致...", "lemmaUrl": "http://baike.baidu.com/item/%E8%82%A0%E9%81%93%E7%97%85%E6%AF%92Cox%20A16%E5%9E%8B%E6%89%8B%E8%B6%B3%E5%8F%A3%E7%97%85/9839323", "lemmaPic": []}, {"lemmaId": 4002867, "lemmaTitle": "分离性垂直偏斜", "lemmaCroppedTitle": "分离性垂直偏斜", "lemmaDesc": "分离性垂直偏斜为两眼交替遮盖时，遮盖眼上斜，是与一般斜视的神经支配法则相矛盾的一...", "lemmaUrl": "http://baike.baidu.com/item/%E5%88%86%E7%A6%BB%E6%80%A7%E5%9E%82%E7%9B%B4%E5%81%8F%E6%96%9C/4002867", "lemmaPic": []}, {"lemmaId": 8283140, "lemmaTitle": "尿道旁腺癌", "lemmaCroppedTitle": "尿道旁腺癌", "lemmaDesc": "尿道旁腺癌发生在外阴前庭的尿道开口周围，尿道旁腺癌是少见的恶性肿瘤。", "lemmaUrl": "http://baike.baidu.com/item/%E5%B0%BF%E9%81%93%E6%97%81%E8%85%BA%E7%99%8C/8283140", "lemmaPic": []}, {"lemmaId": 2130495, "lemmaTitle": "胰腺瘘", "lemmaCroppedTitle": "胰腺瘘", "lemmaDesc": "胰腺瘘大部分是由于急性重症胰腺炎术后并发症所致，亦可由于外伤、胰腺活检术后发生。...", "lemmaUrl": "http://baike.baidu.com/item/%E8%83%B0%E8%85%BA%E7%98%98/2130495", "lemmaPic": []}, {"lemmaId": 10108739, "lemmaTitle": "纤维毛囊瘤", "lemmaCroppedTitle": "纤维毛囊瘤", "lemmaDesc": "纤维毛囊瘤是一种少见的皮肤良性错构瘤，由Birt等于1977年首次报道。它是一种...", "lemmaUrl": "http://baike.baidu.com/item/%E7%BA%A4%E7%BB%B4%E6%AF%9B%E5%9B%8A%E7%98%A4/10108739", "lemmaPic": []}, {"lemmaId": 6218580, "lemmaTitle": "迟发性外伤性脑内血肿", "lemmaCroppedTitle": "迟发性外伤性脑内血肿", "lemmaDesc": "迟发性外伤性脑内血肿是头部外伤后，首次CT检查未发现脑内血肿，经过一段时间后再次...", "lemmaUrl": "http://baike.baidu.com/item/%E8%BF%9F%E5%8F%91%E6%80%A7%E5%A4%96%E4%BC%A4%E6%80%A7%E8%84%91%E5%86%85%E8%A1%80%E8%82%BF/6218580", "lemmaPic": []}, {"lemmaId": 10574798, "lemmaTitle": "乏特壶腹周围癌", "lemmaCroppedTitle": "乏特壶腹周围癌", "lemmaDesc": "乏特壶腹周围癌系指生长在乏特壶腹、十二指肠乳头、胆总管下端、十二指肠内侧壁癌的总...", "lemmaUrl": "http://baike.baidu.com/item/%E4%B9%8F%E7%89%B9%E5%A3%B6%E8%85%B9%E5%91%A8%E5%9B%B4%E7%99%8C/10574798", "lemmaPic": []}, {"lemmaId": 6520459, "lemmaTitle": "盲肠肉芽肿", "lemmaCroppedTitle": "盲肠肉芽肿", "lemmaDesc": "盲肠肉芽肿有盲肠阿米巴肉芽肿和回盲部血吸虫病性肉芽肿。盲肠阿米巴肉芽肿是一种溶组...", "lemmaUrl": "http://baike.baidu.com/item/%E7%9B%B2%E8%82%A0%E8%82%89%E8%8A%BD%E8%82%BF/6520459", "lemmaPic": []}, {"lemmaId": 7254296, "lemmaTitle": "耻骨炎", "lemmaCroppedTitle": "耻骨炎", "lemmaDesc": "耻骨炎是发生于耻骨联合区的非化脓性病变，表现为耻骨联合和耻骨支处疼痛，以女性为多...", "lemmaUrl": "http://baike.baidu.com/item/%E8%80%BB%E9%AA%A8%E7%82%8E/7254296", "lemmaPic": []}, {"lemmaId": 3928226, "lemmaTitle": "毛孢子菌病", "lemmaCroppedTitle": "毛孢子菌病", "lemmaDesc": "毛孢子菌病是由毛孢子菌引起的浅表性和系统性感染，多见于热带地区。某些温带地区也有...", "lemmaUrl": "http://baike.baidu.com/item/%E6%AF%9B%E5%AD%A2%E5%AD%90%E8%8F%8C%E7%97%85/3928226", "lemmaPic": []}, {"lemmaId": 917275, "lemmaTitle": "喉部创伤", "lemmaCroppedTitle": "喉部创伤", "lemmaDesc": "喉部创伤有闭合伤与开放伤两大类，急性喉外伤易引起呼吸道阻塞，可危及生命，处理不当...", "lemmaUrl": "http://baike.baidu.com/item/%E5%96%89%E9%83%A8%E5%88%9B%E4%BC%A4/917275", "lemmaPic": []}, {"lemmaId": 8596873, "lemmaTitle": "粗制棉子油中毒", "lemmaCroppedTitle": "粗制棉子油中毒", "lemmaDesc": "棉子又名木棉子、棉花核，为锦葵科植物草棉的种子。棉子油为棉子所榨取的脂肪油，为棉...", "lemmaUrl": "http://baike.baidu.com/item/%E7%B2%97%E5%88%B6%E6%A3%89%E5%AD%90%E6%B2%B9%E4%B8%AD%E6%AF%92/8596873", "lemmaPic": []}, {"lemmaId": 2288523, "lemmaTitle": "神经病性关节病", "lemmaCroppedTitle": "神经病性关节病", "lemmaDesc": "神经病性关节病（neuropathic arthropathy）又称神经营养性关...", "lemmaUrl": "http://baike.baidu.com/item/%E7%A5%9E%E7%BB%8F%E7%97%85%E6%80%A7%E5%85%B3%E8%8A%82%E7%97%85/2288523", "lemmaPic": []}, {"lemmaId": 5417961, "lemmaTitle": "蹄铁形肾", "lemmaCroppedTitle": "蹄铁形肾", "lemmaDesc": "蹄铁形肾为较常见的一种先天畸形，男多于女，约为4：1，任何年龄都可发现，约有半数...", "lemmaUrl": "http://baike.baidu.com/item/%E8%B9%84%E9%93%81%E5%BD%A2%E8%82%BE/5417961", "lemmaPic": []}, {"lemmaId": 768498, "lemmaTitle": "急性及亚急性脑内血肿", "lemmaCroppedTitle": "急性及亚急性脑内血肿", "lemmaDesc": "急性及亚急性脑内血肿为外伤性脑内血肿，绝大多数属急性，少数为亚急性，特别是位于额...", "lemmaUrl": "http://baike.baidu.com/item/%E6%80%A5%E6%80%A7%E5%8F%8A%E4%BA%9A%E6%80%A5%E6%80%A7%E8%84%91%E5%86%85%E8%A1%80%E8%82%BF/768498", "lemmaPic": []}, {"lemmaId": 2235006, "lemmaTitle": "阴道血管肉瘤", "lemmaCroppedTitle": "阴道血管肉瘤", "lemmaDesc": "阴道血管肉瘤临床极为罕见，发病在年龄18～86岁，中位年龄49岁。主要表现为阴道...", "lemmaUrl": "http://baike.baidu.com/item/%E9%98%B4%E9%81%93%E8%A1%80%E7%AE%A1%E8%82%89%E7%98%A4/2235006", "lemmaPic": []}, {"lemmaId": 9668680, "lemmaTitle": "心脏穿透伤", "lemmaCroppedTitle": "心脏穿透伤", "lemmaDesc": "心脏穿透伤可由枪弹、弹片及锐器引起，枪弹伤的死亡率明显高于锐器伤。损伤部位以右心...", "lemmaUrl": "http://baike.baidu.com/item/%E5%BF%83%E8%84%8F%E7%A9%BF%E9%80%8F%E4%BC%A4/9668680", "lemmaPic": []}, {"lemmaId": 5321187, "lemmaTitle": "颞下间隙感染", "lemmaCroppedTitle": "颞下间隙感染", "lemmaDesc": "颞下间隙感染是指颞下间隙的急性化脓性炎症。颞下间隙位置深在，位于颅中窝底。其顶为...", "lemmaUrl": "http://baike.baidu.com/item/%E9%A2%9E%E4%B8%8B%E9%97%B4%E9%9A%99%E6%84%9F%E6%9F%93/5321187", "lemmaPic": []}, {"lemmaId": 8700685, "lemmaTitle": "结、直肠黑变病", "lemmaCroppedTitle": "结、直肠黑变病", "lemmaDesc": "结直肠黑变病（MC）是指结直肠固有膜内巨噬细胞含有脂褐素样物质的一种黏膜色素沉着...", "lemmaUrl": "http://baike.baidu.com/item/%E7%BB%93%E3%80%81%E7%9B%B4%E8%82%A0%E9%BB%91%E5%8F%98%E7%97%85/8700685", "lemmaPic": []}, {"lemmaId": 8950662, "lemmaTitle": "弯曲菌感染", "lemmaCroppedTitle": "弯曲菌感染", "lemmaDesc": "弯曲菌是一种能活动的，弯曲的微嗜氧革兰阴性杆菌，它可引起脓毒性血栓性静脉炎、菌血...", "lemmaUrl": "http://baike.baidu.com/item/%E5%BC%AF%E6%9B%B2%E8%8F%8C%E6%84%9F%E6%9F%93/8950662", "lemmaPic": []}, {"lemmaId": 3972473, "lemmaTitle": "柯莱斯骨折", "lemmaCroppedTitle": "柯莱斯骨折", "lemmaDesc": "柯莱斯骨折（Colles fracture）是指发生于桡骨远端骨松质，并向背侧移...", "lemmaUrl": "http://baike.baidu.com/item/%E6%9F%AF%E8%8E%B1%E6%96%AF%E9%AA%A8%E6%8A%98/3972473", "lemmaPic": []}, {"lemmaId": 4002004, "lemmaTitle": "微小度数斜视", "lemmaCroppedTitle": "微小度数斜视", "lemmaDesc": "微小度数斜视为斜视角小于10△（5°）的斜视，常合并有不同程度的弱视、旁中心注视...", "lemmaUrl": "http://baike.baidu.com/item/%E5%BE%AE%E5%B0%8F%E5%BA%A6%E6%95%B0%E6%96%9C%E8%A7%86/4002004", "lemmaPic": []}, {"lemmaId": 10455842, "lemmaTitle": "咽侧壁憩室", "lemmaCroppedTitle": "咽侧壁憩室", "lemmaDesc": "咽侧壁憩室根据大小与位置不同有不同表现，小的憩室可有口臭、咽部梗阻感、异物感、食...", "lemmaUrl": "http://baike.baidu.com/item/%E5%92%BD%E4%BE%A7%E5%A3%81%E6%86%A9%E5%AE%A4/10455842", "lemmaPic": []}, {"lemmaId": 503227, "lemmaTitle": "气管先天性疾病", "lemmaCroppedTitle": "气管先天性疾病", "lemmaDesc": "出生后即呈现程度轻重不等的阻塞性呼吸困难。吸气时可出现喘鸣，喂食困难，生长发育延...", "lemmaUrl": "http://baike.baidu.com/item/%E6%B0%94%E7%AE%A1%E5%85%88%E5%A4%A9%E6%80%A7%E7%96%BE%E7%97%85/503227", "lemmaPic": []}, {"lemmaId": 5893541, "lemmaTitle": "新生儿B族链球菌感染", "lemmaCroppedTitle": "新生儿B族链球菌感染", "lemmaDesc": "在新生儿期因B族链球菌(简称GBS)感染引起的疾病为新生儿B族链球菌感染。新生儿...", "lemmaUrl": "http://baike.baidu.com/item/%E6%96%B0%E7%94%9F%E5%84%BFB%E6%97%8F%E9%93%BE%E7%90%83%E8%8F%8C%E6%84%9F%E6%9F%93/5893541", "lemmaPic": []}, {"lemmaId": 6531590, "lemmaTitle": "外阴纤维肉瘤", "lemmaCroppedTitle": "外阴纤维肉瘤", "lemmaDesc": "外阴纤维肉瘤是一种罕见的软组织肉瘤，是由成纤维细胞和胶原纤维形成的恶性肿瘤，生长...", "lemmaUrl": "http://baike.baidu.com/item/%E5%A4%96%E9%98%B4%E7%BA%A4%E7%BB%B4%E8%82%89%E7%98%A4/6531590", "lemmaPic": []}, {"lemmaId": 10456344, "lemmaTitle": "咽部硬结病", "lemmaCroppedTitle": "咽部硬结病", "lemmaDesc": "咽部硬结病是一种慢性进行性肉芽肿病变。常先发生于鼻部，缓慢向上唇、鼻咽、腭部、咽...", "lemmaUrl": "http://baike.baidu.com/item/%E5%92%BD%E9%83%A8%E7%A1%AC%E7%BB%93%E7%97%85/10456344", "lemmaPic": []}, {"lemmaId": 2806234, "lemmaTitle": "小儿阻塞性睡眠呼吸暂停", "lemmaCroppedTitle": "小儿阻塞性睡眠呼吸暂停", "lemmaDesc": "睡眠呼吸暂停或睡眠呼吸障碍是指睡眠过程中出现的呼吸暂停、呼吸障碍，包括阻塞性睡眠...", "lemmaUrl": "http://baike.baidu.com/item/%E5%B0%8F%E5%84%BF%E9%98%BB%E5%A1%9E%E6%80%A7%E7%9D%A1%E7%9C%A0%E5%91%BC%E5%90%B8%E6%9A%82%E5%81%9C/2806234", "lemmaPic": []}, {"lemmaId": 10188851, "lemmaTitle": "驱蛔灵中毒", "lemmaCroppedTitle": "驱蛔灵中毒", "lemmaDesc": "驱蛔灵中毒又称枸橼酸哌哔嗪中毒，枸橼酸哌哔嗪为临床广泛应用的驱肠虫药物，驱蛔、驱...", "lemmaUrl": "http://baike.baidu.com/item/%E9%A9%B1%E8%9B%94%E7%81%B5%E4%B8%AD%E6%AF%92/10188851", "lemmaPic": []}, {"lemmaId": 6643712, "lemmaTitle": "原发性慢性闭角型青光眼", "lemmaCroppedTitle": "原发性慢性闭角型青光眼", "lemmaDesc": "原发性慢性闭角型青光眼是一类由目前尚不完全清楚的原因而导致的房角突然或进行性关闭...", "lemmaUrl": "http://baike.baidu.com/item/%E5%8E%9F%E5%8F%91%E6%80%A7%E6%85%A2%E6%80%A7%E9%97%AD%E8%A7%92%E5%9E%8B%E9%9D%92%E5%85%89%E7%9C%BC/6643712", "lemmaPic": []}, {"lemmaId": 2159892, "lemmaTitle": "杆菌性上皮样血管瘤病", "lemmaCroppedTitle": "杆菌性上皮样血管瘤病", "lemmaDesc": "杆菌性上皮样血管瘤病亦称杆菌性血骨病或上皮样血管瘤病。是从艾滋病患者身上发现的一...", "lemmaUrl": "http://baike.baidu.com/item/%E6%9D%86%E8%8F%8C%E6%80%A7%E4%B8%8A%E7%9A%AE%E6%A0%B7%E8%A1%80%E7%AE%A1%E7%98%A4%E7%97%85/2159892", "lemmaPic": []}, {"lemmaId": 4652610, "lemmaTitle": "腹直肌鞘内血肿", "lemmaCroppedTitle": "腹直肌鞘内血肿", "lemmaDesc": "腹直肌后的血管在某种因素（外力或腹压等）的作用下发生破裂出血时，腱鞘内极易形成的...", "lemmaUrl": "http://baike.baidu.com/item/%E8%85%B9%E7%9B%B4%E8%82%8C%E9%9E%98%E5%86%85%E8%A1%80%E8%82%BF/4652610", "lemmaPic": []}, {"lemmaId": 6273450, "lemmaTitle": "团癣", "lemmaCroppedTitle": "团癣", "lemmaDesc": "团癣是霉菌引起传染性皮肤病，可分浅部霉菌病和深部霉菌病。浅部霉菌病，夏季多发，部...", "lemmaUrl": "http://baike.baidu.com/item/%E5%9B%A2%E7%99%A3/6273450", "lemmaPic": []}, {"lemmaId": 1965792, "lemmaTitle": "原发性食管恶性黑色素瘤", "lemmaCroppedTitle": "原发性食管恶性黑色素瘤", "lemmaDesc": "黑色素主要分布于个人的皮肤、毛发、眼球的脉络膜、睫状体以及虹膜表面等部位，是一种...", "lemmaUrl": "http://baike.baidu.com/item/%E5%8E%9F%E5%8F%91%E6%80%A7%E9%A3%9F%E7%AE%A1%E6%81%B6%E6%80%A7%E9%BB%91%E8%89%B2%E7%B4%A0%E7%98%A4/1965792", "lemmaPic": []}, {"lemmaId": 7768669, "lemmaTitle": "鼻红粒病", "lemmaCroppedTitle": "鼻红粒病", "lemmaDesc": "鼻红粒病罕见。主要发生在儿童鼻部的局限性红斑及粒状小丘疹，同时伴有鼻部多汗。", "lemmaUrl": "http://baike.baidu.com/item/%E9%BC%BB%E7%BA%A2%E7%B2%92%E7%97%85/7768669", "lemmaPic": []}, {"lemmaId": 3620530, "lemmaTitle": "三痹", "lemmaCroppedTitle": "三痹", "lemmaDesc": "三痹是指行痹、痛痹、着痹三种痹证的合称。《素问・痹论》：“风寒湿三气杂至，合而为...", "lemmaUrl": "http://baike.baidu.com/item/%E4%B8%89%E7%97%B9/3620530", "lemmaPic": []}, {"lemmaId": 2015759, "lemmaTitle": "腹部大血管损伤", "lemmaCroppedTitle": "腹部大血管损伤", "lemmaDesc": "腹部大血管损伤主要是指腹主动脉或下腔静脉损伤，伤情严重。腹主动脉损伤的患者中有半...", "lemmaUrl": "http://baike.baidu.com/item/%E8%85%B9%E9%83%A8%E5%A4%A7%E8%A1%80%E7%AE%A1%E6%8D%9F%E4%BC%A4/2015759", "lemmaPic": []}, {"lemmaId": 7631906, "lemmaTitle": "小儿急性偏瘫", "lemmaCroppedTitle": "小儿急性偏瘫", "lemmaDesc": "小儿急性偏瘫现称为脑动脉血栓形成，是一组临床综合征，现在多以其病理命名，即脑动脉...", "lemmaUrl": "http://baike.baidu.com/item/%E5%B0%8F%E5%84%BF%E6%80%A5%E6%80%A7%E5%81%8F%E7%98%AB/7631906", "lemmaPic": []}, {"lemmaId": 7849152, "lemmaTitle": "童年社会功能障碍", "lemmaCroppedTitle": "童年社会功能障碍", "lemmaDesc": "根据国内CCMD-3诊断标准，童年社会功能障碍包括选择性缄默和儿童反应性依恋障碍...", "lemmaUrl": "http://baike.baidu.com/item/%E7%AB%A5%E5%B9%B4%E7%A4%BE%E4%BC%9A%E5%8A%9F%E8%83%BD%E9%9A%9C%E7%A2%8D/7849152", "lemmaPic": []}, {"lemmaId": 5823900, "lemmaTitle": "棘阿米巴性角膜炎", "lemmaCroppedTitle": "棘阿米巴性角膜炎", "lemmaDesc": "棘阿米巴角膜炎（AK）是由棘阿米巴原虫引起的一种新的感染性角膜病首先发现于197...", "lemmaUrl": "http://baike.baidu.com/item/%E6%A3%98%E9%98%BF%E7%B1%B3%E5%B7%B4%E6%80%A7%E8%A7%92%E8%86%9C%E7%82%8E/5823900", "lemmaPic": []}, {"lemmaId": 768558, "lemmaTitle": "基底节血肿", "lemmaCroppedTitle": "基底节血肿", "lemmaDesc": "外伤性基底节区血肿是在CT广泛应用之后才发现的特殊部位现象。其发生率占颅脑损伤的...", "lemmaUrl": "http://baike.baidu.com/item/%E5%9F%BA%E5%BA%95%E8%8A%82%E8%A1%80%E8%82%BF/768558", "lemmaPic": []}, {"lemmaId": 8410014, "lemmaTitle": "肠杆菌肺炎", "lemmaCroppedTitle": "肠杆菌肺炎", "lemmaDesc": "肠杆菌肺炎过去极为罕见。近几十年。随着广谱抗生素和呼吸医疗器械应用的增多，肠杆菌...", "lemmaUrl": "http://baike.baidu.com/item/%E8%82%A0%E6%9D%86%E8%8F%8C%E8%82%BA%E7%82%8E/8410014", "lemmaPic": []}, {"lemmaId": 12810972, "lemmaTitle": "多肌炎和皮肌炎", "lemmaCroppedTitle": "多肌炎和皮肌炎", "lemmaDesc": "多肌炎和皮肌炎（polymyositis and dermatomyositis...", "lemmaUrl": "http://baike.baidu.com/item/%E5%A4%9A%E8%82%8C%E7%82%8E%E5%92%8C%E7%9A%AE%E8%82%8C%E7%82%8E/12810972", "lemmaPic": []}, {"lemmaId": 3173470, "lemmaTitle": "食管肉瘤", "lemmaCroppedTitle": "食管肉瘤", "lemmaDesc": "食管肉瘤是源于间叶组织的恶性肿瘤，约占消化道肉瘤的8%，约占食管恶性肿瘤的0.5...", "lemmaUrl": "http://baike.baidu.com/item/%E9%A3%9F%E7%AE%A1%E8%82%89%E7%98%A4/3173470", "lemmaPic": []}, {"lemmaId": 12428847, "lemmaTitle": "小儿郎格罕细胞性组织细胞增生症", "lemmaCroppedTitle": "小儿郎格罕细胞性组织细胞增生症", "lemmaDesc": "郎格罕细胞性组织细胞增生症（Langerhans cell histiocyto...", "lemmaUrl": "http://baike.baidu.com/item/%E5%B0%8F%E5%84%BF%E9%83%8E%E6%A0%BC%E7%BD%95%E7%BB%86%E8%83%9E%E6%80%A7%E7%BB%84%E7%BB%87%E7%BB%86%E8%83%9E%E5%A2%9E%E7%94%9F%E7%97%87/12428847", "lemmaPic": []}, {"lemmaId": 2115876, "lemmaTitle": "空鞍综合征", "lemmaCroppedTitle": "空鞍综合征", "lemmaDesc": "空鞍综合征是指蛛网膜下腔疝入垂体窝内，使垂体受压变形及蝶鞍扩大引起的综合征。空鞍...", "lemmaUrl": "http://baike.baidu.com/item/%E7%A9%BA%E9%9E%8D%E7%BB%BC%E5%90%88%E5%BE%81/2115876", "lemmaPic": []}, {"lemmaId": 2643849, "lemmaTitle": "强直性脊柱炎性巩膜炎", "lemmaCroppedTitle": "强直性脊柱炎性巩膜炎", "lemmaDesc": "强直性脊柱炎性巩膜炎（ankylosing spondylitis scleri...", "lemmaUrl": "http://baike.baidu.com/item/%E5%BC%BA%E7%9B%B4%E6%80%A7%E8%84%8A%E6%9F%B1%E7%82%8E%E6%80%A7%E5%B7%A9%E8%86%9C%E7%82%8E/2643849", "lemmaPic": []}, {"lemmaId": 4195683, "lemmaTitle": "疼痛性脂肪疝", "lemmaCroppedTitle": "疼痛性脂肪疝", "lemmaDesc": "疼痛性脂肪疝又称为痛性压迫性足部丘疹，是一种与压力有关的疼痛性足跟部假性丘疹，临...", "lemmaUrl": "http://baike.baidu.com/item/%E7%96%BC%E7%97%9B%E6%80%A7%E8%84%82%E8%82%AA%E7%96%9D/4195683", "lemmaPic": []}, {"lemmaId": 3393256, "lemmaTitle": "毛鞘棘皮瘤", "lemmaCroppedTitle": "毛鞘棘皮瘤", "lemmaDesc": "毛鞘棘皮瘤是一种向终末部毛囊，即漏斗部和峡部分化的毛囊肿瘤（漏斗部由表皮延伸而来...", "lemmaUrl": "http://baike.baidu.com/item/%E6%AF%9B%E9%9E%98%E6%A3%98%E7%9A%AE%E7%98%A4/3393256", "lemmaPic": []}, {"lemmaId": 10357192, "lemmaTitle": "先天性外展性髋挛缩", "lemmaCroppedTitle": "先天性外展性髋挛缩", "lemmaDesc": "先天性外展性髋挛缩是一种姿势畸形，主要表现为双下肢不等长。虽然发病较高，但往往被...", "lemmaUrl": "http://baike.baidu.com/item/%E5%85%88%E5%A4%A9%E6%80%A7%E5%A4%96%E5%B1%95%E6%80%A7%E9%AB%8B%E6%8C%9B%E7%BC%A9/10357192", "lemmaPic": []}, {"lemmaId": 6006309, "lemmaTitle": "非甾体类抗炎药物性肾病", "lemmaCroppedTitle": "非甾体类抗炎药物性肾病", "lemmaDesc": "非甾体类抗炎药（NSAIDs）是指类固醇类激素以外的一类抗炎药物，具有解热止痛、...", "lemmaUrl": "http://baike.baidu.com/item/%E9%9D%9E%E7%94%BE%E4%BD%93%E7%B1%BB%E6%8A%97%E7%82%8E%E8%8D%AF%E7%89%A9%E6%80%A7%E8%82%BE%E7%97%85/6006309", "lemmaPic": []}, {"lemmaId": 3328823, "lemmaTitle": "肺弓形体病", "lemmaCroppedTitle": "肺弓形体病", "lemmaDesc": "肺弓形体病为呼吸内科疾病，由刚地弓形体所致的肺部炎症，属于人畜共患疾病。临床表现...", "lemmaUrl": "http://baike.baidu.com/item/%E8%82%BA%E5%BC%93%E5%BD%A2%E4%BD%93%E7%97%85/3328823", "lemmaPic": []}, {"lemmaId": 5243362, "lemmaTitle": "上隐斜", "lemmaCroppedTitle": "上隐斜", "lemmaDesc": "上隐斜是眼位有向上偏斜的倾向，平时两眼可用矫正性融合反射来控制，使不出现斜位并能...", "lemmaUrl": "http://baike.baidu.com/item/%E4%B8%8A%E9%9A%90%E6%96%9C/5243362", "lemmaPic": []}, {"lemmaId": 381515, "lemmaTitle": "小儿海蓝组织细胞增生症", "lemmaCroppedTitle": "小儿海蓝组织细胞增生症", "lemmaDesc": "海蓝组织细胞增生症（sea-blue histiocytosis）系常染色体隐性...", "lemmaUrl": "http://baike.baidu.com/item/%E5%B0%8F%E5%84%BF%E6%B5%B7%E8%93%9D%E7%BB%84%E7%BB%87%E7%BB%86%E8%83%9E%E5%A2%9E%E7%94%9F%E7%97%87/381515", "lemmaPic": []}, {"lemmaId": 15708603, "lemmaTitle": "外耳道耵聍栓塞", "lemmaCroppedTitle": "外耳道耵聍栓塞", "lemmaDesc": "外耳道软骨部皮肤具有耵聍腺，其淡黄色黏稠的分泌物称耵聍，俗称耳屎。耵聍在空气中干...", "lemmaUrl": "http://baike.baidu.com/item/%E5%A4%96%E8%80%B3%E9%81%93%E8%80%B5%E8%81%8D%E6%A0%93%E5%A1%9E/15708603", "lemmaPic": []}, {"lemmaId": 9612274, "lemmaTitle": "伤口肉毒症", "lemmaCroppedTitle": "伤口肉毒症", "lemmaDesc": "伤口肉毒症是肉毒梭状芽胞杆菌经污染的伤口侵入机体引起的神经肌肉性中毒。临床以下行...", "lemmaUrl": "http://baike.baidu.com/item/%E4%BC%A4%E5%8F%A3%E8%82%89%E6%AF%92%E7%97%87/9612274", "lemmaPic": []}, {"lemmaId": 16746310, "lemmaTitle": "纵隔淋巴结肿大", "lemmaCroppedTitle": "纵隔淋巴结肿大", "lemmaDesc": "纵隔淋巴结肿大多继发于其他脏器疾病，可无特殊症状，但肿大的淋巴结可压迫食管产生吞...", "lemmaUrl": "http://baike.baidu.com/item/%E7%BA%B5%E9%9A%94%E6%B7%8B%E5%B7%B4%E7%BB%93%E8%82%BF%E5%A4%A7/16746310", "lemmaPic": []}, {"lemmaId": 12000425, "lemmaTitle": "低血磷性抗维生素D佝偻病", "lemmaCroppedTitle": "低血磷性抗维生素D佝偻病", "lemmaDesc": "低血磷性抗维生素D佝偻病是一种肾小管遗传缺陷性疾病。低血磷性抗维生素D佝偻病比较...", "lemmaUrl": "http://baike.baidu.com/item/%E4%BD%8E%E8%A1%80%E7%A3%B7%E6%80%A7%E6%8A%97%E7%BB%B4%E7%94%9F%E7%B4%A0D%E4%BD%9D%E5%81%BB%E7%97%85/12000425", "lemmaPic": []}, {"lemmaId": 459522, "lemmaTitle": "心肌梗死后心包炎", "lemmaCroppedTitle": "心肌梗死后心包炎", "lemmaDesc": "急性心肌梗死后并发的心包炎分为早期发生的心包炎、Dressler综合征和心室游离...", "lemmaUrl": "http://baike.baidu.com/item/%E5%BF%83%E8%82%8C%E6%A2%97%E6%AD%BB%E5%90%8E%E5%BF%83%E5%8C%85%E7%82%8E/459522", "lemmaPic": []}, {"lemmaId": 4654166, "lemmaTitle": "肠病原性大肠埃希杆菌感染", "lemmaCroppedTitle": "肠病原性大肠埃希杆菌感染", "lemmaDesc": "肠病原性大肠埃希杆菌感染是由肠病原性大肠埃希杆菌（EPEC）引起的肠道传染病。E...", "lemmaUrl": "http://baike.baidu.com/item/%E8%82%A0%E7%97%85%E5%8E%9F%E6%80%A7%E5%A4%A7%E8%82%A0%E5%9F%83%E5%B8%8C%E6%9D%86%E8%8F%8C%E6%84%9F%E6%9F%93/4654166", "lemmaPic": []}, {"lemmaId": 6541648, "lemmaTitle": "原发性乳腺淋巴瘤", "lemmaCroppedTitle": "原发性乳腺淋巴瘤", "lemmaDesc": "原发性乳腺淋巴瘤较为少见，有多种组织学类型，它们可以原发于乳腺，也可播散到乳腺。...", "lemmaUrl": "http://baike.baidu.com/item/%E5%8E%9F%E5%8F%91%E6%80%A7%E4%B9%B3%E8%85%BA%E6%B7%8B%E5%B7%B4%E7%98%A4/6541648", "lemmaPic": []}, {"lemmaId": 7252786, "lemmaTitle": "绝经期尿路感染", "lemmaCroppedTitle": "绝经期尿路感染", "lemmaDesc": "绝经期妇女泌尿系统感染的主要症状包括尿频、尿急、排尿困难、夜尿、尿不尽感及张力性...", "lemmaUrl": "http://baike.baidu.com/item/%E7%BB%9D%E7%BB%8F%E6%9C%9F%E5%B0%BF%E8%B7%AF%E6%84%9F%E6%9F%93/7252786", "lemmaPic": []}, {"lemmaId": 2388484, "lemmaTitle": "高脂蛋白血症Ⅱ型", "lemmaCroppedTitle": "高脂蛋白血症Ⅱ型", "lemmaDesc": "分为Ⅱa和Ⅱb两型。高脂蛋白血症Ⅱa型：代谢障碍，低密度脂蛋白（LDL）受体缺陷...", "lemmaUrl": "http://baike.baidu.com/item/%E9%AB%98%E8%84%82%E8%9B%8B%E7%99%BD%E8%A1%80%E7%97%87%E2%85%A1%E5%9E%8B/2388484", "lemmaPic": []}, {"lemmaId": 7254866, "lemmaTitle": "脊髓性肌肉萎缩", "lemmaCroppedTitle": "脊髓性肌肉萎缩", "lemmaDesc": "脊髓性肌肉萎缩（SMA）系指一类由于以脊髓前角细胞为主的变性导致肌无力和肌萎缩的...", "lemmaUrl": "http://baike.baidu.com/item/%E8%84%8A%E9%AB%93%E6%80%A7%E8%82%8C%E8%82%89%E8%90%8E%E7%BC%A9/7254866", "lemmaPic": []}, {"lemmaId": 968193, "lemmaTitle": "食管梅毒", "lemmaCroppedTitle": "食管梅毒", "lemmaDesc": "梅毒是由梅毒螺旋体所致的慢性传染病，是性病的一种，有先天性和后天性之分，先天性由...", "lemmaUrl": "http://baike.baidu.com/item/%E9%A3%9F%E7%AE%A1%E6%A2%85%E6%AF%92/968193", "lemmaPic": []}, {"lemmaId": 743387, "lemmaTitle": "霍乱样综合征", "lemmaCroppedTitle": "霍乱样综合征", "lemmaDesc": "霍乱样综合征目前多称为伪膜性肠炎，是主要发生于结肠的急性黏膜坏死性炎症，并覆有伪...", "lemmaUrl": "http://baike.baidu.com/item/%E9%9C%8D%E4%B9%B1%E6%A0%B7%E7%BB%BC%E5%90%88%E5%BE%81/743387", "lemmaPic": []}, {"lemmaId": 4610500, "lemmaTitle": "小儿X-连锁淋巴组织增生性疾病", "lemmaCroppedTitle": "小儿X-连锁淋巴组织增生性疾病", "lemmaDesc": "X-连锁淋巴组织增生性疾病（XLP）为一种T、B细胞均发生缺陷的联合免疫缺陷病，...", "lemmaUrl": "http://baike.baidu.com/item/%E5%B0%8F%E5%84%BFX-%E8%BF%9E%E9%94%81%E6%B7%8B%E5%B7%B4%E7%BB%84%E7%BB%87%E5%A2%9E%E7%94%9F%E6%80%A7%E7%96%BE%E7%97%85/4610500", "lemmaPic": []}, {"lemmaId": 2463882, "lemmaTitle": "非细菌性血栓性心内膜炎", "lemmaCroppedTitle": "非细菌性血栓性心内膜炎", "lemmaDesc": "非细菌性血栓性心内膜炎（NBTE）曾被称为“恶病质性心内膜炎”或“消耗性心内膜炎...", "lemmaUrl": "http://baike.baidu.com/item/%E9%9D%9E%E7%BB%86%E8%8F%8C%E6%80%A7%E8%A1%80%E6%A0%93%E6%80%A7%E5%BF%83%E5%86%85%E8%86%9C%E7%82%8E/2463882", "lemmaPic": []}, {"lemmaId": 6272585, "lemmaTitle": "酚类中毒", "lemmaCroppedTitle": "酚类中毒", "lemmaDesc": "常用酚类药物有石灰酸（苯酚）、来苏儿（煤酚皂溶液）、木馏油、雷锁辛（间苯二酚）、...", "lemmaUrl": "http://baike.baidu.com/item/%E9%85%9A%E7%B1%BB%E4%B8%AD%E6%AF%92/6272585", "lemmaPic": []}, {"lemmaId": 408944, "lemmaTitle": "卵巢纤维组织来源肿瘤", "lemmaCroppedTitle": "卵巢纤维组织来源肿瘤", "lemmaDesc": "卵巢纤维组织来源肿瘤是卵巢非特异性肿瘤组织之一。纤维组织来源肿瘤在卵巢较为罕见，...", "lemmaUrl": "http://baike.baidu.com/item/%E5%8D%B5%E5%B7%A2%E7%BA%A4%E7%BB%B4%E7%BB%84%E7%BB%87%E6%9D%A5%E6%BA%90%E8%82%BF%E7%98%A4/408944", "lemmaPic": []}, {"lemmaId": 911280, "lemmaTitle": "皮下裂头蚴病", "lemmaCroppedTitle": "皮下裂头蚴病", "lemmaDesc": "皮下裂头蚴病是由曼氏迭宫绦虫的幼虫――裂头蚴寄生于人体引起的慢性寄生虫病。多见于...", "lemmaUrl": "http://baike.baidu.com/item/%E7%9A%AE%E4%B8%8B%E8%A3%82%E5%A4%B4%E8%9A%B4%E7%97%85/911280", "lemmaPic": []}, {"lemmaId": 5412936, "lemmaTitle": "迷路窗破裂", "lemmaCroppedTitle": "迷路窗破裂", "lemmaDesc": "迷路窗膜破裂是指镫骨足板环状韧带、圆窗膜破裂致内耳外淋巴流入中耳腔而形成外淋巴瘘...", "lemmaUrl": "http://baike.baidu.com/item/%E8%BF%B7%E8%B7%AF%E7%AA%97%E7%A0%B4%E8%A3%82/5412936", "lemmaPic": []}, {"lemmaId": 5774793, "lemmaTitle": "阿洪病", "lemmaCroppedTitle": "阿洪病", "lemmaDesc": "阿洪病又称箍趾病、指（趾）断症，或自发性指（趾）脱离症，是指热带的一种地方病。由...", "lemmaUrl": "http://baike.baidu.com/item/%E9%98%BF%E6%B4%AA%E7%97%85/5774793", "lemmaPic": []}, {"lemmaId": 13883810, "lemmaTitle": "碱烧伤", "lemmaCroppedTitle": "碱烧伤", "lemmaDesc": "碱类物质包括钾、钠、钙、镁的氢氧化物以及碳酸氢钠、氟化物等。由于工业上的广泛应用...", "lemmaUrl": "http://baike.baidu.com/item/%E7%A2%B1%E7%83%A7%E4%BC%A4/13883810", "lemmaPic": []}, {"lemmaId": 1583362, "lemmaTitle": "无机磷中毒", "lemmaCroppedTitle": "无机磷中毒", "lemmaDesc": "无机磷的用途甚广，在制造火柴、焰火、爆竹信号弹、某些合成染料、人造磷肥、杀虫剂、...", "lemmaUrl": "http://baike.baidu.com/item/%E6%97%A0%E6%9C%BA%E7%A3%B7%E4%B8%AD%E6%AF%92/1583362", "lemmaPic": []}, {"lemmaId": 3933504, "lemmaTitle": "非哺乳期乳晕部瘘管", "lemmaCroppedTitle": "非哺乳期乳晕部瘘管", "lemmaDesc": "非哺乳期乳晕部瘘管是发生在乳晕部位的乳腺大导管的局部感染性病变。男女均可发病。临...", "lemmaUrl": "http://baike.baidu.com/item/%E9%9D%9E%E5%93%BA%E4%B9%B3%E6%9C%9F%E4%B9%B3%E6%99%95%E9%83%A8%E7%98%98%E7%AE%A1/3933504", "lemmaPic": []}, {"lemmaId": 8532349, "lemmaTitle": "创伤性鼻中隔穿孔", "lemmaCroppedTitle": "创伤性鼻中隔穿孔", "lemmaDesc": "创伤性鼻中隔穿孔多由外伤或鼻中隔矫正手术后遗症引起的，导致鼻中隔贯穿两侧鼻腔得永...", "lemmaUrl": "http://baike.baidu.com/item/%E5%88%9B%E4%BC%A4%E6%80%A7%E9%BC%BB%E4%B8%AD%E9%9A%94%E7%A9%BF%E5%AD%94/8532349", "lemmaPic": []}, {"lemmaId": 10659946, "lemmaTitle": "败血症肾损害", "lemmaCroppedTitle": "败血症肾损害", "lemmaDesc": "败血症是指细菌（致病菌和条件致病菌）侵入人血循环并在血液中生长繁殖而引起毒血症状...", "lemmaUrl": "http://baike.baidu.com/item/%E8%B4%A5%E8%A1%80%E7%97%87%E8%82%BE%E6%8D%9F%E5%AE%B3/10659946", "lemmaPic": []}, {"lemmaId": 13551018, "lemmaTitle": "小儿地中海贫血", "lemmaCroppedTitle": "小儿地中海贫血", "lemmaDesc": "小儿地中海贫血又称海洋性贫血、珠蛋白生成障碍性贫血，是一组遗传性溶血性贫血。其共...", "lemmaUrl": "http://baike.baidu.com/item/%E5%B0%8F%E5%84%BF%E5%9C%B0%E4%B8%AD%E6%B5%B7%E8%B4%AB%E8%A1%80/13551018", "lemmaPic": []}, {"lemmaId": 2838987, "lemmaTitle": "外伤性脑脓肿", "lemmaCroppedTitle": "外伤性脑脓肿", "lemmaDesc": "外伤性脑脓肿是指因颅脑外伤引起化脓性细菌侵入脑内所形成的脓肿。外伤性脑化脓性细菌...", "lemmaUrl": "http://baike.baidu.com/item/%E5%A4%96%E4%BC%A4%E6%80%A7%E8%84%91%E8%84%93%E8%82%BF/2838987", "lemmaPic": []}], "total": 7246, "totalPage": 73, "page": 51, "fromLemma": 0}