{"lemmaList": [{"lemmaId": 3260538, "lemmaTitle": "肺毛霉病", "lemmaCroppedTitle": "肺毛霉病", "lemmaDesc": "肺毛霉病是由毛霉菌目致病菌引起的肺感染性疾病。虽然少见，但发展迅速，死亡率高。临...", "lemmaUrl": "http://baike.baidu.com/item/%E8%82%BA%E6%AF%9B%E9%9C%89%E7%97%85/3260538", "lemmaPic": []}, {"lemmaId": 2235638, "lemmaTitle": "麻风性葡萄膜炎", "lemmaCroppedTitle": "麻风性葡萄膜炎", "lemmaDesc": "麻风是由麻风杆菌引起的一种慢性肉芽肿性疾病，又称为Hansen病，主要累及皮肤、...", "lemmaUrl": "http://baike.baidu.com/item/%E9%BA%BB%E9%A3%8E%E6%80%A7%E8%91%A1%E8%90%84%E8%86%9C%E7%82%8E/2235638", "lemmaPic": []}, {"lemmaId": 15181329, "lemmaTitle": "小儿腹股沟疝", "lemmaCroppedTitle": "小儿腹股沟疝", "lemmaDesc": "腹股沟疝是常见的腹壁先天性发育异常，小儿外科常见疾病之一，主要临床表现为幼儿出生...", "lemmaUrl": "http://baike.baidu.com/item/%E5%B0%8F%E5%84%BF%E8%85%B9%E8%82%A1%E6%B2%9F%E7%96%9D/15181329", "lemmaPic": []}, {"lemmaId": 10815861, "lemmaTitle": "赤脉传睛", "lemmaCroppedTitle": "赤脉传睛", "lemmaDesc": "赤脉传睛为赤脉起自两眦，渐向白睛侵犯的病症。以两眦部红赤涩痛为特征，多双眼、两眦...", "lemmaUrl": "http://baike.baidu.com/item/%E8%B5%A4%E8%84%89%E4%BC%A0%E7%9D%9B/10815861", "lemmaPic": []}, {"lemmaId": 10226429, "lemmaTitle": "骨软骨瘤病", "lemmaCroppedTitle": "骨软骨瘤病", "lemmaDesc": "骨软骨瘤病多见于膝关节，游离体可单发或多发，数目可多达数千个。又称滑膜软骨瘤病或...", "lemmaUrl": "http://baike.baidu.com/item/%E9%AA%A8%E8%BD%AF%E9%AA%A8%E7%98%A4%E7%97%85/10226429", "lemmaPic": []}, {"lemmaId": 4064148, "lemmaTitle": "药物相关性青光眼", "lemmaCroppedTitle": "药物相关性青光眼", "lemmaDesc": "常见的用药途径有眼局部表面给药和眼周组织内给药（球后、球旁、结膜下注射）。具有潜...", "lemmaUrl": "http://baike.baidu.com/item/%E8%8D%AF%E7%89%A9%E7%9B%B8%E5%85%B3%E6%80%A7%E9%9D%92%E5%85%89%E7%9C%BC/4064148", "lemmaPic": []}, {"lemmaId": 149080, "lemmaTitle": "颅内肿瘤性出血", "lemmaCroppedTitle": "颅内肿瘤性出血", "lemmaDesc": "部分颅内肿瘤可以引起颅内出血，特别是对于临床以出血为首发症状的脑肿瘤病人，由于起...", "lemmaUrl": "http://baike.baidu.com/item/%E9%A2%85%E5%86%85%E8%82%BF%E7%98%A4%E6%80%A7%E5%87%BA%E8%A1%80/149080", "lemmaPic": []}, {"lemmaId": 1864593, "lemmaTitle": "遗传性多发性骨软骨瘤", "lemmaCroppedTitle": "遗传性多发性骨软骨瘤", "lemmaDesc": "遗传性多发性骨软骨瘤也称为多发性外生骨疣、骨干端连续症、遗传性畸形性软骨发育异常...", "lemmaUrl": "http://baike.baidu.com/item/%E9%81%97%E4%BC%A0%E6%80%A7%E5%A4%9A%E5%8F%91%E6%80%A7%E9%AA%A8%E8%BD%AF%E9%AA%A8%E7%98%A4/1864593", "lemmaPic": []}, {"lemmaId": 4547488, "lemmaTitle": "剥脱综合征", "lemmaCroppedTitle": "剥脱综合征", "lemmaDesc": "剥脱性综合征（XFS）系多种眼组织综合的一种异常蛋白质，阻塞了小梁网，引起小梁功...", "lemmaUrl": "http://baike.baidu.com/item/%E5%89%A5%E8%84%B1%E7%BB%BC%E5%90%88%E5%BE%81/4547488", "lemmaPic": []}, {"lemmaId": 964931, "lemmaTitle": "外阴克罗恩病", "lemmaCroppedTitle": "外阴克罗恩病", "lemmaDesc": "克罗恩病（Crohn病）又称局限性肠炎，发生于女阴外阴部的为多发性溃疡，是病因未...", "lemmaUrl": "http://baike.baidu.com/item/%E5%A4%96%E9%98%B4%E5%85%8B%E7%BD%97%E6%81%A9%E7%97%85/964931", "lemmaPic": []}, {"lemmaId": 6225977, "lemmaTitle": "风湿性边缘性红斑", "lemmaCroppedTitle": "风湿性边缘性红斑", "lemmaDesc": "风湿性边缘性红斑为风湿热的主要症状。风湿热的皮损有两种形态：一种为扁平型，即环形...", "lemmaUrl": "http://baike.baidu.com/item/%E9%A3%8E%E6%B9%BF%E6%80%A7%E8%BE%B9%E7%BC%98%E6%80%A7%E7%BA%A2%E6%96%91/6225977", "lemmaPic": []}, {"lemmaId": 8528125, "lemmaTitle": "多肌腱末端病", "lemmaCroppedTitle": "多肌腱末端病", "lemmaDesc": "多肌腱末端病是未定型脊柱关节病、强直性脊柱炎、赖特综合征、银屑病关节炎和反应性关...", "lemmaUrl": "http://baike.baidu.com/item/%E5%A4%9A%E8%82%8C%E8%85%B1%E6%9C%AB%E7%AB%AF%E7%97%85/8528125", "lemmaPic": []}, {"lemmaId": 14124714, "lemmaTitle": "钾缺乏症", "lemmaCroppedTitle": "钾缺乏症", "lemmaDesc": "人体血清中钾浓度只有3.5～5.5mmol/L，但它却是生命活动所必需的。钾在人...", "lemmaUrl": "http://baike.baidu.com/item/%E9%92%BE%E7%BC%BA%E4%B9%8F%E7%97%87/14124714", "lemmaPic": []}, {"lemmaId": 7458079, "lemmaTitle": "脆甲症", "lemmaCroppedTitle": "脆甲症", "lemmaDesc": "脆甲症是由多种原因引起的获得性甲病，全身性疾病、局部因素都可以引起本病。先天性和...", "lemmaUrl": "http://baike.baidu.com/item/%E8%84%86%E7%94%B2%E7%97%87/7458079", "lemmaPic": []}, {"lemmaId": 10455805, "lemmaTitle": "舌甲状腺", "lemmaCroppedTitle": "舌甲状腺", "lemmaDesc": "舌甲状腺(lingual thyroid)，亦称舌异位甲状腺(ectopic t...", "lemmaUrl": "http://baike.baidu.com/item/%E8%88%8C%E7%94%B2%E7%8A%B6%E8%85%BA/10455805", "lemmaPic": []}, {"lemmaId": 844230, "lemmaTitle": "中心性软骨肉瘤", "lemmaCroppedTitle": "中心性软骨肉瘤", "lemmaDesc": "软骨肉瘤是指其细胞倾向于向软骨分化，分为中心性软骨肉瘤、周围性软骨肉瘤、骨膜性软...", "lemmaUrl": "http://baike.baidu.com/item/%E4%B8%AD%E5%BF%83%E6%80%A7%E8%BD%AF%E9%AA%A8%E8%82%89%E7%98%A4/844230", "lemmaPic": []}, {"lemmaId": 8790721, "lemmaTitle": "先天性小肠闭锁和肠狭窄", "lemmaCroppedTitle": "先天性小肠闭锁和肠狭窄", "lemmaDesc": "小肠根据形态和结构变化分为三段，分别为十二指肠、空肠和回肠。空、回肠闭锁是新生儿...", "lemmaUrl": "http://baike.baidu.com/item/%E5%85%88%E5%A4%A9%E6%80%A7%E5%B0%8F%E8%82%A0%E9%97%AD%E9%94%81%E5%92%8C%E8%82%A0%E7%8B%AD%E7%AA%84/8790721", "lemmaPic": []}, {"lemmaId": 1270448, "lemmaTitle": "特发性心室颤动", "lemmaCroppedTitle": "特发性心室颤动", "lemmaDesc": "特发性心室颤动（IVF）又称原发性心电疾病、心律失常性猝死综合征等，是指不明原因...", "lemmaUrl": "http://baike.baidu.com/item/%E7%89%B9%E5%8F%91%E6%80%A7%E5%BF%83%E5%AE%A4%E9%A2%A4%E5%8A%A8/1270448", "lemmaPic": []}, {"lemmaId": 881000, "lemmaTitle": "阴道平滑肌肉瘤", "lemmaCroppedTitle": "阴道平滑肌肉瘤", "lemmaDesc": "阴道平滑肌肉瘤少见，病灶多位于阴道中上段的阴道壁黏膜下间质或阴道黏膜，呈实性结节...", "lemmaUrl": "http://baike.baidu.com/item/%E9%98%B4%E9%81%93%E5%B9%B3%E6%BB%91%E8%82%8C%E8%82%89%E7%98%A4/881000", "lemmaPic": []}, {"lemmaId": 10091309, "lemmaTitle": "视束病变", "lemmaCroppedTitle": "视束病变", "lemmaDesc": "视束指视交叉与外侧膝状体之间的一段。每一侧视束包括来自同侧视网膜不交叉纤维和对侧...", "lemmaUrl": "http://baike.baidu.com/item/%E8%A7%86%E6%9D%9F%E7%97%85%E5%8F%98/10091309", "lemmaPic": []}, {"lemmaId": 1768386, "lemmaTitle": "眼睑恶性黑色素细胞肿瘤", "lemmaCroppedTitle": "眼睑恶性黑色素细胞肿瘤", "lemmaDesc": "眼睑恶性黑色素瘤占眼睑恶性病变的5.4%，为所有眼睑肿瘤的1%。其发生率稍低于头...", "lemmaUrl": "http://baike.baidu.com/item/%E7%9C%BC%E7%9D%91%E6%81%B6%E6%80%A7%E9%BB%91%E8%89%B2%E7%B4%A0%E7%BB%86%E8%83%9E%E8%82%BF%E7%98%A4/1768386", "lemmaPic": []}, {"lemmaId": 7252691, "lemmaTitle": "更年期功能性子宫出血", "lemmaCroppedTitle": "更年期功能性子宫出血", "lemmaDesc": "更年期功能性子宫出血，简称功血，是指无器质性疾病，由于下丘脑－垂体―性腺轴功能失...", "lemmaUrl": "http://baike.baidu.com/item/%E6%9B%B4%E5%B9%B4%E6%9C%9F%E5%8A%9F%E8%83%BD%E6%80%A7%E5%AD%90%E5%AE%AB%E5%87%BA%E8%A1%80/7252691", "lemmaPic": []}, {"lemmaId": 6841707, "lemmaTitle": "寄生虫性尿路感染", "lemmaCroppedTitle": "寄生虫性尿路感染", "lemmaDesc": "寄生虫性尿路感染包括滴虫性尿路感染、尿路丝虫病、尿路阿米巴病、肾棘球蚴病等。由于...", "lemmaUrl": "http://baike.baidu.com/item/%E5%AF%84%E7%94%9F%E8%99%AB%E6%80%A7%E5%B0%BF%E8%B7%AF%E6%84%9F%E6%9F%93/6841707", "lemmaPic": []}, {"lemmaId": 10455148, "lemmaTitle": "囊腺癌", "lemmaCroppedTitle": "囊腺癌", "lemmaDesc": "囊腺癌是罕见的恶性肿瘤，特征为以囊性生长为主，常见囊内乳头。该肿瘤在概念上是良性...", "lemmaUrl": "http://baike.baidu.com/item/%E5%9B%8A%E8%85%BA%E7%99%8C/10455148", "lemmaPic": []}, {"lemmaId": 4240861, "lemmaTitle": "进行性对称性红斑角皮症", "lemmaCroppedTitle": "进行性对称性红斑角皮症", "lemmaDesc": "进行性对称性红斑角皮症是常染色体显性遗传的角化异常性疾病。主要表现为双侧掌跖的进...", "lemmaUrl": "http://baike.baidu.com/item/%E8%BF%9B%E8%A1%8C%E6%80%A7%E5%AF%B9%E7%A7%B0%E6%80%A7%E7%BA%A2%E6%96%91%E8%A7%92%E7%9A%AE%E7%97%87/4240861", "lemmaPic": []}, {"lemmaId": 3282640, "lemmaTitle": "精囊恶性肿瘤", "lemmaCroppedTitle": "精囊恶性肿瘤", "lemmaDesc": "指发生于精囊的恶性肿瘤，罕见。常为乳头状腺癌和肉瘤。前者多发于50岁以后，后者则...", "lemmaUrl": "http://baike.baidu.com/item/%E7%B2%BE%E5%9B%8A%E6%81%B6%E6%80%A7%E8%82%BF%E7%98%A4/3282640", "lemmaPic": []}, {"lemmaId": 8055435, "lemmaTitle": "特发性癫痫综合征", "lemmaCroppedTitle": "特发性癫痫综合征", "lemmaDesc": "特发性癫痫综合征，是特定癫痫现象，不仅仅是癫痫发作类型。特发性癫痫综合征也称之为...", "lemmaUrl": "http://baike.baidu.com/item/%E7%89%B9%E5%8F%91%E6%80%A7%E7%99%AB%E7%97%AB%E7%BB%BC%E5%90%88%E5%BE%81/8055435", "lemmaPic": []}, {"lemmaId": 1147535, "lemmaTitle": "前庭大腺癌", "lemmaCroppedTitle": "前庭大腺癌", "lemmaDesc": "前庭大腺所发生的癌瘤较少见。前庭大腺的原发癌50%以上为腺癌，鳞状细胞癌占30%...", "lemmaUrl": "http://baike.baidu.com/item/%E5%89%8D%E5%BA%AD%E5%A4%A7%E8%85%BA%E7%99%8C/1147535", "lemmaPic": []}, {"lemmaId": 2075964, "lemmaTitle": "绝经期关节炎", "lemmaCroppedTitle": "绝经期关节炎", "lemmaDesc": "绝经期关节炎是女性更年期综合征的表现之一。女性更年期综合征是指女性由于性腺发生退...", "lemmaUrl": "http://baike.baidu.com/item/%E7%BB%9D%E7%BB%8F%E6%9C%9F%E5%85%B3%E8%8A%82%E7%82%8E/2075964", "lemmaPic": []}, {"lemmaId": 4015399, "lemmaTitle": "小肠血管瘤", "lemmaCroppedTitle": "小肠血管瘤", "lemmaDesc": "小肠血管瘤少见，约占小肠良性肿瘤的10%～15%。国内报道2881例小肠良性肿瘤...", "lemmaUrl": "http://baike.baidu.com/item/%E5%B0%8F%E8%82%A0%E8%A1%80%E7%AE%A1%E7%98%A4/4015399", "lemmaPic": []}, {"lemmaId": 1860406, "lemmaTitle": "西尼罗河热", "lemmaCroppedTitle": "西尼罗河热", "lemmaDesc": "西尼罗河热是由西尼罗病毒经蚊子传播的急性发热性疾病。可侵袭中枢神经系统，引起脑炎...", "lemmaUrl": "http://baike.baidu.com/item/%E8%A5%BF%E5%B0%BC%E7%BD%97%E6%B2%B3%E7%83%AD/1860406", "lemmaPic": []}, {"lemmaId": 4669215, "lemmaTitle": "奥迪括约肌功能异常", "lemmaCroppedTitle": "奥迪括约肌功能异常", "lemmaDesc": "奥迪括约肌功能异常(SOD)是SO的异常收缩，胆汁或胰液经胰胆管汇合处(即SO)...", "lemmaUrl": "http://baike.baidu.com/item/%E5%A5%A5%E8%BF%AA%E6%8B%AC%E7%BA%A6%E8%82%8C%E5%8A%9F%E8%83%BD%E5%BC%82%E5%B8%B8/4669215", "lemmaPic": []}, {"lemmaId": 1464664, "lemmaTitle": "下腔静脉后输尿管", "lemmaCroppedTitle": "下腔静脉后输尿管", "lemmaDesc": "下腔静脉后输尿管又称环绕腔静脉输尿管，是下腔静脉发育异常的一种先天性畸形。", "lemmaUrl": "http://baike.baidu.com/item/%E4%B8%8B%E8%85%94%E9%9D%99%E8%84%89%E5%90%8E%E8%BE%93%E5%B0%BF%E7%AE%A1/1464664", "lemmaPic": []}, {"lemmaId": 9260431, "lemmaTitle": "肝硬化性肾损害", "lemmaCroppedTitle": "肝硬化性肾损害", "lemmaDesc": "肝炎后肝硬化、乙醇性肝硬化、胆汁性肝硬化及血吸虫病性肝硬化等均可引起肾损害。患者...", "lemmaUrl": "http://baike.baidu.com/item/%E8%82%9D%E7%A1%AC%E5%8C%96%E6%80%A7%E8%82%BE%E6%8D%9F%E5%AE%B3/9260431", "lemmaPic": []}, {"lemmaId": 2775210, "lemmaTitle": "婴儿青铜综合征", "lemmaCroppedTitle": "婴儿青铜综合征", "lemmaDesc": "婴儿青铜综合征又称青铜症，为光疗的一种少见并发症，1972年Kopeman首次报...", "lemmaUrl": "http://baike.baidu.com/item/%E5%A9%B4%E5%84%BF%E9%9D%92%E9%93%9C%E7%BB%BC%E5%90%88%E5%BE%81/2775210", "lemmaPic": []}, {"lemmaId": 5061156, "lemmaTitle": "阴茎离断伤", "lemmaCroppedTitle": "阴茎离断伤", "lemmaDesc": "阴茎损伤少见，与其位置隐蔽、非勃起状态下易于移动有关。按有无皮肤损伤，分为闭合性...", "lemmaUrl": "http://baike.baidu.com/item/%E9%98%B4%E8%8C%8E%E7%A6%BB%E6%96%AD%E4%BC%A4/5061156", "lemmaPic": []}, {"lemmaId": 12810978, "lemmaTitle": "焦虑神经症", "lemmaCroppedTitle": "焦虑神经症", "lemmaDesc": "焦虑性神经症（简称焦虑症）。是以焦虑为主要特征的神经症。表现为没有事实根据也无明...", "lemmaUrl": "http://baike.baidu.com/item/%E7%84%A6%E8%99%91%E7%A5%9E%E7%BB%8F%E7%97%87/12810978", "lemmaPic": []}, {"lemmaId": 8955605, "lemmaTitle": "小儿急性出血性坏死性肠炎", "lemmaCroppedTitle": "小儿急性出血性坏死性肠炎", "lemmaDesc": "急性出血性坏死性肠炎是以小肠急性广泛性、出血性、坏死性炎症为特征的消化系统急症，...", "lemmaUrl": "http://baike.baidu.com/item/%E5%B0%8F%E5%84%BF%E6%80%A5%E6%80%A7%E5%87%BA%E8%A1%80%E6%80%A7%E5%9D%8F%E6%AD%BB%E6%80%A7%E8%82%A0%E7%82%8E/8955605", "lemmaPic": []}, {"lemmaId": 821997, "lemmaTitle": "肿瘤性心包炎", "lemmaCroppedTitle": "肿瘤性心包炎", "lemmaDesc": "肿瘤性心包炎是恶性肿瘤心包转移或原发性心包肿瘤，由间皮瘤所引起。报道肺癌、乳腺癌...", "lemmaUrl": "http://baike.baidu.com/item/%E8%82%BF%E7%98%A4%E6%80%A7%E5%BF%83%E5%8C%85%E7%82%8E/821997", "lemmaPic": []}, {"lemmaId": 403437, "lemmaTitle": "神经节苷脂沉积病", "lemmaCroppedTitle": "神经节苷脂沉积病", "lemmaDesc": "神经节苷脂沉积病为一组常染色体隐性遗传性疾病。神经节苷脂水解代谢中不同酶的缺乏引...", "lemmaUrl": "http://baike.baidu.com/item/%E7%A5%9E%E7%BB%8F%E8%8A%82%E8%8B%B7%E8%84%82%E6%B2%89%E7%A7%AF%E7%97%85/403437", "lemmaPic": []}, {"lemmaId": 4873588, "lemmaTitle": "网膜肿瘤", "lemmaCroppedTitle": "网膜肿瘤", "lemmaDesc": "网膜肿瘤可分为原发性和继发性两种类型。网膜肿瘤多为继发性，原发部位常在胃、结肠、...", "lemmaUrl": "http://baike.baidu.com/item/%E7%BD%91%E8%86%9C%E8%82%BF%E7%98%A4/4873588", "lemmaPic": []}, {"lemmaId": 9992286, "lemmaTitle": "烧伤脓毒症", "lemmaCroppedTitle": "烧伤脓毒症", "lemmaDesc": "烧伤脓毒症是深度烧伤后的常见并发症。可为单细菌或多数细菌的混合感染，偶亦可由真菌...", "lemmaUrl": "http://baike.baidu.com/item/%E7%83%A7%E4%BC%A4%E8%84%93%E6%AF%92%E7%97%87/9992286", "lemmaPic": []}, {"lemmaId": 10456455, "lemmaTitle": "咽部神经鞘膜瘤", "lemmaCroppedTitle": "咽部神经鞘膜瘤", "lemmaDesc": "咽部神经鞘膜瘤好发于咽后壁及侧壁，是咽部较为常见的良性神经源性肿瘤，恶变者罕见。...", "lemmaUrl": "http://baike.baidu.com/item/%E5%92%BD%E9%83%A8%E7%A5%9E%E7%BB%8F%E9%9E%98%E8%86%9C%E7%98%A4/10456455", "lemmaPic": []}, {"lemmaId": 4297959, "lemmaTitle": "胃神经纤维瘤", "lemmaCroppedTitle": "胃神经纤维瘤", "lemmaDesc": "胃神经纤维瘤属于神经源性肿瘤，发病率低，临床较为少见，约占胃良性肿瘤的10%，但...", "lemmaUrl": "http://baike.baidu.com/item/%E8%83%83%E7%A5%9E%E7%BB%8F%E7%BA%A4%E7%BB%B4%E7%98%A4/4297959", "lemmaPic": []}, {"lemmaId": 4925096, "lemmaTitle": "主-肺动脉隔缺损", "lemmaCroppedTitle": "主-肺动脉隔缺损", "lemmaDesc": "主-肺动脉隔缺损或称主-肺动脉窗，是一种较少见的先天性大血管畸形，据Stanse...", "lemmaUrl": "http://baike.baidu.com/item/%E4%B8%BB-%E8%82%BA%E5%8A%A8%E8%84%89%E9%9A%94%E7%BC%BA%E6%8D%9F/4925096", "lemmaPic": []}, {"lemmaId": 1786354, "lemmaTitle": "多发性一过性白点综合征", "lemmaCroppedTitle": "多发性一过性白点综合征", "lemmaDesc": "多发性一过性白点综合征（MEWDS）是一种急性、多灶性、单眼多发且通常累及年轻人...", "lemmaUrl": "http://baike.baidu.com/item/%E5%A4%9A%E5%8F%91%E6%80%A7%E4%B8%80%E8%BF%87%E6%80%A7%E7%99%BD%E7%82%B9%E7%BB%BC%E5%90%88%E5%BE%81/1786354", "lemmaPic": []}, {"lemmaId": 1823554, "lemmaTitle": "乳泣", "lemmaCroppedTitle": "乳泣", "lemmaDesc": "乳泣，指妊娠期中乳汁自行流出。中医分有气虚和肝热二种：气虚的，乳房不胀，面色淡白...", "lemmaUrl": "http://baike.baidu.com/item/%E4%B9%B3%E6%B3%A3/1823554", "lemmaPic": []}, {"lemmaId": 10017160, "lemmaTitle": "颅底陷入症", "lemmaCroppedTitle": "颅底陷入症", "lemmaDesc": "颅底陷入症是临床常见神经系统发育异常性疾病，本病是以枕骨大孔为中心的颅底骨组织、...", "lemmaUrl": "http://baike.baidu.com/item/%E9%A2%85%E5%BA%95%E9%99%B7%E5%85%A5%E7%97%87/10017160", "lemmaPic": []}, {"lemmaId": 10611444, "lemmaTitle": "多源性房性心动过速", "lemmaCroppedTitle": "多源性房性心动过速", "lemmaDesc": "多源性房性心动过速（MAT）又称紊乱性房性心动过速（CAT），是一种少见的独特的...", "lemmaUrl": "http://baike.baidu.com/item/%E5%A4%9A%E6%BA%90%E6%80%A7%E6%88%BF%E6%80%A7%E5%BF%83%E5%8A%A8%E8%BF%87%E9%80%9F/10611444", "lemmaPic": []}, {"lemmaId": 2062765, "lemmaTitle": "男性生殖器外伤", "lemmaCroppedTitle": "男性生殖器外伤", "lemmaDesc": "男性外生殖器暴露体外，在对抗性运动、战争、性交不当等情况下易受外伤。男性生殖器外...", "lemmaUrl": "http://baike.baidu.com/item/%E7%94%B7%E6%80%A7%E7%94%9F%E6%AE%96%E5%99%A8%E5%A4%96%E4%BC%A4/2062765", "lemmaPic": []}, {"lemmaId": 7566185, "lemmaTitle": "食物过敏性哮喘", "lemmaCroppedTitle": "食物过敏性哮喘", "lemmaDesc": "2014GINA指南对哮喘的定义：哮喘为一种异质性疾病，常以慢性气道炎症为特征，...", "lemmaUrl": "http://baike.baidu.com/item/%E9%A3%9F%E7%89%A9%E8%BF%87%E6%95%8F%E6%80%A7%E5%93%AE%E5%96%98/7566185", "lemmaPic": []}, {"lemmaId": 1185779, "lemmaTitle": "急性化脓性睾丸炎", "lemmaCroppedTitle": "急性化脓性睾丸炎", "lemmaDesc": "急性化脓性睾丸炎即急性非特异性睾丸炎，为化脓性致病菌侵及睾丸所致，如葡萄球菌、链...", "lemmaUrl": "http://baike.baidu.com/item/%E6%80%A5%E6%80%A7%E5%8C%96%E8%84%93%E6%80%A7%E7%9D%BE%E4%B8%B8%E7%82%8E/1185779", "lemmaPic": []}, {"lemmaId": 2288541, "lemmaTitle": "胫后神经痛", "lemmaCroppedTitle": "胫后神经痛", "lemmaDesc": "胫后神经痛指疼痛沿着胫后神经分布扩展（神经痛）。胫后神经在踝的平面穿过伞状韧带内...", "lemmaUrl": "http://baike.baidu.com/item/%E8%83%AB%E5%90%8E%E7%A5%9E%E7%BB%8F%E7%97%9B/2288541", "lemmaPic": []}, {"lemmaId": 9159466, "lemmaTitle": "产后喘促", "lemmaCroppedTitle": "产后喘促", "lemmaDesc": "产后喘促是分娩后喘急的症候。主要原因有二，一是阴虚已甚，失血过多而气脱于上，为将...", "lemmaUrl": "http://baike.baidu.com/item/%E4%BA%A7%E5%90%8E%E5%96%98%E4%BF%83/9159466", "lemmaPic": []}, {"lemmaId": 2065317, "lemmaTitle": "巨大裂孔性视网膜脱离", "lemmaCroppedTitle": "巨大裂孔性视网膜脱离", "lemmaDesc": "大于90°甚至可达360°的视网膜裂孔为巨大视网膜裂孔，该疾病多见于高度近视眼，...", "lemmaUrl": "http://baike.baidu.com/item/%E5%B7%A8%E5%A4%A7%E8%A3%82%E5%AD%94%E6%80%A7%E8%A7%86%E7%BD%91%E8%86%9C%E8%84%B1%E7%A6%BB/2065317", "lemmaPic": []}, {"lemmaId": 5899598, "lemmaTitle": "抗体免疫缺陷病", "lemmaCroppedTitle": "抗体免疫缺陷病", "lemmaDesc": "抗体免疫缺陷病包括一组疾病，特征为抗体生成及抗体功能缺陷。本组疾病一般均有血清免...", "lemmaUrl": "http://baike.baidu.com/item/%E6%8A%97%E4%BD%93%E5%85%8D%E7%96%AB%E7%BC%BA%E9%99%B7%E7%97%85/5899598", "lemmaPic": []}, {"lemmaId": 10999006, "lemmaTitle": "胆咳", "lemmaCroppedTitle": "胆咳", "lemmaDesc": "胆咳指咳嗽时会呕吐出胆汁或青色苦水的症候，《素问・咳论》：肝咳不已，则胆受之。胆...", "lemmaUrl": "http://baike.baidu.com/item/%E8%83%86%E5%92%B3/10999006", "lemmaPic": []}, {"lemmaId": 7106526, "lemmaTitle": "先天性视网膜劈裂症", "lemmaCroppedTitle": "先天性视网膜劈裂症", "lemmaDesc": "先天性视网膜劈裂症是视网膜神经上皮层层间的分离，属玻璃体-视网膜营养不良的一种，...", "lemmaUrl": "http://baike.baidu.com/item/%E5%85%88%E5%A4%A9%E6%80%A7%E8%A7%86%E7%BD%91%E8%86%9C%E5%8A%88%E8%A3%82%E7%97%87/7106526", "lemmaPic": []}, {"lemmaId": 6520310, "lemmaTitle": "马桑果中毒", "lemmaCroppedTitle": "马桑果中毒", "lemmaDesc": "马桑果实内含成分主要为马桑毒素、羟基马桑毒素、氢化马桑毒素等，毒理与印防己毒相似...", "lemmaUrl": "http://baike.baidu.com/item/%E9%A9%AC%E6%A1%91%E6%9E%9C%E4%B8%AD%E6%AF%92/6520310", "lemmaPic": []}, {"lemmaId": 1702877, "lemmaTitle": "先天性胸腹裂孔疝", "lemmaCroppedTitle": "先天性胸腹裂孔疝", "lemmaDesc": "先天性胸腹裂孔疝是胚胎期膈肌的腰肋三角部发育异常，局部缺损或薄弱，腹腔脏器通过此...", "lemmaUrl": "http://baike.baidu.com/item/%E5%85%88%E5%A4%A9%E6%80%A7%E8%83%B8%E8%85%B9%E8%A3%82%E5%AD%94%E7%96%9D/1702877", "lemmaPic": []}, {"lemmaId": 6917744, "lemmaTitle": "无骨折脱位型颈脊髓损伤", "lemmaCroppedTitle": "无骨折脱位型颈脊髓损伤", "lemmaDesc": "无骨折脱位性脊髓损伤或称无放射学影像异常的脊髓损伤（SCIWORA），是指损伤暴...", "lemmaUrl": "http://baike.baidu.com/item/%E6%97%A0%E9%AA%A8%E6%8A%98%E8%84%B1%E4%BD%8D%E5%9E%8B%E9%A2%88%E8%84%8A%E9%AB%93%E6%8D%9F%E4%BC%A4/6917744", "lemmaPic": []}, {"lemmaId": 7228511, "lemmaTitle": "弥漫性筋膜炎", "lemmaCroppedTitle": "弥漫性筋膜炎", "lemmaDesc": "弥漫性筋膜炎（EF）是一种少见的主要以筋膜发生弥漫性肿胀和硬化为特征的疾病。19...", "lemmaUrl": "http://baike.baidu.com/item/%E5%BC%A5%E6%BC%AB%E6%80%A7%E7%AD%8B%E8%86%9C%E7%82%8E/7228511", "lemmaPic": []}, {"lemmaId": 3130976, "lemmaTitle": "脊髓纵裂", "lemmaCroppedTitle": "脊髓纵裂", "lemmaDesc": "在胚胎时期，由于脊髓或者椎管发育畸形，使脊髓分裂为左右两部分，称为脊髓纵裂。多见...", "lemmaUrl": "http://baike.baidu.com/item/%E8%84%8A%E9%AB%93%E7%BA%B5%E8%A3%82/3130976", "lemmaPic": []}, {"lemmaId": 10358424, "lemmaTitle": "胫骨内髁骨软骨病", "lemmaCroppedTitle": "胫骨内髁骨软骨病", "lemmaDesc": "胫骨内髁骨软骨病，又称胫骨内翻或Blount病。是指胫骨内髁软骨发育不良而产生的...", "lemmaUrl": "http://baike.baidu.com/item/%E8%83%AB%E9%AA%A8%E5%86%85%E9%AB%81%E9%AA%A8%E8%BD%AF%E9%AA%A8%E7%97%85/10358424", "lemmaPic": []}, {"lemmaId": 2093483, "lemmaTitle": "股动脉损伤", "lemmaCroppedTitle": "股动脉损伤", "lemmaDesc": "因外伤或医源性损伤引发的股动脉挫伤、破裂或断裂，可继发股动脉血栓形成，较小的股动...", "lemmaUrl": "http://baike.baidu.com/item/%E8%82%A1%E5%8A%A8%E8%84%89%E6%8D%9F%E4%BC%A4/2093483", "lemmaPic": []}, {"lemmaId": 6216041, "lemmaTitle": "亚急性硬膜外血肿", "lemmaCroppedTitle": "亚急性硬膜外血肿", "lemmaDesc": "外伤第4天至3周内出现临床症状及体征的硬膜外血肿为亚急性硬膜外血肿。", "lemmaUrl": "http://baike.baidu.com/item/%E4%BA%9A%E6%80%A5%E6%80%A7%E7%A1%AC%E8%86%9C%E5%A4%96%E8%A1%80%E8%82%BF/6216041", "lemmaPic": []}, {"lemmaId": 3212308, "lemmaTitle": "先天性副舟骨", "lemmaCroppedTitle": "先天性副舟骨", "lemmaDesc": "先天性副舟骨是在足舟骨内侧结节处有一副骨，为常见的舟骨发育异常，双侧多同时对称发...", "lemmaUrl": "http://baike.baidu.com/item/%E5%85%88%E5%A4%A9%E6%80%A7%E5%89%AF%E8%88%9F%E9%AA%A8/3212308", "lemmaPic": []}, {"lemmaId": 9259089, "lemmaTitle": "维生素E缺乏神经病", "lemmaCroppedTitle": "维生素E缺乏神经病", "lemmaDesc": "维生素E缺乏神经病维生素E在人体内的主要活性成分为α-生育酚，是体内重要的脂溶性...", "lemmaUrl": "http://baike.baidu.com/item/%E7%BB%B4%E7%94%9F%E7%B4%A0E%E7%BC%BA%E4%B9%8F%E7%A5%9E%E7%BB%8F%E7%97%85/9259089", "lemmaPic": []}, {"lemmaId": 1903832, "lemmaTitle": "组织细胞增殖症", "lemmaCroppedTitle": "组织细胞增殖症", "lemmaDesc": "组织细胞增殖症（网织细胞增殖症或网状内皮细胞增殖症）系指组织细胞肿瘤性或假性肿瘤...", "lemmaUrl": "http://baike.baidu.com/item/%E7%BB%84%E7%BB%87%E7%BB%86%E8%83%9E%E5%A2%9E%E6%AE%96%E7%97%87/1903832", "lemmaPic": []}, {"lemmaId": 5321428, "lemmaTitle": "眶底骨折", "lemmaCroppedTitle": "眶底骨折", "lemmaDesc": "眶底骨折的骨折片常伤及或压迫眶下神经，引起该神经支配区麻木。眼眶骨折可单独发生或...", "lemmaUrl": "http://baike.baidu.com/item/%E7%9C%B6%E5%BA%95%E9%AA%A8%E6%8A%98/5321428", "lemmaPic": []}, {"lemmaId": 2104415, "lemmaTitle": "股动脉瘤", "lemmaCroppedTitle": "股动脉瘤", "lemmaDesc": "股动脉瘤的发生率占周围动脉瘤的半数以上，多见于股总动脉。分为真性动脉瘤和假性动脉...", "lemmaUrl": "http://baike.baidu.com/item/%E8%82%A1%E5%8A%A8%E8%84%89%E7%98%A4/2104415", "lemmaPic": []}, {"lemmaId": 869067, "lemmaTitle": "先天性喉裂", "lemmaCroppedTitle": "先天性喉裂", "lemmaDesc": "喉发育不良，有一裂隙存在，名为先天性喉裂，多发生于喉后部。喉裂的程度不同，轻者仅...", "lemmaUrl": "http://baike.baidu.com/item/%E5%85%88%E5%A4%A9%E6%80%A7%E5%96%89%E8%A3%82/869067", "lemmaPic": []}, {"lemmaId": 5023438, "lemmaTitle": "窦室传导", "lemmaCroppedTitle": "窦室传导", "lemmaDesc": "窦室传导，别名窦室节律；弥漫性完全性心房肌传导阻滞；高钾性弥漫性完全性心房肌传导...", "lemmaUrl": "http://baike.baidu.com/item/%E7%AA%A6%E5%AE%A4%E4%BC%A0%E5%AF%BC/5023438", "lemmaPic": []}, {"lemmaId": 7253493, "lemmaTitle": "主动脉瓣狭窄合并关闭不全", "lemmaCroppedTitle": "主动脉瓣狭窄合并关闭不全", "lemmaDesc": "正常主动脉瓣口面积超过3.0cm2，当瓣口面积减小为1.5cm2时为轻度狭窄；1...", "lemmaUrl": "http://baike.baidu.com/item/%E4%B8%BB%E5%8A%A8%E8%84%89%E7%93%A3%E7%8B%AD%E7%AA%84%E5%90%88%E5%B9%B6%E5%85%B3%E9%97%AD%E4%B8%8D%E5%85%A8/7253493", "lemmaPic": []}, {"lemmaId": 1871036, "lemmaTitle": "感应性妄想性障碍", "lemmaCroppedTitle": "感应性妄想性障碍", "lemmaDesc": "感应性妄想性障碍即感应性精神病，是一种以系统妄想为突出表现的疾病，往往发生于同一...", "lemmaUrl": "http://baike.baidu.com/item/%E6%84%9F%E5%BA%94%E6%80%A7%E5%A6%84%E6%83%B3%E6%80%A7%E9%9A%9C%E7%A2%8D/1871036", "lemmaPic": []}, {"lemmaId": 2859633, "lemmaTitle": "原发性乳腺恶性淋巴瘤", "lemmaCroppedTitle": "原发性乳腺恶性淋巴瘤", "lemmaDesc": "乳腺恶性淋巴瘤临床分为原发性和继发性。原发性乳腺恶性淋巴瘤首发于乳腺，也包括乳腺...", "lemmaUrl": "http://baike.baidu.com/item/%E5%8E%9F%E5%8F%91%E6%80%A7%E4%B9%B3%E8%85%BA%E6%81%B6%E6%80%A7%E6%B7%8B%E5%B7%B4%E7%98%A4/2859633", "lemmaPic": []}, {"lemmaId": 729305, "lemmaTitle": "网膜囊肿", "lemmaCroppedTitle": "网膜囊肿", "lemmaDesc": "\n\t\t\t    \n\t\t\t    网膜囊肿（omental cysts）是一种少见...", "lemmaUrl": "http://baike.baidu.com/item/%E7%BD%91%E8%86%9C%E5%9B%8A%E8%82%BF/729305", "lemmaPic": []}, {"lemmaId": 1281352, "lemmaTitle": "上颈椎不稳症", "lemmaCroppedTitle": "上颈椎不稳症", "lemmaDesc": "上颈椎包括第1和第2颈椎，即寰椎和枢椎。上颈椎不稳定指由于创伤、炎症、肿瘤和先天...", "lemmaUrl": "http://baike.baidu.com/item/%E4%B8%8A%E9%A2%88%E6%A4%8E%E4%B8%8D%E7%A8%B3%E7%97%87/1281352", "lemmaPic": []}, {"lemmaId": 12982250, "lemmaTitle": "消化道复发性溃疡", "lemmaCroppedTitle": "消化道复发性溃疡", "lemmaDesc": "复发性溃疡（RU）是胃、十二指肠溃疡手术后发生的消化性溃疡，可发生在胃、十二指肠...", "lemmaUrl": "http://baike.baidu.com/item/%E6%B6%88%E5%8C%96%E9%81%93%E5%A4%8D%E5%8F%91%E6%80%A7%E6%BA%83%E7%96%A1/12982250", "lemmaPic": []}, {"lemmaId": 6519590, "lemmaTitle": "溃疡病急性穿孔", "lemmaCroppedTitle": "溃疡病急性穿孔", "lemmaDesc": "溃疡病急性穿孔是溃疡病的严重并发症之一。在全部的溃疡病患者中，急性穿孔占10%～...", "lemmaUrl": "http://baike.baidu.com/item/%E6%BA%83%E7%96%A1%E7%97%85%E6%80%A5%E6%80%A7%E7%A9%BF%E5%AD%94/6519590", "lemmaPic": []}, {"lemmaId": 9204416, "lemmaTitle": "先天性锁骨假关节", "lemmaCroppedTitle": "先天性锁骨假关节", "lemmaDesc": "先天性锁骨假关节是一种罕见畸形，出生时即可发现右锁骨干中部有一个裂隙，随着患儿年...", "lemmaUrl": "http://baike.baidu.com/item/%E5%85%88%E5%A4%A9%E6%80%A7%E9%94%81%E9%AA%A8%E5%81%87%E5%85%B3%E8%8A%82/9204416", "lemmaPic": []}, {"lemmaId": 4015086, "lemmaTitle": "小肠腺瘤", "lemmaCroppedTitle": "小肠腺瘤", "lemmaDesc": "小肠腺瘤是发生于小肠黏膜上皮或肠腺体上皮的良性肿瘤，好发于十二指肠和回肠，体积小...", "lemmaUrl": "http://baike.baidu.com/item/%E5%B0%8F%E8%82%A0%E8%85%BA%E7%98%A4/4015086", "lemmaPic": []}, {"lemmaId": 7951648, "lemmaTitle": "外阴良性肿瘤", "lemmaCroppedTitle": "外阴良性肿瘤", "lemmaDesc": "女性外阴部良性肿瘤比较少见，通常分为两类，一是由上皮来源的肿瘤，有乳头状瘤、色素...", "lemmaUrl": "http://baike.baidu.com/item/%E5%A4%96%E9%98%B4%E8%89%AF%E6%80%A7%E8%82%BF%E7%98%A4/7951648", "lemmaPic": []}, {"lemmaId": 6386179, "lemmaTitle": "外阴汗管瘤", "lemmaCroppedTitle": "外阴汗管瘤", "lemmaDesc": "外阴汗管瘤是一种向表皮内小汗腺导管分化的良性肿瘤。有相当一部分病人有遗传因素家族...", "lemmaUrl": "http://baike.baidu.com/item/%E5%A4%96%E9%98%B4%E6%B1%97%E7%AE%A1%E7%98%A4/6386179", "lemmaPic": []}, {"lemmaId": 2429103, "lemmaTitle": "结肠类癌", "lemmaCroppedTitle": "结肠类癌", "lemmaDesc": "结肠类癌起源于肠黏膜腺体的嗜银Kultschitzky细胞，又称嗜银细胞瘤。因其...", "lemmaUrl": "http://baike.baidu.com/item/%E7%BB%93%E8%82%A0%E7%B1%BB%E7%99%8C/2429103", "lemmaPic": []}, {"lemmaId": 10662849, "lemmaTitle": "结核性阴道炎", "lemmaCroppedTitle": "结核性阴道炎", "lemmaDesc": "结核性阴道炎主要来源于肺结核、腹膜结核。结核性阴道炎患者可以阴道外观正常，无明显...", "lemmaUrl": "http://baike.baidu.com/item/%E7%BB%93%E6%A0%B8%E6%80%A7%E9%98%B4%E9%81%93%E7%82%8E/10662849", "lemmaPic": []}, {"lemmaId": 2137069, "lemmaTitle": "趾间神经痛", "lemmaCroppedTitle": "趾间神经痛", "lemmaDesc": "神经痛或良性神经瘤可发生在任何趾间神经，趾间神经行走于趾骨之下和跖骨之间，越过跖...", "lemmaUrl": "http://baike.baidu.com/item/%E8%B6%BE%E9%97%B4%E7%A5%9E%E7%BB%8F%E7%97%9B/2137069", "lemmaPic": []}, {"lemmaId": 5645215, "lemmaTitle": "脉络膜出血", "lemmaCroppedTitle": "脉络膜出血", "lemmaDesc": "脉络膜出血具有重要的临床意义。无论出血多少由于其对视网膜的损害，可导致永久性视力...", "lemmaUrl": "http://baike.baidu.com/item/%E8%84%89%E7%BB%9C%E8%86%9C%E5%87%BA%E8%A1%80/5645215", "lemmaPic": []}, {"lemmaId": 907676, "lemmaTitle": "二糖酶缺乏症", "lemmaCroppedTitle": "二糖酶缺乏症", "lemmaDesc": "本病又称双糖不耐受症，系指各种先天性或后天性疾病，使小肠黏膜刷状缘双糖酶缺乏，使...", "lemmaUrl": "http://baike.baidu.com/item/%E4%BA%8C%E7%B3%96%E9%85%B6%E7%BC%BA%E4%B9%8F%E7%97%87/907676", "lemmaPic": []}, {"lemmaId": 7254020, "lemmaTitle": "假痛风性关节炎", "lemmaCroppedTitle": "假痛风性关节炎", "lemmaDesc": "假痛风性关节炎为二羟焦磷酸钙结晶沉积引起的临床表现多样化的关节病，包括间歇性发作...", "lemmaUrl": "http://baike.baidu.com/item/%E5%81%87%E7%97%9B%E9%A3%8E%E6%80%A7%E5%85%B3%E8%8A%82%E7%82%8E/7254020", "lemmaPic": []}, {"lemmaId": 7977841, "lemmaTitle": "卵巢硬化性间质瘤", "lemmaCroppedTitle": "卵巢硬化性间质瘤", "lemmaDesc": "卵巢硬化性间质瘤是一种少见的卵巢性索间质肿瘤。卵巢硬化性间质瘤为良性肿瘤，预后好...", "lemmaUrl": "http://baike.baidu.com/item/%E5%8D%B5%E5%B7%A2%E7%A1%AC%E5%8C%96%E6%80%A7%E9%97%B4%E8%B4%A8%E7%98%A4/7977841", "lemmaPic": []}, {"lemmaId": 1570345, "lemmaTitle": "丹吉尔病", "lemmaCroppedTitle": "丹吉尔病", "lemmaDesc": "丹吉尔病（TD）又称Tangier氏病、无α脂蛋白血症。是常染色体隐性遗传病。由...", "lemmaUrl": "http://baike.baidu.com/item/%E4%B8%B9%E5%90%89%E5%B0%94%E7%97%85/1570345", "lemmaPic": []}, {"lemmaId": 8532451, "lemmaTitle": "过强反射性鼻炎", "lemmaCroppedTitle": "过强反射性鼻炎", "lemmaDesc": "过强反射性鼻炎是由于鼻内局部感觉神经轴突反射过强引起的一种高反应性鼻病。以往将其...", "lemmaUrl": "http://baike.baidu.com/item/%E8%BF%87%E5%BC%BA%E5%8F%8D%E5%B0%84%E6%80%A7%E9%BC%BB%E7%82%8E/8532451", "lemmaPic": []}, {"lemmaId": 869677, "lemmaTitle": "柯萨奇病毒和埃可病毒感染", "lemmaCroppedTitle": "柯萨奇病毒和埃可病毒感染", "lemmaDesc": "柯萨奇病毒，可通过呼吸道和消化道传播，孕妇感染后可通过胎盘传播给胎儿，可引起胎儿...", "lemmaUrl": "http://baike.baidu.com/item/%E6%9F%AF%E8%90%A8%E5%A5%87%E7%97%85%E6%AF%92%E5%92%8C%E5%9F%83%E5%8F%AF%E7%97%85%E6%AF%92%E6%84%9F%E6%9F%93/869677", "lemmaPic": []}, {"lemmaId": 2353173, "lemmaTitle": "小儿肺隔离症", "lemmaCroppedTitle": "小儿肺隔离症", "lemmaDesc": "小儿肺隔离症又称支气管肺组织分离，是以血管异常为基础的胚胎发育缺陷所造成的先天性...", "lemmaUrl": "http://baike.baidu.com/item/%E5%B0%8F%E5%84%BF%E8%82%BA%E9%9A%94%E7%A6%BB%E7%97%87/2353173", "lemmaPic": []}, {"lemmaId": 5242912, "lemmaTitle": "原发性纵隔感染", "lemmaCroppedTitle": "原发性纵隔感染", "lemmaDesc": "原发性纵隔感染是指原因不明的非特异性、弥漫致密性结缔组织纤维化的过程，又称特发纤...", "lemmaUrl": "http://baike.baidu.com/item/%E5%8E%9F%E5%8F%91%E6%80%A7%E7%BA%B5%E9%9A%94%E6%84%9F%E6%9F%93/5242912", "lemmaPic": []}, {"lemmaId": 843864, "lemmaTitle": "胸椎结核椎旁脓肿穿入胸腔", "lemmaCroppedTitle": "胸椎结核椎旁脓肿穿入胸腔", "lemmaDesc": "脊柱结核在骨关节结核中占首位，其中以胸腰段结核最多，约占脊柱结核的50%以上。胸...", "lemmaUrl": "http://baike.baidu.com/item/%E8%83%B8%E6%A4%8E%E7%BB%93%E6%A0%B8%E6%A4%8E%E6%97%81%E8%84%93%E8%82%BF%E7%A9%BF%E5%85%A5%E8%83%B8%E8%85%94/843864", "lemmaPic": []}, {"lemmaId": 6897535, "lemmaTitle": "小儿急性胆囊炎", "lemmaCroppedTitle": "小儿急性胆囊炎", "lemmaDesc": "急性胆囊炎是胆囊发生的急性化学性和/或细菌性炎症，小儿急性胆囊炎临床少见，好发年...", "lemmaUrl": "http://baike.baidu.com/item/%E5%B0%8F%E5%84%BF%E6%80%A5%E6%80%A7%E8%83%86%E5%9B%8A%E7%82%8E/6897535", "lemmaPic": []}, {"lemmaId": 4443986, "lemmaTitle": "皮肤平滑肌瘤", "lemmaCroppedTitle": "皮肤平滑肌瘤", "lemmaDesc": "本病是来源于皮肤竖毛肌、外阴或乳房平滑肌或血管平滑肌的良性真皮肿瘤。因此，皮肤平...", "lemmaUrl": "http://baike.baidu.com/item/%E7%9A%AE%E8%82%A4%E5%B9%B3%E6%BB%91%E8%82%8C%E7%98%A4/4443986", "lemmaPic": []}, {"lemmaId": 9405112, "lemmaTitle": "纵隔囊肿及肿瘤", "lemmaCroppedTitle": "纵隔囊肿及肿瘤", "lemmaDesc": "纵隔也是小儿胸内肿瘤最常见的部位。纵隔肿瘤或囊肿长大到一定体积时出现压迫症状，或...", "lemmaUrl": "http://baike.baidu.com/item/%E7%BA%B5%E9%9A%94%E5%9B%8A%E8%82%BF%E5%8F%8A%E8%82%BF%E7%98%A4/9405112", "lemmaPic": []}], "total": 7246, "totalPage": 73, "page": 47, "fromLemma": 0}