{"lemmaList": [{"lemmaId": 5056466, "lemmaTitle": "非溃疡消化不良", "lemmaCroppedTitle": "非溃疡消化不良", "lemmaDesc": "系指上腹不适症状反复发作，排除器质性消化不良的一组症候群，亦称功能性消化不良。临...", "lemmaUrl": "http://baike.baidu.com/item/%E9%9D%9E%E6%BA%83%E7%96%A1%E6%B6%88%E5%8C%96%E4%B8%8D%E8%89%AF/5056466", "lemmaPic": []}, {"lemmaId": 8085594, "lemmaTitle": "急性发热性嗜中性皮病", "lemmaCroppedTitle": "急性发热性嗜中性皮病", "lemmaDesc": "急性发热性嗜中性皮病即Sweet综合征，为少见病，主要见于女性，其特征为：①皮肤...", "lemmaUrl": "http://baike.baidu.com/item/%E6%80%A5%E6%80%A7%E5%8F%91%E7%83%AD%E6%80%A7%E5%97%9C%E4%B8%AD%E6%80%A7%E7%9A%AE%E7%97%85/8085594", "lemmaPic": []}, {"lemmaId": 799764, "lemmaTitle": "嗜酸性腺瘤", "lemmaCroppedTitle": "嗜酸性腺瘤", "lemmaDesc": "嗜酸性腺瘤又称大嗜酸性粒细胞瘤，是一种少见的涎腺良性肿瘤。关于嗜酸性腺瘤的组织发...", "lemmaUrl": "http://baike.baidu.com/item/%E5%97%9C%E9%85%B8%E6%80%A7%E8%85%BA%E7%98%A4/799764", "lemmaPic": []}, {"lemmaId": 5412902, "lemmaTitle": "喉气囊肿", "lemmaCroppedTitle": "喉气囊肿", "lemmaDesc": "喉气囊肿又名喉膨出、喉憩室或喉气性疝，为喉室小囊的异常扩张，含气体。婴幼儿喉室小...", "lemmaUrl": "http://baike.baidu.com/item/%E5%96%89%E6%B0%94%E5%9B%8A%E8%82%BF/5412902", "lemmaPic": []}, {"lemmaId": 5764609, "lemmaTitle": "旋前圆肌综合征", "lemmaCroppedTitle": "旋前圆肌综合征", "lemmaDesc": "1951年，Seyffarth首次报道了旋前圆肌综合征，病例均为正中神经通过旋前...", "lemmaUrl": "http://baike.baidu.com/item/%E6%97%8B%E5%89%8D%E5%9C%86%E8%82%8C%E7%BB%BC%E5%90%88%E5%BE%81/5764609", "lemmaPic": []}, {"lemmaId": 6003871, "lemmaTitle": "桡骨干骨折", "lemmaCroppedTitle": "桡骨干骨折", "lemmaDesc": "桡骨干骨折仅占前臂骨折总数的12%，以青壮年人居多。本病患者伤后前臂出现肿胀、疼...", "lemmaUrl": "http://baike.baidu.com/item/%E6%A1%A1%E9%AA%A8%E5%B9%B2%E9%AA%A8%E6%8A%98/6003871", "lemmaPic": []}, {"lemmaId": 5403733, "lemmaTitle": "涎瘘", "lemmaCroppedTitle": "涎瘘", "lemmaDesc": "由于外伤或外科手术损伤涎腺或涎腺导管造成涎液外流者，称为涎瘘，临床表现为面部皮肤...", "lemmaUrl": "http://baike.baidu.com/item/%E6%B6%8E%E7%98%98/5403733", "lemmaPic": []}, {"lemmaId": 8067986, "lemmaTitle": "妊娠合并癫痫", "lemmaCroppedTitle": "妊娠合并癫痫", "lemmaDesc": "妊娠合并癫痫是一组反复发作的神经元异常放电所致的暂时性中枢神经系统功能失常的慢性...", "lemmaUrl": "http://baike.baidu.com/item/%E5%A6%8A%E5%A8%A0%E5%90%88%E5%B9%B6%E7%99%AB%E7%97%AB/8067986", "lemmaPic": []}, {"lemmaId": 7722255, "lemmaTitle": "皮肤阿米巴病", "lemmaCroppedTitle": "皮肤阿米巴病", "lemmaDesc": "又称皮肤变形虫病，是阿米巴原虫侵犯皮肤而致病，大多继发于阿米巴性痢疾，主要发生于...", "lemmaUrl": "http://baike.baidu.com/item/%E7%9A%AE%E8%82%A4%E9%98%BF%E7%B1%B3%E5%B7%B4%E7%97%85/7722255", "lemmaPic": []}, {"lemmaId": 6000422, "lemmaTitle": "暴痢", "lemmaCroppedTitle": "暴痢", "lemmaDesc": "痢疾是指以腹痛、里急后重，下痢赤白脓血为特征的病证。痢疾一名，见于《济生方》，《...", "lemmaUrl": "http://baike.baidu.com/item/%E6%9A%B4%E7%97%A2/6000422", "lemmaPic": []}, {"lemmaId": 9493999, "lemmaTitle": "先天性喉蹼", "lemmaCroppedTitle": "先天性喉蹼", "lemmaDesc": "在喉腔间有一先天性膜状物，名为先天性喉蹼，大者可占喉腔之大部，称为喉隔。其喉蹼之...", "lemmaUrl": "http://baike.baidu.com/item/%E5%85%88%E5%A4%A9%E6%80%A7%E5%96%89%E8%B9%BC/9493999", "lemmaPic": []}, {"lemmaId": 2289831, "lemmaTitle": "包涵体性结膜炎", "lemmaCroppedTitle": "包涵体性结膜炎", "lemmaDesc": "包涵体性结膜炎是沙眼衣原体中D-K抗原型衣原体所致的结膜炎。此型衣原体能引起子宫...", "lemmaUrl": "http://baike.baidu.com/item/%E5%8C%85%E6%B6%B5%E4%BD%93%E6%80%A7%E7%BB%93%E8%86%9C%E7%82%8E/2289831", "lemmaPic": []}, {"lemmaId": 3443935, "lemmaTitle": "骨硬化病", "lemmaCroppedTitle": "骨硬化病", "lemmaDesc": "骨硬化病，又称大理石骨症，或称原发性脆骨硬化症。是一种少见的全身性骨结构发育异常...", "lemmaUrl": "http://baike.baidu.com/item/%E9%AA%A8%E7%A1%AC%E5%8C%96%E7%97%85/3443935", "lemmaPic": []}, {"lemmaId": 7145508, "lemmaTitle": "创伤性膈疝", "lemmaCroppedTitle": "创伤性膈疝", "lemmaDesc": "创伤性膈疝是胸部和腹部外伤导致膈肌破裂，腹腔内脏器经膈肌裂口突入胸腔形成的一种疝...", "lemmaUrl": "http://baike.baidu.com/item/%E5%88%9B%E4%BC%A4%E6%80%A7%E8%86%88%E7%96%9D/7145508", "lemmaPic": []}, {"lemmaId": 5358893, "lemmaTitle": "小儿急性肾功能衰竭", "lemmaCroppedTitle": "小儿急性肾功能衰竭", "lemmaDesc": "急性肾功能衰竭简称急性肾衰，是一种特殊性质的综合征，是由于不同原因引起肾脏生理功...", "lemmaUrl": "http://baike.baidu.com/item/%E5%B0%8F%E5%84%BF%E6%80%A5%E6%80%A7%E8%82%BE%E5%8A%9F%E8%83%BD%E8%A1%B0%E7%AB%AD/5358893", "lemmaPic": []}, {"lemmaId": 13883799, "lemmaTitle": "酸烧伤", "lemmaCroppedTitle": "酸烧伤", "lemmaDesc": "以硫酸、盐酸、硝酸为多见，此外还有乙酸（冰醋酸）、氯氟酸、氯磺酸、高氯酸、铬酸等...", "lemmaUrl": "http://baike.baidu.com/item/%E9%85%B8%E7%83%A7%E4%BC%A4/13883799", "lemmaPic": []}, {"lemmaId": 869354, "lemmaTitle": "非寄生虫性肝囊肿", "lemmaCroppedTitle": "非寄生虫性肝囊肿", "lemmaDesc": "非寄生虫性肝囊肿绝大多数是肝脏的良性疾病，其中先天性囊肿最常见。本病可为单发性或...", "lemmaUrl": "http://baike.baidu.com/item/%E9%9D%9E%E5%AF%84%E7%94%9F%E8%99%AB%E6%80%A7%E8%82%9D%E5%9B%8A%E8%82%BF/869354", "lemmaPic": []}, {"lemmaId": 1983143, "lemmaTitle": "双眼上斜肌麻痹", "lemmaCroppedTitle": "双眼上斜肌麻痹", "lemmaDesc": "双眼上斜肌麻痹是指双眼的上斜肌因先天发育异常或后天因素所致的功能障碍。主要表现上...", "lemmaUrl": "http://baike.baidu.com/item/%E5%8F%8C%E7%9C%BC%E4%B8%8A%E6%96%9C%E8%82%8C%E9%BA%BB%E7%97%B9/1983143", "lemmaPic": []}, {"lemmaId": 12093322, "lemmaTitle": "小儿先天性膈疝", "lemmaCroppedTitle": "小儿先天性膈疝", "lemmaDesc": "小儿先天性膈疝（CDH）是由于胚胎发育异常，导致膈肌缺损，腹腔脏器疝入胸腔及肺发...", "lemmaUrl": "http://baike.baidu.com/item/%E5%B0%8F%E5%84%BF%E5%85%88%E5%A4%A9%E6%80%A7%E8%86%88%E7%96%9D/12093322", "lemmaPic": []}, {"lemmaId": 8531456, "lemmaTitle": "外伤性颈内动脉海绵窦瘘", "lemmaCroppedTitle": "外伤性颈内动脉海绵窦瘘", "lemmaDesc": "外伤性颈动脉海绵窦瘘（tramatic carotid-cavernous fi...", "lemmaUrl": "http://baike.baidu.com/item/%E5%A4%96%E4%BC%A4%E6%80%A7%E9%A2%88%E5%86%85%E5%8A%A8%E8%84%89%E6%B5%B7%E7%BB%B5%E7%AA%A6%E7%98%98/8531456", "lemmaPic": []}, {"lemmaId": 10345479, "lemmaTitle": "脊髓神经鞘瘤", "lemmaCroppedTitle": "脊髓神经鞘瘤", "lemmaDesc": "脊髓神经鞘瘤起源于背侧脊神经根，呈向心性生长时亦可产生软膜下浸润。臂丛或腰丛神经...", "lemmaUrl": "http://baike.baidu.com/item/%E8%84%8A%E9%AB%93%E7%A5%9E%E7%BB%8F%E9%9E%98%E7%98%A4/10345479", "lemmaPic": []}, {"lemmaId": 768606, "lemmaTitle": "脑室炎", "lemmaCroppedTitle": "脑室炎", "lemmaDesc": "脑室炎（ventriculitis）又称脑室管膜炎，是发生在脑室系统及其周围的炎...", "lemmaUrl": "http://baike.baidu.com/item/%E8%84%91%E5%AE%A4%E7%82%8E/768606", "lemmaPic": []}, {"lemmaId": 3258999, "lemmaTitle": "空肠、回肠憩室", "lemmaCroppedTitle": "空肠、回肠憩室", "lemmaDesc": "空肠憩室比回肠多见，常在Treitz韧带附近，可单发，但常为多发。如为多发，在下...", "lemmaUrl": "http://baike.baidu.com/item/%E7%A9%BA%E8%82%A0%E3%80%81%E5%9B%9E%E8%82%A0%E6%86%A9%E5%AE%A4/3258999", "lemmaPic": []}, {"lemmaId": 3634140, "lemmaTitle": "神经白塞病", "lemmaCroppedTitle": "神经白塞病", "lemmaDesc": "神经白塞病（NBD）指兼有神经系统损害的白塞综合征，又称神经白塞综合征（neur...", "lemmaUrl": "http://baike.baidu.com/item/%E7%A5%9E%E7%BB%8F%E7%99%BD%E5%A1%9E%E7%97%85/3634140", "lemmaPic": []}, {"lemmaId": 403864, "lemmaTitle": "周期性动眼神经麻痹", "lemmaCroppedTitle": "周期性动眼神经麻痹", "lemmaDesc": "周期性动眼神经麻痹是指动眼神经所支配的眼内肌、眼外肌有规律地出现麻痹，或麻痹与痉...", "lemmaUrl": "http://baike.baidu.com/item/%E5%91%A8%E6%9C%9F%E6%80%A7%E5%8A%A8%E7%9C%BC%E7%A5%9E%E7%BB%8F%E9%BA%BB%E7%97%B9/403864", "lemmaPic": []}, {"lemmaId": 10456102, "lemmaTitle": "急性舌扁桃体炎", "lemmaCroppedTitle": "急性舌扁桃体炎", "lemmaDesc": "急性舌扁桃体炎为舌根部淋巴组织团块急性发炎，多继发于上呼吸道感染或并发于急性扁桃...", "lemmaUrl": "http://baike.baidu.com/item/%E6%80%A5%E6%80%A7%E8%88%8C%E6%89%81%E6%A1%83%E4%BD%93%E7%82%8E/10456102", "lemmaPic": []}, {"lemmaId": 2774801, "lemmaTitle": "乳房丝虫病", "lemmaCroppedTitle": "乳房丝虫病", "lemmaDesc": "乳房丝虫病是血丝虫寄生于乳房的淋巴管中，造成淋巴管阻塞而发生的丝虫性肉芽肿。男女...", "lemmaUrl": "http://baike.baidu.com/item/%E4%B9%B3%E6%88%BF%E4%B8%9D%E8%99%AB%E7%97%85/2774801", "lemmaPic": []}, {"lemmaId": 5321223, "lemmaTitle": "咽旁间隙感染", "lemmaCroppedTitle": "咽旁间隙感染", "lemmaDesc": "咽旁间隙感染指咽旁间隙的急性化脓性感染，其主要临床表现为咽侧壁红肿、腭扁桃体肿大...", "lemmaUrl": "http://baike.baidu.com/item/%E5%92%BD%E6%97%81%E9%97%B4%E9%9A%99%E6%84%9F%E6%9F%93/5321223", "lemmaPic": []}, {"lemmaId": 1028121, "lemmaTitle": "妊娠合并肠梗阻", "lemmaCroppedTitle": "妊娠合并肠梗阻", "lemmaDesc": "妊娠期肠梗阻较罕见，发病率为0.018%～0.16%。妊娠期肠梗阻对母儿来说是一...", "lemmaUrl": "http://baike.baidu.com/item/%E5%A6%8A%E5%A8%A0%E5%90%88%E5%B9%B6%E8%82%A0%E6%A2%97%E9%98%BB/1028121", "lemmaPic": []}, {"lemmaId": 5087003, "lemmaTitle": "桡骨、尺骨茎突骨折", "lemmaCroppedTitle": "桡骨、尺骨茎突骨折", "lemmaDesc": "本病很常见。多由摔倒时手掌着地而发生，冲击力经舟状骨作用于桡骨下端而引起桡骨茎突...", "lemmaUrl": "http://baike.baidu.com/item/%E6%A1%A1%E9%AA%A8%E3%80%81%E5%B0%BA%E9%AA%A8%E8%8C%8E%E7%AA%81%E9%AA%A8%E6%8A%98/5087003", "lemmaPic": []}, {"lemmaId": 8951209, "lemmaTitle": "急进型高血压", "lemmaCroppedTitle": "急进型高血压", "lemmaDesc": "血压显著升高（收缩压大于等于180mmHg或舒张压大于等于110mmHg）被定义...", "lemmaUrl": "http://baike.baidu.com/item/%E6%80%A5%E8%BF%9B%E5%9E%8B%E9%AB%98%E8%A1%80%E5%8E%8B/8951209", "lemmaPic": []}, {"lemmaId": 10456355, "lemmaTitle": "白血病性咽峡炎", "lemmaCroppedTitle": "白血病性咽峡炎", "lemmaDesc": "白血病是起源于造血干、祖细胞的造血系统恶性肿瘤。其临床表现主要与白血病细胞无控性...", "lemmaUrl": "http://baike.baidu.com/item/%E7%99%BD%E8%A1%80%E7%97%85%E6%80%A7%E5%92%BD%E5%B3%A1%E7%82%8E/10456355", "lemmaPic": []}, {"lemmaId": 5499689, "lemmaTitle": "症状性癫痫综合征", "lemmaCroppedTitle": "症状性癫痫综合征", "lemmaDesc": "各种明确或可能的中枢神经系统病变影响结构或功能所致本征，如染色体异常、局灶性或弥...", "lemmaUrl": "http://baike.baidu.com/item/%E7%97%87%E7%8A%B6%E6%80%A7%E7%99%AB%E7%97%AB%E7%BB%BC%E5%90%88%E5%BE%81/5499689", "lemmaPic": []}, {"lemmaId": 2960213, "lemmaTitle": "小儿慢性良性中性粒细胞减少症", "lemmaCroppedTitle": "小儿慢性良性中性粒细胞减少症", "lemmaDesc": "慢性良性中性粒细胞减少症（CBN）为一组病因不明的异原性疾病，又称为原发性中性粒...", "lemmaUrl": "http://baike.baidu.com/item/%E5%B0%8F%E5%84%BF%E6%85%A2%E6%80%A7%E8%89%AF%E6%80%A7%E4%B8%AD%E6%80%A7%E7%B2%92%E7%BB%86%E8%83%9E%E5%87%8F%E5%B0%91%E7%97%87/2960213", "lemmaPic": []}, {"lemmaId": 13001529, "lemmaTitle": "恶心与呕吐", "lemmaCroppedTitle": "恶心与呕吐", "lemmaDesc": "恶心与呕吐是临床常见症状。恶心为上腹部不适和紧迫欲吐的感觉。可伴有迷走神经兴奋的...", "lemmaUrl": "http://baike.baidu.com/item/%E6%81%B6%E5%BF%83%E4%B8%8E%E5%91%95%E5%90%90/13001529", "lemmaPic": []}, {"lemmaId": 1844212, "lemmaTitle": "外阴血管瘤", "lemmaCroppedTitle": "外阴血管瘤", "lemmaDesc": "外阴血管瘤多属先天性，大多于出生时或出生后数周出现，在围绝经期和老年期也可出现。...", "lemmaUrl": "http://baike.baidu.com/item/%E5%A4%96%E9%98%B4%E8%A1%80%E7%AE%A1%E7%98%A4/1844212", "lemmaPic": []}, {"lemmaId": 972272, "lemmaTitle": "先天性垂直距骨", "lemmaCroppedTitle": "先天性垂直距骨", "lemmaDesc": "先天性垂直距骨（CVT）是一种少见的先天性畸形，又称畸形性距舟关节脱位、先天性凸...", "lemmaUrl": "http://baike.baidu.com/item/%E5%85%88%E5%A4%A9%E6%80%A7%E5%9E%82%E7%9B%B4%E8%B7%9D%E9%AA%A8/972272", "lemmaPic": []}, {"lemmaId": 4310377, "lemmaTitle": "小儿变应性鼻炎", "lemmaCroppedTitle": "小儿变应性鼻炎", "lemmaDesc": "变应性鼻炎又称过敏性鼻炎、变态反应性鼻炎。是一种吸入外界过敏性抗原而引起的、以鼻...", "lemmaUrl": "http://baike.baidu.com/item/%E5%B0%8F%E5%84%BF%E5%8F%98%E5%BA%94%E6%80%A7%E9%BC%BB%E7%82%8E/4310377", "lemmaPic": []}, {"lemmaId": 5987083, "lemmaTitle": "阴盛阳衰证", "lemmaCroppedTitle": "阴盛阳衰证", "lemmaDesc": "阴、阳出自阴阳学说，属于中国古代哲学范畴。中医学应用阴阳阐述疾病的发病机理。阴盛...", "lemmaUrl": "http://baike.baidu.com/item/%E9%98%B4%E7%9B%9B%E9%98%B3%E8%A1%B0%E8%AF%81/5987083", "lemmaPic": []}, {"lemmaId": 6522821, "lemmaTitle": "食管瘢痕性狭窄", "lemmaCroppedTitle": "食管瘢痕性狭窄", "lemmaDesc": "食管瘢性狭窄指各种原因造成食管瘢痕组织形成，进而引起食管腔缩窄、食管功能障碍者。...", "lemmaUrl": "http://baike.baidu.com/item/%E9%A3%9F%E7%AE%A1%E7%98%A2%E7%97%95%E6%80%A7%E7%8B%AD%E7%AA%84/6522821", "lemmaPic": []}, {"lemmaId": 6003855, "lemmaTitle": "尺骨干骨折", "lemmaCroppedTitle": "尺骨干骨折", "lemmaDesc": "多见于外力突然袭击，患者举手遮挡头面部时被棍棒直接打击所致。因多发生在路遇强人情...", "lemmaUrl": "http://baike.baidu.com/item/%E5%B0%BA%E9%AA%A8%E5%B9%B2%E9%AA%A8%E6%8A%98/6003855", "lemmaPic": []}, {"lemmaId": 3588993, "lemmaTitle": "十二指肠结核", "lemmaCroppedTitle": "十二指肠结核", "lemmaDesc": "十二指肠结核较为罕见，除病变部位不同外，在临床和病理方面与胃结核很相似，其发生率...", "lemmaUrl": "http://baike.baidu.com/item/%E5%8D%81%E4%BA%8C%E6%8C%87%E8%82%A0%E7%BB%93%E6%A0%B8/3588993", "lemmaPic": []}, {"lemmaId": 5773177, "lemmaTitle": "先天性肝纤维化", "lemmaCroppedTitle": "先天性肝纤维化", "lemmaDesc": "先天性肝纤维化为一种罕见的遗传性先天性畸形，以门管区结缔组织增生、小胆管增生为特...", "lemmaUrl": "http://baike.baidu.com/item/%E5%85%88%E5%A4%A9%E6%80%A7%E8%82%9D%E7%BA%A4%E7%BB%B4%E5%8C%96/5773177", "lemmaPic": []}, {"lemmaId": 3006604, "lemmaTitle": "多发性脑膜瘤", "lemmaCroppedTitle": "多发性脑膜瘤", "lemmaDesc": "颅内出现两个以上相互不连的脑膜瘤时称为多发性脑膜瘤。多发脑膜瘤多见于大脑凸面，分...", "lemmaUrl": "http://baike.baidu.com/item/%E5%A4%9A%E5%8F%91%E6%80%A7%E8%84%91%E8%86%9C%E7%98%A4/3006604", "lemmaPic": []}, {"lemmaId": 3895137, "lemmaTitle": "原发性系统性淀粉样变", "lemmaCroppedTitle": "原发性系统性淀粉样变", "lemmaDesc": "原发性系统性淀粉样变病( primary systemic amyloidosi...", "lemmaUrl": "http://baike.baidu.com/item/%E5%8E%9F%E5%8F%91%E6%80%A7%E7%B3%BB%E7%BB%9F%E6%80%A7%E6%B7%80%E7%B2%89%E6%A0%B7%E5%8F%98/3895137", "lemmaPic": []}, {"lemmaId": 5852472, "lemmaTitle": "弥漫型间皮瘤", "lemmaCroppedTitle": "弥漫型间皮瘤", "lemmaDesc": "胸膜间皮瘤有预后较好的良性纤维性间皮瘤和弥漫型恶性胸膜间皮瘤，后者被认为是胸部预...", "lemmaUrl": "http://baike.baidu.com/item/%E5%BC%A5%E6%BC%AB%E5%9E%8B%E9%97%B4%E7%9A%AE%E7%98%A4/5852472", "lemmaPic": []}, {"lemmaId": 3371102, "lemmaTitle": "足球踝", "lemmaCroppedTitle": "足球踝", "lemmaDesc": "O′Donoghue于1957年首先报道了踝关节胫骨前唇与距骨颈骨赘之间的相互撞...", "lemmaUrl": "http://baike.baidu.com/item/%E8%B6%B3%E7%90%83%E8%B8%9D/3371102", "lemmaPic": []}, {"lemmaId": 466663, "lemmaTitle": "肺泡微结石症", "lemmaCroppedTitle": "肺泡微结石症", "lemmaDesc": "肺泡微结石症（PAM）是一种罕见的存在于肺泡内的无数个微结石疾病。本病病因不明。...", "lemmaUrl": "http://baike.baidu.com/item/%E8%82%BA%E6%B3%A1%E5%BE%AE%E7%BB%93%E7%9F%B3%E7%97%87/466663", "lemmaPic": []}, {"lemmaId": 9230484, "lemmaTitle": "肾动脉粥样栓塞", "lemmaCroppedTitle": "肾动脉粥样栓塞", "lemmaDesc": "肾动脉粥样硬化、肾动脉粥样栓塞是一种临床综合征，随着肾小动脉粥样物质的阻塞程度而...", "lemmaUrl": "http://baike.baidu.com/item/%E8%82%BE%E5%8A%A8%E8%84%89%E7%B2%A5%E6%A0%B7%E6%A0%93%E5%A1%9E/9230484", "lemmaPic": []}, {"lemmaId": 5124754, "lemmaTitle": "结肠直肠损伤", "lemmaCroppedTitle": "结肠直肠损伤", "lemmaDesc": "结肠直肠损伤平时多因工农业生产外伤、交通事故、生活意外等所致，以腹部闭合性损伤为...", "lemmaUrl": "http://baike.baidu.com/item/%E7%BB%93%E8%82%A0%E7%9B%B4%E8%82%A0%E6%8D%9F%E4%BC%A4/5124754", "lemmaPic": []}, {"lemmaId": 2533168, "lemmaTitle": "腓总神经卡压症", "lemmaCroppedTitle": "腓总神经卡压症", "lemmaDesc": "腓总神经卡压症是指腓总神经及其主要分支受压而引起的一系列症状和体征的症候群。腓总...", "lemmaUrl": "http://baike.baidu.com/item/%E8%85%93%E6%80%BB%E7%A5%9E%E7%BB%8F%E5%8D%A1%E5%8E%8B%E7%97%87/2533168", "lemmaPic": []}, {"lemmaId": 8455947, "lemmaTitle": "粘多糖沉积病", "lemmaCroppedTitle": "粘多糖沉积病", "lemmaDesc": "粘多糖沉积病是由于蛋白聚糖降解酶先天性缺陷所引起的蛋白聚糖分解代谢障碍，而导致产...", "lemmaUrl": "http://baike.baidu.com/item/%E7%B2%98%E5%A4%9A%E7%B3%96%E6%B2%89%E7%A7%AF%E7%97%85/8455947", "lemmaPic": []}, {"lemmaId": 3178334, "lemmaTitle": "颈椎后脱位", "lemmaCroppedTitle": "颈椎后脱位", "lemmaDesc": "颈椎后脱位是指暴力使颈椎产生过伸活动，引起颈椎上节椎体下缘在下节椎体上缘向后滑动...", "lemmaUrl": "http://baike.baidu.com/item/%E9%A2%88%E6%A4%8E%E5%90%8E%E8%84%B1%E4%BD%8D/3178334", "lemmaPic": []}, {"lemmaId": 5774728, "lemmaTitle": "胫腓下联合前部分离", "lemmaCroppedTitle": "胫腓下联合前部分离", "lemmaDesc": "胫腓下联合在维持踝关节稳定性、重量的传导和行走中起重要作用，其损伤并不少见，胫腓...", "lemmaUrl": "http://baike.baidu.com/item/%E8%83%AB%E8%85%93%E4%B8%8B%E8%81%94%E5%90%88%E5%89%8D%E9%83%A8%E5%88%86%E7%A6%BB/5774728", "lemmaPic": []}, {"lemmaId": 13478652, "lemmaTitle": "皮罗综合征", "lemmaCroppedTitle": "皮罗综合征", "lemmaDesc": "皮罗综合征又称小下颌-舌下垂综合征，即小颌和舌根后坠，是腭裂的一种，属于先天性疾...", "lemmaUrl": "http://baike.baidu.com/item/%E7%9A%AE%E7%BD%97%E7%BB%BC%E5%90%88%E5%BE%81/13478652", "lemmaPic": []}, {"lemmaId": 6520183, "lemmaTitle": "Milk-Alkali综合征", "lemmaCroppedTitle": "Milk-Alkali综合征", "lemmaDesc": "Milk-Alkali综合征又称乳-碱综合征，是指因长期进食大量牛奶或钙剂，并服...", "lemmaUrl": "http://baike.baidu.com/item/Milk-Alkali%E7%BB%BC%E5%90%88%E5%BE%81/6520183", "lemmaPic": []}, {"lemmaId": 10456367, "lemmaTitle": "奋森咽峡炎", "lemmaCroppedTitle": "奋森咽峡炎", "lemmaDesc": "奋森咽峡炎是一种溃疡膜性炎症，由厌氧梭形杆菌及螺旋体感染引起。", "lemmaUrl": "http://baike.baidu.com/item/%E5%A5%8B%E6%A3%AE%E5%92%BD%E5%B3%A1%E7%82%8E/10456367", "lemmaPic": []}, {"lemmaId": 10294148, "lemmaTitle": "老年人肺癌", "lemmaCroppedTitle": "老年人肺癌", "lemmaDesc": "老年人肺癌为原发于支气管-肺的癌，即原发性支气管肺癌，简称肺癌。肺癌是当今世界上...", "lemmaUrl": "http://baike.baidu.com/item/%E8%80%81%E5%B9%B4%E4%BA%BA%E8%82%BA%E7%99%8C/10294148", "lemmaPic": []}, {"lemmaId": 5402485, "lemmaTitle": "脑肝肾综合征", "lemmaCroppedTitle": "脑肝肾综合征", "lemmaDesc": "脑肝肾综合征于1964年首先由Bowen、Lee和Zellweger报道，故又称...", "lemmaUrl": "http://baike.baidu.com/item/%E8%84%91%E8%82%9D%E8%82%BE%E7%BB%BC%E5%90%88%E5%BE%81/5402485", "lemmaPic": []}, {"lemmaId": 12428587, "lemmaTitle": "小儿α-地中海贫血", "lemmaCroppedTitle": "小儿α-地中海贫血", "lemmaDesc": "地中海贫血（简称地贫）又称海洋性贫血（thalassemia），它是一组由于遗传...", "lemmaUrl": "http://baike.baidu.com/item/%E5%B0%8F%E5%84%BF%CE%B1-%E5%9C%B0%E4%B8%AD%E6%B5%B7%E8%B4%AB%E8%A1%80/12428587", "lemmaPic": []}, {"lemmaId": 1814201, "lemmaTitle": "子满", "lemmaCroppedTitle": "子满", "lemmaDesc": "妊娠五六个月后出现腹大异常，胸膈满闷，甚则遍身俱肿，喘息不得卧者，称“子满”。又...", "lemmaUrl": "http://baike.baidu.com/item/%E5%AD%90%E6%BB%A1/1814201", "lemmaPic": []}, {"lemmaId": 6292292, "lemmaTitle": "A链球菌群感染", "lemmaCroppedTitle": "A链球菌群感染", "lemmaDesc": "A链球菌群又称化脓性链球菌，是人类细菌感染中最重要的病原之一。引起的感染主要有急...", "lemmaUrl": "http://baike.baidu.com/item/A%E9%93%BE%E7%90%83%E8%8F%8C%E7%BE%A4%E6%84%9F%E6%9F%93/6292292", "lemmaPic": []}, {"lemmaId": 2638472, "lemmaTitle": "小儿肝硬化", "lemmaCroppedTitle": "小儿肝硬化", "lemmaDesc": "小儿肝硬化是一种慢性弥漫性进行性肝脏疾病。以肝脏广泛纤维化伴结节形成的病理改变而...", "lemmaUrl": "http://baike.baidu.com/item/%E5%B0%8F%E5%84%BF%E8%82%9D%E7%A1%AC%E5%8C%96/2638472", "lemmaPic": []}, {"lemmaId": 10816199, "lemmaTitle": "聚星障", "lemmaCroppedTitle": "聚星障", "lemmaDesc": "聚星障是黑睛上生多个细小星翳，伴涩痛、畏光流泪的眼病。常在热病后，或慢性疾病，或...", "lemmaUrl": "http://baike.baidu.com/item/%E8%81%9A%E6%98%9F%E9%9A%9C/10816199", "lemmaPic": []}, {"lemmaId": 5358953, "lemmaTitle": "肠梨形鞭毛虫病", "lemmaCroppedTitle": "肠梨形鞭毛虫病", "lemmaDesc": "肠梨形鞭毛虫病，又称贾第虫病，是由梨形鞭毛虫所致的腹泻、消瘦、营养吸收不良性疾病...", "lemmaUrl": "http://baike.baidu.com/item/%E8%82%A0%E6%A2%A8%E5%BD%A2%E9%9E%AD%E6%AF%9B%E8%99%AB%E7%97%85/5358953", "lemmaPic": []}, {"lemmaId": 288095, "lemmaTitle": "急性纵隔炎", "lemmaCroppedTitle": "急性纵隔炎", "lemmaDesc": "急性纵隔炎指纵隔内的细菌感染，常由原发性肺结核或组织胞浆菌病感染所致。本病分为急...", "lemmaUrl": "http://baike.baidu.com/item/%E6%80%A5%E6%80%A7%E7%BA%B5%E9%9A%94%E7%82%8E/288095", "lemmaPic": []}, {"lemmaId": 1321041, "lemmaTitle": "粟疮", "lemmaCroppedTitle": "粟疮", "lemmaDesc": "以胞睑内面泡样颗粒丛生，状如粟米为主要表现的眼病。多见于下睑，色黄，质地较软，大...", "lemmaUrl": "http://baike.baidu.com/item/%E7%B2%9F%E7%96%AE/1321041", "lemmaPic": []}, {"lemmaId": 2307287, "lemmaTitle": "肝性血卟啉病", "lemmaCroppedTitle": "肝性血卟啉病", "lemmaDesc": "肝性血卟啉病又称Waldenstrom综合征、急性间歇性卟啉症（AIP）。本病是...", "lemmaUrl": "http://baike.baidu.com/item/%E8%82%9D%E6%80%A7%E8%A1%80%E5%8D%9F%E5%95%89%E7%97%85/2307287", "lemmaPic": []}, {"lemmaId": 4023878, "lemmaTitle": "子宫颈肉瘤", "lemmaCroppedTitle": "子宫颈肉瘤", "lemmaDesc": "子宫颈肉瘤是一种少见的恶性程度较高的女性生殖道肿瘤。宫颈肉瘤因发病率低，无特异性...", "lemmaUrl": "http://baike.baidu.com/item/%E5%AD%90%E5%AE%AB%E9%A2%88%E8%82%89%E7%98%A4/4023878", "lemmaPic": []}, {"lemmaId": 5056111, "lemmaTitle": "原发性小血管炎性肾损害", "lemmaCroppedTitle": "原发性小血管炎性肾损害", "lemmaDesc": "由原发性小血管炎（主要见于显微镜下多动脉炎和韦格内肉芽肿）所致的节段性坏死性肾小...", "lemmaUrl": "http://baike.baidu.com/item/%E5%8E%9F%E5%8F%91%E6%80%A7%E5%B0%8F%E8%A1%80%E7%AE%A1%E7%82%8E%E6%80%A7%E8%82%BE%E6%8D%9F%E5%AE%B3/5056111", "lemmaPic": []}, {"lemmaId": 9535861, "lemmaTitle": "水火烫伤", "lemmaCroppedTitle": "水火烫伤", "lemmaDesc": "在古代，一般以火烧伤和汤烫伤者居多，故又称为水火烫伤、汤泼火伤、火烧伤、汤火疮、...", "lemmaUrl": "http://baike.baidu.com/item/%E6%B0%B4%E7%81%AB%E7%83%AB%E4%BC%A4/9535861", "lemmaPic": []}, {"lemmaId": 7350048, "lemmaTitle": "皮脂缺乏症", "lemmaCroppedTitle": "皮脂缺乏症", "lemmaDesc": "皮脂缺乏症是指皮脂腺分泌减少或缺乏造成皮肤干燥，又称干皮肤，常为单纯鱼鳞病样表现...", "lemmaUrl": "http://baike.baidu.com/item/%E7%9A%AE%E8%84%82%E7%BC%BA%E4%B9%8F%E7%97%87/7350048", "lemmaPic": []}, {"lemmaId": 10769493, "lemmaTitle": "乳痨", "lemmaCroppedTitle": "乳痨", "lemmaDesc": "乳痨是以乳房结块如梅李，不痛，边界不清，皮肉相连，肿块化脓溃后脓出稀薄，疮口不易...", "lemmaUrl": "http://baike.baidu.com/item/%E4%B9%B3%E7%97%A8/10769493", "lemmaPic": []}, {"lemmaId": 5085357, "lemmaTitle": "手掌深部间隙感染", "lemmaCroppedTitle": "手掌深部间隙感染", "lemmaDesc": "手掌深部刺伤或由化脓性腱鞘炎蔓延引起的掌深面两个相毗邻的潜在间隙的急性感染。掌中...", "lemmaUrl": "http://baike.baidu.com/item/%E6%89%8B%E6%8E%8C%E6%B7%B1%E9%83%A8%E9%97%B4%E9%9A%99%E6%84%9F%E6%9F%93/5085357", "lemmaPic": []}, {"lemmaId": 9226716, "lemmaTitle": "流行性甲型脑炎", "lemmaCroppedTitle": "流行性甲型脑炎", "lemmaDesc": "流行性甲型脑炎又称昏睡性脑炎。1917年4月康斯坦丁・冯・艾克诺默医生描述了对本...", "lemmaUrl": "http://baike.baidu.com/item/%E6%B5%81%E8%A1%8C%E6%80%A7%E7%94%B2%E5%9E%8B%E8%84%91%E7%82%8E/9226716", "lemmaPic": []}, {"lemmaId": 4399115, "lemmaTitle": "恶性肿瘤所致贫血", "lemmaCroppedTitle": "恶性肿瘤所致贫血", "lemmaDesc": "恶性肿瘤所致贫血是指造血组织以外的各种恶性肿瘤所引起的贫血。其贫血表现类型和程度...", "lemmaUrl": "http://baike.baidu.com/item/%E6%81%B6%E6%80%A7%E8%82%BF%E7%98%A4%E6%89%80%E8%87%B4%E8%B4%AB%E8%A1%80/4399115", "lemmaPic": []}, {"lemmaId": 10692809, "lemmaTitle": "家族性混合型高脂血症", "lemmaCroppedTitle": "家族性混合型高脂血症", "lemmaDesc": "家族性混合型高脂血症（FCH）是于1973年首次被认识的一个独立的病症。在60岁...", "lemmaUrl": "http://baike.baidu.com/item/%E5%AE%B6%E6%97%8F%E6%80%A7%E6%B7%B7%E5%90%88%E5%9E%8B%E9%AB%98%E8%84%82%E8%A1%80%E7%97%87/10692809", "lemmaPic": []}, {"lemmaId": 5360349, "lemmaTitle": "杀鼠剂中毒", "lemmaCroppedTitle": "杀鼠剂中毒", "lemmaDesc": "临床上杀鼠剂中毒多见幼儿误食或自杀口服等情况。常见的杀鼠剂有磷化锌、敌鼠及华法林...", "lemmaUrl": "http://baike.baidu.com/item/%E6%9D%80%E9%BC%A0%E5%89%82%E4%B8%AD%E6%AF%92/5360349", "lemmaPic": []}, {"lemmaId": 5280970, "lemmaTitle": "泪腺分泌功能减退", "lemmaCroppedTitle": "泪腺分泌功能减退", "lemmaDesc": "泪腺分泌功能减退是一种泪液过少而引起干燥性角膜、结膜炎，分为原发性、先天性、麻痹...", "lemmaUrl": "http://baike.baidu.com/item/%E6%B3%AA%E8%85%BA%E5%88%86%E6%B3%8C%E5%8A%9F%E8%83%BD%E5%87%8F%E9%80%80/5280970", "lemmaPic": []}, {"lemmaId": 2828684, "lemmaTitle": "急性眼眶蜂窝织炎", "lemmaCroppedTitle": "急性眼眶蜂窝织炎", "lemmaDesc": "急性眶蜂窝组织炎是眼眶软组织的急性感染，是一种严重的眼眶疾患，如果诊断不及时或未...", "lemmaUrl": "http://baike.baidu.com/item/%E6%80%A5%E6%80%A7%E7%9C%BC%E7%9C%B6%E8%9C%82%E7%AA%9D%E7%BB%87%E7%82%8E/2828684", "lemmaPic": []}, {"lemmaId": 4349597, "lemmaTitle": "类脂性肺炎", "lemmaCroppedTitle": "类脂性肺炎", "lemmaDesc": "类脂性肺炎是肺对一些脂类物质的一种慢性炎症反应。早产、弱小或有腭裂的婴儿因咽部反...", "lemmaUrl": "http://baike.baidu.com/item/%E7%B1%BB%E8%84%82%E6%80%A7%E8%82%BA%E7%82%8E/4349597", "lemmaPic": []}, {"lemmaId": 2145707, "lemmaTitle": "Turcot综合征", "lemmaCroppedTitle": "Turcot综合征", "lemmaDesc": "Turcot综合征又名胶质瘤息肉病综合征。其特征为家族性多发性结肠腺瘤伴有中枢神...", "lemmaUrl": "http://baike.baidu.com/item/Turcot%E7%BB%BC%E5%90%88%E5%BE%81/2145707", "lemmaPic": []}, {"lemmaId": 7253384, "lemmaTitle": "老年人心房纤颤", "lemmaCroppedTitle": "老年人心房纤颤", "lemmaDesc": "心房纤颤是最常见的心律失常之一是心房呈无序激动和无效收缩的房性节律是由心房-主导...", "lemmaUrl": "http://baike.baidu.com/item/%E8%80%81%E5%B9%B4%E4%BA%BA%E5%BF%83%E6%88%BF%E7%BA%A4%E9%A2%A4/7253384", "lemmaPic": []}, {"lemmaId": 5054979, "lemmaTitle": "遗传性补体缺陷病", "lemmaCroppedTitle": "遗传性补体缺陷病", "lemmaDesc": "在补体系统的组成成分中，几乎每一种可有遗传缺陷。大多数补体遗传缺陷属常染色体隐性...", "lemmaUrl": "http://baike.baidu.com/item/%E9%81%97%E4%BC%A0%E6%80%A7%E8%A1%A5%E4%BD%93%E7%BC%BA%E9%99%B7%E7%97%85/5054979", "lemmaPic": []}, {"lemmaId": 727953, "lemmaTitle": "大网膜扭转", "lemmaCroppedTitle": "大网膜扭转", "lemmaDesc": "大网膜是腹腔内最大的腹膜皱襞，起于胃大弯及横结肠，远侧呈裙状，游离于腹腔下缘，活...", "lemmaUrl": "http://baike.baidu.com/item/%E5%A4%A7%E7%BD%91%E8%86%9C%E6%89%AD%E8%BD%AC/727953", "lemmaPic": []}, {"lemmaId": 9820621, "lemmaTitle": "小儿结节性硬化症", "lemmaCroppedTitle": "小儿结节性硬化症", "lemmaDesc": "结节性硬化症又称Bourneville病、Epiloia病，是源于外胚层的器官发...", "lemmaUrl": "http://baike.baidu.com/item/%E5%B0%8F%E5%84%BF%E7%BB%93%E8%8A%82%E6%80%A7%E7%A1%AC%E5%8C%96%E7%97%87/9820621", "lemmaPic": []}, {"lemmaId": 2986617, "lemmaTitle": "乙型肝炎病毒性关节炎", "lemmaCroppedTitle": "乙型肝炎病毒性关节炎", "lemmaDesc": "乙型肝炎病毒是双链环状DNA病毒，该病毒有3个重要的抗原，包括表面抗原（HBsA...", "lemmaUrl": "http://baike.baidu.com/item/%E4%B9%99%E5%9E%8B%E8%82%9D%E7%82%8E%E7%97%85%E6%AF%92%E6%80%A7%E5%85%B3%E8%8A%82%E7%82%8E/2986617", "lemmaPic": []}, {"lemmaId": 5233071, "lemmaTitle": "妇女多毛症", "lemmaCroppedTitle": "妇女多毛症", "lemmaDesc": "妇女多毛症指因雄激素增高和毛囊对雄激素的反应增强而导致的妇女有部分或完全男性型粗...", "lemmaUrl": "http://baike.baidu.com/item/%E5%A6%87%E5%A5%B3%E5%A4%9A%E6%AF%9B%E7%97%87/5233071", "lemmaPic": []}, {"lemmaId": 881094, "lemmaTitle": "外阴平滑肌肉瘤", "lemmaCroppedTitle": "外阴平滑肌肉瘤", "lemmaDesc": "外阴平滑肌肉瘤少见，但在外阴肉瘤中平滑肌肉瘤是最常见的。外阴平滑肌肉瘤占外阴肉瘤...", "lemmaUrl": "http://baike.baidu.com/item/%E5%A4%96%E9%98%B4%E5%B9%B3%E6%BB%91%E8%82%8C%E8%82%89%E7%98%A4/881094", "lemmaPic": []}, {"lemmaId": 3314158, "lemmaTitle": "过敏性支气管肺曲霉病", "lemmaCroppedTitle": "过敏性支气管肺曲霉病", "lemmaDesc": "过敏性支气管肺曲霉病（ABPA）又称变应性支气管肺曲霉病，是过敏性支气管真菌病中...", "lemmaUrl": "http://baike.baidu.com/item/%E8%BF%87%E6%95%8F%E6%80%A7%E6%94%AF%E6%B0%94%E7%AE%A1%E8%82%BA%E6%9B%B2%E9%9C%89%E7%97%85/3314158", "lemmaPic": []}, {"lemmaId": 1715570, "lemmaTitle": "卵巢泡膜细胞瘤", "lemmaCroppedTitle": "卵巢泡膜细胞瘤", "lemmaDesc": "卵巢泡膜细胞瘤基本上是良性肿瘤。其有明显的内分泌功能，瘤细胞可以分泌雌激素，当黄...", "lemmaUrl": "http://baike.baidu.com/item/%E5%8D%B5%E5%B7%A2%E6%B3%A1%E8%86%9C%E7%BB%86%E8%83%9E%E7%98%A4/1715570", "lemmaPic": []}, {"lemmaId": 10095501, "lemmaTitle": "结肠损伤", "lemmaCroppedTitle": "结肠损伤", "lemmaDesc": "结肠损伤的诊断和处理相对复杂。结肠壁薄，血供较差，愈合不好；结肠内积存大量细菌和...", "lemmaUrl": "http://baike.baidu.com/item/%E7%BB%93%E8%82%A0%E6%8D%9F%E4%BC%A4/10095501", "lemmaPic": []}, {"lemmaId": 10991225, "lemmaTitle": "太阳中风", "lemmaCroppedTitle": "太阳中风", "lemmaDesc": "太阳中风是指太阳经感受风邪，是太阳表证的一个证型，主要症状有头项强痛、恶风、发热...", "lemmaUrl": "http://baike.baidu.com/item/%E5%A4%AA%E9%98%B3%E4%B8%AD%E9%A3%8E/10991225", "lemmaPic": []}, {"lemmaId": 2314240, "lemmaTitle": "焦磷酸钙沉积病", "lemmaCroppedTitle": "焦磷酸钙沉积病", "lemmaDesc": "焦磷酸钙沉积病，是一种累及关节及其他运动系统的与二水焦磷酸钙（CPPS）晶体沉积...", "lemmaUrl": "http://baike.baidu.com/item/%E7%84%A6%E7%A3%B7%E9%85%B8%E9%92%99%E6%B2%89%E7%A7%AF%E7%97%85/2314240", "lemmaPic": []}, {"lemmaId": 9045308, "lemmaTitle": "纵隔囊肿", "lemmaCroppedTitle": "纵隔囊肿", "lemmaDesc": "纵隔囊肿属纵隔肿物中的一类，是纵隔内的一种良性病变。可发生于纵隔内各个脏器，如心...", "lemmaUrl": "http://baike.baidu.com/item/%E7%BA%B5%E9%9A%94%E5%9B%8A%E8%82%BF/9045308", "lemmaPic": []}, {"lemmaId": 5121043, "lemmaTitle": "先天性主动脉瓣上狭窄", "lemmaCroppedTitle": "先天性主动脉瓣上狭窄", "lemmaDesc": "先天性主动脉瓣上狭窄较主动脉瓣和瓣下狭窄少见。它同主动脉囊发育异常有关，合并一系...", "lemmaUrl": "http://baike.baidu.com/item/%E5%85%88%E5%A4%A9%E6%80%A7%E4%B8%BB%E5%8A%A8%E8%84%89%E7%93%A3%E4%B8%8A%E7%8B%AD%E7%AA%84/5121043", "lemmaPic": []}, {"lemmaId": 6835331, "lemmaTitle": "急性海绵窦栓塞性静脉炎", "lemmaCroppedTitle": "急性海绵窦栓塞性静脉炎", "lemmaDesc": "急性海绵窦栓塞性静脉炎是一种严重的海绵窦化脓性炎症。不及时治疗，死亡率极高。主要...", "lemmaUrl": "http://baike.baidu.com/item/%E6%80%A5%E6%80%A7%E6%B5%B7%E7%BB%B5%E7%AA%A6%E6%A0%93%E5%A1%9E%E6%80%A7%E9%9D%99%E8%84%89%E7%82%8E/6835331", "lemmaPic": []}, {"lemmaId": 5318433, "lemmaTitle": "结节性硬化病", "lemmaCroppedTitle": "结节性硬化病", "lemmaDesc": "结节性硬化病又名Bourneville病，以面部皮脂腺瘤、癫痫发作和智能减退为临...", "lemmaUrl": "http://baike.baidu.com/item/%E7%BB%93%E8%8A%82%E6%80%A7%E7%A1%AC%E5%8C%96%E7%97%85/5318433", "lemmaPic": []}, {"lemmaId": 5124921, "lemmaTitle": "结肠粪性穿孔", "lemmaCroppedTitle": "结肠粪性穿孔", "lemmaDesc": "结肠粪性穿孔（SP）是一种少见的致死性急腹症。慢性便秘是粪性溃疡的主要致病因素。...", "lemmaUrl": "http://baike.baidu.com/item/%E7%BB%93%E8%82%A0%E7%B2%AA%E6%80%A7%E7%A9%BF%E5%AD%94/5124921", "lemmaPic": []}, {"lemmaId": 2864173, "lemmaTitle": "淋巴细胞性脉络丛脑膜炎", "lemmaCroppedTitle": "淋巴细胞性脉络丛脑膜炎", "lemmaDesc": "由淋巴细胞性脉络丛脑膜炎病毒引起的中枢神经系统感染。多数病人类似感冒，少数病人出...", "lemmaUrl": "http://baike.baidu.com/item/%E6%B7%8B%E5%B7%B4%E7%BB%86%E8%83%9E%E6%80%A7%E8%84%89%E7%BB%9C%E4%B8%9B%E8%84%91%E8%86%9C%E7%82%8E/2864173", "lemmaPic": []}], "total": 7246, "totalPage": 73, "page": 43, "fromLemma": 0}