{"lemmaList": [{"lemmaId": 7363250, "lemmaTitle": "化脓性门静脉炎", "lemmaCroppedTitle": "化脓性门静脉炎", "lemmaDesc": "化脓性门静脉炎系指门静脉主干及其肝内分支的化脓性炎症。本病常与多发性细菌性肝脓肿...", "lemmaUrl": "http://baike.baidu.com/item/%E5%8C%96%E8%84%93%E6%80%A7%E9%97%A8%E9%9D%99%E8%84%89%E7%82%8E/7363250", "lemmaPic": []}, {"lemmaId": 7930191, "lemmaTitle": "肠道息肉病", "lemmaCroppedTitle": "肠道息肉病", "lemmaDesc": "大肠息肉是所有向肠腔突出的赘生物总称，包括肿瘤性和非肿瘤性。肿瘤性息肉是大肠黏膜...", "lemmaUrl": "http://baike.baidu.com/item/%E8%82%A0%E9%81%93%E6%81%AF%E8%82%89%E7%97%85/7930191", "lemmaPic": []}, {"lemmaId": 5280348, "lemmaTitle": "丝状角膜病变", "lemmaCroppedTitle": "丝状角膜病变", "lemmaDesc": "角膜上皮部分剥脱、呈卷丝状，一端附着在角膜表面，另一端呈游离的状态，称为丝状角膜...", "lemmaUrl": "http://baike.baidu.com/item/%E4%B8%9D%E7%8A%B6%E8%A7%92%E8%86%9C%E7%97%85%E5%8F%98/5280348", "lemmaPic": []}, {"lemmaId": 5941164, "lemmaTitle": "特发性黄斑部前膜", "lemmaCroppedTitle": "特发性黄斑部前膜", "lemmaDesc": "特发性黄斑部前膜（IMEM）是一种与年龄相关的增生性疾病，表现为黄斑部视网膜前膜...", "lemmaUrl": "http://baike.baidu.com/item/%E7%89%B9%E5%8F%91%E6%80%A7%E9%BB%84%E6%96%91%E9%83%A8%E5%89%8D%E8%86%9C/5941164", "lemmaPic": []}, {"lemmaId": 6184498, "lemmaTitle": "妊娠性哮喘", "lemmaCroppedTitle": "妊娠性哮喘", "lemmaDesc": "妊娠期哮喘的发生率是1%~4%，1/3的妊娠哮喘患者中，哮喘可能加重，少数患者会...", "lemmaUrl": "http://baike.baidu.com/item/%E5%A6%8A%E5%A8%A0%E6%80%A7%E5%93%AE%E5%96%98/6184498", "lemmaPic": []}, {"lemmaId": 12805029, "lemmaTitle": "急性呼吸道堵塞", "lemmaCroppedTitle": "急性呼吸道堵塞", "lemmaDesc": "1.何为急性呼吸道堵塞？人的生命活动需要氧气。氧气是通过呼吸道进入体内的，而人的...", "lemmaUrl": "http://baike.baidu.com/item/%E6%80%A5%E6%80%A7%E5%91%BC%E5%90%B8%E9%81%93%E5%A0%B5%E5%A1%9E/12805029", "lemmaPic": {"width": 665, "height": 684, "url": "https://gss3.bdstatic.com/-Po3dSag_xI4khGkpoWK1HF6hhy/baike/w%3D168/sign=f0dba238dfc451daf6f608ed8efd52a5/78310a55b319ebc45c4b4cff8026cffc1e1716a0.jpg"}}, {"lemmaId": 10221486, "lemmaTitle": "神经型食物中毒", "lemmaCroppedTitle": "神经型食物中毒", "lemmaDesc": "神经型食物中毒特指肉毒中毒，是由于进食含肉毒梭菌外毒素的食物而引起的急性中毒疾病...", "lemmaUrl": "http://baike.baidu.com/item/%E7%A5%9E%E7%BB%8F%E5%9E%8B%E9%A3%9F%E7%89%A9%E4%B8%AD%E6%AF%92/10221486", "lemmaPic": []}, {"lemmaId": 3327963, "lemmaTitle": "小肠腺癌", "lemmaCroppedTitle": "小肠腺癌", "lemmaDesc": "小肠腺癌的起病尚不清楚，相关危险因素与结肠癌相似。腺瘤是常见的癌前疾病，其中家族...", "lemmaUrl": "http://baike.baidu.com/item/%E5%B0%8F%E8%82%A0%E8%85%BA%E7%99%8C/3327963", "lemmaPic": []}, {"lemmaId": 9989510, "lemmaTitle": "坏死性龈口炎", "lemmaCroppedTitle": "坏死性龈口炎", "lemmaDesc": "坏死性龈口炎是一种坏死性炎症，发生在牙龈边缘称为坏死性龈炎，发生在口腔黏膜称为坏...", "lemmaUrl": "http://baike.baidu.com/item/%E5%9D%8F%E6%AD%BB%E6%80%A7%E9%BE%88%E5%8F%A3%E7%82%8E/9989510", "lemmaPic": []}, {"lemmaId": 5401532, "lemmaTitle": "回盲瓣综合征", "lemmaCroppedTitle": "回盲瓣综合征", "lemmaDesc": "回盲瓣综合征，又名回盲括约肌综合征，系指由各种原因所致的回盲瓣非特异性水肿。临床...", "lemmaUrl": "http://baike.baidu.com/item/%E5%9B%9E%E7%9B%B2%E7%93%A3%E7%BB%BC%E5%90%88%E5%BE%81/5401532", "lemmaPic": []}, {"lemmaId": 6301184, "lemmaTitle": "血管性帕金森综合征", "lemmaCroppedTitle": "血管性帕金森综合征", "lemmaDesc": "一些疾病或因素可以产生类似帕金森病(PD)临床症状，其病因为感染、药物（多巴胺受...", "lemmaUrl": "http://baike.baidu.com/item/%E8%A1%80%E7%AE%A1%E6%80%A7%E5%B8%95%E9%87%91%E6%A3%AE%E7%BB%BC%E5%90%88%E5%BE%81/6301184", "lemmaPic": []}, {"lemmaId": 12000418, "lemmaTitle": "肠系膜上静脉血栓形成", "lemmaCroppedTitle": "肠系膜上静脉血栓形成", "lemmaDesc": "肠系膜静脉血栓形成占全部肠系膜血管缺血性疾患的5%～15%，通常累及肠系膜上静脉...", "lemmaUrl": "http://baike.baidu.com/item/%E8%82%A0%E7%B3%BB%E8%86%9C%E4%B8%8A%E9%9D%99%E8%84%89%E8%A1%80%E6%A0%93%E5%BD%A2%E6%88%90/12000418", "lemmaPic": []}, {"lemmaId": 8502203, "lemmaTitle": "梅毒性心脏病", "lemmaCroppedTitle": "梅毒性心脏病", "lemmaDesc": "由于患梅毒后没有彻底的治愈而引起梅毒性心脏病，常在患梅毒后10～20年发病。梅毒...", "lemmaUrl": "http://baike.baidu.com/item/%E6%A2%85%E6%AF%92%E6%80%A7%E5%BF%83%E8%84%8F%E7%97%85/8502203", "lemmaPic": []}, {"lemmaId": 9992873, "lemmaTitle": "开放性脑损伤", "lemmaCroppedTitle": "开放性脑损伤", "lemmaDesc": "伤后脑组织与外界相通的颅脑损伤称为开放性脑损伤。开放性脑损伤分火器伤与非火器伤两...", "lemmaUrl": "http://baike.baidu.com/item/%E5%BC%80%E6%94%BE%E6%80%A7%E8%84%91%E6%8D%9F%E4%BC%A4/9992873", "lemmaPic": []}, {"lemmaId": 6712089, "lemmaTitle": "输尿管结核", "lemmaCroppedTitle": "输尿管结核", "lemmaDesc": "输尿管结核是由于肾结核的结核菌下行至输尿管所引起的结核病变。单纯输尿管结核罕见，...", "lemmaUrl": "http://baike.baidu.com/item/%E8%BE%93%E5%B0%BF%E7%AE%A1%E7%BB%93%E6%A0%B8/6712089", "lemmaPic": []}, {"lemmaId": 917939, "lemmaTitle": "蝶窦恶性肿瘤", "lemmaCroppedTitle": "蝶窦恶性肿瘤", "lemmaDesc": "原发的蝶窦恶性肿瘤临床罕见，不足鼻窦恶性肿瘤的1%，临床病例常为筛窦、鼻腔或鼻咽...", "lemmaUrl": "http://baike.baidu.com/item/%E8%9D%B6%E7%AA%A6%E6%81%B6%E6%80%A7%E8%82%BF%E7%98%A4/917939", "lemmaPic": []}, {"lemmaId": 8044492, "lemmaTitle": "结核性脊髓炎", "lemmaCroppedTitle": "结核性脊髓炎", "lemmaDesc": "结核性脊髓炎是由身体其他部位（如肺、肾、骨等）的结核杆菌经血液循环，或脊柱结核直...", "lemmaUrl": "http://baike.baidu.com/item/%E7%BB%93%E6%A0%B8%E6%80%A7%E8%84%8A%E9%AB%93%E7%82%8E/8044492", "lemmaPic": []}, {"lemmaId": 17892840, "lemmaTitle": "黑痣癌变", "lemmaCroppedTitle": "黑痣癌变", "lemmaDesc": "从医学的角度来讲，长在经常受到磨擦部位的色素痣是要引起足够重视的，反复而多次的磨...", "lemmaUrl": "http://baike.baidu.com/item/%E9%BB%91%E7%97%A3%E7%99%8C%E5%8F%98/17892840", "lemmaPic": []}, {"lemmaId": 5087093, "lemmaTitle": "开放性手外伤", "lemmaCroppedTitle": "开放性手外伤", "lemmaDesc": "骨科急诊患者中，手外伤占就诊人数的四分之一，而手部开放性损伤又占手外伤总数的三分...", "lemmaUrl": "http://baike.baidu.com/item/%E5%BC%80%E6%94%BE%E6%80%A7%E6%89%8B%E5%A4%96%E4%BC%A4/5087093", "lemmaPic": []}, {"lemmaId": 9992898, "lemmaTitle": "蝶骨嵴脑膜瘤", "lemmaCroppedTitle": "蝶骨嵴脑膜瘤", "lemmaDesc": "蝶骨嵴脑膜瘤（orbitosphenoid meningioma）占脑膜瘤的13...", "lemmaUrl": "http://baike.baidu.com/item/%E8%9D%B6%E9%AA%A8%E5%B5%B4%E8%84%91%E8%86%9C%E7%98%A4/9992898", "lemmaPic": []}, {"lemmaId": 11056092, "lemmaTitle": "药物性肝硬化", "lemmaCroppedTitle": "药物性肝硬化", "lemmaDesc": "用药过程中导致的肝脏损害，可致药物性肝硬化。药物可引起几种类型的肝硬化：①大结节...", "lemmaUrl": "http://baike.baidu.com/item/%E8%8D%AF%E7%89%A9%E6%80%A7%E8%82%9D%E7%A1%AC%E5%8C%96/11056092", "lemmaPic": []}, {"lemmaId": 11049219, "lemmaTitle": "慢性嗜酸性粒细胞性肺炎", "lemmaCroppedTitle": "慢性嗜酸性粒细胞性肺炎", "lemmaDesc": "慢性嗜酸性粒细胞性肺炎（CEP）又称迁延型嗜酸粒细胞增多症、慢性粒细胞性肺炎。高...", "lemmaUrl": "http://baike.baidu.com/item/%E6%85%A2%E6%80%A7%E5%97%9C%E9%85%B8%E6%80%A7%E7%B2%92%E7%BB%86%E8%83%9E%E6%80%A7%E8%82%BA%E7%82%8E/11049219", "lemmaPic": []}, {"lemmaId": 6517458, "lemmaTitle": "肝上皮样血管内皮细胞瘤", "lemmaCroppedTitle": "肝上皮样血管内皮细胞瘤", "lemmaDesc": "肝上皮样血管内皮细胞瘤是一种少见的肝血管肿瘤，肿瘤生长缓慢，预后不一，生物学上为...", "lemmaUrl": "http://baike.baidu.com/item/%E8%82%9D%E4%B8%8A%E7%9A%AE%E6%A0%B7%E8%A1%80%E7%AE%A1%E5%86%85%E7%9A%AE%E7%BB%86%E8%83%9E%E7%98%A4/6517458", "lemmaPic": []}, {"lemmaId": 1145228, "lemmaTitle": "叠瓦癣", "lemmaCroppedTitle": "叠瓦癣", "lemmaDesc": "叠瓦癣是一种特殊的体癣，主要由同心性毛癣菌或称叠瓦癣菌引起，因其损害呈多数同心圆...", "lemmaUrl": "http://baike.baidu.com/item/%E5%8F%A0%E7%93%A6%E7%99%A3/1145228", "lemmaPic": []}, {"lemmaId": 3822854, "lemmaTitle": "新生儿休克", "lemmaCroppedTitle": "新生儿休克", "lemmaDesc": "新生儿休克是指多种原因引起的急性微循环功能不全综合征，是新生儿期常见的急症。新生...", "lemmaUrl": "http://baike.baidu.com/item/%E6%96%B0%E7%94%9F%E5%84%BF%E4%BC%91%E5%85%8B/3822854", "lemmaPic": []}, {"lemmaId": 4624097, "lemmaTitle": "碘致甲状腺功能亢进", "lemmaCroppedTitle": "碘致甲状腺功能亢进", "lemmaDesc": "碘致甲状腺功能亢进是指与摄碘量增加有关的甲亢，简称碘致甲亢或碘致甲状腺毒症。从摄...", "lemmaUrl": "http://baike.baidu.com/item/%E7%A2%98%E8%87%B4%E7%94%B2%E7%8A%B6%E8%85%BA%E5%8A%9F%E8%83%BD%E4%BA%A2%E8%BF%9B/4624097", "lemmaPic": []}, {"lemmaId": 1714199, "lemmaTitle": "尿道黏膜脱垂", "lemmaCroppedTitle": "尿道黏膜脱垂", "lemmaDesc": "尿道黏膜脱垂又称尿道黏膜外翻，它是指尿道黏膜及黏膜下组织脱出并外翻于尿道口外的一...", "lemmaUrl": "http://baike.baidu.com/item/%E5%B0%BF%E9%81%93%E9%BB%8F%E8%86%9C%E8%84%B1%E5%9E%82/1714199", "lemmaPic": []}, {"lemmaId": 2775321, "lemmaTitle": "妊娠合并卵巢肿瘤", "lemmaCroppedTitle": "妊娠合并卵巢肿瘤", "lemmaDesc": "妊娠合并卵巢肿瘤，临床上卵巢肿瘤患者的受孕率降低。但一般是先有卵巢肿瘤，然后受孕...", "lemmaUrl": "http://baike.baidu.com/item/%E5%A6%8A%E5%A8%A0%E5%90%88%E5%B9%B6%E5%8D%B5%E5%B7%A2%E8%82%BF%E7%98%A4/2775321", "lemmaPic": []}, {"lemmaId": 153534, "lemmaTitle": "碘源性甲亢", "lemmaCroppedTitle": "碘源性甲亢", "lemmaDesc": "碘致甲状腺功能亢进（IIH）是指与摄碘量增加有关的甲亢，简称“碘甲亢”，又称碘性...", "lemmaUrl": "http://baike.baidu.com/item/%E7%A2%98%E6%BA%90%E6%80%A7%E7%94%B2%E4%BA%A2/153534", "lemmaPic": []}, {"lemmaId": 9534536, "lemmaTitle": "脊髓前动脉综合征", "lemmaCroppedTitle": "脊髓前动脉综合征", "lemmaDesc": "脊髓前动脉综合症又称Beck综合征、Davison综合征、脊髓前动脉闭塞综合征等...", "lemmaUrl": "http://baike.baidu.com/item/%E8%84%8A%E9%AB%93%E5%89%8D%E5%8A%A8%E8%84%89%E7%BB%BC%E5%90%88%E5%BE%81/9534536", "lemmaPic": []}, {"lemmaId": 1516853, "lemmaTitle": "眼眶脂肪瘤", "lemmaCroppedTitle": "眼眶脂肪瘤", "lemmaDesc": "眼眶脂肪瘤多发生于成年人，多单侧眼眶发病。由于肿瘤少发于肌锥内，所以眼球突出为非...", "lemmaUrl": "http://baike.baidu.com/item/%E7%9C%BC%E7%9C%B6%E8%84%82%E8%82%AA%E7%98%A4/1516853", "lemmaPic": []}, {"lemmaId": 6004305, "lemmaTitle": "跖管综合征", "lemmaCroppedTitle": "跖管综合征", "lemmaDesc": "跖管综合征亦称为跗管综合征或踝管综合征，是指胫神经在通过位于内踝后下方的踝管至足...", "lemmaUrl": "http://baike.baidu.com/item/%E8%B7%96%E7%AE%A1%E7%BB%BC%E5%90%88%E5%BE%81/6004305", "lemmaPic": []}, {"lemmaId": 8669960, "lemmaTitle": "石棉沉着病", "lemmaCroppedTitle": "石棉沉着病", "lemmaDesc": "石棉沉着病（asbestosis）为一弥漫性致纤维性肺病，是因长期吸入石棉粉尘而...", "lemmaUrl": "http://baike.baidu.com/item/%E7%9F%B3%E6%A3%89%E6%B2%89%E7%9D%80%E7%97%85/8669960", "lemmaPic": []}, {"lemmaId": 2908095, "lemmaTitle": "叶酸缺乏神经病", "lemmaCroppedTitle": "叶酸缺乏神经病", "lemmaDesc": "叶酸（folic acid）是一种水溶性B族维生素，在蔬菜、酵母、肝、肾、乳肉等...", "lemmaUrl": "http://baike.baidu.com/item/%E5%8F%B6%E9%85%B8%E7%BC%BA%E4%B9%8F%E7%A5%9E%E7%BB%8F%E7%97%85/2908095", "lemmaPic": []}, {"lemmaId": 3597915, "lemmaTitle": "晶体异位和脱位", "lemmaCroppedTitle": "晶体异位和脱位", "lemmaDesc": "在正常情况下，晶体由晶体悬韧带悬挂于睫状体上，其轴与视轴几乎一致。由于先天性、外...", "lemmaUrl": "http://baike.baidu.com/item/%E6%99%B6%E4%BD%93%E5%BC%82%E4%BD%8D%E5%92%8C%E8%84%B1%E4%BD%8D/3597915", "lemmaPic": []}, {"lemmaId": 1462028, "lemmaTitle": "外阴银屑病", "lemmaCroppedTitle": "外阴银屑病", "lemmaDesc": "外阴银屑病（又称外阴牛皮癣）的皮损通常与头皮、躯干、四肢伸侧等处病损同时存在，仅...", "lemmaUrl": "http://baike.baidu.com/item/%E5%A4%96%E9%98%B4%E9%93%B6%E5%B1%91%E7%97%85/1462028", "lemmaPic": []}, {"lemmaId": 7865358, "lemmaTitle": "肝错构瘤", "lemmaCroppedTitle": "肝错构瘤", "lemmaDesc": "肝错构瘤是一种良性肿瘤，因胚胎发育不良而具有肿瘤特征。该病多发于婴幼儿，多见于4...", "lemmaUrl": "http://baike.baidu.com/item/%E8%82%9D%E9%94%99%E6%9E%84%E7%98%A4/7865358", "lemmaPic": []}, {"lemmaId": 114148, "lemmaTitle": "婴幼儿外阴阴道炎", "lemmaCroppedTitle": "婴幼儿外阴阴道炎", "lemmaDesc": "外阴阴道炎是女性婴幼儿非常常见的疾患，因婴幼儿自诉能力差及家长忽视等因素，常易延...", "lemmaUrl": "http://baike.baidu.com/item/%E5%A9%B4%E5%B9%BC%E5%84%BF%E5%A4%96%E9%98%B4%E9%98%B4%E9%81%93%E7%82%8E/114148", "lemmaPic": []}, {"lemmaId": 10357886, "lemmaTitle": "网状细胞肉瘤", "lemmaCroppedTitle": "网状细胞肉瘤", "lemmaDesc": "网状细胞肉瘤是起源于骨髓或松质骨的原发性骨肿瘤，形态虽与弥漫性淋巴瘤型网状细胞肉...", "lemmaUrl": "http://baike.baidu.com/item/%E7%BD%91%E7%8A%B6%E7%BB%86%E8%83%9E%E8%82%89%E7%98%A4/10357886", "lemmaPic": []}, {"lemmaId": 9342663, "lemmaTitle": "弹响肩胛", "lemmaCroppedTitle": "弹响肩胛", "lemmaDesc": "弹响肩胛（snapping scapula）是肩胛骨胸壁间连结结构的运动机制失调...", "lemmaUrl": "http://baike.baidu.com/item/%E5%BC%B9%E5%93%8D%E8%82%A9%E8%83%9B/9342663", "lemmaPic": []}, {"lemmaId": 6230958, "lemmaTitle": "心包肿瘤", "lemmaCroppedTitle": "心包肿瘤", "lemmaDesc": "心包肿瘤指发生于心包的新生物，原发性心包肿瘤非常罕见，分为良性和恶性两类。良性肿...", "lemmaUrl": "http://baike.baidu.com/item/%E5%BF%83%E5%8C%85%E8%82%BF%E7%98%A4/6230958", "lemmaPic": []}, {"lemmaId": 768485, "lemmaTitle": "急性和亚急性硬脑膜下血肿", "lemmaCroppedTitle": "急性和亚急性硬脑膜下血肿", "lemmaDesc": "急性和亚急性硬脑膜下血肿是指外伤后出现的硬膜下血肿，呈急性（症状在伤后3天内出现...", "lemmaUrl": "http://baike.baidu.com/item/%E6%80%A5%E6%80%A7%E5%92%8C%E4%BA%9A%E6%80%A5%E6%80%A7%E7%A1%AC%E8%84%91%E8%86%9C%E4%B8%8B%E8%A1%80%E8%82%BF/768485", "lemmaPic": []}, {"lemmaId": 5120941, "lemmaTitle": "左心发育不良", "lemmaCroppedTitle": "左心发育不良", "lemmaDesc": "本词条由：首都儿科研究所附属医院   小儿心内科  郑春华 (主任医师)  审核...", "lemmaUrl": "http://baike.baidu.com/item/%E5%B7%A6%E5%BF%83%E5%8F%91%E8%82%B2%E4%B8%8D%E8%89%AF/5120941", "lemmaPic": []}, {"lemmaId": 5240969, "lemmaTitle": "胃损伤", "lemmaCroppedTitle": "胃损伤", "lemmaDesc": "具有一定强度的各种致伤因素都可以引起胃损伤。然而，由于胃在腹腔内处于受保护的解剖...", "lemmaUrl": "http://baike.baidu.com/item/%E8%83%83%E6%8D%9F%E4%BC%A4/5240969", "lemmaPic": []}, {"lemmaId": 4018458, "lemmaTitle": "小肠重复畸形", "lemmaCroppedTitle": "小肠重复畸形", "lemmaDesc": "小肠重复畸形是指在小肠的近系膜侧出现的一种圆形或管状结构的空腔器官，与其毗邻的小...", "lemmaUrl": "http://baike.baidu.com/item/%E5%B0%8F%E8%82%A0%E9%87%8D%E5%A4%8D%E7%95%B8%E5%BD%A2/4018458", "lemmaPic": []}, {"lemmaId": 15181321, "lemmaTitle": "肝郁化火证", "lemmaCroppedTitle": "肝郁化火证", "lemmaDesc": "肝郁化火证是指因情志不遂，或突然遭受精神刺激，或病邪侵扰，导致肝失疏泄，气机郁滞...", "lemmaUrl": "http://baike.baidu.com/item/%E8%82%9D%E9%83%81%E5%8C%96%E7%81%AB%E8%AF%81/15181321", "lemmaPic": []}, {"lemmaId": 968323, "lemmaTitle": "急性化脓性胃炎", "lemmaCroppedTitle": "急性化脓性胃炎", "lemmaDesc": "急性化脓性胃炎（acute purulent gastritis）是胃壁细菌感染...", "lemmaUrl": "http://baike.baidu.com/item/%E6%80%A5%E6%80%A7%E5%8C%96%E8%84%93%E6%80%A7%E8%83%83%E7%82%8E/968323", "lemmaPic": []}, {"lemmaId": 3077479, "lemmaTitle": "慢性盆腔结缔组织炎", "lemmaCroppedTitle": "慢性盆腔结缔组织炎", "lemmaDesc": "盆腔结缔组织是腹膜外的组织，位于盆腔腹膜的后方，子宫两侧及膀胱前间隙处，这些部位...", "lemmaUrl": "http://baike.baidu.com/item/%E6%85%A2%E6%80%A7%E7%9B%86%E8%85%94%E7%BB%93%E7%BC%94%E7%BB%84%E7%BB%87%E7%82%8E/3077479", "lemmaPic": []}, {"lemmaId": 9271275, "lemmaTitle": "巨大肥厚性胃炎", "lemmaCroppedTitle": "巨大肥厚性胃炎", "lemmaDesc": "巨大肥厚性胃炎是由于胃黏膜的过度增生造成胃壁广泛增厚的一种罕见疾病，其特点是胃黏...", "lemmaUrl": "http://baike.baidu.com/item/%E5%B7%A8%E5%A4%A7%E8%82%A5%E5%8E%9A%E6%80%A7%E8%83%83%E7%82%8E/9271275", "lemmaPic": []}, {"lemmaId": 9356270, "lemmaTitle": "小儿心力衰竭", "lemmaCroppedTitle": "小儿心力衰竭", "lemmaDesc": "通常心力衰竭（heartfailure简称心衰）的定义是病理生理概念，即心力衰竭...", "lemmaUrl": "http://baike.baidu.com/item/%E5%B0%8F%E5%84%BF%E5%BF%83%E5%8A%9B%E8%A1%B0%E7%AB%AD/9356270", "lemmaPic": []}, {"lemmaId": 10219658, "lemmaTitle": "细粒棘球蚴病", "lemmaCroppedTitle": "细粒棘球蚴病", "lemmaDesc": "细粒棘球蚴病主要见于畜牧业发达的国家和地区，感染率与职业、生活习惯、居住条件、小...", "lemmaUrl": "http://baike.baidu.com/item/%E7%BB%86%E7%B2%92%E6%A3%98%E7%90%83%E8%9A%B4%E7%97%85/10219658", "lemmaPic": []}, {"lemmaId": 3774804, "lemmaTitle": "弥漫性特发性骨肥厚", "lemmaCroppedTitle": "弥漫性特发性骨肥厚", "lemmaDesc": "弥漫性特发性骨肥厚（DISH）主要累及脊柱尤其是颈椎，特征是大量而表浅的不规则椎...", "lemmaUrl": "http://baike.baidu.com/item/%E5%BC%A5%E6%BC%AB%E6%80%A7%E7%89%B9%E5%8F%91%E6%80%A7%E9%AA%A8%E8%82%A5%E5%8E%9A/3774804", "lemmaPic": []}, {"lemmaId": 16746314, "lemmaTitle": "阴茎海绵体破裂", "lemmaCroppedTitle": "阴茎海绵体破裂", "lemmaDesc": "所谓的阴茎骨折，是对阴茎折断的一种形象说法，临床上叫做阴茎海绵体破裂，是泌尿男科...", "lemmaUrl": "http://baike.baidu.com/item/%E9%98%B4%E8%8C%8E%E6%B5%B7%E7%BB%B5%E4%BD%93%E7%A0%B4%E8%A3%82/16746314", "lemmaPic": []}, {"lemmaId": 5120755, "lemmaTitle": "完全性肺静脉异位回流", "lemmaCroppedTitle": "完全性肺静脉异位回流", "lemmaDesc": "完全性肺静脉异位回流是指全部肺静脉不进入左心房，而直接进入右心房或体循环的静脉系...", "lemmaUrl": "http://baike.baidu.com/item/%E5%AE%8C%E5%85%A8%E6%80%A7%E8%82%BA%E9%9D%99%E8%84%89%E5%BC%82%E4%BD%8D%E5%9B%9E%E6%B5%81/5120755", "lemmaPic": []}, {"lemmaId": 1533227, "lemmaTitle": "二尖瓣闭锁不全", "lemmaCroppedTitle": "二尖瓣闭锁不全", "lemmaDesc": "风湿性心脏病二尖瓣闭锁不全是由于反复风湿性炎症后所遗留的二尖瓣瓣膜损害，使瓣膜发...", "lemmaUrl": "http://baike.baidu.com/item/%E4%BA%8C%E5%B0%96%E7%93%A3%E9%97%AD%E9%94%81%E4%B8%8D%E5%85%A8/1533227", "lemmaPic": []}, {"lemmaId": 10870551, "lemmaTitle": "腰骶部脂肪疝", "lemmaCroppedTitle": "腰骶部脂肪疝", "lemmaDesc": "本病多见于中年以后肥胖的妇女，绝大部分有生产史，另有部分患者可合并有下肢静脉曲张...", "lemmaUrl": "http://baike.baidu.com/item/%E8%85%B0%E9%AA%B6%E9%83%A8%E8%84%82%E8%82%AA%E7%96%9D/10870551", "lemmaPic": []}, {"lemmaId": 6425046, "lemmaTitle": "嗜酸性粒细胞增生性淋巴肉芽肿", "lemmaCroppedTitle": "嗜酸性粒细胞增生性淋巴肉芽肿", "lemmaDesc": "嗜酸性粒细胞增生性淋巴肉芽肿又称Kimura病，临床上比较少见。临床上表现为慢性...", "lemmaUrl": "http://baike.baidu.com/item/%E5%97%9C%E9%85%B8%E6%80%A7%E7%B2%92%E7%BB%86%E8%83%9E%E5%A2%9E%E7%94%9F%E6%80%A7%E6%B7%8B%E5%B7%B4%E8%82%89%E8%8A%BD%E8%82%BF/6425046", "lemmaPic": []}, {"lemmaId": 8710210, "lemmaTitle": "脑型肺吸虫病", "lemmaCroppedTitle": "脑型肺吸虫病", "lemmaDesc": "脑型肺吸虫病是由卫氏并殖吸虫和墨西哥并殖吸虫寄生人体所引起的疾病，通常在食用生的...", "lemmaUrl": "http://baike.baidu.com/item/%E8%84%91%E5%9E%8B%E8%82%BA%E5%90%B8%E8%99%AB%E7%97%85/8710210", "lemmaPic": []}, {"lemmaId": 284746, "lemmaTitle": "口腔颌面部血管瘤", "lemmaCroppedTitle": "口腔颌面部血管瘤", "lemmaDesc": "口腔颌面部血管瘤是血管先天性良性肿瘤或血管畸形，是软组织常见的肿瘤之一。多发生于...", "lemmaUrl": "http://baike.baidu.com/item/%E5%8F%A3%E8%85%94%E9%A2%8C%E9%9D%A2%E9%83%A8%E8%A1%80%E7%AE%A1%E7%98%A4/284746", "lemmaPic": []}, {"lemmaId": 5358328, "lemmaTitle": "鼻中隔血肿", "lemmaCroppedTitle": "鼻中隔血肿", "lemmaDesc": "鼻中隔血肿是指鼻中隔一侧或两侧软骨膜下或骨膜下积血。因鼻中隔黏膜与其软骨膜或骨膜...", "lemmaUrl": "http://baike.baidu.com/item/%E9%BC%BB%E4%B8%AD%E9%9A%94%E8%A1%80%E8%82%BF/5358328", "lemmaPic": []}, {"lemmaId": 353717, "lemmaTitle": "埃及血吸虫病", "lemmaCroppedTitle": "埃及血吸虫病", "lemmaDesc": "埃及血吸虫病是由埃及血吸虫寄生在膀胱静脉和盆腔静脉丛所引起，临床上有终末血尿、膀...", "lemmaUrl": "http://baike.baidu.com/item/%E5%9F%83%E5%8F%8A%E8%A1%80%E5%90%B8%E8%99%AB%E7%97%85/353717", "lemmaPic": []}, {"lemmaId": 8470064, "lemmaTitle": "巴贝虫病", "lemmaCroppedTitle": "巴贝虫病", "lemmaDesc": "巴贝虫病是由巴贝虫属的红细胞内寄生的血液原虫，通过蜱类媒介感染所致人兽共染的寄生...", "lemmaUrl": "http://baike.baidu.com/item/%E5%B7%B4%E8%B4%9D%E8%99%AB%E7%97%85/8470064", "lemmaPic": []}, {"lemmaId": 5358875, "lemmaTitle": "小儿肾小管性酸中毒", "lemmaCroppedTitle": "小儿肾小管性酸中毒", "lemmaDesc": "肾小管性酸中毒（RTA）是由于近端肾小管重吸收碳酸氢盐或远端肾小管排泌氢离子功能...", "lemmaUrl": "http://baike.baidu.com/item/%E5%B0%8F%E5%84%BF%E8%82%BE%E5%B0%8F%E7%AE%A1%E6%80%A7%E9%85%B8%E4%B8%AD%E6%AF%92/5358875", "lemmaPic": []}, {"lemmaId": 985919, "lemmaTitle": "外阴表皮样囊肿", "lemmaCroppedTitle": "外阴表皮样囊肿", "lemmaDesc": "外阴表皮样囊肿是较多见的外阴部囊肿，多发生于中年以上妇女。外阴表皮样囊肿生长缓慢...", "lemmaUrl": "http://baike.baidu.com/item/%E5%A4%96%E9%98%B4%E8%A1%A8%E7%9A%AE%E6%A0%B7%E5%9B%8A%E8%82%BF/985919", "lemmaPic": []}, {"lemmaId": 7325331, "lemmaTitle": "神经系统副肿瘤综合征", "lemmaCroppedTitle": "神经系统副肿瘤综合征", "lemmaDesc": "神经系统副肿瘤综合征（PNS）是发生在某些恶性肿瘤患者体内，在未出现肿瘤转移的情...", "lemmaUrl": "http://baike.baidu.com/item/%E7%A5%9E%E7%BB%8F%E7%B3%BB%E7%BB%9F%E5%89%AF%E8%82%BF%E7%98%A4%E7%BB%BC%E5%90%88%E5%BE%81/7325331", "lemmaPic": []}, {"lemmaId": 369996, "lemmaTitle": "氯丙嗪类药物中毒", "lemmaCroppedTitle": "氯丙嗪类药物中毒", "lemmaDesc": "氯丙嗪类药物为酚噻嗪的衍生物，目前常用者有氯丙嗪（冬眠灵）、乙酰普吗嗪、异丙嗪、...", "lemmaUrl": "http://baike.baidu.com/item/%E6%B0%AF%E4%B8%99%E5%97%AA%E7%B1%BB%E8%8D%AF%E7%89%A9%E4%B8%AD%E6%AF%92/369996", "lemmaPic": []}, {"lemmaId": 1335762, "lemmaTitle": "十二指肠旁疝", "lemmaCroppedTitle": "十二指肠旁疝", "lemmaDesc": "在胚胎发育过程中，部分肠管和肠襻被包绕在十二指肠旁的腹膜后隐窝内称为十二指肠旁疝...", "lemmaUrl": "http://baike.baidu.com/item/%E5%8D%81%E4%BA%8C%E6%8C%87%E8%82%A0%E6%97%81%E7%96%9D/1335762", "lemmaPic": []}, {"lemmaId": 2559059, "lemmaTitle": "梅毒肾病", "lemmaCroppedTitle": "梅毒肾病", "lemmaDesc": "梅毒肾病是梅毒引起的免疫性肾损害。梅毒传染与发病过程的特点是周期性潜伏与再发，其...", "lemmaUrl": "http://baike.baidu.com/item/%E6%A2%85%E6%AF%92%E8%82%BE%E7%97%85/2559059", "lemmaPic": []}, {"lemmaId": 9178445, "lemmaTitle": "先天性椎体畸形", "lemmaCroppedTitle": "先天性椎体畸形", "lemmaDesc": "先天性椎体畸形系胚胎发育过程中椎体分节不全或形成不全所引起，可分为分节不良型、形...", "lemmaUrl": "http://baike.baidu.com/item/%E5%85%88%E5%A4%A9%E6%80%A7%E6%A4%8E%E4%BD%93%E7%95%B8%E5%BD%A2/9178445", "lemmaPic": []}, {"lemmaId": 2839101, "lemmaTitle": "黄色肉芽肿性肾盂肾炎", "lemmaCroppedTitle": "黄色肉芽肿性肾盂肾炎", "lemmaDesc": "黄色肉芽肿性肾盂肾炎是一种少见的、严重的慢性细菌性肾盂肾炎。该病可产生弥漫性肾实...", "lemmaUrl": "http://baike.baidu.com/item/%E9%BB%84%E8%89%B2%E8%82%89%E8%8A%BD%E8%82%BF%E6%80%A7%E8%82%BE%E7%9B%82%E8%82%BE%E7%82%8E/2839101", "lemmaPic": []}, {"lemmaId": 8387654, "lemmaTitle": "良性淋巴上皮病", "lemmaCroppedTitle": "良性淋巴上皮病", "lemmaDesc": "良性淋巴上皮病（BLL）又称mikulicz病，为泪腺与涎腺组织内淋巴细胞弥漫性...", "lemmaUrl": "http://baike.baidu.com/item/%E8%89%AF%E6%80%A7%E6%B7%8B%E5%B7%B4%E4%B8%8A%E7%9A%AE%E7%97%85/8387654", "lemmaPic": []}, {"lemmaId": 5299422, "lemmaTitle": "淋菌性直肠炎", "lemmaCroppedTitle": "淋菌性直肠炎", "lemmaDesc": "淋菌性直肠炎为直肠柱状黏膜淋菌性疾病，是直肠炎的一种，多见于男性同性恋者。临床表...", "lemmaUrl": "http://baike.baidu.com/item/%E6%B7%8B%E8%8F%8C%E6%80%A7%E7%9B%B4%E8%82%A0%E7%82%8E/5299422", "lemmaPic": []}, {"lemmaId": 893111, "lemmaTitle": "病毒性食管炎", "lemmaCroppedTitle": "病毒性食管炎", "lemmaDesc": "病毒性食管炎致病微生物是疱疹病毒，故又名疱疹性食管炎。主要症状系胸骨后异物感或胸...", "lemmaUrl": "http://baike.baidu.com/item/%E7%97%85%E6%AF%92%E6%80%A7%E9%A3%9F%E7%AE%A1%E7%82%8E/893111", "lemmaPic": []}, {"lemmaId": 3491583, "lemmaTitle": "男假两性畸形", "lemmaCroppedTitle": "男假两性畸形", "lemmaDesc": "假两性畸形是遗传性别、性腺性别和表型性别的不均一性，即性腺性别与遗传性别一致，而...", "lemmaUrl": "http://baike.baidu.com/item/%E7%94%B7%E5%81%87%E4%B8%A4%E6%80%A7%E7%95%B8%E5%BD%A2/3491583", "lemmaPic": []}, {"lemmaId": 10361427, "lemmaTitle": "肘关节强直", "lemmaCroppedTitle": "肘关节强直", "lemmaDesc": "各种原因造成肘关节活动部分或全部丧失，固定于某一特定位置，称肘关节强直，常可分为...", "lemmaUrl": "http://baike.baidu.com/item/%E8%82%98%E5%85%B3%E8%8A%82%E5%BC%BA%E7%9B%B4/10361427", "lemmaPic": []}, {"lemmaId": 5241737, "lemmaTitle": "先天性肛门直肠狭窄", "lemmaCroppedTitle": "先天性肛门直肠狭窄", "lemmaDesc": "先天性肛门直肠狭窄是因胚胎发育异常，致使肛门直肠口径太小，男女性均可见，表现为不...", "lemmaUrl": "http://baike.baidu.com/item/%E5%85%88%E5%A4%A9%E6%80%A7%E8%82%9B%E9%97%A8%E7%9B%B4%E8%82%A0%E7%8B%AD%E7%AA%84/5241737", "lemmaPic": []}, {"lemmaId": 11043845, "lemmaTitle": "胃脂肪瘤", "lemmaCroppedTitle": "胃脂肪瘤", "lemmaDesc": "胃脂肪瘤是胃良性间质性肿瘤，发病率低，进展缓慢，恶变极少，预后良好。胃脂肪瘤多见...", "lemmaUrl": "http://baike.baidu.com/item/%E8%83%83%E8%84%82%E8%82%AA%E7%98%A4/11043845", "lemmaPic": []}, {"lemmaId": 12676540, "lemmaTitle": "小儿脑干胶质瘤", "lemmaCroppedTitle": "小儿脑干胶质瘤", "lemmaDesc": "脑干胶质瘤多见于儿童，发病高峰年龄为6～10岁，占儿童颅脑肿瘤的10%～20%，...", "lemmaUrl": "http://baike.baidu.com/item/%E5%B0%8F%E5%84%BF%E8%84%91%E5%B9%B2%E8%83%B6%E8%B4%A8%E7%98%A4/12676540", "lemmaPic": []}, {"lemmaId": 895387, "lemmaTitle": "先天性肠闭锁与狭窄", "lemmaCroppedTitle": "先天性肠闭锁与狭窄", "lemmaDesc": "先天性肠闭锁与狭窄是指胚胎期肠管发育在再管化过程中部分肠道终止发育造成肠腔完全或...", "lemmaUrl": "http://baike.baidu.com/item/%E5%85%88%E5%A4%A9%E6%80%A7%E8%82%A0%E9%97%AD%E9%94%81%E4%B8%8E%E7%8B%AD%E7%AA%84/895387", "lemmaPic": []}, {"lemmaId": 6304927, "lemmaTitle": "中间葡萄膜炎", "lemmaCroppedTitle": "中间葡萄膜炎", "lemmaDesc": "中间葡萄膜炎（IU）是指睫状体平坦部、玻璃体基底部、周边视网膜和脉络膜的炎症性和...", "lemmaUrl": "http://baike.baidu.com/item/%E4%B8%AD%E9%97%B4%E8%91%A1%E8%90%84%E8%86%9C%E7%82%8E/6304927", "lemmaPic": []}, {"lemmaId": 10357007, "lemmaTitle": "先天性尺桡骨融合", "lemmaCroppedTitle": "先天性尺桡骨融合", "lemmaDesc": "先天性尺桡骨融合是一种较为罕见的先天性骨发育畸形，表现为桡骨和尺骨的近端相互融合...", "lemmaUrl": "http://baike.baidu.com/item/%E5%85%88%E5%A4%A9%E6%80%A7%E5%B0%BA%E6%A1%A1%E9%AA%A8%E8%9E%8D%E5%90%88/10357007", "lemmaPic": []}, {"lemmaId": 9282361, "lemmaTitle": "左房恶性黏液瘤", "lemmaCroppedTitle": "左房恶性黏液瘤", "lemmaDesc": "有关该病的命名尚不统一，有的学者归于心脏黏液瘤恶变，有的学者称之为心脏恶性黏液瘤...", "lemmaUrl": "http://baike.baidu.com/item/%E5%B7%A6%E6%88%BF%E6%81%B6%E6%80%A7%E9%BB%8F%E6%B6%B2%E7%98%A4/9282361", "lemmaPic": []}, {"lemmaId": 3606270, "lemmaTitle": "肌张力障碍综合征", "lemmaCroppedTitle": "肌张力障碍综合征", "lemmaDesc": "肌张力障碍是主动肌与拮抗肌收缩不协调或过度收缩引起的以肌张力异常的动作和姿势为特...", "lemmaUrl": "http://baike.baidu.com/item/%E8%82%8C%E5%BC%A0%E5%8A%9B%E9%9A%9C%E7%A2%8D%E7%BB%BC%E5%90%88%E5%BE%81/3606270", "lemmaPic": []}, {"lemmaId": 1472199, "lemmaTitle": "弗里德赖希共济失调", "lemmaCroppedTitle": "弗里德赖希共济失调", "lemmaDesc": "遗传性共济失调是一组以慢性进行性小脑性共济失调为特征的遗传变性病；有遗传史，共济...", "lemmaUrl": "http://baike.baidu.com/item/%E5%BC%97%E9%87%8C%E5%BE%B7%E8%B5%96%E5%B8%8C%E5%85%B1%E6%B5%8E%E5%A4%B1%E8%B0%83/1472199", "lemmaPic": []}, {"lemmaId": 8531613, "lemmaTitle": "慢性硬脑膜外血肿", "lemmaCroppedTitle": "慢性硬脑膜外血肿", "lemmaDesc": "慢性硬脑膜外血肿是指伤后2～3周以上出现的血肿。一般而言，伤后13天以上，血肿开...", "lemmaUrl": "http://baike.baidu.com/item/%E6%85%A2%E6%80%A7%E7%A1%AC%E8%84%91%E8%86%9C%E5%A4%96%E8%A1%80%E8%82%BF/8531613", "lemmaPic": []}, {"lemmaId": 5340588, "lemmaTitle": "非结核性分枝杆菌病", "lemmaCroppedTitle": "非结核性分枝杆菌病", "lemmaDesc": "非结核性分枝杆菌（NTM）系指分枝杆菌属中，除结核分枝杆菌复合群（人型、牛型，非...", "lemmaUrl": "http://baike.baidu.com/item/%E9%9D%9E%E7%BB%93%E6%A0%B8%E6%80%A7%E5%88%86%E6%9E%9D%E6%9D%86%E8%8F%8C%E7%97%85/5340588", "lemmaPic": []}, {"lemmaId": 4300540, "lemmaTitle": "膀胱腺癌", "lemmaCroppedTitle": "膀胱腺癌", "lemmaDesc": "起源于膀胱黏膜（尿路上皮）的恶性肿瘤，肿瘤呈腺体样结构，组织学类型为腺癌。包括原...", "lemmaUrl": "http://baike.baidu.com/item/%E8%86%80%E8%83%B1%E8%85%BA%E7%99%8C/4300540", "lemmaPic": []}, {"lemmaId": 768384, "lemmaTitle": "颈椎黄韧带骨化症", "lemmaCroppedTitle": "颈椎黄韧带骨化症", "lemmaDesc": "黄韧带骨化症同局部力学因素、代谢异常、家族遗传等众多因素关系密切。各种使黄韧带的...", "lemmaUrl": "http://baike.baidu.com/item/%E9%A2%88%E6%A4%8E%E9%BB%84%E9%9F%A7%E5%B8%A6%E9%AA%A8%E5%8C%96%E7%97%87/768384", "lemmaPic": []}, {"lemmaId": 8581469, "lemmaTitle": "海湾战争综合征", "lemmaCroppedTitle": "海湾战争综合征", "lemmaDesc": "海湾战争综合征是指一些参加过1991年海湾战争的老兵在战后出现了精神压抑、疲劳、...", "lemmaUrl": "http://baike.baidu.com/item/%E6%B5%B7%E6%B9%BE%E6%88%98%E4%BA%89%E7%BB%BC%E5%90%88%E5%BE%81/8581469", "lemmaPic": []}, {"lemmaId": 5423681, "lemmaTitle": "Maffucci综合征", "lemmaCroppedTitle": "Maffucci综合征", "lemmaDesc": "Maffucci综合征即软骨营养障碍-血管瘤综合征，又称伴多发性血管瘤的软骨发育...", "lemmaUrl": "http://baike.baidu.com/item/Maffucci%E7%BB%BC%E5%90%88%E5%BE%81/5423681", "lemmaPic": []}, {"lemmaId": 10537643, "lemmaTitle": "颌周蜂窝织炎", "lemmaCroppedTitle": "颌周蜂窝织炎", "lemmaDesc": "颌周蜂窝织炎是指发生在颌骨周围筋膜间隙组织的急性炎症。具有一般蜂窝织炎的全身症状...", "lemmaUrl": "http://baike.baidu.com/item/%E9%A2%8C%E5%91%A8%E8%9C%82%E7%AA%9D%E7%BB%87%E7%82%8E/10537643", "lemmaPic": []}, {"lemmaId": 3646860, "lemmaTitle": "淋巴瘤样肉芽肿", "lemmaCroppedTitle": "淋巴瘤样肉芽肿", "lemmaDesc": "淋巴瘤样肉芽肿是血管炎和肉芽肿反应的一种少见类型。本病的特征是各种组织均发生血管...", "lemmaUrl": "http://baike.baidu.com/item/%E6%B7%8B%E5%B7%B4%E7%98%A4%E6%A0%B7%E8%82%89%E8%8A%BD%E8%82%BF/3646860", "lemmaPic": []}, {"lemmaId": 8712243, "lemmaTitle": "神经莱姆病", "lemmaCroppedTitle": "神经莱姆病", "lemmaDesc": "神经莱姆病（LD）是近年来被认识的一种人畜自然疫源性、累及人体多个器官的蜱媒传染...", "lemmaUrl": "http://baike.baidu.com/item/%E7%A5%9E%E7%BB%8F%E8%8E%B1%E5%A7%86%E7%97%85/8712243", "lemmaPic": []}, {"lemmaId": 2130602, "lemmaTitle": "脱屑性间质性肺炎", "lemmaCroppedTitle": "脱屑性间质性肺炎", "lemmaDesc": "脱屑性间质性肺炎（desquamative interstitial pneum...", "lemmaUrl": "http://baike.baidu.com/item/%E8%84%B1%E5%B1%91%E6%80%A7%E9%97%B4%E8%B4%A8%E6%80%A7%E8%82%BA%E7%82%8E/2130602", "lemmaPic": []}, {"lemmaId": 7253304, "lemmaTitle": "胆源性急性胰腺炎", "lemmaCroppedTitle": "胆源性急性胰腺炎", "lemmaDesc": "胆源性急性胰腺炎是指由胆道结石、炎症等引起胰管梗阻，胰黏膜屏障损害，胰液外溢，胰...", "lemmaUrl": "http://baike.baidu.com/item/%E8%83%86%E6%BA%90%E6%80%A7%E6%80%A5%E6%80%A7%E8%83%B0%E8%85%BA%E7%82%8E/7253304", "lemmaPic": []}, {"lemmaId": 7552583, "lemmaTitle": "鼻咽癌的眼部病变", "lemmaCroppedTitle": "鼻咽癌的眼部病变", "lemmaDesc": "鼻咽癌是发生在鼻咽腔黏膜的恶性肿瘤，绝大部分患者为起源于上皮的鳞状细胞癌。晚期鼻...", "lemmaUrl": "http://baike.baidu.com/item/%E9%BC%BB%E5%92%BD%E7%99%8C%E7%9A%84%E7%9C%BC%E9%83%A8%E7%97%85%E5%8F%98/7552583", "lemmaPic": []}, {"lemmaId": 2473408, "lemmaTitle": "小儿睾丸扭转", "lemmaCroppedTitle": "小儿睾丸扭转", "lemmaDesc": "小儿睾丸扭转是指由精索扭转引起的睾丸缺血性病变。为青少年阴囊急性肿痛的疾病之一。...", "lemmaUrl": "http://baike.baidu.com/item/%E5%B0%8F%E5%84%BF%E7%9D%BE%E4%B8%B8%E6%89%AD%E8%BD%AC/2473408", "lemmaPic": []}, {"lemmaId": 4455662, "lemmaTitle": "盘肠气痛", "lemmaCroppedTitle": "盘肠气痛", "lemmaDesc": "病证名。见于《婴童百问》。又名盘肠痛、肠痛。证见小儿腹痛曲腰，叫哭不已，不乳，面...", "lemmaUrl": "http://baike.baidu.com/item/%E7%9B%98%E8%82%A0%E6%B0%94%E7%97%9B/4455662", "lemmaPic": []}, {"lemmaId": 576273, "lemmaTitle": "威尔逊症", "lemmaCroppedTitle": "威尔逊症", "lemmaDesc": "肝豆状核变性（HLD）又称威尔逊病，常染色体隐性遗传的铜代谢障碍疾病。由Wils...", "lemmaUrl": "http://baike.baidu.com/item/%E5%A8%81%E5%B0%94%E9%80%8A%E7%97%87/576273", "lemmaPic": []}, {"lemmaId": 7866655, "lemmaTitle": "产褥中暑", "lemmaCroppedTitle": "产褥中暑", "lemmaDesc": "产褥中暑是指在产褥期因高温环境中体内余热不能及时散发，引起中枢性体温调节功能障碍...", "lemmaUrl": "http://baike.baidu.com/item/%E4%BA%A7%E8%A4%A5%E4%B8%AD%E6%9A%91/7866655", "lemmaPic": []}], "total": 7246, "totalPage": 73, "page": 40, "fromLemma": 0}