{"lemmaList": [{"lemmaId": 7218931, "lemmaTitle": "结节性红斑", "lemmaCroppedTitle": "结节性红斑", "lemmaDesc": "结节性红斑是一种主要累及皮下脂肪组织的急性炎症性疾病，多见于中青年女性。一般认为...", "lemmaUrl": "http://baike.baidu.com/item/%E7%BB%93%E8%8A%82%E6%80%A7%E7%BA%A2%E6%96%91/7218931", "lemmaPic": []}, {"lemmaId": 2607280, "lemmaTitle": "滑囊炎", "lemmaCroppedTitle": "滑囊炎", "lemmaDesc": "滑囊炎是指滑囊的急性或慢性炎症。滑囊是结缔组织中的囊状间隙，是由内皮细胞组成的封...", "lemmaUrl": "http://baike.baidu.com/item/%E6%BB%91%E5%9B%8A%E7%82%8E/2607280", "lemmaPic": []}, {"lemmaId": 9734221, "lemmaTitle": "隆胸", "lemmaCroppedTitle": "隆胸", "lemmaDesc": "隆胸，是通过质量良好和大小适宜的乳房假体置入，可以增加乳房的体积，改善其形状和对...", "lemmaUrl": "http://baike.baidu.com/item/%E9%9A%86%E8%83%B8/9734221", "lemmaPic": []}, {"lemmaId": 1403251, "lemmaTitle": "细菌性痢疾", "lemmaCroppedTitle": "细菌性痢疾", "lemmaDesc": "细菌性痢疾（bacillary dysentery）简称菌痢，亦称为志贺菌病（s...", "lemmaUrl": "http://baike.baidu.com/item/%E7%BB%86%E8%8F%8C%E6%80%A7%E7%97%A2%E7%96%BE/1403251", "lemmaPic": []}, {"lemmaId": 7471183, "lemmaTitle": "红细胞压积", "lemmaCroppedTitle": "红细胞压积", "lemmaDesc": "红细胞压积（PCV）是旧称，现在称红细胞比容（Hct），是指一定量的抗凝全血经离...", "lemmaUrl": "http://baike.baidu.com/item/%E7%BA%A2%E7%BB%86%E8%83%9E%E5%8E%8B%E7%A7%AF/7471183", "lemmaPic": []}, {"lemmaId": 2825812, "lemmaTitle": "脑血栓形成", "lemmaCroppedTitle": "脑血栓形成", "lemmaDesc": "脑血栓形成是脑梗死最常见的类型。是脑动脉主干或皮质支动脉粥样硬化导致血管增厚、管...", "lemmaUrl": "http://baike.baidu.com/item/%E8%84%91%E8%A1%80%E6%A0%93%E5%BD%A2%E6%88%90/2825812", "lemmaPic": []}, {"lemmaId": 2278026, "lemmaTitle": "肿瘤标志物", "lemmaCroppedTitle": "肿瘤标志物", "lemmaDesc": "肿瘤标志物又称肿瘤标记物，是指特征性存在于恶性肿瘤细胞，或由恶性肿瘤细胞异常产生...", "lemmaUrl": "http://baike.baidu.com/item/%E8%82%BF%E7%98%A4%E6%A0%87%E5%BF%97%E7%89%A9/2278026", "lemmaPic": []}, {"lemmaId": 7866601, "lemmaTitle": "腹膜炎", "lemmaCroppedTitle": "腹膜炎", "lemmaDesc": "腹膜炎是由细菌感染、化学刺激或损伤所引起的外科常见的一种严重疾病。多数是继发性腹...", "lemmaUrl": "http://baike.baidu.com/item/%E8%85%B9%E8%86%9C%E7%82%8E/7866601", "lemmaPic": []}, {"lemmaId": 9203129, "lemmaTitle": "小儿脑性瘫痪", "lemmaCroppedTitle": "小儿脑性瘫痪", "lemmaDesc": "小儿脑性瘫痪又称小儿大脑性瘫痪，俗称脑瘫。是指从出生后一个月内脑发育尚未成熟阶段...", "lemmaUrl": "http://baike.baidu.com/item/%E5%B0%8F%E5%84%BF%E8%84%91%E6%80%A7%E7%98%AB%E7%97%AA/9203129", "lemmaPic": []}, {"lemmaId": 9604483, "lemmaTitle": "脸盲症", "lemmaCroppedTitle": "脸盲症", "lemmaDesc": "脸盲症又称为“面孔遗忘症”。最新研究发现，过去被认为极为罕见的脸盲症实际上在全球...", "lemmaUrl": "http://baike.baidu.com/item/%E8%84%B8%E7%9B%B2%E7%97%87/9604483", "lemmaPic": []}, {"lemmaId": 2493936, "lemmaTitle": "体癣", "lemmaCroppedTitle": "体癣", "lemmaDesc": "由致病性真菌寄生在人体的光滑皮肤上（除手、足、毛发、甲板以及阴股部以外的皮肤）所...", "lemmaUrl": "http://baike.baidu.com/item/%E4%BD%93%E7%99%A3/2493936", "lemmaPic": []}, {"lemmaId": 5570542, "lemmaTitle": "漏斗胸", "lemmaCroppedTitle": "漏斗胸", "lemmaDesc": "漏斗胸是一种先天性疾病，有家族史。男性较女性多见，有报道男女之比为4：1。有家族...", "lemmaUrl": "http://baike.baidu.com/item/%E6%BC%8F%E6%96%97%E8%83%B8/5570542", "lemmaPic": []}, {"lemmaId": 980378, "lemmaTitle": "晕动病", "lemmaCroppedTitle": "晕动病", "lemmaDesc": "晕动病是汽车、轮船或飞机运动时所产生的颠簸、摇摆或旋转等任何形式的加速运动，刺激...", "lemmaUrl": "http://baike.baidu.com/item/%E6%99%95%E5%8A%A8%E7%97%85/980378", "lemmaPic": []}, {"lemmaId": 2930385, "lemmaTitle": "颅内肿瘤", "lemmaCroppedTitle": "颅内肿瘤", "lemmaDesc": "颅内肿瘤又称脑肿瘤、颅脑肿瘤，是指发生于颅腔内的神经系统肿瘤，包括起源于神经上皮...", "lemmaUrl": "http://baike.baidu.com/item/%E9%A2%85%E5%86%85%E8%82%BF%E7%98%A4/2930385", "lemmaPic": []}, {"lemmaId": 33454, "lemmaTitle": "中毒", "lemmaCroppedTitle": "中毒", "lemmaDesc": "中毒的相关知识\r\n1.什么是中毒？\r\n当外界某化学物质进入人体后，与人体组织发生...", "lemmaUrl": "http://baike.baidu.com/item/%E4%B8%AD%E6%AF%92/33454", "lemmaPic": []}, {"lemmaId": 382241, "lemmaTitle": "人工呼吸", "lemmaCroppedTitle": "人工呼吸", "lemmaDesc": "昏迷患者或心跳停止患者在排除气道异物，采用徒手方法使呼吸道畅通后，如无自主呼吸，...", "lemmaUrl": "http://baike.baidu.com/item/%E4%BA%BA%E5%B7%A5%E5%91%BC%E5%90%B8/382241", "lemmaPic": []}, {"lemmaId": 6743564, "lemmaTitle": "声带小结", "lemmaCroppedTitle": "声带小结", "lemmaDesc": "声带小结又称歌唱者小结或教师小结，发生于儿童者称喊叫小结，是一种特殊类型的慢性喉...", "lemmaUrl": "http://baike.baidu.com/item/%E5%A3%B0%E5%B8%A6%E5%B0%8F%E7%BB%93/6743564", "lemmaPic": []}, {"lemmaId": 1149130, "lemmaTitle": "胰岛素抵抗", "lemmaCroppedTitle": "胰岛素抵抗", "lemmaDesc": "胰岛素抵抗是指各种原因使胰岛素促进葡萄糖摄取和利用的效率下降，机体代偿性的分泌过...", "lemmaUrl": "http://baike.baidu.com/item/%E8%83%B0%E5%B2%9B%E7%B4%A0%E6%8A%B5%E6%8A%97/1149130", "lemmaPic": []}, {"lemmaId": 813707, "lemmaTitle": "肺水肿", "lemmaCroppedTitle": "肺水肿", "lemmaDesc": "肺水肿是指由于某种原因引起肺内组织液的生成和回流平衡失调，使大量组织液在很短时间...", "lemmaUrl": "http://baike.baidu.com/item/%E8%82%BA%E6%B0%B4%E8%82%BF/813707", "lemmaPic": []}, {"lemmaId": 8815564, "lemmaTitle": "口干", "lemmaCroppedTitle": "口干", "lemmaDesc": "口干是临床较常见的症状之一，是多因素引起的症状，其中以中老年女性较为常见。本病可...", "lemmaUrl": "http://baike.baidu.com/item/%E5%8F%A3%E5%B9%B2/8815564", "lemmaPic": []}, {"lemmaId": 3114755, "lemmaTitle": "偏执狂", "lemmaCroppedTitle": "偏执狂", "lemmaDesc": "偏执狂是一种罕见的精神病，以逐渐发展的按逻辑构筑的系统化妄想为特征。病程长，预后...", "lemmaUrl": "http://baike.baidu.com/item/%E5%81%8F%E6%89%A7%E7%8B%82/3114755", "lemmaPic": []}, {"lemmaId": 1663083, "lemmaTitle": "四环素牙", "lemmaCroppedTitle": "四环素牙", "lemmaDesc": "四环素是由四环素类催化脱卤生物合成的抗生素，毒性低，四环素沉积于牙、骨骼以至指甲...", "lemmaUrl": "http://baike.baidu.com/item/%E5%9B%9B%E7%8E%AF%E7%B4%A0%E7%89%99/1663083", "lemmaPic": []}, {"lemmaId": 1378335, "lemmaTitle": "多汗症", "lemmaCroppedTitle": "多汗症", "lemmaDesc": "多汗症是指局部或全身皮肤出汗量异常增多的现象。真正全身性多汗症少见，即使是全身性...", "lemmaUrl": "http://baike.baidu.com/item/%E5%A4%9A%E6%B1%97%E7%97%87/1378335", "lemmaPic": []}, {"lemmaId": 8082039, "lemmaTitle": "血栓闭塞性脉管炎", "lemmaCroppedTitle": "血栓闭塞性脉管炎", "lemmaDesc": "血栓闭塞性脉管炎是一种少见的慢性复发性中、小动脉和静脉的节段性炎症性疾病，下肢多...", "lemmaUrl": "http://baike.baidu.com/item/%E8%A1%80%E6%A0%93%E9%97%AD%E5%A1%9E%E6%80%A7%E8%84%89%E7%AE%A1%E7%82%8E/8082039", "lemmaPic": []}, {"lemmaId": 11059383, "lemmaTitle": "肛管直肠瘘", "lemmaCroppedTitle": "肛管直肠瘘", "lemmaDesc": "肛管直肠瘘（anorectal fistula）是发生在肛管或直肠下端与会阴皮肤...", "lemmaUrl": "http://baike.baidu.com/item/%E8%82%9B%E7%AE%A1%E7%9B%B4%E8%82%A0%E7%98%98/11059383", "lemmaPic": []}, {"lemmaId": 1823754, "lemmaTitle": "腔隙性脑梗死", "lemmaCroppedTitle": "腔隙性脑梗死", "lemmaDesc": "腔隙性脑梗死（lacunar infarction，LI）是指大脑半球或脑干深部...", "lemmaUrl": "http://baike.baidu.com/item/%E8%85%94%E9%9A%99%E6%80%A7%E8%84%91%E6%A2%97%E6%AD%BB/1823754", "lemmaPic": []}, {"lemmaId": 6350675, "lemmaTitle": "虚火", "lemmaCroppedTitle": "虚火", "lemmaDesc": "虚火，中医名词，火有虚实之分，“虚火”是相对于“实火”而言。凡属于体质衰弱、真阴...", "lemmaUrl": "http://baike.baidu.com/item/%E8%99%9A%E7%81%AB/6350675", "lemmaPic": []}, {"lemmaId": 8452185, "lemmaTitle": "晒伤", "lemmaCroppedTitle": "晒伤", "lemmaDesc": "称日光性皮炎，是皮肤长时间曝晒于日光下，受UVB（中波紫外线）过度照射后，人体皮...", "lemmaUrl": "http://baike.baidu.com/item/%E6%99%92%E4%BC%A4/8452185", "lemmaPic": []}, {"lemmaId": 2602103, "lemmaTitle": "急性扁桃体炎", "lemmaCroppedTitle": "急性扁桃体炎", "lemmaDesc": "急性（腭）扁桃体炎是腭扁桃体的一种非特异性急性炎症，常伴有轻重程度不等的咽黏膜及...", "lemmaUrl": "http://baike.baidu.com/item/%E6%80%A5%E6%80%A7%E6%89%81%E6%A1%83%E4%BD%93%E7%82%8E/2602103", "lemmaPic": []}, {"lemmaId": 5055021, "lemmaTitle": "药物过敏", "lemmaCroppedTitle": "药物过敏", "lemmaDesc": "药物过敏也称药物变态反应，是由药物引起的过敏反应，是药物不良反应中的一种特殊类型...", "lemmaUrl": "http://baike.baidu.com/item/%E8%8D%AF%E7%89%A9%E8%BF%87%E6%95%8F/5055021", "lemmaPic": []}, {"lemmaId": 2378567, "lemmaTitle": "小儿疱疹性咽峡炎", "lemmaCroppedTitle": "小儿疱疹性咽峡炎", "lemmaDesc": "小儿疱疹性咽峡炎（pediatric herpangina）是一种特殊类型的上呼...", "lemmaUrl": "http://baike.baidu.com/item/%E5%B0%8F%E5%84%BF%E7%96%B1%E7%96%B9%E6%80%A7%E5%92%BD%E5%B3%A1%E7%82%8E/2378567", "lemmaPic": []}, {"lemmaId": 1387345, "lemmaTitle": "蛲虫病", "lemmaCroppedTitle": "蛲虫病", "lemmaDesc": "蛲虫病是以引起肛门、会阴部瘙痒为特点的一种肠道寄生虫病。世界各地流行极广，全世界...", "lemmaUrl": "http://baike.baidu.com/item/%E8%9B%B2%E8%99%AB%E7%97%85/1387345", "lemmaPic": []}, {"lemmaId": 10974073, "lemmaTitle": "肺源性心脏病", "lemmaCroppedTitle": "肺源性心脏病", "lemmaDesc": "肺源性心脏病（简称肺心病）主要是由于支气管-肺组织或肺动脉血管病变所致肺动脉高压...", "lemmaUrl": "http://baike.baidu.com/item/%E8%82%BA%E6%BA%90%E6%80%A7%E5%BF%83%E8%84%8F%E7%97%85/10974073", "lemmaPic": []}, {"lemmaId": 9839103, "lemmaTitle": "肌腱炎", "lemmaCroppedTitle": "肌腱炎", "lemmaDesc": "肌腱是连接骨骼与肌肉的强韧的纤维结缔组织。肌腱炎通常是指由于肌肉纤维过度使用，反...", "lemmaUrl": "http://baike.baidu.com/item/%E8%82%8C%E8%85%B1%E7%82%8E/9839103", "lemmaPic": {"width": 306, "height": 351, "url": "https://gss1.bdstatic.com/-vo3dSag_xI4khGkpoWK1HF6hhy/baike/w%3D168/sign=6355e438f6246b607b0eb672d3f91a35/0dd7912397dda1447068d6d9b2b7d0a20cf4867c.jpg"}}, {"lemmaId": 270493, "lemmaTitle": "多囊肾", "lemmaCroppedTitle": "多囊肾", "lemmaDesc": "多囊肾又名Potter(Ⅰ)综合征、Perlmann综合征、先天性肾囊肿瘤病、囊...", "lemmaUrl": "http://baike.baidu.com/item/%E5%A4%9A%E5%9B%8A%E8%82%BE/270493", "lemmaPic": []}, {"lemmaId": 2255765, "lemmaTitle": "预激综合征", "lemmaCroppedTitle": "预激综合征", "lemmaDesc": "预激是一种房室传导的异常现象，冲动经附加通道下传，提早兴奋心室的一部分或全部，引...", "lemmaUrl": "http://baike.baidu.com/item/%E9%A2%84%E6%BF%80%E7%BB%BC%E5%90%88%E5%BE%81/2255765", "lemmaPic": []}, {"lemmaId": 3694596, "lemmaTitle": "老年性阴道炎", "lemmaCroppedTitle": "老年性阴道炎", "lemmaDesc": "老年性阴道炎常见于绝经后的老年妇女，因卵巢功能衰退，雌激素水平降低，阴道壁萎缩，...", "lemmaUrl": "http://baike.baidu.com/item/%E8%80%81%E5%B9%B4%E6%80%A7%E9%98%B4%E9%81%93%E7%82%8E/3694596", "lemmaPic": []}, {"lemmaId": 1125451, "lemmaTitle": "视网膜脱离", "lemmaCroppedTitle": "视网膜脱离", "lemmaDesc": "视网膜脱离是视网膜的神经上皮层与色素上皮层的分离。两层之间有一潜在间隙，分离后间...", "lemmaUrl": "http://baike.baidu.com/item/%E8%A7%86%E7%BD%91%E8%86%9C%E8%84%B1%E7%A6%BB/1125451", "lemmaPic": []}, {"lemmaId": 3776228, "lemmaTitle": "妊娠期", "lemmaCroppedTitle": "妊娠期", "lemmaDesc": "妊娠期是指受孕后至分娩前的生理时期，属生理学名词，亦称怀孕期。自成熟卵受精后至胎...", "lemmaUrl": "http://baike.baidu.com/item/%E5%A6%8A%E5%A8%A0%E6%9C%9F/3776228", "lemmaPic": []}, {"lemmaId": 1509, "lemmaTitle": "消化道出血", "lemmaCroppedTitle": "消化道出血", "lemmaDesc": "消化道出血是临床常见症候群，可由多种疾病所致。消化道是指从食管到肛门的管道，包括...", "lemmaUrl": "http://baike.baidu.com/item/%E6%B6%88%E5%8C%96%E9%81%93%E5%87%BA%E8%A1%80/1509", "lemmaPic": []}, {"lemmaId": 3343151, "lemmaTitle": "扁平苔藓", "lemmaCroppedTitle": "扁平苔藓", "lemmaDesc": "本病是一种不明原因引起的累及皮肤、毛囊、甲、黏膜的慢性炎症性疾病，多发于中年人，...", "lemmaUrl": "http://baike.baidu.com/item/%E6%89%81%E5%B9%B3%E8%8B%94%E8%97%93/3343151", "lemmaPic": []}, {"lemmaId": 10361357, "lemmaTitle": "髌骨软化症", "lemmaCroppedTitle": "髌骨软化症", "lemmaDesc": "髌骨（膝盖骨）和股骨髁组成髌股关节，正常的髌股关节关节两部分对合比较正常，各部位...", "lemmaUrl": "http://baike.baidu.com/item/%E9%AB%8C%E9%AA%A8%E8%BD%AF%E5%8C%96%E7%97%87/10361357", "lemmaPic": []}, {"lemmaId": 6284625, "lemmaTitle": "舌癌", "lemmaCroppedTitle": "舌癌", "lemmaDesc": "舌癌是口腔颌面部常见的恶性肿瘤，男性多于女性，多数为鳞状细胞癌，特别是在舌前2/...", "lemmaUrl": "http://baike.baidu.com/item/%E8%88%8C%E7%99%8C/6284625", "lemmaPic": []}, {"lemmaId": 2264180, "lemmaTitle": "低血糖症", "lemmaCroppedTitle": "低血糖症", "lemmaDesc": "指由多种原因引起的血糖浓度过低所致的综合征。一般以血浆血糖浓度&amp;lt;2...", "lemmaUrl": "http://baike.baidu.com/item/%E4%BD%8E%E8%A1%80%E7%B3%96%E7%97%87/2264180", "lemmaPic": []}, {"lemmaId": 11030359, "lemmaTitle": "小儿感冒", "lemmaCroppedTitle": "小儿感冒", "lemmaDesc": "小儿急性上呼吸道感染系由各种病原引起的上呼吸道炎症，简称上感，俗称“感冒”，是小...", "lemmaUrl": "http://baike.baidu.com/item/%E5%B0%8F%E5%84%BF%E6%84%9F%E5%86%92/11030359", "lemmaPic": []}, {"lemmaId": 4513053, "lemmaTitle": "营养不良", "lemmaCroppedTitle": "营养不良", "lemmaDesc": "营养不良是一个描述健康状况的用语，由不适当或不足饮食所造成。通常指的是起因于摄入...", "lemmaUrl": "http://baike.baidu.com/item/%E8%90%A5%E5%85%BB%E4%B8%8D%E8%89%AF/4513053", "lemmaPic": []}, {"lemmaId": 7099229, "lemmaTitle": "IgA肾病", "lemmaCroppedTitle": "IgA肾病", "lemmaDesc": "IgA肾病是最为常见的一种原发性肾小球疾病，是指肾小球系膜区以IgA或IgA沉积...", "lemmaUrl": "http://baike.baidu.com/item/IgA%E8%82%BE%E7%97%85/7099229", "lemmaPic": []}, {"lemmaId": 5241866, "lemmaTitle": "肛周湿疹", "lemmaCroppedTitle": "肛周湿疹", "lemmaDesc": "肛周湿疹是指局限于肛门周围皮肤，少数可累及会阴部。奇痒难忍。常潮湿，皮肤浸润肥厚...", "lemmaUrl": "http://baike.baidu.com/item/%E8%82%9B%E5%91%A8%E6%B9%BF%E7%96%B9/5241866", "lemmaPic": []}, {"lemmaId": 10596976, "lemmaTitle": "急性淋巴细胞白血病", "lemmaCroppedTitle": "急性淋巴细胞白血病", "lemmaDesc": "急性淋巴细胞白血病（ALL）是一种起源于淋巴细胞的B系或T系细胞在骨髓内异常增生...", "lemmaUrl": "http://baike.baidu.com/item/%E6%80%A5%E6%80%A7%E6%B7%8B%E5%B7%B4%E7%BB%86%E8%83%9E%E7%99%BD%E8%A1%80%E7%97%85/10596976", "lemmaPic": []}, {"lemmaId": 9087751, "lemmaTitle": "甲状腺乳头状癌", "lemmaCroppedTitle": "甲状腺乳头状癌", "lemmaDesc": "甲状腺乳头状癌最常见，恶性度也最低。约占甲状腺癌的85%，任何年龄均可发病，多见...", "lemmaUrl": "http://baike.baidu.com/item/%E7%94%B2%E7%8A%B6%E8%85%BA%E4%B9%B3%E5%A4%B4%E7%8A%B6%E7%99%8C/9087751", "lemmaPic": []}, {"lemmaId": 3696925, "lemmaTitle": "恙虫病", "lemmaCroppedTitle": "恙虫病", "lemmaDesc": "恙虫病又名丛林斑疹伤寒，是由恙虫病东方体（恙虫病立克次体）引起的急性传染病，系一...", "lemmaUrl": "http://baike.baidu.com/item/%E6%81%99%E8%99%AB%E7%97%85/3696925", "lemmaPic": []}, {"lemmaId": 2001510, "lemmaTitle": "唇裂", "lemmaCroppedTitle": "唇裂", "lemmaDesc": "唇裂是口腔颌面部常见的先天性畸形，发生率约为1:1000。正常的胎儿，在第五周以...", "lemmaUrl": "http://baike.baidu.com/item/%E5%94%87%E8%A3%82/2001510", "lemmaPic": []}, {"lemmaId": 1118266, "lemmaTitle": "阿斯伯格综合症", "lemmaCroppedTitle": "阿斯伯格综合症", "lemmaDesc": "阿斯伯格综合征是一种主要以社会交往困难，局限而异常的兴趣行为模式为特征的神经系统...", "lemmaUrl": "http://baike.baidu.com/item/%E9%98%BF%E6%96%AF%E4%BC%AF%E6%A0%BC%E7%BB%BC%E5%90%88%E7%97%87/1118266", "lemmaPic": []}, {"lemmaId": 2067052, "lemmaTitle": "新生儿溶血病", "lemmaCroppedTitle": "新生儿溶血病", "lemmaDesc": "新生儿溶血病是指由于母子血型不合，母亲体内产生与胎儿血型抗原不配的血型抗体，这种...", "lemmaUrl": "http://baike.baidu.com/item/%E6%96%B0%E7%94%9F%E5%84%BF%E6%BA%B6%E8%A1%80%E7%97%85/2067052", "lemmaPic": []}, {"lemmaId": 728223, "lemmaTitle": "妊高症", "lemmaCroppedTitle": "妊高症", "lemmaDesc": "本词条由: 北京协和医院 妇产科 彭萍(副主任医师 ) 撰写妊娠期高血压疾病是妊...", "lemmaUrl": "http://baike.baidu.com/item/%E5%A6%8A%E9%AB%98%E7%97%87/728223", "lemmaPic": []}, {"lemmaId": 10190476, "lemmaTitle": "肺气虚", "lemmaCroppedTitle": "肺气虚", "lemmaDesc": "病证名。又称肺气不足。即肺的生理功能减弱。多由寒温不适，久咳伤气，悲伤不已，劳逸...", "lemmaUrl": "http://baike.baidu.com/item/%E8%82%BA%E6%B0%94%E8%99%9A/10190476", "lemmaPic": []}, {"lemmaId": 5085778, "lemmaTitle": "骨肉瘤", "lemmaCroppedTitle": "骨肉瘤", "lemmaDesc": "骨肉瘤也叫成骨肉瘤，是较常见的发生在20岁以下的青少年或儿童的一种恶性骨肿瘤，在...", "lemmaUrl": "http://baike.baidu.com/item/%E9%AA%A8%E8%82%89%E7%98%A4/5085778", "lemmaPic": []}, {"lemmaId": 2533397, "lemmaTitle": "喉炎", "lemmaCroppedTitle": "喉炎", "lemmaDesc": "喉炎是指喉部黏膜的病菌感染或用声不当所引起的慢性炎症。因病变程度的不同，可分为慢...", "lemmaUrl": "http://baike.baidu.com/item/%E5%96%89%E7%82%8E/2533397", "lemmaPic": []}, {"lemmaId": 678031, "lemmaTitle": "干槽症", "lemmaCroppedTitle": "干槽症", "lemmaDesc": "发生于下颌阻生智齿拔除后，口腔细菌引起的骨创感染。目前多认为创伤和感染及拔牙窝大...", "lemmaUrl": "http://baike.baidu.com/item/%E5%B9%B2%E6%A7%BD%E7%97%87/678031", "lemmaPic": []}, {"lemmaId": 6350998, "lemmaTitle": "心肾不交", "lemmaCroppedTitle": "心肾不交", "lemmaDesc": "病证名。心肾不交指心与肾生理协调失常的病理现象。多由肾阴亏损，阴精不能上承，因而...", "lemmaUrl": "http://baike.baidu.com/item/%E5%BF%83%E8%82%BE%E4%B8%8D%E4%BA%A4/6350998", "lemmaPic": []}, {"lemmaId": 6910412, "lemmaTitle": "女性尖锐湿疣", "lemmaCroppedTitle": "女性尖锐湿疣", "lemmaDesc": "女性尖锐湿疣是由人类乳头瘤病毒感染引起的上皮增生性病变，为重要的性传播疾病之一。...", "lemmaUrl": "http://baike.baidu.com/item/%E5%A5%B3%E6%80%A7%E5%B0%96%E9%94%90%E6%B9%BF%E7%96%A3/6910412", "lemmaPic": []}, {"lemmaId": 2494693, "lemmaTitle": "头癣", "lemmaCroppedTitle": "头癣", "lemmaDesc": "头癣是头皮和头发的浅部真菌感染，根据病原菌和临床表现的不同可分为黄癣、白癣、黑癣...", "lemmaUrl": "http://baike.baidu.com/item/%E5%A4%B4%E7%99%A3/2494693", "lemmaPic": []}, {"lemmaId": 2320116, "lemmaTitle": "阵发性室上性心动过速", "lemmaCroppedTitle": "阵发性室上性心动过速", "lemmaDesc": "阵发性室上性心动过速是指起源于心房或房室交界区的心动过速，大多数是由于折返激动所...", "lemmaUrl": "http://baike.baidu.com/item/%E9%98%B5%E5%8F%91%E6%80%A7%E5%AE%A4%E4%B8%8A%E6%80%A7%E5%BF%83%E5%8A%A8%E8%BF%87%E9%80%9F/2320116", "lemmaPic": []}, {"lemmaId": 8234970, "lemmaTitle": "颈动脉斑块", "lemmaCroppedTitle": "颈动脉斑块", "lemmaDesc": "颈动脉斑块是颈动脉粥样硬化的表现，好发于颈总动脉分叉处，目前认为与老年人缺血性脑...", "lemmaUrl": "http://baike.baidu.com/item/%E9%A2%88%E5%8A%A8%E8%84%89%E6%96%91%E5%9D%97/8234970", "lemmaPic": []}, {"lemmaId": 3565325, "lemmaTitle": "羊水过多", "lemmaCroppedTitle": "羊水过多", "lemmaDesc": "妊娠期间羊水量超过2000ml，称为羊水过多。发生率为0.5%～1%。羊水量在数...", "lemmaUrl": "http://baike.baidu.com/item/%E7%BE%8A%E6%B0%B4%E8%BF%87%E5%A4%9A/3565325", "lemmaPic": []}, {"lemmaId": 2825908, "lemmaTitle": "短暂性脑缺血发作", "lemmaCroppedTitle": "短暂性脑缺血发作", "lemmaDesc": "短暂性脑缺血发作（TIA）是颈动脉或椎-基底动脉系统发生短暂性血液供应不足，引起...", "lemmaUrl": "http://baike.baidu.com/item/%E7%9F%AD%E6%9A%82%E6%80%A7%E8%84%91%E7%BC%BA%E8%A1%80%E5%8F%91%E4%BD%9C/2825908", "lemmaPic": []}, {"lemmaId": 1190665, "lemmaTitle": "蛔虫病", "lemmaCroppedTitle": "蛔虫病", "lemmaDesc": "似蚓蛔线虫简称蛔虫，是人体内最常见的寄生虫之一。成虫寄生于小肠，可引起蛔虫病。此...", "lemmaUrl": "http://baike.baidu.com/item/%E8%9B%94%E8%99%AB%E7%97%85/1190665", "lemmaPic": []}, {"lemmaId": 1211908, "lemmaTitle": "脑电图", "lemmaCroppedTitle": "脑电图", "lemmaDesc": "脑电图是通过精密的电子仪器，从头皮上将脑部的自发性生物电位加以放大记录而获得的图...", "lemmaUrl": "http://baike.baidu.com/item/%E8%84%91%E7%94%B5%E5%9B%BE/1211908", "lemmaPic": []}, {"lemmaId": 1124617, "lemmaTitle": "流行性乙型脑炎", "lemmaCroppedTitle": "流行性乙型脑炎", "lemmaDesc": "流行性乙型脑炎（简称乙脑）的病原体于1934年在日本发现，故名日本乙型脑炎。19...", "lemmaUrl": "http://baike.baidu.com/item/%E6%B5%81%E8%A1%8C%E6%80%A7%E4%B9%99%E5%9E%8B%E8%84%91%E7%82%8E/1124617", "lemmaPic": []}, {"lemmaId": 1117140, "lemmaTitle": "煤气中毒", "lemmaCroppedTitle": "煤气中毒", "lemmaDesc": "煤气中毒即一氧化碳中毒。血液中血红蛋白与一氧化碳的结合能力比与氧的结合能力要强2...", "lemmaUrl": "http://baike.baidu.com/item/%E7%85%A4%E6%B0%94%E4%B8%AD%E6%AF%92/1117140", "lemmaPic": []}, {"lemmaId": 5358819, "lemmaTitle": "急性肾小球肾炎", "lemmaCroppedTitle": "急性肾小球肾炎", "lemmaDesc": "急性肾小球肾炎是以急性肾炎综合征为主要临床表现的一组原发性肾小球肾炎。其特点为急...", "lemmaUrl": "http://baike.baidu.com/item/%E6%80%A5%E6%80%A7%E8%82%BE%E5%B0%8F%E7%90%83%E8%82%BE%E7%82%8E/5358819", "lemmaPic": []}, {"lemmaId": 74891, "lemmaTitle": "失忆症", "lemmaCroppedTitle": "失忆症", "lemmaDesc": "失忆症是由于脑部受创而产生的病症，主要分为心因性失忆症和解离性失忆症。失忆症的特...", "lemmaUrl": "http://baike.baidu.com/item/%E5%A4%B1%E5%BF%86%E7%97%87/74891", "lemmaPic": []}, {"lemmaId": 6912760, "lemmaTitle": "男性尖锐湿疣", "lemmaCroppedTitle": "男性尖锐湿疣", "lemmaDesc": "人体感染了人乳头瘤病毒后，经过半个月至8个月，平均为3个月的潜伏期后发病。由于尖...", "lemmaUrl": "http://baike.baidu.com/item/%E7%94%B7%E6%80%A7%E5%B0%96%E9%94%90%E6%B9%BF%E7%96%A3/6912760", "lemmaPic": []}, {"lemmaId": 2078541, "lemmaTitle": "黄体功能不全", "lemmaCroppedTitle": "黄体功能不全", "lemmaDesc": "黄体功能不全是指卵巢排卵后形成的黄体内分泌功能不足，以致孕激素分泌不足，使子宫内...", "lemmaUrl": "http://baike.baidu.com/item/%E9%BB%84%E4%BD%93%E5%8A%9F%E8%83%BD%E4%B8%8D%E5%85%A8/2078541", "lemmaPic": []}, {"lemmaId": 8040333, "lemmaTitle": "肛门坠胀", "lemmaCroppedTitle": "肛门坠胀", "lemmaDesc": "肛门坠胀是发生于直肠、肛门、会阴的一种不适症状。主要表现有：局部下坠、胀痛、异物...", "lemmaUrl": "http://baike.baidu.com/item/%E8%82%9B%E9%97%A8%E5%9D%A0%E8%83%80/8040333", "lemmaPic": []}, {"lemmaId": 4784033, "lemmaTitle": "肾小球肾炎", "lemmaCroppedTitle": "肾小球肾炎", "lemmaDesc": "肾小球肾炎又称肾炎综合征（简称肾炎），是常见的肾脏病，指由于各种不同原因，发生于...", "lemmaUrl": "http://baike.baidu.com/item/%E8%82%BE%E5%B0%8F%E7%90%83%E8%82%BE%E7%82%8E/4784033", "lemmaPic": []}, {"lemmaId": 7098042, "lemmaTitle": "霍奇金淋巴瘤", "lemmaCroppedTitle": "霍奇金淋巴瘤", "lemmaDesc": "霍奇金淋巴瘤（HL）是淋巴瘤的一种独特类型，为青年人中最常见的恶性肿瘤之一。病初...", "lemmaUrl": "http://baike.baidu.com/item/%E9%9C%8D%E5%A5%87%E9%87%91%E6%B7%8B%E5%B7%B4%E7%98%A4/7098042", "lemmaPic": []}, {"lemmaId": 6048347, "lemmaTitle": "单纯性肥胖", "lemmaCroppedTitle": "单纯性肥胖", "lemmaDesc": "肥胖症是一种由多种因素引起的慢性代谢性疾病，以体内脂肪细胞的体积和细胞数增加致体...", "lemmaUrl": "http://baike.baidu.com/item/%E5%8D%95%E7%BA%AF%E6%80%A7%E8%82%A5%E8%83%96/6048347", "lemmaPic": []}, {"lemmaId": 644819, "lemmaTitle": "被害妄想症", "lemmaCroppedTitle": "被害妄想症", "lemmaDesc": "被害妄想症是妄想症中最常见的一种，它是精神疾病的一个重要症状。主要是指患者往往处...", "lemmaUrl": "http://baike.baidu.com/item/%E8%A2%AB%E5%AE%B3%E5%A6%84%E6%83%B3%E7%97%87/644819", "lemmaPic": []}, {"lemmaId": 1487524, "lemmaTitle": "脐疝", "lemmaCroppedTitle": "脐疝", "lemmaDesc": "脐疝是指腹腔内容物由脐部薄弱区突出的腹外疝。脐位于腹壁正中部，在胚胎发育过程中，...", "lemmaUrl": "http://baike.baidu.com/item/%E8%84%90%E7%96%9D/1487524", "lemmaPic": []}, {"lemmaId": 5242420, "lemmaTitle": "肋骨骨折", "lemmaCroppedTitle": "肋骨骨折", "lemmaDesc": "肋骨共12对，平分在胸部两侧，前与胸骨、后与胸椎相连，构成一个完整的脚廓。胸部损...", "lemmaUrl": "http://baike.baidu.com/item/%E8%82%8B%E9%AA%A8%E9%AA%A8%E6%8A%98/5242420", "lemmaPic": []}, {"lemmaId": 5490372, "lemmaTitle": "布鲁氏菌病", "lemmaCroppedTitle": "布鲁氏菌病", "lemmaDesc": "布鲁菌病在国内，羊为主要传染源，牧民或兽医接羔为主要传播途径。皮毛、肉类加工、挤...", "lemmaUrl": "http://baike.baidu.com/item/%E5%B8%83%E9%B2%81%E6%B0%8F%E8%8F%8C%E7%97%85/5490372", "lemmaPic": []}, {"lemmaId": 5855659, "lemmaTitle": "月子病", "lemmaCroppedTitle": "月子病", "lemmaDesc": "月子病，亦称之为“产后风、月痨、月家痨、月奸病、月中伤、干耳病”等，是妇女在分娩...", "lemmaUrl": "http://baike.baidu.com/item/%E6%9C%88%E5%AD%90%E7%97%85/5855659", "lemmaPic": []}, {"lemmaId": 9517803, "lemmaTitle": "心包积液", "lemmaCroppedTitle": "心包积液", "lemmaDesc": "心包积液是一种较常见的临床表现，是心包疾病的重要体征之一，心包积液可见于渗出性心...", "lemmaUrl": "http://baike.baidu.com/item/%E5%BF%83%E5%8C%85%E7%A7%AF%E6%B6%B2/9517803", "lemmaPic": []}, {"lemmaId": 1484087, "lemmaTitle": "结肠息肉", "lemmaCroppedTitle": "结肠息肉", "lemmaDesc": "凡从黏膜表面突出到肠腔的息肉状病变，在未确定病理性质前均称为息肉，按病理可分为：...", "lemmaUrl": "http://baike.baidu.com/item/%E7%BB%93%E8%82%A0%E6%81%AF%E8%82%89/1484087", "lemmaPic": []}, {"lemmaId": 5358177, "lemmaTitle": "萎缩性鼻炎", "lemmaCroppedTitle": "萎缩性鼻炎", "lemmaDesc": "萎缩性鼻炎是一种发展缓慢的鼻腔慢性炎性疾病，发病具有地区性。本病女性患者较多，多...", "lemmaUrl": "http://baike.baidu.com/item/%E8%90%8E%E7%BC%A9%E6%80%A7%E9%BC%BB%E7%82%8E/5358177", "lemmaPic": []}, {"lemmaId": 5120025, "lemmaTitle": "嗜铬细胞瘤", "lemmaCroppedTitle": "嗜铬细胞瘤", "lemmaDesc": "嗜铬细胞瘤为起源于神经外胚层嗜铬组织的肿瘤，主要分泌儿茶酚胺，根据肿瘤是来自交感...", "lemmaUrl": "http://baike.baidu.com/item/%E5%97%9C%E9%93%AC%E7%BB%86%E8%83%9E%E7%98%A4/5120025", "lemmaPic": []}, {"lemmaId": 5278206, "lemmaTitle": "霉菌性外阴炎", "lemmaCroppedTitle": "霉菌性外阴炎", "lemmaDesc": "外阴、阴道炎的发生与妊娠、糖尿病、外阴损伤或浸渍，口服避孕药及抗生素等免疫抑制药...", "lemmaUrl": "http://baike.baidu.com/item/%E9%9C%89%E8%8F%8C%E6%80%A7%E5%A4%96%E9%98%B4%E7%82%8E/5278206", "lemmaPic": []}, {"lemmaId": 2938454, "lemmaTitle": "卵巢肿瘤", "lemmaCroppedTitle": "卵巢肿瘤", "lemmaDesc": "卵巢肿瘤是指发生于卵巢上的肿瘤。它是女性生殖器常见肿瘤之一。卵巢恶性肿瘤还是妇科...", "lemmaUrl": "http://baike.baidu.com/item/%E5%8D%B5%E5%B7%A2%E8%82%BF%E7%98%A4/2938454", "lemmaPic": []}, {"lemmaId": 3665286, "lemmaTitle": "慢性非萎缩性胃炎", "lemmaCroppedTitle": "慢性非萎缩性胃炎", "lemmaDesc": "慢性非萎缩性胃炎是指不伴有胃黏膜萎缩性改变、胃黏膜层见以淋巴细胞和浆细胞为主的慢...", "lemmaUrl": "http://baike.baidu.com/item/%E6%85%A2%E6%80%A7%E9%9D%9E%E8%90%8E%E7%BC%A9%E6%80%A7%E8%83%83%E7%82%8E/3665286", "lemmaPic": []}, {"lemmaId": 2499174, "lemmaTitle": "输卵管积水", "lemmaCroppedTitle": "输卵管积水", "lemmaDesc": "输卵管积水为慢性输卵管炎症中较为常见的类型，在输卵管炎后，或因粘连闭锁，黏膜细胞...", "lemmaUrl": "http://baike.baidu.com/item/%E8%BE%93%E5%8D%B5%E7%AE%A1%E7%A7%AF%E6%B0%B4/2499174", "lemmaPic": []}, {"lemmaId": 1766147, "lemmaTitle": "膝关节骨质增生", "lemmaCroppedTitle": "膝关节骨质增生", "lemmaDesc": "膝关节骨质增生多见于中老年人，女性发病高于男性，体育运动爱好者也是高发人群之一。...", "lemmaUrl": "http://baike.baidu.com/item/%E8%86%9D%E5%85%B3%E8%8A%82%E9%AA%A8%E8%B4%A8%E5%A2%9E%E7%94%9F/1766147", "lemmaPic": []}, {"lemmaId": 7424305, "lemmaTitle": "产后恶露不尽", "lemmaCroppedTitle": "产后恶露不尽", "lemmaDesc": "产后恶露是指产后随子宫蜕膜脱落，含有血液、坏死蜕膜等组织经阴道排出，称为恶露（l...", "lemmaUrl": "http://baike.baidu.com/item/%E4%BA%A7%E5%90%8E%E6%81%B6%E9%9C%B2%E4%B8%8D%E5%B0%BD/7424305", "lemmaPic": []}, {"lemmaId": 7716039, "lemmaTitle": "小儿癫痫", "lemmaCroppedTitle": "小儿癫痫", "lemmaDesc": "癫痫俗称“羊儿风”，是小儿时期常见的一种病因复杂的、反复发作的神经系统综合征。是...", "lemmaUrl": "http://baike.baidu.com/item/%E5%B0%8F%E5%84%BF%E7%99%AB%E7%97%AB/7716039", "lemmaPic": []}, {"lemmaId": 1483561, "lemmaTitle": "慢性腹泻", "lemmaCroppedTitle": "慢性腹泻", "lemmaDesc": "慢性腹泻是一种常见临床症状，并非一种疾病。是指病程在两个月以上的腹泻或间歇期在2...", "lemmaUrl": "http://baike.baidu.com/item/%E6%85%A2%E6%80%A7%E8%85%B9%E6%B3%BB/1483561", "lemmaPic": []}, {"lemmaId": 671244, "lemmaTitle": "小儿便秘", "lemmaCroppedTitle": "小儿便秘", "lemmaDesc": "小儿便秘是由于排便规律改变所致，指排便次数明显减少、大便干燥、坚硬，秘结不通，排...", "lemmaUrl": "http://baike.baidu.com/item/%E5%B0%8F%E5%84%BF%E4%BE%BF%E7%A7%98/671244", "lemmaPic": []}, {"lemmaId": 10849068, "lemmaTitle": "口腔疱疹", "lemmaCroppedTitle": "口腔疱疹", "lemmaDesc": "口腔疱疹包括口腔单纯性疱疹、口腔带状疱疹、手足口病。口腔单纯性疱疹是由单纯性疱疹...", "lemmaUrl": "http://baike.baidu.com/item/%E5%8F%A3%E8%85%94%E7%96%B1%E7%96%B9/10849068", "lemmaPic": []}, {"lemmaId": 11039443, "lemmaTitle": "骨结核", "lemmaCroppedTitle": "骨结核", "lemmaDesc": "结核病大多发生于肺部，但也可发生于人体任何器官。约50%骨结核患者合并肺结核，结...", "lemmaUrl": "http://baike.baidu.com/item/%E9%AA%A8%E7%BB%93%E6%A0%B8/11039443", "lemmaPic": {"width": 199, "height": 199, "url": "https://gss3.bdstatic.com/-Po3dSag_xI4khGkpoWK1HF6hhy/baike/w%3D168/sign=59e2e52fbe096b6381195a5634328733/cb8065380cd79123c479b674ad345982b2b78010.jpg"}}, {"lemmaId": 10004293, "lemmaTitle": "错构瘤", "lemmaCroppedTitle": "错构瘤", "lemmaDesc": "错构瘤一词由Albrecht在1904年首先提出。多数学者一直认为错构瘤不是真性...", "lemmaUrl": "http://baike.baidu.com/item/%E9%94%99%E6%9E%84%E7%98%A4/10004293", "lemmaPic": {"width": 640, "height": 456, "url": "https://gss2.bdstatic.com/9fo3dSag_xI4khGkpoWK1HF6hhy/baike/w%3D168/sign=a4a726ebb31c8701d6b6b6e01f7e9e6e/3c6d55fbb2fb4316e7f6e27520a4462308f7d3d0.jpg"}}, {"lemmaId": 10090064, "lemmaTitle": "偏执型人格障碍", "lemmaCroppedTitle": "偏执型人格障碍", "lemmaDesc": "偏执型人格障碍是人格障碍的一种，在一般人口中的数目不详，他们很少求助于医生，如果...", "lemmaUrl": "http://baike.baidu.com/item/%E5%81%8F%E6%89%A7%E5%9E%8B%E4%BA%BA%E6%A0%BC%E9%9A%9C%E7%A2%8D/10090064", "lemmaPic": []}], "total": 7246, "totalPage": 73, "page": 7, "fromLemma": 0}