{"lemmaList": [{"lemmaId": 10455986, "lemmaTitle": "乳腺良性肿瘤", "lemmaCroppedTitle": "乳腺良性肿瘤", "lemmaDesc": "乳腺良性肿瘤多发于青年妇女，大多为无痛性肿物，多在无意中发现。初期较小，但生长较...", "lemmaUrl": "http://baike.baidu.com/item/%E4%B9%B3%E8%85%BA%E8%89%AF%E6%80%A7%E8%82%BF%E7%98%A4/10455986", "lemmaPic": []}, {"lemmaId": 2828844, "lemmaTitle": "视网膜静脉阻塞", "lemmaCroppedTitle": "视网膜静脉阻塞", "lemmaDesc": "视网膜静脉阻塞是比较常见的眼底血管病。视网膜静脉阻塞的特征是：视网膜血液瘀滞、静...", "lemmaUrl": "http://baike.baidu.com/item/%E8%A7%86%E7%BD%91%E8%86%9C%E9%9D%99%E8%84%89%E9%98%BB%E5%A1%9E/2828844", "lemmaPic": []}, {"lemmaId": 4331821, "lemmaTitle": "痞满", "lemmaCroppedTitle": "痞满", "lemmaDesc": "痞满是由于脾胃功能失调，升降失司，胃气壅塞，出现以脘腹满闷不舒为主症的病证。以自...", "lemmaUrl": "http://baike.baidu.com/item/%E7%97%9E%E6%BB%A1/4331821", "lemmaPic": []}, {"lemmaId": 1758171, "lemmaTitle": "门静脉高压症", "lemmaCroppedTitle": "门静脉高压症", "lemmaDesc": "门静脉高压症是一组由门静脉压力持久增高引起的症候群。绝大多数病人由肝硬化引起，少...", "lemmaUrl": "http://baike.baidu.com/item/%E9%97%A8%E9%9D%99%E8%84%89%E9%AB%98%E5%8E%8B%E7%97%87/1758171", "lemmaPic": []}, {"lemmaId": 5848433, "lemmaTitle": "盆腔炎症", "lemmaCroppedTitle": "盆腔炎症", "lemmaDesc": "盆腔炎症是指女性盆腔生殖器官、子宫周围的结缔组织及盆腔腹膜的炎症。慢性盆腔炎症往...", "lemmaUrl": "http://baike.baidu.com/item/%E7%9B%86%E8%85%94%E7%82%8E%E7%97%87/5848433", "lemmaPic": []}, {"lemmaId": 9991597, "lemmaTitle": "老年便秘", "lemmaCroppedTitle": "老年便秘", "lemmaDesc": "老年人便秘是指排便次数减少，同时排便困难、粪便干结。正常人每天排便1～2次或2～...", "lemmaUrl": "http://baike.baidu.com/item/%E8%80%81%E5%B9%B4%E4%BE%BF%E7%A7%98/9991597", "lemmaPic": []}, {"lemmaId": 6216717, "lemmaTitle": "跖腱膜炎", "lemmaCroppedTitle": "跖腱膜炎", "lemmaDesc": "跖腱膜是足底的深筋膜，其主体起自跟骨结节向远端行至各足趾的近节趾骨，由纵行的纤维...", "lemmaUrl": "http://baike.baidu.com/item/%E8%B7%96%E8%85%B1%E8%86%9C%E7%82%8E/6216717", "lemmaPic": []}, {"lemmaId": 5085430, "lemmaTitle": "等渗性脱水", "lemmaCroppedTitle": "等渗性脱水", "lemmaDesc": "等渗性脱水是外科患者最易发生的一种脱水类型；水和钠成比例地丧失，因而血清钠在正常...", "lemmaUrl": "http://baike.baidu.com/item/%E7%AD%89%E6%B8%97%E6%80%A7%E8%84%B1%E6%B0%B4/5085430", "lemmaPic": []}, {"lemmaId": 5052833, "lemmaTitle": "泌乳素瘤", "lemmaCroppedTitle": "泌乳素瘤", "lemmaDesc": "泌乳素瘤是由垂体泌乳素细胞瘤分泌过量泌乳素（PRL）引起的下丘脑-垂体疾病中常见...", "lemmaUrl": "http://baike.baidu.com/item/%E6%B3%8C%E4%B9%B3%E7%B4%A0%E7%98%A4/5052833", "lemmaPic": []}, {"lemmaId": 3305106, "lemmaTitle": "类癌", "lemmaCroppedTitle": "类癌", "lemmaDesc": "类癌是起源于胃肠道和其他器官的内分泌细胞的低度恶性肿瘤，细胞多呈局限性、浸润性缓...", "lemmaUrl": "http://baike.baidu.com/item/%E7%B1%BB%E7%99%8C/3305106", "lemmaPic": []}, {"lemmaId": 10838207, "lemmaTitle": "肌营养不良症", "lemmaCroppedTitle": "肌营养不良症", "lemmaDesc": "肌营养不良症是指一组以进行性加重的肌无力和支配运动的肌肉变性为特征的遗传性疾病群...", "lemmaUrl": "http://baike.baidu.com/item/%E8%82%8C%E8%90%A5%E5%85%BB%E4%B8%8D%E8%89%AF%E7%97%87/10838207", "lemmaPic": []}, {"lemmaId": 8110500, "lemmaTitle": "出血性疾病", "lemmaCroppedTitle": "出血性疾病", "lemmaDesc": "出血性疾病是一类由于止血机制异常所致的疾病统称。出血性疾病大体上可分为遗传性和获...", "lemmaUrl": "http://baike.baidu.com/item/%E5%87%BA%E8%A1%80%E6%80%A7%E7%96%BE%E7%97%85/8110500", "lemmaPic": []}, {"lemmaId": 9685300, "lemmaTitle": "期前收缩", "lemmaCroppedTitle": "期前收缩", "lemmaDesc": "期前收缩（曾称早搏）是指异位起搏点发出的过早冲动引起的心脏搏动，为最常见的心律失...", "lemmaUrl": "http://baike.baidu.com/item/%E6%9C%9F%E5%89%8D%E6%94%B6%E7%BC%A9/9685300", "lemmaPic": []}, {"lemmaId": 3966171, "lemmaTitle": "鲍温样丘疹病", "lemmaCroppedTitle": "鲍温样丘疹病", "lemmaDesc": "本病与HPV感染，特别是HPV-16感染相关。好发于生殖器部位，临床表现为多发红...", "lemmaUrl": "http://baike.baidu.com/item/%E9%B2%8D%E6%B8%A9%E6%A0%B7%E4%B8%98%E7%96%B9%E7%97%85/3966171", "lemmaPic": []}, {"lemmaId": 3260047, "lemmaTitle": "上巨虚", "lemmaCroppedTitle": "上巨虚", "lemmaDesc": "上，相对于下而言。巨，巨大；虚，空虚。本穴原名“巨虚上廉”，指本穴在胫、腓骨间之...", "lemmaUrl": "http://baike.baidu.com/item/%E4%B8%8A%E5%B7%A8%E8%99%9A/3260047", "lemmaPic": []}, {"lemmaId": 7961003, "lemmaTitle": "先天性梅毒", "lemmaCroppedTitle": "先天性梅毒", "lemmaDesc": "先天性梅毒又称胎传梅毒，病原体在母体内通过胎盘途径感染胎儿，可引起死产、早产。孕...", "lemmaUrl": "http://baike.baidu.com/item/%E5%85%88%E5%A4%A9%E6%80%A7%E6%A2%85%E6%AF%92/7961003", "lemmaPic": []}, {"lemmaId": 8830723, "lemmaTitle": "更年期抑郁症", "lemmaCroppedTitle": "更年期抑郁症", "lemmaDesc": "更年期抑郁症初次发病年龄在更年期（男55～60岁，女45～55岁左右），因精神焦...", "lemmaUrl": "http://baike.baidu.com/item/%E6%9B%B4%E5%B9%B4%E6%9C%9F%E6%8A%91%E9%83%81%E7%97%87/8830723", "lemmaPic": []}, {"lemmaId": 1176770, "lemmaTitle": "头皮血肿", "lemmaCroppedTitle": "头皮血肿", "lemmaDesc": "头皮血肿多因钝器伤及头皮所致，按血肿出现于头皮内的具体层次可分为皮下血肿、帽状腱...", "lemmaUrl": "http://baike.baidu.com/item/%E5%A4%B4%E7%9A%AE%E8%A1%80%E8%82%BF/1176770", "lemmaPic": []}, {"lemmaId": 3865428, "lemmaTitle": "轮状病毒胃肠炎", "lemmaCroppedTitle": "轮状病毒胃肠炎", "lemmaDesc": "轮状病毒胃肠炎是病毒性胃肠炎中最常见的一种。普通轮状病毒主要侵犯婴幼儿，而成人腹...", "lemmaUrl": "http://baike.baidu.com/item/%E8%BD%AE%E7%8A%B6%E7%97%85%E6%AF%92%E8%83%83%E8%82%A0%E7%82%8E/3865428", "lemmaPic": []}, {"lemmaId": 10183902, "lemmaTitle": "高血压急症", "lemmaCroppedTitle": "高血压急症", "lemmaDesc": "高血压急症是指在原发性或继发性高血压患者，在某些诱因作用下，血压突然和显著升高（...", "lemmaUrl": "http://baike.baidu.com/item/%E9%AB%98%E8%A1%80%E5%8E%8B%E6%80%A5%E7%97%87/10183902", "lemmaPic": []}, {"lemmaId": 10030179, "lemmaTitle": "增生性瘢痕", "lemmaCroppedTitle": "增生性瘢痕", "lemmaDesc": "瘢痕是创伤愈合留下的痕迹，也是组织修复愈合的最终结果。在某些个体，修复过程发生异...", "lemmaUrl": "http://baike.baidu.com/item/%E5%A2%9E%E7%94%9F%E6%80%A7%E7%98%A2%E7%97%95/10030179", "lemmaPic": []}, {"lemmaId": 5358160, "lemmaTitle": "慢性肥厚性鼻炎", "lemmaCroppedTitle": "慢性肥厚性鼻炎", "lemmaDesc": "慢性肥厚性鼻炎多由慢性单纯性鼻炎发展而来，以鼻黏膜、黏膜下甚至骨质的局限性或弥漫...", "lemmaUrl": "http://baike.baidu.com/item/%E6%85%A2%E6%80%A7%E8%82%A5%E5%8E%9A%E6%80%A7%E9%BC%BB%E7%82%8E/5358160", "lemmaPic": []}, {"lemmaId": 4139430, "lemmaTitle": "肺隔离症", "lemmaCroppedTitle": "肺隔离症", "lemmaDesc": "肺隔离症是指一种少见的先天性肺发育畸形，由异常体循环动脉供血的部分肺组织形成囊性...", "lemmaUrl": "http://baike.baidu.com/item/%E8%82%BA%E9%9A%94%E7%A6%BB%E7%97%87/4139430", "lemmaPic": []}, {"lemmaId": 979586, "lemmaTitle": "急性淋巴管炎", "lemmaCroppedTitle": "急性淋巴管炎", "lemmaDesc": "急性淋巴管炎多数是通过局部创口或溃疡感染所致，细菌经组织淋巴间隙进入淋巴管，引起...", "lemmaUrl": "http://baike.baidu.com/item/%E6%80%A5%E6%80%A7%E6%B7%8B%E5%B7%B4%E7%AE%A1%E7%82%8E/979586", "lemmaPic": []}, {"lemmaId": 1052040, "lemmaTitle": "早期妊娠", "lemmaCroppedTitle": "早期妊娠", "lemmaDesc": "妊娠头三个月（即0～12周）称早期妊娠，又称早孕。此阶段正是受精卵向胚胎、胎儿剧...", "lemmaUrl": "http://baike.baidu.com/item/%E6%97%A9%E6%9C%9F%E5%A6%8A%E5%A8%A0/1052040", "lemmaPic": []}, {"lemmaId": 8700420, "lemmaTitle": "中药注射剂", "lemmaCroppedTitle": "中药注射剂", "lemmaDesc": "注射剂亦称针剂，是将药物经过提取、精制、配制等步骤而制成的供皮下、肌肉、静脉注射...", "lemmaUrl": "http://baike.baidu.com/item/%E4%B8%AD%E8%8D%AF%E6%B3%A8%E5%B0%84%E5%89%82/8700420", "lemmaPic": []}, {"lemmaId": 7010314, "lemmaTitle": "足月小样儿", "lemmaCroppedTitle": "足月小样儿", "lemmaDesc": "小样儿（又称小于胎龄儿，宫内生长迟缓）是指出生体重低于同胎龄儿平均体重第10百分...", "lemmaUrl": "http://baike.baidu.com/item/%E8%B6%B3%E6%9C%88%E5%B0%8F%E6%A0%B7%E5%84%BF/7010314", "lemmaPic": []}, {"lemmaId": 2277893, "lemmaTitle": "孕期抑郁症", "lemmaCroppedTitle": "孕期抑郁症", "lemmaDesc": "对大多数女人来说，怀孕期间是一生中最感觉幸福的时期之一，然而事实上也有将近10%...", "lemmaUrl": "http://baike.baidu.com/item/%E5%AD%95%E6%9C%9F%E6%8A%91%E9%83%81%E7%97%87/2277893", "lemmaPic": []}, {"lemmaId": 2894901, "lemmaTitle": "急性腰背部扭伤", "lemmaCroppedTitle": "急性腰背部扭伤", "lemmaDesc": "急性腰背部扭伤俗称“闪腰”，在临床上较为多见，尤其是在体力劳动者；偶然参加运动或...", "lemmaUrl": "http://baike.baidu.com/item/%E6%80%A5%E6%80%A7%E8%85%B0%E8%83%8C%E9%83%A8%E6%89%AD%E4%BC%A4/2894901", "lemmaPic": []}, {"lemmaId": 1679137, "lemmaTitle": "支原体阴道炎", "lemmaCroppedTitle": "支原体阴道炎", "lemmaDesc": "支原体阴道炎是性传播疾病中的一种，病原体是人型支原体（MH）、解脲支原体（UU）...", "lemmaUrl": "http://baike.baidu.com/item/%E6%94%AF%E5%8E%9F%E4%BD%93%E9%98%B4%E9%81%93%E7%82%8E/1679137", "lemmaPic": []}, {"lemmaId": 6020117, "lemmaTitle": "变应性血管炎", "lemmaCroppedTitle": "变应性血管炎", "lemmaDesc": "变应性血管炎是比较常见的一种疾病，其组织病理有白细胞核破碎的血管炎表现，有皮肤损...", "lemmaUrl": "http://baike.baidu.com/item/%E5%8F%98%E5%BA%94%E6%80%A7%E8%A1%80%E7%AE%A1%E7%82%8E/6020117", "lemmaPic": []}, {"lemmaId": 831376, "lemmaTitle": "高原肺水肿", "lemmaCroppedTitle": "高原肺水肿", "lemmaDesc": "高原肺水肿是指近期抵达高原（一般指海拔3000米以上），出现静息时呼吸困难、胸闷...", "lemmaUrl": "http://baike.baidu.com/item/%E9%AB%98%E5%8E%9F%E8%82%BA%E6%B0%B4%E8%82%BF/831376", "lemmaPic": []}, {"lemmaId": 2622439, "lemmaTitle": "黄色瘤", "lemmaCroppedTitle": "黄色瘤", "lemmaDesc": "黄色瘤是网状内皮细胞系统疾病之一，为组织细胞增生症X的一种类型，是一种遗传性脂质...", "lemmaUrl": "http://baike.baidu.com/item/%E9%BB%84%E8%89%B2%E7%98%A4/2622439", "lemmaPic": []}, {"lemmaId": 8020120, "lemmaTitle": "瓷贴面", "lemmaCroppedTitle": "瓷贴面", "lemmaDesc": "瓷贴面是一种牙齿修复体。在相对少磨牙的情况下，对牙体表面缺损、着色牙、变色牙等用...", "lemmaUrl": "http://baike.baidu.com/item/%E7%93%B7%E8%B4%B4%E9%9D%A2/8020120", "lemmaPic": []}, {"lemmaId": 3236986, "lemmaTitle": "尿道肉阜", "lemmaCroppedTitle": "尿道肉阜", "lemmaDesc": "尿道肉阜又称尿道肉芽肿或血管性息肉，是女性尿道末端良性的息肉状赘生物，常位于尿道...", "lemmaUrl": "http://baike.baidu.com/item/%E5%B0%BF%E9%81%93%E8%82%89%E9%98%9C/3236986", "lemmaPic": []}, {"lemmaId": 10901745, "lemmaTitle": "髂骨致密性骨炎", "lemmaCroppedTitle": "髂骨致密性骨炎", "lemmaDesc": "髂骨致密性骨炎是髂骨与骶骨之间耳状关节部分的骨质密度增高。可为单侧或双侧。症状可...", "lemmaUrl": "http://baike.baidu.com/item/%E9%AB%82%E9%AA%A8%E8%87%B4%E5%AF%86%E6%80%A7%E9%AA%A8%E7%82%8E/10901745", "lemmaPic": []}, {"lemmaId": 6946469, "lemmaTitle": "胫骨结节骨骺炎", "lemmaCroppedTitle": "胫骨结节骨骺炎", "lemmaDesc": "胫骨结节骨骺炎，又称胫骨结节骨软骨病，胫骨结节骨软骨炎，胫骨结节骨骺无菌性坏死。...", "lemmaUrl": "http://baike.baidu.com/item/%E8%83%AB%E9%AA%A8%E7%BB%93%E8%8A%82%E9%AA%A8%E9%AA%BA%E7%82%8E/6946469", "lemmaPic": []}, {"lemmaId": 8994377, "lemmaTitle": "皮肤念珠菌病", "lemmaCroppedTitle": "皮肤念珠菌病", "lemmaDesc": "皮肤念珠菌病是由白色念珠菌引起的皮肤、黏膜及内脏感染。念珠菌广泛存在于自然界，并...", "lemmaUrl": "http://baike.baidu.com/item/%E7%9A%AE%E8%82%A4%E5%BF%B5%E7%8F%A0%E8%8F%8C%E7%97%85/8994377", "lemmaPic": []}, {"lemmaId": 10058118, "lemmaTitle": "肩锁关节脱位", "lemmaCroppedTitle": "肩锁关节脱位", "lemmaDesc": "肩锁关节脱位并非少见，可有局部疼痛、肿胀及压痛，伤肢外展或上举均较困难，前屈和后...", "lemmaUrl": "http://baike.baidu.com/item/%E8%82%A9%E9%94%81%E5%85%B3%E8%8A%82%E8%84%B1%E4%BD%8D/10058118", "lemmaPic": []}, {"lemmaId": 3168188, "lemmaTitle": "小儿糖尿病", "lemmaCroppedTitle": "小儿糖尿病", "lemmaDesc": "小儿糖尿病是由于胰岛素分泌不足所引起的内分泌代谢疾病，以碳水化合物、蛋白质及脂肪...", "lemmaUrl": "http://baike.baidu.com/item/%E5%B0%8F%E5%84%BF%E7%B3%96%E5%B0%BF%E7%97%85/3168188", "lemmaPic": []}, {"lemmaId": 1403461, "lemmaTitle": "小儿结核病", "lemmaCroppedTitle": "小儿结核病", "lemmaDesc": "结核病是由结核杆菌引起的慢性感染性疾病，全身各个器官都可累及，但以肺结核最常见。...", "lemmaUrl": "http://baike.baidu.com/item/%E5%B0%8F%E5%84%BF%E7%BB%93%E6%A0%B8%E7%97%85/1403461", "lemmaPic": []}, {"lemmaId": 5059983, "lemmaTitle": "麦胶性肠病", "lemmaCroppedTitle": "麦胶性肠病", "lemmaDesc": "麦胶性肠病又称乳糜泻、非热带性脂肪泻，在北美、北欧、澳大利亚发病率较高，国内很少...", "lemmaUrl": "http://baike.baidu.com/item/%E9%BA%A6%E8%83%B6%E6%80%A7%E8%82%A0%E7%97%85/5059983", "lemmaPic": []}, {"lemmaId": 5280837, "lemmaTitle": "慢性泪囊炎", "lemmaCroppedTitle": "慢性泪囊炎", "lemmaDesc": "由于鼻泪管的阻塞或狭窄而引起，这是一种比较常见的眼病，好发于中老年女性，农村和边...", "lemmaUrl": "http://baike.baidu.com/item/%E6%85%A2%E6%80%A7%E6%B3%AA%E5%9B%8A%E7%82%8E/5280837", "lemmaPic": []}, {"lemmaId": 10825633, "lemmaTitle": "白屑风", "lemmaCroppedTitle": "白屑风", "lemmaDesc": "白屑风又名面游风，钮扣风。是一种皮肤油腻瘙痒潮红或起白屑的慢性皮肤病。其皮损形态...", "lemmaUrl": "http://baike.baidu.com/item/%E7%99%BD%E5%B1%91%E9%A3%8E/10825633", "lemmaPic": []}, {"lemmaId": 5120173, "lemmaTitle": "肾血管性高血压", "lemmaCroppedTitle": "肾血管性高血压", "lemmaDesc": "肾血管性高血压占高血压人群的1%～5%。主要由于肾动脉狭窄引起肾脏的血流减少，可...", "lemmaUrl": "http://baike.baidu.com/item/%E8%82%BE%E8%A1%80%E7%AE%A1%E6%80%A7%E9%AB%98%E8%A1%80%E5%8E%8B/5120173", "lemmaPic": []}, {"lemmaId": 1852357, "lemmaTitle": "脊柱侧凸畸形", "lemmaCroppedTitle": "脊柱侧凸畸形", "lemmaDesc": "脊柱的冠状位，矢状位或轴向位偏离正常位置，发生形态上异常的表现，称为脊柱畸形。脊...", "lemmaUrl": "http://baike.baidu.com/item/%E8%84%8A%E6%9F%B1%E4%BE%A7%E5%87%B8%E7%95%B8%E5%BD%A2/1852357", "lemmaPic": []}, {"lemmaId": 924174, "lemmaTitle": "化脓性肉芽肿", "lemmaCroppedTitle": "化脓性肉芽肿", "lemmaDesc": "化脓性肉芽肿（Pyogenic Granuloma）又称毛细血管扩张性肉芽肿，是...", "lemmaUrl": "http://baike.baidu.com/item/%E5%8C%96%E8%84%93%E6%80%A7%E8%82%89%E8%8A%BD%E8%82%BF/924174", "lemmaPic": []}, {"lemmaId": 5358102, "lemmaTitle": "鼻疖", "lemmaCroppedTitle": "鼻疖", "lemmaDesc": "鼻疖是鼻腔前半部皮肤的毛囊、皮脂腺或汗腺局限性的急性化脓性炎症，致病菌多为金黄色...", "lemmaUrl": "http://baike.baidu.com/item/%E9%BC%BB%E7%96%96/5358102", "lemmaPic": []}, {"lemmaId": 1051465, "lemmaTitle": "新生儿发热", "lemmaCroppedTitle": "新生儿发热", "lemmaDesc": "正常新生儿肛温在36.2℃～37.8℃之间，腋下温度在36℃～37℃之间；新生儿...", "lemmaUrl": "http://baike.baidu.com/item/%E6%96%B0%E7%94%9F%E5%84%BF%E5%8F%91%E7%83%AD/1051465", "lemmaPic": []}, {"lemmaId": 1858123, "lemmaTitle": "胆汁性肝硬化", "lemmaCroppedTitle": "胆汁性肝硬化", "lemmaDesc": "胆汁性肝硬化是因胆道阻塞，胆汁淤积而引起的肝硬化，分原发性胆汁性肝硬化（PBC）...", "lemmaUrl": "http://baike.baidu.com/item/%E8%83%86%E6%B1%81%E6%80%A7%E8%82%9D%E7%A1%AC%E5%8C%96/1858123", "lemmaPic": []}, {"lemmaId": 5359140, "lemmaTitle": "卡氏肺囊虫肺炎", "lemmaCroppedTitle": "卡氏肺囊虫肺炎", "lemmaDesc": "卡氏肺囊虫肺炎（PCP），亦可称为卡氏肺孢子虫肺炎，又称间质性浆细胞肺炎，是一种...", "lemmaUrl": "http://baike.baidu.com/item/%E5%8D%A1%E6%B0%8F%E8%82%BA%E5%9B%8A%E8%99%AB%E8%82%BA%E7%82%8E/5359140", "lemmaPic": []}, {"lemmaId": 2419274, "lemmaTitle": "皮肤囊肿", "lemmaCroppedTitle": "皮肤囊肿", "lemmaDesc": "皮肤囊肿是具有囊腔结构外有囊壁，内有液体或其他成分，可来源于皮肤也可来源于间叶组...", "lemmaUrl": "http://baike.baidu.com/item/%E7%9A%AE%E8%82%A4%E5%9B%8A%E8%82%BF/2419274", "lemmaPic": []}, {"lemmaId": 1188159, "lemmaTitle": "霉变甘蔗中毒", "lemmaCroppedTitle": "霉变甘蔗中毒", "lemmaDesc": "霉变甘蔗中毒是指食用了保存不当而霉变的甘蔗引起的急性食物中毒。霉变甘蔗中毒是常见...", "lemmaUrl": "http://baike.baidu.com/item/%E9%9C%89%E5%8F%98%E7%94%98%E8%94%97%E4%B8%AD%E6%AF%92/1188159", "lemmaPic": []}, {"lemmaId": 4273915, "lemmaTitle": "蓝痣", "lemmaCroppedTitle": "蓝痣", "lemmaDesc": "蓝痣又称良性间叶黑色素瘤，蓝神经痣、色素细胞瘤、黑素纤维瘤，良性间充质黑瘤等，系...", "lemmaUrl": "http://baike.baidu.com/item/%E8%93%9D%E7%97%A3/4273915", "lemmaPic": []}, {"lemmaId": 7791668, "lemmaTitle": "内湿", "lemmaCroppedTitle": "内湿", "lemmaDesc": "内湿，病证名。由脾肾阳虚，运化水液功能障碍引起体内水湿停滞之证。证见食欲不振、腹...", "lemmaUrl": "http://baike.baidu.com/item/%E5%86%85%E6%B9%BF/7791668", "lemmaPic": []}, {"lemmaId": 4173627, "lemmaTitle": "地方性甲状腺肿", "lemmaCroppedTitle": "地方性甲状腺肿", "lemmaDesc": "地方性甲状腺肿是甲状腺肿的一种。甲状腺肿按地区分布可分为地方性和散发性两种。地方...", "lemmaUrl": "http://baike.baidu.com/item/%E5%9C%B0%E6%96%B9%E6%80%A7%E7%94%B2%E7%8A%B6%E8%85%BA%E8%82%BF/4173627", "lemmaPic": []}, {"lemmaId": 6130859, "lemmaTitle": "囊性纤维化", "lemmaCroppedTitle": "囊性纤维化", "lemmaDesc": "囊性纤维化是一种遗传性外分泌腺疾病，主要影响胃肠道和呼吸系统，通常具有慢性梗阻性...", "lemmaUrl": "http://baike.baidu.com/item/%E5%9B%8A%E6%80%A7%E7%BA%A4%E7%BB%B4%E5%8C%96/6130859", "lemmaPic": []}, {"lemmaId": 8817451, "lemmaTitle": "肺大疱", "lemmaCroppedTitle": "肺大疱", "lemmaDesc": "肺大疱是指由于各种原因导致肺泡腔内压力升高，肺泡壁破裂，互相融合，在肺组织形成的...", "lemmaUrl": "http://baike.baidu.com/item/%E8%82%BA%E5%A4%A7%E7%96%B1/8817451", "lemmaPic": []}, {"lemmaId": 5119455, "lemmaTitle": "股骨干骨折", "lemmaCroppedTitle": "股骨干骨折", "lemmaDesc": "股骨是人体中最长的管状骨。股骨干包括粗隆下2～5厘米至股骨髁上2～5厘米的骨干。...", "lemmaUrl": "http://baike.baidu.com/item/%E8%82%A1%E9%AA%A8%E5%B9%B2%E9%AA%A8%E6%8A%98/5119455", "lemmaPic": []}, {"lemmaId": 9916989, "lemmaTitle": "雄激素性脱发", "lemmaCroppedTitle": "雄激素性脱发", "lemmaDesc": "雄激素性脱发是一种雄激素依赖的遗传性疾病，是临床最常见的脱发类型，表现为头发密度...", "lemmaUrl": "http://baike.baidu.com/item/%E9%9B%84%E6%BF%80%E7%B4%A0%E6%80%A7%E8%84%B1%E5%8F%91/9916989", "lemmaPic": []}, {"lemmaId": 1386329, "lemmaTitle": "上颌窦癌", "lemmaCroppedTitle": "上颌窦癌", "lemmaDesc": "上颌窦癌指原发于上颌窦黏膜的癌肿。上颌窦癌的病理组织类型以鳞癌为主，占90%以上...", "lemmaUrl": "http://baike.baidu.com/item/%E4%B8%8A%E9%A2%8C%E7%AA%A6%E7%99%8C/1386329", "lemmaPic": []}, {"lemmaId": 5241907, "lemmaTitle": "直肠阴道瘘", "lemmaCroppedTitle": "直肠阴道瘘", "lemmaDesc": "直肠阴道瘘（RVF）是直肠和阴道两上皮表面之间的先天性或后天性通道，临床较为少见...", "lemmaUrl": "http://baike.baidu.com/item/%E7%9B%B4%E8%82%A0%E9%98%B4%E9%81%93%E7%98%98/5241907", "lemmaPic": []}, {"lemmaId": 600812, "lemmaTitle": "血清病", "lemmaCroppedTitle": "血清病", "lemmaDesc": "血清病是指因输注异种血清导致的III型变态反应。广义的血清病则泛指外来抗原引起的...", "lemmaUrl": "http://baike.baidu.com/item/%E8%A1%80%E6%B8%85%E7%97%85/600812", "lemmaPic": []}, {"lemmaId": 5085076, "lemmaTitle": "软组织肿瘤", "lemmaCroppedTitle": "软组织肿瘤", "lemmaDesc": "软组织肿瘤是起源于间叶组织位于软组织内的肿瘤。主要是运动系统的软组织(如肌肉、韧...", "lemmaUrl": "http://baike.baidu.com/item/%E8%BD%AF%E7%BB%84%E7%BB%87%E8%82%BF%E7%98%A4/5085076", "lemmaPic": []}, {"lemmaId": 7462847, "lemmaTitle": "脾胃失调", "lemmaCroppedTitle": "脾胃失调", "lemmaDesc": "脾胃失调是指脾胃生理功能失常而致的一种疾病状态,也常导致一系列的疾病。脾胃失调包...", "lemmaUrl": "http://baike.baidu.com/item/%E8%84%BE%E8%83%83%E5%A4%B1%E8%B0%83/7462847", "lemmaPic": []}, {"lemmaId": 9594083, "lemmaTitle": "腺样囊性癌", "lemmaCroppedTitle": "腺样囊性癌", "lemmaDesc": "腺样囊性癌又称圆柱瘤或圆柱瘤型腺癌。腺样囊性癌占涎腺肿瘤的5%～10%，在涎腺恶...", "lemmaUrl": "http://baike.baidu.com/item/%E8%85%BA%E6%A0%B7%E5%9B%8A%E6%80%A7%E7%99%8C/9594083", "lemmaPic": []}, {"lemmaId": 820378, "lemmaTitle": "荨麻疹性血管炎", "lemmaCroppedTitle": "荨麻疹性血管炎", "lemmaDesc": "荨麻疹性血管炎的特点为是风团样皮疹，持续时间长，伴低补体血症。炎性介质可损伤血管...", "lemmaUrl": "http://baike.baidu.com/item/%E8%8D%A8%E9%BA%BB%E7%96%B9%E6%80%A7%E8%A1%80%E7%AE%A1%E7%82%8E/820378", "lemmaPic": []}, {"lemmaId": 3560046, "lemmaTitle": "面瘫后遗症", "lemmaCroppedTitle": "面瘫后遗症", "lemmaDesc": "面瘫后遗症一般是指面瘫病程超过3个月，因治疗方法不当而延误病情或经多种方法治疗仍...", "lemmaUrl": "http://baike.baidu.com/item/%E9%9D%A2%E7%98%AB%E5%90%8E%E9%81%97%E7%97%87/3560046", "lemmaPic": []}, {"lemmaId": 6004358, "lemmaTitle": "膝关节内外侧副韧带损伤", "lemmaCroppedTitle": "膝关节内外侧副韧带损伤", "lemmaDesc": "膝关节过度内翻或外翻时，被牵拉的韧带超出生理负荷而发生撕裂、断裂等损伤，以膝关节...", "lemmaUrl": "http://baike.baidu.com/item/%E8%86%9D%E5%85%B3%E8%8A%82%E5%86%85%E5%A4%96%E4%BE%A7%E5%89%AF%E9%9F%A7%E5%B8%A6%E6%8D%9F%E4%BC%A4/6004358", "lemmaPic": []}, {"lemmaId": 1076804, "lemmaTitle": "局限性硬皮病", "lemmaCroppedTitle": "局限性硬皮病", "lemmaDesc": "局限性硬皮病又称硬斑病，是一种限局性皮肤肿胀，逐渐发生硬化萎缩的皮肤病。好发于头...", "lemmaUrl": "http://baike.baidu.com/item/%E5%B1%80%E9%99%90%E6%80%A7%E7%A1%AC%E7%9A%AE%E7%97%85/1076804", "lemmaPic": []}, {"lemmaId": 5982686, "lemmaTitle": "肝血虚", "lemmaCroppedTitle": "肝血虚", "lemmaDesc": "肝血虚，病证名。又称肝血不足。指因肾精亏虚、精血不足，或脾胃虚弱化源不足；或久病...", "lemmaUrl": "http://baike.baidu.com/item/%E8%82%9D%E8%A1%80%E8%99%9A/5982686", "lemmaPic": []}, {"lemmaId": 4873109, "lemmaTitle": "食管平滑肌瘤", "lemmaCroppedTitle": "食管平滑肌瘤", "lemmaDesc": "食管良性肿瘤少见，占所有食管肿瘤的0.5%～0.8%，其中90%为食管平滑肌瘤。...", "lemmaUrl": "http://baike.baidu.com/item/%E9%A3%9F%E7%AE%A1%E5%B9%B3%E6%BB%91%E8%82%8C%E7%98%A4/4873109", "lemmaPic": []}, {"lemmaId": 5412754, "lemmaTitle": "茎突综合征", "lemmaCroppedTitle": "茎突综合征", "lemmaDesc": "茎突综合征又称茎突过长、Eagle综合征、茎突神经痛。常见于成年人，单侧患病多见...", "lemmaUrl": "http://baike.baidu.com/item/%E8%8C%8E%E7%AA%81%E7%BB%BC%E5%90%88%E5%BE%81/5412754", "lemmaPic": []}, {"lemmaId": 1252469, "lemmaTitle": "广场恐惧症", "lemmaCroppedTitle": "广场恐惧症", "lemmaDesc": "广场恐惧症又名广场恐怖症，为焦虑症的一种。特指在公共场合或者开阔的地方停留的极端...", "lemmaUrl": "http://baike.baidu.com/item/%E5%B9%BF%E5%9C%BA%E6%81%90%E6%83%A7%E7%97%87/1252469", "lemmaPic": []}, {"lemmaId": 2382582, "lemmaTitle": "踝关节骨折", "lemmaCroppedTitle": "踝关节骨折", "lemmaDesc": "踝关节由胫腓骨下端与距骨组成。其骨折、脱位是骨科常见的损伤，多由间接暴力引起踝部...", "lemmaUrl": "http://baike.baidu.com/item/%E8%B8%9D%E5%85%B3%E8%8A%82%E9%AA%A8%E6%8A%98/2382582", "lemmaPic": []}, {"lemmaId": 9450646, "lemmaTitle": "乳糜胸", "lemmaCroppedTitle": "乳糜胸", "lemmaDesc": "由于各种原因流经胸导管回流的淋巴乳糜液外漏并积存于胸膜腔内称为乳糜胸。乳糜胸的发...", "lemmaUrl": "http://baike.baidu.com/item/%E4%B9%B3%E7%B3%9C%E8%83%B8/9450646", "lemmaPic": []}, {"lemmaId": 7180119, "lemmaTitle": "石棉状糠疹", "lemmaCroppedTitle": "石棉状糠疹", "lemmaDesc": "本病曾称为石棉状癣，因头部鳞屑堆积成的厚痂酷似石棉状，又非真菌感染，故宜使用石棉...", "lemmaUrl": "http://baike.baidu.com/item/%E7%9F%B3%E6%A3%89%E7%8A%B6%E7%B3%A0%E7%96%B9/7180119", "lemmaPic": []}, {"lemmaId": 8567401, "lemmaTitle": "肛门周围癌", "lemmaCroppedTitle": "肛门周围癌", "lemmaDesc": "肛门癌多发生在肛管或肛缘皮肤上，多为鳞状上皮癌，也有少数为基底细胞癌。生长在齿线...", "lemmaUrl": "http://baike.baidu.com/item/%E8%82%9B%E9%97%A8%E5%91%A8%E5%9B%B4%E7%99%8C/8567401", "lemmaPic": []}, {"lemmaId": 5052948, "lemmaTitle": "尺骨鹰嘴骨折", "lemmaCroppedTitle": "尺骨鹰嘴骨折", "lemmaDesc": "尺骨近端后方位于皮下的突起为鹰嘴。与前方的尺骨冠状突构成半月切迹。此切迹恰与肱骨...", "lemmaUrl": "http://baike.baidu.com/item/%E5%B0%BA%E9%AA%A8%E9%B9%B0%E5%98%B4%E9%AA%A8%E6%8A%98/5052948", "lemmaPic": []}, {"lemmaId": 1387458, "lemmaTitle": "囊虫病", "lemmaCroppedTitle": "囊虫病", "lemmaDesc": "囊虫病是严重危害人民健康的人兽共患性寄生虫病。其分布在中国27个省（市、自治区）...", "lemmaUrl": "http://baike.baidu.com/item/%E5%9B%8A%E8%99%AB%E7%97%85/1387458", "lemmaPic": []}, {"lemmaId": 3580875, "lemmaTitle": "肱骨骨折", "lemmaCroppedTitle": "肱骨骨折", "lemmaDesc": "肱骨骨折常发生于肱骨外科颈、肱骨干、肱骨髁上、肱骨髁间、肱骨外髁、肱骨内上髁。其...", "lemmaUrl": "http://baike.baidu.com/item/%E8%82%B1%E9%AA%A8%E9%AA%A8%E6%8A%98/3580875", "lemmaPic": []}, {"lemmaId": 5059196, "lemmaTitle": "结石性胆囊炎", "lemmaCroppedTitle": "结石性胆囊炎", "lemmaDesc": "结石性胆囊炎系指胆囊内或胆囊颈部发生结石的疾病。其临床表现取决于结石的部位、大小...", "lemmaUrl": "http://baike.baidu.com/item/%E7%BB%93%E7%9F%B3%E6%80%A7%E8%83%86%E5%9B%8A%E7%82%8E/5059196", "lemmaPic": []}, {"lemmaId": 5318105, "lemmaTitle": "脑动脉硬化症", "lemmaCroppedTitle": "脑动脉硬化症", "lemmaDesc": "脑动脉硬化症指脑动脉硬化后，因脑部多发性梗塞、软化、坏死和萎缩引起的神经衰弱综合...", "lemmaUrl": "http://baike.baidu.com/item/%E8%84%91%E5%8A%A8%E8%84%89%E7%A1%AC%E5%8C%96%E7%97%87/5318105", "lemmaPic": []}, {"lemmaId": 10575101, "lemmaTitle": "腹部包块", "lemmaCroppedTitle": "腹部包块", "lemmaDesc": "腹部包块是指在腹部检查时可触及到的异常包块。常见的原因有脏器肿大、空腔脏器膨胀、...", "lemmaUrl": "http://baike.baidu.com/item/%E8%85%B9%E9%83%A8%E5%8C%85%E5%9D%97/10575101", "lemmaPic": []}, {"lemmaId": 5400187, "lemmaTitle": "阴道毛滴虫病", "lemmaCroppedTitle": "阴道毛滴虫病", "lemmaDesc": "阴道毛滴虫病（滴虫性阴道炎）是妇科常见病，由阴道毛滴虫引起。滴虫通过性交直接传给...", "lemmaUrl": "http://baike.baidu.com/item/%E9%98%B4%E9%81%93%E6%AF%9B%E6%BB%B4%E8%99%AB%E7%97%85/5400187", "lemmaPic": []}, {"lemmaId": 4010197, "lemmaTitle": "完全性房室传导阻滞", "lemmaCroppedTitle": "完全性房室传导阻滞", "lemmaDesc": "完全性房室传导阻滞，亦称三度房室传导阻滞，是指由于房室传导系统某部分的传导能力异...", "lemmaUrl": "http://baike.baidu.com/item/%E5%AE%8C%E5%85%A8%E6%80%A7%E6%88%BF%E5%AE%A4%E4%BC%A0%E5%AF%BC%E9%98%BB%E6%BB%9E/4010197", "lemmaPic": []}, {"lemmaId": 10132346, "lemmaTitle": "先天性耳聋", "lemmaCroppedTitle": "先天性耳聋", "lemmaDesc": "先天性耳聋是指因母体妊娠过程、分娩过程中的异常或遗传因素造成的耳聋，多为感音神经...", "lemmaUrl": "http://baike.baidu.com/item/%E5%85%88%E5%A4%A9%E6%80%A7%E8%80%B3%E8%81%8B/10132346", "lemmaPic": []}, {"lemmaId": 8679062, "lemmaTitle": "声带白斑", "lemmaCroppedTitle": "声带白斑", "lemmaDesc": "声带白斑为声带黏膜上皮角化增生和过度角化所发生的白色斑块疾病，比较常见，多见于成...", "lemmaUrl": "http://baike.baidu.com/item/%E5%A3%B0%E5%B8%A6%E7%99%BD%E6%96%91/8679062", "lemmaPic": []}, {"lemmaId": 10089699, "lemmaTitle": "强迫型人格障碍", "lemmaCroppedTitle": "强迫型人格障碍", "lemmaDesc": "当人的情绪反应、行为及社会交往出现了持久而明显的异常时称之为人格障碍，它在童年或...", "lemmaUrl": "http://baike.baidu.com/item/%E5%BC%BA%E8%BF%AB%E5%9E%8B%E4%BA%BA%E6%A0%BC%E9%9A%9C%E7%A2%8D/10089699", "lemmaPic": []}, {"lemmaId": 5242814, "lemmaTitle": "食管憩室", "lemmaCroppedTitle": "食管憩室", "lemmaDesc": "食管壁的一层或全层局限性膨出，形成与食管腔相同的囊袋，称为食管憩室。本病的诊断依...", "lemmaUrl": "http://baike.baidu.com/item/%E9%A3%9F%E7%AE%A1%E6%86%A9%E5%AE%A4/5242814", "lemmaPic": []}, {"lemmaId": 2320226, "lemmaTitle": "阵发性室性心动过速", "lemmaCroppedTitle": "阵发性室性心动过速", "lemmaDesc": "由心室异位激动引起的心动过速，起始和终止突然，频率150～250次/分，规则，称...", "lemmaUrl": "http://baike.baidu.com/item/%E9%98%B5%E5%8F%91%E6%80%A7%E5%AE%A4%E6%80%A7%E5%BF%83%E5%8A%A8%E8%BF%87%E9%80%9F/2320226", "lemmaPic": []}, {"lemmaId": 4873386, "lemmaTitle": "胰岛素瘤", "lemmaCroppedTitle": "胰岛素瘤", "lemmaDesc": "胰岛素瘤指因胰岛β细胞瘤或β细胞增生造成胰岛素分泌过多，进而引起低血糖症；其胰岛...", "lemmaUrl": "http://baike.baidu.com/item/%E8%83%B0%E5%B2%9B%E7%B4%A0%E7%98%A4/4873386", "lemmaPic": []}, {"lemmaId": 8386268, "lemmaTitle": "先天性斜颈", "lemmaCroppedTitle": "先天性斜颈", "lemmaDesc": "先天性斜颈系指出生后即发现颈部向一侧倾斜的畸形，其中因肌肉病变所致者称之为肌源性...", "lemmaUrl": "http://baike.baidu.com/item/%E5%85%88%E5%A4%A9%E6%80%A7%E6%96%9C%E9%A2%88/8386268", "lemmaPic": []}, {"lemmaId": 4577480, "lemmaTitle": "修复牙釉质", "lemmaCroppedTitle": "修复牙釉质", "lemmaDesc": "牙釉质是人体最硬的组织结构，具有保护牙齿牙髓和美观的作用。牙釉质因多种原因可造成...", "lemmaUrl": "http://baike.baidu.com/item/%E4%BF%AE%E5%A4%8D%E7%89%99%E9%87%89%E8%B4%A8/4577480", "lemmaPic": []}, {"lemmaId": 7554872, "lemmaTitle": "孟氏骨折", "lemmaCroppedTitle": "孟氏骨折", "lemmaDesc": "尺骨上1/3骨折合并桡骨小头脱位称孟氏骨折。孟氏骨折多发生于青壮年及小儿，直接或...", "lemmaUrl": "http://baike.baidu.com/item/%E5%AD%9F%E6%B0%8F%E9%AA%A8%E6%8A%98/7554872", "lemmaPic": []}, {"lemmaId": 13883824, "lemmaTitle": "二次元禁断综合征", "lemmaCroppedTitle": "二次元禁断综合征", "lemmaDesc": "二次元禁断综合征是一种指特殊的精神病，患者只对漫画、录像带或电视游戏中的虚构女角...", "lemmaUrl": "http://baike.baidu.com/item/%E4%BA%8C%E6%AC%A1%E5%85%83%E7%A6%81%E6%96%AD%E7%BB%BC%E5%90%88%E5%BE%81/13883824", "lemmaPic": []}, {"lemmaId": 10357549, "lemmaTitle": "浆细胞瘤", "lemmaCroppedTitle": "浆细胞瘤", "lemmaDesc": "浆细胞瘤包括髓外浆细胞瘤（EMP）、骨的孤立性浆细胞瘤、多发性骨髓瘤（MM）和浆...", "lemmaUrl": "http://baike.baidu.com/item/%E6%B5%86%E7%BB%86%E8%83%9E%E7%98%A4/10357549", "lemmaPic": []}, {"lemmaId": 9983377, "lemmaTitle": "离心性环状红斑", "lemmaCroppedTitle": "离心性环状红斑", "lemmaDesc": "离心性环状红斑又称持久性环状红斑、持久性渗出性红斑、持久性轮廓状红斑、持久性图状...", "lemmaUrl": "http://baike.baidu.com/item/%E7%A6%BB%E5%BF%83%E6%80%A7%E7%8E%AF%E7%8A%B6%E7%BA%A2%E6%96%91/9983377", "lemmaPic": []}, {"lemmaId": 5860653, "lemmaTitle": "医院内感染", "lemmaCroppedTitle": "医院内感染", "lemmaDesc": "医院内感染又称医院获得性感染或医院感染，其定义是发生在医院内的一切感染。医院内感...", "lemmaUrl": "http://baike.baidu.com/item/%E5%8C%BB%E9%99%A2%E5%86%85%E6%84%9F%E6%9F%93/5860653", "lemmaPic": []}, {"lemmaId": 12630008, "lemmaTitle": "小儿肠套叠", "lemmaCroppedTitle": "小儿肠套叠", "lemmaDesc": "肠套叠是指一段肠管套入与其相连的肠腔内，并导致肠内容物通过障碍。临床上常见的是急...", "lemmaUrl": "http://baike.baidu.com/item/%E5%B0%8F%E5%84%BF%E8%82%A0%E5%A5%97%E5%8F%A0/12630008", "lemmaPic": []}], "total": 7246, "totalPage": 73, "page": 20, "fromLemma": 0}