{"lemmaList": [{"lemmaId": 8693990, "lemmaTitle": "脊髓性肌萎缩症", "lemmaCroppedTitle": "脊髓性肌萎缩症", "lemmaDesc": "脊髓性肌萎缩症（SMA）又称脊肌萎缩症，是一类由脊髓前角运动神经元变性导致肌无力...", "lemmaUrl": "http://baike.baidu.com/item/%E8%84%8A%E9%AB%93%E6%80%A7%E8%82%8C%E8%90%8E%E7%BC%A9%E7%97%87/8693990", "lemmaPic": []}, {"lemmaId": 1162383, "lemmaTitle": "中毒性休克综合征", "lemmaCroppedTitle": "中毒性休克综合征", "lemmaDesc": "中毒性休克综合征（TSS）是Todd等于1978年命名的一种严重威胁生命安全的细...", "lemmaUrl": "http://baike.baidu.com/item/%E4%B8%AD%E6%AF%92%E6%80%A7%E4%BC%91%E5%85%8B%E7%BB%BC%E5%90%88%E5%BE%81/1162383", "lemmaPic": []}, {"lemmaId": 5317113, "lemmaTitle": "睑板腺癌", "lemmaCroppedTitle": "睑板腺癌", "lemmaDesc": "睑板腺癌又称麦氏腺癌，是眼睑较常见的恶性肿瘤，来源于睑板腺和睫毛的皮脂腺最常见。...", "lemmaUrl": "http://baike.baidu.com/item/%E7%9D%91%E6%9D%BF%E8%85%BA%E7%99%8C/5317113", "lemmaPic": []}, {"lemmaId": 5262984, "lemmaTitle": "肝母细胞瘤", "lemmaCroppedTitle": "肝母细胞瘤", "lemmaDesc": "肝母细胞瘤是一种具有多种分化方式的恶性胚胎性肿瘤。它是由类似于胎儿性上皮性肝细胞...", "lemmaUrl": "http://baike.baidu.com/item/%E8%82%9D%E6%AF%8D%E7%BB%86%E8%83%9E%E7%98%A4/5262984", "lemmaPic": []}, {"lemmaId": 9858575, "lemmaTitle": "中性粒细胞减少症", "lemmaCroppedTitle": "中性粒细胞减少症", "lemmaDesc": "中性粒细胞减少症是由于周围血中粒细胞的绝对值减少而出现的一组综合征。中性粒细胞的...", "lemmaUrl": "http://baike.baidu.com/item/%E4%B8%AD%E6%80%A7%E7%B2%92%E7%BB%86%E8%83%9E%E5%87%8F%E5%B0%91%E7%97%87/9858575", "lemmaPic": []}, {"lemmaId": 5055869, "lemmaTitle": "急性肾小管坏死", "lemmaCroppedTitle": "急性肾小管坏死", "lemmaDesc": "急性肾小管坏死（ATN）为急性肾衰最常见的一种类型，是各种病因所引起的肾组织缺血...", "lemmaUrl": "http://baike.baidu.com/item/%E6%80%A5%E6%80%A7%E8%82%BE%E5%B0%8F%E7%AE%A1%E5%9D%8F%E6%AD%BB/5055869", "lemmaPic": []}, {"lemmaId": 9937466, "lemmaTitle": "原发性输卵管癌", "lemmaCroppedTitle": "原发性输卵管癌", "lemmaDesc": "原发性输卵管癌是一种少见的女性生殖道恶性肿瘤。其发病率仅占妇科恶性肿瘤的0.5%...", "lemmaUrl": "http://baike.baidu.com/item/%E5%8E%9F%E5%8F%91%E6%80%A7%E8%BE%93%E5%8D%B5%E7%AE%A1%E7%99%8C/9937466", "lemmaPic": []}, {"lemmaId": 2604004, "lemmaTitle": "惊恐症", "lemmaCroppedTitle": "惊恐症", "lemmaDesc": "惊恐障碍简称惊恐症，是以反复出现显著的心悸，出汗、震颤等自主神经症状，伴以强烈的...", "lemmaUrl": "http://baike.baidu.com/item/%E6%83%8A%E6%81%90%E7%97%87/2604004", "lemmaPic": []}, {"lemmaId": 2364218, "lemmaTitle": "小肠肿瘤", "lemmaCroppedTitle": "小肠肿瘤", "lemmaDesc": "小肠肿瘤是指从十二指肠起到回盲瓣止的小肠肠管所发生的肿瘤。小肠肿瘤的发生率仅占胃...", "lemmaUrl": "http://baike.baidu.com/item/%E5%B0%8F%E8%82%A0%E8%82%BF%E7%98%A4/2364218", "lemmaPic": []}, {"lemmaId": 112664, "lemmaTitle": "急性化脓性扁桃体炎", "lemmaCroppedTitle": "急性化脓性扁桃体炎", "lemmaDesc": "急性化脓性扁桃体炎是一种常见的、多发于咽部的急性非特异性炎症疾病，多年龄段均可发...", "lemmaUrl": "http://baike.baidu.com/item/%E6%80%A5%E6%80%A7%E5%8C%96%E8%84%93%E6%80%A7%E6%89%81%E6%A1%83%E4%BD%93%E7%82%8E/112664", "lemmaPic": []}, {"lemmaId": 5299275, "lemmaTitle": "子宫平滑肌瘤", "lemmaCroppedTitle": "子宫平滑肌瘤", "lemmaDesc": "子宫平滑肌瘤简称子宫肌瘤，是女性生殖器官最常见的良性肿瘤，常见于30～50岁妇女...", "lemmaUrl": "http://baike.baidu.com/item/%E5%AD%90%E5%AE%AB%E5%B9%B3%E6%BB%91%E8%82%8C%E7%98%A4/5299275", "lemmaPic": []}, {"lemmaId": 9832017, "lemmaTitle": "儿童遗尿症", "lemmaCroppedTitle": "儿童遗尿症", "lemmaDesc": "婴幼儿在第一年内，每日排尿约20次，随着年龄增长，膀胱容量增大，3岁时每日排尿约...", "lemmaUrl": "http://baike.baidu.com/item/%E5%84%BF%E7%AB%A5%E9%81%97%E5%B0%BF%E7%97%87/9832017", "lemmaPic": []}, {"lemmaId": 5060038, "lemmaTitle": "放射性肠炎", "lemmaCroppedTitle": "放射性肠炎", "lemmaDesc": "放射性肠炎是盆腔、腹腔、腹膜后恶性肿瘤经放射治疗引起的肠道并发症。可分别累及小肠...", "lemmaUrl": "http://baike.baidu.com/item/%E6%94%BE%E5%B0%84%E6%80%A7%E8%82%A0%E7%82%8E/5060038", "lemmaPic": []}, {"lemmaId": 7862240, "lemmaTitle": "顽固性高血压", "lemmaCroppedTitle": "顽固性高血压", "lemmaDesc": "大多数高血压病患者经过抗高血压药物治疗后，血压可以控制在满意水平，而其中15%～...", "lemmaUrl": "http://baike.baidu.com/item/%E9%A1%BD%E5%9B%BA%E6%80%A7%E9%AB%98%E8%A1%80%E5%8E%8B/7862240", "lemmaPic": []}, {"lemmaId": 10786793, "lemmaTitle": "新辅助化疗", "lemmaCroppedTitle": "新辅助化疗", "lemmaDesc": "新辅助化疗是指在实施局部治疗方法（如手术或放疗）前所做的全身化疗，目的是使肿块缩...", "lemmaUrl": "http://baike.baidu.com/item/%E6%96%B0%E8%BE%85%E5%8A%A9%E5%8C%96%E7%96%97/10786793", "lemmaPic": []}, {"lemmaId": 8179154, "lemmaTitle": "先兆临产", "lemmaCroppedTitle": "先兆临产", "lemmaDesc": "分娩发动前，出现预示不久即将临产的症状，称为先兆临产。包括：假临产、胎儿下降感、...", "lemmaUrl": "http://baike.baidu.com/item/%E5%85%88%E5%85%86%E4%B8%B4%E4%BA%A7/8179154", "lemmaPic": []}, {"lemmaId": 5278489, "lemmaTitle": "玻璃体出血", "lemmaCroppedTitle": "玻璃体出血", "lemmaDesc": "玻璃体出血即玻璃体积血，是由血管性、炎症性、肿瘤、视网膜裂孔等原因造成视力下降的...", "lemmaUrl": "http://baike.baidu.com/item/%E7%8E%BB%E7%92%83%E4%BD%93%E5%87%BA%E8%A1%80/5278489", "lemmaPic": []}, {"lemmaId": 2599837, "lemmaTitle": "急性化脓性腮腺炎", "lemmaCroppedTitle": "急性化脓性腮腺炎", "lemmaDesc": "急性化脓性腮腺炎多见于严重的全身性疾病，如胃肠道大手术等原因造成大量体液丧失、脓...", "lemmaUrl": "http://baike.baidu.com/item/%E6%80%A5%E6%80%A7%E5%8C%96%E8%84%93%E6%80%A7%E8%85%AE%E8%85%BA%E7%82%8E/2599837", "lemmaPic": []}, {"lemmaId": 7316603, "lemmaTitle": "异装症", "lemmaCroppedTitle": "异装症", "lemmaDesc": "异装症即异性装扮癖，在ICD-10中称为“恋物性异装症”，是恋物症的一种特殊形式...", "lemmaUrl": "http://baike.baidu.com/item/%E5%BC%82%E8%A3%85%E7%97%87/7316603", "lemmaPic": []}, {"lemmaId": 6228402, "lemmaTitle": "非酒精性脂肪性肝病", "lemmaCroppedTitle": "非酒精性脂肪性肝病", "lemmaDesc": "非酒精性脂肪性肝病（NAFLD）是指除外酒精和其他明确的损肝因素所致的肝细胞内脂...", "lemmaUrl": "http://baike.baidu.com/item/%E9%9D%9E%E9%85%92%E7%B2%BE%E6%80%A7%E8%84%82%E8%82%AA%E6%80%A7%E8%82%9D%E7%97%85/6228402", "lemmaPic": []}, {"lemmaId": 10295923, "lemmaTitle": "小儿精神发育迟滞", "lemmaCroppedTitle": "小儿精神发育迟滞", "lemmaDesc": "精神发育迟滞（MR），也称为智力落后、或精神发育不全，是小儿常见的一种发育障碍。...", "lemmaUrl": "http://baike.baidu.com/item/%E5%B0%8F%E5%84%BF%E7%B2%BE%E7%A5%9E%E5%8F%91%E8%82%B2%E8%BF%9F%E6%BB%9E/10295923", "lemmaPic": []}, {"lemmaId": 7245716, "lemmaTitle": "恶性胸腔积液", "lemmaCroppedTitle": "恶性胸腔积液", "lemmaDesc": "恶性胸腔积液，大多数病例可以在胸腔积液中找到恶性肿瘤细胞，如果胸腔积液伴纵隔或胸...", "lemmaUrl": "http://baike.baidu.com/item/%E6%81%B6%E6%80%A7%E8%83%B8%E8%85%94%E7%A7%AF%E6%B6%B2/7245716", "lemmaPic": []}, {"lemmaId": 3557560, "lemmaTitle": "日光性荨麻疹", "lemmaCroppedTitle": "日光性荨麻疹", "lemmaDesc": "日光性荨麻疹是指由紫外线（UV）或可见光照射所引起的罕见疾病。皮肤暴露于日光数分...", "lemmaUrl": "http://baike.baidu.com/item/%E6%97%A5%E5%85%89%E6%80%A7%E8%8D%A8%E9%BA%BB%E7%96%B9/3557560", "lemmaPic": []}, {"lemmaId": 8448761, "lemmaTitle": "脑干肿瘤", "lemmaCroppedTitle": "脑干肿瘤", "lemmaDesc": "脑干肿瘤以神经胶质细胞瘤多见，其次是血管网状细胞瘤和海绵状血管瘤。胶质瘤中又以星...", "lemmaUrl": "http://baike.baidu.com/item/%E8%84%91%E5%B9%B2%E8%82%BF%E7%98%A4/8448761", "lemmaPic": []}, {"lemmaId": 10778473, "lemmaTitle": "颌骨囊肿", "lemmaCroppedTitle": "颌骨囊肿", "lemmaDesc": "颌骨囊肿是指在颌骨内出现一含有液体的囊性肿物，逐步增大、颌骨膨胀破坏，据其发病原...", "lemmaUrl": "http://baike.baidu.com/item/%E9%A2%8C%E9%AA%A8%E5%9B%8A%E8%82%BF/10778473", "lemmaPic": []}, {"lemmaId": 3923101, "lemmaTitle": "健脾化湿", "lemmaCroppedTitle": "健脾化湿", "lemmaDesc": "运用补益脾气的药物以消除湿邪的治法。健脾可以增强脾的运化功能，使水湿消除。健脾化...", "lemmaUrl": "http://baike.baidu.com/item/%E5%81%A5%E8%84%BE%E5%8C%96%E6%B9%BF/3923101", "lemmaPic": []}, {"lemmaId": 1014382, "lemmaTitle": "妊娠合并心脏病", "lemmaCroppedTitle": "妊娠合并心脏病", "lemmaDesc": "妊娠合并心脏病是产科严重的合并症，是孕产妇死亡的主要病因之一。妊娠合并心脏病在我...", "lemmaUrl": "http://baike.baidu.com/item/%E5%A6%8A%E5%A8%A0%E5%90%88%E5%B9%B6%E5%BF%83%E8%84%8F%E7%97%85/1014382", "lemmaPic": []}, {"lemmaId": 3815404, "lemmaTitle": "寰枢关节脱位", "lemmaCroppedTitle": "寰枢关节脱位", "lemmaDesc": "寰枢关节脱位或称为寰、枢椎脱位，是指颈椎的第一节（寰椎）、第二节（枢椎）之间的关...", "lemmaUrl": "http://baike.baidu.com/item/%E5%AF%B0%E6%9E%A2%E5%85%B3%E8%8A%82%E8%84%B1%E4%BD%8D/3815404", "lemmaPic": []}, {"lemmaId": 1337220, "lemmaTitle": "外膝眼", "lemmaCroppedTitle": "外膝眼", "lemmaDesc": "本穴位于膝盖外侧的凹陷，又名犊鼻，犊，小牛，鼻，口鼻，膝盖形如牛鼻，穴在膝眼中，...", "lemmaUrl": "http://baike.baidu.com/item/%E5%A4%96%E8%86%9D%E7%9C%BC/1337220", "lemmaPic": []}, {"lemmaId": 2114744, "lemmaTitle": "急性细菌性前列腺炎", "lemmaCroppedTitle": "急性细菌性前列腺炎", "lemmaDesc": "急性细菌性前列腺炎是由细菌引起的前列腺组织的急性炎症称为急性细菌性前列腺炎，如炎...", "lemmaUrl": "http://baike.baidu.com/item/%E6%80%A5%E6%80%A7%E7%BB%86%E8%8F%8C%E6%80%A7%E5%89%8D%E5%88%97%E8%85%BA%E7%82%8E/2114744", "lemmaPic": []}, {"lemmaId": 264678, "lemmaTitle": "糖尿病性肾病", "lemmaCroppedTitle": "糖尿病性肾病", "lemmaDesc": "糖尿病肾脏病变（DN）是糖尿病患者最重要的微血管慢性并发证之一，其中最特征性的是...", "lemmaUrl": "http://baike.baidu.com/item/%E7%B3%96%E5%B0%BF%E7%97%85%E6%80%A7%E8%82%BE%E7%97%85/264678", "lemmaPic": []}, {"lemmaId": 3870261, "lemmaTitle": "电休克", "lemmaCroppedTitle": "电休克", "lemmaDesc": "由于一定量的电流通过人体引起的组织损伤或者功能障碍，轻者仅表现有恶心、头晕或短暂...", "lemmaUrl": "http://baike.baidu.com/item/%E7%94%B5%E4%BC%91%E5%85%8B/3870261", "lemmaPic": []}, {"lemmaId": 11030438, "lemmaTitle": "小儿腹胀", "lemmaCroppedTitle": "小儿腹胀", "lemmaDesc": "小儿腹胀（infantile abdominal distention）即小儿腹...", "lemmaUrl": "http://baike.baidu.com/item/%E5%B0%8F%E5%84%BF%E8%85%B9%E8%83%80/11030438", "lemmaPic": []}, {"lemmaId": 5055434, "lemmaTitle": "急进性肾小球肾炎", "lemmaCroppedTitle": "急进性肾小球肾炎", "lemmaDesc": "急进性肾小球肾炎是一组表现为血尿、蛋白尿及进行性肾功能减退的临床综合征，是肾小球...", "lemmaUrl": "http://baike.baidu.com/item/%E6%80%A5%E8%BF%9B%E6%80%A7%E8%82%BE%E5%B0%8F%E7%90%83%E8%82%BE%E7%82%8E/5055434", "lemmaPic": []}, {"lemmaId": 11023524, "lemmaTitle": "短肠综合征", "lemmaCroppedTitle": "短肠综合征", "lemmaDesc": "短肠综合征是由于不同原因造成小肠吸收面积减少而引起的一个临床症候群，多由广泛小肠...", "lemmaUrl": "http://baike.baidu.com/item/%E7%9F%AD%E8%82%A0%E7%BB%BC%E5%90%88%E5%BE%81/11023524", "lemmaPic": []}, {"lemmaId": 410921, "lemmaTitle": "胆道蛔虫病", "lemmaCroppedTitle": "胆道蛔虫病", "lemmaDesc": "胆道蛔虫病是肠道蛔虫病中最严重的一种并发症。多见于6～8岁学龄儿童、农民和晚期孕...", "lemmaUrl": "http://baike.baidu.com/item/%E8%83%86%E9%81%93%E8%9B%94%E8%99%AB%E7%97%85/410921", "lemmaPic": []}, {"lemmaId": 3014866, "lemmaTitle": "先天性脑积水", "lemmaCroppedTitle": "先天性脑积水", "lemmaDesc": "先天性脑积水也称婴儿脑积水。正常情况，颅内脑脊液是不断地产生和吸收的，保持着一个...", "lemmaUrl": "http://baike.baidu.com/item/%E5%85%88%E5%A4%A9%E6%80%A7%E8%84%91%E7%A7%AF%E6%B0%B4/3014866", "lemmaPic": []}, {"lemmaId": 12700746, "lemmaTitle": "头部单纯糠疹", "lemmaCroppedTitle": "头部单纯糠疹", "lemmaDesc": "本病又称干性皮脂溢出，是皮脂腺分泌功能亢进所致的皮脂分泌过多，主要表现为头皮和头...", "lemmaUrl": "http://baike.baidu.com/item/%E5%A4%B4%E9%83%A8%E5%8D%95%E7%BA%AF%E7%B3%A0%E7%96%B9/12700746", "lemmaPic": []}, {"lemmaId": 9269436, "lemmaTitle": "原发性震颤", "lemmaCroppedTitle": "原发性震颤", "lemmaDesc": "特发性震颤又称家族性或良性特发性震颤，是一种常染色体显性遗传病，为最常见的锥体外...", "lemmaUrl": "http://baike.baidu.com/item/%E5%8E%9F%E5%8F%91%E6%80%A7%E9%9C%87%E9%A2%A4/9269436", "lemmaPic": []}, {"lemmaId": 4356926, "lemmaTitle": "x综合征", "lemmaCroppedTitle": "x综合征", "lemmaDesc": "X综合征又称微血管性心绞痛，是指具有劳力性心绞痛或心绞痛样不适的症状，活动平板心...", "lemmaUrl": "http://baike.baidu.com/item/x%E7%BB%BC%E5%90%88%E5%BE%81/4356926", "lemmaPic": []}, {"lemmaId": 8121102, "lemmaTitle": "甲营养不良", "lemmaCroppedTitle": "甲营养不良", "lemmaDesc": "甲营养不良是一种多因素引起的甲损害。常累及所有指，趾甲。患者指（趾）甲变薄，浑浊...", "lemmaUrl": "http://baike.baidu.com/item/%E7%94%B2%E8%90%A5%E5%85%BB%E4%B8%8D%E8%89%AF/8121102", "lemmaPic": []}, {"lemmaId": 1102813, "lemmaTitle": "胸痹心痛", "lemmaCroppedTitle": "胸痹心痛", "lemmaDesc": "胸痹心痛，又称心痛。是由于正气亏虚，饮食、情志、寒邪等所引起的以痰浊、瘀血、气滞...", "lemmaUrl": "http://baike.baidu.com/item/%E8%83%B8%E7%97%B9%E5%BF%83%E7%97%9B/1102813", "lemmaPic": []}, {"lemmaId": 10837513, "lemmaTitle": "骨溶解症", "lemmaCroppedTitle": "骨溶解症", "lemmaDesc": "骨溶解症在国外文献中上多称Gorham-Stout综合征，又叫大块骨质溶解症、消...", "lemmaUrl": "http://baike.baidu.com/item/%E9%AA%A8%E6%BA%B6%E8%A7%A3%E7%97%87/10837513", "lemmaPic": []}, {"lemmaId": 945093, "lemmaTitle": "血胸", "lemmaCroppedTitle": "血胸", "lemmaDesc": "血胸是指全血积存在胸腔内，又称胸膜腔积血，胸腔积血。最常见的原因是创伤或外科手术...", "lemmaUrl": "http://baike.baidu.com/item/%E8%A1%80%E8%83%B8/945093", "lemmaPic": []}, {"lemmaId": 5465532, "lemmaTitle": "寻常痤疮", "lemmaCroppedTitle": "寻常痤疮", "lemmaDesc": "痤疮是常发生在青年男女的一种毛囊皮脂腺的慢性自限性、炎症性疾病，主要侵犯面部、背...", "lemmaUrl": "http://baike.baidu.com/item/%E5%AF%BB%E5%B8%B8%E7%97%A4%E7%96%AE/5465532", "lemmaPic": []}, {"lemmaId": 2489627, "lemmaTitle": "肛管癌", "lemmaCroppedTitle": "肛管癌", "lemmaDesc": "肛管和肛管周围肿瘤在临床上较为少见，在结、直肠肿瘤中所占的比例不足2%。肛管癌的...", "lemmaUrl": "http://baike.baidu.com/item/%E8%82%9B%E7%AE%A1%E7%99%8C/2489627", "lemmaPic": []}, {"lemmaId": 1649968, "lemmaTitle": "淤胆型肝炎", "lemmaCroppedTitle": "淤胆型肝炎", "lemmaDesc": "淤胆型肝炎是因多种原因引起肝细胞和（或）毛细胆管胆汁分泌障碍，导致部分或完全性胆...", "lemmaUrl": "http://baike.baidu.com/item/%E6%B7%A4%E8%83%86%E5%9E%8B%E8%82%9D%E7%82%8E/1649968", "lemmaPic": []}, {"lemmaId": 2669936, "lemmaTitle": "脐带脱垂", "lemmaCroppedTitle": "脐带脱垂", "lemmaDesc": "当脐带脱出于胎先露的下方，经宫颈进入阴道内，甚至经阴道显露于外阴部，称为脐带脱垂...", "lemmaUrl": "http://baike.baidu.com/item/%E8%84%90%E5%B8%A6%E8%84%B1%E5%9E%82/2669936", "lemmaPic": []}, {"lemmaId": 10998470, "lemmaTitle": "心脏肿瘤", "lemmaCroppedTitle": "心脏肿瘤", "lemmaDesc": "心脏肿瘤（cardiac tumor）无论良性、恶性，临床均比较少见，其中原发性...", "lemmaUrl": "http://baike.baidu.com/item/%E5%BF%83%E8%84%8F%E8%82%BF%E7%98%A4/10998470", "lemmaPic": []}, {"lemmaId": 6010629, "lemmaTitle": "心理应激", "lemmaCroppedTitle": "心理应激", "lemmaDesc": "心理压力医学上又称为心理应激，是指来自心理的、社会的、文化的各种事件，被大脑皮层...", "lemmaUrl": "http://baike.baidu.com/item/%E5%BF%83%E7%90%86%E5%BA%94%E6%BF%80/6010629", "lemmaPic": []}, {"lemmaId": 5241847, "lemmaTitle": "肛门失禁", "lemmaCroppedTitle": "肛门失禁", "lemmaDesc": "肛门失禁亦称大便失禁，是指机体对直肠内液态和固态内容物以及气体的蓄控能力丧失，导...", "lemmaUrl": "http://baike.baidu.com/item/%E8%82%9B%E9%97%A8%E5%A4%B1%E7%A6%81/5241847", "lemmaPic": []}, {"lemmaId": 3074455, "lemmaTitle": "卵泡囊肿", "lemmaCroppedTitle": "卵泡囊肿", "lemmaDesc": "卵泡囊肿是由于卵泡上皮变性、卵泡壁结缔组织增生变厚、卵细胞死亡、卵泡液未被吸收或...", "lemmaUrl": "http://baike.baidu.com/item/%E5%8D%B5%E6%B3%A1%E5%9B%8A%E8%82%BF/3074455", "lemmaPic": []}, {"lemmaId": 8605620, "lemmaTitle": "婴儿玫瑰疹", "lemmaCroppedTitle": "婴儿玫瑰疹", "lemmaDesc": "婴儿玫瑰疹又称幼儿急疹，是婴幼儿急性良性玫瑰样发疹，其特征为热退疹出。通常多见于...", "lemmaUrl": "http://baike.baidu.com/item/%E5%A9%B4%E5%84%BF%E7%8E%AB%E7%91%B0%E7%96%B9/8605620", "lemmaPic": []}, {"lemmaId": 5694546, "lemmaTitle": "真菌性角膜炎", "lemmaCroppedTitle": "真菌性角膜炎", "lemmaDesc": "真菌性角膜炎是一种由致病真菌引起的、致盲率极高的感染性角膜病。真菌性角膜炎起病缓...", "lemmaUrl": "http://baike.baidu.com/item/%E7%9C%9F%E8%8F%8C%E6%80%A7%E8%A7%92%E8%86%9C%E7%82%8E/5694546", "lemmaPic": []}, {"lemmaId": 9714082, "lemmaTitle": "氟骨症", "lemmaCroppedTitle": "氟骨症", "lemmaDesc": "氟骨症是指长期摄入过量氟化物引起氟中毒并累及骨组织的一种慢性侵袭性全身性骨病。氟...", "lemmaUrl": "http://baike.baidu.com/item/%E6%B0%9F%E9%AA%A8%E7%97%87/9714082", "lemmaPic": []}, {"lemmaId": 5278134, "lemmaTitle": "盆腔腹膜炎", "lemmaCroppedTitle": "盆腔腹膜炎", "lemmaDesc": "盆腔内器官发生严重感染时，病原体可通过血行或淋巴系统扩散以及直接蔓延等方式波及盆...", "lemmaUrl": "http://baike.baidu.com/item/%E7%9B%86%E8%85%94%E8%85%B9%E8%86%9C%E7%82%8E/5278134", "lemmaPic": []}, {"lemmaId": 5241454, "lemmaTitle": "胃扭转", "lemmaCroppedTitle": "胃扭转", "lemmaDesc": "胃扭转为胃正常位置的固定机制障碍或其邻近器官病变导致胃移位，使胃本身沿不同轴向发...", "lemmaUrl": "http://baike.baidu.com/item/%E8%83%83%E6%89%AD%E8%BD%AC/5241454", "lemmaPic": []}, {"lemmaId": 9694244, "lemmaTitle": "癌性疼痛", "lemmaCroppedTitle": "癌性疼痛", "lemmaDesc": "癌性疼痛是疼痛部位需要修复或调节的信息传到神经中枢后引起的感觉，是造成癌晚期患者...", "lemmaUrl": "http://baike.baidu.com/item/%E7%99%8C%E6%80%A7%E7%96%BC%E7%97%9B/9694244", "lemmaPic": []}, {"lemmaId": 8241075, "lemmaTitle": "放射病", "lemmaCroppedTitle": "放射病", "lemmaDesc": "放射病是机体在短时间内受到大剂量电离辐射照射引起的全身性疾病。外照射和内照射都可...", "lemmaUrl": "http://baike.baidu.com/item/%E6%94%BE%E5%B0%84%E7%97%85/8241075", "lemmaPic": []}, {"lemmaId": 981528, "lemmaTitle": "急性腹痛", "lemmaCroppedTitle": "急性腹痛", "lemmaDesc": "急性腹痛(Acute Abdominalgia)是急诊患者最常见的情况之一，文献...", "lemmaUrl": "http://baike.baidu.com/item/%E6%80%A5%E6%80%A7%E8%85%B9%E7%97%9B/981528", "lemmaPic": []}, {"lemmaId": 250566, "lemmaTitle": "单纯性肾囊肿", "lemmaCroppedTitle": "单纯性肾囊肿", "lemmaDesc": "单纯性肾囊肿在肾囊性疾病中最常见，多为单侧单发，少有单侧多发，双侧发生则少见。本...", "lemmaUrl": "http://baike.baidu.com/item/%E5%8D%95%E7%BA%AF%E6%80%A7%E8%82%BE%E5%9B%8A%E8%82%BF/250566", "lemmaPic": []}, {"lemmaId": 9817998, "lemmaTitle": "肝破裂", "lemmaCroppedTitle": "肝破裂", "lemmaDesc": "肝破裂是腹部创伤中的常见病，右肝破裂较左肝为多。肝位于右侧膈下和季肋深面，容易受...", "lemmaUrl": "http://baike.baidu.com/item/%E8%82%9D%E7%A0%B4%E8%A3%82/9817998", "lemmaPic": []}, {"lemmaId": 279098, "lemmaTitle": "血栓性浅静脉炎", "lemmaCroppedTitle": "血栓性浅静脉炎", "lemmaDesc": "血栓性浅静脉炎是位于人体体表的可视静脉的急性非化脓性炎症，常伴有血栓形成。是一种...", "lemmaUrl": "http://baike.baidu.com/item/%E8%A1%80%E6%A0%93%E6%80%A7%E6%B5%85%E9%9D%99%E8%84%89%E7%82%8E/279098", "lemmaPic": []}, {"lemmaId": 1026525, "lemmaTitle": "口眼歪斜", "lemmaCroppedTitle": "口眼歪斜", "lemmaDesc": "突然发生的“口眼歪斜”医学上称为面神经麻痹。引起面神经麻痹的确切原因至今尚不清楚...", "lemmaUrl": "http://baike.baidu.com/item/%E5%8F%A3%E7%9C%BC%E6%AD%AA%E6%96%9C/1026525", "lemmaPic": []}, {"lemmaId": 7671129, "lemmaTitle": "内伤咳嗽", "lemmaCroppedTitle": "内伤咳嗽", "lemmaDesc": "咳嗽是指肺失宣降，肺气上逆，发出咳声，或咳吐痰液的一种肺系疾病，有声无痰为咳，有...", "lemmaUrl": "http://baike.baidu.com/item/%E5%86%85%E4%BC%A4%E5%92%B3%E5%97%BD/7671129", "lemmaPic": []}, {"lemmaId": 9563945, "lemmaTitle": "肝肺综合征", "lemmaCroppedTitle": "肝肺综合征", "lemmaDesc": "肝肺综合征（HPS）是在慢性肝病和/或门脉高压的基础上出现肺内血管异常扩张、气体...", "lemmaUrl": "http://baike.baidu.com/item/%E8%82%9D%E8%82%BA%E7%BB%BC%E5%90%88%E5%BE%81/9563945", "lemmaPic": []}, {"lemmaId": 6768621, "lemmaTitle": "亚急性湿疹", "lemmaCroppedTitle": "亚急性湿疹", "lemmaDesc": "亚急性湿疹是一种常见的皮肤炎性皮肤病，以皮疹损害处具有渗出潮湿倾向而故名。亚急性...", "lemmaUrl": "http://baike.baidu.com/item/%E4%BA%9A%E6%80%A5%E6%80%A7%E6%B9%BF%E7%96%B9/6768621", "lemmaPic": []}, {"lemmaId": 5522624, "lemmaTitle": "蠕形螨病", "lemmaCroppedTitle": "蠕形螨病", "lemmaDesc": "蠕形螨，又称毛囊虫，毛囊螨，寄生于多种哺乳动物，包括人的毛囊和皮脂腺，是一种永久...", "lemmaUrl": "http://baike.baidu.com/item/%E8%A0%95%E5%BD%A2%E8%9E%A8%E7%97%85/5522624", "lemmaPic": []}, {"lemmaId": 5059296, "lemmaTitle": "阿米巴肝脓肿", "lemmaCroppedTitle": "阿米巴肝脓肿", "lemmaDesc": "阿米巴肝脓肿是由于溶组织阿米巴滋养体从肠道病变处经血流进入肝脏，使肝发生坏死而形...", "lemmaUrl": "http://baike.baidu.com/item/%E9%98%BF%E7%B1%B3%E5%B7%B4%E8%82%9D%E8%84%93%E8%82%BF/5059296", "lemmaPic": []}, {"lemmaId": 8019554, "lemmaTitle": "动脉栓塞", "lemmaCroppedTitle": "动脉栓塞", "lemmaDesc": "动脉栓塞是指栓子自心脏或近侧动脉壁脱落，或自外界进入动脉，被血流冲向远侧，阻塞动...", "lemmaUrl": "http://baike.baidu.com/item/%E5%8A%A8%E8%84%89%E6%A0%93%E5%A1%9E/8019554", "lemmaPic": []}, {"lemmaId": 6302085, "lemmaTitle": "wilson病", "lemmaCroppedTitle": "wilson病", "lemmaDesc": "Wilson病即肝豆状核变性。早自Frerichs（1861）、Westphal...", "lemmaUrl": "http://baike.baidu.com/item/wilson%E7%97%85/6302085", "lemmaPic": []}, {"lemmaId": 10664774, "lemmaTitle": "老年人大便失禁", "lemmaCroppedTitle": "老年人大便失禁", "lemmaDesc": "大便失禁或称肛门失禁是指每天至少2次或2次以上不随意控制的排便和排气。它是各种原...", "lemmaUrl": "http://baike.baidu.com/item/%E8%80%81%E5%B9%B4%E4%BA%BA%E5%A4%A7%E4%BE%BF%E5%A4%B1%E7%A6%81/10664774", "lemmaPic": []}, {"lemmaId": 262030, "lemmaTitle": "蕈样肉芽肿", "lemmaCroppedTitle": "蕈样肉芽肿", "lemmaDesc": "本病又名蕈样霉菌病，是起源于记忆性辅助T细胞的低度恶性的皮肤T细胞淋巴瘤，约占所...", "lemmaUrl": "http://baike.baidu.com/item/%E8%95%88%E6%A0%B7%E8%82%89%E8%8A%BD%E8%82%BF/262030", "lemmaPic": []}, {"lemmaId": 10728051, "lemmaTitle": "慢性肾上腺皮质功能减退症", "lemmaCroppedTitle": "慢性肾上腺皮质功能减退症", "lemmaDesc": "慢性肾上腺皮质功能减退分为原发及继发性两类，原发性者又称阿狄森病，是由于自身免疫...", "lemmaUrl": "http://baike.baidu.com/item/%E6%85%A2%E6%80%A7%E8%82%BE%E4%B8%8A%E8%85%BA%E7%9A%AE%E8%B4%A8%E5%8A%9F%E8%83%BD%E5%87%8F%E9%80%80%E7%97%87/10728051", "lemmaPic": []}, {"lemmaId": 8451800, "lemmaTitle": "毛滴虫病", "lemmaCroppedTitle": "毛滴虫病", "lemmaDesc": "毛滴虫病是由阴道毛滴虫、人毛滴虫及口腔毛滴虫分别寄生于人体泌尿生殖道、肠道及口腔...", "lemmaUrl": "http://baike.baidu.com/item/%E6%AF%9B%E6%BB%B4%E8%99%AB%E7%97%85/8451800", "lemmaPic": []}, {"lemmaId": 10336029, "lemmaTitle": "转移性骨肿瘤", "lemmaCroppedTitle": "转移性骨肿瘤", "lemmaDesc": "转移性骨肿瘤是指原发于身体其他部位的恶性肿瘤通过各种途径转移至骨骼并在骨内继续生...", "lemmaUrl": "http://baike.baidu.com/item/%E8%BD%AC%E7%A7%BB%E6%80%A7%E9%AA%A8%E8%82%BF%E7%98%A4/10336029", "lemmaPic": []}, {"lemmaId": 10766686, "lemmaTitle": "眼部带状疱疹", "lemmaCroppedTitle": "眼部带状疱疹", "lemmaDesc": "眼部带状疱疹是一种性质较为严重的睑皮肤病，由三叉神经的半月神经节或某一分支受水痘...", "lemmaUrl": "http://baike.baidu.com/item/%E7%9C%BC%E9%83%A8%E5%B8%A6%E7%8A%B6%E7%96%B1%E7%96%B9/10766686", "lemmaPic": []}, {"lemmaId": 8332194, "lemmaTitle": "第三腰椎横突综合征", "lemmaCroppedTitle": "第三腰椎横突综合征", "lemmaDesc": "第三腰椎横突综合征是腰痛或腰腿痛病人常见的一种疾病，好发于青壮年体力劳动者。由于...", "lemmaUrl": "http://baike.baidu.com/item/%E7%AC%AC%E4%B8%89%E8%85%B0%E6%A4%8E%E6%A8%AA%E7%AA%81%E7%BB%BC%E5%90%88%E5%BE%81/8332194", "lemmaPic": []}, {"lemmaId": 10222068, "lemmaTitle": "哮喘持续状态", "lemmaCroppedTitle": "哮喘持续状态", "lemmaDesc": "哮喘持续状态指的是常规治疗无效的严重哮喘发作，持续时间一般在12小时以上。哮喘持...", "lemmaUrl": "http://baike.baidu.com/item/%E5%93%AE%E5%96%98%E6%8C%81%E7%BB%AD%E7%8A%B6%E6%80%81/10222068", "lemmaPic": []}, {"lemmaId": 1326982, "lemmaTitle": "无痛取环", "lemmaCroppedTitle": "无痛取环", "lemmaDesc": "无痛取环主要是指无痛取节育环，是在麻醉下取环，具有无痛苦，起效快，无痛取环术中平...", "lemmaUrl": "http://baike.baidu.com/item/%E6%97%A0%E7%97%9B%E5%8F%96%E7%8E%AF/1326982", "lemmaPic": []}, {"lemmaId": 10110550, "lemmaTitle": "脑动静脉畸形", "lemmaCroppedTitle": "脑动静脉畸形", "lemmaDesc": "脑动静脉畸形（arteriovenous malformation，AVM）是一...", "lemmaUrl": "http://baike.baidu.com/item/%E8%84%91%E5%8A%A8%E9%9D%99%E8%84%89%E7%95%B8%E5%BD%A2/10110550", "lemmaPic": []}, {"lemmaId": 10014056, "lemmaTitle": "成人牙周炎", "lemmaCroppedTitle": "成人牙周炎", "lemmaDesc": "成人牙周炎主要是由局部因素引起的牙周支持组织的慢性炎症。发病年龄以35岁以后较为...", "lemmaUrl": "http://baike.baidu.com/item/%E6%88%90%E4%BA%BA%E7%89%99%E5%91%A8%E7%82%8E/10014056", "lemmaPic": []}, {"lemmaId": 456579, "lemmaTitle": "亨廷顿病性痴呆", "lemmaCroppedTitle": "亨廷顿病性痴呆", "lemmaDesc": "亨廷顿病性痴呆由Huntington于1872年首先报道，故而得名。属单基因常染...", "lemmaUrl": "http://baike.baidu.com/item/%E4%BA%A8%E5%BB%B7%E9%A1%BF%E7%97%85%E6%80%A7%E7%97%B4%E5%91%86/456579", "lemmaPic": []}, {"lemmaId": 4529534, "lemmaTitle": "生殖道沙眼衣原体感染", "lemmaCroppedTitle": "生殖道沙眼衣原体感染", "lemmaDesc": "生殖道沙眼衣原体感染是最近几年命名的，指由沙眼衣原体引起的以泌尿生殖道部位炎症为...", "lemmaUrl": "http://baike.baidu.com/item/%E7%94%9F%E6%AE%96%E9%81%93%E6%B2%99%E7%9C%BC%E8%A1%A3%E5%8E%9F%E4%BD%93%E6%84%9F%E6%9F%93/4529534", "lemmaPic": []}, {"lemmaId": 2253589, "lemmaTitle": "慢性心功能不全", "lemmaCroppedTitle": "慢性心功能不全", "lemmaDesc": "慢性心功能不全也被称为“心力衰竭”，是由于各种器质性或功能性心脏疾病，损害了心室...", "lemmaUrl": "http://baike.baidu.com/item/%E6%85%A2%E6%80%A7%E5%BF%83%E5%8A%9F%E8%83%BD%E4%B8%8D%E5%85%A8/2253589", "lemmaPic": []}, {"lemmaId": 10973988, "lemmaTitle": "间质性肺疾病", "lemmaCroppedTitle": "间质性肺疾病", "lemmaDesc": "间质性肺疾病（ILD）是以弥漫性肺实质、肺泡炎症和间质纤维化为病理基本病变，以活...", "lemmaUrl": "http://baike.baidu.com/item/%E9%97%B4%E8%B4%A8%E6%80%A7%E8%82%BA%E7%96%BE%E7%97%85/10973988", "lemmaPic": {"width": 276, "height": 197, "url": "https://gss3.bdstatic.com/7Po3dSag_xI4khGkpoWK1HF6hhy/baike/w%3D168/sign=c54fc533d9f9d72a1764141bec2a282a/d1a20cf431adcbefa90adf0aacaf2edda3cc9f84.jpg"}}, {"lemmaId": 5017682, "lemmaTitle": "鹦鹉热", "lemmaCroppedTitle": "鹦鹉热", "lemmaDesc": "鹦鹉热又称鸟热，是鹦鹉热衣原体所引起，这些衣原体主要在多种鸟类之间传播和感染，偶...", "lemmaUrl": "http://baike.baidu.com/item/%E9%B9%A6%E9%B9%89%E7%83%AD/5017682", "lemmaPic": []}, {"lemmaId": 10457703, "lemmaTitle": "新生儿头颅血肿", "lemmaCroppedTitle": "新生儿头颅血肿", "lemmaDesc": "头颅血肿属新生儿产时损伤性出血，为胎儿头颅在产道受压、牵拉、器械助产等所致。头颅...", "lemmaUrl": "http://baike.baidu.com/item/%E6%96%B0%E7%94%9F%E5%84%BF%E5%A4%B4%E9%A2%85%E8%A1%80%E8%82%BF/10457703", "lemmaPic": []}, {"lemmaId": 8074108, "lemmaTitle": "电光性眼炎", "lemmaCroppedTitle": "电光性眼炎", "lemmaDesc": "电光性眼炎是紫外线对眼角膜和结膜上皮造成损害引起的炎症。又称雪盲。特点是眼睑红肿...", "lemmaUrl": "http://baike.baidu.com/item/%E7%94%B5%E5%85%89%E6%80%A7%E7%9C%BC%E7%82%8E/8074108", "lemmaPic": []}, {"lemmaId": 8611644, "lemmaTitle": "高渗性非酮症糖尿病昏迷", "lemmaCroppedTitle": "高渗性非酮症糖尿病昏迷", "lemmaDesc": "糖尿病高渗性昏迷（HNDC）是糖尿病一种较少见的严重急性并发症，多见于老年无糖尿...", "lemmaUrl": "http://baike.baidu.com/item/%E9%AB%98%E6%B8%97%E6%80%A7%E9%9D%9E%E9%85%AE%E7%97%87%E7%B3%96%E5%B0%BF%E7%97%85%E6%98%8F%E8%BF%B7/8611644", "lemmaPic": []}, {"lemmaId": 894920, "lemmaTitle": "下颌后缩", "lemmaCroppedTitle": "下颌后缩", "lemmaDesc": "下颌后缩是由于下颌发育不全或者先天性缺少下前牙以及翼外肌功能不全等而造成的一种下...", "lemmaUrl": "http://baike.baidu.com/item/%E4%B8%8B%E9%A2%8C%E5%90%8E%E7%BC%A9/894920", "lemmaPic": []}, {"lemmaId": 8456705, "lemmaTitle": "急性糜烂性胃炎", "lemmaCroppedTitle": "急性糜烂性胃炎", "lemmaDesc": "急性糜烂性胃炎是以胃黏膜多发性糜烂为特征的急性胃炎，又称急性胃黏膜病变或急性糜烂...", "lemmaUrl": "http://baike.baidu.com/item/%E6%80%A5%E6%80%A7%E7%B3%9C%E7%83%82%E6%80%A7%E8%83%83%E7%82%8E/8456705", "lemmaPic": []}, {"lemmaId": 4357358, "lemmaTitle": "十二指肠腺癌", "lemmaCroppedTitle": "十二指肠腺癌", "lemmaDesc": "十二指肠腺癌指起源于十二指肠黏膜上皮的癌。多为单发，可由腺瘤恶变而来。组织学上可...", "lemmaUrl": "http://baike.baidu.com/item/%E5%8D%81%E4%BA%8C%E6%8C%87%E8%82%A0%E8%85%BA%E7%99%8C/4357358", "lemmaPic": []}, {"lemmaId": 10240304, "lemmaTitle": "背疽", "lemmaCroppedTitle": "背疽", "lemmaDesc": "背疽，泛指生于背部的有头疽。有头疽，是痈疽之发于体表而有粟米样疮头者。因其所生部...", "lemmaUrl": "http://baike.baidu.com/item/%E8%83%8C%E7%96%BD/10240304", "lemmaPic": []}, {"lemmaId": 1974343, "lemmaTitle": "下肢静脉血栓形成", "lemmaCroppedTitle": "下肢静脉血栓形成", "lemmaDesc": "由各种原因所致下肢静脉血流缓慢，血液呈高凝状态，淤积在下肢静脉，形成血栓。急性下...", "lemmaUrl": "http://baike.baidu.com/item/%E4%B8%8B%E8%82%A2%E9%9D%99%E8%84%89%E8%A1%80%E6%A0%93%E5%BD%A2%E6%88%90/1974343", "lemmaPic": []}, {"lemmaId": 2460223, "lemmaTitle": "军团病", "lemmaCroppedTitle": "军团病", "lemmaDesc": "军团病是嗜肺军团杆菌所致的急性呼吸道传染病。1976年美国费城召开退伍军人大会时...", "lemmaUrl": "http://baike.baidu.com/item/%E5%86%9B%E5%9B%A2%E7%97%85/2460223", "lemmaPic": []}, {"lemmaId": 3079997, "lemmaTitle": "宫颈白斑", "lemmaCroppedTitle": "宫颈白斑", "lemmaDesc": "宫颈白斑，系指在子宫颈阴道部出现的一种灰白色不透明的斑块状病变。临床肉眼所见白斑...", "lemmaUrl": "http://baike.baidu.com/item/%E5%AE%AB%E9%A2%88%E7%99%BD%E6%96%91/3079997", "lemmaPic": []}, {"lemmaId": 5242535, "lemmaTitle": "胸壁结核", "lemmaCroppedTitle": "胸壁结核", "lemmaDesc": "胸壁结核是继发于肺或胸膜结核感染的肋骨、胸骨、胸壁软组织结核病变，是一种常见的胸...", "lemmaUrl": "http://baike.baidu.com/item/%E8%83%B8%E5%A3%81%E7%BB%93%E6%A0%B8/5242535", "lemmaPic": []}, {"lemmaId": 5358237, "lemmaTitle": "鼻前庭囊肿", "lemmaCroppedTitle": "鼻前庭囊肿", "lemmaDesc": "鼻前庭囊肿系位于鼻前庭底部皮肤下、上颌骨牙槽突浅面软组织内的囊肿。生长缓慢，早期...", "lemmaUrl": "http://baike.baidu.com/item/%E9%BC%BB%E5%89%8D%E5%BA%AD%E5%9B%8A%E8%82%BF/5358237", "lemmaPic": []}, {"lemmaId": 5321297, "lemmaTitle": "颞下颌关节脱位", "lemmaCroppedTitle": "颞下颌关节脱位", "lemmaDesc": "颞下颌关节脱位（TMJ)是指大张口时，髁突与关节窝、关节结节或关节盘之间完全分离...", "lemmaUrl": "http://baike.baidu.com/item/%E9%A2%9E%E4%B8%8B%E9%A2%8C%E5%85%B3%E8%8A%82%E8%84%B1%E4%BD%8D/5321297", "lemmaPic": []}], "total": 7246, "totalPage": 73, "page": 22, "fromLemma": 0}