{"lemmaList": [{"lemmaId": 7640622, "lemmaTitle": "间质性肾炎", "lemmaCroppedTitle": "间质性肾炎", "lemmaDesc": "间质性肾炎，又称肾小管间质性肾炎，是由各种原因引起的肾小管间质性急慢性损害的临床...", "lemmaUrl": "http://baike.baidu.com/item/%E9%97%B4%E8%B4%A8%E6%80%A7%E8%82%BE%E7%82%8E/7640622", "lemmaPic": []}, {"lemmaId": 4670801, "lemmaTitle": "麻痹性肠梗阻", "lemmaCroppedTitle": "麻痹性肠梗阻", "lemmaDesc": "麻痹性肠梗阻亦称无动力性肠麻痹，是因各种原因影响肠道植物神经系统的平衡；或影响肠...", "lemmaUrl": "http://baike.baidu.com/item/%E9%BA%BB%E7%97%B9%E6%80%A7%E8%82%A0%E6%A2%97%E9%98%BB/4670801", "lemmaPic": []}, {"lemmaId": 2530066, "lemmaTitle": "手足麻木", "lemmaCroppedTitle": "手足麻木", "lemmaDesc": "手足麻木是人体在主动或被动下麻木，有时静止时稍重，或在活动加剧，严重时活动受限，...", "lemmaUrl": "http://baike.baidu.com/item/%E6%89%8B%E8%B6%B3%E9%BA%BB%E6%9C%A8/2530066", "lemmaPic": []}, {"lemmaId": 9241163, "lemmaTitle": "稳定型心绞痛", "lemmaCroppedTitle": "稳定型心绞痛", "lemmaDesc": "稳定型心绞痛是由于劳力引起心肌缺血，导致胸部及附近部位的不适，可伴心功能障碍，但...", "lemmaUrl": "http://baike.baidu.com/item/%E7%A8%B3%E5%AE%9A%E5%9E%8B%E5%BF%83%E7%BB%9E%E7%97%9B/9241163", "lemmaPic": []}, {"lemmaId": 3722319, "lemmaTitle": "肺吸虫病", "lemmaCroppedTitle": "肺吸虫病", "lemmaDesc": "肺吸虫病是由并殖吸虫引起的急性或慢性的地方性寄生虫病。人体寄生的肺吸虫，在国内主...", "lemmaUrl": "http://baike.baidu.com/item/%E8%82%BA%E5%90%B8%E8%99%AB%E7%97%85/3722319", "lemmaPic": []}, {"lemmaId": 2945789, "lemmaTitle": "外阴瘙痒症", "lemmaCroppedTitle": "外阴瘙痒症", "lemmaDesc": "外阴瘙痒症也称外阴瘙痒，指外阴不同疾病引起的外阴瘙痒的症状。但也可以发生在外阴外...", "lemmaUrl": "http://baike.baidu.com/item/%E5%A4%96%E9%98%B4%E7%98%99%E7%97%92%E7%97%87/2945789", "lemmaPic": []}, {"lemmaId": 1939906, "lemmaTitle": "急性宫颈炎", "lemmaCroppedTitle": "急性宫颈炎", "lemmaDesc": "急性子宫颈炎较慢性子宫颈炎少见，多发生于产褥感染或感染性流产之后。阴道滴虫、霉菌...", "lemmaUrl": "http://baike.baidu.com/item/%E6%80%A5%E6%80%A7%E5%AE%AB%E9%A2%88%E7%82%8E/1939906", "lemmaPic": []}, {"lemmaId": 4749164, "lemmaTitle": "正中神经损伤", "lemmaCroppedTitle": "正中神经损伤", "lemmaDesc": "正中神经由颈5～8与胸1神经根的纤维构成。从臂丛神经外侧索分出的外侧根，和从内侧...", "lemmaUrl": "http://baike.baidu.com/item/%E6%AD%A3%E4%B8%AD%E7%A5%9E%E7%BB%8F%E6%8D%9F%E4%BC%A4/4749164", "lemmaPic": []}, {"lemmaId": 9208824, "lemmaTitle": "颅底骨折", "lemmaCroppedTitle": "颅底骨折", "lemmaDesc": "颅底由前向后的颅前窝、颅中窝和颅后窝呈由高到底的阶梯状排，因凹凸不平、有大小不同...", "lemmaUrl": "http://baike.baidu.com/item/%E9%A2%85%E5%BA%95%E9%AA%A8%E6%8A%98/9208824", "lemmaPic": []}, {"lemmaId": 1211708, "lemmaTitle": "睑黄瘤", "lemmaCroppedTitle": "睑黄瘤", "lemmaDesc": "睑黄瘤为代谢障碍性皮肤病，是黄瘤病中最常见的一种。睑黄瘤是由于脂质沉积于眼睑部位...", "lemmaUrl": "http://baike.baidu.com/item/%E7%9D%91%E9%BB%84%E7%98%A4/1211708", "lemmaPic": []}, {"lemmaId": 5892503, "lemmaTitle": "肾小管酸中毒", "lemmaCroppedTitle": "肾小管酸中毒", "lemmaDesc": "肾小管酸中毒（RTA）是由于远端肾小管管腔与管周液间氢离子（H+）梯度建立障碍，...", "lemmaUrl": "http://baike.baidu.com/item/%E8%82%BE%E5%B0%8F%E7%AE%A1%E9%85%B8%E4%B8%AD%E6%AF%92/5892503", "lemmaPic": []}, {"lemmaId": 4703660, "lemmaTitle": "遗传代谢病", "lemmaCroppedTitle": "遗传代谢病", "lemmaDesc": "遗传代谢病是因维持机体正常代谢所必需的某些由多肽和（或）蛋白组成的酶、受体、载体...", "lemmaUrl": "http://baike.baidu.com/item/%E9%81%97%E4%BC%A0%E4%BB%A3%E8%B0%A2%E7%97%85/4703660", "lemmaPic": []}, {"lemmaId": 9575253, "lemmaTitle": "急性阴道炎", "lemmaCroppedTitle": "急性阴道炎", "lemmaDesc": "急性阴道炎是指由某种病原体感染引起的急性炎症。引起感染的病原体很多，如念珠菌、滴...", "lemmaUrl": "http://baike.baidu.com/item/%E6%80%A5%E6%80%A7%E9%98%B4%E9%81%93%E7%82%8E/9575253", "lemmaPic": []}, {"lemmaId": 5315335, "lemmaTitle": "透明细胞癌", "lemmaCroppedTitle": "透明细胞癌", "lemmaDesc": "1997年，WHO根据肿瘤细胞起源以及基因改变等特点制定了肾实质上皮性肿瘤分类标...", "lemmaUrl": "http://baike.baidu.com/item/%E9%80%8F%E6%98%8E%E7%BB%86%E8%83%9E%E7%99%8C/5315335", "lemmaPic": {"width": 372, "height": 324, "url": "https://gss3.bdstatic.com/-Po3dSag_xI4khGkpoWK1HF6hhy/baike/w%3D168/sign=960c0d8aa786c9170803563ff13c70c6/5366d0160924ab1894ed084535fae6cd7a890bcc.jpg"}}, {"lemmaId": 7043851, "lemmaTitle": "线粒体脑肌病", "lemmaCroppedTitle": "线粒体脑肌病", "lemmaDesc": "线粒体脑肌病（ME）是一组少见的线粒体结构和（或）功能异常所导致的以脑和肌肉受累...", "lemmaUrl": "http://baike.baidu.com/item/%E7%BA%BF%E7%B2%92%E4%BD%93%E8%84%91%E8%82%8C%E7%97%85/7043851", "lemmaPic": []}, {"lemmaId": 8532727, "lemmaTitle": "血管运动性鼻炎", "lemmaCroppedTitle": "血管运动性鼻炎", "lemmaDesc": "血管运动性鼻炎的发病原因很多，精神紧张、焦虑、环境温度变化、内分泌功能紊乱等均可...", "lemmaUrl": "http://baike.baidu.com/item/%E8%A1%80%E7%AE%A1%E8%BF%90%E5%8A%A8%E6%80%A7%E9%BC%BB%E7%82%8E/8532727", "lemmaPic": []}, {"lemmaId": 940199, "lemmaTitle": "盆腔淤血综合征", "lemmaCroppedTitle": "盆腔淤血综合征", "lemmaDesc": "盆腔淤血综合征又称卵巢静脉综合征，是引起妇科盆腔疼痛的重要原因之一，盆腔淤血综合...", "lemmaUrl": "http://baike.baidu.com/item/%E7%9B%86%E8%85%94%E6%B7%A4%E8%A1%80%E7%BB%BC%E5%90%88%E5%BE%81/940199", "lemmaPic": []}, {"lemmaId": 5120904, "lemmaTitle": "肥厚型梗阻性心肌病", "lemmaCroppedTitle": "肥厚型梗阻性心肌病", "lemmaDesc": "肥厚性梗阻性心肌病的特征为心室肌肥厚，典型者在左心室，以室间隔为甚，偶尔可呈同心...", "lemmaUrl": "http://baike.baidu.com/item/%E8%82%A5%E5%8E%9A%E5%9E%8B%E6%A2%97%E9%98%BB%E6%80%A7%E5%BF%83%E8%82%8C%E7%97%85/5120904", "lemmaPic": []}, {"lemmaId": 1718825, "lemmaTitle": "无菌性股骨头坏死", "lemmaCroppedTitle": "无菌性股骨头坏死", "lemmaDesc": "无菌性股骨头坏死又称非创伤性股骨头缺血性坏死。是一种由于骨内循环障碍，骨细胞死亡...", "lemmaUrl": "http://baike.baidu.com/item/%E6%97%A0%E8%8F%8C%E6%80%A7%E8%82%A1%E9%AA%A8%E5%A4%B4%E5%9D%8F%E6%AD%BB/1718825", "lemmaPic": {"width": 348, "height": 331, "url": "https://gss1.bdstatic.com/-vo3dSag_xI4khGkpoWK1HF6hhy/baike/w%3D168/sign=4b195758d0160924dc25a61dec06359b/8326cffc1e178a8244e54faef603738da877e8e7.jpg"}}, {"lemmaId": 7388928, "lemmaTitle": "功能性胃肠病", "lemmaCroppedTitle": "功能性胃肠病", "lemmaDesc": "功能性胃肠病（FGIDs）是一组功能性胃肠道疾病，是生理、精神心理和社会因素相互...", "lemmaUrl": "http://baike.baidu.com/item/%E5%8A%9F%E8%83%BD%E6%80%A7%E8%83%83%E8%82%A0%E7%97%85/7388928", "lemmaPic": []}, {"lemmaId": 5951625, "lemmaTitle": "大隐静脉曲张", "lemmaCroppedTitle": "大隐静脉曲张", "lemmaDesc": "大隐静脉是位于下肢内侧的浅表静脉，自足部至大腿根部，再到下肢深静脉中。女性往往比...", "lemmaUrl": "http://baike.baidu.com/item/%E5%A4%A7%E9%9A%90%E9%9D%99%E8%84%89%E6%9B%B2%E5%BC%A0/5951625", "lemmaPic": []}, {"lemmaId": 1721794, "lemmaTitle": "药物热", "lemmaCroppedTitle": "药物热", "lemmaDesc": "由用药所致的发热称为药物热，它是临床常见的药源性疾病，药物过敏反应是最普遍的机制...", "lemmaUrl": "http://baike.baidu.com/item/%E8%8D%AF%E7%89%A9%E7%83%AD/1721794", "lemmaPic": []}, {"lemmaId": 6604739, "lemmaTitle": "红癣", "lemmaCroppedTitle": "红癣", "lemmaDesc": "红癣是由棒状杆菌属的微细棒状杆菌引起的一种皮肤局限性浅表的感染，易发于皮肤摩擦部...", "lemmaUrl": "http://baike.baidu.com/item/%E7%BA%A2%E7%99%A3/6604739", "lemmaPic": []}, {"lemmaId": 11023530, "lemmaTitle": "结肠黑变病", "lemmaCroppedTitle": "结肠黑变病", "lemmaDesc": "结肠黑变病（MC）是以结肠黏膜黑色素沉着为特征的非炎症性肠病，其本质是结肠黏膜固...", "lemmaUrl": "http://baike.baidu.com/item/%E7%BB%93%E8%82%A0%E9%BB%91%E5%8F%98%E7%97%85/11023530", "lemmaPic": []}, {"lemmaId": 9986546, "lemmaTitle": "卵巢发育不良", "lemmaCroppedTitle": "卵巢发育不良", "lemmaDesc": "卵泡发育成熟，功能才会健全，排出的卵子才会成熟健康。如果卵泡发育不良，不能正常排...", "lemmaUrl": "http://baike.baidu.com/item/%E5%8D%B5%E5%B7%A2%E5%8F%91%E8%82%B2%E4%B8%8D%E8%89%AF/9986546", "lemmaPic": []}, {"lemmaId": 5124678, "lemmaTitle": "直肠前突", "lemmaCroppedTitle": "直肠前突", "lemmaDesc": "直肠前突又称直肠膨出，是后盆底松弛性疾病，后盆底是指自宫颈环至会阴体部分，包括主...", "lemmaUrl": "http://baike.baidu.com/item/%E7%9B%B4%E8%82%A0%E5%89%8D%E7%AA%81/5124678", "lemmaPic": {"width": 510, "height": 383, "url": "https://gss1.bdstatic.com/-vo3dSag_xI4khGkpoWK1HF6hhy/baike/w%3D168/sign=31ddf067ccbf6c81f73728ee843fb1d7/c2fdfc039245d6887960a6aba4c27d1ed21b245a.jpg"}}, {"lemmaId": 5278696, "lemmaTitle": "老年性黄斑变性", "lemmaCroppedTitle": "老年性黄斑变性", "lemmaDesc": "老年性黄斑变性又称年龄相关性黄斑变性（AMD），为黄斑区结构的衰老性改变。主要表...", "lemmaUrl": "http://baike.baidu.com/item/%E8%80%81%E5%B9%B4%E6%80%A7%E9%BB%84%E6%96%91%E5%8F%98%E6%80%A7/5278696", "lemmaPic": []}, {"lemmaId": 7992687, "lemmaTitle": "甲状旁腺功能减退症", "lemmaCroppedTitle": "甲状旁腺功能减退症", "lemmaDesc": "甲状旁腺是多位于人体颈前部甲状腺侧叶后方的内分泌腺体，约80%的人有4个甲状旁腺...", "lemmaUrl": "http://baike.baidu.com/item/%E7%94%B2%E7%8A%B6%E6%97%81%E8%85%BA%E5%8A%9F%E8%83%BD%E5%87%8F%E9%80%80%E7%97%87/7992687", "lemmaPic": []}, {"lemmaId": 5055849, "lemmaTitle": "肾小管性酸中毒", "lemmaCroppedTitle": "肾小管性酸中毒", "lemmaDesc": "肾小管性酸中毒（RTA）是由于各种病因导致肾脏酸化功能障碍而产生的一种临床综合征...", "lemmaUrl": "http://baike.baidu.com/item/%E8%82%BE%E5%B0%8F%E7%AE%A1%E6%80%A7%E9%85%B8%E4%B8%AD%E6%AF%92/5055849", "lemmaPic": []}, {"lemmaId": 3078684, "lemmaTitle": "子宫肉瘤", "lemmaCroppedTitle": "子宫肉瘤", "lemmaDesc": "子宫肉瘤是一组起源于子宫平滑肌组织、子宫间质、子宫内组织或子宫外组织的恶性肿瘤。...", "lemmaUrl": "http://baike.baidu.com/item/%E5%AD%90%E5%AE%AB%E8%82%89%E7%98%A4/3078684", "lemmaPic": []}, {"lemmaId": 9636676, "lemmaTitle": "婴儿肠痉挛", "lemmaCroppedTitle": "婴儿肠痉挛", "lemmaDesc": "肠痉挛是指由于肠壁平滑肌阵发性强烈收缩而引起的阵发性腹痛，是小儿急性腹痛中常见症...", "lemmaUrl": "http://baike.baidu.com/item/%E5%A9%B4%E5%84%BF%E8%82%A0%E7%97%89%E6%8C%9B/9636676", "lemmaPic": []}, {"lemmaId": 2607671, "lemmaTitle": "滑胎", "lemmaCroppedTitle": "滑胎", "lemmaDesc": "自然流产连续3次以上者，每次流产往往发生在同一妊娠月份，称为“滑胎”。滑胎主要因...", "lemmaUrl": "http://baike.baidu.com/item/%E6%BB%91%E8%83%8E/2607671", "lemmaPic": []}, {"lemmaId": 7769030, "lemmaTitle": "皮脂腺增生", "lemmaCroppedTitle": "皮脂腺增生", "lemmaDesc": "皮脂腺增生是皮肤内正常皮脂腺增大所致，属于良性病变。外伤和局部慢性炎症刺激可能与...", "lemmaUrl": "http://baike.baidu.com/item/%E7%9A%AE%E8%84%82%E8%85%BA%E5%A2%9E%E7%94%9F/7769030", "lemmaPic": []}, {"lemmaId": 6466045, "lemmaTitle": "着色性干皮病", "lemmaCroppedTitle": "着色性干皮病", "lemmaDesc": "着色性干皮病是一种常染色体隐性遗传性皮肤病，发病率约1：25万，特征是UV照射后...", "lemmaUrl": "http://baike.baidu.com/item/%E7%9D%80%E8%89%B2%E6%80%A7%E5%B9%B2%E7%9A%AE%E7%97%85/6466045", "lemmaPic": []}, {"lemmaId": 2216195, "lemmaTitle": "维生素K缺乏症", "lemmaCroppedTitle": "维生素K缺乏症", "lemmaDesc": "维生素K缺乏症又称获得性凝血酶原减低症，是指由于维生素K缺乏导致维生素K依赖凝血...", "lemmaUrl": "http://baike.baidu.com/item/%E7%BB%B4%E7%94%9F%E7%B4%A0K%E7%BC%BA%E4%B9%8F%E7%97%87/2216195", "lemmaPic": []}, {"lemmaId": 2291468, "lemmaTitle": "肠扭转", "lemmaCroppedTitle": "肠扭转", "lemmaDesc": "肠扭转是肠管的某一段肠襻沿一个固定点旋转而引起，常常是因为肠襻及其系膜过长，肠扭...", "lemmaUrl": "http://baike.baidu.com/item/%E8%82%A0%E6%89%AD%E8%BD%AC/2291468", "lemmaPic": []}, {"lemmaId": 11015073, "lemmaTitle": "小儿遗尿", "lemmaCroppedTitle": "小儿遗尿", "lemmaDesc": "一般情况下，孩子在3～4岁开始控制排尿，如果5～6岁以后还经常性尿床，每周二次以...", "lemmaUrl": "http://baike.baidu.com/item/%E5%B0%8F%E5%84%BF%E9%81%97%E5%B0%BF/11015073", "lemmaPic": []}, {"lemmaId": 10221596, "lemmaTitle": "酒精性肝炎", "lemmaCroppedTitle": "酒精性肝炎", "lemmaDesc": "酒精性肝炎系指长期过量饮酒所致的一种肝脏疾病，其主要临床特征是恶心、呕吐、黄疸、...", "lemmaUrl": "http://baike.baidu.com/item/%E9%85%92%E7%B2%BE%E6%80%A7%E8%82%9D%E7%82%8E/10221596", "lemmaPic": []}, {"lemmaId": 1533294, "lemmaTitle": "缩窄性心包炎", "lemmaCroppedTitle": "缩窄性心包炎", "lemmaDesc": "缩窄性心包炎是由于心包慢性炎症所导致心包增厚、粘连甚至钙化，使心脏舒张、收缩受限...", "lemmaUrl": "http://baike.baidu.com/item/%E7%BC%A9%E7%AA%84%E6%80%A7%E5%BF%83%E5%8C%85%E7%82%8E/1533294", "lemmaPic": []}, {"lemmaId": 2608504, "lemmaTitle": "化脓性关节炎", "lemmaCroppedTitle": "化脓性关节炎", "lemmaDesc": "化脓性关节炎是一种由化脓性细菌直接感染，并引起关节破坏及功能丧失的关节炎，又称细...", "lemmaUrl": "http://baike.baidu.com/item/%E5%8C%96%E8%84%93%E6%80%A7%E5%85%B3%E8%8A%82%E7%82%8E/2608504", "lemmaPic": []}, {"lemmaId": 1092322, "lemmaTitle": "胃印戒细胞癌", "lemmaCroppedTitle": "胃印戒细胞癌", "lemmaDesc": "胃印戒细胞癌是高度恶性肿瘤之一，约占胃癌的9.9%，具有侵袭力强，病程进展快，恶...", "lemmaUrl": "http://baike.baidu.com/item/%E8%83%83%E5%8D%B0%E6%88%92%E7%BB%86%E8%83%9E%E7%99%8C/1092322", "lemmaPic": {"width": 230, "height": 230, "url": "https://gss3.bdstatic.com/-Po3dSag_xI4khGkpoWK1HF6hhy/baike/w%3D168/sign=a9380783e0fe9925cb0c6d560ca85ee4/a686c9177f3e67095a2c5ab93bc79f3df8dc5543.jpg"}}, {"lemmaId": 10131623, "lemmaTitle": "外耳道胆脂瘤", "lemmaCroppedTitle": "外耳道胆脂瘤", "lemmaDesc": "外耳道胆脂瘤是一种外耳道皮肤脱屑、胆固醇结晶堆积、上皮包裹所形成的囊状团块。其并...", "lemmaUrl": "http://baike.baidu.com/item/%E5%A4%96%E8%80%B3%E9%81%93%E8%83%86%E8%84%82%E7%98%A4/10131623", "lemmaPic": []}, {"lemmaId": 1132952, "lemmaTitle": "肾炎综合征", "lemmaCroppedTitle": "肾炎综合征", "lemmaDesc": "肾炎综合征是指血尿、蛋白尿、高血压、水肿为表现的一组综合征，有时亦可以见到肌酐升...", "lemmaUrl": "http://baike.baidu.com/item/%E8%82%BE%E7%82%8E%E7%BB%BC%E5%90%88%E5%BE%81/1132952", "lemmaPic": []}, {"lemmaId": 1568082, "lemmaTitle": "小儿颈交感神经麻痹综合征", "lemmaCroppedTitle": "小儿颈交感神经麻痹综合征", "lemmaDesc": "小儿颈交感神经麻痹综合征又称小儿Horner综合征、小儿Bernard-Horn...", "lemmaUrl": "http://baike.baidu.com/item/%E5%B0%8F%E5%84%BF%E9%A2%88%E4%BA%A4%E6%84%9F%E7%A5%9E%E7%BB%8F%E9%BA%BB%E7%97%B9%E7%BB%BC%E5%90%88%E5%BE%81/1568082", "lemmaPic": []}, {"lemmaId": 876157, "lemmaTitle": "良性前列腺增生", "lemmaCroppedTitle": "良性前列腺增生", "lemmaDesc": "良性前列腺增生（BPH）主要是由于老年人性激素代谢障碍导致的不同程度腺体和（或）...", "lemmaUrl": "http://baike.baidu.com/item/%E8%89%AF%E6%80%A7%E5%89%8D%E5%88%97%E8%85%BA%E5%A2%9E%E7%94%9F/876157", "lemmaPic": []}, {"lemmaId": 2249902, "lemmaTitle": "库鲁病", "lemmaCroppedTitle": "库鲁病", "lemmaDesc": "库鲁病是最早被研究的人类朊毒体病，曾经仅见于巴布亚―新几内亚东部高地有食用已故亲...", "lemmaUrl": "http://baike.baidu.com/item/%E5%BA%93%E9%B2%81%E7%97%85/2249902", "lemmaPic": []}, {"lemmaId": 5155092, "lemmaTitle": "听力障碍", "lemmaCroppedTitle": "听力障碍", "lemmaDesc": "听力障碍（dysaudia）是指听觉系统中的传音、感音以及对声音的综合分析的各级...", "lemmaUrl": "http://baike.baidu.com/item/%E5%90%AC%E5%8A%9B%E9%9A%9C%E7%A2%8D/5155092", "lemmaPic": []}, {"lemmaId": 3439238, "lemmaTitle": "肘关节脱位", "lemmaCroppedTitle": "肘关节脱位", "lemmaDesc": "肘关节脱位是肘部常见损伤，多发生于青少年，成人和儿童也时有发生。由于肘关节脱位类...", "lemmaUrl": "http://baike.baidu.com/item/%E8%82%98%E5%85%B3%E8%8A%82%E8%84%B1%E4%BD%8D/3439238", "lemmaPic": []}, {"lemmaId": 3899936, "lemmaTitle": "椎管内肿瘤", "lemmaCroppedTitle": "椎管内肿瘤", "lemmaDesc": "椎管内肿瘤亦称脊髓肿瘤（tumor of spinal cord），是指生长于脊...", "lemmaUrl": "http://baike.baidu.com/item/%E6%A4%8E%E7%AE%A1%E5%86%85%E8%82%BF%E7%98%A4/3899936", "lemmaPic": []}, {"lemmaId": 834076, "lemmaTitle": "肝血虚证", "lemmaCroppedTitle": "肝血虚证", "lemmaDesc": "肝血虚，为中医证型。是以肝血的濡养功能减退或失常为主，以肢体麻木不仁，关节屈伸不...", "lemmaUrl": "http://baike.baidu.com/item/%E8%82%9D%E8%A1%80%E8%99%9A%E8%AF%81/834076", "lemmaPic": []}, {"lemmaId": 10358929, "lemmaTitle": "骶骨骨折", "lemmaCroppedTitle": "骶骨骨折", "lemmaDesc": "骶骨骨折可单独发生，亦可与骨盆损伤同时出现；前者较少见，而后者在骨盆骨折中占30...", "lemmaUrl": "http://baike.baidu.com/item/%E9%AA%B6%E9%AA%A8%E9%AA%A8%E6%8A%98/10358929", "lemmaPic": []}, {"lemmaId": 6003131, "lemmaTitle": "晕痣", "lemmaCroppedTitle": "晕痣", "lemmaDesc": "晕痣是指围绕色素痣的局限性色素减退，此后痣本身也可退色而皮损继续发展，又称离心性...", "lemmaUrl": "http://baike.baidu.com/item/%E6%99%95%E7%97%A3/6003131", "lemmaPic": []}, {"lemmaId": 4931161, "lemmaTitle": "皮肤蝇蛆病", "lemmaCroppedTitle": "皮肤蝇蛆病", "lemmaDesc": "皮肤蝇蛆病是由某些蝇类幼虫（蛆）进入人体皮肤所引起的一种炎症反应。多见于牧区如我...", "lemmaUrl": "http://baike.baidu.com/item/%E7%9A%AE%E8%82%A4%E8%9D%87%E8%9B%86%E7%97%85/4931161", "lemmaPic": []}, {"lemmaId": 389205, "lemmaTitle": "铜绿假单胞菌感染", "lemmaCroppedTitle": "铜绿假单胞菌感染", "lemmaDesc": "铜绿假单胞菌又称绿脓杆菌，属假单胞菌属，是一种需氧的革兰阴性杆菌。皮肤铜绿假单胞...", "lemmaUrl": "http://baike.baidu.com/item/%E9%93%9C%E7%BB%BF%E5%81%87%E5%8D%95%E8%83%9E%E8%8F%8C%E6%84%9F%E6%9F%93/389205", "lemmaPic": []}, {"lemmaId": 8252718, "lemmaTitle": "多形性日光疹", "lemmaCroppedTitle": "多形性日光疹", "lemmaDesc": "多形性日光疹亦称多形性光敏疹，系光变应性反应，为反复发作的慢性多形性光感性皮肤疾...", "lemmaUrl": "http://baike.baidu.com/item/%E5%A4%9A%E5%BD%A2%E6%80%A7%E6%97%A5%E5%85%89%E7%96%B9/8252718", "lemmaPic": []}, {"lemmaId": 8742470, "lemmaTitle": "少阳病", "lemmaCroppedTitle": "少阳病", "lemmaDesc": "病证名，《伤寒论》六经病之一。是指以口苦，咽干，目眩，往来寒热，胸胁苦满，嘿嘿不...", "lemmaUrl": "http://baike.baidu.com/item/%E5%B0%91%E9%98%B3%E7%97%85/8742470", "lemmaPic": []}, {"lemmaId": 5056353, "lemmaTitle": "胰腺假性囊肿", "lemmaCroppedTitle": "胰腺假性囊肿", "lemmaDesc": "胰腺假性囊肿多继发于急慢性胰腺炎和胰腺损伤，由血液、胰液外渗以及胰腺自身消化导致...", "lemmaUrl": "http://baike.baidu.com/item/%E8%83%B0%E8%85%BA%E5%81%87%E6%80%A7%E5%9B%8A%E8%82%BF/5056353", "lemmaPic": []}, {"lemmaId": 5119285, "lemmaTitle": "肱骨外科颈骨折", "lemmaCroppedTitle": "肱骨外科颈骨折", "lemmaDesc": "肱骨外科颈位于解剖颈下2～3厘米，胸大肌止点以上，此处由松质骨向皮质骨过渡且稍细...", "lemmaUrl": "http://baike.baidu.com/item/%E8%82%B1%E9%AA%A8%E5%A4%96%E7%A7%91%E9%A2%88%E9%AA%A8%E6%8A%98/5119285", "lemmaPic": []}, {"lemmaId": 6873730, "lemmaTitle": "聚合性痤疮", "lemmaCroppedTitle": "聚合性痤疮", "lemmaDesc": "聚合性痤疮是痤疮中比较严重的一型，好发于青年男性，偶见女性。发病机制尚不明了，除...", "lemmaUrl": "http://baike.baidu.com/item/%E8%81%9A%E5%90%88%E6%80%A7%E7%97%A4%E7%96%AE/6873730", "lemmaPic": []}, {"lemmaId": 1135015, "lemmaTitle": "鼻息肉病", "lemmaCroppedTitle": "鼻息肉病", "lemmaDesc": "鼻息肉病在国内是最近几年才提出的新概念。鼻息肉临床常见，成年人的发病率为1%～2...", "lemmaUrl": "http://baike.baidu.com/item/%E9%BC%BB%E6%81%AF%E8%82%89%E7%97%85/1135015", "lemmaPic": []}, {"lemmaId": 221934, "lemmaTitle": "深静脉血栓形成", "lemmaCroppedTitle": "深静脉血栓形成", "lemmaDesc": "深静脉血栓形成是指血液在深静脉腔内异常凝结，阻塞静脉管腔，导致静脉回流障碍，引起...", "lemmaUrl": "http://baike.baidu.com/item/%E6%B7%B1%E9%9D%99%E8%84%89%E8%A1%80%E6%A0%93%E5%BD%A2%E6%88%90/221934", "lemmaPic": []}, {"lemmaId": 896603, "lemmaTitle": "淋球菌感染", "lemmaCroppedTitle": "淋球菌感染", "lemmaDesc": "淋球菌感染（淋病）是常见的性传播疾病之一，是由淋球菌感染所致的一种化脓性炎性疾病...", "lemmaUrl": "http://baike.baidu.com/item/%E6%B7%8B%E7%90%83%E8%8F%8C%E6%84%9F%E6%9F%93/896603", "lemmaPic": []}, {"lemmaId": 5231483, "lemmaTitle": "中药炮制", "lemmaCroppedTitle": "中药炮制", "lemmaDesc": "中药必须经过炮制之后才能入药，是中医用药的特点之一。中药炮制是根据中医药理论，依...", "lemmaUrl": "http://baike.baidu.com/item/%E4%B8%AD%E8%8D%AF%E7%82%AE%E5%88%B6/5231483", "lemmaPic": []}, {"lemmaId": 1470902, "lemmaTitle": "脊髓肿瘤", "lemmaCroppedTitle": "脊髓肿瘤", "lemmaDesc": "脊髓肿瘤是脊髓和马尾神经受压的重要原因之一，包括椎管以及脊髓相邻接的组织结构所发...", "lemmaUrl": "http://baike.baidu.com/item/%E8%84%8A%E9%AB%93%E8%82%BF%E7%98%A4/1470902", "lemmaPic": []}, {"lemmaId": 7357642, "lemmaTitle": "炎性乳腺癌", "lemmaCroppedTitle": "炎性乳腺癌", "lemmaDesc": "炎性乳腺癌是一种罕见的特殊类型乳腺癌，肿瘤特点酷似急性炎症改变，乳腺弥漫性增大，...", "lemmaUrl": "http://baike.baidu.com/item/%E7%82%8E%E6%80%A7%E4%B9%B3%E8%85%BA%E7%99%8C/7357642", "lemmaPic": []}, {"lemmaId": 3580807, "lemmaTitle": "跖骨骨折", "lemmaCroppedTitle": "跖骨骨折", "lemmaDesc": "跖骨骨折多因重物打击足背、辗压及足内翻扭伤引起。跖骨干骨折因相邻跖骨的支持，一般...", "lemmaUrl": "http://baike.baidu.com/item/%E8%B7%96%E9%AA%A8%E9%AA%A8%E6%8A%98/3580807", "lemmaPic": []}, {"lemmaId": 5124959, "lemmaTitle": "阿米巴肠病", "lemmaCroppedTitle": "阿米巴肠病", "lemmaDesc": "阿米巴肠病是由于溶组织阿米巴（痢疾阿米巴）寄生于结肠内，引起阿米巴痢疾或阿米巴结...", "lemmaUrl": "http://baike.baidu.com/item/%E9%98%BF%E7%B1%B3%E5%B7%B4%E8%82%A0%E7%97%85/5124959", "lemmaPic": []}, {"lemmaId": 10188573, "lemmaTitle": "马钱子中毒", "lemmaCroppedTitle": "马钱子中毒", "lemmaDesc": "马钱子为马钱科植物马钱或云南马钱的干燥成熟种子。冬季采收成熟果实，取出种子，晒干...", "lemmaUrl": "http://baike.baidu.com/item/%E9%A9%AC%E9%92%B1%E5%AD%90%E4%B8%AD%E6%AF%92/10188573", "lemmaPic": []}, {"lemmaId": 6283660, "lemmaTitle": "急性蜂窝织炎", "lemmaCroppedTitle": "急性蜂窝织炎", "lemmaDesc": "急性蜂窝织炎是皮下、筋膜下、肌间隙或深部疏松结缔组织的急性、弥漫性、化脓性感染。...", "lemmaUrl": "http://baike.baidu.com/item/%E6%80%A5%E6%80%A7%E8%9C%82%E7%AA%9D%E7%BB%87%E7%82%8E/6283660", "lemmaPic": []}, {"lemmaId": 10108621, "lemmaTitle": "平滑肌肉瘤", "lemmaCroppedTitle": "平滑肌肉瘤", "lemmaDesc": "平滑肌肉瘤是源于肠壁平滑肌、肠壁血管平滑肌或肠壁黏膜肌的恶性间叶组织肿瘤，占所有...", "lemmaUrl": "http://baike.baidu.com/item/%E5%B9%B3%E6%BB%91%E8%82%8C%E8%82%89%E7%98%A4/10108621", "lemmaPic": []}, {"lemmaId": 10031485, "lemmaTitle": "肝俞", "lemmaCroppedTitle": "肝俞", "lemmaDesc": "肝，肝脏；俞，输注；本穴为肝之背俞穴，故名。本穴归属于足太阳膀胱经，为足太阳膀胱...", "lemmaUrl": "http://baike.baidu.com/item/%E8%82%9D%E4%BF%9E/10031485", "lemmaPic": []}, {"lemmaId": 10820483, "lemmaTitle": "偏执症", "lemmaCroppedTitle": "偏执症", "lemmaDesc": "精神偏执症这一名词已基本不用，但在临床中还会看到类似患者，这是从精神分裂症中分离...", "lemmaUrl": "http://baike.baidu.com/item/%E5%81%8F%E6%89%A7%E7%97%87/10820483", "lemmaPic": []}, {"lemmaId": 10975756, "lemmaTitle": "新生儿呼吸窘迫综合征", "lemmaCroppedTitle": "新生儿呼吸窘迫综合征", "lemmaDesc": "新生儿呼吸窘迫综合征，又称新生儿肺透明膜病。指新生儿出生后不久即出现进行性呼吸困...", "lemmaUrl": "http://baike.baidu.com/item/%E6%96%B0%E7%94%9F%E5%84%BF%E5%91%BC%E5%90%B8%E7%AA%98%E8%BF%AB%E7%BB%BC%E5%90%88%E5%BE%81/10975756", "lemmaPic": []}, {"lemmaId": 5021933, "lemmaTitle": "口腔黏膜白斑", "lemmaCroppedTitle": "口腔黏膜白斑", "lemmaDesc": "口腔黏膜白斑病是指发生于口腔、口唇等处黏膜的白色角化性疾病。口腔黏膜白斑病多见于...", "lemmaUrl": "http://baike.baidu.com/item/%E5%8F%A3%E8%85%94%E9%BB%8F%E8%86%9C%E7%99%BD%E6%96%91/5021933", "lemmaPic": []}, {"lemmaId": 1031087, "lemmaTitle": "腱鞘巨细胞瘤", "lemmaCroppedTitle": "腱鞘巨细胞瘤", "lemmaDesc": "腱鞘巨细胞瘤是指发生于手指和手部的坚实性无痛性肿块，肿块可侵袭邻近骨骼，足趾部少...", "lemmaUrl": "http://baike.baidu.com/item/%E8%85%B1%E9%9E%98%E5%B7%A8%E7%BB%86%E8%83%9E%E7%98%A4/1031087", "lemmaPic": []}, {"lemmaId": 10430220, "lemmaTitle": "慢性便秘", "lemmaCroppedTitle": "慢性便秘", "lemmaDesc": "慢性便秘表现为排便次数减少、粪便干硬和（或）排便困难。患者每周排便少于3次，排便...", "lemmaUrl": "http://baike.baidu.com/item/%E6%85%A2%E6%80%A7%E4%BE%BF%E7%A7%98/10430220", "lemmaPic": []}, {"lemmaId": 5278808, "lemmaTitle": "早产儿视网膜病变", "lemmaCroppedTitle": "早产儿视网膜病变", "lemmaDesc": "早产儿视网膜病变（ROP）是指在孕36周以下、低出生体重、长时间吸氧的早产儿，其...", "lemmaUrl": "http://baike.baidu.com/item/%E6%97%A9%E4%BA%A7%E5%84%BF%E8%A7%86%E7%BD%91%E8%86%9C%E7%97%85%E5%8F%98/5278808", "lemmaPic": []}, {"lemmaId": 2255692, "lemmaTitle": "衣原体肺炎", "lemmaCroppedTitle": "衣原体肺炎", "lemmaDesc": "肺炎衣原体为新发现的一种衣原体，主要引起呼吸道和肺部感染。1986年Grayet...", "lemmaUrl": "http://baike.baidu.com/item/%E8%A1%A3%E5%8E%9F%E4%BD%93%E8%82%BA%E7%82%8E/2255692", "lemmaPic": []}, {"lemmaId": 626506, "lemmaTitle": "肾钙乳症", "lemmaCroppedTitle": "肾钙乳症", "lemmaDesc": "肾钙乳症是指肾盏憩室内含钙微粒组成的混悬液，实际上是一种特殊类型的尿石症。由于重...", "lemmaUrl": "http://baike.baidu.com/item/%E8%82%BE%E9%92%99%E4%B9%B3%E7%97%87/626506", "lemmaPic": []}, {"lemmaId": 5124773, "lemmaTitle": "慢性溃疡性结肠炎", "lemmaCroppedTitle": "慢性溃疡性结肠炎", "lemmaDesc": "慢性溃疡性结肠炎是一种结、直肠黏膜的弥漫性炎症，其临床特点为原因不明的、时好时坏...", "lemmaUrl": "http://baike.baidu.com/item/%E6%85%A2%E6%80%A7%E6%BA%83%E7%96%A1%E6%80%A7%E7%BB%93%E8%82%A0%E7%82%8E/5124773", "lemmaPic": []}, {"lemmaId": 4448034, "lemmaTitle": "面部整形", "lemmaCroppedTitle": "面部整形", "lemmaDesc": "面部整形是通过美容手术来修整、重塑脸型的有效手段。和谐的面部轮廓不仅是美丽面庞的...", "lemmaUrl": "http://baike.baidu.com/item/%E9%9D%A2%E9%83%A8%E6%95%B4%E5%BD%A2/4448034", "lemmaPic": {"width": 408, "height": 300, "url": "https://gss3.bdstatic.com/7Po3dSag_xI4khGkpoWK1HF6hhy/baike/w%3D168/sign=2bb6f63495dda144da0968b48ab7d009/cf1b9d16fdfaaf51d4bfd3988e5494eef01f7abc.jpg"}}, {"lemmaId": 538260, "lemmaTitle": "半乳糖血症", "lemmaCroppedTitle": "半乳糖血症", "lemmaDesc": "半乳糖血症为血半乳糖增高的中毒性临床代谢综合征。半乳糖代谢中有3种相关酶中的任何...", "lemmaUrl": "http://baike.baidu.com/item/%E5%8D%8A%E4%B9%B3%E7%B3%96%E8%A1%80%E7%97%87/538260", "lemmaPic": []}, {"lemmaId": 2602050, "lemmaTitle": "扁桃体周围脓肿", "lemmaCroppedTitle": "扁桃体周围脓肿", "lemmaDesc": "扁桃体周围脓肿为扁桃体周围组织间隙的化脓性炎症，是急性扁桃体炎的并发症之一。多发...", "lemmaUrl": "http://baike.baidu.com/item/%E6%89%81%E6%A1%83%E4%BD%93%E5%91%A8%E5%9B%B4%E8%84%93%E8%82%BF/2602050", "lemmaPic": []}, {"lemmaId": 8712664, "lemmaTitle": "脊髓小脑性共济失调", "lemmaCroppedTitle": "脊髓小脑性共济失调", "lemmaDesc": "脊髓小脑性共济失调是遗传性共济失调的主要类型。其共同特征是中年发病，常染色体显性...", "lemmaUrl": "http://baike.baidu.com/item/%E8%84%8A%E9%AB%93%E5%B0%8F%E8%84%91%E6%80%A7%E5%85%B1%E6%B5%8E%E5%A4%B1%E8%B0%83/8712664", "lemmaPic": []}, {"lemmaId": 5243700, "lemmaTitle": "输卵管妊娠", "lemmaCroppedTitle": "输卵管妊娠", "lemmaDesc": "输卵管妊娠是最常见的异位妊娠，即受精卵种植于输卵管。以壶腹部妊娠为最多，占50%...", "lemmaUrl": "http://baike.baidu.com/item/%E8%BE%93%E5%8D%B5%E7%AE%A1%E5%A6%8A%E5%A8%A0/5243700", "lemmaPic": []}, {"lemmaId": 5368286, "lemmaTitle": "股骨头骨折", "lemmaCroppedTitle": "股骨头骨折", "lemmaDesc": "股骨头骨折多因较强的间接暴力所致，可以单独发生，但更多的是合并于髋关节脱位。髋关...", "lemmaUrl": "http://baike.baidu.com/item/%E8%82%A1%E9%AA%A8%E5%A4%B4%E9%AA%A8%E6%8A%98/5368286", "lemmaPic": []}, {"lemmaId": 923556, "lemmaTitle": "睑板腺囊肿", "lemmaCroppedTitle": "睑板腺囊肿", "lemmaDesc": "睑板腺囊肿是睑板腺特发性无菌性慢性肉芽肿性炎症，以往称为霰粒肿。常为睑板腺及其周...", "lemmaUrl": "http://baike.baidu.com/item/%E7%9D%91%E6%9D%BF%E8%85%BA%E5%9B%8A%E8%82%BF/923556", "lemmaPic": []}, {"lemmaId": 4255583, "lemmaTitle": "皮肤肿瘤", "lemmaCroppedTitle": "皮肤肿瘤", "lemmaDesc": "皮肤肿瘤是发生在皮肤的细胞增生性疾病，是一种常见病。发生于皮内或皮下组织的新生物...", "lemmaUrl": "http://baike.baidu.com/item/%E7%9A%AE%E8%82%A4%E8%82%BF%E7%98%A4/4255583", "lemmaPic": {"width": 340, "height": 173, "url": "https://gss3.bdstatic.com/7Po3dSag_xI4khGkpoWK1HF6hhy/baike/w%3D168/sign=d4d550fab74543a9f51bfeca26168a7b/6f061d950a7b02081c38b1ef62d9f2d3562cc8cf.jpg"}}, {"lemmaId": 6429547, "lemmaTitle": "妊娠痒疹", "lemmaCroppedTitle": "妊娠痒疹", "lemmaDesc": "孕妇在妊娠期间，尤其是妊娠早期，会出现全身或局部性皮肤瘙痒，程度有轻有重，严重时...", "lemmaUrl": "http://baike.baidu.com/item/%E5%A6%8A%E5%A8%A0%E7%97%92%E7%96%B9/6429547", "lemmaPic": []}, {"lemmaId": 10926360, "lemmaTitle": "痹证", "lemmaCroppedTitle": "痹证", "lemmaDesc": "“痹”有闭阻不通之义，因风、寒、湿、热等外邪侵袭人体，闭阻经络，气血不能畅行，引...", "lemmaUrl": "http://baike.baidu.com/item/%E7%97%B9%E8%AF%81/10926360", "lemmaPic": []}, {"lemmaId": 10352020, "lemmaTitle": "上皮内瘤变", "lemmaCroppedTitle": "上皮内瘤变", "lemmaDesc": "上皮内瘤变又称上皮内瘤（IN），是目前临床病理诊断中常用的一种诊断术语，并且涵盖...", "lemmaUrl": "http://baike.baidu.com/item/%E4%B8%8A%E7%9A%AE%E5%86%85%E7%98%A4%E5%8F%98/10352020", "lemmaPic": []}, {"lemmaId": 9753174, "lemmaTitle": "十二指肠憩室", "lemmaCroppedTitle": "十二指肠憩室", "lemmaDesc": "十二指肠憩室主要是先天性发育不佳，造成十二指肠肠壁局限性向外呈囊状突出（原发性憩...", "lemmaUrl": "http://baike.baidu.com/item/%E5%8D%81%E4%BA%8C%E6%8C%87%E8%82%A0%E6%86%A9%E5%AE%A4/9753174", "lemmaPic": []}, {"lemmaId": 1982639, "lemmaTitle": "乳腺腺病", "lemmaCroppedTitle": "乳腺腺病", "lemmaDesc": "乳腺腺病是乳腺结构不良症的早期表现。其主要改变是乳腺的腺泡和小导管明显的局灶性增...", "lemmaUrl": "http://baike.baidu.com/item/%E4%B9%B3%E8%85%BA%E8%85%BA%E7%97%85/1982639", "lemmaPic": []}, {"lemmaId": 2174212, "lemmaTitle": "周围神经损伤", "lemmaCroppedTitle": "周围神经损伤", "lemmaDesc": "周围神经损伤的主要由于各种原因引起受该神经支配的区域出现感竟障碍、运动障碍和营养...", "lemmaUrl": "http://baike.baidu.com/item/%E5%91%A8%E5%9B%B4%E7%A5%9E%E7%BB%8F%E6%8D%9F%E4%BC%A4/2174212", "lemmaPic": []}, {"lemmaId": 3583465, "lemmaTitle": "软骨肉瘤", "lemmaCroppedTitle": "软骨肉瘤", "lemmaDesc": "软骨肉瘤是常见的恶性骨肿瘤之一，发生于髓腔者为中心型，发生于骨膜者为骨膜型，另有...", "lemmaUrl": "http://baike.baidu.com/item/%E8%BD%AF%E9%AA%A8%E8%82%89%E7%98%A4/3583465", "lemmaPic": []}, {"lemmaId": 10071139, "lemmaTitle": "cml", "lemmaCroppedTitle": "cml", "lemmaDesc": "慢性髓性白血病（CML）是骨髓造血干细胞克隆性增殖形成的恶性肿瘤，绝大多数患者缓...", "lemmaUrl": "http://baike.baidu.com/item/cml/10071139", "lemmaPic": []}, {"lemmaId": 1428640, "lemmaTitle": "小儿心肌炎", "lemmaCroppedTitle": "小儿心肌炎", "lemmaDesc": "心肌炎是儿童常见的心脏疾病，心肌炎是指心肌局灶性或弥漫性炎性病变，其特征为间质炎...", "lemmaUrl": "http://baike.baidu.com/item/%E5%B0%8F%E5%84%BF%E5%BF%83%E8%82%8C%E7%82%8E/1428640", "lemmaPic": []}, {"lemmaId": 10108606, "lemmaTitle": "平滑肌瘤", "lemmaCroppedTitle": "平滑肌瘤", "lemmaDesc": "平滑肌瘤是皮肤平滑肌细胞的良性肿瘤。可由血管平滑肌、立毛肌及乳房或阴囊的平滑肌发...", "lemmaUrl": "http://baike.baidu.com/item/%E5%B9%B3%E6%BB%91%E8%82%8C%E7%98%A4/10108606", "lemmaPic": []}, {"lemmaId": 2126230, "lemmaTitle": "血管脂肪瘤", "lemmaCroppedTitle": "血管脂肪瘤", "lemmaDesc": "血管脂肪瘤为成熟的脂肪组织与异常增生活跃的血管组织混合形成的特殊类型的脂肪瘤。多...", "lemmaUrl": "http://baike.baidu.com/item/%E8%A1%80%E7%AE%A1%E8%84%82%E8%82%AA%E7%98%A4/2126230", "lemmaPic": []}, {"lemmaId": 3020981, "lemmaTitle": "早期乳腺癌", "lemmaCroppedTitle": "早期乳腺癌", "lemmaDesc": "早期乳腺癌在英文中称为early breast cancer 或early-st...", "lemmaUrl": "http://baike.baidu.com/item/%E6%97%A9%E6%9C%9F%E4%B9%B3%E8%85%BA%E7%99%8C/3020981", "lemmaPic": []}], "total": 7246, "totalPage": 73, "page": 19, "fromLemma": 0}