{"lemmaList": [{"lemmaId": 10342048, "lemmaTitle": "男性乳腺发育症", "lemmaCroppedTitle": "男性乳腺发育症", "lemmaDesc": "男性乳腺发育症是常见的临床疾病。一般认为男性除了3种情况：新生儿的一过性乳腺增生...", "lemmaUrl": "http://baike.baidu.com/item/%E7%94%B7%E6%80%A7%E4%B9%B3%E8%85%BA%E5%8F%91%E8%82%B2%E7%97%87/10342048", "lemmaPic": []}, {"lemmaId": 5803953, "lemmaTitle": "黄体囊肿", "lemmaCroppedTitle": "黄体囊肿", "lemmaDesc": "正常黄体是囊性结构，可使卵巢略增大。若囊性黄体持续存在或增长，或黄体血肿含血量较...", "lemmaUrl": "http://baike.baidu.com/item/%E9%BB%84%E4%BD%93%E5%9B%8A%E8%82%BF/5803953", "lemmaPic": []}, {"lemmaId": 6517850, "lemmaTitle": "无脑儿", "lemmaCroppedTitle": "无脑儿", "lemmaDesc": "无脑儿是神经管畸形的一种。无脑畸形：为大脑完全缺失，且头皮、颅盖骨也缺失，仅有基...", "lemmaUrl": "http://baike.baidu.com/item/%E6%97%A0%E8%84%91%E5%84%BF/6517850", "lemmaPic": []}, {"lemmaId": 2228647, "lemmaTitle": "筛窦炎", "lemmaCroppedTitle": "筛窦炎", "lemmaDesc": "筛窦炎可分为急性和慢性。急性筛窦炎为急性化脓性鼻窦炎，即鼻窦黏膜的一种急性化脓性...", "lemmaUrl": "http://baike.baidu.com/item/%E7%AD%9B%E7%AA%A6%E7%82%8E/2228647", "lemmaPic": []}, {"lemmaId": 1260445, "lemmaTitle": "眼底动脉硬化", "lemmaCroppedTitle": "眼底动脉硬化", "lemmaDesc": "动脉硬化一般包括老年性动脉硬化、动脉粥样硬化、小动脉硬化等。眼底所见的视网膜动脉...", "lemmaUrl": "http://baike.baidu.com/item/%E7%9C%BC%E5%BA%95%E5%8A%A8%E8%84%89%E7%A1%AC%E5%8C%96/1260445", "lemmaPic": []}, {"lemmaId": 6142801, "lemmaTitle": "神经根型颈椎病", "lemmaCroppedTitle": "神经根型颈椎病", "lemmaDesc": "因单侧或双侧脊神经根受刺激或受压所致，其表现为与脊神经根分布区相一致的感觉、运动...", "lemmaUrl": "http://baike.baidu.com/item/%E7%A5%9E%E7%BB%8F%E6%A0%B9%E5%9E%8B%E9%A2%88%E6%A4%8E%E7%97%85/6142801", "lemmaPic": []}, {"lemmaId": 8087133, "lemmaTitle": "急性单纯性胃炎", "lemmaCroppedTitle": "急性单纯性胃炎", "lemmaDesc": "急性单纯性胃炎指各种外在和内在因素引起的急性广泛性或局限性的胃黏膜急性炎症。急性...", "lemmaUrl": "http://baike.baidu.com/item/%E6%80%A5%E6%80%A7%E5%8D%95%E7%BA%AF%E6%80%A7%E8%83%83%E7%82%8E/8087133", "lemmaPic": []}, {"lemmaId": 9767913, "lemmaTitle": "睾丸扭转", "lemmaCroppedTitle": "睾丸扭转", "lemmaDesc": "睾丸通过睾丸系膜与阴囊相连，由睾丸系膜将睾丸固定于阴囊。有的胎儿在发育时会产生一...", "lemmaUrl": "http://baike.baidu.com/item/%E7%9D%BE%E4%B8%B8%E6%89%AD%E8%BD%AC/9767913", "lemmaPic": []}, {"lemmaId": 8435499, "lemmaTitle": "脊髓损伤", "lemmaCroppedTitle": "脊髓损伤", "lemmaDesc": "随着世界各国经济水平的发展，脊髓损伤发生率呈现逐年增高的趋势。脊髓损伤是脊柱损伤...", "lemmaUrl": "http://baike.baidu.com/item/%E8%84%8A%E9%AB%93%E6%8D%9F%E4%BC%A4/8435499", "lemmaPic": []}, {"lemmaId": 1384336, "lemmaTitle": "骨肿瘤", "lemmaCroppedTitle": "骨肿瘤", "lemmaDesc": "骨肿瘤是发生于骨骼或其附属组织的肿瘤。有良性，恶性之分，良性骨肿瘤易根治，预后良...", "lemmaUrl": "http://baike.baidu.com/item/%E9%AA%A8%E8%82%BF%E7%98%A4/1384336", "lemmaPic": []}, {"lemmaId": 5317304, "lemmaTitle": "多发性末梢神经炎", "lemmaCroppedTitle": "多发性末梢神经炎", "lemmaDesc": "多发性末梢神经炎是由多种原因如中毒、营养代谢障碍、感染、过敏、变态反应等引起的多...", "lemmaUrl": "http://baike.baidu.com/item/%E5%A4%9A%E5%8F%91%E6%80%A7%E6%9C%AB%E6%A2%A2%E7%A5%9E%E7%BB%8F%E7%82%8E/5317304", "lemmaPic": []}, {"lemmaId": 814463, "lemmaTitle": "唇疱疹", "lemmaCroppedTitle": "唇疱疹", "lemmaDesc": "唇疱疹由单纯疱疹病毒所引起的一种急性疱疹性皮肤病。人是单纯疱疹病毒惟一的自然宿主...", "lemmaUrl": "http://baike.baidu.com/item/%E5%94%87%E7%96%B1%E7%96%B9/814463", "lemmaPic": []}, {"lemmaId": 2830923, "lemmaTitle": "外耳道炎", "lemmaCroppedTitle": "外耳道炎", "lemmaDesc": "\n\t\t\t    \n\t\t\t    外耳道炎[]通常是指弥漫性外耳道炎，而局限性外耳...", "lemmaUrl": "http://baike.baidu.com/item/%E5%A4%96%E8%80%B3%E9%81%93%E7%82%8E/2830923", "lemmaPic": []}, {"lemmaId": 4957928, "lemmaTitle": "子宫纵隔", "lemmaCroppedTitle": "子宫纵隔", "lemmaDesc": "子宫纵隔是子宫先天发育过程中，腔化不全的表现，表现为宫底有一个结缔组织为主的脊突...", "lemmaUrl": "http://baike.baidu.com/item/%E5%AD%90%E5%AE%AB%E7%BA%B5%E9%9A%94/4957928", "lemmaPic": []}, {"lemmaId": 1612312, "lemmaTitle": "一期梅毒", "lemmaCroppedTitle": "一期梅毒", "lemmaDesc": "梅毒是由梅毒螺旋体（TP）引起的一种慢性传染病，主要通过性接触和血液传播。本病危...", "lemmaUrl": "http://baike.baidu.com/item/%E4%B8%80%E6%9C%9F%E6%A2%85%E6%AF%92/1612312", "lemmaPic": []}, {"lemmaId": 5358558, "lemmaTitle": "小儿支气管哮喘", "lemmaCroppedTitle": "小儿支气管哮喘", "lemmaDesc": "支气管哮喘是一种以慢性气道炎症为特征的异质性疾病；具有喘息、气促、胸闷和咳嗽的呼...", "lemmaUrl": "http://baike.baidu.com/item/%E5%B0%8F%E5%84%BF%E6%94%AF%E6%B0%94%E7%AE%A1%E5%93%AE%E5%96%98/5358558", "lemmaPic": []}, {"lemmaId": 2750061, "lemmaTitle": "原发性醛固酮增多症", "lemmaCroppedTitle": "原发性醛固酮增多症", "lemmaDesc": "原醛症指肾上腺皮质分泌过量醛固酮，导致体内潴钠、排钾、血容量增多、肾素-血管紧张...", "lemmaUrl": "http://baike.baidu.com/item/%E5%8E%9F%E5%8F%91%E6%80%A7%E9%86%9B%E5%9B%BA%E9%85%AE%E5%A2%9E%E5%A4%9A%E7%97%87/2750061", "lemmaPic": []}, {"lemmaId": 5243540, "lemmaTitle": "肛乳头瘤", "lemmaCroppedTitle": "肛乳头瘤", "lemmaDesc": "肛乳头瘤是指肛乳头因粪便和慢性炎症的长期刺激增大变硬，是肛门直肠常见的良性肿瘤之...", "lemmaUrl": "http://baike.baidu.com/item/%E8%82%9B%E4%B9%B3%E5%A4%B4%E7%98%A4/5243540", "lemmaPic": {"width": 200, "height": 157, "url": "https://gss2.bdstatic.com/9fo3dSag_xI4khGkpoWK1HF6hhy/baike/w%3D168/sign=52f6f0414c086e066aa83b4d3a097b5a/0df3d7ca7bcb0a461870e7496b63f6246b60af74.jpg"}}, {"lemmaId": 938314, "lemmaTitle": "隐翅虫皮炎", "lemmaCroppedTitle": "隐翅虫皮炎", "lemmaDesc": "隐翅虫皮炎是由于皮肤接触隐翅虫毒液所引起的急性炎症反应。毒隐翅虫为蚁形甲虫，体长...", "lemmaUrl": "http://baike.baidu.com/item/%E9%9A%90%E7%BF%85%E8%99%AB%E7%9A%AE%E7%82%8E/938314", "lemmaPic": []}, {"lemmaId": 9425293, "lemmaTitle": "小儿肠炎", "lemmaCroppedTitle": "小儿肠炎", "lemmaDesc": "小儿肠炎又称为小儿感染性腹泻病，一般指由于微生物感染而导致小肠及结肠的炎症。最主...", "lemmaUrl": "http://baike.baidu.com/item/%E5%B0%8F%E5%84%BF%E8%82%A0%E7%82%8E/9425293", "lemmaPic": []}, {"lemmaId": 3473018, "lemmaTitle": "儿童多动症", "lemmaCroppedTitle": "儿童多动症", "lemmaDesc": "儿童多动症（简称多动症），又称注意缺陷多动障碍（ADHD）。是一种常见的儿童行为...", "lemmaUrl": "http://baike.baidu.com/item/%E5%84%BF%E7%AB%A5%E5%A4%9A%E5%8A%A8%E7%97%87/3473018", "lemmaPic": []}, {"lemmaId": 5846459, "lemmaTitle": "咖啡斑", "lemmaCroppedTitle": "咖啡斑", "lemmaDesc": "咖啡斑又称咖啡牛奶斑，颜色类似咖啡与牛奶混合后的颜色，是较为常见的色素沉着性皮肤...", "lemmaUrl": "http://baike.baidu.com/item/%E5%92%96%E5%95%A1%E6%96%91/5846459", "lemmaPic": {"width": 518, "height": 461, "url": "https://gss1.bdstatic.com/-vo3dSag_xI4khGkpoWK1HF6hhy/baike/w%3D168/sign=e4a7a14d304e251fe2f7e0fe9f87c9c2/50da81cb39dbb6fdf7f5e6510924ab18972b371e.jpg"}}, {"lemmaId": 5521089, "lemmaTitle": "戊型病毒性肝炎", "lemmaCroppedTitle": "戊型病毒性肝炎", "lemmaDesc": "本病主要见于亚洲和非洲的一些发展中国家。一般在发达国家以散发病例为主，发展中国家...", "lemmaUrl": "http://baike.baidu.com/item/%E6%88%8A%E5%9E%8B%E7%97%85%E6%AF%92%E6%80%A7%E8%82%9D%E7%82%8E/5521089", "lemmaPic": []}, {"lemmaId": 466861, "lemmaTitle": "心功能不全", "lemmaCroppedTitle": "心功能不全", "lemmaDesc": "心功能不全是由于各种原因造成心肌的收缩功能下降，使心脏前向性排血减少，造成血液淤...", "lemmaUrl": "http://baike.baidu.com/item/%E5%BF%83%E5%8A%9F%E8%83%BD%E4%B8%8D%E5%85%A8/466861", "lemmaPic": []}, {"lemmaId": 3642360, "lemmaTitle": "妄想型精神分裂症", "lemmaCroppedTitle": "妄想型精神分裂症", "lemmaDesc": "妄想型精神分裂症是精神分裂症中最常见的一种。约有半数的精神分裂症患者是被诊断为妄...", "lemmaUrl": "http://baike.baidu.com/item/%E5%A6%84%E6%83%B3%E5%9E%8B%E7%B2%BE%E7%A5%9E%E5%88%86%E8%A3%82%E7%97%87/3642360", "lemmaPic": []}, {"lemmaId": 6483210, "lemmaTitle": "手部湿疹", "lemmaCroppedTitle": "手部湿疹", "lemmaDesc": "手部湿疹是由于接触外界各种刺激物质引起的手部皮肤炎症反应，一般较难确定病因。多数...", "lemmaUrl": "http://baike.baidu.com/item/%E6%89%8B%E9%83%A8%E6%B9%BF%E7%96%B9/6483210", "lemmaPic": []}, {"lemmaId": 1178811, "lemmaTitle": "慢阻肺", "lemmaCroppedTitle": "慢阻肺", "lemmaDesc": "慢阻肺即慢性阻塞性肺疾病，以不完全可逆的气流受限为特点。慢阻肺气流受限常呈进行性...", "lemmaUrl": "http://baike.baidu.com/item/%E6%85%A2%E9%98%BB%E8%82%BA/1178811", "lemmaPic": []}, {"lemmaId": 5244555, "lemmaTitle": "男性更年期综合症", "lemmaCroppedTitle": "男性更年期综合症", "lemmaDesc": "“男性更年期综合症”应为“男性更年期综合征”，是由于睾丸的萎缩，睾丸酮的分泌减少...", "lemmaUrl": "http://baike.baidu.com/item/%E7%94%B7%E6%80%A7%E6%9B%B4%E5%B9%B4%E6%9C%9F%E7%BB%BC%E5%90%88%E7%97%87/5244555", "lemmaPic": []}, {"lemmaId": 10424098, "lemmaTitle": "尿布疹", "lemmaCroppedTitle": "尿布疹", "lemmaDesc": "婴儿臀部长时间浸泡在尿液中或裹湿尿布，皮肤受到尿液刺激，臀部会出现红色的小疹子或...", "lemmaUrl": "http://baike.baidu.com/item/%E5%B0%BF%E5%B8%83%E7%96%B9/10424098", "lemmaPic": []}, {"lemmaId": 10123533, "lemmaTitle": "外耳道疖肿", "lemmaCroppedTitle": "外耳道疖肿", "lemmaDesc": "外耳道疖肿是外耳道皮肤急性局限性化脓性病变，又称局限性外耳道炎。发生于外耳道软骨...", "lemmaUrl": "http://baike.baidu.com/item/%E5%A4%96%E8%80%B3%E9%81%93%E7%96%96%E8%82%BF/10123533", "lemmaPic": []}, {"lemmaId": 3724072, "lemmaTitle": "钩端螺旋体病", "lemmaCroppedTitle": "钩端螺旋体病", "lemmaDesc": "钩端螺旋体病（简称钩体病）是由各种不同型别的致病性钩端螺旋体（简称钩体）所引起的...", "lemmaUrl": "http://baike.baidu.com/item/%E9%92%A9%E7%AB%AF%E8%9E%BA%E6%97%8B%E4%BD%93%E7%97%85/3724072", "lemmaPic": []}, {"lemmaId": 5332521, "lemmaTitle": "慢性中耳炎", "lemmaCroppedTitle": "慢性中耳炎", "lemmaDesc": "慢性化脓性中耳炎是中耳黏膜、骨膜或深达骨质的慢性化脓性炎症，常与慢性乳突炎合并存...", "lemmaUrl": "http://baike.baidu.com/item/%E6%85%A2%E6%80%A7%E4%B8%AD%E8%80%B3%E7%82%8E/5332521", "lemmaPic": []}, {"lemmaId": 9199378, "lemmaTitle": "晚睡强迫症", "lemmaCroppedTitle": "晚睡强迫症", "lemmaDesc": "晚睡强迫症，就是患者能自己意识到该睡觉了，但就是不想睡，现在很多人都有晚睡强迫症...", "lemmaUrl": "http://baike.baidu.com/item/%E6%99%9A%E7%9D%A1%E5%BC%BA%E8%BF%AB%E7%97%87/9199378", "lemmaPic": []}, {"lemmaId": 2651641, "lemmaTitle": "产褥期", "lemmaCroppedTitle": "产褥期", "lemmaDesc": "产褥期（传统的“坐月子”只是产褥期的前30天）是指胎儿、胎盘娩出后的产妇身体、生...", "lemmaUrl": "http://baike.baidu.com/item/%E4%BA%A7%E8%A4%A5%E6%9C%9F/2651641", "lemmaPic": []}, {"lemmaId": 379609, "lemmaTitle": "黄疸型肝炎", "lemmaCroppedTitle": "黄疸型肝炎", "lemmaDesc": "各种病因引起的肝炎，同时伴有皮肤黏膜黄染，血清胆红素超过17.1μmol/L者称...", "lemmaUrl": "http://baike.baidu.com/item/%E9%BB%84%E7%96%B8%E5%9E%8B%E8%82%9D%E7%82%8E/379609", "lemmaPic": []}, {"lemmaId": 7534681, "lemmaTitle": "儿童白血病", "lemmaCroppedTitle": "儿童白血病", "lemmaDesc": "白血病是造血系统的恶性增殖性疾病，是严重威胁小儿生命和健康的疾病之一。小儿时期发...", "lemmaUrl": "http://baike.baidu.com/item/%E5%84%BF%E7%AB%A5%E7%99%BD%E8%A1%80%E7%97%85/7534681", "lemmaPic": []}, {"lemmaId": 244489, "lemmaTitle": "乳腺肿块", "lemmaCroppedTitle": "乳腺肿块", "lemmaDesc": "乳腺肿块是乳房疾病的常见体征。女性的乳房本身就是凹凸不平的，许多妇女自己发现的肿...", "lemmaUrl": "http://baike.baidu.com/item/%E4%B9%B3%E8%85%BA%E8%82%BF%E5%9D%97/244489", "lemmaPic": {"width": 258, "height": 363, "url": "https://gss0.bdstatic.com/-4o3dSag_xI4khGkpoWK1HF6hhy/baike/w%3D168/sign=066313f32e738bd4c421b637998a876c/279759ee3d6d55fb6e2c1a086d224f4a20a4dd32.jpg"}}, {"lemmaId": 2571999, "lemmaTitle": "副鼻窦炎", "lemmaCroppedTitle": "副鼻窦炎", "lemmaDesc": "副鼻窦炎包括急性副鼻窦炎和慢性副鼻窦炎。鼻窦炎也称作副鼻窦炎，为鼻科常见疾病，慢...", "lemmaUrl": "http://baike.baidu.com/item/%E5%89%AF%E9%BC%BB%E7%AA%A6%E7%82%8E/2571999", "lemmaPic": []}, {"lemmaId": 12428402, "lemmaTitle": "肾、输尿管结石", "lemmaCroppedTitle": "肾、输尿管结石", "lemmaDesc": "肾、输尿管结石，又称为上尿路结石，多发生于中壮年，男、女比例为3～9∶1，左右侧...", "lemmaUrl": "http://baike.baidu.com/item/%E8%82%BE%E3%80%81%E8%BE%93%E5%B0%BF%E7%AE%A1%E7%BB%93%E7%9F%B3/12428402", "lemmaPic": []}, {"lemmaId": 2828039, "lemmaTitle": "新生儿缺氧缺血性脑病", "lemmaCroppedTitle": "新生儿缺氧缺血性脑病", "lemmaDesc": "新生儿缺氧缺血性脑病（HIE）是指在围产期窒息而导致脑的缺氧缺血性损害。HIE的...", "lemmaUrl": "http://baike.baidu.com/item/%E6%96%B0%E7%94%9F%E5%84%BF%E7%BC%BA%E6%B0%A7%E7%BC%BA%E8%A1%80%E6%80%A7%E8%84%91%E7%97%85/2828039", "lemmaPic": []}, {"lemmaId": 2322361, "lemmaTitle": "肺不张", "lemmaCroppedTitle": "肺不张", "lemmaDesc": "肺不张系指一个或多个肺段或肺叶的容量或含气量减少。由于肺泡内气体吸收，肺不张通常...", "lemmaUrl": "http://baike.baidu.com/item/%E8%82%BA%E4%B8%8D%E5%BC%A0/2322361", "lemmaPic": []}, {"lemmaId": 2286989, "lemmaTitle": "子宫肥大", "lemmaCroppedTitle": "子宫肥大", "lemmaDesc": "子宫肥大，是指子宫均匀增大，本病的基本病理改变是子宫肌层内平滑肌细胞及血管壁的变...", "lemmaUrl": "http://baike.baidu.com/item/%E5%AD%90%E5%AE%AB%E8%82%A5%E5%A4%A7/2286989", "lemmaPic": []}, {"lemmaId": 2464296, "lemmaTitle": "主动脉硬化", "lemmaCroppedTitle": "主动脉硬化", "lemmaDesc": "动脉硬化是动脉的一种非炎症性病变，可使动脉管壁增厚、变硬，失去弹性、管腔狭窄。动...", "lemmaUrl": "http://baike.baidu.com/item/%E4%B8%BB%E5%8A%A8%E8%84%89%E7%A1%AC%E5%8C%96/2464296", "lemmaPic": []}, {"lemmaId": 1626920, "lemmaTitle": "吞咽困难", "lemmaCroppedTitle": "吞咽困难", "lemmaDesc": "吞咽困难是指食物从口腔至胃、贲门运送过程中受阻而产生咽部、胸骨后或食管部位的梗阻...", "lemmaUrl": "http://baike.baidu.com/item/%E5%90%9E%E5%92%BD%E5%9B%B0%E9%9A%BE/1626920", "lemmaPic": []}, {"lemmaId": 943087, "lemmaTitle": "黄水疮", "lemmaCroppedTitle": "黄水疮", "lemmaDesc": "黄水疮是一种常见的浅表性化脓性皮肤病，因其脓疱破后有黄水渗出而名，又称为滴脓疮、...", "lemmaUrl": "http://baike.baidu.com/item/%E9%BB%84%E6%B0%B4%E7%96%AE/943087", "lemmaPic": []}, {"lemmaId": 899443, "lemmaTitle": "脾功能亢进", "lemmaCroppedTitle": "脾功能亢进", "lemmaDesc": "脾功能亢进是一种综合征，引起脾大原因有多种，如：传染性单核细胞增多症、亚急性感染...", "lemmaUrl": "http://baike.baidu.com/item/%E8%84%BE%E5%8A%9F%E8%83%BD%E4%BA%A2%E8%BF%9B/899443", "lemmaPic": []}, {"lemmaId": 832036, "lemmaTitle": "肝脓肿", "lemmaCroppedTitle": "肝脓肿", "lemmaDesc": "肝脓肿是细菌、真菌或溶组织阿米巴原虫等多种微生物引起的肝脏化脓性病变，若不积极治...", "lemmaUrl": "http://baike.baidu.com/item/%E8%82%9D%E8%84%93%E8%82%BF/832036", "lemmaPic": []}, {"lemmaId": 2826775, "lemmaTitle": "意识障碍", "lemmaCroppedTitle": "意识障碍", "lemmaDesc": "意识是指个体对外界环境、自身状况以及它们相互联系的确认。意识活动包括觉醒和意识内...", "lemmaUrl": "http://baike.baidu.com/item/%E6%84%8F%E8%AF%86%E9%9A%9C%E7%A2%8D/2826775", "lemmaPic": []}, {"lemmaId": 1613018, "lemmaTitle": "间质瘤", "lemmaCroppedTitle": "间质瘤", "lemmaDesc": "间质瘤是起源于胃肠道壁的间叶性肿瘤，规范名称为胃肠道间质瘤（gastrointe...", "lemmaUrl": "http://baike.baidu.com/item/%E9%97%B4%E8%B4%A8%E7%98%A4/1613018", "lemmaPic": {"width": 140, "height": 102, "url": "https://gss3.bdstatic.com/7Po3dSag_xI4khGkpoWK1HF6hhy/baike/w%3D168/sign=b7f9b2f1c3fdfc03e578e7beec3f87a9/d01373f082025aafdb0a3ac4fbedab64034f1a80.jpg"}}, {"lemmaId": 619921, "lemmaTitle": "眼球震颤", "lemmaCroppedTitle": "眼球震颤", "lemmaDesc": "眼球震颤（nystagmus；NY）是一种不自主、有节律性、往返摆动的眼球运动。...", "lemmaUrl": "http://baike.baidu.com/item/%E7%9C%BC%E7%90%83%E9%9C%87%E9%A2%A4/619921", "lemmaPic": []}, {"lemmaId": 7584022, "lemmaTitle": "幽门螺杆菌感染", "lemmaCroppedTitle": "幽门螺杆菌感染", "lemmaDesc": "幽门螺杆菌（Hp）。首先由巴里・马歇尔（Barry J. Marshall）和罗...", "lemmaUrl": "http://baike.baidu.com/item/%E5%B9%BD%E9%97%A8%E8%9E%BA%E6%9D%86%E8%8F%8C%E6%84%9F%E6%9F%93/7584022", "lemmaPic": []}, {"lemmaId": 544997, "lemmaTitle": "冻伤", "lemmaCroppedTitle": "冻伤", "lemmaDesc": "冻伤是由于寒冷潮湿作用引起的人体局部或全身损伤。轻时可造成皮肤一过性损伤，要及时...", "lemmaUrl": "http://baike.baidu.com/item/%E5%86%BB%E4%BC%A4/544997", "lemmaPic": []}, {"lemmaId": 2321051, "lemmaTitle": "主动脉瓣关闭不全", "lemmaCroppedTitle": "主动脉瓣关闭不全", "lemmaDesc": "主动脉瓣位于左心室和主动脉的连接处，当左心室收缩时，主动脉瓣开放，血液经过主动脉...", "lemmaUrl": "http://baike.baidu.com/item/%E4%B8%BB%E5%8A%A8%E8%84%89%E7%93%A3%E5%85%B3%E9%97%AD%E4%B8%8D%E5%85%A8/2321051", "lemmaPic": []}, {"lemmaId": 6159898, "lemmaTitle": "早期复极综合征", "lemmaCroppedTitle": "早期复极综合征", "lemmaDesc": "早期复极综合征又称“提早复极综合征”，是心电复极异常的一种，为生理性心电图变异，...", "lemmaUrl": "http://baike.baidu.com/item/%E6%97%A9%E6%9C%9F%E5%A4%8D%E6%9E%81%E7%BB%BC%E5%90%88%E5%BE%81/6159898", "lemmaPic": []}, {"lemmaId": 1154939, "lemmaTitle": "胸锁乳突肌", "lemmaCroppedTitle": "胸锁乳突肌", "lemmaDesc": "胸锁乳突肌的胸骨头起自胸骨柄前面，锁骨头起自锁骨内1/3段上缘，两头间的三角形间...", "lemmaUrl": "http://baike.baidu.com/item/%E8%83%B8%E9%94%81%E4%B9%B3%E7%AA%81%E8%82%8C/1154939", "lemmaPic": {"width": 450, "height": 369, "url": "https://gss0.bdstatic.com/-4o3dSag_xI4khGkpoWK1HF6hhy/baike/w%3D168/sign=9cf9d833be315c6043956fe9b5b1cbe6/7e3e6709c93d70cf47c0de2bfadcd100baa12bd9.jpg"}}, {"lemmaId": 10207464, "lemmaTitle": "脑炎后遗症", "lemmaCroppedTitle": "脑炎后遗症", "lemmaDesc": "脑炎是脑实质炎性病变的总称，由不同病因（如病毒、细菌、真菌等）引起的一种严重的中...", "lemmaUrl": "http://baike.baidu.com/item/%E8%84%91%E7%82%8E%E5%90%8E%E9%81%97%E7%97%87/10207464", "lemmaPic": []}, {"lemmaId": 5243662, "lemmaTitle": "羊水过少", "lemmaCroppedTitle": "羊水过少", "lemmaDesc": "当羊水量&amp;lt;300ml时称为羊水过少，此为传统概念。但无论阴道分娩还...", "lemmaUrl": "http://baike.baidu.com/item/%E7%BE%8A%E6%B0%B4%E8%BF%87%E5%B0%91/5243662", "lemmaPic": []}, {"lemmaId": 10834648, "lemmaTitle": "乳房发育不良", "lemmaCroppedTitle": "乳房发育不良", "lemmaDesc": "乳房发育不良多为先天性疾患所引起，少数为后天因素所致如青春期束胸、胸部烧伤瘢痕挛...", "lemmaUrl": "http://baike.baidu.com/item/%E4%B9%B3%E6%88%BF%E5%8F%91%E8%82%B2%E4%B8%8D%E8%89%AF/10834648", "lemmaPic": []}, {"lemmaId": 4870640, "lemmaTitle": "维生素B1缺乏病", "lemmaCroppedTitle": "维生素B1缺乏病", "lemmaDesc": "维生素B1（硫胺素）缺乏病又称脚气病，是常见的营养素缺乏病之一。若以神经系统表现...", "lemmaUrl": "http://baike.baidu.com/item/%E7%BB%B4%E7%94%9F%E7%B4%A0B1%E7%BC%BA%E4%B9%8F%E7%97%85/4870640", "lemmaPic": []}, {"lemmaId": 7958639, "lemmaTitle": "心脏性猝死", "lemmaCroppedTitle": "心脏性猝死", "lemmaDesc": "心脏性猝死是指急性症状发作后1小时内发生的以意识突然丧失为特征的由心脏原因引起的...", "lemmaUrl": "http://baike.baidu.com/item/%E5%BF%83%E8%84%8F%E6%80%A7%E7%8C%9D%E6%AD%BB/7958639", "lemmaPic": []}, {"lemmaId": 7716311, "lemmaTitle": "外阴溃疡", "lemmaCroppedTitle": "外阴溃疡", "lemmaDesc": "外阴溃疡是发生于外阴部的皮肤黏膜发炎、溃烂、缺损。病灶多发生于小阴唇和大阴唇内侧...", "lemmaUrl": "http://baike.baidu.com/item/%E5%A4%96%E9%98%B4%E6%BA%83%E7%96%A1/7716311", "lemmaPic": []}, {"lemmaId": 8471171, "lemmaTitle": "创伤性关节炎", "lemmaCroppedTitle": "创伤性关节炎", "lemmaDesc": "创伤性关节炎又称外伤性关节炎、损伤性骨关节炎，它是由创伤引起的以关节软骨的退化变...", "lemmaUrl": "http://baike.baidu.com/item/%E5%88%9B%E4%BC%A4%E6%80%A7%E5%85%B3%E8%8A%82%E7%82%8E/8471171", "lemmaPic": []}, {"lemmaId": 6858878, "lemmaTitle": "成骨不全症", "lemmaCroppedTitle": "成骨不全症", "lemmaDesc": "成骨不全症，又称成骨不全、脆骨病、先天性发育不全、瓷娃娃、原发性骨脆症、骨膜发育...", "lemmaUrl": "http://baike.baidu.com/item/%E6%88%90%E9%AA%A8%E4%B8%8D%E5%85%A8%E7%97%87/6858878", "lemmaPic": []}, {"lemmaId": 4877263, "lemmaTitle": "真性红细胞增多症", "lemmaCroppedTitle": "真性红细胞增多症", "lemmaDesc": "真性红细胞增多症（PV）是一种造血干细胞的克隆性慢性骨髓增殖性疾病。PV起病隐袭...", "lemmaUrl": "http://baike.baidu.com/item/%E7%9C%9F%E6%80%A7%E7%BA%A2%E7%BB%86%E8%83%9E%E5%A2%9E%E5%A4%9A%E7%97%87/4877263", "lemmaPic": []}, {"lemmaId": 3063170, "lemmaTitle": "卡他性中耳炎", "lemmaCroppedTitle": "卡他性中耳炎", "lemmaDesc": "卡他性中耳炎，又叫分泌性中耳炎、渗出性中耳炎、浆液性中耳炎等，是因咽鼓管阻塞引起...", "lemmaUrl": "http://baike.baidu.com/item/%E5%8D%A1%E4%BB%96%E6%80%A7%E4%B8%AD%E8%80%B3%E7%82%8E/3063170", "lemmaPic": []}, {"lemmaId": 3439070, "lemmaTitle": "肩关节脱位", "lemmaCroppedTitle": "肩关节脱位", "lemmaDesc": "肩关节脱位最常见，约占全身关节脱位的50%，这与肩关节的解剖和生理特点有关，如肱...", "lemmaUrl": "http://baike.baidu.com/item/%E8%82%A9%E5%85%B3%E8%8A%82%E8%84%B1%E4%BD%8D/3439070", "lemmaPic": []}, {"lemmaId": 325659, "lemmaTitle": "前牙反牙合", "lemmaCroppedTitle": "前牙反牙合", "lemmaDesc": "上下牙弓近远中关系异常可表现为下颌前突，近中错牙合及前牙反牙合。多由于不良哺乳姿...", "lemmaUrl": "http://baike.baidu.com/item/%E5%89%8D%E7%89%99%E5%8F%8D%E7%89%99%E5%90%88/325659", "lemmaPic": []}, {"lemmaId": 7312593, "lemmaTitle": "被迫害妄想症", "lemmaCroppedTitle": "被迫害妄想症", "lemmaDesc": "被迫害妄想症是一种慢性进行且以有系统、有组织的妄想为主的疾病。盛行率估计值约0....", "lemmaUrl": "http://baike.baidu.com/item/%E8%A2%AB%E8%BF%AB%E5%AE%B3%E5%A6%84%E6%83%B3%E7%97%87/7312593", "lemmaPic": []}, {"lemmaId": 2367074, "lemmaTitle": "肾绞痛", "lemmaCroppedTitle": "肾绞痛", "lemmaDesc": "通常指由于泌尿系结石尤其是输尿管结石导致的突然发作的肾区剧烈疼痛，急性肾绞痛大多...", "lemmaUrl": "http://baike.baidu.com/item/%E8%82%BE%E7%BB%9E%E7%97%9B/2367074", "lemmaPic": []}, {"lemmaId": 3674467, "lemmaTitle": "咳嗽性哮喘", "lemmaCroppedTitle": "咳嗽性哮喘", "lemmaDesc": "咳嗽性哮喘（Cough Type Asthma）又称咳嗽变异性哮喘（Cough ...", "lemmaUrl": "http://baike.baidu.com/item/%E5%92%B3%E5%97%BD%E6%80%A7%E5%93%AE%E5%96%98/3674467", "lemmaPic": []}, {"lemmaId": 7715852, "lemmaTitle": "小儿贫血", "lemmaCroppedTitle": "小儿贫血", "lemmaDesc": "小儿贫血根据外周血血红蛋白量和红细胞数，将贫血分为轻、中、重、极重四度。根据红细...", "lemmaUrl": "http://baike.baidu.com/item/%E5%B0%8F%E5%84%BF%E8%B4%AB%E8%A1%80/7715852", "lemmaPic": []}, {"lemmaId": 6120963, "lemmaTitle": "急性肾衰竭", "lemmaCroppedTitle": "急性肾衰竭", "lemmaDesc": "急性肾衰竭（ARF）是指肾小球滤过率突然或持续下降，引起氮质废物体内储留，水、电...", "lemmaUrl": "http://baike.baidu.com/item/%E6%80%A5%E6%80%A7%E8%82%BE%E8%A1%B0%E7%AB%AD/6120963", "lemmaPic": []}, {"lemmaId": 7285449, "lemmaTitle": "男性乳腺癌", "lemmaCroppedTitle": "男性乳腺癌", "lemmaDesc": "男性乳腺癌是少见的恶性肿瘤，占男性全部癌肿的0.2%～1.5%，占乳腺癌的1%左...", "lemmaUrl": "http://baike.baidu.com/item/%E7%94%B7%E6%80%A7%E4%B9%B3%E8%85%BA%E7%99%8C/7285449", "lemmaPic": []}, {"lemmaId": 276843, "lemmaTitle": "智力障碍", "lemmaCroppedTitle": "智力障碍", "lemmaDesc": "智力障碍（MR）又称智力缺陷，一般指的是由于大脑受到器质性的损害或是由于脑发育不...", "lemmaUrl": "http://baike.baidu.com/item/%E6%99%BA%E5%8A%9B%E9%9A%9C%E7%A2%8D/276843", "lemmaPic": []}, {"lemmaId": 10702402, "lemmaTitle": "促卵泡生成素", "lemmaCroppedTitle": "促卵泡生成素", "lemmaDesc": "促卵泡生成素（FSH）又称卵泡刺激素，由脑垂体分泌，在男性，其功能是促进睾丸曲细...", "lemmaUrl": "http://baike.baidu.com/item/%E4%BF%83%E5%8D%B5%E6%B3%A1%E7%94%9F%E6%88%90%E7%B4%A0/10702402", "lemmaPic": []}, {"lemmaId": 1838371, "lemmaTitle": "隐匿性肾炎", "lemmaCroppedTitle": "隐匿性肾炎", "lemmaDesc": "隐匿性肾炎是隐匿性肾小球肾炎或隐匿性肾小球疾病的简称，临床上以轻度蛋白尿和（或）...", "lemmaUrl": "http://baike.baidu.com/item/%E9%9A%90%E5%8C%BF%E6%80%A7%E8%82%BE%E7%82%8E/1838371", "lemmaPic": []}, {"lemmaId": 1348288, "lemmaTitle": "急腹症", "lemmaCroppedTitle": "急腹症", "lemmaDesc": "急腹症是指腹腔内、盆腔和腹膜后组织和脏器发生了急剧的病理变化，从而产生以腹部为主...", "lemmaUrl": "http://baike.baidu.com/item/%E6%80%A5%E8%85%B9%E7%97%87/1348288", "lemmaPic": []}, {"lemmaId": 1781676, "lemmaTitle": "眼球突出", "lemmaCroppedTitle": "眼球突出", "lemmaDesc": "眼眶的炎症，水肿，肿瘤或外伤，海绵窦血栓形成或眼球增大（如先天性青光眼和单侧高度...", "lemmaUrl": "http://baike.baidu.com/item/%E7%9C%BC%E7%90%83%E7%AA%81%E5%87%BA/1781676", "lemmaPic": []}, {"lemmaId": 3371121, "lemmaTitle": "踝关节扭伤", "lemmaCroppedTitle": "踝关节扭伤", "lemmaDesc": "踝关节扭伤是临床常见的疾病，在关节及韧带损伤中是发病率最高的疾病。踝关节是人体距...", "lemmaUrl": "http://baike.baidu.com/item/%E8%B8%9D%E5%85%B3%E8%8A%82%E6%89%AD%E4%BC%A4/3371121", "lemmaPic": []}, {"lemmaId": 4885454, "lemmaTitle": "毛囊角化病", "lemmaCroppedTitle": "毛囊角化病", "lemmaDesc": "又称假性毛囊角化不良病。1889年首先由Darier命名，故又称达里埃病。本病是...", "lemmaUrl": "http://baike.baidu.com/item/%E6%AF%9B%E5%9B%8A%E8%A7%92%E5%8C%96%E7%97%85/4885454", "lemmaPic": []}, {"lemmaId": 9768056, "lemmaTitle": "衣原体感染症", "lemmaCroppedTitle": "衣原体感染症", "lemmaDesc": "衣原体是一组极小的，非运动性的，专在细胞内生长的微生物。衣原体可分为4种，即肺炎...", "lemmaUrl": "http://baike.baidu.com/item/%E8%A1%A3%E5%8E%9F%E4%BD%93%E6%84%9F%E6%9F%93%E7%97%87/9768056", "lemmaPic": []}, {"lemmaId": 513609, "lemmaTitle": "N窝囊肿", "lemmaCroppedTitle": "N窝囊肿", "lemmaDesc": "N窝囊肿指N窝深部滑囊肿大或膝关节滑膜囊向后膨出的统称，引起膝后部疼痛和发胀，并...", "lemmaUrl": "http://baike.baidu.com/item/%E8%85%98%E7%AA%9D%E5%9B%8A%E8%82%BF/513609", "lemmaPic": []}, {"lemmaId": 7716576, "lemmaTitle": "乳头皲裂", "lemmaCroppedTitle": "乳头皲裂", "lemmaDesc": "乳头皲裂是哺乳期常见病之一。轻者仅乳头表面出现裂口，重者局部渗液渗血，日久不愈反...", "lemmaUrl": "http://baike.baidu.com/item/%E4%B9%B3%E5%A4%B4%E7%9A%B2%E8%A3%82/7716576", "lemmaPic": []}, {"lemmaId": 4877377, "lemmaTitle": "巨幼细胞性贫血", "lemmaCroppedTitle": "巨幼细胞性贫血", "lemmaDesc": "巨幼细胞性贫血，规范名称为巨幼细胞贫血，是由于脱氧核糖核酸（DNA）合成障碍所引...", "lemmaUrl": "http://baike.baidu.com/item/%E5%B7%A8%E5%B9%BC%E7%BB%86%E8%83%9E%E6%80%A7%E8%B4%AB%E8%A1%80/4877377", "lemmaPic": []}, {"lemmaId": 8328229, "lemmaTitle": "死精症", "lemmaCroppedTitle": "死精症", "lemmaDesc": "死精症是指精子的成活率下降，死亡精子超过40％的病症。死精症指多次精液检查，精子...", "lemmaUrl": "http://baike.baidu.com/item/%E6%AD%BB%E7%B2%BE%E7%97%87/8328229", "lemmaPic": []}, {"lemmaId": 178893, "lemmaTitle": "猫抓病", "lemmaCroppedTitle": "猫抓病", "lemmaDesc": "猫抓病是由汉塞巴尔通体经猫抓、咬后侵入人体而引起的感染性疾病，临床表现多变，但以...", "lemmaUrl": "http://baike.baidu.com/item/%E7%8C%AB%E6%8A%93%E7%97%85/178893", "lemmaPic": []}, {"lemmaId": 5814812, "lemmaTitle": "洗胃", "lemmaCroppedTitle": "洗胃", "lemmaDesc": "洗胃是指将一定成分的液体灌入胃腔内，混和胃内容物后再抽出，如此反复多次。其目的是...", "lemmaUrl": "http://baike.baidu.com/item/%E6%B4%97%E8%83%83/5814812", "lemmaPic": []}, {"lemmaId": 3255950, "lemmaTitle": "舌下腺囊肿", "lemmaCroppedTitle": "舌下腺囊肿", "lemmaDesc": "舌下腺囊肿为舌下腺导管堵塞、涎液潴留所形成的囊肿。囊肿位于口底一侧黏膜下，呈淡蓝...", "lemmaUrl": "http://baike.baidu.com/item/%E8%88%8C%E4%B8%8B%E8%85%BA%E5%9B%8A%E8%82%BF/3255950", "lemmaPic": []}, {"lemmaId": 4654490, "lemmaTitle": "黑棘皮病", "lemmaCroppedTitle": "黑棘皮病", "lemmaDesc": "黑棘皮病又名黑角化病或色素性乳头状营养不良，是指以皮肤颜色加深和乳头状或天鹅绒样...", "lemmaUrl": "http://baike.baidu.com/item/%E9%BB%91%E6%A3%98%E7%9A%AE%E7%97%85/4654490", "lemmaPic": []}, {"lemmaId": 10975795, "lemmaTitle": "Barrett食管", "lemmaCroppedTitle": "Barrett食管", "lemmaDesc": "食管下段的鳞状上皮被柱状上皮覆盖，因为英国人Barrett首先报道，因此称Bar...", "lemmaUrl": "http://baike.baidu.com/item/Barrett%E9%A3%9F%E7%AE%A1/10975795", "lemmaPic": []}, {"lemmaId": 4545651, "lemmaTitle": "小儿疳积", "lemmaCroppedTitle": "小儿疳积", "lemmaDesc": "疳积是由于喂养不当，或其他疾病的影响，致使脾胃功能受损，气液耗伤而逐渐形成的一种...", "lemmaUrl": "http://baike.baidu.com/item/%E5%B0%8F%E5%84%BF%E7%96%B3%E7%A7%AF/4545651", "lemmaPic": []}, {"lemmaId": 5358122, "lemmaTitle": "急性鼻炎", "lemmaCroppedTitle": "急性鼻炎", "lemmaDesc": "急性鼻炎是由病毒感染引起的鼻黏膜的急性炎性疾病，又称为“感冒、“伤风”。症状包括...", "lemmaUrl": "http://baike.baidu.com/item/%E6%80%A5%E6%80%A7%E9%BC%BB%E7%82%8E/5358122", "lemmaPic": []}, {"lemmaId": 527111, "lemmaTitle": "圆锥角膜", "lemmaCroppedTitle": "圆锥角膜", "lemmaDesc": "圆锥角膜是以角膜扩张、中央变薄向前突出，呈圆锥形为特征的一种眼病。它常造成高度不...", "lemmaUrl": "http://baike.baidu.com/item/%E5%9C%86%E9%94%A5%E8%A7%92%E8%86%9C/527111", "lemmaPic": []}, {"lemmaId": 2330526, "lemmaTitle": "高钙血症", "lemmaCroppedTitle": "高钙血症", "lemmaDesc": "高钙血症是指血清离子钙浓度的异常升高。由于通常所测定的是总钙，而不是离子钙，因此...", "lemmaUrl": "http://baike.baidu.com/item/%E9%AB%98%E9%92%99%E8%A1%80%E7%97%87/2330526", "lemmaPic": []}, {"lemmaId": 5087764, "lemmaTitle": "髌骨骨折", "lemmaCroppedTitle": "髌骨骨折", "lemmaDesc": "髌骨骨折是较常见的损伤，以髌骨局部肿胀、疼痛、膝关节不能自主伸直，常有皮下淤斑以...", "lemmaUrl": "http://baike.baidu.com/item/%E9%AB%8C%E9%AA%A8%E9%AA%A8%E6%8A%98/5087764", "lemmaPic": []}, {"lemmaId": 9086446, "lemmaTitle": "咽峡炎", "lemmaCroppedTitle": "咽峡炎", "lemmaDesc": "咽峡炎，是发生在咽峡部位的急性炎症，是一种特殊类型的咽炎。咽峡，是指咽部垂直面的...", "lemmaUrl": "http://baike.baidu.com/item/%E5%92%BD%E5%B3%A1%E7%82%8E/9086446", "lemmaPic": []}, {"lemmaId": 10593107, "lemmaTitle": "阿-斯综合征", "lemmaCroppedTitle": "阿-斯综合征", "lemmaDesc": "阿-斯综合征（Adams-Stokes综合征）即心源性脑缺血综合征，是指突然发作...", "lemmaUrl": "http://baike.baidu.com/item/%E9%98%BF-%E6%96%AF%E7%BB%BC%E5%90%88%E5%BE%81/10593107", "lemmaPic": []}, {"lemmaId": 815252, "lemmaTitle": "慢性附件炎", "lemmaCroppedTitle": "慢性附件炎", "lemmaDesc": "慢性附件炎是指女性内生殖器官，包括子宫、输卵管、卵巢及其周围的结缔组织、盆腔腹膜...", "lemmaUrl": "http://baike.baidu.com/item/%E6%85%A2%E6%80%A7%E9%99%84%E4%BB%B6%E7%82%8E/815252", "lemmaPic": []}, {"lemmaId": 5119893, "lemmaTitle": "睾丸肿瘤", "lemmaCroppedTitle": "睾丸肿瘤", "lemmaDesc": "睾丸肿瘤是在青年男性中最常见恶性肿瘤，分为原发性和继发性两类。绝大多数为原发性，...", "lemmaUrl": "http://baike.baidu.com/item/%E7%9D%BE%E4%B8%B8%E8%82%BF%E7%98%A4/5119893", "lemmaPic": []}, {"lemmaId": 9734106, "lemmaTitle": "子宫收缩", "lemmaCroppedTitle": "子宫收缩", "lemmaDesc": "子宫孕育着胎儿，随着胎儿的发育长大和胎盘产生激素的参与，子宫明显增大变软，其子宫...", "lemmaUrl": "http://baike.baidu.com/item/%E5%AD%90%E5%AE%AB%E6%94%B6%E7%BC%A9/9734106", "lemmaPic": []}], "total": 7246, "totalPage": 73, "page": 11, "fromLemma": 0}