{"lemmaList": [{"lemmaId": 11064514, "lemmaTitle": "双分支阻滞", "lemmaCroppedTitle": "双分支阻滞", "lemmaDesc": "双分支阻滞全称双分支传导阻滞，是指右束支、左前分支、左后分支这三支中其中两支传导...", "lemmaUrl": "http://baike.baidu.com/item/%E5%8F%8C%E5%88%86%E6%94%AF%E9%98%BB%E6%BB%9E/11064514", "lemmaPic": []}, {"lemmaId": 9258736, "lemmaTitle": "烟酸缺乏神经病", "lemmaCroppedTitle": "烟酸缺乏神经病", "lemmaDesc": "烟酸通常是指烟酸（尼克酸Niacin）、烟酰胺（尼克酰胺Nicotlnamide...", "lemmaUrl": "http://baike.baidu.com/item/%E7%83%9F%E9%85%B8%E7%BC%BA%E4%B9%8F%E7%A5%9E%E7%BB%8F%E7%97%85/9258736", "lemmaPic": []}, {"lemmaId": 1598930, "lemmaTitle": "外阴丹毒", "lemmaCroppedTitle": "外阴丹毒", "lemmaDesc": "丹毒（erysipelas）系由溶血性链球菌所致的皮肤、皮下组织内淋巴管及周围组...", "lemmaUrl": "http://baike.baidu.com/item/%E5%A4%96%E9%98%B4%E4%B8%B9%E6%AF%92/1598930", "lemmaPic": []}, {"lemmaId": 1975057, "lemmaTitle": "原发性骨淋巴瘤", "lemmaCroppedTitle": "原发性骨淋巴瘤", "lemmaDesc": "Oberling于1928年首先报道了本病。Parker和Jackson于193...", "lemmaUrl": "http://baike.baidu.com/item/%E5%8E%9F%E5%8F%91%E6%80%A7%E9%AA%A8%E6%B7%8B%E5%B7%B4%E7%98%A4/1975057", "lemmaPic": []}, {"lemmaId": 7567162, "lemmaTitle": "小儿过敏性紫癜肾炎", "lemmaCroppedTitle": "小儿过敏性紫癜肾炎", "lemmaDesc": "过敏性紫癜（HSP）是与血管自身免疫损伤有关的以小血管炎为主要病变的变态反应性疾...", "lemmaUrl": "http://baike.baidu.com/item/%E5%B0%8F%E5%84%BF%E8%BF%87%E6%95%8F%E6%80%A7%E7%B4%AB%E7%99%9C%E8%82%BE%E7%82%8E/7567162", "lemmaPic": []}, {"lemmaId": 12810941, "lemmaTitle": "糖尿病并发泌尿系感染", "lemmaCroppedTitle": "糖尿病并发泌尿系感染", "lemmaDesc": "泌尿系感染在糖尿病所合并的感染性疾病中发病率高居第二，仅次于肺部感染，其发病率在...", "lemmaUrl": "http://baike.baidu.com/item/%E7%B3%96%E5%B0%BF%E7%97%85%E5%B9%B6%E5%8F%91%E6%B3%8C%E5%B0%BF%E7%B3%BB%E6%84%9F%E6%9F%93/12810941", "lemmaPic": []}, {"lemmaId": 799790, "lemmaTitle": "涎腺结核", "lemmaCroppedTitle": "涎腺结核", "lemmaDesc": "涎腺结核系由头面部皮肤、口咽区的结核杆菌，经淋巴引流所致的腮腺内淋巴结核破溃后侵...", "lemmaUrl": "http://baike.baidu.com/item/%E6%B6%8E%E8%85%BA%E7%BB%93%E6%A0%B8/799790", "lemmaPic": []}, {"lemmaId": 4620637, "lemmaTitle": "小儿发育性髋脱位", "lemmaCroppedTitle": "小儿发育性髋脱位", "lemmaDesc": "发育性髋脱位（DDH），过去称之为先天性髋关节脱位，是一种比较常见的儿童下肢畸形...", "lemmaUrl": "http://baike.baidu.com/item/%E5%B0%8F%E5%84%BF%E5%8F%91%E8%82%B2%E6%80%A7%E9%AB%8B%E8%84%B1%E4%BD%8D/4620637", "lemmaPic": []}, {"lemmaId": 2203498, "lemmaTitle": "无功能性甲状旁腺囊肿", "lemmaCroppedTitle": "无功能性甲状旁腺囊肿", "lemmaDesc": "无功能性甲状旁腺囊肿不同于甲状旁腺腺瘤囊性变，曾有报告把二者混为一谈，但无功能性...", "lemmaUrl": "http://baike.baidu.com/item/%E6%97%A0%E5%8A%9F%E8%83%BD%E6%80%A7%E7%94%B2%E7%8A%B6%E6%97%81%E8%85%BA%E5%9B%8A%E8%82%BF/2203498", "lemmaPic": []}, {"lemmaId": 8386383, "lemmaTitle": "颈肋畸形", "lemmaCroppedTitle": "颈肋畸形", "lemmaDesc": "在胸廓出口综合征患者中，约半数系因第7颈椎肋骨畸形或横突过长所致，在临床上不仅具...", "lemmaUrl": "http://baike.baidu.com/item/%E9%A2%88%E8%82%8B%E7%95%B8%E5%BD%A2/8386383", "lemmaPic": []}, {"lemmaId": 8471733, "lemmaTitle": "旋转带肌腱炎", "lemmaCroppedTitle": "旋转带肌腱炎", "lemmaDesc": "旋转带包括冈上肌、冈下肌、肩胛下肌、小圆肌，它们可以增加肱骨头在关节盂内的稳定性...", "lemmaUrl": "http://baike.baidu.com/item/%E6%97%8B%E8%BD%AC%E5%B8%A6%E8%82%8C%E8%85%B1%E7%82%8E/8471733", "lemmaPic": []}, {"lemmaId": 4628207, "lemmaTitle": "外耳部恶性肿瘤", "lemmaCroppedTitle": "外耳部恶性肿瘤", "lemmaDesc": "耳郭恶性肿瘤较为多见，据统计皮肤癌中60%发生在耳郭。日光照射、湿疹、霉菌感染、...", "lemmaUrl": "http://baike.baidu.com/item/%E5%A4%96%E8%80%B3%E9%83%A8%E6%81%B6%E6%80%A7%E8%82%BF%E7%98%A4/4628207", "lemmaPic": []}, {"lemmaId": 10358307, "lemmaTitle": "月状骨骨软骨病", "lemmaCroppedTitle": "月状骨骨软骨病", "lemmaDesc": "月状骨软骨病，又称月骨无菌性坏死。好发于20～30岁之间，很少有15岁以下发病者...", "lemmaUrl": "http://baike.baidu.com/item/%E6%9C%88%E7%8A%B6%E9%AA%A8%E9%AA%A8%E8%BD%AF%E9%AA%A8%E7%97%85/10358307", "lemmaPic": []}, {"lemmaId": 3035593, "lemmaTitle": "硬脑膜动静脉畸形", "lemmaCroppedTitle": "硬脑膜动静脉畸形", "lemmaDesc": "硬脑膜动静脉畸形（DAVM）是硬脑膜内的动静脉沟通或动静脉瘘，由硬脑膜动脉或颅内...", "lemmaUrl": "http://baike.baidu.com/item/%E7%A1%AC%E8%84%91%E8%86%9C%E5%8A%A8%E9%9D%99%E8%84%89%E7%95%B8%E5%BD%A2/3035593", "lemmaPic": []}, {"lemmaId": 5908063, "lemmaTitle": "结缔组织性肠炎", "lemmaCroppedTitle": "结缔组织性肠炎", "lemmaDesc": "结缔组织疾病累及胃肠道的有硬皮病、系统性红斑狼疮、结节性多动脉炎、皮肌炎、类风湿...", "lemmaUrl": "http://baike.baidu.com/item/%E7%BB%93%E7%BC%94%E7%BB%84%E7%BB%87%E6%80%A7%E8%82%A0%E7%82%8E/5908063", "lemmaPic": []}, {"lemmaId": 1035296, "lemmaTitle": "外阴疣状癌", "lemmaCroppedTitle": "外阴疣状癌", "lemmaDesc": "外阴疣状癌系一种特殊的低度恶性鳞状细胞癌，多发生于浸渍部位（如口腔、外生殖器、肛...", "lemmaUrl": "http://baike.baidu.com/item/%E5%A4%96%E9%98%B4%E7%96%A3%E7%8A%B6%E7%99%8C/1035296", "lemmaPic": []}, {"lemmaId": 775964, "lemmaTitle": "胸椎后纵韧带骨化症", "lemmaCroppedTitle": "胸椎后纵韧带骨化症", "lemmaDesc": "胸椎后纵韧带骨化症是一种因胸椎后纵韧带发生骨化从而压迫脊髓和（或）神经根，产生肢...", "lemmaUrl": "http://baike.baidu.com/item/%E8%83%B8%E6%A4%8E%E5%90%8E%E7%BA%B5%E9%9F%A7%E5%B8%A6%E9%AA%A8%E5%8C%96%E7%97%87/775964", "lemmaPic": []}, {"lemmaId": 7063291, "lemmaTitle": "眼眶淋巴管瘤", "lemmaCroppedTitle": "眼眶淋巴管瘤", "lemmaDesc": "眼眶淋巴管瘤是由内皮细胞被覆的淋巴管道构成的肿物，分毛细血管状、海绵状和囊状淋巴...", "lemmaUrl": "http://baike.baidu.com/item/%E7%9C%BC%E7%9C%B6%E6%B7%8B%E5%B7%B4%E7%AE%A1%E7%98%A4/7063291", "lemmaPic": []}, {"lemmaId": 12676634, "lemmaTitle": "小儿窦性心律失常", "lemmaCroppedTitle": "小儿窦性心律失常", "lemmaDesc": "小儿窦性心律失常指窦房结发生的激动不匀齐，使心率呈现时快时慢的现象，脉搏在吸气时...", "lemmaUrl": "http://baike.baidu.com/item/%E5%B0%8F%E5%84%BF%E7%AA%A6%E6%80%A7%E5%BF%83%E5%BE%8B%E5%A4%B1%E5%B8%B8/12676634", "lemmaPic": []}, {"lemmaId": 1215541, "lemmaTitle": "胼胝体进行性变性", "lemmaCroppedTitle": "胼胝体进行性变性", "lemmaDesc": "胼胝体进行性变性，又称Marchliafara-Bignami病，是一种并发于慢...", "lemmaUrl": "http://baike.baidu.com/item/%E8%83%BC%E8%83%9D%E4%BD%93%E8%BF%9B%E8%A1%8C%E6%80%A7%E5%8F%98%E6%80%A7/1215541", "lemmaPic": []}, {"lemmaId": 8407540, "lemmaTitle": "特发性关节痛综合征", "lemmaCroppedTitle": "特发性关节痛综合征", "lemmaDesc": "特发性关节痛综合征（IAS）是原因未明以膝、腰椎等多关节疼痛为主要临床表现，体格...", "lemmaUrl": "http://baike.baidu.com/item/%E7%89%B9%E5%8F%91%E6%80%A7%E5%85%B3%E8%8A%82%E7%97%9B%E7%BB%BC%E5%90%88%E5%BE%81/8407540", "lemmaPic": []}, {"lemmaId": 3621560, "lemmaTitle": "心房内折返性心动过速", "lemmaCroppedTitle": "心房内折返性心动过速", "lemmaDesc": "心房内折返性心动过速（IART）是由于折返机制引起的一种房性心动过速。多见于伴有...", "lemmaUrl": "http://baike.baidu.com/item/%E5%BF%83%E6%88%BF%E5%86%85%E6%8A%98%E8%BF%94%E6%80%A7%E5%BF%83%E5%8A%A8%E8%BF%87%E9%80%9F/3621560", "lemmaPic": []}, {"lemmaId": 4334085, "lemmaTitle": "高血压病视网膜病变", "lemmaCroppedTitle": "高血压病视网膜病变", "lemmaDesc": "高血压病视网膜病变是一种常见的心血管系统疾病。眼底改变阳性率与性别无关，但与患者...", "lemmaUrl": "http://baike.baidu.com/item/%E9%AB%98%E8%A1%80%E5%8E%8B%E7%97%85%E8%A7%86%E7%BD%91%E8%86%9C%E7%97%85%E5%8F%98/4334085", "lemmaPic": []}, {"lemmaId": 5247617, "lemmaTitle": "急性脂肪皮肤硬化症", "lemmaCroppedTitle": "急性脂肪皮肤硬化症", "lemmaDesc": "急性脂肪皮肤硬化症又称急性脂肪性硬皮病、硬化性脂膜炎，是指小腿下段因静脉高压或重...", "lemmaUrl": "http://baike.baidu.com/item/%E6%80%A5%E6%80%A7%E8%84%82%E8%82%AA%E7%9A%AE%E8%82%A4%E7%A1%AC%E5%8C%96%E7%97%87/5247617", "lemmaPic": []}, {"lemmaId": 5263525, "lemmaTitle": "肺炎链球菌败血症", "lemmaCroppedTitle": "肺炎链球菌败血症", "lemmaDesc": "肺炎链球菌是人体鼻咽部的正常菌群，当机体免疫力下降或获得新血清型时可引起侵袭性疾...", "lemmaUrl": "http://baike.baidu.com/item/%E8%82%BA%E7%82%8E%E9%93%BE%E7%90%83%E8%8F%8C%E8%B4%A5%E8%A1%80%E7%97%87/5263525", "lemmaPic": []}, {"lemmaId": 4670874, "lemmaTitle": "毛石肠梗阻综合征", "lemmaCroppedTitle": "毛石肠梗阻综合征", "lemmaDesc": "毛石肠梗阻综合征即Rapunzel综合征，患者多有异嗜症或精神病而好咀嚼吞咽头发...", "lemmaUrl": "http://baike.baidu.com/item/%E6%AF%9B%E7%9F%B3%E8%82%A0%E6%A2%97%E9%98%BB%E7%BB%BC%E5%90%88%E5%BE%81/4670874", "lemmaPic": []}, {"lemmaId": 9668653, "lemmaTitle": "心脏钝性闭合伤", "lemmaCroppedTitle": "心脏钝性闭合伤", "lemmaDesc": "心脏钝性闭合伤约占胸部伤的10%～25%。但由于常对其缺乏警惕、轻者表现不明显、...", "lemmaUrl": "http://baike.baidu.com/item/%E5%BF%83%E8%84%8F%E9%92%9D%E6%80%A7%E9%97%AD%E5%90%88%E4%BC%A4/9668653", "lemmaPic": []}, {"lemmaId": 6644211, "lemmaTitle": "眼类肉瘤病", "lemmaCroppedTitle": "眼类肉瘤病", "lemmaDesc": "眼类肉瘤病又叫结节病，由PM Boeck于1899年首先提出。眼类肉瘤病可以侵犯...", "lemmaUrl": "http://baike.baidu.com/item/%E7%9C%BC%E7%B1%BB%E8%82%89%E7%98%A4%E7%97%85/6644211", "lemmaPic": []}, {"lemmaId": 9257519, "lemmaTitle": "生长激素释放抑制素瘤", "lemmaCroppedTitle": "生长激素释放抑制素瘤", "lemmaDesc": "生长激素释放抑制素瘤是来源于胰岛D细胞的肿瘤。由于肿瘤释放大量的生长抑素（Som...", "lemmaUrl": "http://baike.baidu.com/item/%E7%94%9F%E9%95%BF%E6%BF%80%E7%B4%A0%E9%87%8A%E6%94%BE%E6%8A%91%E5%88%B6%E7%B4%A0%E7%98%A4/9257519", "lemmaPic": []}, {"lemmaId": 3453902, "lemmaTitle": "外阴结核", "lemmaCroppedTitle": "外阴结核", "lemmaDesc": "外阴结核非常罕见，是由结核分枝杆菌入侵机体后引起的外生殖器炎症，可为全身结核的一...", "lemmaUrl": "http://baike.baidu.com/item/%E5%A4%96%E9%98%B4%E7%BB%93%E6%A0%B8/3453902", "lemmaPic": []}, {"lemmaId": 5086557, "lemmaTitle": "Friedreich共济失调症", "lemmaCroppedTitle": "Friedreich共济失调症", "lemmaDesc": "本病为一种家族遗传性，常染色体隐性遗传，累及脊髓后索及小脑退行性病变，常伴有心脏...", "lemmaUrl": "http://baike.baidu.com/item/Friedreich%E5%85%B1%E6%B5%8E%E5%A4%B1%E8%B0%83%E7%97%87/5086557", "lemmaPic": []}, {"lemmaId": 869221, "lemmaTitle": "间断脉冲噪音损伤", "lemmaCroppedTitle": "间断脉冲噪音损伤", "lemmaDesc": "间断脉冲噪音损伤也叫爆震性耳聋指由于枪炮射击、炸弹及其他爆炸物爆炸时所产生的压力...", "lemmaUrl": "http://baike.baidu.com/item/%E9%97%B4%E6%96%AD%E8%84%89%E5%86%B2%E5%99%AA%E9%9F%B3%E6%8D%9F%E4%BC%A4/869221", "lemmaPic": []}, {"lemmaId": 1574155, "lemmaTitle": "小儿先天性外胚层发育不良综合征", "lemmaCroppedTitle": "小儿先天性外胚层发育不良综合征", "lemmaDesc": "先天性外胚层发育不良综合征又称先天性外胚层缺陷Siemencs综合征，是一组外胚...", "lemmaUrl": "http://baike.baidu.com/item/%E5%B0%8F%E5%84%BF%E5%85%88%E5%A4%A9%E6%80%A7%E5%A4%96%E8%83%9A%E5%B1%82%E5%8F%91%E8%82%B2%E4%B8%8D%E8%89%AF%E7%BB%BC%E5%90%88%E5%BE%81/1574155", "lemmaPic": []}, {"lemmaId": 11049192, "lemmaTitle": "胃肠道癌转移卵巢", "lemmaCroppedTitle": "胃肠道癌转移卵巢", "lemmaDesc": "胃肠道癌转移卵巢是卵巢转移瘤的一种，卵巢转移性肿瘤以胃癌转移至卵巢多见，占卵巢转...", "lemmaUrl": "http://baike.baidu.com/item/%E8%83%83%E8%82%A0%E9%81%93%E7%99%8C%E8%BD%AC%E7%A7%BB%E5%8D%B5%E5%B7%A2/11049192", "lemmaPic": []}, {"lemmaId": 5921402, "lemmaTitle": "疟疾肾病", "lemmaCroppedTitle": "疟疾肾病", "lemmaDesc": "疟疾肾病主要临床表现为高血压、蛋白尿、血尿和水肿，4种疟疾均可并发此症，但以三日...", "lemmaUrl": "http://baike.baidu.com/item/%E7%96%9F%E7%96%BE%E8%82%BE%E7%97%85/5921402", "lemmaPic": []}, {"lemmaId": 3977648, "lemmaTitle": "前纵韧带骨化症", "lemmaCroppedTitle": "前纵韧带骨化症", "lemmaDesc": "临床上前纵韧带骨化者远比椎节后纵韧带骨化者为多，在年龄50岁以上者的颈椎侧位X线...", "lemmaUrl": "http://baike.baidu.com/item/%E5%89%8D%E7%BA%B5%E9%9F%A7%E5%B8%A6%E9%AA%A8%E5%8C%96%E7%97%87/3977648", "lemmaPic": []}, {"lemmaId": 7548348, "lemmaTitle": "脑性瘫痪综合征", "lemmaCroppedTitle": "脑性瘫痪综合征", "lemmaDesc": "脑性瘫痪综合征是一组持续存在的中枢性运动和姿势发育障碍、活动受限症候群，这种症候...", "lemmaUrl": "http://baike.baidu.com/item/%E8%84%91%E6%80%A7%E7%98%AB%E7%97%AA%E7%BB%BC%E5%90%88%E5%BE%81/7548348", "lemmaPic": []}, {"lemmaId": 2847839, "lemmaTitle": "家族性良性天疱疮", "lemmaCroppedTitle": "家族性良性天疱疮", "lemmaDesc": "家族性良性天疱疮又称为Hailey-Hailey病，1939年报道该病。这是一种...", "lemmaUrl": "http://baike.baidu.com/item/%E5%AE%B6%E6%97%8F%E6%80%A7%E8%89%AF%E6%80%A7%E5%A4%A9%E7%96%B1%E7%96%AE/2847839", "lemmaPic": []}, {"lemmaId": 3699836, "lemmaTitle": "跟骨骨骺骨软骨病", "lemmaCroppedTitle": "跟骨骨骺骨软骨病", "lemmaDesc": "跟骨骨骺骨软骨病又称Sever病或Haglund病，由Haglund于1907年...", "lemmaUrl": "http://baike.baidu.com/item/%E8%B7%9F%E9%AA%A8%E9%AA%A8%E9%AA%BA%E9%AA%A8%E8%BD%AF%E9%AA%A8%E7%97%85/3699836", "lemmaPic": []}, {"lemmaId": 1978538, "lemmaTitle": "拔毛狂", "lemmaCroppedTitle": "拔毛狂", "lemmaDesc": "拔毛症是一种慢性疾病，是指反复地不能克制拔除自己毛发的冲动行为，于1889年由法...", "lemmaUrl": "http://baike.baidu.com/item/%E6%8B%94%E6%AF%9B%E7%8B%82/1978538", "lemmaPic": []}, {"lemmaId": 8383795, "lemmaTitle": "腱病", "lemmaCroppedTitle": "腱病", "lemmaDesc": "腱病作为一种概念，由德国学者在20世纪40年代首次提出，之后Puddu（1976...", "lemmaUrl": "http://baike.baidu.com/item/%E8%85%B1%E7%97%85/8383795", "lemmaPic": []}, {"lemmaId": 6161658, "lemmaTitle": "白喉性心肌炎", "lemmaCroppedTitle": "白喉性心肌炎", "lemmaDesc": "白喉是一种由白喉棒状杆菌引起的急性呼吸道传染病，临床上以咽扁桃体炎和（或）喉炎、...", "lemmaUrl": "http://baike.baidu.com/item/%E7%99%BD%E5%96%89%E6%80%A7%E5%BF%83%E8%82%8C%E7%82%8E/6161658", "lemmaPic": []}, {"lemmaId": 2068280, "lemmaTitle": "妊娠合并肝硬化", "lemmaCroppedTitle": "妊娠合并肝硬化", "lemmaDesc": "肝硬化是影响全身的慢性疾病。本病因肝功能异常，雌激素灭活作用减弱，引起血中雌激素...", "lemmaUrl": "http://baike.baidu.com/item/%E5%A6%8A%E5%A8%A0%E5%90%88%E5%B9%B6%E8%82%9D%E7%A1%AC%E5%8C%96/2068280", "lemmaPic": []}, {"lemmaId": 1172706, "lemmaTitle": "老年人感染性休克", "lemmaCroppedTitle": "老年人感染性休克", "lemmaDesc": "老年人感染性休克是老年人一种常见病、多发病，死亡率高。多因老年人体质虚弱，免疫力...", "lemmaUrl": "http://baike.baidu.com/item/%E8%80%81%E5%B9%B4%E4%BA%BA%E6%84%9F%E6%9F%93%E6%80%A7%E4%BC%91%E5%85%8B/1172706", "lemmaPic": []}, {"lemmaId": 743362, "lemmaTitle": "急性结肠假性梗阻综合征", "lemmaCroppedTitle": "急性结肠假性梗阻综合征", "lemmaDesc": "急性结肠假性梗阻综合征，即Ogilvie综合征，是结肠继发性扩张，而无机械性梗阻...", "lemmaUrl": "http://baike.baidu.com/item/%E6%80%A5%E6%80%A7%E7%BB%93%E8%82%A0%E5%81%87%E6%80%A7%E6%A2%97%E9%98%BB%E7%BB%BC%E5%90%88%E5%BE%81/743362", "lemmaPic": []}, {"lemmaId": 5751620, "lemmaTitle": "小儿Alstrom综合征", "lemmaCroppedTitle": "小儿Alstrom综合征", "lemmaDesc": "小儿Alstrom综合征又称先天性黑蒙，遗传性先天性视网膜病、Alstrom-O...", "lemmaUrl": "http://baike.baidu.com/item/%E5%B0%8F%E5%84%BFAlstrom%E7%BB%BC%E5%90%88%E5%BE%81/5751620", "lemmaPic": []}, {"lemmaId": 1019085, "lemmaTitle": "等孢球虫病", "lemmaCroppedTitle": "等孢球虫病", "lemmaDesc": "等孢球虫病是由等孢子球虫寄生在人肠黏膜上皮，造成肠道黏膜损伤的一种寄生性原虫病。...", "lemmaUrl": "http://baike.baidu.com/item/%E7%AD%89%E5%AD%A2%E7%90%83%E8%99%AB%E7%97%85/1019085", "lemmaPic": []}, {"lemmaId": 9619387, "lemmaTitle": "儿童学习能力障碍", "lemmaCroppedTitle": "儿童学习能力障碍", "lemmaDesc": "儿童学习能力障碍常称为学习困难（learning&nbsp;disabiliti...", "lemmaUrl": "http://baike.baidu.com/item/%E5%84%BF%E7%AB%A5%E5%AD%A6%E4%B9%A0%E8%83%BD%E5%8A%9B%E9%9A%9C%E7%A2%8D/9619387", "lemmaPic": []}, {"lemmaId": 7255069, "lemmaTitle": "药物中毒性周围神经病", "lemmaCroppedTitle": "药物中毒性周围神经病", "lemmaDesc": "是由于药物使用不当或长期使用某种药物而导致的周围神经病变。过去主要分为神经痛和神...", "lemmaUrl": "http://baike.baidu.com/item/%E8%8D%AF%E7%89%A9%E4%B8%AD%E6%AF%92%E6%80%A7%E5%91%A8%E5%9B%B4%E7%A5%9E%E7%BB%8F%E7%97%85/7255069", "lemmaPic": []}, {"lemmaId": 4037836, "lemmaTitle": "盲肠扭转", "lemmaCroppedTitle": "盲肠扭转", "lemmaDesc": "正常盲肠附着于腹后壁，很少发生扭转。当盲肠的移动度过大，回盲部的肠襻发生扭转时，...", "lemmaUrl": "http://baike.baidu.com/item/%E7%9B%B2%E8%82%A0%E6%89%AD%E8%BD%AC/4037836", "lemmaPic": []}, {"lemmaId": 7253987, "lemmaTitle": "腹腔室隔综合征", "lemmaCroppedTitle": "腹腔室隔综合征", "lemmaDesc": "腹腔室隔综合征（ACS）是指腹内压进行性急剧升高引起的器官衰竭或器官功能不全，亦...", "lemmaUrl": "http://baike.baidu.com/item/%E8%85%B9%E8%85%94%E5%AE%A4%E9%9A%94%E7%BB%BC%E5%90%88%E5%BE%81/7253987", "lemmaPic": []}, {"lemmaId": 4395353, "lemmaTitle": "N动脉瘤", "lemmaCroppedTitle": "N动脉瘤", "lemmaDesc": "N动脉瘤是周围血管动脉瘤中比较常见的动脉瘤之一，由N动脉扩张后形成。常双侧发病，...", "lemmaUrl": "http://baike.baidu.com/item/%E8%85%98%E5%8A%A8%E8%84%89%E7%98%A4/4395353", "lemmaPic": []}, {"lemmaId": 4489726, "lemmaTitle": "老年人肝硬化", "lemmaCroppedTitle": "老年人肝硬化", "lemmaDesc": "肝硬化是一种以肝组织弥漫性纤维化，假小叶和再生结节形成为特征的慢性肝病。临床上有...", "lemmaUrl": "http://baike.baidu.com/item/%E8%80%81%E5%B9%B4%E4%BA%BA%E8%82%9D%E7%A1%AC%E5%8C%96/4489726", "lemmaPic": []}, {"lemmaId": 1687753, "lemmaTitle": "辐射性白内障", "lemmaCroppedTitle": "辐射性白内障", "lemmaDesc": "临床上将有明确证据证明因辐射而引起的白内障称为辐射性白内障，晶状体赤道部囊膜下上...", "lemmaUrl": "http://baike.baidu.com/item/%E8%BE%90%E5%B0%84%E6%80%A7%E7%99%BD%E5%86%85%E9%9A%9C/1687753", "lemmaPic": []}, {"lemmaId": 10444234, "lemmaTitle": "皮炎芽生菌", "lemmaCroppedTitle": "皮炎芽生菌", "lemmaDesc": "皮炎芽生菌又称北美芽生菌病，是由皮炎芽生菌引起的一种以肺、皮肤和骨骼为主的慢性化...", "lemmaUrl": "http://baike.baidu.com/item/%E7%9A%AE%E7%82%8E%E8%8A%BD%E7%94%9F%E8%8F%8C/10444234", "lemmaPic": []}, {"lemmaId": 19499210, "lemmaTitle": "椎基底动脉供血不足", "lemmaCroppedTitle": "椎基底动脉供血不足", "lemmaDesc": "本病常见于中老年人。由于小脑及脑干依靠椎-基底动脉的供血，当椎-基动脉供血不足时...", "lemmaUrl": "http://baike.baidu.com/item/%E6%A4%8E%E5%9F%BA%E5%BA%95%E5%8A%A8%E8%84%89%E4%BE%9B%E8%A1%80%E4%B8%8D%E8%B6%B3/19499210", "lemmaPic": []}, {"lemmaId": 5261995, "lemmaTitle": "血卟啉病性周围神经病", "lemmaCroppedTitle": "血卟啉病性周围神经病", "lemmaDesc": "血卟啉病性周围神经病为一组少见的常染色体显性遗传性血红素生物合成障碍疾病。其中急...", "lemmaUrl": "http://baike.baidu.com/item/%E8%A1%80%E5%8D%9F%E5%95%89%E7%97%85%E6%80%A7%E5%91%A8%E5%9B%B4%E7%A5%9E%E7%BB%8F%E7%97%85/5261995", "lemmaPic": []}, {"lemmaId": 765486, "lemmaTitle": "肠石性肠梗阻", "lemmaCroppedTitle": "肠石性肠梗阻", "lemmaDesc": "肠石是由不溶水和消化液的钡盐、钙盐等沉淀物、吞入物或正常存在于肠内的物质生成的胆...", "lemmaUrl": "http://baike.baidu.com/item/%E8%82%A0%E7%9F%B3%E6%80%A7%E8%82%A0%E6%A2%97%E9%98%BB/765486", "lemmaPic": []}, {"lemmaId": 6463852, "lemmaTitle": "小儿脆性X染色体", "lemmaCroppedTitle": "小儿脆性X染色体", "lemmaDesc": "脆性X染色体即脆性X综合征（FXS），是一种不完全外显的X染色体连锁显性遗传性疾...", "lemmaUrl": "http://baike.baidu.com/item/%E5%B0%8F%E5%84%BF%E8%84%86%E6%80%A7X%E6%9F%93%E8%89%B2%E4%BD%93/6463852", "lemmaPic": []}, {"lemmaId": 2616730, "lemmaTitle": "睫状环阻滞性青光眼", "lemmaCroppedTitle": "睫状环阻滞性青光眼", "lemmaDesc": "睫状环阻滞性青光眼，又称恶性青光眼。其特点为通常发生于抗青光眼术后数日或数月，前...", "lemmaUrl": "http://baike.baidu.com/item/%E7%9D%AB%E7%8A%B6%E7%8E%AF%E9%98%BB%E6%BB%9E%E6%80%A7%E9%9D%92%E5%85%89%E7%9C%BC/2616730", "lemmaPic": []}, {"lemmaId": 3541155, "lemmaTitle": "小儿阵发性室上性心动过速", "lemmaCroppedTitle": "小儿阵发性室上性心动过速", "lemmaDesc": "小儿阵发性室上性心动过速（PSVT）是由心房或房室交界处异位兴奋灶快速释放冲动所...", "lemmaUrl": "http://baike.baidu.com/item/%E5%B0%8F%E5%84%BF%E9%98%B5%E5%8F%91%E6%80%A7%E5%AE%A4%E4%B8%8A%E6%80%A7%E5%BF%83%E5%8A%A8%E8%BF%87%E9%80%9F/3541155", "lemmaPic": []}, {"lemmaId": 10642143, "lemmaTitle": "放射性心包炎", "lemmaCroppedTitle": "放射性心包炎", "lemmaDesc": "放射性心包炎是由心肌和心包的放射损伤所致，常为胸部、纵隔恶性肿瘤进行放射治疗的并...", "lemmaUrl": "http://baike.baidu.com/item/%E6%94%BE%E5%B0%84%E6%80%A7%E5%BF%83%E5%8C%85%E7%82%8E/10642143", "lemmaPic": []}, {"lemmaId": 7356396, "lemmaTitle": "脾劳", "lemmaCroppedTitle": "脾劳", "lemmaDesc": "病证名，五劳之一。指因饮食劳倦伤脾所致的病证。", "lemmaUrl": "http://baike.baidu.com/item/%E8%84%BE%E5%8A%B3/7356396", "lemmaPic": []}, {"lemmaId": 4986848, "lemmaTitle": "N血管陷迫综合征", "lemmaCroppedTitle": "N血管陷迫综合征", "lemmaDesc": "N血管陷迫综合征（PVES）是N窝的异常肌肉、纤维索带等压迫N动脉或N静脉，而引...", "lemmaUrl": "http://baike.baidu.com/item/%E8%85%98%E8%A1%80%E7%AE%A1%E9%99%B7%E8%BF%AB%E7%BB%BC%E5%90%88%E5%BE%81/4986848", "lemmaPic": []}, {"lemmaId": 6595524, "lemmaTitle": "口腔毛滴虫病", "lemmaCroppedTitle": "口腔毛滴虫病", "lemmaDesc": "口腔毛滴虫又称口腔梨形虫，有滋养体而无包囊期，寄生在口腔、齿垢及断的龋洞内，通过...", "lemmaUrl": "http://baike.baidu.com/item/%E5%8F%A3%E8%85%94%E6%AF%9B%E6%BB%B4%E8%99%AB%E7%97%85/6595524", "lemmaPic": []}, {"lemmaId": 10295936, "lemmaTitle": "股骨头骨骺骨软骨病", "lemmaCroppedTitle": "股骨头骨骺骨软骨病", "lemmaDesc": "股骨头骨骺骨软骨病属于继发性关节骨软骨病，其主要病因系某些因素引起的骨骺血管栓塞...", "lemmaUrl": "http://baike.baidu.com/item/%E8%82%A1%E9%AA%A8%E5%A4%B4%E9%AA%A8%E9%AA%BA%E9%AA%A8%E8%BD%AF%E9%AA%A8%E7%97%85/10295936", "lemmaPic": []}, {"lemmaId": 8409299, "lemmaTitle": "布氏菌肺炎", "lemmaCroppedTitle": "布氏菌肺炎", "lemmaDesc": "布氏菌肺炎是由布氏菌属细菌所引起的肺部急性或慢性感染，属自然疫源性人畜共患病。本...", "lemmaUrl": "http://baike.baidu.com/item/%E5%B8%83%E6%B0%8F%E8%8F%8C%E8%82%BA%E7%82%8E/8409299", "lemmaPic": []}, {"lemmaId": 5050270, "lemmaTitle": "视神经乳头水肿及视盘水肿", "lemmaCroppedTitle": "视神经乳头水肿及视盘水肿", "lemmaDesc": "视神经乳头水肿是视乳头的一种炎性充血、隆起状态，是由于颅内压增高引起。视盘水肿是...", "lemmaUrl": "http://baike.baidu.com/item/%E8%A7%86%E7%A5%9E%E7%BB%8F%E4%B9%B3%E5%A4%B4%E6%B0%B4%E8%82%BF%E5%8F%8A%E8%A7%86%E7%9B%98%E6%B0%B4%E8%82%BF/5050270", "lemmaPic": []}, {"lemmaId": 727974, "lemmaTitle": "肠气肿综合征", "lemmaCroppedTitle": "肠气肿综合征", "lemmaDesc": "肠气囊肿病（PCI）又称肠囊样积气症、Duvernoy综合征、肠气肿（intes...", "lemmaUrl": "http://baike.baidu.com/item/%E8%82%A0%E6%B0%94%E8%82%BF%E7%BB%BC%E5%90%88%E5%BE%81/727974", "lemmaPic": []}, {"lemmaId": 1224206, "lemmaTitle": "合成树脂皮炎", "lemmaCroppedTitle": "合成树脂皮炎", "lemmaDesc": "合成树脂有很多种，常用的合成树脂有环氧树脂、聚酯树脂、酚醛树脂、脲醛树脂、丙烯酸...", "lemmaUrl": "http://baike.baidu.com/item/%E5%90%88%E6%88%90%E6%A0%91%E8%84%82%E7%9A%AE%E7%82%8E/1224206", "lemmaPic": []}, {"lemmaId": 8411412, "lemmaTitle": "药物性呼吸衰竭", "lemmaCroppedTitle": "药物性呼吸衰竭", "lemmaDesc": "药源性呼吸衰竭（DRF）是指由于应用治疗药物或违禁药品诱发或促发所引起的一种急性...", "lemmaUrl": "http://baike.baidu.com/item/%E8%8D%AF%E7%89%A9%E6%80%A7%E5%91%BC%E5%90%B8%E8%A1%B0%E7%AB%AD/8411412", "lemmaPic": []}, {"lemmaId": 4924840, "lemmaTitle": "高致病性人禽流感病毒肺炎", "lemmaCroppedTitle": "高致病性人禽流感病毒肺炎", "lemmaDesc": "高致病性人禽流感病毒肺炎，其病原体是禽流感病毒属正黏病毒科甲型流感病毒属。可分为...", "lemmaUrl": "http://baike.baidu.com/item/%E9%AB%98%E8%87%B4%E7%97%85%E6%80%A7%E4%BA%BA%E7%A6%BD%E6%B5%81%E6%84%9F%E7%97%85%E6%AF%92%E8%82%BA%E7%82%8E/4924840", "lemmaPic": []}, {"lemmaId": 7245270, "lemmaTitle": "单侧肺气肿", "lemmaCroppedTitle": "单侧肺气肿", "lemmaDesc": "单侧肺气肿的狭义定义指因先天性肺组织及肺循环发育异常，使患肺能较正常肺组织透过更...", "lemmaUrl": "http://baike.baidu.com/item/%E5%8D%95%E4%BE%A7%E8%82%BA%E6%B0%94%E8%82%BF/7245270", "lemmaPic": []}, {"lemmaId": 5220785, "lemmaTitle": "多房棘球蚴病", "lemmaCroppedTitle": "多房棘球蚴病", "lemmaDesc": "多房棘球蚴病是多房棘球绦虫的幼虫泡型棘球蚴（泡球蚴）寄生人体所致的慢性寄生虫病，...", "lemmaUrl": "http://baike.baidu.com/item/%E5%A4%9A%E6%88%BF%E6%A3%98%E7%90%83%E8%9A%B4%E7%97%85/5220785", "lemmaPic": []}, {"lemmaId": 1202617, "lemmaTitle": "固定性斜视", "lemmaCroppedTitle": "固定性斜视", "lemmaDesc": "固定性斜视是指单眼或双眼被固定在某一位置上，不能向其他方向转动的一种特殊斜视，与...", "lemmaUrl": "http://baike.baidu.com/item/%E5%9B%BA%E5%AE%9A%E6%80%A7%E6%96%9C%E8%A7%86/1202617", "lemmaPic": []}, {"lemmaId": 7253055, "lemmaTitle": "室管膜肿瘤", "lemmaCroppedTitle": "室管膜肿瘤", "lemmaDesc": "室管膜瘤来源于脑室与脊髓中央管的室管膜细胞或脑内白质室管膜细胞巢的中枢神经系统肿...", "lemmaUrl": "http://baike.baidu.com/item/%E5%AE%A4%E7%AE%A1%E8%86%9C%E8%82%BF%E7%98%A4/7253055", "lemmaPic": []}, {"lemmaId": 2912463, "lemmaTitle": "鞍上生殖细胞瘤", "lemmaCroppedTitle": "鞍上生殖细胞瘤", "lemmaDesc": "颅内生殖细胞肿瘤是指原发于颅内、起源于胚胎生殖细胞的有特殊的病理性质、临床表现和...", "lemmaUrl": "http://baike.baidu.com/item/%E9%9E%8D%E4%B8%8A%E7%94%9F%E6%AE%96%E7%BB%86%E8%83%9E%E7%98%A4/2912463", "lemmaPic": []}, {"lemmaId": 8406059, "lemmaTitle": "呼吸肌疲劳症", "lemmaCroppedTitle": "呼吸肌疲劳症", "lemmaDesc": "呼吸肌疲劳是指由多种原因引起的呼吸肌舒缩活动不能产生维持一定的肺泡通气量所需要的...", "lemmaUrl": "http://baike.baidu.com/item/%E5%91%BC%E5%90%B8%E8%82%8C%E7%96%B2%E5%8A%B3%E7%97%87/8406059", "lemmaPic": []}, {"lemmaId": 10699097, "lemmaTitle": "变性近视的脉络膜萎缩", "lemmaCroppedTitle": "变性近视的脉络膜萎缩", "lemmaDesc": "变性近视又称病理性近视。近视眼可分为生理性近视或称单纯性近视，屈光度一般不超过-...", "lemmaUrl": "http://baike.baidu.com/item/%E5%8F%98%E6%80%A7%E8%BF%91%E8%A7%86%E7%9A%84%E8%84%89%E7%BB%9C%E8%86%9C%E8%90%8E%E7%BC%A9/10699097", "lemmaPic": []}, {"lemmaId": 12635063, "lemmaTitle": "小儿肝豆状核变性", "lemmaCroppedTitle": "小儿肝豆状核变性", "lemmaDesc": "早自Frerichs（1861）、Westphal（1883）和Strumpel...", "lemmaUrl": "http://baike.baidu.com/item/%E5%B0%8F%E5%84%BF%E8%82%9D%E8%B1%86%E7%8A%B6%E6%A0%B8%E5%8F%98%E6%80%A7/12635063", "lemmaPic": []}, {"lemmaId": 401054, "lemmaTitle": "植入式听觉装置", "lemmaCroppedTitle": "植入式听觉装置", "lemmaDesc": "植入式听觉装置包括人工耳蜗、振动声桥、骨锚式助听器（BAHA）、听觉脑干植入等人...", "lemmaUrl": "http://baike.baidu.com/item/%E6%A4%8D%E5%85%A5%E5%BC%8F%E5%90%AC%E8%A7%89%E8%A3%85%E7%BD%AE/401054", "lemmaPic": []}, {"lemmaId": 7831538, "lemmaTitle": "延迟性压力性荨麻疹", "lemmaCroppedTitle": "延迟性压力性荨麻疹", "lemmaDesc": "皮疹发生于局部皮肤受压后4～6小时，通常持续8～12小时。出现局部深在疼痛性肿胀...", "lemmaUrl": "http://baike.baidu.com/item/%E5%BB%B6%E8%BF%9F%E6%80%A7%E5%8E%8B%E5%8A%9B%E6%80%A7%E8%8D%A8%E9%BA%BB%E7%96%B9/7831538", "lemmaPic": []}, {"lemmaId": 8408498, "lemmaTitle": "肺球孢子菌病", "lemmaCroppedTitle": "肺球孢子菌病", "lemmaDesc": "球孢子菌病是由粗球孢子菌引起的肺或其他器官的真菌病，肺是球孢子菌的侵入门户，也是...", "lemmaUrl": "http://baike.baidu.com/item/%E8%82%BA%E7%90%83%E5%AD%A2%E5%AD%90%E8%8F%8C%E7%97%85/8408498", "lemmaPic": []}, {"lemmaId": 7254783, "lemmaTitle": "交感神经链综合征", "lemmaCroppedTitle": "交感神经链综合征", "lemmaDesc": "交感神经链综合征为用局麻药阻滞支配疼痛区域的交感神经所能缓解的疼痛。而对阻滞交感...", "lemmaUrl": "http://baike.baidu.com/item/%E4%BA%A4%E6%84%9F%E7%A5%9E%E7%BB%8F%E9%93%BE%E7%BB%BC%E5%90%88%E5%BE%81/7254783", "lemmaPic": []}, {"lemmaId": 12428735, "lemmaTitle": "小儿脾大", "lemmaCroppedTitle": "小儿脾大", "lemmaDesc": "脾脏增大是婴儿及儿童时期的常见体征，一般见于全身性疾患，如感染、血液病、代谢病、...", "lemmaUrl": "http://baike.baidu.com/item/%E5%B0%8F%E5%84%BF%E8%84%BE%E5%A4%A7/12428735", "lemmaPic": []}, {"lemmaId": 2076017, "lemmaTitle": "骨血管内皮细胞瘤", "lemmaCroppedTitle": "骨血管内皮细胞瘤", "lemmaDesc": "骨血管内皮细胞瘤是介于骨血管瘤和骨血管肉瘤即良、恶性之间的一个中间型或未定型的肿...", "lemmaUrl": "http://baike.baidu.com/item/%E9%AA%A8%E8%A1%80%E7%AE%A1%E5%86%85%E7%9A%AE%E7%BB%86%E8%83%9E%E7%98%A4/2076017", "lemmaPic": []}, {"lemmaId": 2180882, "lemmaTitle": "盲肠旁疝", "lemmaCroppedTitle": "盲肠旁疝", "lemmaDesc": "盲肠旁疝是后腹膜疝的一种，由小肠突入回盲部隐窝内形成的内疝。约占后腹膜疝的5%。...", "lemmaUrl": "http://baike.baidu.com/item/%E7%9B%B2%E8%82%A0%E6%97%81%E7%96%9D/2180882", "lemmaPic": []}, {"lemmaId": 12021746, "lemmaTitle": "原发性皮肤淀粉样病变", "lemmaCroppedTitle": "原发性皮肤淀粉样病变", "lemmaDesc": "原发性皮肤淀粉样病变系指淀粉蛋白沉积在正常的皮肤内，而没有其他系统的受累。目前已...", "lemmaUrl": "http://baike.baidu.com/item/%E5%8E%9F%E5%8F%91%E6%80%A7%E7%9A%AE%E8%82%A4%E6%B7%80%E7%B2%89%E6%A0%B7%E7%97%85%E5%8F%98/12021746", "lemmaPic": []}, {"lemmaId": 3263115, "lemmaTitle": "肺动脉发育不全", "lemmaCroppedTitle": "肺动脉发育不全", "lemmaDesc": "肺动脉发育不全(PAA)为较少见的先天性畸形，包括多种类型，如肺动脉主干缺如，右...", "lemmaUrl": "http://baike.baidu.com/item/%E8%82%BA%E5%8A%A8%E8%84%89%E5%8F%91%E8%82%B2%E4%B8%8D%E5%85%A8/3263115", "lemmaPic": []}, {"lemmaId": 6769255, "lemmaTitle": "小儿大动脉转位", "lemmaCroppedTitle": "小儿大动脉转位", "lemmaDesc": "大动脉转位是指右心房与右心室相连接，后者发出主动脉，而左心室与左心房相连并发出肺...", "lemmaUrl": "http://baike.baidu.com/item/%E5%B0%8F%E5%84%BF%E5%A4%A7%E5%8A%A8%E8%84%89%E8%BD%AC%E4%BD%8D/6769255", "lemmaPic": []}, {"lemmaId": 5893140, "lemmaTitle": "胸腹壁血栓性静脉炎", "lemmaCroppedTitle": "胸腹壁血栓性静脉炎", "lemmaDesc": "胸腹壁血栓性静脉炎是胸腹壁浅表静脉因血栓形成而致的静脉内膜炎症。又称Mondor...", "lemmaUrl": "http://baike.baidu.com/item/%E8%83%B8%E8%85%B9%E5%A3%81%E8%A1%80%E6%A0%93%E6%80%A7%E9%9D%99%E8%84%89%E7%82%8E/5893140", "lemmaPic": []}, {"lemmaId": 764437, "lemmaTitle": "乳腺癌肉瘤", "lemmaCroppedTitle": "乳腺癌肉瘤", "lemmaDesc": "乳腺癌肉瘤是指同侧乳腺内出现了癌与肉瘤共存的肿瘤，多见于老年妇女。原发的乳腺癌肉...", "lemmaUrl": "http://baike.baidu.com/item/%E4%B9%B3%E8%85%BA%E7%99%8C%E8%82%89%E7%98%A4/764437", "lemmaPic": []}, {"lemmaId": 9338130, "lemmaTitle": "先天性红细胞膜病", "lemmaCroppedTitle": "先天性红细胞膜病", "lemmaDesc": "先天性红细胞膜病是指细胞膜的表面结构异常，造成表面积减少与细胞内涵极不相称，或不...", "lemmaUrl": "http://baike.baidu.com/item/%E5%85%88%E5%A4%A9%E6%80%A7%E7%BA%A2%E7%BB%86%E8%83%9E%E8%86%9C%E7%97%85/9338130", "lemmaPic": []}, {"lemmaId": 9906162, "lemmaTitle": "结核性葡萄膜炎", "lemmaCroppedTitle": "结核性葡萄膜炎", "lemmaDesc": "结核性葡萄膜炎又称结核性色素膜炎，是结核的常见眼部病变，结核在多系统多器官均可引...", "lemmaUrl": "http://baike.baidu.com/item/%E7%BB%93%E6%A0%B8%E6%80%A7%E8%91%A1%E8%90%84%E8%86%9C%E7%82%8E/9906162", "lemmaPic": []}, {"lemmaId": 2724550, "lemmaTitle": "老年静脉血栓症", "lemmaCroppedTitle": "老年静脉血栓症", "lemmaDesc": "静脉血栓症有两种：一是血栓性静脉炎，它是指炎症为首发而血栓形成是继发的。另一个是...", "lemmaUrl": "http://baike.baidu.com/item/%E8%80%81%E5%B9%B4%E9%9D%99%E8%84%89%E8%A1%80%E6%A0%93%E7%97%87/2724550", "lemmaPic": []}, {"lemmaId": 5934396, "lemmaTitle": "颈丛神经卡压症", "lemmaCroppedTitle": "颈丛神经卡压症", "lemmaDesc": "颈丛神经卡压症是颈肩痛的一种。颈肩痛是临床上十分常见的疾病，常将其归于颈椎病、颈...", "lemmaUrl": "http://baike.baidu.com/item/%E9%A2%88%E4%B8%9B%E7%A5%9E%E7%BB%8F%E5%8D%A1%E5%8E%8B%E7%97%87/5934396", "lemmaPic": []}, {"lemmaId": 5557705, "lemmaTitle": "重度联合免疫缺陷病", "lemmaCroppedTitle": "重度联合免疫缺陷病", "lemmaDesc": "重度联合免疫缺陷病（SCID）、Swiss型无丙球蛋白血症、胸腺淋巴组织发育不良...", "lemmaUrl": "http://baike.baidu.com/item/%E9%87%8D%E5%BA%A6%E8%81%94%E5%90%88%E5%85%8D%E7%96%AB%E7%BC%BA%E9%99%B7%E7%97%85/5557705", "lemmaPic": []}, {"lemmaId": 4147608, "lemmaTitle": "今达花园", "lemmaCroppedTitle": "今达花园", "lemmaDesc": "基本信息小区：今达花园\r\n均价：20512元/平米\r\n地址：金桥路989弄\r\n总...", "lemmaUrl": "http://baike.baidu.com/item/%E4%BB%8A%E8%BE%BE%E8%8A%B1%E5%9B%AD/4147608", "lemmaPic": []}, {"lemmaId": 5086177, "lemmaTitle": "慢性单纯外伤性腰腿痛", "lemmaCroppedTitle": "慢性单纯外伤性腰腿痛", "lemmaDesc": "慢性单纯外伤性脊椎病性腰腿痛，除由急性外伤性腰背疼或脊柱骨折后遗者外，多由于异常...", "lemmaUrl": "http://baike.baidu.com/item/%E6%85%A2%E6%80%A7%E5%8D%95%E7%BA%AF%E5%A4%96%E4%BC%A4%E6%80%A7%E8%85%B0%E8%85%BF%E7%97%9B/5086177", "lemmaPic": []}, {"lemmaId": 880742, "lemmaTitle": "外阴上皮样肉瘤", "lemmaCroppedTitle": "外阴上皮样肉瘤", "lemmaDesc": "外阴上皮样肉瘤是一种罕见的阴阜、阴蒂软组织恶性肿瘤。发病年龄20～50多岁，好发...", "lemmaUrl": "http://baike.baidu.com/item/%E5%A4%96%E9%98%B4%E4%B8%8A%E7%9A%AE%E6%A0%B7%E8%82%89%E7%98%A4/880742", "lemmaPic": []}], "total": 7246, "totalPage": 73, "page": 53, "fromLemma": 0}