{"lemmaList": [{"lemmaId": 10769509, "lemmaTitle": "乳核", "lemmaCroppedTitle": "乳核", "lemmaDesc": "乳核又称“乳痰”、“乳栗”等，多发于生育年龄而体质虚弱者，由肝郁脾虚，痰浊凝结所...", "lemmaUrl": "http://baike.baidu.com/item/%E4%B9%B3%E6%A0%B8/10769509", "lemmaPic": []}, {"lemmaId": 2055840, "lemmaTitle": "鼻音", "lemmaCroppedTitle": "鼻音", "lemmaDesc": "鼻腔在发声时起共鸣作用。鼻音为语音形成的一部分，鼻音程度的高低直接关系到语音质量...", "lemmaUrl": "http://baike.baidu.com/item/%E9%BC%BB%E9%9F%B3/2055840", "lemmaPic": []}, {"lemmaId": 262154, "lemmaTitle": "colles骨折", "lemmaCroppedTitle": "colles骨折", "lemmaDesc": "Colles骨折是指桡骨下端的骨松质骨折。骨折发生在桡骨下端2～3厘米范围内的骨...", "lemmaUrl": "http://baike.baidu.com/item/colles%E9%AA%A8%E6%8A%98/262154", "lemmaPic": []}, {"lemmaId": 333139, "lemmaTitle": "胎儿宫内窘迫", "lemmaCroppedTitle": "胎儿宫内窘迫", "lemmaDesc": "胎儿宫内窘迫是指孕妇、胎儿或胎盘的各种高危因素引起的胎儿在宫内缺氧和酸中毒，表现...", "lemmaUrl": "http://baike.baidu.com/item/%E8%83%8E%E5%84%BF%E5%AE%AB%E5%86%85%E7%AA%98%E8%BF%AB/333139", "lemmaPic": []}, {"lemmaId": 10202104, "lemmaTitle": "嘴唇疱疹", "lemmaCroppedTitle": "嘴唇疱疹", "lemmaDesc": "一、概述唇疱疹由单纯疱疹病毒所引起的一种急性疱疹性皮肤病。人是单纯疱疹病毒惟一的...", "lemmaUrl": "http://baike.baidu.com/item/%E5%98%B4%E5%94%87%E7%96%B1%E7%96%B9/10202104", "lemmaPic": []}, {"lemmaId": 4071109, "lemmaTitle": "尿石症", "lemmaCroppedTitle": "尿石症", "lemmaDesc": "尿石症是泌尿系统的常见病之一，次于尿路感染和前列腺疾病。尿石可分为上尿路结石（肾...", "lemmaUrl": "http://baike.baidu.com/item/%E5%B0%BF%E7%9F%B3%E7%97%87/4071109", "lemmaPic": []}, {"lemmaId": 8818512, "lemmaTitle": "乳酸性酸中毒", "lemmaCroppedTitle": "乳酸性酸中毒", "lemmaDesc": "乳酸由丙酮酸还原而成，是糖中间代谢产物，当缺氧或丙酮酸未及氧化时即还原为乳酸。各...", "lemmaUrl": "http://baike.baidu.com/item/%E4%B9%B3%E9%85%B8%E6%80%A7%E9%85%B8%E4%B8%AD%E6%AF%92/8818512", "lemmaPic": []}, {"lemmaId": 2327862, "lemmaTitle": "臀肌挛缩症", "lemmaCroppedTitle": "臀肌挛缩症", "lemmaDesc": "臀肌挛缩症（GMC）是由多种原因引起的臀肌及其筋膜纤维变性、挛缩，引起髋关节功能...", "lemmaUrl": "http://baike.baidu.com/item/%E8%87%80%E8%82%8C%E6%8C%9B%E7%BC%A9%E7%97%87/2327862", "lemmaPic": []}, {"lemmaId": 4928662, "lemmaTitle": "硫化氢中毒", "lemmaCroppedTitle": "硫化氢中毒", "lemmaDesc": "硫化氢是具有刺激性和窒息性的无色气体。低浓度接触仅有呼吸道及眼的局部刺激作用，高...", "lemmaUrl": "http://baike.baidu.com/item/%E7%A1%AB%E5%8C%96%E6%B0%A2%E4%B8%AD%E6%AF%92/4928662", "lemmaPic": []}, {"lemmaId": 5358139, "lemmaTitle": "慢性单纯性鼻炎", "lemmaCroppedTitle": "慢性单纯性鼻炎", "lemmaDesc": "慢性鼻炎是发生在鼻腔黏膜和黏膜下层的慢性炎症，临床上分为慢性单纯性鼻炎和慢性肥厚...", "lemmaUrl": "http://baike.baidu.com/item/%E6%85%A2%E6%80%A7%E5%8D%95%E7%BA%AF%E6%80%A7%E9%BC%BB%E7%82%8E/5358139", "lemmaPic": []}, {"lemmaId": 938246, "lemmaTitle": "螨皮炎", "lemmaCroppedTitle": "螨皮炎", "lemmaDesc": "凡因螨虫叮咬而引起的皮炎统称螨皮炎。螨种类繁多，这里仅介绍由虱螨、粉螨等引起的皮...", "lemmaUrl": "http://baike.baidu.com/item/%E8%9E%A8%E7%9A%AE%E7%82%8E/938246", "lemmaPic": []}, {"lemmaId": 8674819, "lemmaTitle": "腋毛癣", "lemmaCroppedTitle": "腋毛癣", "lemmaDesc": "腋毛癣是纤细棒状杆菌引起的腋毛和阴毛的浅表感染。多发生于腋下和外阴，临床表现为在...", "lemmaUrl": "http://baike.baidu.com/item/%E8%85%8B%E6%AF%9B%E7%99%A3/8674819", "lemmaPic": []}, {"lemmaId": 5278001, "lemmaTitle": "产褥期乳腺炎", "lemmaCroppedTitle": "产褥期乳腺炎", "lemmaDesc": "产褥期乳腺炎常发生于第一次分娩后，根据病变发展过程分以下两种类型：淤积性乳腺炎和...", "lemmaUrl": "http://baike.baidu.com/item/%E4%BA%A7%E8%A4%A5%E6%9C%9F%E4%B9%B3%E8%85%BA%E7%82%8E/5278001", "lemmaPic": []}, {"lemmaId": 7246341, "lemmaTitle": "肺部良性肿瘤", "lemmaCroppedTitle": "肺部良性肿瘤", "lemmaDesc": "肺部良性肿瘤比较少见，其种类很多，可起源肺和支气管的所有各种不同类型细胞，以错构...", "lemmaUrl": "http://baike.baidu.com/item/%E8%82%BA%E9%83%A8%E8%89%AF%E6%80%A7%E8%82%BF%E7%98%A4/7246341", "lemmaPic": []}, {"lemmaId": 1836013, "lemmaTitle": "念珠菌性包皮龟头炎", "lemmaCroppedTitle": "念珠菌性包皮龟头炎", "lemmaDesc": "包皮龟头炎是包皮与龟头的弥漫性炎症，可以由感染性或非感染性因素所引起。临床上以感...", "lemmaUrl": "http://baike.baidu.com/item/%E5%BF%B5%E7%8F%A0%E8%8F%8C%E6%80%A7%E5%8C%85%E7%9A%AE%E9%BE%9F%E5%A4%B4%E7%82%8E/1836013", "lemmaPic": []}, {"lemmaId": 1831463, "lemmaTitle": "基孔肯雅热", "lemmaCroppedTitle": "基孔肯雅热", "lemmaDesc": "基孔肯雅热是由基孔肯雅病毒（CHIKV）引起，经伊蚊传播，以发热、皮疹及关节疼痛...", "lemmaUrl": "http://baike.baidu.com/item/%E5%9F%BA%E5%AD%94%E8%82%AF%E9%9B%85%E7%83%AD/1831463", "lemmaPic": []}, {"lemmaId": 10005697, "lemmaTitle": "肌膜炎", "lemmaCroppedTitle": "肌膜炎", "lemmaDesc": "肌膜炎是指由致病因子侵犯颈、肩、背部等肌纤维组织使之产生损伤，导致无菌性炎症，并...", "lemmaUrl": "http://baike.baidu.com/item/%E8%82%8C%E8%86%9C%E7%82%8E/10005697", "lemmaPic": []}, {"lemmaId": 1604973, "lemmaTitle": "二尖瓣脱垂", "lemmaCroppedTitle": "二尖瓣脱垂", "lemmaDesc": "二尖瓣脱垂是指二尖瓣叶（前叶、后叶或两叶）在心室收缩期脱入左心房（向左房侧膨出）...", "lemmaUrl": "http://baike.baidu.com/item/%E4%BA%8C%E5%B0%96%E7%93%A3%E8%84%B1%E5%9E%82/1604973", "lemmaPic": []}, {"lemmaId": 889431, "lemmaTitle": "软纤维瘤", "lemmaCroppedTitle": "软纤维瘤", "lemmaDesc": "本病又名皮赘，有人认为，软纤维瘤可作为识别腺瘤样结肠息肉的标致。", "lemmaUrl": "http://baike.baidu.com/item/%E8%BD%AF%E7%BA%A4%E7%BB%B4%E7%98%A4/889431", "lemmaPic": []}, {"lemmaId": 5318246, "lemmaTitle": "周期性麻痹", "lemmaCroppedTitle": "周期性麻痹", "lemmaDesc": "周期性麻痹也称为周期性瘫痪，是指一组以反复发作性的骨骼肌弛缓性瘫痪为主要表现的疾...", "lemmaUrl": "http://baike.baidu.com/item/%E5%91%A8%E6%9C%9F%E6%80%A7%E9%BA%BB%E7%97%B9/5318246", "lemmaPic": []}, {"lemmaId": 5318917, "lemmaTitle": "抽动障碍", "lemmaCroppedTitle": "抽动障碍", "lemmaDesc": "抽动障碍是一种主要发病于儿童期。原因不明。表现为发生在身体的任何部位突发、反复快...", "lemmaUrl": "http://baike.baidu.com/item/%E6%8A%BD%E5%8A%A8%E9%9A%9C%E7%A2%8D/5318917", "lemmaPic": []}, {"lemmaId": 2825237, "lemmaTitle": "森林脑炎", "lemmaCroppedTitle": "森林脑炎", "lemmaDesc": "森林脑炎是由黄病毒属中蜱传脑炎病毒所致的中枢神经系统急性传染病，蜱为其传播媒介。...", "lemmaUrl": "http://baike.baidu.com/item/%E6%A3%AE%E6%9E%97%E8%84%91%E7%82%8E/2825237", "lemmaPic": []}, {"lemmaId": 5400135, "lemmaTitle": "酒精性肝硬化", "lemmaCroppedTitle": "酒精性肝硬化", "lemmaDesc": "酒精性肝硬化是由于长期大量饮酒所致的肝硬化。是酒精肝的终末阶段。酒精性肝硬化的发...", "lemmaUrl": "http://baike.baidu.com/item/%E9%85%92%E7%B2%BE%E6%80%A7%E8%82%9D%E7%A1%AC%E5%8C%96/5400135", "lemmaPic": []}, {"lemmaId": 3154098, "lemmaTitle": "胃潴留", "lemmaCroppedTitle": "胃潴留", "lemmaDesc": "胃潴留或称胃排空延迟是指胃内容物积贮而未及时排空。凡呕吐出4～6小时以前摄入的食...", "lemmaUrl": "http://baike.baidu.com/item/%E8%83%83%E6%BD%B4%E7%95%99/3154098", "lemmaPic": []}, {"lemmaId": 4066399, "lemmaTitle": "肠穿孔", "lemmaCroppedTitle": "肠穿孔", "lemmaDesc": "小肠、结肠及其系膜在腹腔中分布广，容积大，相对表浅，又无骨骼保护，因此腹部穿透伤...", "lemmaUrl": "http://baike.baidu.com/item/%E8%82%A0%E7%A9%BF%E5%AD%94/4066399", "lemmaPic": []}, {"lemmaId": 5359867, "lemmaTitle": "新生儿颅内出血", "lemmaCroppedTitle": "新生儿颅内出血", "lemmaDesc": "新生儿颅内出血是新生儿常见的严重疾病，是常见的一种脑损伤，由产伤和缺氧引起，也是...", "lemmaUrl": "http://baike.baidu.com/item/%E6%96%B0%E7%94%9F%E5%84%BF%E9%A2%85%E5%86%85%E5%87%BA%E8%A1%80/5359867", "lemmaPic": []}, {"lemmaId": 2941149, "lemmaTitle": "舌系带过短", "lemmaCroppedTitle": "舌系带过短", "lemmaDesc": "舌系带过短是指孩子出生后舌系带没有退缩到舌根下，导致舌头不能伸出口外，舌尖不能上...", "lemmaUrl": "http://baike.baidu.com/item/%E8%88%8C%E7%B3%BB%E5%B8%A6%E8%BF%87%E7%9F%AD/2941149", "lemmaPic": []}, {"lemmaId": 523911, "lemmaTitle": "缺血性心肌病", "lemmaCroppedTitle": "缺血性心肌病", "lemmaDesc": "缺血性心肌病（ICM）属于冠心病的一种特殊类型或晚期阶段，是指由冠状动脉粥样硬化...", "lemmaUrl": "http://baike.baidu.com/item/%E7%BC%BA%E8%A1%80%E6%80%A7%E5%BF%83%E8%82%8C%E7%97%85/523911", "lemmaPic": []}, {"lemmaId": 4192241, "lemmaTitle": "恶性贫血", "lemmaCroppedTitle": "恶性贫血", "lemmaDesc": "恶性贫血是因胃黏膜萎缩、胃液中缺乏内因子，使维生素B12吸收出现障碍而发生的巨幼...", "lemmaUrl": "http://baike.baidu.com/item/%E6%81%B6%E6%80%A7%E8%B4%AB%E8%A1%80/4192241", "lemmaPic": []}, {"lemmaId": 9604197, "lemmaTitle": "心内膜炎", "lemmaCroppedTitle": "心内膜炎", "lemmaDesc": "心内膜炎是指由病原微生物直接侵袭心内膜而引起的一种炎症性疾病。瓣膜为最常受累部位...", "lemmaUrl": "http://baike.baidu.com/item/%E5%BF%83%E5%86%85%E8%86%9C%E7%82%8E/9604197", "lemmaPic": []}, {"lemmaId": 3590535, "lemmaTitle": "病毒性肠炎", "lemmaCroppedTitle": "病毒性肠炎", "lemmaDesc": "病毒性肠炎是一组由多种病毒引起的急性肠道传染病。临床特点为起病急、恶心、呕吐、腹...", "lemmaUrl": "http://baike.baidu.com/item/%E7%97%85%E6%AF%92%E6%80%A7%E8%82%A0%E7%82%8E/3590535", "lemmaPic": []}, {"lemmaId": 5054251, "lemmaTitle": "风湿性多肌痛", "lemmaCroppedTitle": "风湿性多肌痛", "lemmaDesc": "风湿性多肌痛（PMR）为一种和其他诊断明确的风湿性疾病、感染以及肿瘤无关的疼痛性...", "lemmaUrl": "http://baike.baidu.com/item/%E9%A3%8E%E6%B9%BF%E6%80%A7%E5%A4%9A%E8%82%8C%E7%97%9B/5054251", "lemmaPic": []}, {"lemmaId": 7766387, "lemmaTitle": "海豹肢症", "lemmaCroppedTitle": "海豹肢症", "lemmaDesc": "海豹肢症是一种罕见的先天性畸形，这些畸形婴儿大多没有臂和腿，或者手和脚直接连在身...", "lemmaUrl": "http://baike.baidu.com/item/%E6%B5%B7%E8%B1%B9%E8%82%A2%E7%97%87/7766387", "lemmaPic": []}, {"lemmaId": 8470852, "lemmaTitle": "毛发红糠疹", "lemmaCroppedTitle": "毛发红糠疹", "lemmaDesc": "毛发红康疹是指一种少见的慢性鳞屑性炎症性皮肤病，以黄红色鳞屑性斑片和角化性毛囊性...", "lemmaUrl": "http://baike.baidu.com/item/%E6%AF%9B%E5%8F%91%E7%BA%A2%E7%B3%A0%E7%96%B9/8470852", "lemmaPic": []}, {"lemmaId": 5318971, "lemmaTitle": "神经性呕吐", "lemmaCroppedTitle": "神经性呕吐", "lemmaDesc": "神经性呕吐指一组自发或故意诱发反复呕吐的精神障碍，呕吐物为刚吃进的食物。该病不伴...", "lemmaUrl": "http://baike.baidu.com/item/%E7%A5%9E%E7%BB%8F%E6%80%A7%E5%91%95%E5%90%90/5318971", "lemmaPic": []}, {"lemmaId": 8595586, "lemmaTitle": "周围性面瘫", "lemmaCroppedTitle": "周围性面瘫", "lemmaDesc": "周围性面瘫又称Bell麻痹或面神经炎，为面神经管内面神经的非特异性炎症引起的周围...", "lemmaUrl": "http://baike.baidu.com/item/%E5%91%A8%E5%9B%B4%E6%80%A7%E9%9D%A2%E7%98%AB/8595586", "lemmaPic": []}, {"lemmaId": 2215014, "lemmaTitle": "继发性痛经", "lemmaCroppedTitle": "继发性痛经", "lemmaDesc": "“继发性痛经”是相对于“原发性痛经”的另一个概念。“原发性痛经”是指在第一次来例...", "lemmaUrl": "http://baike.baidu.com/item/%E7%BB%A7%E5%8F%91%E6%80%A7%E7%97%9B%E7%BB%8F/2215014", "lemmaPic": []}, {"lemmaId": 979782, "lemmaTitle": "急性细菌性脑膜炎", "lemmaCroppedTitle": "急性细菌性脑膜炎", "lemmaDesc": "急性细菌性脑膜炎，又称化脓性脑膜炎，是化脓性细菌感染所致的脑脊膜炎症，其临床特点...", "lemmaUrl": "http://baike.baidu.com/item/%E6%80%A5%E6%80%A7%E7%BB%86%E8%8F%8C%E6%80%A7%E8%84%91%E8%86%9C%E7%82%8E/979782", "lemmaPic": []}, {"lemmaId": 10746784, "lemmaTitle": "实火", "lemmaCroppedTitle": "实火", "lemmaDesc": "实火，中医病证名，指邪热炽盛引起的实热证。其证候表现为高热、头痛、目赤、口苦口干...", "lemmaUrl": "http://baike.baidu.com/item/%E5%AE%9E%E7%81%AB/10746784", "lemmaPic": []}, {"lemmaId": 4628004, "lemmaTitle": "脑囊肿", "lemmaCroppedTitle": "脑囊肿", "lemmaDesc": "脑囊肿一般指的是蛛网膜囊肿，是脑脊液样的囊液被包围在蛛网膜所形成的袋状结构而成，...", "lemmaUrl": "http://baike.baidu.com/item/%E8%84%91%E5%9B%8A%E8%82%BF/4628004", "lemmaPic": []}, {"lemmaId": 939697, "lemmaTitle": "高催乳素血症", "lemmaCroppedTitle": "高催乳素血症", "lemmaDesc": "高催乳素血症又称高泌乳素血症（hyperprolactinemia），是一类由多...", "lemmaUrl": "http://baike.baidu.com/item/%E9%AB%98%E5%82%AC%E4%B9%B3%E7%B4%A0%E8%A1%80%E7%97%87/939697", "lemmaPic": []}, {"lemmaId": 3594524, "lemmaTitle": "血精症", "lemmaCroppedTitle": "血精症", "lemmaDesc": "血精症是男科和泌尿外科常见疾病，指精液中存在血液。根据含血量的多少，可以表现为肉...", "lemmaUrl": "http://baike.baidu.com/item/%E8%A1%80%E7%B2%BE%E7%97%87/3594524", "lemmaPic": {"width": 401, "height": 299, "url": "https://gss0.bdstatic.com/-4o3dSag_xI4khGkpoWK1HF6hhy/baike/w%3D168/sign=e0da392034a85edffa8cfa25715509d8/c83d70cf3bc79f3da437b440baa1cd11738b29ef.jpg"}}, {"lemmaId": 9868484, "lemmaTitle": "除湿止痒软膏", "lemmaCroppedTitle": "除湿止痒软膏", "lemmaDesc": "本品为中药软膏剂，外用药，具有清热除湿，祛风止痒的功效。需凭医生处方，不应自行购...", "lemmaUrl": "http://baike.baidu.com/item/%E9%99%A4%E6%B9%BF%E6%AD%A2%E7%97%92%E8%BD%AF%E8%86%8F/9868484", "lemmaPic": []}, {"lemmaId": 4407800, "lemmaTitle": "脾虚泄泻", "lemmaCroppedTitle": "脾虚泄泻", "lemmaDesc": "中医病证名。由脾气虚，或病后过服寒凉，或饮食失节，或劳倦伤脾所致之泄泻。《症因脉...", "lemmaUrl": "http://baike.baidu.com/item/%E8%84%BE%E8%99%9A%E6%B3%84%E6%B3%BB/4407800", "lemmaPic": []}, {"lemmaId": 9321686, "lemmaTitle": "药物中毒", "lemmaCroppedTitle": "药物中毒", "lemmaDesc": "用药剂量超过极量而引起的中毒。误服或服药过量以及药物滥用均可引起药物中毒。常见的...", "lemmaUrl": "http://baike.baidu.com/item/%E8%8D%AF%E7%89%A9%E4%B8%AD%E6%AF%92/9321686", "lemmaPic": []}, {"lemmaId": 10964127, "lemmaTitle": "隐匿性肾小球肾炎", "lemmaCroppedTitle": "隐匿性肾小球肾炎", "lemmaDesc": "原发性肾小球肾炎（primary glomerulonephritis）除了病理...", "lemmaUrl": "http://baike.baidu.com/item/%E9%9A%90%E5%8C%BF%E6%80%A7%E8%82%BE%E5%B0%8F%E7%90%83%E8%82%BE%E7%82%8E/10964127", "lemmaPic": []}, {"lemmaId": 3639143, "lemmaTitle": "表皮样囊肿", "lemmaCroppedTitle": "表皮样囊肿", "lemmaDesc": "表皮样囊肿又名角质囊肿、漏斗部囊肿、表皮包涵囊肿，是最常见的皮肤囊肿之一，好发于...", "lemmaUrl": "http://baike.baidu.com/item/%E8%A1%A8%E7%9A%AE%E6%A0%B7%E5%9B%8A%E8%82%BF/3639143", "lemmaPic": []}, {"lemmaId": 512706, "lemmaTitle": "卵巢过度刺激综合征", "lemmaCroppedTitle": "卵巢过度刺激综合征", "lemmaDesc": "卵巢过度刺激综合征（OHSS）为体外受孕辅助生育的主要并发症之一，是一种人体对促...", "lemmaUrl": "http://baike.baidu.com/item/%E5%8D%B5%E5%B7%A2%E8%BF%87%E5%BA%A6%E5%88%BA%E6%BF%80%E7%BB%BC%E5%90%88%E5%BE%81/512706", "lemmaPic": []}, {"lemmaId": 3792733, "lemmaTitle": "倾倒综合征", "lemmaCroppedTitle": "倾倒综合征", "lemmaDesc": "发生于任何类型的胃部手术之后，以BillrothⅡ式胃大部切除术后更为多见，食管...", "lemmaUrl": "http://baike.baidu.com/item/%E5%80%BE%E5%80%92%E7%BB%BC%E5%90%88%E5%BE%81/3792733", "lemmaPic": []}, {"lemmaId": 8532536, "lemmaTitle": "脑脊液鼻漏", "lemmaCroppedTitle": "脑脊液鼻漏", "lemmaDesc": "脑脊液鼻漏脑脊液鼻漏是脑脊液通过颅底（颅前、中或后窝）或其他部位骨质缺损、破裂处...", "lemmaUrl": "http://baike.baidu.com/item/%E8%84%91%E8%84%8A%E6%B6%B2%E9%BC%BB%E6%BC%8F/8532536", "lemmaPic": []}, {"lemmaId": 1003067, "lemmaTitle": "高眼压症", "lemmaCroppedTitle": "高眼压症", "lemmaDesc": "高眼压症是针对原发性开角型青光眼的诊治过程中，经过数十年的临床实践经验逐步深入认...", "lemmaUrl": "http://baike.baidu.com/item/%E9%AB%98%E7%9C%BC%E5%8E%8B%E7%97%87/1003067", "lemmaPic": []}, {"lemmaId": 5119343, "lemmaTitle": "肱骨髁上骨折", "lemmaCroppedTitle": "肱骨髁上骨折", "lemmaDesc": "肱骨髁上骨折系指肱骨远端内外髁上方的骨折。其中伸直型占90%左右。以小儿最多见，...", "lemmaUrl": "http://baike.baidu.com/item/%E8%82%B1%E9%AA%A8%E9%AB%81%E4%B8%8A%E9%AA%A8%E6%8A%98/5119343", "lemmaPic": []}, {"lemmaId": 3247297, "lemmaTitle": "阴阳失调", "lemmaCroppedTitle": "阴阳失调", "lemmaDesc": "阴阳失调，既指病证，也指病机。指机体阴阳消长失去平衡的统称。是机体在疾病过程中，...", "lemmaUrl": "http://baike.baidu.com/item/%E9%98%B4%E9%98%B3%E5%A4%B1%E8%B0%83/3247297", "lemmaPic": []}, {"lemmaId": 4051775, "lemmaTitle": "二氧化碳中毒", "lemmaCroppedTitle": "二氧化碳中毒", "lemmaDesc": "二氧化碳中毒是长时间处于低浓度二氧化碳环境中或突然进入高浓度二氧化碳环境中引起，...", "lemmaUrl": "http://baike.baidu.com/item/%E4%BA%8C%E6%B0%A7%E5%8C%96%E7%A2%B3%E4%B8%AD%E6%AF%92/4051775", "lemmaPic": []}, {"lemmaId": 4552108, "lemmaTitle": "疲劳综合征", "lemmaCroppedTitle": "疲劳综合征", "lemmaDesc": "疲劳综合征即慢性疲劳综合征（CFS）是一组以持续或反复发作的疲劳，伴有多种神经、...", "lemmaUrl": "http://baike.baidu.com/item/%E7%96%B2%E5%8A%B3%E7%BB%BC%E5%90%88%E5%BE%81/4552108", "lemmaPic": []}, {"lemmaId": 12700758, "lemmaTitle": "腰椎峡部崩裂和腰椎滑脱", "lemmaCroppedTitle": "腰椎峡部崩裂和腰椎滑脱", "lemmaDesc": "腰椎峡部系指上、下关节突之间的狭窄部分，此处骨质结构相对薄弱。正常腰椎有生理前凸...", "lemmaUrl": "http://baike.baidu.com/item/%E8%85%B0%E6%A4%8E%E5%B3%A1%E9%83%A8%E5%B4%A9%E8%A3%82%E5%92%8C%E8%85%B0%E6%A4%8E%E6%BB%91%E8%84%B1/12700758", "lemmaPic": []}, {"lemmaId": 4776570, "lemmaTitle": "电脑病", "lemmaCroppedTitle": "电脑病", "lemmaDesc": "电脑病又叫视频显示终端综合征，是由于使用电脑时间过长、电脑位置放置不科学以及电脑...", "lemmaUrl": "http://baike.baidu.com/item/%E7%94%B5%E8%84%91%E7%97%85/4776570", "lemmaPic": []}, {"lemmaId": 2379282, "lemmaTitle": "高钠血症", "lemmaCroppedTitle": "高钠血症", "lemmaDesc": "血清钠浓度高于145mmol/L，称为高钠血症，常见于血液浓缩导致浓缩性高钠血症...", "lemmaUrl": "http://baike.baidu.com/item/%E9%AB%98%E9%92%A0%E8%A1%80%E7%97%87/2379282", "lemmaPic": []}, {"lemmaId": 1488004, "lemmaTitle": "股疝", "lemmaCroppedTitle": "股疝", "lemmaDesc": "疝囊通过股环、经股管向卵圆窝突出的疝称为股疝。股疝的发病率约占腹外疝的3%～5%...", "lemmaUrl": "http://baike.baidu.com/item/%E8%82%A1%E7%96%9D/1488004", "lemmaPic": []}, {"lemmaId": 4689350, "lemmaTitle": "斜疝", "lemmaCroppedTitle": "斜疝", "lemmaDesc": "腹股沟斜疝是指腹腔内脏器通过位于腹壁下动脉外侧的腹股沟管深环（腹横筋膜卵圆孔）突...", "lemmaUrl": "http://baike.baidu.com/item/%E6%96%9C%E7%96%9D/4689350", "lemmaPic": []}, {"lemmaId": 1101816, "lemmaTitle": "咽鼓管炎", "lemmaCroppedTitle": "咽鼓管炎", "lemmaDesc": "咽鼓管是连通鼓室和鼻咽部的一个管道，它的主要生理功能是：①保持中耳内外压力平衡，...", "lemmaUrl": "http://baike.baidu.com/item/%E5%92%BD%E9%BC%93%E7%AE%A1%E7%82%8E/1101816", "lemmaPic": []}, {"lemmaId": 3013175, "lemmaTitle": "先天性卵巢发育不全", "lemmaCroppedTitle": "先天性卵巢发育不全", "lemmaDesc": "先天性卵巢发育不全是由Turner在1938年首先描述，也称Turner综合征。...", "lemmaUrl": "http://baike.baidu.com/item/%E5%85%88%E5%A4%A9%E6%80%A7%E5%8D%B5%E5%B7%A2%E5%8F%91%E8%82%B2%E4%B8%8D%E5%85%A8/3013175", "lemmaPic": []}, {"lemmaId": 834309, "lemmaTitle": "肝肾阴虚证", "lemmaCroppedTitle": "肝肾阴虚证", "lemmaDesc": "肝肾阴虚证，为中医证型，是指肝肾两脏阴液亏虚，阴不制阳，虚热内扰所致的证候。多由...", "lemmaUrl": "http://baike.baidu.com/item/%E8%82%9D%E8%82%BE%E9%98%B4%E8%99%9A%E8%AF%81/834309", "lemmaPic": []}, {"lemmaId": 5916219, "lemmaTitle": "Graves病", "lemmaCroppedTitle": "Graves病", "lemmaDesc": "Graves病（GD）又称毒性弥漫性甲状腺肿或Basedow病，是一种伴甲状腺激...", "lemmaUrl": "http://baike.baidu.com/item/Graves%E7%97%85/5916219", "lemmaPic": []}, {"lemmaId": 5625234, "lemmaTitle": "间质性膀胱炎", "lemmaCroppedTitle": "间质性膀胱炎", "lemmaDesc": "间质性膀胱炎（IC）常发生于中年妇女，其特点主要是膀胱壁的纤维化。并伴有膀胱容量...", "lemmaUrl": "http://baike.baidu.com/item/%E9%97%B4%E8%B4%A8%E6%80%A7%E8%86%80%E8%83%B1%E7%82%8E/5625234", "lemmaPic": []}, {"lemmaId": 4928605, "lemmaTitle": "喘息样支气管炎", "lemmaCroppedTitle": "喘息样支气管炎", "lemmaDesc": "喘息样支气管炎是一临床综合征，泛指一组有喘息表现的婴幼儿急性支气管炎。肺实质很少...", "lemmaUrl": "http://baike.baidu.com/item/%E5%96%98%E6%81%AF%E6%A0%B7%E6%94%AF%E6%B0%94%E7%AE%A1%E7%82%8E/4928605", "lemmaPic": []}, {"lemmaId": 4431123, "lemmaTitle": "弦脉", "lemmaCroppedTitle": "弦脉", "lemmaDesc": "弦脉，脉象名。《素问.玉机真脏论》：“端直以长，故曰弦”，是指弦脉为端直而长、指...", "lemmaUrl": "http://baike.baidu.com/item/%E5%BC%A6%E8%84%89/4431123", "lemmaPic": []}, {"lemmaId": 5101529, "lemmaTitle": "新生儿生理性黄疸", "lemmaCroppedTitle": "新生儿生理性黄疸", "lemmaDesc": "新生儿生理性黄疸是由新生儿胆红素代谢特点所引起，是正常新生儿在生长过程中的一种生...", "lemmaUrl": "http://baike.baidu.com/item/%E6%96%B0%E7%94%9F%E5%84%BF%E7%94%9F%E7%90%86%E6%80%A7%E9%BB%84%E7%96%B8/5101529", "lemmaPic": []}, {"lemmaId": 592111, "lemmaTitle": "肝脾不和证", "lemmaCroppedTitle": "肝脾不和证", "lemmaDesc": "肝脾不和证是肝失疏泄，脾失健运，两脏关系失调，功能紊乱所致的病症。又称肝脾不调。...", "lemmaUrl": "http://baike.baidu.com/item/%E8%82%9D%E8%84%BE%E4%B8%8D%E5%92%8C%E8%AF%81/592111", "lemmaPic": []}, {"lemmaId": 2291355, "lemmaTitle": "肠瘘", "lemmaCroppedTitle": "肠瘘", "lemmaDesc": "肠瘘是指在肠与其他器官，或肠与腹腔、腹壁外有不正常的通道，前者称内瘘，后者为外瘘...", "lemmaUrl": "http://baike.baidu.com/item/%E8%82%A0%E7%98%98/2291355", "lemmaPic": []}, {"lemmaId": 4803782, "lemmaTitle": "下咽癌", "lemmaCroppedTitle": "下咽癌", "lemmaDesc": "下咽部在临床上分为3个解剖区：梨状窝、环状软骨后区（简称环后区）、喉咽后壁区。在...", "lemmaUrl": "http://baike.baidu.com/item/%E4%B8%8B%E5%92%BD%E7%99%8C/4803782", "lemmaPic": []}, {"lemmaId": 7900852, "lemmaTitle": "周围型肺癌", "lemmaCroppedTitle": "周围型肺癌", "lemmaDesc": "周围型肺癌是指起自三级支气管以下，呼吸性细支气管以上的肺癌。以腺癌多见。临床上早...", "lemmaUrl": "http://baike.baidu.com/item/%E5%91%A8%E5%9B%B4%E5%9E%8B%E8%82%BA%E7%99%8C/7900852", "lemmaPic": []}, {"lemmaId": 3456456, "lemmaTitle": "碱中毒", "lemmaCroppedTitle": "碱中毒", "lemmaDesc": "正常人体内pH值为7.35～7.45。碱中毒是指体内酸丢失过多或者从体外摄入碱过...", "lemmaUrl": "http://baike.baidu.com/item/%E7%A2%B1%E4%B8%AD%E6%AF%92/3456456", "lemmaPic": []}, {"lemmaId": 7960257, "lemmaTitle": "新生儿低血糖", "lemmaCroppedTitle": "新生儿低血糖", "lemmaDesc": "新生儿低血糖症是新生儿的血糖低于所需要的血糖浓度。常发生于早产儿、足月小样儿、糖...", "lemmaUrl": "http://baike.baidu.com/item/%E6%96%B0%E7%94%9F%E5%84%BF%E4%BD%8E%E8%A1%80%E7%B3%96/7960257", "lemmaPic": []}, {"lemmaId": 7852024, "lemmaTitle": "表皮囊肿", "lemmaCroppedTitle": "表皮囊肿", "lemmaDesc": "本病是一种良性皮肤附属器肿瘤，又名角质囊肿，系毛囊漏斗部的囊肿，囊腔的上皮与毛囊...", "lemmaUrl": "http://baike.baidu.com/item/%E8%A1%A8%E7%9A%AE%E5%9B%8A%E8%82%BF/7852024", "lemmaPic": []}, {"lemmaId": 5421037, "lemmaTitle": "牙颌畸形", "lemmaCroppedTitle": "牙颌畸形", "lemmaDesc": "牙颌畸形是指儿童在生长发育过程中由先天的遗传因素或后天的环境因素造成的牙齿、颔骨...", "lemmaUrl": "http://baike.baidu.com/item/%E7%89%99%E9%A2%8C%E7%95%B8%E5%BD%A2/5421037", "lemmaPic": []}, {"lemmaId": 1795121, "lemmaTitle": "心血管造影", "lemmaCroppedTitle": "心血管造影", "lemmaDesc": "心血管造影术是将造影剂通过心导管快速注入心腔或血管，使心脏和血管腔在X线照射下显...", "lemmaUrl": "http://baike.baidu.com/item/%E5%BF%83%E8%A1%80%E7%AE%A1%E9%80%A0%E5%BD%B1/1795121", "lemmaPic": []}, {"lemmaId": 2924920, "lemmaTitle": "癃闭", "lemmaCroppedTitle": "癃闭", "lemmaDesc": "癃闭，中医病名。又称小便不通；尿闭。以小便量少，点滴而出，甚则闭塞不通为主症的一...", "lemmaUrl": "http://baike.baidu.com/item/%E7%99%83%E9%97%AD/2924920", "lemmaPic": []}, {"lemmaId": 1125435, "lemmaTitle": "视网膜病变", "lemmaCroppedTitle": "视网膜病变", "lemmaDesc": "视网膜病变（retinopathy）分类较多，比较复杂，常见的有视网膜脱离、黄斑...", "lemmaUrl": "http://baike.baidu.com/item/%E8%A7%86%E7%BD%91%E8%86%9C%E7%97%85%E5%8F%98/1125435", "lemmaPic": []}, {"lemmaId": 4888108, "lemmaTitle": "小肠癌", "lemmaCroppedTitle": "小肠癌", "lemmaDesc": "小肠癌是指发生于十二指肠、空肠与回肠的恶性肿瘤，较少见。小肠恶性肿瘤约占胃肠道全...", "lemmaUrl": "http://baike.baidu.com/item/%E5%B0%8F%E8%82%A0%E7%99%8C/4888108", "lemmaPic": []}, {"lemmaId": 10927931, "lemmaTitle": "虚劳", "lemmaCroppedTitle": "虚劳", "lemmaDesc": "虚劳，中医病症名，又称虚损，是由于禀赋薄弱、后天失养及外感内伤等多种原因引起的，...", "lemmaUrl": "http://baike.baidu.com/item/%E8%99%9A%E5%8A%B3/10927931", "lemmaPic": []}, {"lemmaId": 10964139, "lemmaTitle": "肾动脉狭窄", "lemmaCroppedTitle": "肾动脉狭窄", "lemmaDesc": "肾动脉狭窄是由多种病因引起的一种肾血管疾病，临床上主要表现为肾血管性高血压和缺血...", "lemmaUrl": "http://baike.baidu.com/item/%E8%82%BE%E5%8A%A8%E8%84%89%E7%8B%AD%E7%AA%84/10964139", "lemmaPic": []}, {"lemmaId": 3713592, "lemmaTitle": "免疫缺陷病", "lemmaCroppedTitle": "免疫缺陷病", "lemmaDesc": "免疫缺陷病（IDD）是一组由于免疫系统发育不全或遭受损害所致的免疫功能缺陷引起的...", "lemmaUrl": "http://baike.baidu.com/item/%E5%85%8D%E7%96%AB%E7%BC%BA%E9%99%B7%E7%97%85/3713592", "lemmaPic": []}, {"lemmaId": 5245106, "lemmaTitle": "恶性葡萄胎", "lemmaCroppedTitle": "恶性葡萄胎", "lemmaDesc": "葡萄胎是指妊娠后胎盘绒毛滋养细胞增生，间质高度水肿，形成大小不一的水泡，水泡间相...", "lemmaUrl": "http://baike.baidu.com/item/%E6%81%B6%E6%80%A7%E8%91%A1%E8%90%84%E8%83%8E/5245106", "lemmaPic": []}, {"lemmaId": 8531579, "lemmaTitle": "脑挫裂伤", "lemmaCroppedTitle": "脑挫裂伤", "lemmaDesc": "脑挫裂伤（cerebral contusion and laceration）是...", "lemmaUrl": "http://baike.baidu.com/item/%E8%84%91%E6%8C%AB%E8%A3%82%E4%BC%A4/8531579", "lemmaPic": []}, {"lemmaId": 350576, "lemmaTitle": "成骨不全", "lemmaCroppedTitle": "成骨不全", "lemmaDesc": "成骨不全又称脆骨症，Lobstein病等。其特征为骨质脆弱、蓝巩膜、耳聋、关节松...", "lemmaUrl": "http://baike.baidu.com/item/%E6%88%90%E9%AA%A8%E4%B8%8D%E5%85%A8/350576", "lemmaPic": []}, {"lemmaId": 3991043, "lemmaTitle": "咬肌肥大", "lemmaCroppedTitle": "咬肌肥大", "lemmaDesc": "咬肌肥大又称咬肌良性肥大，在东方民族脸型中并非罕见。单纯咬肌肥大的情况较少，临床...", "lemmaUrl": "http://baike.baidu.com/item/%E5%92%AC%E8%82%8C%E8%82%A5%E5%A4%A7/3991043", "lemmaPic": []}, {"lemmaId": 8670762, "lemmaTitle": "高血压性脑出血", "lemmaCroppedTitle": "高血压性脑出血", "lemmaDesc": "高血压性脑出血是高血压病最严重的并发症之一，常发生于50～70岁，男性略多，冬春...", "lemmaUrl": "http://baike.baidu.com/item/%E9%AB%98%E8%A1%80%E5%8E%8B%E6%80%A7%E8%84%91%E5%87%BA%E8%A1%80/8670762", "lemmaPic": []}, {"lemmaId": 1049578, "lemmaTitle": "子宫内膜不规则脱落", "lemmaCroppedTitle": "子宫内膜不规则脱落", "lemmaDesc": "子宫内膜不规则脱落可导致异常子宫出血，多见于育龄期妇女，由于卵泡发育不全，尽管有...", "lemmaUrl": "http://baike.baidu.com/item/%E5%AD%90%E5%AE%AB%E5%86%85%E8%86%9C%E4%B8%8D%E8%A7%84%E5%88%99%E8%84%B1%E8%90%BD/1049578", "lemmaPic": []}, {"lemmaId": 4308451, "lemmaTitle": "新生儿呕吐", "lemmaCroppedTitle": "新生儿呕吐", "lemmaDesc": "呕吐是新生儿期常见症状之一，是由于消化道及其他有关的器官借一系列复杂的神经反射来...", "lemmaUrl": "http://baike.baidu.com/item/%E6%96%B0%E7%94%9F%E5%84%BF%E5%91%95%E5%90%90/4308451", "lemmaPic": []}, {"lemmaId": 3143032, "lemmaTitle": "淋巴管瘤", "lemmaCroppedTitle": "淋巴管瘤", "lemmaDesc": "本病是一种淋巴管的良性过度增生。临床及病理上可分为单纯性淋巴管瘤、海绵状淋巴管瘤...", "lemmaUrl": "http://baike.baidu.com/item/%E6%B7%8B%E5%B7%B4%E7%AE%A1%E7%98%A4/3143032", "lemmaPic": []}, {"lemmaId": 8042498, "lemmaTitle": "颞叶癫痫", "lemmaCroppedTitle": "颞叶癫痫", "lemmaDesc": "导致癫痫发作的神经元放电或损害影响到整个或部分颞叶的局限性癫痫。这种形式的癫痫包...", "lemmaUrl": "http://baike.baidu.com/item/%E9%A2%9E%E5%8F%B6%E7%99%AB%E7%97%AB/8042498", "lemmaPic": []}, {"lemmaId": 2830712, "lemmaTitle": "急性化脓性中耳炎", "lemmaCroppedTitle": "急性化脓性中耳炎", "lemmaDesc": "急性化脓性中耳炎是细菌感染引起的中耳黏膜的急性化脓性炎症。本病多见于儿童。临床上...", "lemmaUrl": "http://baike.baidu.com/item/%E6%80%A5%E6%80%A7%E5%8C%96%E8%84%93%E6%80%A7%E4%B8%AD%E8%80%B3%E7%82%8E/2830712", "lemmaPic": []}, {"lemmaId": 10501614, "lemmaTitle": "开角型青光眼", "lemmaCroppedTitle": "开角型青光眼", "lemmaDesc": "开角型青光眼包括原发性和继发性之分。但是临床上开角型青光眼一般是指原发性开角型青...", "lemmaUrl": "http://baike.baidu.com/item/%E5%BC%80%E8%A7%92%E5%9E%8B%E9%9D%92%E5%85%89%E7%9C%BC/10501614", "lemmaPic": []}, {"lemmaId": 3063275, "lemmaTitle": "混合性结缔组织病", "lemmaCroppedTitle": "混合性结缔组织病", "lemmaDesc": "1972年Sharp等首先提出一种同时或不同时具有系统性红斑狼疮（SLE）、多发...", "lemmaUrl": "http://baike.baidu.com/item/%E6%B7%B7%E5%90%88%E6%80%A7%E7%BB%93%E7%BC%94%E7%BB%84%E7%BB%87%E7%97%85/3063275", "lemmaPic": []}, {"lemmaId": 3790825, "lemmaTitle": "帕金森症", "lemmaCroppedTitle": "帕金森症", "lemmaDesc": "帕金森病（PD）又名震颤麻痹，是最常见的神经退行性疾病之一。流行病学显示，患病率...", "lemmaUrl": "http://baike.baidu.com/item/%E5%B8%95%E9%87%91%E6%A3%AE%E7%97%87/3790825", "lemmaPic": []}, {"lemmaId": 7716075, "lemmaTitle": "小儿脑积水", "lemmaCroppedTitle": "小儿脑积水", "lemmaDesc": "脑积水系指脑室系统内脑脊液积聚过多并引起脑室内压力增高。小儿脑积水，或称儿童脑积...", "lemmaUrl": "http://baike.baidu.com/item/%E5%B0%8F%E5%84%BF%E8%84%91%E7%A7%AF%E6%B0%B4/7716075", "lemmaPic": []}, {"lemmaId": 4029084, "lemmaTitle": "呆滞", "lemmaCroppedTitle": "呆滞", "lemmaDesc": "呆是痴，不灵敏，目瞪口呆，滞是不通，遗落，呆痴不灵敏，不流通遗落在某一部位，没有...", "lemmaUrl": "http://baike.baidu.com/item/%E5%91%86%E6%BB%9E/4029084", "lemmaPic": []}, {"lemmaId": 7909458, "lemmaTitle": "小肝癌", "lemmaCroppedTitle": "小肝癌", "lemmaDesc": "小肝癌又称为亚临床肝癌或早期肝癌，临床上无明显肝癌症状和体征。小肝癌一般指肝细胞...", "lemmaUrl": "http://baike.baidu.com/item/%E5%B0%8F%E8%82%9D%E7%99%8C/7909458", "lemmaPic": []}, {"lemmaId": 951953, "lemmaTitle": "语言发育迟缓", "lemmaCroppedTitle": "语言发育迟缓", "lemmaDesc": "语言发育迟缓是指由各种原因引起的儿童口头表达能力或语言理解能力明显落后于同龄儿童...", "lemmaUrl": "http://baike.baidu.com/item/%E8%AF%AD%E8%A8%80%E5%8F%91%E8%82%B2%E8%BF%9F%E7%BC%93/951953", "lemmaPic": []}], "total": 7246, "totalPage": 73, "page": 17, "fromLemma": 0}