{"lemmaList": [{"lemmaId": 2494470, "lemmaTitle": "甲癣", "lemmaCroppedTitle": "甲癣", "lemmaDesc": "甲癣，俗称“灰指甲”，是指皮癣菌侵犯甲板或甲下所引起的疾病。甲真菌病是由皮癣菌、...", "lemmaUrl": "http://baike.baidu.com/item/%E7%94%B2%E7%99%A3/2494470", "lemmaPic": []}, {"lemmaId": 5588, "lemmaTitle": "妇科炎症", "lemmaCroppedTitle": "妇科炎症", "lemmaDesc": "妇科炎症是女性的常见疾病，主要是指女性生殖器官的炎症（外阴炎、阴道炎、宫颈炎、子...", "lemmaUrl": "http://baike.baidu.com/item/%E5%A6%87%E7%A7%91%E7%82%8E%E7%97%87/5588", "lemmaPic": []}, {"lemmaId": 1148, "lemmaTitle": "股骨头坏死", "lemmaCroppedTitle": "股骨头坏死", "lemmaDesc": "股骨头坏死是一个病理演变过程，初始发生在股骨头的负重区，应力作用下坏死骨骨小梁结...", "lemmaUrl": "http://baike.baidu.com/item/%E8%82%A1%E9%AA%A8%E5%A4%B4%E5%9D%8F%E6%AD%BB/1148", "lemmaPic": []}, {"lemmaId": 3056855, "lemmaTitle": "高血糖", "lemmaCroppedTitle": "高血糖", "lemmaDesc": "当血糖值高于正常范围即为高血糖。高血糖也是通常大家所说“三高”中的一高。另外“两...", "lemmaUrl": "http://baike.baidu.com/item/%E9%AB%98%E8%A1%80%E7%B3%96/3056855", "lemmaPic": []}, {"lemmaId": 266918, "lemmaTitle": "乙肝两对半", "lemmaCroppedTitle": "乙肝两对半", "lemmaDesc": "乙肝即乙型病毒性肝炎（viral hepatitis type B），乙肝五项也...", "lemmaUrl": "http://baike.baidu.com/item/%E4%B9%99%E8%82%9D%E4%B8%A4%E5%AF%B9%E5%8D%8A/266918", "lemmaPic": []}, {"lemmaId": 1165563, "lemmaTitle": "中暑", "lemmaCroppedTitle": "中暑", "lemmaDesc": "中暑是指长时间暴露在高温环境中、或在炎热环境中进行体力活动引起机体体温调节功能紊...", "lemmaUrl": "http://baike.baidu.com/item/%E4%B8%AD%E6%9A%91/1165563", "lemmaPic": []}, {"lemmaId": 1374676, "lemmaTitle": "风湿性关节炎", "lemmaCroppedTitle": "风湿性关节炎", "lemmaDesc": "风湿性关节炎（rheumatic arthritis）是一种常见的急性或慢性结缔...", "lemmaUrl": "http://baike.baidu.com/item/%E9%A3%8E%E6%B9%BF%E6%80%A7%E5%85%B3%E8%8A%82%E7%82%8E/1374676", "lemmaPic": []}, {"lemmaId": 5053841, "lemmaTitle": "甲状腺功能减退", "lemmaCroppedTitle": "甲状腺功能减退", "lemmaDesc": "甲状腺功能减退症（简称甲减），是由于甲状腺激素合成及分泌减少，或其生理效应不足所...", "lemmaUrl": "http://baike.baidu.com/item/%E7%94%B2%E7%8A%B6%E8%85%BA%E5%8A%9F%E8%83%BD%E5%87%8F%E9%80%80/5053841", "lemmaPic": []}, {"lemmaId": 7995408, "lemmaTitle": "急性心肌梗死", "lemmaCroppedTitle": "急性心肌梗死", "lemmaDesc": "急性心肌梗死是冠状动脉急性、持续性缺血缺氧所引起的心肌坏死。临床上多有剧烈而持久...", "lemmaUrl": "http://baike.baidu.com/item/%E6%80%A5%E6%80%A7%E5%BF%83%E8%82%8C%E6%A2%97%E6%AD%BB/7995408", "lemmaPic": []}, {"lemmaId": 676525, "lemmaTitle": "足癣", "lemmaCroppedTitle": "足癣", "lemmaDesc": "足癣（俗名“香港脚”、脚气），系真菌感染引起，其皮肤损害往往是先单侧（即单脚）发...", "lemmaUrl": "http://baike.baidu.com/item/%E8%B6%B3%E7%99%A3/676525", "lemmaPic": []}, {"lemmaId": 9900777, "lemmaTitle": "皮肤病", "lemmaCroppedTitle": "皮肤病", "lemmaDesc": "皮肤病（dermatosis）是发生在皮肤和皮肤附属器官疾病的总称。皮肤是人体最...", "lemmaUrl": "http://baike.baidu.com/item/%E7%9A%AE%E8%82%A4%E7%97%85/9900777", "lemmaPic": []}, {"lemmaId": 102087, "lemmaTitle": "疟疾", "lemmaCroppedTitle": "疟疾", "lemmaDesc": "疟疾是经按蚊叮咬或输入带疟原虫者的血液而感染疟原虫所引起的虫媒传染病。寄生于人体...", "lemmaUrl": "http://baike.baidu.com/item/%E7%96%9F%E7%96%BE/102087", "lemmaPic": []}, {"lemmaId": 870521, "lemmaTitle": "眼袋", "lemmaCroppedTitle": "眼袋", "lemmaDesc": "眼睑部位的皮肤松弛、萎缩，眼下的结缔组织发生水肿，均可造成眼袋。眼袋可分为先天性...", "lemmaUrl": "http://baike.baidu.com/item/%E7%9C%BC%E8%A2%8B/870521", "lemmaPic": []}, {"lemmaId": 939818, "lemmaTitle": "围绝经期综合征", "lemmaCroppedTitle": "围绝经期综合征", "lemmaDesc": "围绝经期综合征又称更年期综合征（MPS），指妇女绝经前后出现性激素波动或减少所致...", "lemmaUrl": "http://baike.baidu.com/item/%E5%9B%B4%E7%BB%9D%E7%BB%8F%E6%9C%9F%E7%BB%BC%E5%90%88%E5%BE%81/939818", "lemmaPic": []}, {"lemmaId": 1202860, "lemmaTitle": "梅尼埃病", "lemmaCroppedTitle": "梅尼埃病", "lemmaDesc": "梅尼埃病是一种特发性内耳疾病，曾称美尼尔病，在1861年由法国医师Prosper...", "lemmaUrl": "http://baike.baidu.com/item/%E6%A2%85%E5%B0%BC%E5%9F%83%E7%97%85/1202860", "lemmaPic": []}, {"lemmaId": 2122235, "lemmaTitle": "脑膜炎", "lemmaCroppedTitle": "脑膜炎", "lemmaDesc": "脑膜炎（meningitis）系指软脑膜的弥漫性炎症性改变。由细菌、病毒、真菌、...", "lemmaUrl": "http://baike.baidu.com/item/%E8%84%91%E8%86%9C%E7%82%8E/2122235", "lemmaPic": []}, {"lemmaId": 1171595, "lemmaTitle": "胎盘", "lemmaCroppedTitle": "胎盘", "lemmaDesc": "胎盘（placenta）是胎儿与母体之间物质交换的重要器官，是人类妊娠期间由胚胎...", "lemmaUrl": "http://baike.baidu.com/item/%E8%83%8E%E7%9B%98/1171595", "lemmaPic": []}, {"lemmaId": 510310, "lemmaTitle": "上火", "lemmaCroppedTitle": "上火", "lemmaDesc": "“上火”为民间俗语，又称“热气”，可以从中医理论解释，属于中医热证范畴。中医认为...", "lemmaUrl": "http://baike.baidu.com/item/%E4%B8%8A%E7%81%AB/510310", "lemmaPic": []}, {"lemmaId": 108315, "lemmaTitle": "股癣", "lemmaCroppedTitle": "股癣", "lemmaDesc": "凡由致病性真菌侵犯腹股沟内侧所致环状或半环状皮损者统称为股癣，实际是体癣在阴股部...", "lemmaUrl": "http://baike.baidu.com/item/%E8%82%A1%E7%99%A3/108315", "lemmaPic": []}, {"lemmaId": 1776664, "lemmaTitle": "肠梗阻", "lemmaCroppedTitle": "肠梗阻", "lemmaDesc": "任何原因引起的肠内容物通过障碍统称肠梗阻。它是常见的外科急腹症之一。有时急性肠梗...", "lemmaUrl": "http://baike.baidu.com/item/%E8%82%A0%E6%A2%97%E9%98%BB/1776664", "lemmaPic": []}, {"lemmaId": 31919, "lemmaTitle": "鼠疫", "lemmaCroppedTitle": "鼠疫", "lemmaDesc": "鼠疫是鼠疫杆菌借鼠蚤传播为主的烈性传染病，系广泛流行于野生啮齿动物间的一种自然疫...", "lemmaUrl": "http://baike.baidu.com/item/%E9%BC%A0%E7%96%AB/31919", "lemmaPic": []}, {"lemmaId": 313555, "lemmaTitle": "白带异常", "lemmaCroppedTitle": "白带异常", "lemmaDesc": "白带增多是指女性阴道分泌物量的增多。有时白带增多是正常的生理现象。如果白带增多伴...", "lemmaUrl": "http://baike.baidu.com/item/%E7%99%BD%E5%B8%A6%E5%BC%82%E5%B8%B8/313555", "lemmaPic": []}, {"lemmaId": 1291478, "lemmaTitle": "甲状腺癌", "lemmaCroppedTitle": "甲状腺癌", "lemmaDesc": "甲状腺癌（thyroid carcinoma）是最常见的甲状腺恶性肿瘤，约占全身...", "lemmaUrl": "http://baike.baidu.com/item/%E7%94%B2%E7%8A%B6%E8%85%BA%E7%99%8C/1291478", "lemmaPic": []}, {"lemmaId": 1759494, "lemmaTitle": "气管炎", "lemmaCroppedTitle": "气管炎", "lemmaDesc": "气管炎（tracheitis）是由于病毒、细菌感染或物理化学刺激等非感染因素引起...", "lemmaUrl": "http://baike.baidu.com/item/%E6%B0%94%E7%AE%A1%E7%82%8E/1759494", "lemmaPic": []}, {"lemmaId": 4876854, "lemmaTitle": "缺铁性贫血", "lemmaCroppedTitle": "缺铁性贫血", "lemmaDesc": "当机体对铁的需求与供给失衡，导致体内贮存铁耗尽（ID），继之红细胞内铁缺乏（ID...", "lemmaUrl": "http://baike.baidu.com/item/%E7%BC%BA%E9%93%81%E6%80%A7%E8%B4%AB%E8%A1%80/4876854", "lemmaPic": []}, {"lemmaId": 568270, "lemmaTitle": "牙结石", "lemmaCroppedTitle": "牙结石", "lemmaDesc": "牙结石又称牙石，通常存在于唾液腺开口处的牙齿表面。如下颚前牙的舌侧表面，上颚后牙...", "lemmaUrl": "http://baike.baidu.com/item/%E7%89%99%E7%BB%93%E7%9F%B3/568270", "lemmaPic": []}, {"lemmaId": 9988516, "lemmaTitle": "植物神经紊乱", "lemmaCroppedTitle": "植物神经紊乱", "lemmaDesc": "植物神经紊乱（vegetative system dysfunction）应称自...", "lemmaUrl": "http://baike.baidu.com/item/%E6%A4%8D%E7%89%A9%E7%A5%9E%E7%BB%8F%E7%B4%8A%E4%B9%B1/9988516", "lemmaPic": []}, {"lemmaId": 528160, "lemmaTitle": "猩红热", "lemmaCroppedTitle": "猩红热", "lemmaDesc": "猩红热（scarlet fever）为A组溶血性链球菌感染引起的急性呼吸道传染病...", "lemmaUrl": "http://baike.baidu.com/item/%E7%8C%A9%E7%BA%A2%E7%83%AD/528160", "lemmaPic": []}, {"lemmaId": 795009, "lemmaTitle": "霍乱", "lemmaCroppedTitle": "霍乱", "lemmaDesc": "霍乱是因摄入的食物或水受到霍乱弧菌污染而引起的一种急性腹泻性传染病。每年，估计有...", "lemmaUrl": "http://baike.baidu.com/item/%E9%9C%8D%E4%B9%B1/795009", "lemmaPic": []}, {"lemmaId": 7234943, "lemmaTitle": "脾胃虚弱", "lemmaCroppedTitle": "脾胃虚弱", "lemmaDesc": "脾胃虚弱，为中医名词术语。脾胃虚弱含义比较笼统，包含了脾气虚、脾阳虚、脾不统血、...", "lemmaUrl": "http://baike.baidu.com/item/%E8%84%BE%E8%83%83%E8%99%9A%E5%BC%B1/7234943", "lemmaPic": []}, {"lemmaId": 347770, "lemmaTitle": "妊娠纹", "lemmaCroppedTitle": "妊娠纹", "lemmaDesc": "妊娠纹的形成主要是由于妊娠期荷尔蒙的影响，加之腹部膨隆使皮肤的弹力纤维与胶原纤维...", "lemmaUrl": "http://baike.baidu.com/item/%E5%A6%8A%E5%A8%A0%E7%BA%B9/347770", "lemmaPic": []}, {"lemmaId": 792952, "lemmaTitle": "关节炎", "lemmaCroppedTitle": "关节炎", "lemmaDesc": "关节炎（arthritis）泛指发生在人体关节及其周围组织，由炎症、感染、退化、...", "lemmaUrl": "http://baike.baidu.com/item/%E5%85%B3%E8%8A%82%E7%82%8E/792952", "lemmaPic": []}, {"lemmaId": 726151, "lemmaTitle": "冻疮", "lemmaCroppedTitle": "冻疮", "lemmaDesc": "冻疮常见于冬季，由于气候寒冷引起的局部皮肤反复红斑、肿胀性损害，严重者可出现水疱...", "lemmaUrl": "http://baike.baidu.com/item/%E5%86%BB%E7%96%AE/726151", "lemmaPic": []}, {"lemmaId": 552456, "lemmaTitle": "慢性乙型肝炎", "lemmaCroppedTitle": "慢性乙型肝炎", "lemmaDesc": "慢性乙型肝炎（简称乙肝）是指乙肝病毒检测为阳性，病程超过半年或发病日期不明确而临...", "lemmaUrl": "http://baike.baidu.com/item/%E6%85%A2%E6%80%A7%E4%B9%99%E5%9E%8B%E8%82%9D%E7%82%8E/552456", "lemmaPic": []}, {"lemmaId": 1008719, "lemmaTitle": "月经失调", "lemmaCroppedTitle": "月经失调", "lemmaDesc": "月经失调也称月经不调，是妇科常见疾病，表现为月经周期或出血量的异常，可伴月经前、...", "lemmaUrl": "http://baike.baidu.com/item/%E6%9C%88%E7%BB%8F%E5%A4%B1%E8%B0%83/1008719", "lemmaPic": []}, {"lemmaId": 2129518, "lemmaTitle": "宫颈囊肿", "lemmaCroppedTitle": "宫颈囊肿", "lemmaDesc": "宫颈囊肿，称为“子宫颈腺潴留囊肿”，又称“纳博特囊肿”、“纳氏腺囊肿”，或简称“...", "lemmaUrl": "http://baike.baidu.com/item/%E5%AE%AB%E9%A2%88%E5%9B%8A%E8%82%BF/2129518", "lemmaPic": []}, {"lemmaId": 1990300, "lemmaTitle": "慢性支气管炎", "lemmaCroppedTitle": "慢性支气管炎", "lemmaDesc": "慢性支气管炎是气管、支气管黏膜及周围组织的慢性非特异性炎症。临床以咳嗽、咳痰为主...", "lemmaUrl": "http://baike.baidu.com/item/%E6%85%A2%E6%80%A7%E6%94%AF%E6%B0%94%E7%AE%A1%E7%82%8E/1990300", "lemmaPic": []}, {"lemmaId": 5278264, "lemmaTitle": "滴虫性阴道炎", "lemmaCroppedTitle": "滴虫性阴道炎", "lemmaDesc": "滴虫性阴道炎是由毛滴虫引起，寄生人体的毛滴虫有阴道毛滴虫、人毛滴虫和口腔毛滴虫，...", "lemmaUrl": "http://baike.baidu.com/item/%E6%BB%B4%E8%99%AB%E6%80%A7%E9%98%B4%E9%81%93%E7%82%8E/5278264", "lemmaPic": []}, {"lemmaId": 13423, "lemmaTitle": "雀斑", "lemmaCroppedTitle": "雀斑", "lemmaDesc": "发生面部皮肤上的黄褐色点状色素沉着斑，系常染色体显性遗传。日晒可诱发和加重皮损。...", "lemmaUrl": "http://baike.baidu.com/item/%E9%9B%80%E6%96%91/13423", "lemmaPic": []}, {"lemmaId": 85921, "lemmaTitle": "亚健康", "lemmaCroppedTitle": "亚健康", "lemmaDesc": "我国很多学者都提出过亚健康的评价方法或诊断标准，其中陈国元、陈青山、刘保延、陶茂...", "lemmaUrl": "http://baike.baidu.com/item/%E4%BA%9A%E5%81%A5%E5%BA%B7/85921", "lemmaPic": []}, {"lemmaId": 38233, "lemmaTitle": "天花", "lemmaCroppedTitle": "天花", "lemmaDesc": "天花（small pox）是由天花病毒感染人引起的一种烈性传染病，痊愈后可获终生...", "lemmaUrl": "http://baike.baidu.com/item/%E5%A4%A9%E8%8A%B1/38233", "lemmaPic": []}, {"lemmaId": 1287429, "lemmaTitle": "慢性浅表性胃炎", "lemmaCroppedTitle": "慢性浅表性胃炎", "lemmaDesc": "慢性浅表性胃炎是胃黏膜呈慢性浅表性炎症的疾病，为消化系统常见病，属慢性胃炎中的一...", "lemmaUrl": "http://baike.baidu.com/item/%E6%85%A2%E6%80%A7%E6%B5%85%E8%A1%A8%E6%80%A7%E8%83%83%E7%82%8E/1287429", "lemmaPic": []}, {"lemmaId": 5803450, "lemmaTitle": "胃肠炎", "lemmaCroppedTitle": "胃肠炎", "lemmaDesc": "胃肠炎通常因微生物感染引起，也可因化学毒物或药品导致。典型临床表现为腹泻、恶心、...", "lemmaUrl": "http://baike.baidu.com/item/%E8%83%83%E8%82%A0%E7%82%8E/5803450", "lemmaPic": []}, {"lemmaId": 10663797, "lemmaTitle": "先兆流产", "lemmaCroppedTitle": "先兆流产", "lemmaDesc": "先兆流产指妊娠28周前，先出现少量的阴道流血、继而出现阵发性下腹痛或腰痛，盆腔检...", "lemmaUrl": "http://baike.baidu.com/item/%E5%85%88%E5%85%86%E6%B5%81%E4%BA%A7/10663797", "lemmaPic": []}, {"lemmaId": 102249, "lemmaTitle": "血友病", "lemmaCroppedTitle": "血友病", "lemmaDesc": "血友病为一组遗传性凝血功能障碍的出血性疾病，其共同的特征是活性凝血活酶生成障碍，...", "lemmaUrl": "http://baike.baidu.com/item/%E8%A1%80%E5%8F%8B%E7%97%85/102249", "lemmaPic": []}, {"lemmaId": 4785152, "lemmaTitle": "神经官能症", "lemmaCroppedTitle": "神经官能症", "lemmaDesc": "神经官能症又称神经症或精神神经症。是一组精神障碍的总称，包括神经衰弱、强迫症、焦...", "lemmaUrl": "http://baike.baidu.com/item/%E7%A5%9E%E7%BB%8F%E5%AE%98%E8%83%BD%E7%97%87/4785152", "lemmaPic": []}, {"lemmaId": 811510, "lemmaTitle": "系统性红斑狼疮", "lemmaCroppedTitle": "系统性红斑狼疮", "lemmaDesc": "系统性红斑狼疮（SLE）是一种多发于青年女性的累及多脏器的自身免疫性炎症性结缔组...", "lemmaUrl": "http://baike.baidu.com/item/%E7%B3%BB%E7%BB%9F%E6%80%A7%E7%BA%A2%E6%96%91%E7%8B%BC%E7%96%AE/811510", "lemmaPic": []}, {"lemmaId": 1612324, "lemmaTitle": "头孢克肟", "lemmaCroppedTitle": "头孢克肟", "lemmaDesc": "头孢克肟（Cefixime）为口服用的第三代头孢菌素类抗生素，适用于治疗敏感菌所...", "lemmaUrl": "http://baike.baidu.com/item/%E5%A4%B4%E5%AD%A2%E5%85%8B%E8%82%9F/1612324", "lemmaPic": []}, {"lemmaId": 108555, "lemmaTitle": "沙眼", "lemmaCroppedTitle": "沙眼", "lemmaDesc": "沙眼是由沙眼衣原体引起的一种慢性传染性结膜角膜炎，因其在睑结膜表面形成粗糙不平的...", "lemmaUrl": "http://baike.baidu.com/item/%E6%B2%99%E7%9C%BC/108555", "lemmaPic": []}, {"lemmaId": 1809372, "lemmaTitle": "鹅口疮", "lemmaCroppedTitle": "鹅口疮", "lemmaDesc": "鹅口疮又名雪口病、白念菌病，由真菌感染，是儿童口腔的一种常见疾病。在口腔黏膜表面...", "lemmaUrl": "http://baike.baidu.com/item/%E9%B9%85%E5%8F%A3%E7%96%AE/1809372", "lemmaPic": []}, {"lemmaId": 566802, "lemmaTitle": "打鼾", "lemmaCroppedTitle": "打鼾", "lemmaDesc": "打鼾也称打呼噜，给人们的印象是打鼾的人头一放到枕头上就打呼噜，睡得真快真香，打鼾...", "lemmaUrl": "http://baike.baidu.com/item/%E6%89%93%E9%BC%BE/566802", "lemmaPic": []}, {"lemmaId": 467071, "lemmaTitle": "哮喘", "lemmaCroppedTitle": "哮喘", "lemmaDesc": "哮喘又名支气管哮喘。支气管哮喘是由多种细胞及细胞组分参与的慢性气道炎症，此种炎症...", "lemmaUrl": "http://baike.baidu.com/item/%E5%93%AE%E5%96%98/467071", "lemmaPic": []}, {"lemmaId": 486860, "lemmaTitle": "结核病", "lemmaCroppedTitle": "结核病", "lemmaDesc": "结核病是由结核杆菌感染引起的慢性传染病。结核菌可能侵入人体全身各种器官，但主要侵...", "lemmaUrl": "http://baike.baidu.com/item/%E7%BB%93%E6%A0%B8%E7%97%85/486860", "lemmaPic": []}, {"lemmaId": 1930824, "lemmaTitle": "佝偻病", "lemmaCroppedTitle": "佝偻病", "lemmaDesc": "佝偻病即维生素D缺乏性佝偻病，是由于婴幼儿、儿童、青少年体内维生素D不足，引起钙...", "lemmaUrl": "http://baike.baidu.com/item/%E4%BD%9D%E5%81%BB%E7%97%85/1930824", "lemmaPic": []}, {"lemmaId": 4363275, "lemmaTitle": "气虚", "lemmaCroppedTitle": "气虚", "lemmaDesc": "气虚，为中医名词术语。是指由于元气不足引起的一系列病理变化及证候。所谓气，是人体...", "lemmaUrl": "http://baike.baidu.com/item/%E6%B0%94%E8%99%9A/4363275", "lemmaPic": []}, {"lemmaId": 2829523, "lemmaTitle": "皮脂腺囊肿", "lemmaCroppedTitle": "皮脂腺囊肿", "lemmaDesc": "皮脂腺囊肿（sebaceous cyst）俗称“粉瘤”，主要由于皮脂腺排泄管阻塞...", "lemmaUrl": "http://baike.baidu.com/item/%E7%9A%AE%E8%84%82%E8%85%BA%E5%9B%8A%E8%82%BF/2829523", "lemmaPic": []}, {"lemmaId": 1521831, "lemmaTitle": "动脉硬化", "lemmaCroppedTitle": "动脉硬化", "lemmaDesc": "动脉硬化是动脉的一种非炎症性病变，可使动脉管壁增厚、变硬，失去弹性、管腔狭窄。动...", "lemmaUrl": "http://baike.baidu.com/item/%E5%8A%A8%E8%84%89%E7%A1%AC%E5%8C%96/1521831", "lemmaPic": []}, {"lemmaId": 268266, "lemmaTitle": "鼠标手", "lemmaCroppedTitle": "鼠标手", "lemmaDesc": "鼠标手规范名词应为腕管综合征，是最常见的周围神经卡压性疾患，其病理基础是正中神经...", "lemmaUrl": "http://baike.baidu.com/item/%E9%BC%A0%E6%A0%87%E6%89%8B/268266", "lemmaPic": []}, {"lemmaId": 6350714, "lemmaTitle": "阳虚", "lemmaCroppedTitle": "阳虚", "lemmaDesc": "阳虚（yang deficiency），中医名词。指机体阳气虚衰，机能减退或衰弱...", "lemmaUrl": "http://baike.baidu.com/item/%E9%98%B3%E8%99%9A/6350714", "lemmaPic": []}, {"lemmaId": 194798, "lemmaTitle": "高血脂", "lemmaCroppedTitle": "高血脂", "lemmaDesc": "由于脂肪代谢或运转异常使血浆一种或多种脂质高于正常称为高脂血症，脂质不溶或微溶于...", "lemmaUrl": "http://baike.baidu.com/item/%E9%AB%98%E8%A1%80%E8%84%82/194798", "lemmaPic": []}, {"lemmaId": 7866731, "lemmaTitle": "子宫内膜炎", "lemmaCroppedTitle": "子宫内膜炎", "lemmaDesc": "子宫内膜炎（endometritis）是各种原因引起的子宫内膜结构发生炎性改变，...", "lemmaUrl": "http://baike.baidu.com/item/%E5%AD%90%E5%AE%AB%E5%86%85%E8%86%9C%E7%82%8E/7866731", "lemmaPic": []}, {"lemmaId": 1330337, "lemmaTitle": "前列腺癌", "lemmaCroppedTitle": "前列腺癌", "lemmaDesc": "前列腺癌是指发生在前列腺的上皮性恶性肿瘤。2004年WHO《泌尿系统及男性生殖器...", "lemmaUrl": "http://baike.baidu.com/item/%E5%89%8D%E5%88%97%E8%85%BA%E7%99%8C/1330337", "lemmaPic": []}, {"lemmaId": 3707999, "lemmaTitle": "子宫后位", "lemmaCroppedTitle": "子宫后位", "lemmaDesc": "子宫后位（uterus retroposition）是临床上比较常见子宫位置，包...", "lemmaUrl": "http://baike.baidu.com/item/%E5%AD%90%E5%AE%AB%E5%90%8E%E4%BD%8D/3707999", "lemmaPic": []}, {"lemmaId": 8456283, "lemmaTitle": "病毒性感冒", "lemmaCroppedTitle": "病毒性感冒", "lemmaDesc": "病毒性感冒是人们常见的一种疾病，包括普通感冒、流行性感冒和病毒性咽炎等，主要通过...", "lemmaUrl": "http://baike.baidu.com/item/%E7%97%85%E6%AF%92%E6%80%A7%E6%84%9F%E5%86%92/8456283", "lemmaPic": []}, {"lemmaId": 6787278, "lemmaTitle": "小儿湿疹", "lemmaCroppedTitle": "小儿湿疹", "lemmaDesc": "小儿湿疹，即特应性皮炎（atopic dermatitis，AD），又称为遗传过...", "lemmaUrl": "http://baike.baidu.com/item/%E5%B0%8F%E5%84%BF%E6%B9%BF%E7%96%B9/6787278", "lemmaPic": []}, {"lemmaId": 2732803, "lemmaTitle": "细菌性阴道炎", "lemmaCroppedTitle": "细菌性阴道炎", "lemmaDesc": "细菌性阴道炎（BV）是一种由阴道加特纳菌和一些厌氧菌的混合感染，导致阴道内微生态...", "lemmaUrl": "http://baike.baidu.com/item/%E7%BB%86%E8%8F%8C%E6%80%A7%E9%98%B4%E9%81%93%E7%82%8E/2732803", "lemmaPic": []}, {"lemmaId": 7390434, "lemmaTitle": "跖疣", "lemmaCroppedTitle": "跖疣", "lemmaDesc": "跖疣是发生在足底部的寻常疣。多由人类乳头瘤病毒感染引起，可以通过皮肤的微小破损自...", "lemmaUrl": "http://baike.baidu.com/item/%E8%B7%96%E7%96%A3/7390434", "lemmaPic": []}, {"lemmaId": 468028, "lemmaTitle": "流产", "lemmaCroppedTitle": "流产", "lemmaDesc": "妊娠不足28周、胎儿体重不足1000g而终止妊娠者称流产。流产发生于妊娠12周前...", "lemmaUrl": "http://baike.baidu.com/item/%E6%B5%81%E4%BA%A7/468028", "lemmaPic": []}, {"lemmaId": 10711749, "lemmaTitle": "肾气虚", "lemmaCroppedTitle": "肾气虚", "lemmaDesc": "肾气虚，肾虚的一种类型，为中医名词术语。是指由于肾气亏虚，生长生殖功能下降，摄纳...", "lemmaUrl": "http://baike.baidu.com/item/%E8%82%BE%E6%B0%94%E8%99%9A/10711749", "lemmaPic": []}, {"lemmaId": 7865709, "lemmaTitle": "骨质疏松", "lemmaCroppedTitle": "骨质疏松", "lemmaDesc": "骨质疏松即骨质疏松症，是多种原因引起的一组骨病，骨组织有正常的钙化，钙盐与基质呈...", "lemmaUrl": "http://baike.baidu.com/item/%E9%AA%A8%E8%B4%A8%E7%96%8F%E6%9D%BE/7865709", "lemmaPic": []}, {"lemmaId": 589174, "lemmaTitle": "脑血栓", "lemmaCroppedTitle": "脑血栓", "lemmaDesc": "脑血栓是在脑动脉粥样硬化和斑块基础上，在血流缓慢、血压偏低的条件下，血液的有形成...", "lemmaUrl": "http://baike.baidu.com/item/%E8%84%91%E8%A1%80%E6%A0%93/589174", "lemmaPic": []}, {"lemmaId": 329948, "lemmaTitle": "痣", "lemmaCroppedTitle": "痣", "lemmaDesc": "痣有广义和狭义之分，广义包括各种先天性、后天性黑素细胞痣、皮脂腺痣等。医学上的“...", "lemmaUrl": "http://baike.baidu.com/item/%E7%97%A3/329948", "lemmaPic": []}, {"lemmaId": 546199, "lemmaTitle": "性窒息", "lemmaCroppedTitle": "性窒息", "lemmaDesc": "性窒息（sexual asphyxia），国外也称自淫性窒息（autoeroti...", "lemmaUrl": "http://baike.baidu.com/item/%E6%80%A7%E7%AA%92%E6%81%AF/546199", "lemmaPic": {"width": 172, "height": 132, "url": "https://gss2.bdstatic.com/9fo3dSag_xI4khGkpoWK1HF6hhy/baike/w%3D168/sign=68d20aefe850352ab161210e6b43fb1a/55e736d12f2eb938c9717faad4628535e5dd6f4d.jpg"}}, {"lemmaId": 5059449, "lemmaTitle": "反流性食管炎", "lemmaCroppedTitle": "反流性食管炎", "lemmaDesc": "反流性食管炎（RE）是由胃、十二指肠内容物反流入食管引起的食管炎症性病变，内镜下...", "lemmaUrl": "http://baike.baidu.com/item/%E5%8F%8D%E6%B5%81%E6%80%A7%E9%A3%9F%E7%AE%A1%E7%82%8E/5059449", "lemmaPic": []}, {"lemmaId": 9517637, "lemmaTitle": "心率", "lemmaCroppedTitle": "心率", "lemmaDesc": "心率是指正常人安静状态下每分钟心跳的次数，也叫安静心率，一般为60～100次/分...", "lemmaUrl": "http://baike.baidu.com/item/%E5%BF%83%E7%8E%87/9517637", "lemmaPic": []}, {"lemmaId": 10505882, "lemmaTitle": "肝血管瘤", "lemmaCroppedTitle": "肝血管瘤", "lemmaDesc": "肝血管瘤是一种较为常见的肝脏良性肿瘤，临床上以海绵状血管瘤最多见，病人多无明显不...", "lemmaUrl": "http://baike.baidu.com/item/%E8%82%9D%E8%A1%80%E7%AE%A1%E7%98%A4/10505882", "lemmaPic": []}, {"lemmaId": 2423225, "lemmaTitle": "斑秃", "lemmaCroppedTitle": "斑秃", "lemmaDesc": "本病是一种非瘢痕性脱发，常发生于身体有毛发的部位，局部皮肤正常，无自觉症状。", "lemmaUrl": "http://baike.baidu.com/item/%E6%96%91%E7%A7%83/2423225", "lemmaPic": []}, {"lemmaId": 111917, "lemmaTitle": "狐臭", "lemmaCroppedTitle": "狐臭", "lemmaDesc": "狐臭又称为腋臭、臭汗症等，是由患者腋窝、外阴，口角等部位的大汗腺（又叫顶浆腺）排...", "lemmaUrl": "http://baike.baidu.com/item/%E7%8B%90%E8%87%AD/111917", "lemmaPic": []}, {"lemmaId": 421314, "lemmaTitle": "痱子", "lemmaCroppedTitle": "痱子", "lemmaDesc": "痱子是夏季或炎热环境下常见的表浅性、炎症性皮肤病。因在高温闷热环境下，大量的汗液...", "lemmaUrl": "http://baike.baidu.com/item/%E7%97%B1%E5%AD%90/421314", "lemmaPic": []}, {"lemmaId": 4506388, "lemmaTitle": "角膜炎", "lemmaCroppedTitle": "角膜炎", "lemmaDesc": "各种因素导致的角膜炎症反应统称为角膜炎（keratitis）。是眼科常见疾病之一...", "lemmaUrl": "http://baike.baidu.com/item/%E8%A7%92%E8%86%9C%E7%82%8E/4506388", "lemmaPic": []}, {"lemmaId": 1163288, "lemmaTitle": "肾积水", "lemmaCroppedTitle": "肾积水", "lemmaDesc": "由于泌尿系统的梗阻导致肾盂与肾盏扩张，其中潴留尿液，统称为肾积水。因为肾内尿液积...", "lemmaUrl": "http://baike.baidu.com/item/%E8%82%BE%E7%A7%AF%E6%B0%B4/1163288", "lemmaPic": []}, {"lemmaId": 235918, "lemmaTitle": "鱼鳞病", "lemmaCroppedTitle": "鱼鳞病", "lemmaDesc": "鱼鳞病是一组遗传性角化障碍性皮肤疾病，主要表现为皮肤干燥。伴有鱼鳞状脱屑。本病多...", "lemmaUrl": "http://baike.baidu.com/item/%E9%B1%BC%E9%B3%9E%E7%97%85/235918", "lemmaPic": []}, {"lemmaId": 6428122, "lemmaTitle": "胆囊结石", "lemmaCroppedTitle": "胆囊结石", "lemmaDesc": "胆囊结石主要见于成人，女性多于男性，40岁后发病率随年龄增长而增高。结石为胆固醇...", "lemmaUrl": "http://baike.baidu.com/item/%E8%83%86%E5%9B%8A%E7%BB%93%E7%9F%B3/6428122", "lemmaPic": []}, {"lemmaId": 15525, "lemmaTitle": "肿瘤", "lemmaCroppedTitle": "肿瘤", "lemmaDesc": "肿瘤（tumour）是指机体在各种致瘤因子作用下，局部组织细胞增生所形成的新生物...", "lemmaUrl": "http://baike.baidu.com/item/%E8%82%BF%E7%98%A4/15525", "lemmaPic": []}, {"lemmaId": 111855, "lemmaTitle": "白化病", "lemmaCroppedTitle": "白化病", "lemmaDesc": "白化病是由于酪氨酸酶缺乏或功能减退引起的一种皮肤及附属器官黑色素缺乏或合成障碍所...", "lemmaUrl": "http://baike.baidu.com/item/%E7%99%BD%E5%8C%96%E7%97%85/111855", "lemmaPic": []}, {"lemmaId": 3104892, "lemmaTitle": "血小板减少", "lemmaCroppedTitle": "血小板减少", "lemmaDesc": "血小板减少是指血液中血小板计数&amp;lt;100×109/L。血小板减少见于...", "lemmaUrl": "http://baike.baidu.com/item/%E8%A1%80%E5%B0%8F%E6%9D%BF%E5%87%8F%E5%B0%91/3104892", "lemmaPic": []}, {"lemmaId": 9364154, "lemmaTitle": "前列腺钙化", "lemmaCroppedTitle": "前列腺钙化", "lemmaDesc": "前列腺钙化（Prostatic Calcification）是男性常见的前列腺病...", "lemmaUrl": "http://baike.baidu.com/item/%E5%89%8D%E5%88%97%E8%85%BA%E9%92%99%E5%8C%96/9364154", "lemmaPic": []}, {"lemmaId": 3168842, "lemmaTitle": "子宫癌", "lemmaCroppedTitle": "子宫癌", "lemmaDesc": "通常叫子宫癌实际上是指子宫内膜癌（endometrial carcinoma），...", "lemmaUrl": "http://baike.baidu.com/item/%E5%AD%90%E5%AE%AB%E7%99%8C/3168842", "lemmaPic": []}, {"lemmaId": 11026318, "lemmaTitle": "小儿咳嗽", "lemmaCroppedTitle": "小儿咳嗽", "lemmaDesc": "咳嗽是一种防御性反射运动，可以阻止异物吸入，防止支气管分泌物的积聚，清除分泌物避...", "lemmaUrl": "http://baike.baidu.com/item/%E5%B0%8F%E5%84%BF%E5%92%B3%E5%97%BD/11026318", "lemmaPic": []}, {"lemmaId": 2157973, "lemmaTitle": "阴囊湿疹", "lemmaCroppedTitle": "阴囊湿疹", "lemmaDesc": "阴囊湿疹是湿疹中常见的一种，局限于阴囊皮肤，有时延及肛门周围，少数可延至阴茎。此...", "lemmaUrl": "http://baike.baidu.com/item/%E9%98%B4%E5%9B%8A%E6%B9%BF%E7%96%B9/2157973", "lemmaPic": []}, {"lemmaId": 4056109, "lemmaTitle": "肝功能", "lemmaCroppedTitle": "肝功能", "lemmaDesc": "肝功能检查的目的在于探测肝脏有无疾病、肝脏损害程度以及查明肝病原因、判断预后和鉴...", "lemmaUrl": "http://baike.baidu.com/item/%E8%82%9D%E5%8A%9F%E8%83%BD/4056109", "lemmaPic": {"width": 491, "height": 283, "url": "https://gss0.bdstatic.com/-4o3dSag_xI4khGkpoWK1HF6hhy/baike/w%3D168/sign=99680c8571f082022d92953973fafb8a/2f738bd4b31c870195a85a40257f9e2f0708ff7e.jpg"}}, {"lemmaId": 3156001, "lemmaTitle": "嗳气", "lemmaCroppedTitle": "嗳气", "lemmaDesc": "嗳气（belching）是胃中气体上出咽喉所发出的声响，其声长而缓，俗称“打饱嗝...", "lemmaUrl": "http://baike.baidu.com/item/%E5%97%B3%E6%B0%94/3156001", "lemmaPic": []}, {"lemmaId": 9990333, "lemmaTitle": "急性肠胃炎", "lemmaCroppedTitle": "急性肠胃炎", "lemmaDesc": "急性肠胃炎是胃肠黏膜的急性炎症，临床表现主要为恶心、呕吐、腹痛、腹泻、发热等。本...", "lemmaUrl": "http://baike.baidu.com/item/%E6%80%A5%E6%80%A7%E8%82%A0%E8%83%83%E7%82%8E/9990333", "lemmaPic": []}, {"lemmaId": 31686, "lemmaTitle": "面神经麻痹", "lemmaCroppedTitle": "面神经麻痹", "lemmaDesc": "面神经炎俗称面神经麻痹（即面神经瘫痪）、“歪嘴巴”、“吊线风”，是以面部表情肌群...", "lemmaUrl": "http://baike.baidu.com/item/%E9%9D%A2%E7%A5%9E%E7%BB%8F%E9%BA%BB%E7%97%B9/31686", "lemmaPic": []}, {"lemmaId": 4420196, "lemmaTitle": "乳腺炎", "lemmaCroppedTitle": "乳腺炎", "lemmaDesc": "乳腺炎是女性常见的疾病，根据病因的不同可以分为急性化脓性乳腺炎、乳晕旁瘘管、浆细...", "lemmaUrl": "http://baike.baidu.com/item/%E4%B9%B3%E8%85%BA%E7%82%8E/4420196", "lemmaPic": {"width": 300, "height": 240, "url": "https://gss0.bdstatic.com/94o3dSag_xI4khGkpoWK1HF6hhy/baike/w%3D168/sign=308537a0e924b899de3c7d3e56071d59/91529822720e0cf3cf77535b0a46f21fbf09aa89.jpg"}}, {"lemmaId": 399200, "lemmaTitle": "心电图", "lemmaCroppedTitle": "心电图", "lemmaDesc": "心电图（ECG或者EKG）是利用心电图机从体表记录心脏每一心动周期所产生的电活动...", "lemmaUrl": "http://baike.baidu.com/item/%E5%BF%83%E7%94%B5%E5%9B%BE/399200", "lemmaPic": []}, {"lemmaId": 219360, "lemmaTitle": "小儿肺炎", "lemmaCroppedTitle": "小儿肺炎", "lemmaDesc": "小儿肺炎是婴幼儿时期的常见病，我国北方地区以冬春季多见，是婴幼儿死亡的常见原因。...", "lemmaUrl": "http://baike.baidu.com/item/%E5%B0%8F%E5%84%BF%E8%82%BA%E7%82%8E/219360", "lemmaPic": []}, {"lemmaId": 1273, "lemmaTitle": "黄褐斑", "lemmaCroppedTitle": "黄褐斑", "lemmaDesc": "黄褐斑也称肝斑，为面部的黄褐色色素沉着。多对称蝶形分布于颊部。多见于女性，血中雌...", "lemmaUrl": "http://baike.baidu.com/item/%E9%BB%84%E8%A4%90%E6%96%91/1273", "lemmaPic": []}, {"lemmaId": 5230083, "lemmaTitle": "包茎", "lemmaCroppedTitle": "包茎", "lemmaDesc": "包茎指包皮口狭小，不能上翻露出阴茎头。包茎分为先天性包茎和后天性包茎。包皮内板与...", "lemmaUrl": "http://baike.baidu.com/item/%E5%8C%85%E8%8C%8E/5230083", "lemmaPic": []}, {"lemmaId": 928, "lemmaTitle": "高脂血症", "lemmaCroppedTitle": "高脂血症", "lemmaDesc": "高脂血症是指血脂水平过高，可直接引起一些严重危害人体健康的疾病，如动脉粥样硬化、...", "lemmaUrl": "http://baike.baidu.com/item/%E9%AB%98%E8%84%82%E8%A1%80%E7%97%87/928", "lemmaPic": []}], "total": 7246, "totalPage": 73, "page": 2, "fromLemma": 0}