{"lemmaList": [{"lemmaId": 6520042, "lemmaTitle": "氯喹中毒", "lemmaCroppedTitle": "氯喹中毒", "lemmaDesc": "氯喹中毒多因口服剂量过大或长期用药所致。服药超过规定剂量3倍以上则可引起重症中毒...", "lemmaUrl": "http://baike.baidu.com/item/%E6%B0%AF%E5%96%B9%E4%B8%AD%E6%AF%92/6520042", "lemmaPic": []}, {"lemmaId": 6288465, "lemmaTitle": "埃利希体病", "lemmaCroppedTitle": "埃利希体病", "lemmaDesc": "人类埃利希体病是由埃利希体经蜱传播所引起。病原体侵犯单核细胞或中性粒细胞，在细胞...", "lemmaUrl": "http://baike.baidu.com/item/%E5%9F%83%E5%88%A9%E5%B8%8C%E4%BD%93%E7%97%85/6288465", "lemmaPic": []}, {"lemmaId": 10728854, "lemmaTitle": "利斯特菌病", "lemmaCroppedTitle": "利斯特菌病", "lemmaDesc": "利斯特菌病又译为李司忒菌病，是由单核细胞增多性李斯特菌&amp;#91;或译为产...", "lemmaUrl": "http://baike.baidu.com/item/%E5%88%A9%E6%96%AF%E7%89%B9%E8%8F%8C%E7%97%85/10728854", "lemmaPic": []}, {"lemmaId": 5256535, "lemmaTitle": "系统性红斑狼疮性巩膜炎", "lemmaCroppedTitle": "系统性红斑狼疮性巩膜炎", "lemmaDesc": "系统性红斑狼疮（SLE）是一种病因不明，累及多系统脏器，并具有以抗细胞抗体、细胞...", "lemmaUrl": "http://baike.baidu.com/item/%E7%B3%BB%E7%BB%9F%E6%80%A7%E7%BA%A2%E6%96%91%E7%8B%BC%E7%96%AE%E6%80%A7%E5%B7%A9%E8%86%9C%E7%82%8E/5256535", "lemmaPic": []}, {"lemmaId": 3828850, "lemmaTitle": "新生儿迁延性胆汁淤积性黄疸", "lemmaCroppedTitle": "新生儿迁延性胆汁淤积性黄疸", "lemmaDesc": "婴儿胆汁淤积性肝病是指l岁以内婴儿（包括新生儿）由各种原因引起的肝细胞和（或）毛...", "lemmaUrl": "http://baike.baidu.com/item/%E6%96%B0%E7%94%9F%E5%84%BF%E8%BF%81%E5%BB%B6%E6%80%A7%E8%83%86%E6%B1%81%E6%B7%A4%E7%A7%AF%E6%80%A7%E9%BB%84%E7%96%B8/3828850", "lemmaPic": []}, {"lemmaId": 7038947, "lemmaTitle": "外阴血吸虫病", "lemmaCroppedTitle": "外阴血吸虫病", "lemmaDesc": "外阴血吸虫病是血吸虫病全身病变的一部分。血吸虫寄生在人和动物的门静脉和肠系膜动脉...", "lemmaUrl": "http://baike.baidu.com/item/%E5%A4%96%E9%98%B4%E8%A1%80%E5%90%B8%E8%99%AB%E7%97%85/7038947", "lemmaPic": []}, {"lemmaId": 10980429, "lemmaTitle": "急性侵袭型肺曲霉病", "lemmaCroppedTitle": "急性侵袭型肺曲霉病", "lemmaDesc": "肺曲霉病主要包括侵袭型、腐生型及过敏型3种，不同类型的肺曲霉病反映了宿主不同的免...", "lemmaUrl": "http://baike.baidu.com/item/%E6%80%A5%E6%80%A7%E4%BE%B5%E8%A2%AD%E5%9E%8B%E8%82%BA%E6%9B%B2%E9%9C%89%E7%97%85/10980429", "lemmaPic": []}, {"lemmaId": 712952, "lemmaTitle": "儿童身高", "lemmaCroppedTitle": "儿童身高", "lemmaDesc": "随着社会的发展，人们对身高越来越重视了。个子矮小不仅使人苦恼，易产生自卑心理，还...", "lemmaUrl": "http://baike.baidu.com/item/%E5%84%BF%E7%AB%A5%E8%BA%AB%E9%AB%98/712952", "lemmaPic": []}, {"lemmaId": 1416401, "lemmaTitle": "双重输尿管", "lemmaCroppedTitle": "双重输尿管", "lemmaDesc": "双重输尿管别名又叫双输尿管、重复肾输尿管。是指患侧肾脏是由两部分肾脏组织结合成一...", "lemmaUrl": "http://baike.baidu.com/item/%E5%8F%8C%E9%87%8D%E8%BE%93%E5%B0%BF%E7%AE%A1/1416401", "lemmaPic": []}, {"lemmaId": 639026, "lemmaTitle": "胰胆汁综合征", "lemmaCroppedTitle": "胰胆汁综合征", "lemmaDesc": "胰胆汁综合征也称胰腺恶性病变综合征，胰头癌梗阻性黄疸综合征。1888年，由Bar...", "lemmaUrl": "http://baike.baidu.com/item/%E8%83%B0%E8%83%86%E6%B1%81%E7%BB%BC%E5%90%88%E5%BE%81/639026", "lemmaPic": []}, {"lemmaId": 2464806, "lemmaTitle": "阴道粒细胞肉瘤", "lemmaCroppedTitle": "阴道粒细胞肉瘤", "lemmaDesc": "阴道粒细胞肉瘤可见于复发的急性髓样白血病，并可和乳腺粒细胞肉瘤同时出现，也有因诊...", "lemmaUrl": "http://baike.baidu.com/item/%E9%98%B4%E9%81%93%E7%B2%92%E7%BB%86%E8%83%9E%E8%82%89%E7%98%A4/2464806", "lemmaPic": []}, {"lemmaId": 3823015, "lemmaTitle": "小儿选择性免疫球蛋白G亚类缺陷病", "lemmaCroppedTitle": "小儿选择性免疫球蛋白G亚类缺陷病", "lemmaDesc": "小儿选择性IgG亚类缺陷是一种以抗体缺陷为主的原发性免疫缺陷病，有一种或多种Ig...", "lemmaUrl": "http://baike.baidu.com/item/%E5%B0%8F%E5%84%BF%E9%80%89%E6%8B%A9%E6%80%A7%E5%85%8D%E7%96%AB%E7%90%83%E8%9B%8B%E7%99%BDG%E4%BA%9A%E7%B1%BB%E7%BC%BA%E9%99%B7%E7%97%85/3823015", "lemmaPic": []}, {"lemmaId": 7253847, "lemmaTitle": "小儿颅咽管瘤", "lemmaCroppedTitle": "小儿颅咽管瘤", "lemmaDesc": "颅咽管瘤曾有过许多名称：拉克囊肿病、垂体管肿瘤、垂体柄肿瘤、釉质瘤、表皮瘤等。其...", "lemmaUrl": "http://baike.baidu.com/item/%E5%B0%8F%E5%84%BF%E9%A2%85%E5%92%BD%E7%AE%A1%E7%98%A4/7253847", "lemmaPic": []}, {"lemmaId": 4671619, "lemmaTitle": "急性肠系膜上动脉梗死", "lemmaCroppedTitle": "急性肠系膜上动脉梗死", "lemmaDesc": "急性肠系膜上动脉梗死的原因可分为急性肠系膜上动脉栓塞和急性肠系膜上动脉血栓形成。...", "lemmaUrl": "http://baike.baidu.com/item/%E6%80%A5%E6%80%A7%E8%82%A0%E7%B3%BB%E8%86%9C%E4%B8%8A%E5%8A%A8%E8%84%89%E6%A2%97%E6%AD%BB/4671619", "lemmaPic": []}, {"lemmaId": 7241829, "lemmaTitle": "类脂质蛋白沉积症", "lemmaCroppedTitle": "类脂质蛋白沉积症", "lemmaDesc": "类脂质蛋白沉积症又称Urbach-Wiethe病、皮肤黏膜透明蛋白变性，是一种罕...", "lemmaUrl": "http://baike.baidu.com/item/%E7%B1%BB%E8%84%82%E8%B4%A8%E8%9B%8B%E7%99%BD%E6%B2%89%E7%A7%AF%E7%97%87/7241829", "lemmaPic": []}, {"lemmaId": 1696459, "lemmaTitle": "电击伤所致脊髓病", "lemmaCroppedTitle": "电击伤所致脊髓病", "lemmaDesc": "电击伤较常见，电击损害除直接导致局部烧伤、内脏损伤、心跳骤停外，在神经系统可引起...", "lemmaUrl": "http://baike.baidu.com/item/%E7%94%B5%E5%87%BB%E4%BC%A4%E6%89%80%E8%87%B4%E8%84%8A%E9%AB%93%E7%97%85/1696459", "lemmaPic": []}, {"lemmaId": 5864614, "lemmaTitle": "动脉阻塞或狭窄视网膜病变", "lemmaCroppedTitle": "动脉阻塞或狭窄视网膜病变", "lemmaDesc": "颈动脉阻塞或狭窄可导致脑和眼的供血不足而产生一系列脑和眼的症状。现在研究证明这种...", "lemmaUrl": "http://baike.baidu.com/item/%E5%8A%A8%E8%84%89%E9%98%BB%E5%A1%9E%E6%88%96%E7%8B%AD%E7%AA%84%E8%A7%86%E7%BD%91%E8%86%9C%E7%97%85%E5%8F%98/5864614", "lemmaPic": []}, {"lemmaId": 2547149, "lemmaTitle": "外阴滑膜肉瘤", "lemmaCroppedTitle": "外阴滑膜肉瘤", "lemmaDesc": "外阴滑膜肉瘤为皮下缓慢生长的无痛性块物，大小为1.2～20cm，肿块多较固定，界...", "lemmaUrl": "http://baike.baidu.com/item/%E5%A4%96%E9%98%B4%E6%BB%91%E8%86%9C%E8%82%89%E7%98%A4/2547149", "lemmaPic": []}, {"lemmaId": 7254231, "lemmaTitle": "甲下外生骨疣", "lemmaCroppedTitle": "甲下外生骨疣", "lemmaDesc": "甲下外生骨疣呈单发性纤维性和骨性结节，常见于拇趾，偶亦见于其他足趾端，特别是小趾...", "lemmaUrl": "http://baike.baidu.com/item/%E7%94%B2%E4%B8%8B%E5%A4%96%E7%94%9F%E9%AA%A8%E7%96%A3/7254231", "lemmaPic": []}, {"lemmaId": 12428732, "lemmaTitle": "小儿脑血管畸形", "lemmaCroppedTitle": "小儿脑血管畸形", "lemmaDesc": "脑血管畸形主要包括脑动静脉畸形及囊性动脉瘤，在小儿时期，二者是导致小儿原发性蛛网...", "lemmaUrl": "http://baike.baidu.com/item/%E5%B0%8F%E5%84%BF%E8%84%91%E8%A1%80%E7%AE%A1%E7%95%B8%E5%BD%A2/12428732", "lemmaPic": []}, {"lemmaId": 5938309, "lemmaTitle": "颈神经背支卡压症", "lemmaCroppedTitle": "颈神经背支卡压症", "lemmaDesc": "引起颈肩痛的各种椎管外伤害性刺激主要由脊神经后支（背支）传入中枢，近年来针对椎管...", "lemmaUrl": "http://baike.baidu.com/item/%E9%A2%88%E7%A5%9E%E7%BB%8F%E8%83%8C%E6%94%AF%E5%8D%A1%E5%8E%8B%E7%97%87/5938309", "lemmaPic": []}, {"lemmaId": 6284479, "lemmaTitle": "毛霉病", "lemmaCroppedTitle": "毛霉病", "lemmaDesc": "是由毛霉目的根霉属、毛霉属、梨头霉属或被孢霉属等多种真菌引起的一种发病急、发展快...", "lemmaUrl": "http://baike.baidu.com/item/%E6%AF%9B%E9%9C%89%E7%97%85/6284479", "lemmaPic": []}, {"lemmaId": 2736498, "lemmaTitle": "农药中毒性肾病", "lemmaCroppedTitle": "农药中毒性肾病", "lemmaDesc": "农药中毒性肾病是指在农药生产、使用过程中经呼吸道、皮肤吸收或误服、自服农药所引起...", "lemmaUrl": "http://baike.baidu.com/item/%E5%86%9C%E8%8D%AF%E4%B8%AD%E6%AF%92%E6%80%A7%E8%82%BE%E7%97%85/2736498", "lemmaPic": []}, {"lemmaId": 6094944, "lemmaTitle": "Terrien角膜边缘性变性", "lemmaCroppedTitle": "Terrien角膜边缘性变性", "lemmaDesc": "Terrien角膜边缘性变性(TMD)是角膜边缘部变性的一种特殊类型，较少见，主...", "lemmaUrl": "http://baike.baidu.com/item/Terrien%E8%A7%92%E8%86%9C%E8%BE%B9%E7%BC%98%E6%80%A7%E5%8F%98%E6%80%A7/6094944", "lemmaPic": []}, {"lemmaId": 5256132, "lemmaTitle": "微病毒B19感染性风湿病", "lemmaCroppedTitle": "微病毒B19感染性风湿病", "lemmaDesc": "微病毒B19最初在健康供血者血清中发现。目前已确认这种病毒可引起风湿病。感染B1...", "lemmaUrl": "http://baike.baidu.com/item/%E5%BE%AE%E7%97%85%E6%AF%92B19%E6%84%9F%E6%9F%93%E6%80%A7%E9%A3%8E%E6%B9%BF%E7%97%85/5256132", "lemmaPic": []}, {"lemmaId": 10455815, "lemmaTitle": "先天性鼻咽部狭窄及闭锁", "lemmaCroppedTitle": "先天性鼻咽部狭窄及闭锁", "lemmaDesc": "一般认为，先天性鼻咽部狭窄由颊咽膜的未完全破裂而造成，若颊咽膜未破裂则造成先天性...", "lemmaUrl": "http://baike.baidu.com/item/%E5%85%88%E5%A4%A9%E6%80%A7%E9%BC%BB%E5%92%BD%E9%83%A8%E7%8B%AD%E7%AA%84%E5%8F%8A%E9%97%AD%E9%94%81/10455815", "lemmaPic": []}, {"lemmaId": 8485846, "lemmaTitle": "内分泌性肌病", "lemmaCroppedTitle": "内分泌性肌病", "lemmaDesc": "内分泌性肌病包括甲状腺性肌病、皮质类固醇性多发性肌病、肾上腺皮质功能不全、甲状旁...", "lemmaUrl": "http://baike.baidu.com/item/%E5%86%85%E5%88%86%E6%B3%8C%E6%80%A7%E8%82%8C%E7%97%85/8485846", "lemmaPic": []}, {"lemmaId": 12676733, "lemmaTitle": "脑膜炎球菌性脑膜炎", "lemmaCroppedTitle": "脑膜炎球菌性脑膜炎", "lemmaDesc": "脑膜炎球菌性脑膜炎是由脑膜炎双球菌（Nm）引起的化脓性脑膜炎。致病菌由鼻咽部侵入...", "lemmaUrl": "http://baike.baidu.com/item/%E8%84%91%E8%86%9C%E7%82%8E%E7%90%83%E8%8F%8C%E6%80%A7%E8%84%91%E8%86%9C%E7%82%8E/12676733", "lemmaPic": []}, {"lemmaId": 12629998, "lemmaTitle": "电脑视觉综合征", "lemmaCroppedTitle": "电脑视觉综合征", "lemmaDesc": "电脑视觉综合征已困扰着75%～90%每天经常使用电脑的人。临床表现为头痛、头晕、...", "lemmaUrl": "http://baike.baidu.com/item/%E7%94%B5%E8%84%91%E8%A7%86%E8%A7%89%E7%BB%BC%E5%90%88%E5%BE%81/12629998", "lemmaPic": []}, {"lemmaId": 3227978, "lemmaTitle": "持续性枕横位难产", "lemmaCroppedTitle": "持续性枕横位难产", "lemmaDesc": "持续性枕横位是由于分娩时，胎头以枕横位衔接，在下降过程中，当胎头双顶径达到或接近...", "lemmaUrl": "http://baike.baidu.com/item/%E6%8C%81%E7%BB%AD%E6%80%A7%E6%9E%95%E6%A8%AA%E4%BD%8D%E9%9A%BE%E4%BA%A7/3227978", "lemmaPic": []}, {"lemmaId": 5433041, "lemmaTitle": "脊髓前中央动脉缺血症候群", "lemmaCroppedTitle": "脊髓前中央动脉缺血症候群", "lemmaDesc": "脊髓前中央动脉缺血症候群多见于下颈段，其次为胸段。其症状主要是由于脊髓前中央动脉...", "lemmaUrl": "http://baike.baidu.com/item/%E8%84%8A%E9%AB%93%E5%89%8D%E4%B8%AD%E5%A4%AE%E5%8A%A8%E8%84%89%E7%BC%BA%E8%A1%80%E7%97%87%E5%80%99%E7%BE%A4/5433041", "lemmaPic": []}, {"lemmaId": 9919805, "lemmaTitle": "非结核性分枝杆菌关节炎", "lemmaCroppedTitle": "非结核性分枝杆菌关节炎", "lemmaDesc": "非结核性分枝杆菌是指除人型、牛型结核杆菌和麻风杆菌以外的分支杆菌。感染常见于免疫...", "lemmaUrl": "http://baike.baidu.com/item/%E9%9D%9E%E7%BB%93%E6%A0%B8%E6%80%A7%E5%88%86%E6%9E%9D%E6%9D%86%E8%8F%8C%E5%85%B3%E8%8A%82%E7%82%8E/9919805", "lemmaPic": []}, {"lemmaId": 4987947, "lemmaTitle": "老年低温症", "lemmaCroppedTitle": "老年低温症", "lemmaDesc": "老年低温症是指人体深部温度（直肠、食管、鼓室）低于35℃的状态。出现低温原因有产...", "lemmaUrl": "http://baike.baidu.com/item/%E8%80%81%E5%B9%B4%E4%BD%8E%E6%B8%A9%E7%97%87/4987947", "lemmaPic": []}, {"lemmaId": 5045400, "lemmaTitle": "小儿纯红细胞再生障碍性贫血", "lemmaCroppedTitle": "小儿纯红细胞再生障碍性贫血", "lemmaDesc": "小儿纯红细胞再生障碍性贫血（PRCA）是仅有红细胞系统的发育障碍，白细胞与血小板...", "lemmaUrl": "http://baike.baidu.com/item/%E5%B0%8F%E5%84%BF%E7%BA%AF%E7%BA%A2%E7%BB%86%E8%83%9E%E5%86%8D%E7%94%9F%E9%9A%9C%E7%A2%8D%E6%80%A7%E8%B4%AB%E8%A1%80/5045400", "lemmaPic": []}, {"lemmaId": 10108766, "lemmaTitle": "毛盘瘤", "lemmaCroppedTitle": "毛盘瘤", "lemmaDesc": "毛盘瘤是一种毛囊错构瘤，属于纤维毛囊瘤谱系中的纯基质增生。纤维毛囊瘤谱系包括：纤...", "lemmaUrl": "http://baike.baidu.com/item/%E6%AF%9B%E7%9B%98%E7%98%A4/10108766", "lemmaPic": []}, {"lemmaId": 3132712, "lemmaTitle": "泡性眼炎", "lemmaCroppedTitle": "泡性眼炎", "lemmaDesc": "泡性眼炎是结膜、角膜上皮组织对某种内生性毒素所引起的迟发性变态反应，一般认为是对...", "lemmaUrl": "http://baike.baidu.com/item/%E6%B3%A1%E6%80%A7%E7%9C%BC%E7%82%8E/3132712", "lemmaPic": []}, {"lemmaId": 4003058, "lemmaTitle": "周期性内斜视", "lemmaCroppedTitle": "周期性内斜视", "lemmaDesc": "周期性内斜视是指眼位内斜与正位（或轻微内斜）交替出现，且有明显规律的一种斜视。斜...", "lemmaUrl": "http://baike.baidu.com/item/%E5%91%A8%E6%9C%9F%E6%80%A7%E5%86%85%E6%96%9C%E8%A7%86/4003058", "lemmaPic": []}, {"lemmaId": 8802566, "lemmaTitle": "钩虫性十二指肠炎综合征", "lemmaCroppedTitle": "钩虫性十二指肠炎综合征", "lemmaDesc": "钩虫性十二指肠炎综合征系由钩虫感染引起的钩虫性十二指肠炎，亦称Griesinge...", "lemmaUrl": "http://baike.baidu.com/item/%E9%92%A9%E8%99%AB%E6%80%A7%E5%8D%81%E4%BA%8C%E6%8C%87%E8%82%A0%E7%82%8E%E7%BB%BC%E5%90%88%E5%BE%81/8802566", "lemmaPic": []}, {"lemmaId": 1246410, "lemmaTitle": "脊椎化脓性骨髓炎", "lemmaCroppedTitle": "脊椎化脓性骨髓炎", "lemmaDesc": "脊椎化脓性骨髓炎发病较少，致病菌种类多，金黄葡萄菌、链球菌、白色葡萄球菌、沙门菌...", "lemmaUrl": "http://baike.baidu.com/item/%E8%84%8A%E6%A4%8E%E5%8C%96%E8%84%93%E6%80%A7%E9%AA%A8%E9%AB%93%E7%82%8E/1246410", "lemmaPic": []}, {"lemmaId": 6425065, "lemmaTitle": "眼-脑综合征", "lemmaCroppedTitle": "眼-脑综合征", "lemmaDesc": "颅内出血可以是玻璃体出血的原因，并且认为这种眼-脑综合征是蛛网膜下腔出血的征象，...", "lemmaUrl": "http://baike.baidu.com/item/%E7%9C%BC-%E8%84%91%E7%BB%BC%E5%90%88%E5%BE%81/6425065", "lemmaPic": []}, {"lemmaId": 2924228, "lemmaTitle": "小儿早老症", "lemmaCroppedTitle": "小儿早老症", "lemmaDesc": "是一种少见的代谢异常、发育障碍和侏儒状态，伴有骨骼、牙齿、指（趾）甲、毛发及脂肪...", "lemmaUrl": "http://baike.baidu.com/item/%E5%B0%8F%E5%84%BF%E6%97%A9%E8%80%81%E7%97%87/2924228", "lemmaPic": []}, {"lemmaId": 17659702, "lemmaTitle": "异常子宫出血", "lemmaCroppedTitle": "异常子宫出血", "lemmaDesc": "异常子宫出血（AUB）是妇科常见的症状和体征，作为总的术语，是指与正常月经的周期...", "lemmaUrl": "http://baike.baidu.com/item/%E5%BC%82%E5%B8%B8%E5%AD%90%E5%AE%AB%E5%87%BA%E8%A1%80/17659702", "lemmaPic": []}, {"lemmaId": 9262189, "lemmaTitle": "食管外压和牵拉", "lemmaCroppedTitle": "食管外压和牵拉", "lemmaDesc": "食管在其行程中经过和跨越许多结构和器官。其附近结构和器官的病变可以机械地影响食管...", "lemmaUrl": "http://baike.baidu.com/item/%E9%A3%9F%E7%AE%A1%E5%A4%96%E5%8E%8B%E5%92%8C%E7%89%B5%E6%8B%89/9262189", "lemmaPic": []}, {"lemmaId": 3605851, "lemmaTitle": "老年心肌病", "lemmaCroppedTitle": "老年心肌病", "lemmaDesc": "老年心肌病是老年人老化过程中心肌不明原因的退行性疾病，是老年人心力衰竭的一个重要...", "lemmaUrl": "http://baike.baidu.com/item/%E8%80%81%E5%B9%B4%E5%BF%83%E8%82%8C%E7%97%85/3605851", "lemmaPic": []}, {"lemmaId": 2839080, "lemmaTitle": "食管重复畸形", "lemmaCroppedTitle": "食管重复畸形", "lemmaDesc": "食管重复畸形是指附着于食管壁的一侧呈球形或管状空腔结构，具有与食管相同的组织形态...", "lemmaUrl": "http://baike.baidu.com/item/%E9%A3%9F%E7%AE%A1%E9%87%8D%E5%A4%8D%E7%95%B8%E5%BD%A2/2839080", "lemmaPic": []}, {"lemmaId": 6519942, "lemmaTitle": "淋巴结-胆道综合征", "lemmaCroppedTitle": "淋巴结-胆道综合征", "lemmaDesc": "淋巴结-胆道综合征为肝门淋巴结肿大压迫胆总管所致，我国自1980年以来有少数报道...", "lemmaUrl": "http://baike.baidu.com/item/%E6%B7%8B%E5%B7%B4%E7%BB%93-%E8%83%86%E9%81%93%E7%BB%BC%E5%90%88%E5%BE%81/6519942", "lemmaPic": []}, {"lemmaId": 10644970, "lemmaTitle": "非特异性系统性坏死性小血管炎", "lemmaCroppedTitle": "非特异性系统性坏死性小血管炎", "lemmaDesc": "非特异性系统性坏死性小血管炎，既往亦称显微镜下多发性微小动脉炎，现国际通用的病名...", "lemmaUrl": "http://baike.baidu.com/item/%E9%9D%9E%E7%89%B9%E5%BC%82%E6%80%A7%E7%B3%BB%E7%BB%9F%E6%80%A7%E5%9D%8F%E6%AD%BB%E6%80%A7%E5%B0%8F%E8%A1%80%E7%AE%A1%E7%82%8E/10644970", "lemmaPic": []}, {"lemmaId": 3190723, "lemmaTitle": "长骨骨干结核", "lemmaCroppedTitle": "长骨骨干结核", "lemmaDesc": "长骨骨干结核很少见，其发病顺序为股骨、胫骨、桡尺骨干、肱骨干和腓骨干。10岁以下...", "lemmaUrl": "http://baike.baidu.com/item/%E9%95%BF%E9%AA%A8%E9%AA%A8%E5%B9%B2%E7%BB%93%E6%A0%B8/3190723", "lemmaPic": []}, {"lemmaId": 3913654, "lemmaTitle": "颅骨巨细胞瘤", "lemmaCroppedTitle": "颅骨巨细胞瘤", "lemmaDesc": "颅骨巨细胞瘤（giant cell tumor of skull）又称颅骨破骨细...", "lemmaUrl": "http://baike.baidu.com/item/%E9%A2%85%E9%AA%A8%E5%B7%A8%E7%BB%86%E8%83%9E%E7%98%A4/3913654", "lemmaPic": []}, {"lemmaId": 8406364, "lemmaTitle": "纤维化综合征", "lemmaCroppedTitle": "纤维化综合征", "lemmaDesc": "纤维化综合征又称多灶性硬化症，系一种非感染性肉芽肿病。其特征为多器官系统进行性纤...", "lemmaUrl": "http://baike.baidu.com/item/%E7%BA%A4%E7%BB%B4%E5%8C%96%E7%BB%BC%E5%90%88%E5%BE%81/8406364", "lemmaPic": []}, {"lemmaId": 2839174, "lemmaTitle": "酒渣鼻样结核疹", "lemmaCroppedTitle": "酒渣鼻样结核疹", "lemmaDesc": "酒渣鼻样结核疹于1917年由Lewandowsky所命名，其临床特点为在颜面发生...", "lemmaUrl": "http://baike.baidu.com/item/%E9%85%92%E6%B8%A3%E9%BC%BB%E6%A0%B7%E7%BB%93%E6%A0%B8%E7%96%B9/2839174", "lemmaPic": []}, {"lemmaId": 1404858, "lemmaTitle": "肠毒性大肠埃希杆菌感染", "lemmaCroppedTitle": "肠毒性大肠埃希杆菌感染", "lemmaDesc": "肠毒性大肠埃希杆菌感染是肠毒性大肠埃希杆菌（ETEC）引起的肠道传染病。ETEC...", "lemmaUrl": "http://baike.baidu.com/item/%E8%82%A0%E6%AF%92%E6%80%A7%E5%A4%A7%E8%82%A0%E5%9F%83%E5%B8%8C%E6%9D%86%E8%8F%8C%E6%84%9F%E6%9F%93/1404858", "lemmaPic": []}, {"lemmaId": 897168, "lemmaTitle": "钩端螺旋体肺炎", "lemmaCroppedTitle": "钩端螺旋体肺炎", "lemmaDesc": "钩端螺旋体病是由各种不同型别的致病性钩端螺旋体引起的急性传染病，是接触带菌的野生...", "lemmaUrl": "http://baike.baidu.com/item/%E9%92%A9%E7%AB%AF%E8%9E%BA%E6%97%8B%E4%BD%93%E8%82%BA%E7%82%8E/897168", "lemmaPic": []}, {"lemmaId": 3269943, "lemmaTitle": "小儿右室双出口", "lemmaCroppedTitle": "小儿右室双出口", "lemmaDesc": "小儿右室双出口是主动脉和肺动脉均起自右心室，或一个大动脉和另一个大动脉的大部分均...", "lemmaUrl": "http://baike.baidu.com/item/%E5%B0%8F%E5%84%BF%E5%8F%B3%E5%AE%A4%E5%8F%8C%E5%87%BA%E5%8F%A3/3269943", "lemmaPic": []}, {"lemmaId": 8030428, "lemmaTitle": "非淋球菌性细菌性关节炎", "lemmaCroppedTitle": "非淋球菌性细菌性关节炎", "lemmaDesc": "非淋球菌性细菌性关节炎是一种严重的疾病。部分患者有关节损伤与功能障碍。预后与多种...", "lemmaUrl": "http://baike.baidu.com/item/%E9%9D%9E%E6%B7%8B%E7%90%83%E8%8F%8C%E6%80%A7%E7%BB%86%E8%8F%8C%E6%80%A7%E5%85%B3%E8%8A%82%E7%82%8E/8030428", "lemmaPic": []}, {"lemmaId": 8185277, "lemmaTitle": "深脓疱病", "lemmaCroppedTitle": "深脓疱病", "lemmaDesc": "深脓疱病又称臁疮，系由β型溶血性链球菌感染引起的急性炎症性化脓性疾病，其炎症较脓...", "lemmaUrl": "http://baike.baidu.com/item/%E6%B7%B1%E8%84%93%E7%96%B1%E7%97%85/8185277", "lemmaPic": []}, {"lemmaId": 4662689, "lemmaTitle": "链球菌中毒性休克综合征", "lemmaCroppedTitle": "链球菌中毒性休克综合征", "lemmaDesc": "链球菌中毒性休克综合征是由于链球菌引起的急性严重综合征，以局部疼痛、高热、低血压...", "lemmaUrl": "http://baike.baidu.com/item/%E9%93%BE%E7%90%83%E8%8F%8C%E4%B8%AD%E6%AF%92%E6%80%A7%E4%BC%91%E5%85%8B%E7%BB%BC%E5%90%88%E5%BE%81/4662689", "lemmaPic": []}, {"lemmaId": 888061, "lemmaTitle": "进行性骨干发育不良", "lemmaCroppedTitle": "进行性骨干发育不良", "lemmaDesc": "进行性骨干发育不良（PDD）又称增殖性骨膜炎、对称性硬化性厚骨症、Engelma...", "lemmaUrl": "http://baike.baidu.com/item/%E8%BF%9B%E8%A1%8C%E6%80%A7%E9%AA%A8%E5%B9%B2%E5%8F%91%E8%82%B2%E4%B8%8D%E8%89%AF/888061", "lemmaPic": []}, {"lemmaId": 8821567, "lemmaTitle": "化学液体吸入", "lemmaCroppedTitle": "化学液体吸入", "lemmaDesc": "临床上误吸的化学液体主要包括煤油、汽油、柴油、矿物油、动物油、植物油、家具擦光剂...", "lemmaUrl": "http://baike.baidu.com/item/%E5%8C%96%E5%AD%A6%E6%B6%B2%E4%BD%93%E5%90%B8%E5%85%A5/8821567", "lemmaPic": []}, {"lemmaId": 4653690, "lemmaTitle": "婴儿肉毒中毒综合征", "lemmaCroppedTitle": "婴儿肉毒中毒综合征", "lemmaDesc": "本病是由肉毒梭状杆菌产生的神经毒所致的进行性运动神经麻痹的神经性疾病。首次由美国...", "lemmaUrl": "http://baike.baidu.com/item/%E5%A9%B4%E5%84%BF%E8%82%89%E6%AF%92%E4%B8%AD%E6%AF%92%E7%BB%BC%E5%90%88%E5%BE%81/4653690", "lemmaPic": []}, {"lemmaId": 1466057, "lemmaTitle": "斑状白化病", "lemmaCroppedTitle": "斑状白化病", "lemmaDesc": "斑状白化病（斑驳病，白点病）是一种少见的常染色体显性遗传性疾病，由于局部黑素细胞...", "lemmaUrl": "http://baike.baidu.com/item/%E6%96%91%E7%8A%B6%E7%99%BD%E5%8C%96%E7%97%85/1466057", "lemmaPic": []}, {"lemmaId": 3157811, "lemmaTitle": "直接型颈动脉海绵窦瘘", "lemmaCroppedTitle": "直接型颈动脉海绵窦瘘", "lemmaDesc": "直接型颈动脉海绵窦瘘（Direct Carotid-Cavernous Sinu...", "lemmaUrl": "http://baike.baidu.com/item/%E7%9B%B4%E6%8E%A5%E5%9E%8B%E9%A2%88%E5%8A%A8%E8%84%89%E6%B5%B7%E7%BB%B5%E7%AA%A6%E7%98%98/3157811", "lemmaPic": []}, {"lemmaId": 7429007, "lemmaTitle": "枕颈畸形", "lemmaCroppedTitle": "枕颈畸形", "lemmaDesc": "枕颈结合部包括枕骨、寰椎（颈椎的第一节）及枢椎（颈椎第二节）。该处是头颅和脊柱的...", "lemmaUrl": "http://baike.baidu.com/item/%E6%9E%95%E9%A2%88%E7%95%B8%E5%BD%A2/7429007", "lemmaPic": []}, {"lemmaId": 6248311, "lemmaTitle": "皮克病性痴呆", "lemmaCroppedTitle": "皮克病性痴呆", "lemmaDesc": "1892年，Arnold Pick首先描述了一种不同于阿尔茨海默病（Alzhei...", "lemmaUrl": "http://baike.baidu.com/item/%E7%9A%AE%E5%85%8B%E7%97%85%E6%80%A7%E7%97%B4%E5%91%86/6248311", "lemmaPic": []}, {"lemmaId": 1479172, "lemmaTitle": "胎赤", "lemmaCroppedTitle": "胎赤", "lemmaDesc": "胎赤，病证名。出自《证治准绳・幼科》。表现为初生儿头面、肢体皮肤发赤，多因胎中感...", "lemmaUrl": "http://baike.baidu.com/item/%E8%83%8E%E8%B5%A4/1479172", "lemmaPic": []}, {"lemmaId": 12700748, "lemmaTitle": "颜面粟粒性狼疮", "lemmaCroppedTitle": "颜面粟粒性狼疮", "lemmaDesc": "颜面粟粒性狼疮又称颜面播散性粟粒性狼疮、毛囊性粟粒性狼疮、粟粒狼疮样结核症或颜面...", "lemmaUrl": "http://baike.baidu.com/item/%E9%A2%9C%E9%9D%A2%E7%B2%9F%E7%B2%92%E6%80%A7%E7%8B%BC%E7%96%AE/12700748", "lemmaPic": []}, {"lemmaId": 12810945, "lemmaTitle": "肠系膜囊肿和肿瘤", "lemmaCroppedTitle": "肠系膜囊肿和肿瘤", "lemmaDesc": "肠系膜囊肿和肿瘤在临床上并不多见。囊肿可属于先天性发育异常，如肠源囊肿、结肠系膜...", "lemmaUrl": "http://baike.baidu.com/item/%E8%82%A0%E7%B3%BB%E8%86%9C%E5%9B%8A%E8%82%BF%E5%92%8C%E8%82%BF%E7%98%A4/12810945", "lemmaPic": []}, {"lemmaId": 5044358, "lemmaTitle": "眼眶神经纤维瘤", "lemmaCroppedTitle": "眼眶神经纤维瘤", "lemmaDesc": "神经纤维瘤亦是周围神经的一种良性肿瘤，与神经鞘瘤的不同在于病理组织内除神经鞘细胞...", "lemmaUrl": "http://baike.baidu.com/item/%E7%9C%BC%E7%9C%B6%E7%A5%9E%E7%BB%8F%E7%BA%A4%E7%BB%B4%E7%98%A4/5044358", "lemmaPic": []}, {"lemmaId": 5281929, "lemmaTitle": "皮肤淋巴肉芽肿病", "lemmaCroppedTitle": "皮肤淋巴肉芽肿病", "lemmaDesc": "皮肤淋巴肉芽肿病大多数报告的皮肤霍奇金病，实际上是A型淋巴瘤样丘疹病。同义名Ho...", "lemmaUrl": "http://baike.baidu.com/item/%E7%9A%AE%E8%82%A4%E6%B7%8B%E5%B7%B4%E8%82%89%E8%8A%BD%E8%82%BF%E7%97%85/5281929", "lemmaPic": []}, {"lemmaId": 3906050, "lemmaTitle": "可拉明中毒", "lemmaCroppedTitle": "可拉明中毒", "lemmaDesc": "因过大剂量或连续多次注射较大剂量可拉明而引起中毒。半边莲，山梗菜及其种子都含有山...", "lemmaUrl": "http://baike.baidu.com/item/%E5%8F%AF%E6%8B%89%E6%98%8E%E4%B8%AD%E6%AF%92/3906050", "lemmaPic": []}, {"lemmaId": 1965428, "lemmaTitle": "原发性阴道恶性淋巴瘤", "lemmaCroppedTitle": "原发性阴道恶性淋巴瘤", "lemmaDesc": "原发性阴道恶性淋巴瘤比较少见。发病年龄为19～79岁，平均50岁。原发性阴道恶性...", "lemmaUrl": "http://baike.baidu.com/item/%E5%8E%9F%E5%8F%91%E6%80%A7%E9%98%B4%E9%81%93%E6%81%B6%E6%80%A7%E6%B7%8B%E5%B7%B4%E7%98%A4/1965428", "lemmaPic": []}, {"lemmaId": 7105571, "lemmaTitle": "假麦格综合征", "lemmaCroppedTitle": "假麦格综合征", "lemmaDesc": "假麦格综合征系指由于盆腔肿瘤伴发腹水和胸腔积液，并且肿瘤切除后腹水及胸腔积液仍不...", "lemmaUrl": "http://baike.baidu.com/item/%E5%81%87%E9%BA%A6%E6%A0%BC%E7%BB%BC%E5%90%88%E5%BE%81/7105571", "lemmaPic": []}, {"lemmaId": 12676621, "lemmaTitle": "小儿特发性肺含铁血黄素沉着症", "lemmaCroppedTitle": "小儿特发性肺含铁血黄素沉着症", "lemmaDesc": "特发性肺含铁血黄素沉着症(IPH)是一种少见、病因不明、好发于儿童的以弥散性肺泡...", "lemmaUrl": "http://baike.baidu.com/item/%E5%B0%8F%E5%84%BF%E7%89%B9%E5%8F%91%E6%80%A7%E8%82%BA%E5%90%AB%E9%93%81%E8%A1%80%E9%BB%84%E7%B4%A0%E6%B2%89%E7%9D%80%E7%97%87/12676621", "lemmaPic": []}, {"lemmaId": 7841842, "lemmaTitle": "颌面部骨巨细胞瘤", "lemmaCroppedTitle": "颌面部骨巨细胞瘤", "lemmaDesc": "骨巨细胞瘤可为良性肿瘤或恶性肿瘤，但不管是良性还是恶性都首选手术治疗，切除病变，...", "lemmaUrl": "http://baike.baidu.com/item/%E9%A2%8C%E9%9D%A2%E9%83%A8%E9%AA%A8%E5%B7%A8%E7%BB%86%E8%83%9E%E7%98%A4/7841842", "lemmaPic": []}, {"lemmaId": 10728603, "lemmaTitle": "急性腹型-高脂血症综合征", "lemmaCroppedTitle": "急性腹型-高脂血症综合征", "lemmaDesc": "常于幼年期开始发病。摄入脂肪时即可诱发，表现为上腹部不适、厌食、腹痛，多无恶心、...", "lemmaUrl": "http://baike.baidu.com/item/%E6%80%A5%E6%80%A7%E8%85%B9%E5%9E%8B-%E9%AB%98%E8%84%82%E8%A1%80%E7%97%87%E7%BB%BC%E5%90%88%E5%BE%81/10728603", "lemmaPic": []}, {"lemmaId": 12700742, "lemmaTitle": "火棉胶婴儿", "lemmaCroppedTitle": "火棉胶婴儿", "lemmaDesc": "火棉胶婴儿是一种罕见的遗传病，婴儿出生时全身为羊皮纸样或胶样膜覆盖，这种紧束膜使...", "lemmaUrl": "http://baike.baidu.com/item/%E7%81%AB%E6%A3%89%E8%83%B6%E5%A9%B4%E5%84%BF/12700742", "lemmaPic": []}, {"lemmaId": 12630007, "lemmaTitle": "小儿戈谢病", "lemmaCroppedTitle": "小儿戈谢病", "lemmaDesc": "戈谢病（GD）是溶酶体贮积病中最常见的一种，为常染色体隐性遗传。1882年Phi...", "lemmaUrl": "http://baike.baidu.com/item/%E5%B0%8F%E5%84%BF%E6%88%88%E8%B0%A2%E7%97%85/12630007", "lemmaPic": []}, {"lemmaId": 2817318, "lemmaTitle": "甲良性肿瘤", "lemmaCroppedTitle": "甲良性肿瘤", "lemmaDesc": "甲良性肿瘤是远端指节结缔组织的退行性病变，包括黏液囊肿、甲下外生骨疣、纤维瘤、甲...", "lemmaUrl": "http://baike.baidu.com/item/%E7%94%B2%E8%89%AF%E6%80%A7%E8%82%BF%E7%98%A4/2817318", "lemmaPic": []}, {"lemmaId": 3536423, "lemmaTitle": "瘰疬性苔藓", "lemmaCroppedTitle": "瘰疬性苔藓", "lemmaDesc": "又称苔藓样皮肤结核，或播散性毛囊性皮肤结核病或腺性苔藓。是皮肤结核疹的一种，属少...", "lemmaUrl": "http://baike.baidu.com/item/%E7%98%B0%E7%96%AC%E6%80%A7%E8%8B%94%E8%97%93/3536423", "lemmaPic": []}, {"lemmaId": 4274999, "lemmaTitle": "乳房神经纤维瘤", "lemmaCroppedTitle": "乳房神经纤维瘤", "lemmaDesc": "乳房神经纤维瘤是神经纤维瘤病的一部分，好发于乳晕附近的皮肤及皮下组织，为周围神经...", "lemmaUrl": "http://baike.baidu.com/item/%E4%B9%B3%E6%88%BF%E7%A5%9E%E7%BB%8F%E7%BA%A4%E7%BB%B4%E7%98%A4/4274999", "lemmaPic": []}, {"lemmaId": 6293788, "lemmaTitle": "II型肾小管性酸中毒", "lemmaCroppedTitle": "II型肾小管性酸中毒", "lemmaDesc": "本征为近端肾小管重吸收碳酸氢根功能减退，致血中该盐降低，呈现高氯性酸中毒。由于近...", "lemmaUrl": "http://baike.baidu.com/item/II%E5%9E%8B%E8%82%BE%E5%B0%8F%E7%AE%A1%E6%80%A7%E9%85%B8%E4%B8%AD%E6%AF%92/6293788", "lemmaPic": []}, {"lemmaId": 6818597, "lemmaTitle": "恶性高血压视网膜病变", "lemmaCroppedTitle": "恶性高血压视网膜病变", "lemmaDesc": "恶性高血压视网膜病变是短期内突然发生急剧的血压升高，引起视网膜及脉络膜血管代偿失...", "lemmaUrl": "http://baike.baidu.com/item/%E6%81%B6%E6%80%A7%E9%AB%98%E8%A1%80%E5%8E%8B%E8%A7%86%E7%BD%91%E8%86%9C%E7%97%85%E5%8F%98/6818597", "lemmaPic": []}, {"lemmaId": 3557772, "lemmaTitle": "小儿乳糜泻", "lemmaCroppedTitle": "小儿乳糜泻", "lemmaDesc": "乳糜泻又称麸质过敏性肠病。过去由于病因不明，也曾称之为特发性吸收不良综合征。现已...", "lemmaUrl": "http://baike.baidu.com/item/%E5%B0%8F%E5%84%BF%E4%B9%B3%E7%B3%9C%E6%B3%BB/3557772", "lemmaPic": []}, {"lemmaId": 781484, "lemmaTitle": "卵巢肌肉来源肿瘤", "lemmaCroppedTitle": "卵巢肌肉来源肿瘤", "lemmaDesc": "卵巢肌肉来源肿瘤主要有以下几种类型：1.平滑肌瘤 原发性卵巢平滑肌瘤报道较少，可...", "lemmaUrl": "http://baike.baidu.com/item/%E5%8D%B5%E5%B7%A2%E8%82%8C%E8%82%89%E6%9D%A5%E6%BA%90%E8%82%BF%E7%98%A4/781484", "lemmaPic": []}, {"lemmaId": 1346622, "lemmaTitle": "肾皮质化脓性感染", "lemmaCroppedTitle": "肾皮质化脓性感染", "lemmaDesc": "肾皮质化脓性感染为葡萄球菌经血运进入肾脏皮质引起的严重感染，在没有形成液化的肾脏...", "lemmaUrl": "http://baike.baidu.com/item/%E8%82%BE%E7%9A%AE%E8%B4%A8%E5%8C%96%E8%84%93%E6%80%A7%E6%84%9F%E6%9F%93/1346622", "lemmaPic": []}, {"lemmaId": 4478195, "lemmaTitle": "丛状血管瘤", "lemmaCroppedTitle": "丛状血管瘤", "lemmaDesc": "丛状血管瘤又称成血管细胞瘤，是一种罕见的良性血管增生性疾病，该病通常大小为2～5...", "lemmaUrl": "http://baike.baidu.com/item/%E4%B8%9B%E7%8A%B6%E8%A1%80%E7%AE%A1%E7%98%A4/4478195", "lemmaPic": []}, {"lemmaId": 12676647, "lemmaTitle": "小儿假性粒细胞减少症", "lemmaCroppedTitle": "小儿假性粒细胞减少症", "lemmaDesc": "假性粒细胞减少症为粒细胞分布异常所致，患者周围血中粒细胞波动范围较大，变化很快，...", "lemmaUrl": "http://baike.baidu.com/item/%E5%B0%8F%E5%84%BF%E5%81%87%E6%80%A7%E7%B2%92%E7%BB%86%E8%83%9E%E5%87%8F%E5%B0%91%E7%97%87/12676647", "lemmaPic": []}, {"lemmaId": 12810936, "lemmaTitle": "阿司匹林不耐受三联征", "lemmaCroppedTitle": "阿司匹林不耐受三联征", "lemmaDesc": "阿司匹林不耐受三联征或称阿司匹林耐受不良三联征，或称Widal综合征，是一种原因...", "lemmaUrl": "http://baike.baidu.com/item/%E9%98%BF%E5%8F%B8%E5%8C%B9%E6%9E%97%E4%B8%8D%E8%80%90%E5%8F%97%E4%B8%89%E8%81%94%E5%BE%81/12810936", "lemmaPic": []}, {"lemmaId": 1473062, "lemmaTitle": "胎肥", "lemmaCroppedTitle": "胎肥", "lemmaDesc": "胎肥，病证名。出自《小儿药证直诀》。指小儿生下遍身肌肉肥厚，肉色通红，满月以后，...", "lemmaUrl": "http://baike.baidu.com/item/%E8%83%8E%E8%82%A5/1473062", "lemmaPic": []}, {"lemmaId": 8470462, "lemmaTitle": "诺卡放线菌病", "lemmaCroppedTitle": "诺卡放线菌病", "lemmaDesc": "诺卡放线菌病一种急性或慢性的、常为弥漫性的肉芽肿-化脓性传染病，通常由一种土壤腐...", "lemmaUrl": "http://baike.baidu.com/item/%E8%AF%BA%E5%8D%A1%E6%94%BE%E7%BA%BF%E8%8F%8C%E7%97%85/8470462", "lemmaPic": []}, {"lemmaId": 4257814, "lemmaTitle": "带状疱疹病毒性巩膜炎", "lemmaCroppedTitle": "带状疱疹病毒性巩膜炎", "lemmaDesc": "带状疱疹病毒性巩膜炎（herpes zoster virus scleritis...", "lemmaUrl": "http://baike.baidu.com/item/%E5%B8%A6%E7%8A%B6%E7%96%B1%E7%96%B9%E7%97%85%E6%AF%92%E6%80%A7%E5%B7%A9%E8%86%9C%E7%82%8E/4257814", "lemmaPic": []}, {"lemmaId": 12676532, "lemmaTitle": "小儿腓骨肌萎缩症", "lemmaCroppedTitle": "小儿腓骨肌萎缩症", "lemmaDesc": "腓骨肌萎缩症又称Charcot-Marie-Tooth病（CMT），是一组最常见...", "lemmaUrl": "http://baike.baidu.com/item/%E5%B0%8F%E5%84%BF%E8%85%93%E9%AA%A8%E8%82%8C%E8%90%8E%E7%BC%A9%E7%97%87/12676532", "lemmaPic": []}, {"lemmaId": 4652923, "lemmaTitle": "新生儿皮下脂肪坏死", "lemmaCroppedTitle": "新生儿皮下脂肪坏死", "lemmaDesc": "新生儿皮下脂肪坏死为良性病变，多在生后6～10天发病，其特点为皮下脂肪组织出现无...", "lemmaUrl": "http://baike.baidu.com/item/%E6%96%B0%E7%94%9F%E5%84%BF%E7%9A%AE%E4%B8%8B%E8%84%82%E8%82%AA%E5%9D%8F%E6%AD%BB/4652923", "lemmaPic": []}, {"lemmaId": 11006979, "lemmaTitle": "偻附", "lemmaCroppedTitle": "偻附", "lemmaDesc": "证名。本词最早见于《素问・脉要精微论》：“膝者筋之府，屈伸不能，行则偻附，筋将惫...", "lemmaUrl": "http://baike.baidu.com/item/%E5%81%BB%E9%99%84/11006979", "lemmaPic": []}, {"lemmaId": 1964065, "lemmaTitle": "溃疡性皮肤结核", "lemmaCroppedTitle": "溃疡性皮肤结核", "lemmaDesc": "又称为腔口部皮肤结核、溃疡性粟粒结核病，是内脏结核患者腔口部皮肤或黏膜的结核杆菌...", "lemmaUrl": "http://baike.baidu.com/item/%E6%BA%83%E7%96%A1%E6%80%A7%E7%9A%AE%E8%82%A4%E7%BB%93%E6%A0%B8/1964065", "lemmaPic": []}, {"lemmaId": 3305936, "lemmaTitle": "眼外肌猪囊尾蚴病", "lemmaCroppedTitle": "眼外肌猪囊尾蚴病", "lemmaDesc": "眼外肌猪囊尾蚴病，是指寄生于眼球转动肌的猪囊尾蚴引起的反复发作性炎症与粘连形成的...", "lemmaUrl": "http://baike.baidu.com/item/%E7%9C%BC%E5%A4%96%E8%82%8C%E7%8C%AA%E5%9B%8A%E5%B0%BE%E8%9A%B4%E7%97%85/3305936", "lemmaPic": []}, {"lemmaId": 3911548, "lemmaTitle": "增龄性黄斑变性", "lemmaCroppedTitle": "增龄性黄斑变性", "lemmaDesc": "增龄性黄斑变性（ARMD），亦称老年性黄斑变性（SMD）是与年龄相关的致盲的重要...", "lemmaUrl": "http://baike.baidu.com/item/%E5%A2%9E%E9%BE%84%E6%80%A7%E9%BB%84%E6%96%91%E5%8F%98%E6%80%A7/3911548", "lemmaPic": []}, {"lemmaId": 7221368, "lemmaTitle": "婴儿肢端脓疱病", "lemmaCroppedTitle": "婴儿肢端脓疱病", "lemmaDesc": "婴儿肢端脓疱病是一种罕见瘙痒性水疱脓疱疾病。主要发生于掌跖部位，尽管首例报道病例...", "lemmaUrl": "http://baike.baidu.com/item/%E5%A9%B4%E5%84%BF%E8%82%A2%E7%AB%AF%E8%84%93%E7%96%B1%E7%97%85/7221368", "lemmaPic": []}, {"lemmaId": 1716934, "lemmaTitle": "子宫颈残端癌", "lemmaCroppedTitle": "子宫颈残端癌", "lemmaDesc": "宫颈残端癌是指子宫次全切除术后所残留的宫颈部分发生癌变。宫颈残端癌可在子宫次全切...", "lemmaUrl": "http://baike.baidu.com/item/%E5%AD%90%E5%AE%AB%E9%A2%88%E6%AE%8B%E7%AB%AF%E7%99%8C/1716934", "lemmaPic": []}, {"lemmaId": 3108140, "lemmaTitle": "赤脉贯布", "lemmaCroppedTitle": "赤脉贯布", "lemmaDesc": "赤脉贯布一般指气轮上血管增多，布满整个白睛，是多种眼病的共同症状，如椒疮，粟疮，...", "lemmaUrl": "http://baike.baidu.com/item/%E8%B5%A4%E8%84%89%E8%B4%AF%E5%B8%83/3108140", "lemmaPic": []}], "total": 7246, "totalPage": 73, "page": 57, "fromLemma": 0}