{"lemmaList": [{"lemmaId": 7043703, "lemmaTitle": "创伤性血胸", "lemmaCroppedTitle": "创伤性血胸", "lemmaDesc": "胸膜腔内积血谓之血胸。创伤性血胸的发生率在胸部钝性伤中占25%～75%，在穿透性...", "lemmaUrl": "http://baike.baidu.com/item/%E5%88%9B%E4%BC%A4%E6%80%A7%E8%A1%80%E8%83%B8/7043703", "lemmaPic": []}, {"lemmaId": 4006739, "lemmaTitle": "脊髓海绵状血管瘤", "lemmaCroppedTitle": "脊髓海绵状血管瘤", "lemmaDesc": "脊髓海绵状血管瘤比较少见，国内外报道不多。随着磁共振检查的广泛应用，其检出率有增...", "lemmaUrl": "http://baike.baidu.com/item/%E8%84%8A%E9%AB%93%E6%B5%B7%E7%BB%B5%E7%8A%B6%E8%A1%80%E7%AE%A1%E7%98%A4/4006739", "lemmaPic": []}, {"lemmaId": 3342883, "lemmaTitle": "无功能垂体腺瘤", "lemmaCroppedTitle": "无功能垂体腺瘤", "lemmaDesc": "绝大多数垂体腺瘤具有较高的分泌功能，使血中激素水平升高，并产生相应的临床症状。但...", "lemmaUrl": "http://baike.baidu.com/item/%E6%97%A0%E5%8A%9F%E8%83%BD%E5%9E%82%E4%BD%93%E8%85%BA%E7%98%A4/3342883", "lemmaPic": []}, {"lemmaId": 10069627, "lemmaTitle": "视网膜血管瘤", "lemmaCroppedTitle": "视网膜血管瘤", "lemmaDesc": "视网膜血管瘤又名von Hippel病，往往为全身血管瘤病的一部分，常伴有小脑、...", "lemmaUrl": "http://baike.baidu.com/item/%E8%A7%86%E7%BD%91%E8%86%9C%E8%A1%80%E7%AE%A1%E7%98%A4/10069627", "lemmaPic": []}, {"lemmaId": 2074776, "lemmaTitle": "盆底综合征", "lemmaCroppedTitle": "盆底综合征", "lemmaDesc": "盆底综合征是指盆底结构包括直肠、肛提肌以及肛门内外括约肌等神经肌肉异常引起的综合...", "lemmaUrl": "http://baike.baidu.com/item/%E7%9B%86%E5%BA%95%E7%BB%BC%E5%90%88%E5%BE%81/2074776", "lemmaPic": []}, {"lemmaId": 10357695, "lemmaTitle": "成软骨细胞瘤", "lemmaCroppedTitle": "成软骨细胞瘤", "lemmaDesc": "成软骨细胞瘤是来源于幼稚软骨细胞（成软骨细胞）的良性肿瘤，主要位于长骨末端的骨骺...", "lemmaUrl": "http://baike.baidu.com/item/%E6%88%90%E8%BD%AF%E9%AA%A8%E7%BB%86%E8%83%9E%E7%98%A4/10357695", "lemmaPic": []}, {"lemmaId": 5278844, "lemmaTitle": "视盘炎", "lemmaCroppedTitle": "视盘炎", "lemmaDesc": "视盘炎又称视神经乳头炎，是紧邻眼球段的视神经的一种急性炎症，发病急剧，视力障碍严...", "lemmaUrl": "http://baike.baidu.com/item/%E8%A7%86%E7%9B%98%E7%82%8E/5278844", "lemmaPic": []}, {"lemmaId": 9187866, "lemmaTitle": "舌咽神经损伤", "lemmaCroppedTitle": "舌咽神经损伤", "lemmaDesc": "舌咽神经为混合神经，是舌咽部重要的感觉传入神经，其运动支主司提软腭功能，副交感纤...", "lemmaUrl": "http://baike.baidu.com/item/%E8%88%8C%E5%92%BD%E7%A5%9E%E7%BB%8F%E6%8D%9F%E4%BC%A4/9187866", "lemmaPic": []}, {"lemmaId": 826306, "lemmaTitle": "药物性心肌病", "lemmaCroppedTitle": "药物性心肌病", "lemmaDesc": "药物性心肌病指接受某些药物治疗的患者，由于药物对心肌的毒性作用，引起心肌损害产生...", "lemmaUrl": "http://baike.baidu.com/item/%E8%8D%AF%E7%89%A9%E6%80%A7%E5%BF%83%E8%82%8C%E7%97%85/826306", "lemmaPic": []}, {"lemmaId": 7350256, "lemmaTitle": "电灼伤", "lemmaCroppedTitle": "电灼伤", "lemmaDesc": "电灼伤是人体接触电源或被雷电击时所发生的皮肤及其他组织损伤，严重时可危及生命。", "lemmaUrl": "http://baike.baidu.com/item/%E7%94%B5%E7%81%BC%E4%BC%A4/7350256", "lemmaPic": []}, {"lemmaId": 5373524, "lemmaTitle": "肥胖性生殖无能综合征", "lemmaCroppedTitle": "肥胖性生殖无能综合征", "lemmaDesc": "肥胖性生殖无能综合征以幼儿、学龄期男孩多见，肥胖性器官发育不良、尿崩等为其特征。...", "lemmaUrl": "http://baike.baidu.com/item/%E8%82%A5%E8%83%96%E6%80%A7%E7%94%9F%E6%AE%96%E6%97%A0%E8%83%BD%E7%BB%BC%E5%90%88%E5%BE%81/5373524", "lemmaPic": []}, {"lemmaId": 1002261, "lemmaTitle": "蚕食性角膜溃疡", "lemmaCroppedTitle": "蚕食性角膜溃疡", "lemmaDesc": "蚕蚀性角膜溃疡是指一种病因不清，病情顽固，迄今仍被视为严重的致盲性眼病。也称Mo...", "lemmaUrl": "http://baike.baidu.com/item/%E8%9A%95%E9%A3%9F%E6%80%A7%E8%A7%92%E8%86%9C%E6%BA%83%E7%96%A1/1002261", "lemmaPic": []}, {"lemmaId": 2940338, "lemmaTitle": "浆细胞性唇炎", "lemmaCroppedTitle": "浆细胞性唇炎", "lemmaDesc": "浆细胞性唇炎是唇部一种慢性炎症性疾病，在组织学上几乎全部为浆细胞浸润，又称口部浆...", "lemmaUrl": "http://baike.baidu.com/item/%E6%B5%86%E7%BB%86%E8%83%9E%E6%80%A7%E5%94%87%E7%82%8E/2940338", "lemmaPic": []}, {"lemmaId": 12676715, "lemmaTitle": "小儿低血糖", "lemmaCroppedTitle": "小儿低血糖", "lemmaDesc": "小儿低血糖是指不同原因引起的血糖浓度低于正常，出生后1～2小时血糖降至最低点，然...", "lemmaUrl": "http://baike.baidu.com/item/%E5%B0%8F%E5%84%BF%E4%BD%8E%E8%A1%80%E7%B3%96/12676715", "lemmaPic": []}, {"lemmaId": 914645, "lemmaTitle": "肩部骨折", "lemmaCroppedTitle": "肩部骨折", "lemmaDesc": "由于外伤或病理等原因致使肩部骨质部分或完全断裂。临床常见的肩部骨折包括肱骨大结节...", "lemmaUrl": "http://baike.baidu.com/item/%E8%82%A9%E9%83%A8%E9%AA%A8%E6%8A%98/914645", "lemmaPic": []}, {"lemmaId": 7254815, "lemmaTitle": "复发性无菌性脑膜炎", "lemmaCroppedTitle": "复发性无菌性脑膜炎", "lemmaDesc": "复发性无菌性脑膜炎系指脑膜炎呈反复发作，发作时出现发热、颈部强直等脑膜刺激征，脑...", "lemmaUrl": "http://baike.baidu.com/item/%E5%A4%8D%E5%8F%91%E6%80%A7%E6%97%A0%E8%8F%8C%E6%80%A7%E8%84%91%E8%86%9C%E7%82%8E/7254815", "lemmaPic": []}, {"lemmaId": 8312637, "lemmaTitle": "胃肠道癌", "lemmaCroppedTitle": "胃肠道癌", "lemmaDesc": "胃肠道癌是最常见和最主要的恶性肿瘤，包括胃癌、结肠和直肠癌等。胃癌发病有明显的地...", "lemmaUrl": "http://baike.baidu.com/item/%E8%83%83%E8%82%A0%E9%81%93%E7%99%8C/8312637", "lemmaPic": []}, {"lemmaId": 9848841, "lemmaTitle": "小儿遗传性球形红细胞增多症", "lemmaCroppedTitle": "小儿遗传性球形红细胞增多症", "lemmaDesc": "小儿遗传性球形红细胞增多症（HS）是一种先天性红细胞膜骨架蛋白异常引起的遗传性溶...", "lemmaUrl": "http://baike.baidu.com/item/%E5%B0%8F%E5%84%BF%E9%81%97%E4%BC%A0%E6%80%A7%E7%90%83%E5%BD%A2%E7%BA%A2%E7%BB%86%E8%83%9E%E5%A2%9E%E5%A4%9A%E7%97%87/9848841", "lemmaPic": []}, {"lemmaId": 9944160, "lemmaTitle": "枕叶肿瘤", "lemmaCroppedTitle": "枕叶肿瘤", "lemmaDesc": "枕叶肿瘤（tumors of occipital lobe）是指位于枕叶的脑肿瘤...", "lemmaUrl": "http://baike.baidu.com/item/%E6%9E%95%E5%8F%B6%E8%82%BF%E7%98%A4/9944160", "lemmaPic": []}, {"lemmaId": 5894836, "lemmaTitle": "神经棘红细胞增多症", "lemmaCroppedTitle": "神经棘红细胞增多症", "lemmaDesc": "神经棘红细胞增多症（NA）或棘红细胞增多症，又称Bassem-Kornzweig...", "lemmaUrl": "http://baike.baidu.com/item/%E7%A5%9E%E7%BB%8F%E6%A3%98%E7%BA%A2%E7%BB%86%E8%83%9E%E5%A2%9E%E5%A4%9A%E7%97%87/5894836", "lemmaPic": []}, {"lemmaId": 6519113, "lemmaTitle": "结肠扭转", "lemmaCroppedTitle": "结肠扭转", "lemmaDesc": "是指以结肠系膜为轴的部分肠襻扭转和肠管本身纵轴为中心扭曲。在不同的地区发病率各不...", "lemmaUrl": "http://baike.baidu.com/item/%E7%BB%93%E8%82%A0%E6%89%AD%E8%BD%AC/6519113", "lemmaPic": []}, {"lemmaId": 10455170, "lemmaTitle": "黏液腺癌", "lemmaCroppedTitle": "黏液腺癌", "lemmaDesc": "黏液腺癌是腺癌的一种组织学形态，本肿瘤50%以上的成分包含有细胞外黏液池，常见于...", "lemmaUrl": "http://baike.baidu.com/item/%E9%BB%8F%E6%B6%B2%E8%85%BA%E7%99%8C/10455170", "lemmaPic": []}, {"lemmaId": 743432, "lemmaTitle": "孤立性直肠溃疡综合征", "lemmaCroppedTitle": "孤立性直肠溃疡综合征", "lemmaDesc": "孤立性直肠溃疡综合征（SRUS）又称直肠良性孤立性溃疡、直肠良性非特异性溃疡，是...", "lemmaUrl": "http://baike.baidu.com/item/%E5%AD%A4%E7%AB%8B%E6%80%A7%E7%9B%B4%E8%82%A0%E6%BA%83%E7%96%A1%E7%BB%BC%E5%90%88%E5%BE%81/743432", "lemmaPic": []}, {"lemmaId": 6463315, "lemmaTitle": "黑舌", "lemmaCroppedTitle": "黑舌", "lemmaDesc": "黑舌又称黑毛舌、毛舌。系丝状乳头过度增生，其角化部分不脱落而形成绒毛状苔，呈黑色...", "lemmaUrl": "http://baike.baidu.com/item/%E9%BB%91%E8%88%8C/6463315", "lemmaPic": []}, {"lemmaId": 6708687, "lemmaTitle": "隐匿型乳腺癌", "lemmaCroppedTitle": "隐匿型乳腺癌", "lemmaDesc": "隐匿性乳腺癌是一种少见的特殊类型乳腺癌，又称隐形乳腺癌，是以腋窝淋巴结转移癌为主...", "lemmaUrl": "http://baike.baidu.com/item/%E9%9A%90%E5%8C%BF%E5%9E%8B%E4%B9%B3%E8%85%BA%E7%99%8C/6708687", "lemmaPic": []}, {"lemmaId": 638078, "lemmaTitle": "致死性肝内胆汁淤积综合征", "lemmaCroppedTitle": "致死性肝内胆汁淤积综合征", "lemmaDesc": "致死性肝内胆汁淤积综合征又称Byler病；致死性家族性肝内胆汁淤积症；家族性肝内...", "lemmaUrl": "http://baike.baidu.com/item/%E8%87%B4%E6%AD%BB%E6%80%A7%E8%82%9D%E5%86%85%E8%83%86%E6%B1%81%E6%B7%A4%E7%A7%AF%E7%BB%BC%E5%90%88%E5%BE%81/638078", "lemmaPic": []}, {"lemmaId": 3910049, "lemmaTitle": "小儿肌性斜颈", "lemmaCroppedTitle": "小儿肌性斜颈", "lemmaDesc": "小儿肌性斜颈一般指先天性斜颈，是由一侧胸锁乳突肌挛缩造成头向一侧偏斜的病症。婴儿...", "lemmaUrl": "http://baike.baidu.com/item/%E5%B0%8F%E5%84%BF%E8%82%8C%E6%80%A7%E6%96%9C%E9%A2%88/3910049", "lemmaPic": []}, {"lemmaId": 5056130, "lemmaTitle": "类风湿性关节炎肾损害", "lemmaCroppedTitle": "类风湿性关节炎肾损害", "lemmaDesc": "类风湿关节炎（RA）患者中可见多种不同的肾损害，既可以是疾病本身所引起，也可以是...", "lemmaUrl": "http://baike.baidu.com/item/%E7%B1%BB%E9%A3%8E%E6%B9%BF%E6%80%A7%E5%85%B3%E8%8A%82%E7%82%8E%E8%82%BE%E6%8D%9F%E5%AE%B3/5056130", "lemmaPic": []}, {"lemmaId": 8596960, "lemmaTitle": "杀虫脒中毒", "lemmaCroppedTitle": "杀虫脒中毒", "lemmaDesc": "杀虫脒是一种高效广谱有机氮农业杀虫药和杀螨药，对有机磷、有机氯和氨基甲酸酯类杀虫...", "lemmaUrl": "http://baike.baidu.com/item/%E6%9D%80%E8%99%AB%E8%84%92%E4%B8%AD%E6%AF%92/8596960", "lemmaPic": []}, {"lemmaId": 5054233, "lemmaTitle": "韦格内肉芽肿", "lemmaCroppedTitle": "韦格内肉芽肿", "lemmaDesc": "韦格内肉芽肿是以进行性坏死性肉芽肿和广泛的小血管炎为基本特征，主要累及上下呼吸道...", "lemmaUrl": "http://baike.baidu.com/item/%E9%9F%A6%E6%A0%BC%E5%86%85%E8%82%89%E8%8A%BD%E8%82%BF/5054233", "lemmaPic": []}, {"lemmaId": 5462291, "lemmaTitle": "脊柱原发性肿瘤", "lemmaCroppedTitle": "脊柱原发性肿瘤", "lemmaDesc": "原发性骨肿瘤的总体发生率为0.4%。绝大多数良性脊柱肿瘤发生于10～30岁，而3...", "lemmaUrl": "http://baike.baidu.com/item/%E8%84%8A%E6%9F%B1%E5%8E%9F%E5%8F%91%E6%80%A7%E8%82%BF%E7%98%A4/5462291", "lemmaPic": []}, {"lemmaId": 1193766, "lemmaTitle": "Galeazzi骨折", "lemmaCroppedTitle": "Galeazzi骨折", "lemmaDesc": "桡骨中下l/3骨折合并下尺桡关节脱位。又称盖氏骨折。早在1929年法国人即称之为...", "lemmaUrl": "http://baike.baidu.com/item/Galeazzi%E9%AA%A8%E6%8A%98/1193766", "lemmaPic": []}, {"lemmaId": 5103170, "lemmaTitle": "垂体危象与垂体卒中", "lemmaCroppedTitle": "垂体危象与垂体卒中", "lemmaDesc": "垂体危象与垂体卒中，指垂体前叶功能减退时，肾上腺皮质激素和甲状腺激素缺乏，机体应...", "lemmaUrl": "http://baike.baidu.com/item/%E5%9E%82%E4%BD%93%E5%8D%B1%E8%B1%A1%E4%B8%8E%E5%9E%82%E4%BD%93%E5%8D%92%E4%B8%AD/5103170", "lemmaPic": []}, {"lemmaId": 5469348, "lemmaTitle": "认知障碍康复", "lemmaCroppedTitle": "认知障碍康复", "lemmaDesc": "认知障碍是脑卒中、脑外伤以及各类痴呆患者常见的神经心理学症状。在脑损伤患者的康复...", "lemmaUrl": "http://baike.baidu.com/item/%E8%AE%A4%E7%9F%A5%E9%9A%9C%E7%A2%8D%E5%BA%B7%E5%A4%8D/5469348", "lemmaPic": []}, {"lemmaId": 7961651, "lemmaTitle": "新生儿单纯疱疹病毒感染", "lemmaCroppedTitle": "新生儿单纯疱疹病毒感染", "lemmaDesc": "新生儿单纯疱疹病毒感染多见于早产儿，也可以发生在足月儿。病变常累及全身多个器官。...", "lemmaUrl": "http://baike.baidu.com/item/%E6%96%B0%E7%94%9F%E5%84%BF%E5%8D%95%E7%BA%AF%E7%96%B1%E7%96%B9%E7%97%85%E6%AF%92%E6%84%9F%E6%9F%93/7961651", "lemmaPic": []}, {"lemmaId": 1085002, "lemmaTitle": "妄想阵发", "lemmaCroppedTitle": "妄想阵发", "lemmaDesc": "妄想阵发又称急性妄想发作、发作性蒙状态、急性幻觉性精神病、急性偏执狂等，在WH...", "lemmaUrl": "http://baike.baidu.com/item/%E5%A6%84%E6%83%B3%E9%98%B5%E5%8F%91/1085002", "lemmaPic": []}, {"lemmaId": 1770859, "lemmaTitle": "颅内畸胎瘤", "lemmaCroppedTitle": "颅内畸胎瘤", "lemmaDesc": "颅内畸胎瘤是颅内生殖细胞瘤中的一种亚型，是由一个以上胚叶多种组织构成的一种先天性...", "lemmaUrl": "http://baike.baidu.com/item/%E9%A2%85%E5%86%85%E7%95%B8%E8%83%8E%E7%98%A4/1770859", "lemmaPic": []}, {"lemmaId": 5086606, "lemmaTitle": "四肢血管损伤", "lemmaCroppedTitle": "四肢血管损伤", "lemmaDesc": "近四十年来，对四肢血管伤多采用修复法，使截肢率显著下降。在四肢主要血管损伤的同时...", "lemmaUrl": "http://baike.baidu.com/item/%E5%9B%9B%E8%82%A2%E8%A1%80%E7%AE%A1%E6%8D%9F%E4%BC%A4/5086606", "lemmaPic": []}, {"lemmaId": 7069346, "lemmaTitle": "胰腺异位", "lemmaCroppedTitle": "胰腺异位", "lemmaDesc": "胰腺异位亦称迷走胰腺，凡在胰腺本身以外生长的，与正常胰腺不相连的零星胰腺组织，均...", "lemmaUrl": "http://baike.baidu.com/item/%E8%83%B0%E8%85%BA%E5%BC%82%E4%BD%8D/7069346", "lemmaPic": []}, {"lemmaId": 4209465, "lemmaTitle": "小儿慢性胃炎", "lemmaCroppedTitle": "小儿慢性胃炎", "lemmaDesc": "小儿慢性胃炎是指各种原因持续反复作用于胃黏膜所引起的慢性炎症。慢性胃炎发病原因尚...", "lemmaUrl": "http://baike.baidu.com/item/%E5%B0%8F%E5%84%BF%E6%85%A2%E6%80%A7%E8%83%83%E7%82%8E/4209465", "lemmaPic": []}, {"lemmaId": 4975289, "lemmaTitle": "母儿ABO血型不合", "lemmaCroppedTitle": "母儿ABO血型不合", "lemmaDesc": "母儿ABO血型不合是因孕妇与胎儿之间血型不和而产生的同种免疫。1938年Darr...", "lemmaUrl": "http://baike.baidu.com/item/%E6%AF%8D%E5%84%BFABO%E8%A1%80%E5%9E%8B%E4%B8%8D%E5%90%88/4975289", "lemmaPic": []}, {"lemmaId": 997132, "lemmaTitle": "外阴疖病", "lemmaCroppedTitle": "外阴疖病", "lemmaDesc": "外阴疖病为外阴皮肤毛囊或汗腺被侵入化脓性细菌引起的单个毛囊深部及周围组织的急性化...", "lemmaUrl": "http://baike.baidu.com/item/%E5%A4%96%E9%98%B4%E7%96%96%E7%97%85/997132", "lemmaPic": []}, {"lemmaId": 2600879, "lemmaTitle": "耳源性脑脓肿", "lemmaCroppedTitle": "耳源性脑脓肿", "lemmaDesc": "耳源性脑脓肿为化脓性中耳乳突炎所并发的严重并发症，可危及生命。耳源性脑脓肿多发生...", "lemmaUrl": "http://baike.baidu.com/item/%E8%80%B3%E6%BA%90%E6%80%A7%E8%84%91%E8%84%93%E8%82%BF/2600879", "lemmaPic": []}, {"lemmaId": 8405662, "lemmaTitle": "变应性皮肤结节性血管炎", "lemmaCroppedTitle": "变应性皮肤结节性血管炎", "lemmaDesc": "变应性皮肤结节性血管炎主要是以下肢皮下组织内细小血管炎为病理基础而形成结节损害的...", "lemmaUrl": "http://baike.baidu.com/item/%E5%8F%98%E5%BA%94%E6%80%A7%E7%9A%AE%E8%82%A4%E7%BB%93%E8%8A%82%E6%80%A7%E8%A1%80%E7%AE%A1%E7%82%8E/8405662", "lemmaPic": []}, {"lemmaId": 10357321, "lemmaTitle": "成纤维性纤维瘤", "lemmaCroppedTitle": "成纤维性纤维瘤", "lemmaDesc": "成纤维性纤维瘤（Desmoplastic fibroma），又称为硬纤维增殖性纤...", "lemmaUrl": "http://baike.baidu.com/item/%E6%88%90%E7%BA%A4%E7%BB%B4%E6%80%A7%E7%BA%A4%E7%BB%B4%E7%98%A4/10357321", "lemmaPic": []}, {"lemmaId": 9747211, "lemmaTitle": "狼疮样综合征", "lemmaCroppedTitle": "狼疮样综合征", "lemmaDesc": "狼疮样综合征是指对于未诊断系统性红斑狼疮（SLE）且无既往病史的患者，由于多种原...", "lemmaUrl": "http://baike.baidu.com/item/%E7%8B%BC%E7%96%AE%E6%A0%B7%E7%BB%BC%E5%90%88%E5%BE%81/9747211", "lemmaPic": []}, {"lemmaId": 6412415, "lemmaTitle": "荨麻疹型药疹", "lemmaCroppedTitle": "荨麻疹型药疹", "lemmaDesc": "大多数药物都具有引起药疹的可能性，其中包括中草药物，但以抗原性较强者引起的最多。...", "lemmaUrl": "http://baike.baidu.com/item/%E8%8D%A8%E9%BA%BB%E7%96%B9%E5%9E%8B%E8%8D%AF%E7%96%B9/6412415", "lemmaPic": []}, {"lemmaId": 7230669, "lemmaTitle": "汗孔角化病", "lemmaCroppedTitle": "汗孔角化病", "lemmaDesc": "汗孔角化病是一种少见的、遗传性的慢性进行性角化不全性皮肤病。以边缘堤状或疣状隆起...", "lemmaUrl": "http://baike.baidu.com/item/%E6%B1%97%E5%AD%94%E8%A7%92%E5%8C%96%E7%97%85/7230669", "lemmaPic": []}, {"lemmaId": 8532707, "lemmaTitle": "上颌窦后鼻孔息肉", "lemmaCroppedTitle": "上颌窦后鼻孔息肉", "lemmaDesc": "上颌窦后鼻孔息肉是原发于上颌窦、具有细长茎蒂、向后突出于鼻孔的息肉。这种息肉有其...", "lemmaUrl": "http://baike.baidu.com/item/%E4%B8%8A%E9%A2%8C%E7%AA%A6%E5%90%8E%E9%BC%BB%E5%AD%94%E6%81%AF%E8%82%89/8532707", "lemmaPic": []}, {"lemmaId": 7727810, "lemmaTitle": "外阴中肾管囊肿", "lemmaCroppedTitle": "外阴中肾管囊肿", "lemmaDesc": "外阴中肾管囊肿甚为少见，多位于处女膜、阴道前庭、小阴唇及阴蒂周围，囊肿较小者多无...", "lemmaUrl": "http://baike.baidu.com/item/%E5%A4%96%E9%98%B4%E4%B8%AD%E8%82%BE%E7%AE%A1%E5%9B%8A%E8%82%BF/7727810", "lemmaPic": []}, {"lemmaId": 149869, "lemmaTitle": "局限型间皮瘤", "lemmaCroppedTitle": "局限型间皮瘤", "lemmaDesc": "本肿瘤虽属良性，但具潜在恶性或低度恶性。", "lemmaUrl": "http://baike.baidu.com/item/%E5%B1%80%E9%99%90%E5%9E%8B%E9%97%B4%E7%9A%AE%E7%98%A4/149869", "lemmaPic": []}, {"lemmaId": 1275665, "lemmaTitle": "代谢性白内障", "lemmaCroppedTitle": "代谢性白内障", "lemmaDesc": "代谢性白内障与晶状体的代谢有关。由于血糖增加，晶状体的葡萄糖含量增加，致其醛糖还...", "lemmaUrl": "http://baike.baidu.com/item/%E4%BB%A3%E8%B0%A2%E6%80%A7%E7%99%BD%E5%86%85%E9%9A%9C/1275665", "lemmaPic": []}, {"lemmaId": 1556570, "lemmaTitle": "胃气虚证", "lemmaCroppedTitle": "胃气虚证", "lemmaDesc": "胃气虚证是指由于胃气不足，导致胃受纳、腐熟及运化功能失司所表现的胃脘隐痛，腹胀纳...", "lemmaUrl": "http://baike.baidu.com/item/%E8%83%83%E6%B0%94%E8%99%9A%E8%AF%81/1556570", "lemmaPic": []}, {"lemmaId": 12676622, "lemmaTitle": "小儿肺泡性蛋白沉积症", "lemmaCroppedTitle": "小儿肺泡性蛋白沉积症", "lemmaDesc": "肺泡性蛋白沉积症（Pulmonary Alveolar Proteinosis，...", "lemmaUrl": "http://baike.baidu.com/item/%E5%B0%8F%E5%84%BF%E8%82%BA%E6%B3%A1%E6%80%A7%E8%9B%8B%E7%99%BD%E6%B2%89%E7%A7%AF%E7%97%87/12676622", "lemmaPic": []}, {"lemmaId": 10773341, "lemmaTitle": "桑毛虫皮炎", "lemmaCroppedTitle": "桑毛虫皮炎", "lemmaDesc": "桑毛虫皮炎是指由桑毛虫毒毛接触人体后，引起的皮肤炎症反应。桑毛虫是桑毒蛾的幼虫，...", "lemmaUrl": "http://baike.baidu.com/item/%E6%A1%91%E6%AF%9B%E8%99%AB%E7%9A%AE%E7%82%8E/10773341", "lemmaPic": []}, {"lemmaId": 1051957, "lemmaTitle": "外阴平滑肌瘤", "lemmaCroppedTitle": "外阴平滑肌瘤", "lemmaDesc": "外阴平滑肌瘤好发于阴蒂、大阴唇、小阴唇，一般为单发，外形呈圆形或椭圆形，表面光滑...", "lemmaUrl": "http://baike.baidu.com/item/%E5%A4%96%E9%98%B4%E5%B9%B3%E6%BB%91%E8%82%8C%E7%98%A4/1051957", "lemmaPic": []}, {"lemmaId": 7867463, "lemmaTitle": "肺淀粉样变性", "lemmaCroppedTitle": "肺淀粉样变性", "lemmaDesc": "淀粉样变是指一组表现各异的临床综合征，其共同特点为均具有细胞外淀粉样物质沉积。1...", "lemmaUrl": "http://baike.baidu.com/item/%E8%82%BA%E6%B7%80%E7%B2%89%E6%A0%B7%E5%8F%98%E6%80%A7/7867463", "lemmaPic": []}, {"lemmaId": 9492957, "lemmaTitle": "芽生菌病", "lemmaCroppedTitle": "芽生菌病", "lemmaDesc": "芽生菌病又称北美芽生菌病，是由皮炎芽生菌引起的一种以肺、皮肤和骨骼为主的慢性化脓...", "lemmaUrl": "http://baike.baidu.com/item/%E8%8A%BD%E7%94%9F%E8%8F%8C%E7%97%85/9492957", "lemmaPic": []}, {"lemmaId": 511238, "lemmaTitle": "老年收缩期高血压", "lemmaCroppedTitle": "老年收缩期高血压", "lemmaDesc": "老年收缩期高血压（SHE）是一种严重危害老年人健康的一种疾病。一般是指60岁以上...", "lemmaUrl": "http://baike.baidu.com/item/%E8%80%81%E5%B9%B4%E6%94%B6%E7%BC%A9%E6%9C%9F%E9%AB%98%E8%A1%80%E5%8E%8B/511238", "lemmaPic": []}, {"lemmaId": 8347215, "lemmaTitle": "球形肺炎", "lemmaCroppedTitle": "球形肺炎", "lemmaDesc": "球形肺炎（spherical pneumonia）是由细菌或病毒引起的急性炎症，...", "lemmaUrl": "http://baike.baidu.com/item/%E7%90%83%E5%BD%A2%E8%82%BA%E7%82%8E/8347215", "lemmaPic": []}, {"lemmaId": 270195, "lemmaTitle": "外伤性脑脊液漏", "lemmaCroppedTitle": "外伤性脑脊液漏", "lemmaDesc": "外伤性脑脊液漏，是由于开放性颅脑损伤所致。颅底部脑脊液漏可分为鼻漏、耳漏、眼漏三...", "lemmaUrl": "http://baike.baidu.com/item/%E5%A4%96%E4%BC%A4%E6%80%A7%E8%84%91%E8%84%8A%E6%B6%B2%E6%BC%8F/270195", "lemmaPic": []}, {"lemmaId": 1259856, "lemmaTitle": "椎间隙感染", "lemmaCroppedTitle": "椎间隙感染", "lemmaDesc": "椎间隙感染为化脓性脊椎炎的一种类型，另一种为椎体化脓性骨髓炎，由溶血性金黄色葡萄...", "lemmaUrl": "http://baike.baidu.com/item/%E6%A4%8E%E9%97%B4%E9%9A%99%E6%84%9F%E6%9F%93/1259856", "lemmaPic": []}, {"lemmaId": 1694643, "lemmaTitle": "眼部毛细血管瘤", "lemmaCroppedTitle": "眼部毛细血管瘤", "lemmaDesc": "眼部毛细血管瘤是婴幼儿时期最常见的良性肿瘤，又名婴儿型血管瘤，严重时病变累及整个...", "lemmaUrl": "http://baike.baidu.com/item/%E7%9C%BC%E9%83%A8%E6%AF%9B%E7%BB%86%E8%A1%80%E7%AE%A1%E7%98%A4/1694643", "lemmaPic": []}, {"lemmaId": 895868, "lemmaTitle": "甲状舌囊肿及瘘管", "lemmaCroppedTitle": "甲状舌囊肿及瘘管", "lemmaDesc": "甲状舌囊肿及瘘管又名颈前正中囊肿及瘘管，是在甲状腺发生过程中，甲状舌管未退化或未...", "lemmaUrl": "http://baike.baidu.com/item/%E7%94%B2%E7%8A%B6%E8%88%8C%E5%9B%8A%E8%82%BF%E5%8F%8A%E7%98%98%E7%AE%A1/895868", "lemmaPic": []}, {"lemmaId": 2352332, "lemmaTitle": "小儿骨髓增生异常综合征", "lemmaCroppedTitle": "小儿骨髓增生异常综合征", "lemmaDesc": "小儿骨髓增生异常综合征在临床上十分常见，骨髓增生异常综合征（MDS）原名白血病前...", "lemmaUrl": "http://baike.baidu.com/item/%E5%B0%8F%E5%84%BF%E9%AA%A8%E9%AB%93%E5%A2%9E%E7%94%9F%E5%BC%82%E5%B8%B8%E7%BB%BC%E5%90%88%E5%BE%81/2352332", "lemmaPic": []}, {"lemmaId": 9440751, "lemmaTitle": "腺病毒性肺炎", "lemmaCroppedTitle": "腺病毒性肺炎", "lemmaDesc": "腺病毒肺炎多发群体，腺病毒一般通过呼吸道传染。在集体儿童机构中往往同时发生腺病毒...", "lemmaUrl": "http://baike.baidu.com/item/%E8%85%BA%E7%97%85%E6%AF%92%E6%80%A7%E8%82%BA%E7%82%8E/9440751", "lemmaPic": []}, {"lemmaId": 5556820, "lemmaTitle": "慢性皮肤黏膜念珠菌病", "lemmaCroppedTitle": "慢性皮肤黏膜念珠菌病", "lemmaDesc": "慢性皮肤黏膜念珠菌病指皮肤、黏膜、毛发和指甲持续性念珠菌感染的细胞免疫缺陷病。本...", "lemmaUrl": "http://baike.baidu.com/item/%E6%85%A2%E6%80%A7%E7%9A%AE%E8%82%A4%E9%BB%8F%E8%86%9C%E5%BF%B5%E7%8F%A0%E8%8F%8C%E7%97%85/5556820", "lemmaPic": []}, {"lemmaId": 3980608, "lemmaTitle": "阿米巴结肠炎", "lemmaCroppedTitle": "阿米巴结肠炎", "lemmaDesc": "阿米巴结肠炎由溶组织阿米巴原虫寄生于人体结肠内引起。患者可有腹痛腹泻，粪便不成形...", "lemmaUrl": "http://baike.baidu.com/item/%E9%98%BF%E7%B1%B3%E5%B7%B4%E7%BB%93%E8%82%A0%E7%82%8E/3980608", "lemmaPic": []}, {"lemmaId": 6234962, "lemmaTitle": "弥漫性外耳道炎", "lemmaCroppedTitle": "弥漫性外耳道炎", "lemmaDesc": "外耳道炎可分为两类，一类为局限性外耳道炎，又称外耳道疖；另一类为外耳道皮肤的弥漫...", "lemmaUrl": "http://baike.baidu.com/item/%E5%BC%A5%E6%BC%AB%E6%80%A7%E5%A4%96%E8%80%B3%E9%81%93%E7%82%8E/6234962", "lemmaPic": []}, {"lemmaId": 3981633, "lemmaTitle": "单纯性肛瘘", "lemmaCroppedTitle": "单纯性肛瘘", "lemmaDesc": "单纯性肛瘘是指肛门旁皮肤仅有一个外口。直通入齿线上肛隐窝之内口者，称为内外瘘，又...", "lemmaUrl": "http://baike.baidu.com/item/%E5%8D%95%E7%BA%AF%E6%80%A7%E8%82%9B%E7%98%98/3981633", "lemmaPic": {"width": 323, "height": 324, "url": "https://gss0.bdstatic.com/-4o3dSag_xI4khGkpoWK1HF6hhy/baike/w%3D168/sign=647b1f602ef5e0feee188d07646134e5/d0c8a786c9177f3ef36dec7473cf3bc79f3d5669.jpg"}}, {"lemmaId": 2065194, "lemmaTitle": "跖骨疲劳性骨折", "lemmaCroppedTitle": "跖骨疲劳性骨折", "lemmaDesc": "运动员在奔跑时跖骨头会产生很大的应力，特别是第1、第2跖骨头。而第2、第3、第4...", "lemmaUrl": "http://baike.baidu.com/item/%E8%B7%96%E9%AA%A8%E7%96%B2%E5%8A%B3%E6%80%A7%E9%AA%A8%E6%8A%98/2065194", "lemmaPic": []}, {"lemmaId": 6269925, "lemmaTitle": "左心房心律", "lemmaCroppedTitle": "左心房心律", "lemmaDesc": "左房心律（LAR）是1963年Mirowski首先提出的一种规律的、心率正常，异...", "lemmaUrl": "http://baike.baidu.com/item/%E5%B7%A6%E5%BF%83%E6%88%BF%E5%BF%83%E5%BE%8B/6269925", "lemmaPic": []}, {"lemmaId": 7838546, "lemmaTitle": "纤维性骨炎", "lemmaCroppedTitle": "纤维性骨炎", "lemmaDesc": "纤维性骨炎是由于慢性肾衰继发性甲状旁腺功能亢进，引起的高转运型骨病。临床上主要表...", "lemmaUrl": "http://baike.baidu.com/item/%E7%BA%A4%E7%BB%B4%E6%80%A7%E9%AA%A8%E7%82%8E/7838546", "lemmaPic": []}, {"lemmaId": 347621, "lemmaTitle": "肾动脉瘤", "lemmaCroppedTitle": "肾动脉瘤", "lemmaDesc": "肾动脉瘤并不罕见，约占内脏动脉瘤的19%。80%为单侧，17%为肾内型，30%呈...", "lemmaUrl": "http://baike.baidu.com/item/%E8%82%BE%E5%8A%A8%E8%84%89%E7%98%A4/347621", "lemmaPic": []}, {"lemmaId": 5393524, "lemmaTitle": "椎管内脊膜瘤", "lemmaCroppedTitle": "椎管内脊膜瘤", "lemmaDesc": "成人椎管内脊膜瘤的发病率与脊神经鞘瘤相似，其可发生于任何年龄组，但多发于50岁～...", "lemmaUrl": "http://baike.baidu.com/item/%E6%A4%8E%E7%AE%A1%E5%86%85%E8%84%8A%E8%86%9C%E7%98%A4/5393524", "lemmaPic": []}, {"lemmaId": 11056098, "lemmaTitle": "冠状病毒感染", "lemmaCroppedTitle": "冠状病毒感染", "lemmaDesc": "冠状病毒引起的人类疾病主要是呼吸系统感染（包括严重急性呼吸综合征，SARS）。这...", "lemmaUrl": "http://baike.baidu.com/item/%E5%86%A0%E7%8A%B6%E7%97%85%E6%AF%92%E6%84%9F%E6%9F%93/11056098", "lemmaPic": []}, {"lemmaId": 5280230, "lemmaTitle": "细菌性角膜溃疡", "lemmaCroppedTitle": "细菌性角膜溃疡", "lemmaDesc": "细菌性角膜溃疡（bacterila corneal ulcer）是角膜在受到损伤...", "lemmaUrl": "http://baike.baidu.com/item/%E7%BB%86%E8%8F%8C%E6%80%A7%E8%A7%92%E8%86%9C%E6%BA%83%E7%96%A1/5280230", "lemmaPic": []}, {"lemmaId": 10456049, "lemmaTitle": "急性单纯性咽炎", "lemmaCroppedTitle": "急性单纯性咽炎", "lemmaDesc": "急性单纯性咽炎为咽部黏膜及黏膜下组织的急性炎症，咽淋巴组织亦常被累及。炎症早期可...", "lemmaUrl": "http://baike.baidu.com/item/%E6%80%A5%E6%80%A7%E5%8D%95%E7%BA%AF%E6%80%A7%E5%92%BD%E7%82%8E/10456049", "lemmaPic": []}, {"lemmaId": 6448877, "lemmaTitle": "带状疱疹性角膜炎", "lemmaCroppedTitle": "带状疱疹性角膜炎", "lemmaDesc": "眼部带状疱疹可合并眼睑炎、结膜炎、角膜炎、巩膜炎、葡萄膜炎、视网膜病变（急性视网...", "lemmaUrl": "http://baike.baidu.com/item/%E5%B8%A6%E7%8A%B6%E7%96%B1%E7%96%B9%E6%80%A7%E8%A7%92%E8%86%9C%E7%82%8E/6448877", "lemmaPic": []}, {"lemmaId": 1356887, "lemmaTitle": "肘外翻畸形", "lemmaCroppedTitle": "肘外翻畸形", "lemmaDesc": "肘关节携物角大于20°称为肘外翻。肘部创伤后肘外翻畸形比肘内翻要少见，多数患者因...", "lemmaUrl": "http://baike.baidu.com/item/%E8%82%98%E5%A4%96%E7%BF%BB%E7%95%B8%E5%BD%A2/1356887", "lemmaPic": []}, {"lemmaId": 6982218, "lemmaTitle": "椎间盘钙化症", "lemmaCroppedTitle": "椎间盘钙化症", "lemmaDesc": "小儿椎间盘钙化症是指儿童的椎间盘内发生钙化现象，并带来一系列的症状和体征，为一种...", "lemmaUrl": "http://baike.baidu.com/item/%E6%A4%8E%E9%97%B4%E7%9B%98%E9%92%99%E5%8C%96%E7%97%87/6982218", "lemmaPic": []}, {"lemmaId": 2908332, "lemmaTitle": "纵隔疝", "lemmaCroppedTitle": "纵隔疝", "lemmaDesc": "纵隔疝是指一侧肺脏的部分组织通过纵隔突入到另一侧胸腔。纵隔移位是整个纵隔连同其内...", "lemmaUrl": "http://baike.baidu.com/item/%E7%BA%B5%E9%9A%94%E7%96%9D/2908332", "lemmaPic": []}, {"lemmaId": 5879759, "lemmaTitle": "乙醚中毒", "lemmaCroppedTitle": "乙醚中毒", "lemmaDesc": "乙醚中毒大多由于麻醉时用量过大、浓度过高或滴入过快引起，偶因误饮而致。部分人对乙...", "lemmaUrl": "http://baike.baidu.com/item/%E4%B9%99%E9%86%9A%E4%B8%AD%E6%AF%92/5879759", "lemmaPic": []}, {"lemmaId": 10516802, "lemmaTitle": "平底足", "lemmaCroppedTitle": "平底足", "lemmaDesc": "足弓是人类特有的解剖结构，系适应长期单一站立及行走的需要演变而来的，由于人的生活...", "lemmaUrl": "http://baike.baidu.com/item/%E5%B9%B3%E5%BA%95%E8%B6%B3/10516802", "lemmaPic": []}, {"lemmaId": 5086887, "lemmaTitle": "肱骨内髁骨折", "lemmaCroppedTitle": "肱骨内髁骨折", "lemmaDesc": "肱骨内髁骨折较少见，好发生于儿童，波及范围包括内上髁与滑车的大部分。受伤后肘内侧...", "lemmaUrl": "http://baike.baidu.com/item/%E8%82%B1%E9%AA%A8%E5%86%85%E9%AB%81%E9%AA%A8%E6%8A%98/5086887", "lemmaPic": []}, {"lemmaId": 1112138, "lemmaTitle": "小网膜囊疝", "lemmaCroppedTitle": "小网膜囊疝", "lemmaDesc": "游离的小肠襻，偶为肠系膜过长的横结肠，通过网膜孔进入小网膜囊内称小网膜囊疝，或网...", "lemmaUrl": "http://baike.baidu.com/item/%E5%B0%8F%E7%BD%91%E8%86%9C%E5%9B%8A%E7%96%9D/1112138", "lemmaPic": []}, {"lemmaId": 870034, "lemmaTitle": "阴囊坏疽", "lemmaCroppedTitle": "阴囊坏疽", "lemmaDesc": "阴囊坏疽是一种可危及生命的发生在男性外生殖器及会阴部的爆发性快速进展的坏死性筋膜...", "lemmaUrl": "http://baike.baidu.com/item/%E9%98%B4%E5%9B%8A%E5%9D%8F%E7%96%BD/870034", "lemmaPic": []}, {"lemmaId": 2809153, "lemmaTitle": "麻疹病毒肺炎", "lemmaCroppedTitle": "麻疹病毒肺炎", "lemmaDesc": "麻疹病毒肺炎为麻疹最常见的并发症，以婴幼儿及免疫力低下者为多，近年来成年人也时有...", "lemmaUrl": "http://baike.baidu.com/item/%E9%BA%BB%E7%96%B9%E7%97%85%E6%AF%92%E8%82%BA%E7%82%8E/2809153", "lemmaPic": []}, {"lemmaId": 15181334, "lemmaTitle": "原发免疫性血小板减少症", "lemmaCroppedTitle": "原发免疫性血小板减少症", "lemmaDesc": "原发免疫性血小板减少症（ITP），以往称特发性血小板减少性紫癜，是一种获得性自身...", "lemmaUrl": "http://baike.baidu.com/item/%E5%8E%9F%E5%8F%91%E5%85%8D%E7%96%AB%E6%80%A7%E8%A1%80%E5%B0%8F%E6%9D%BF%E5%87%8F%E5%B0%91%E7%97%87/15181334", "lemmaPic": []}, {"lemmaId": 6643541, "lemmaTitle": "先天性无虹膜", "lemmaCroppedTitle": "先天性无虹膜", "lemmaDesc": "无虹膜症是双眼发育性疾患，主要特征为先天性虹膜发育不良或正常虹膜的缺如，还可伴有...", "lemmaUrl": "http://baike.baidu.com/item/%E5%85%88%E5%A4%A9%E6%80%A7%E6%97%A0%E8%99%B9%E8%86%9C/6643541", "lemmaPic": []}, {"lemmaId": 8094130, "lemmaTitle": "颌面部神经纤维瘤", "lemmaCroppedTitle": "颌面部神经纤维瘤", "lemmaDesc": "颌面部神经纤维瘤是由神经鞘细胞及纤维母细胞两种主要成分组成的良性肿瘤，分单发及多...", "lemmaUrl": "http://baike.baidu.com/item/%E9%A2%8C%E9%9D%A2%E9%83%A8%E7%A5%9E%E7%BB%8F%E7%BA%A4%E7%BB%B4%E7%98%A4/8094130", "lemmaPic": []}, {"lemmaId": 10438142, "lemmaTitle": "肺并殖吸虫病", "lemmaCroppedTitle": "肺并殖吸虫病", "lemmaDesc": "肺并殖吸虫病又称肺吸虫病，是由并殖吸虫引起的急性或慢性的地方性寄生虫病，虫体主要...", "lemmaUrl": "http://baike.baidu.com/item/%E8%82%BA%E5%B9%B6%E6%AE%96%E5%90%B8%E8%99%AB%E7%97%85/10438142", "lemmaPic": []}, {"lemmaId": 5086945, "lemmaTitle": "肱骨小头骨折", "lemmaCroppedTitle": "肱骨小头骨折", "lemmaDesc": "肱骨小头骨折是少见的肘部损伤。成人多发生单纯肱骨小头骨折，儿童则可发生合并有部分...", "lemmaUrl": "http://baike.baidu.com/item/%E8%82%B1%E9%AA%A8%E5%B0%8F%E5%A4%B4%E9%AA%A8%E6%8A%98/5086945", "lemmaPic": []}, {"lemmaId": 5358349, "lemmaTitle": "鼻中隔脓肿", "lemmaCroppedTitle": "鼻中隔脓肿", "lemmaDesc": "鼻中隔脓肿即鼻中隔粘软骨膜或粘骨膜下积脓，是一较严重的鼻内感染。如不及时诊断和治...", "lemmaUrl": "http://baike.baidu.com/item/%E9%BC%BB%E4%B8%AD%E9%9A%94%E8%84%93%E8%82%BF/5358349", "lemmaPic": []}, {"lemmaId": 2065654, "lemmaTitle": "急性硬脑膜下血肿", "lemmaCroppedTitle": "急性硬脑膜下血肿", "lemmaDesc": "急性硬脑膜下血肿是颅脑损伤常见的继发损害，好发于额颞顶区。由于出血来源的不同又分...", "lemmaUrl": "http://baike.baidu.com/item/%E6%80%A5%E6%80%A7%E7%A1%AC%E8%84%91%E8%86%9C%E4%B8%8B%E8%A1%80%E8%82%BF/2065654", "lemmaPic": []}, {"lemmaId": 10595514, "lemmaTitle": "变异型预激综合征", "lemmaCroppedTitle": "变异型预激综合征", "lemmaDesc": "变异型预激综合征也称Mahaim型预激综合征。是指窦房结激动经Mahaim纤维下...", "lemmaUrl": "http://baike.baidu.com/item/%E5%8F%98%E5%BC%82%E5%9E%8B%E9%A2%84%E6%BF%80%E7%BB%BC%E5%90%88%E5%BE%81/10595514", "lemmaPic": []}, {"lemmaId": 2320825, "lemmaTitle": "不动纤毛综合征", "lemmaCroppedTitle": "不动纤毛综合征", "lemmaDesc": "又称原发性纤毛运动不良征。属常染色体隐性遗传，半数病人伴内脏转位，故目前认为Ka...", "lemmaUrl": "http://baike.baidu.com/item/%E4%B8%8D%E5%8A%A8%E7%BA%A4%E6%AF%9B%E7%BB%BC%E5%90%88%E5%BE%81/2320825", "lemmaPic": []}, {"lemmaId": 12021736, "lemmaTitle": "颈部脊髓损伤", "lemmaCroppedTitle": "颈部脊髓损伤", "lemmaDesc": "颈部脊髓损伤是一种非常严重的损伤，常造成患者死亡或残疾。颈上段脊髓损伤者易发生四...", "lemmaUrl": "http://baike.baidu.com/item/%E9%A2%88%E9%83%A8%E8%84%8A%E9%AB%93%E6%8D%9F%E4%BC%A4/12021736", "lemmaPic": []}, {"lemmaId": 2130266, "lemmaTitle": "新生儿失血性贫血", "lemmaCroppedTitle": "新生儿失血性贫血", "lemmaDesc": "新生儿生后2周内，静脉血血红蛋白≤130g/L，毛细血管血≤145g/L，可诊断...", "lemmaUrl": "http://baike.baidu.com/item/%E6%96%B0%E7%94%9F%E5%84%BF%E5%A4%B1%E8%A1%80%E6%80%A7%E8%B4%AB%E8%A1%80/2130266", "lemmaPic": []}, {"lemmaId": 10977693, "lemmaTitle": "心咳", "lemmaCroppedTitle": "心咳", "lemmaDesc": "心咳，为病名。咳则心痛，喉中如梗，甚则咽肿的病症。《素问・咳论》：“心咳之状，咳...", "lemmaUrl": "http://baike.baidu.com/item/%E5%BF%83%E5%92%B3/10977693", "lemmaPic": []}], "total": 7246, "totalPage": 73, "page": 41, "fromLemma": 0}