{"lemmaList": [{"lemmaId": 2253186, "lemmaTitle": "军团病肺炎", "lemmaCroppedTitle": "军团病肺炎", "lemmaDesc": "军团病肺炎是由嗜肺军团菌（革兰氏阴性杆菌）引起的肺部感染，轻型仅有流感样症状，重...", "lemmaUrl": "http://baike.baidu.com/item/%E5%86%9B%E5%9B%A2%E7%97%85%E8%82%BA%E7%82%8E/2253186", "lemmaPic": []}, {"lemmaId": 9849078, "lemmaTitle": "老年人心源性休克", "lemmaCroppedTitle": "老年人心源性休克", "lemmaDesc": "老年心源性休克是指各种原因所致心脏泵功能衰竭，表现由于心泵衰竭，交感神经兴奋，儿...", "lemmaUrl": "http://baike.baidu.com/item/%E8%80%81%E5%B9%B4%E4%BA%BA%E5%BF%83%E6%BA%90%E6%80%A7%E4%BC%91%E5%85%8B/9849078", "lemmaPic": []}, {"lemmaId": 2066178, "lemmaTitle": "阿司匹林诱发哮喘", "lemmaCroppedTitle": "阿司匹林诱发哮喘", "lemmaDesc": "由于应用某些药物而引起哮喘发作，称为药物诱发哮喘（DIA），包括无哮喘病史的患者...", "lemmaUrl": "http://baike.baidu.com/item/%E9%98%BF%E5%8F%B8%E5%8C%B9%E6%9E%97%E8%AF%B1%E5%8F%91%E5%93%AE%E5%96%98/2066178", "lemmaPic": []}, {"lemmaId": 3012970, "lemmaTitle": "金黄色葡萄球菌脑膜炎", "lemmaCroppedTitle": "金黄色葡萄球菌脑膜炎", "lemmaDesc": "金黄色葡萄球菌脑膜炎是指由金黄色葡萄球菌引起的脑膜炎，多继发于金葡菌败血症，多见...", "lemmaUrl": "http://baike.baidu.com/item/%E9%87%91%E9%BB%84%E8%89%B2%E8%91%A1%E8%90%84%E7%90%83%E8%8F%8C%E8%84%91%E8%86%9C%E7%82%8E/3012970", "lemmaPic": []}, {"lemmaId": 1660866, "lemmaTitle": "先天性梅毒性肝硬化", "lemmaCroppedTitle": "先天性梅毒性肝硬化", "lemmaDesc": "先天性梅毒患者中80%累及肝脏，可能系梅毒螺旋体透过胎盘，进入脐静脉最后到达肝脏...", "lemmaUrl": "http://baike.baidu.com/item/%E5%85%88%E5%A4%A9%E6%80%A7%E6%A2%85%E6%AF%92%E6%80%A7%E8%82%9D%E7%A1%AC%E5%8C%96/1660866", "lemmaPic": []}, {"lemmaId": 3870087, "lemmaTitle": "圆形糠疹", "lemmaCroppedTitle": "圆形糠疹", "lemmaDesc": "圆形糠疹又称连圈状糠秕疹，为正圆或椭圆形褐色或淡褐色境界明显的轻度角化性鳞屑斑，...", "lemmaUrl": "http://baike.baidu.com/item/%E5%9C%86%E5%BD%A2%E7%B3%A0%E7%96%B9/3870087", "lemmaPic": []}, {"lemmaId": 6000810, "lemmaTitle": "肝著", "lemmaCroppedTitle": "肝著", "lemmaDesc": "肝著或作肝着，又名肝胀。肝著病名出《金匮要略・五脏风寒积聚病脉证并治》：“肝着，...", "lemmaUrl": "http://baike.baidu.com/item/%E8%82%9D%E8%91%97/6000810", "lemmaPic": []}, {"lemmaId": 5077111, "lemmaTitle": "老年人膀胱癌", "lemmaCroppedTitle": "老年人膀胱癌", "lemmaDesc": "膀胱癌是指发生在膀胱黏膜上的恶性肿瘤。是泌尿系统最常见的恶性肿瘤之一。占我国泌尿...", "lemmaUrl": "http://baike.baidu.com/item/%E8%80%81%E5%B9%B4%E4%BA%BA%E8%86%80%E8%83%B1%E7%99%8C/5077111", "lemmaPic": []}, {"lemmaId": 5120570, "lemmaTitle": "冠状动脉终止异常", "lemmaCroppedTitle": "冠状动脉终止异常", "lemmaDesc": "冠状动脉终止异常或冠状动脉瘘包括左、右冠状动脉的主支或分支直接通入心腔、冠状静脉...", "lemmaUrl": "http://baike.baidu.com/item/%E5%86%A0%E7%8A%B6%E5%8A%A8%E8%84%89%E7%BB%88%E6%AD%A2%E5%BC%82%E5%B8%B8/5120570", "lemmaPic": []}, {"lemmaId": 5241029, "lemmaTitle": "肝外胆管损伤", "lemmaCroppedTitle": "肝外胆管损伤", "lemmaDesc": "创伤所致肝外胆管损伤，是肝门损伤的一部分。由于肝外胆管的部位较深，周围有较多重要...", "lemmaUrl": "http://baike.baidu.com/item/%E8%82%9D%E5%A4%96%E8%83%86%E7%AE%A1%E6%8D%9F%E4%BC%A4/5241029", "lemmaPic": []}, {"lemmaId": 2065247, "lemmaTitle": "小儿室间隔完整型肺动脉闭锁", "lemmaCroppedTitle": "小儿室间隔完整型肺动脉闭锁", "lemmaDesc": "室间隔完整型肺动脉闭锁指右心室流出道完全梗阻，但室间隔完整。在先心病中的发生率低...", "lemmaUrl": "http://baike.baidu.com/item/%E5%B0%8F%E5%84%BF%E5%AE%A4%E9%97%B4%E9%9A%94%E5%AE%8C%E6%95%B4%E5%9E%8B%E8%82%BA%E5%8A%A8%E8%84%89%E9%97%AD%E9%94%81/2065247", "lemmaPic": []}, {"lemmaId": 2908485, "lemmaTitle": "发作性嗜睡强食综合征", "lemmaCroppedTitle": "发作性嗜睡强食综合征", "lemmaDesc": "发作性嗜睡强食综合征又称Kleine-Leine综合征（KLS），是一种罕见的综...", "lemmaUrl": "http://baike.baidu.com/item/%E5%8F%91%E4%BD%9C%E6%80%A7%E5%97%9C%E7%9D%A1%E5%BC%BA%E9%A3%9F%E7%BB%BC%E5%90%88%E5%BE%81/2908485", "lemmaPic": []}, {"lemmaId": 869934, "lemmaTitle": "阿尔采末病", "lemmaCroppedTitle": "阿尔采末病", "lemmaDesc": "阿尔采末病，是一组原因未明的原发性脑变性疾病。常起病于老年或老年前期，多缓慢发病...", "lemmaUrl": "http://baike.baidu.com/item/%E9%98%BF%E5%B0%94%E9%87%87%E6%9C%AB%E7%97%85/869934", "lemmaPic": []}, {"lemmaId": 2075906, "lemmaTitle": "阴道转移性肿瘤", "lemmaCroppedTitle": "阴道转移性肿瘤", "lemmaDesc": "阴道和卵巢是女性生殖道最常见的转移部位。生殖道本身及生殖道外其他部位的肿瘤都有可...", "lemmaUrl": "http://baike.baidu.com/item/%E9%98%B4%E9%81%93%E8%BD%AC%E7%A7%BB%E6%80%A7%E8%82%BF%E7%98%A4/2075906", "lemmaPic": []}, {"lemmaId": 4651568, "lemmaTitle": "小儿疱疹性角膜结膜炎", "lemmaCroppedTitle": "小儿疱疹性角膜结膜炎", "lemmaDesc": "疱疹性角膜结膜炎是临床上最常见的与结核感染有关的眼病，它是对结核杆菌或其产物的过...", "lemmaUrl": "http://baike.baidu.com/item/%E5%B0%8F%E5%84%BF%E7%96%B1%E7%96%B9%E6%80%A7%E8%A7%92%E8%86%9C%E7%BB%93%E8%86%9C%E7%82%8E/4651568", "lemmaPic": []}, {"lemmaId": 1673244, "lemmaTitle": "肝硬化男性性功能减弱综合征", "lemmaCroppedTitle": "肝硬化男性性功能减弱综合征", "lemmaDesc": "肝硬化男性性功能减退综合征，又称内分泌缺乏-肝硬化综合征、西-科二氏综合征（Si...", "lemmaUrl": "http://baike.baidu.com/item/%E8%82%9D%E7%A1%AC%E5%8C%96%E7%94%B7%E6%80%A7%E6%80%A7%E5%8A%9F%E8%83%BD%E5%87%8F%E5%BC%B1%E7%BB%BC%E5%90%88%E5%BE%81/1673244", "lemmaPic": []}, {"lemmaId": 7254198, "lemmaTitle": "棘突骨折", "lemmaCroppedTitle": "棘突骨折", "lemmaDesc": "单纯棘突骨折较少见，常合并椎体或其他附件骨折。以C6至T1棘突多见。多是由于颈椎...", "lemmaUrl": "http://baike.baidu.com/item/%E6%A3%98%E7%AA%81%E9%AA%A8%E6%8A%98/7254198", "lemmaPic": []}, {"lemmaId": 1517006, "lemmaTitle": "阴道血吸虫病", "lemmaCroppedTitle": "阴道血吸虫病", "lemmaDesc": "阴道血吸虫病别名阴道裂体吸虫病，是由于血吸虫尾蚴穿过皮肤进入血液，成虫由门脉系统...", "lemmaUrl": "http://baike.baidu.com/item/%E9%98%B4%E9%81%93%E8%A1%80%E5%90%B8%E8%99%AB%E7%97%85/1517006", "lemmaPic": []}, {"lemmaId": 4142916, "lemmaTitle": "全身脂肪代谢障碍", "lemmaCroppedTitle": "全身脂肪代谢障碍", "lemmaDesc": "全身脂肪代谢障碍又名全身性脂肪萎缩，为先天性的脂肪萎缩。主要表现全身皮下脂肪和内...", "lemmaUrl": "http://baike.baidu.com/item/%E5%85%A8%E8%BA%AB%E8%84%82%E8%82%AA%E4%BB%A3%E8%B0%A2%E9%9A%9C%E7%A2%8D/4142916", "lemmaPic": []}, {"lemmaId": 869002, "lemmaTitle": "淋巴管肉瘤", "lemmaCroppedTitle": "淋巴管肉瘤", "lemmaDesc": "淋巴管肉瘤（lymphangiosarcoma）一词最早于1948年由Stewa...", "lemmaUrl": "http://baike.baidu.com/item/%E6%B7%8B%E5%B7%B4%E7%AE%A1%E8%82%89%E7%98%A4/869002", "lemmaPic": []}, {"lemmaId": 6794510, "lemmaTitle": "阿米巴性宫颈炎", "lemmaCroppedTitle": "阿米巴性宫颈炎", "lemmaDesc": "由阿米巴原虫感染引起的宫颈炎为阿米巴性子宫颈炎，多继发于肠道阿米巴感染，常与阿米...", "lemmaUrl": "http://baike.baidu.com/item/%E9%98%BF%E7%B1%B3%E5%B7%B4%E6%80%A7%E5%AE%AB%E9%A2%88%E7%82%8E/6794510", "lemmaPic": []}, {"lemmaId": 9188424, "lemmaTitle": "椎管内结核肉芽肿", "lemmaCroppedTitle": "椎管内结核肉芽肿", "lemmaDesc": "椎管内结核肉芽肿又称椎管内结核瘤、非典型脊椎结核。椎管内结核系指结核性肉芽肿位于...", "lemmaUrl": "http://baike.baidu.com/item/%E6%A4%8E%E7%AE%A1%E5%86%85%E7%BB%93%E6%A0%B8%E8%82%89%E8%8A%BD%E8%82%BF/9188424", "lemmaPic": []}, {"lemmaId": 6002147, "lemmaTitle": "小儿暑温", "lemmaCroppedTitle": "小儿暑温", "lemmaDesc": "小儿暑温是感受暑温邪毒引起的时行疾病。临床以高热、烦渴、头痛、昏迷为主症，发病急...", "lemmaUrl": "http://baike.baidu.com/item/%E5%B0%8F%E5%84%BF%E6%9A%91%E6%B8%A9/6002147", "lemmaPic": []}, {"lemmaId": 3216226, "lemmaTitle": "小儿腺苷脱氨酶缺乏", "lemmaCroppedTitle": "小儿腺苷脱氨酶缺乏", "lemmaDesc": "小儿腺苷脱氨酶缺乏（小儿ADA缺乏）为常染色体隐性遗传性疾病。由于腺苷脱氨酶缺陷...", "lemmaUrl": "http://baike.baidu.com/item/%E5%B0%8F%E5%84%BF%E8%85%BA%E8%8B%B7%E8%84%B1%E6%B0%A8%E9%85%B6%E7%BC%BA%E4%B9%8F/3216226", "lemmaPic": []}, {"lemmaId": 8622684, "lemmaTitle": "自身免疫性孕酮性皮炎", "lemmaCroppedTitle": "自身免疫性孕酮性皮炎", "lemmaDesc": "自身免疫性孕酮性皮炎是一种慢性、泛发性类似疱疹样皮炎的有特征性水疱的大疱性疾病，...", "lemmaUrl": "http://baike.baidu.com/item/%E8%87%AA%E8%BA%AB%E5%85%8D%E7%96%AB%E6%80%A7%E5%AD%95%E9%85%AE%E6%80%A7%E7%9A%AE%E7%82%8E/8622684", "lemmaPic": []}, {"lemmaId": 9610504, "lemmaTitle": "诺沃克类病毒胃肠炎", "lemmaCroppedTitle": "诺沃克类病毒胃肠炎", "lemmaDesc": "诺沃克类病毒感染后出现以呕吐、腹泻为主要症状的疾病。诺沃克类病毒为一组属于微小病...", "lemmaUrl": "http://baike.baidu.com/item/%E8%AF%BA%E6%B2%83%E5%85%8B%E7%B1%BB%E7%97%85%E6%AF%92%E8%83%83%E8%82%A0%E7%82%8E/9610504", "lemmaPic": []}, {"lemmaId": 8806443, "lemmaTitle": "脑棘球蚴病", "lemmaCroppedTitle": "脑棘球蚴病", "lemmaDesc": "脑棘球蚴病，是由于细粒棘球绦虫棘球蚴引起的一种慢性脑、肝、肺、心肾等部位的寄生虫...", "lemmaUrl": "http://baike.baidu.com/item/%E8%84%91%E6%A3%98%E7%90%83%E8%9A%B4%E7%97%85/8806443", "lemmaPic": []}, {"lemmaId": 3775850, "lemmaTitle": "颈椎双侧关节突关节脱位", "lemmaCroppedTitle": "颈椎双侧关节突关节脱位", "lemmaDesc": "颈椎双侧关节突关节脱位是典型的屈曲性损伤，可以发生在颈2至胸1之间的任何节段，但...", "lemmaUrl": "http://baike.baidu.com/item/%E9%A2%88%E6%A4%8E%E5%8F%8C%E4%BE%A7%E5%85%B3%E8%8A%82%E7%AA%81%E5%85%B3%E8%8A%82%E8%84%B1%E4%BD%8D/3775850", "lemmaPic": []}, {"lemmaId": 10002847, "lemmaTitle": "妊娠合并慢性肾小球肾炎", "lemmaCroppedTitle": "妊娠合并慢性肾小球肾炎", "lemmaDesc": "慢性肾小球肾炎（慢性肾炎）虽可由急性肾炎发展而来，但大多数慢性肾炎并非由急性肾炎...", "lemmaUrl": "http://baike.baidu.com/item/%E5%A6%8A%E5%A8%A0%E5%90%88%E5%B9%B6%E6%85%A2%E6%80%A7%E8%82%BE%E5%B0%8F%E7%90%83%E8%82%BE%E7%82%8E/10002847", "lemmaPic": []}, {"lemmaId": 5052592, "lemmaTitle": "眼外肌外伤", "lemmaCroppedTitle": "眼外肌外伤", "lemmaDesc": "眼外肌外伤又称外伤性眼外肌麻痹、外伤性麻痹性斜视、外伤性斜视等，是由于钝性外力或...", "lemmaUrl": "http://baike.baidu.com/item/%E7%9C%BC%E5%A4%96%E8%82%8C%E5%A4%96%E4%BC%A4/5052592", "lemmaPic": []}, {"lemmaId": 10833340, "lemmaTitle": "小儿葡萄状肉瘤", "lemmaCroppedTitle": "小儿葡萄状肉瘤", "lemmaDesc": "小儿阴道恶性肿瘤中90%以上为葡萄状肉瘤，为高度恶性肿瘤，多数进展迅速，预后极差...", "lemmaUrl": "http://baike.baidu.com/item/%E5%B0%8F%E5%84%BF%E8%91%A1%E8%90%84%E7%8A%B6%E8%82%89%E7%98%A4/10833340", "lemmaPic": []}, {"lemmaId": 265346, "lemmaTitle": "五硬", "lemmaCroppedTitle": "五硬", "lemmaDesc": "五硬是指小儿头项硬、口硬、手硬、足硬和肌肉硬，是新生儿常见的疾患之一。《古今医统...", "lemmaUrl": "http://baike.baidu.com/item/%E4%BA%94%E7%A1%AC/265346", "lemmaPic": []}, {"lemmaId": 7101433, "lemmaTitle": "心房心肌梗死", "lemmaCroppedTitle": "心房心肌梗死", "lemmaDesc": "心房心肌梗死具有与单纯心室心肌梗死不同的临床过程，但因本身确诊较困难，临床表现常...", "lemmaUrl": "http://baike.baidu.com/item/%E5%BF%83%E6%88%BF%E5%BF%83%E8%82%8C%E6%A2%97%E6%AD%BB/7101433", "lemmaPic": []}, {"lemmaId": 4444784, "lemmaTitle": "非典型纤维黄色瘤", "lemmaCroppedTitle": "非典型纤维黄色瘤", "lemmaDesc": "非典型纤维黄色瘤表现为结节状或溃疡的肿物，一般体积较小且位置表浅，典型者发生于阳...", "lemmaUrl": "http://baike.baidu.com/item/%E9%9D%9E%E5%85%B8%E5%9E%8B%E7%BA%A4%E7%BB%B4%E9%BB%84%E8%89%B2%E7%98%A4/4444784", "lemmaPic": []}, {"lemmaId": 3923061, "lemmaTitle": "外阴疣状黄瘤", "lemmaCroppedTitle": "外阴疣状黄瘤", "lemmaDesc": "外阴疣状黄瘤是一种好发于口腔黏膜、外生殖器官部位的良性肿瘤。临床少见。于1971...", "lemmaUrl": "http://baike.baidu.com/item/%E5%A4%96%E9%98%B4%E7%96%A3%E7%8A%B6%E9%BB%84%E7%98%A4/3923061", "lemmaPic": []}, {"lemmaId": 9207729, "lemmaTitle": "阴道良性肿瘤", "lemmaCroppedTitle": "阴道良性肿瘤", "lemmaDesc": "阴道良性肿瘤主要来源于阴道壁的结缔组织所含的弹性纤维。这种肿瘤很少见，常常是单个...", "lemmaUrl": "http://baike.baidu.com/item/%E9%98%B4%E9%81%93%E8%89%AF%E6%80%A7%E8%82%BF%E7%98%A4/9207729", "lemmaPic": []}, {"lemmaId": 984839, "lemmaTitle": "外伤性乳房脂肪坏死", "lemmaCroppedTitle": "外伤性乳房脂肪坏死", "lemmaDesc": "外伤性乳腺脂肪坏死是外伤（硬物撞击、碰伤）、感染、手术后引起的无菌性脂肪坏死性炎...", "lemmaUrl": "http://baike.baidu.com/item/%E5%A4%96%E4%BC%A4%E6%80%A7%E4%B9%B3%E6%88%BF%E8%84%82%E8%82%AA%E5%9D%8F%E6%AD%BB/984839", "lemmaPic": []}, {"lemmaId": 8403298, "lemmaTitle": "真菌性关节炎", "lemmaCroppedTitle": "真菌性关节炎", "lemmaDesc": "真菌性关节炎又称霉菌性关节炎。真菌感染所致肌肉骨骼病变罕见，但致病性和机遇性真菌...", "lemmaUrl": "http://baike.baidu.com/item/%E7%9C%9F%E8%8F%8C%E6%80%A7%E5%85%B3%E8%8A%82%E7%82%8E/8403298", "lemmaPic": []}, {"lemmaId": 2054398, "lemmaTitle": "寰椎骨折脱位", "lemmaCroppedTitle": "寰椎骨折脱位", "lemmaDesc": "寰椎骨折脱位是上颈椎损伤中较常见的一种，临床上见到的寰椎骨折脱位，神经症状轻重不...", "lemmaUrl": "http://baike.baidu.com/item/%E5%AF%B0%E6%A4%8E%E9%AA%A8%E6%8A%98%E8%84%B1%E4%BD%8D/2054398", "lemmaPic": []}, {"lemmaId": 4453758, "lemmaTitle": "先天性心血管疾病", "lemmaCroppedTitle": "先天性心血管疾病", "lemmaDesc": "先天性心血管疾病（CCD）简称先心病，是指胎儿心脏在母体内发育存在缺陷或部分停顿...", "lemmaUrl": "http://baike.baidu.com/item/%E5%85%88%E5%A4%A9%E6%80%A7%E5%BF%83%E8%A1%80%E7%AE%A1%E7%96%BE%E7%97%85/4453758", "lemmaPic": []}, {"lemmaId": 1184384, "lemmaTitle": "溃疡分枝杆菌感染", "lemmaCroppedTitle": "溃疡分枝杆菌感染", "lemmaDesc": "又称布鲁里溃疡，是由溃疡分枝杆菌引起的慢性隐袭性坏死性皮肤病，主要流行于中非、西...", "lemmaUrl": "http://baike.baidu.com/item/%E6%BA%83%E7%96%A1%E5%88%86%E6%9E%9D%E6%9D%86%E8%8F%8C%E6%84%9F%E6%9F%93/1184384", "lemmaPic": []}, {"lemmaId": 8410419, "lemmaTitle": "变形杆菌肺炎", "lemmaCroppedTitle": "变形杆菌肺炎", "lemmaDesc": "变形杆菌系肠道正常菌群的常见菌种，与人类感染有关的主要为普通变形杆菌和奇异变形杆...", "lemmaUrl": "http://baike.baidu.com/item/%E5%8F%98%E5%BD%A2%E6%9D%86%E8%8F%8C%E8%82%BA%E7%82%8E/8410419", "lemmaPic": []}, {"lemmaId": 2094752, "lemmaTitle": "毛发囊肿", "lemmaCroppedTitle": "毛发囊肿", "lemmaDesc": "毛发囊肿起源于生长期的毛发的峡部或围绕退化期和静止期毛发的毛囊处，囊肿容易被剜出...", "lemmaUrl": "http://baike.baidu.com/item/%E6%AF%9B%E5%8F%91%E5%9B%8A%E8%82%BF/2094752", "lemmaPic": []}, {"lemmaId": 7253687, "lemmaTitle": "三环类抗忧郁药中毒", "lemmaCroppedTitle": "三环类抗忧郁药中毒", "lemmaDesc": "本类药物国内已有阿米替林（amitriptyline）、丙咪嗪（imiprami...", "lemmaUrl": "http://baike.baidu.com/item/%E4%B8%89%E7%8E%AF%E7%B1%BB%E6%8A%97%E5%BF%A7%E9%83%81%E8%8D%AF%E4%B8%AD%E6%AF%92/7253687", "lemmaPic": []}, {"lemmaId": 6176019, "lemmaTitle": "敌鼠中毒", "lemmaCroppedTitle": "敌鼠中毒", "lemmaDesc": "敌鼠是一种新型抗凝血灭鼠剂，属高毒类，纯品为黄色针状结晶，不溶于水，溶于丙酮、乙...", "lemmaUrl": "http://baike.baidu.com/item/%E6%95%8C%E9%BC%A0%E4%B8%AD%E6%AF%92/6176019", "lemmaPic": []}, {"lemmaId": 10456416, "lemmaTitle": "鼻咽肉瘤", "lemmaCroppedTitle": "鼻咽肉瘤", "lemmaDesc": "鼻咽肉瘤远比鼻咽癌少见。据统计我国鼻咽癌与鼻咽肉瘤之比为99～211：1不等，在...", "lemmaUrl": "http://baike.baidu.com/item/%E9%BC%BB%E5%92%BD%E8%82%89%E7%98%A4/10456416", "lemmaPic": []}, {"lemmaId": 5086156, "lemmaTitle": "急性单纯外伤性腰腿痛", "lemmaCroppedTitle": "急性单纯外伤性腰腿痛", "lemmaDesc": "急性单纯外伤性腰腿痛主要是脊柱的韧带和骨骼等损伤，肌肉受累者甚少。比较轻微的椎体...", "lemmaUrl": "http://baike.baidu.com/item/%E6%80%A5%E6%80%A7%E5%8D%95%E7%BA%AF%E5%A4%96%E4%BC%A4%E6%80%A7%E8%85%B0%E8%85%BF%E7%97%9B/5086156", "lemmaPic": []}, {"lemmaId": 840970, "lemmaTitle": "肾动静脉瘘", "lemmaCroppedTitle": "肾动静脉瘘", "lemmaDesc": "肾动静脉瘘罕见，在肾动、静脉主干或主段间有许多交通支，像静脉曲张。其病理生理改变...", "lemmaUrl": "http://baike.baidu.com/item/%E8%82%BE%E5%8A%A8%E9%9D%99%E8%84%89%E7%98%98/840970", "lemmaPic": []}, {"lemmaId": 9670477, "lemmaTitle": "儿童慢性肾小球肾炎", "lemmaCroppedTitle": "儿童慢性肾小球肾炎", "lemmaDesc": "病程超过1年的肾小球肾炎伴有肾功能减退和（或）高血压、或肾性贫血者称之为慢性肾小...", "lemmaUrl": "http://baike.baidu.com/item/%E5%84%BF%E7%AB%A5%E6%85%A2%E6%80%A7%E8%82%BE%E5%B0%8F%E7%90%83%E8%82%BE%E7%82%8E/9670477", "lemmaPic": []}, {"lemmaId": 7254312, "lemmaTitle": "肌张力异常", "lemmaCroppedTitle": "肌张力异常", "lemmaDesc": "肌张力异常是一组由身体骨骼肌的协同肌和拮抗肌的不协调、间歇持续收缩造成的重复的不...", "lemmaUrl": "http://baike.baidu.com/item/%E8%82%8C%E5%BC%A0%E5%8A%9B%E5%BC%82%E5%B8%B8/7254312", "lemmaPic": []}, {"lemmaId": 2298617, "lemmaTitle": "舒尔曼病", "lemmaCroppedTitle": "舒尔曼病", "lemmaDesc": "舒尔曼病为一种常见于青少年的胸椎或胸腰段的僵硬型脊柱后凸（驼背）畸形。对在骨骼成...", "lemmaUrl": "http://baike.baidu.com/item/%E8%88%92%E5%B0%94%E6%9B%BC%E7%97%85/2298617", "lemmaPic": []}, {"lemmaId": 3220218, "lemmaTitle": "软产道异常性难产", "lemmaCroppedTitle": "软产道异常性难产", "lemmaDesc": "软产道异常所致的难产远比骨产道异常所致的难产少见，因而易被忽略，造成漏诊。软产道...", "lemmaUrl": "http://baike.baidu.com/item/%E8%BD%AF%E4%BA%A7%E9%81%93%E5%BC%82%E5%B8%B8%E6%80%A7%E9%9A%BE%E4%BA%A7/3220218", "lemmaPic": []}, {"lemmaId": 5827869, "lemmaTitle": "肝炎双重感染", "lemmaCroppedTitle": "肝炎双重感染", "lemmaDesc": "肝炎双重或多重感染系指同一个病毒性肝炎患者可有两种或两种以上的不同型肝炎病毒感染...", "lemmaUrl": "http://baike.baidu.com/item/%E8%82%9D%E7%82%8E%E5%8F%8C%E9%87%8D%E6%84%9F%E6%9F%93/5827869", "lemmaPic": []}, {"lemmaId": 1037070, "lemmaTitle": "非特异性间质肺炎", "lemmaCroppedTitle": "非特异性间质肺炎", "lemmaDesc": "美国胸科学会（ATS）和欧洲呼吸学会（ERS）于2002年联合发表了间质性肺病分...", "lemmaUrl": "http://baike.baidu.com/item/%E9%9D%9E%E7%89%B9%E5%BC%82%E6%80%A7%E9%97%B4%E8%B4%A8%E8%82%BA%E7%82%8E/1037070", "lemmaPic": []}, {"lemmaId": 2002110, "lemmaTitle": "持续性肢皮炎", "lemmaCroppedTitle": "持续性肢皮炎", "lemmaDesc": "持续性肢皮炎又称为肢端稽留性皮炎或称为匐行性皮炎，是手足部位一种慢性炎症性、复发...", "lemmaUrl": "http://baike.baidu.com/item/%E6%8C%81%E7%BB%AD%E6%80%A7%E8%82%A2%E7%9A%AE%E7%82%8E/2002110", "lemmaPic": []}, {"lemmaId": 10226346, "lemmaTitle": "虫咬反应", "lemmaCroppedTitle": "虫咬反应", "lemmaDesc": "是指昆虫叮咬皮肤后出现的局部或全身性过敏反应。轻者无明显症状，重者可出现危及生命...", "lemmaUrl": "http://baike.baidu.com/item/%E8%99%AB%E5%92%AC%E5%8F%8D%E5%BA%94/10226346", "lemmaPic": []}, {"lemmaId": 2339141, "lemmaTitle": "皮肤子宫内膜异位症", "lemmaCroppedTitle": "皮肤子宫内膜异位症", "lemmaDesc": "皮肤子宫内膜异位症极为罕见，多见于成年女性腹部或外生殖器部位外科手术，特别是剖宫...", "lemmaUrl": "http://baike.baidu.com/item/%E7%9A%AE%E8%82%A4%E5%AD%90%E5%AE%AB%E5%86%85%E8%86%9C%E5%BC%82%E4%BD%8D%E7%97%87/2339141", "lemmaPic": []}, {"lemmaId": 11030404, "lemmaTitle": "小儿疳痢", "lemmaCroppedTitle": "小儿疳痢", "lemmaDesc": "此病继发于疳积，临床表现以腹泻为主，可见于现代医学中的溃疡性结肠炎、克隆病、阿米...", "lemmaUrl": "http://baike.baidu.com/item/%E5%B0%8F%E5%84%BF%E7%96%B3%E7%97%A2/11030404", "lemmaPic": []}, {"lemmaId": 1827817, "lemmaTitle": "桡管综合征", "lemmaCroppedTitle": "桡管综合征", "lemmaDesc": "早在1883年，就有人认为桡神经或桡神经分支的卡压可能是引起网球肘的原因之一。多...", "lemmaUrl": "http://baike.baidu.com/item/%E6%A1%A1%E7%AE%A1%E7%BB%BC%E5%90%88%E5%BE%81/1827817", "lemmaPic": []}, {"lemmaId": 6866064, "lemmaTitle": "胸壁皮下气肿", "lemmaCroppedTitle": "胸壁皮下气肿", "lemmaDesc": "胸壁皮下气肿是一种并发症。通常继发于胸骨和（或）肋骨骨折伴气胸，多见于多根多处肋...", "lemmaUrl": "http://baike.baidu.com/item/%E8%83%B8%E5%A3%81%E7%9A%AE%E4%B8%8B%E6%B0%94%E8%82%BF/6866064", "lemmaPic": []}, {"lemmaId": 7061975, "lemmaTitle": "眼眶静脉性血管瘤", "lemmaCroppedTitle": "眼眶静脉性血管瘤", "lemmaDesc": "静脉性血管瘤是由粗细不等的比较成熟的静脉与纤维组织构成的肿物，其中常含有扩张的淋...", "lemmaUrl": "http://baike.baidu.com/item/%E7%9C%BC%E7%9C%B6%E9%9D%99%E8%84%89%E6%80%A7%E8%A1%80%E7%AE%A1%E7%98%A4/7061975", "lemmaPic": []}, {"lemmaId": 3095938, "lemmaTitle": "肝炎病毒相关风湿病", "lemmaCroppedTitle": "肝炎病毒相关风湿病", "lemmaDesc": "部分肝炎病毒感染者可有风湿免疫病的表现，如关节痛和（或）关节炎、皮疹等，部分患者...", "lemmaUrl": "http://baike.baidu.com/item/%E8%82%9D%E7%82%8E%E7%97%85%E6%AF%92%E7%9B%B8%E5%85%B3%E9%A3%8E%E6%B9%BF%E7%97%85/3095938", "lemmaPic": []}, {"lemmaId": 7958440, "lemmaTitle": "新生儿衣原体感染", "lemmaCroppedTitle": "新生儿衣原体感染", "lemmaDesc": "新生儿衣原体感染是由沙眼衣原体所致，可引起包涵体结膜炎及沙眼衣原体肺炎。沙眼衣原...", "lemmaUrl": "http://baike.baidu.com/item/%E6%96%B0%E7%94%9F%E5%84%BF%E8%A1%A3%E5%8E%9F%E4%BD%93%E6%84%9F%E6%9F%93/7958440", "lemmaPic": []}, {"lemmaId": 508755, "lemmaTitle": "慢性劳损性颈背部筋膜纤维织炎", "lemmaCroppedTitle": "慢性劳损性颈背部筋膜纤维织炎", "lemmaDesc": "除慢性外伤性因素外，凡因某种原因（寒冷、潮湿、慢性劳损等）致颈背部筋膜及肌组织出...", "lemmaUrl": "http://baike.baidu.com/item/%E6%85%A2%E6%80%A7%E5%8A%B3%E6%8D%9F%E6%80%A7%E9%A2%88%E8%83%8C%E9%83%A8%E7%AD%8B%E8%86%9C%E7%BA%A4%E7%BB%B4%E7%BB%87%E7%82%8E/508755", "lemmaPic": []}, {"lemmaId": 2600123, "lemmaTitle": "咽喉部烧伤及化学伤", "lemmaCroppedTitle": "咽喉部烧伤及化学伤", "lemmaDesc": "误咽高温液体或化学腐蚀剂导致咽部灼伤，除损伤局部黏膜外，重者还可以引起严重的全身...", "lemmaUrl": "http://baike.baidu.com/item/%E5%92%BD%E5%96%89%E9%83%A8%E7%83%A7%E4%BC%A4%E5%8F%8A%E5%8C%96%E5%AD%A6%E4%BC%A4/2600123", "lemmaPic": []}, {"lemmaId": 4625874, "lemmaTitle": "开牙合畸形", "lemmaCroppedTitle": "开牙合畸形", "lemmaDesc": "开牙合在临床上较少见，多见于恒牙期，指的是在正中合位及非正中合位时，上下颌部分牙...", "lemmaUrl": "http://baike.baidu.com/item/%E5%BC%80%E7%89%99%E5%90%88%E7%95%B8%E5%BD%A2/4625874", "lemmaPic": []}, {"lemmaId": 8906542, "lemmaTitle": "结肠息肉和息肉病", "lemmaCroppedTitle": "结肠息肉和息肉病", "lemmaDesc": "突出于结肠肠腔的黏膜脚样突起物称为结肠息肉。它包括肿瘤性或非肿瘤性的各类型病变。...", "lemmaUrl": "http://baike.baidu.com/item/%E7%BB%93%E8%82%A0%E6%81%AF%E8%82%89%E5%92%8C%E6%81%AF%E8%82%89%E7%97%85/8906542", "lemmaPic": []}, {"lemmaId": 1189420, "lemmaTitle": "坐骨疝", "lemmaCroppedTitle": "坐骨疝", "lemmaDesc": "腹腔脏器或组织经坐骨大孔、小孔脱出称坐骨疝。坐骨疝临床极为罕见，多发生在中年以后...", "lemmaUrl": "http://baike.baidu.com/item/%E5%9D%90%E9%AA%A8%E7%96%9D/1189420", "lemmaPic": []}, {"lemmaId": 5401470, "lemmaTitle": "蛋白丧失胃肠综合征", "lemmaCroppedTitle": "蛋白丧失胃肠综合征", "lemmaDesc": "蛋白丧失胃肠综合征又称蛋白丧失性胃肠病，也有人称为蛋白漏出性胃肠病或渗出性胃肠病...", "lemmaUrl": "http://baike.baidu.com/item/%E8%9B%8B%E7%99%BD%E4%B8%A7%E5%A4%B1%E8%83%83%E8%82%A0%E7%BB%BC%E5%90%88%E5%BE%81/5401470", "lemmaPic": []}, {"lemmaId": 4273686, "lemmaTitle": "心脏脂肪瘤", "lemmaCroppedTitle": "心脏脂肪瘤", "lemmaDesc": "心脏脂肪瘤为外膜完整的良性肿瘤，内含典型的成熟脂肪细胞。脂肪瘤可位于心脏各部位和...", "lemmaUrl": "http://baike.baidu.com/item/%E5%BF%83%E8%84%8F%E8%84%82%E8%82%AA%E7%98%A4/4273686", "lemmaPic": []}, {"lemmaId": 946046, "lemmaTitle": "成人肥大性幽门狭窄", "lemmaCroppedTitle": "成人肥大性幽门狭窄", "lemmaDesc": "成人肥大性幽门狭窄症是因幽门环形肌肥厚所致的幽门管狭窄。表现为自婴儿期即有周期性...", "lemmaUrl": "http://baike.baidu.com/item/%E6%88%90%E4%BA%BA%E8%82%A5%E5%A4%A7%E6%80%A7%E5%B9%BD%E9%97%A8%E7%8B%AD%E7%AA%84/946046", "lemmaPic": []}, {"lemmaId": 3143481, "lemmaTitle": "潜水性内耳损伤", "lemmaCroppedTitle": "潜水性内耳损伤", "lemmaDesc": "在潜水高压环境中迅速变换压力出现的内耳损伤称为潜水性内耳损伤。潜水员在潜水时必须...", "lemmaUrl": "http://baike.baidu.com/item/%E6%BD%9C%E6%B0%B4%E6%80%A7%E5%86%85%E8%80%B3%E6%8D%9F%E4%BC%A4/3143481", "lemmaPic": []}, {"lemmaId": 3270635, "lemmaTitle": "溶血性链球菌性坏疽", "lemmaCroppedTitle": "溶血性链球菌性坏疽", "lemmaDesc": "溶血性链球菌坏疽系由溶血性链球菌引起的急性炎症性化脓性疾病。多在外伤或手术后发生...", "lemmaUrl": "http://baike.baidu.com/item/%E6%BA%B6%E8%A1%80%E6%80%A7%E9%93%BE%E7%90%83%E8%8F%8C%E6%80%A7%E5%9D%8F%E7%96%BD/3270635", "lemmaPic": []}, {"lemmaId": 2095921, "lemmaTitle": "肾旋转异常", "lemmaCroppedTitle": "肾旋转异常", "lemmaDesc": "正常的肾脏位于肾窝中，肾盏朝向侧壁，肾盂则开口向中线内侧，否则称之为旋转异常。首...", "lemmaUrl": "http://baike.baidu.com/item/%E8%82%BE%E6%97%8B%E8%BD%AC%E5%BC%82%E5%B8%B8/2095921", "lemmaPic": []}, {"lemmaId": 5257216, "lemmaTitle": "遗传性高尿酸血症", "lemmaCroppedTitle": "遗传性高尿酸血症", "lemmaDesc": "遗传性高尿酸血症是由于基因突变，导致患儿体内嘌呤代谢的酶，即次黄嘌呤-鸟嘌呤磷酸...", "lemmaUrl": "http://baike.baidu.com/item/%E9%81%97%E4%BC%A0%E6%80%A7%E9%AB%98%E5%B0%BF%E9%85%B8%E8%A1%80%E7%97%87/5257216", "lemmaPic": []}, {"lemmaId": 9257008, "lemmaTitle": "糖原贮积病Ⅱ型", "lemmaCroppedTitle": "糖原贮积病Ⅱ型", "lemmaDesc": "糖原贮积病是由于遗传性糖原代谢障碍致使糖原在组织内过多沉积而引起的疾病根据引起糖...", "lemmaUrl": "http://baike.baidu.com/item/%E7%B3%96%E5%8E%9F%E8%B4%AE%E7%A7%AF%E7%97%85%E2%85%A1%E5%9E%8B/9257008", "lemmaPic": []}, {"lemmaId": 7253039, "lemmaTitle": "外伤性骨化性肌炎", "lemmaCroppedTitle": "外伤性骨化性肌炎", "lemmaDesc": "骨化性肌炎为进行性骨质结构于肌肉、结缔组织内沉积所引起的肌肉硬化、趾或拇畸形的一...", "lemmaUrl": "http://baike.baidu.com/item/%E5%A4%96%E4%BC%A4%E6%80%A7%E9%AA%A8%E5%8C%96%E6%80%A7%E8%82%8C%E7%82%8E/7253039", "lemmaPic": []}, {"lemmaId": 7249840, "lemmaTitle": "间歇性眼球突出症", "lemmaCroppedTitle": "间歇性眼球突出症", "lemmaDesc": "间歇性眼球突出症多为单侧性，左眼发病率高于右眼，男性患者多见。血管性疾病引起眼球...", "lemmaUrl": "http://baike.baidu.com/item/%E9%97%B4%E6%AD%87%E6%80%A7%E7%9C%BC%E7%90%83%E7%AA%81%E5%87%BA%E7%97%87/7249840", "lemmaPic": []}, {"lemmaId": 3902245, "lemmaTitle": "急性化脓性脊髓炎", "lemmaCroppedTitle": "急性化脓性脊髓炎", "lemmaDesc": "急性化脓性脊髓炎极为罕见，是由急性化脓性感染后引起急性脊髓炎症，本病常并发脊髓内...", "lemmaUrl": "http://baike.baidu.com/item/%E6%80%A5%E6%80%A7%E5%8C%96%E8%84%93%E6%80%A7%E8%84%8A%E9%AB%93%E7%82%8E/3902245", "lemmaPic": []}, {"lemmaId": 8856614, "lemmaTitle": "气管及支气管发育障碍", "lemmaCroppedTitle": "气管及支气管发育障碍", "lemmaDesc": "气管及支气管发育障碍，正常气管从喉头到隆突为22个C形软骨环水平排列而成，软骨环...", "lemmaUrl": "http://baike.baidu.com/item/%E6%B0%94%E7%AE%A1%E5%8F%8A%E6%94%AF%E6%B0%94%E7%AE%A1%E5%8F%91%E8%82%B2%E9%9A%9C%E7%A2%8D/8856614", "lemmaPic": []}, {"lemmaId": 712244, "lemmaTitle": "腹腔动脉压迫综合征", "lemmaCroppedTitle": "腹腔动脉压迫综合征", "lemmaDesc": "腹腔动脉压迫综合征是指由于弓状韧带或膈肌脚，以及神经组织等引起腹腔动脉压迫，导致...", "lemmaUrl": "http://baike.baidu.com/item/%E8%85%B9%E8%85%94%E5%8A%A8%E8%84%89%E5%8E%8B%E8%BF%AB%E7%BB%BC%E5%90%88%E5%BE%81/712244", "lemmaPic": []}, {"lemmaId": 9949731, "lemmaTitle": "肺荚膜组织胞浆菌病", "lemmaCroppedTitle": "肺荚膜组织胞浆菌病", "lemmaDesc": "肺荚膜组织胞浆菌病是荚膜组织胞浆菌感染引起的真菌病在肺部的表现。肺为原发性感染，...", "lemmaUrl": "http://baike.baidu.com/item/%E8%82%BA%E8%8D%9A%E8%86%9C%E7%BB%84%E7%BB%87%E8%83%9E%E6%B5%86%E8%8F%8C%E7%97%85/9949731", "lemmaPic": []}, {"lemmaId": 4654038, "lemmaTitle": "婴儿型黑蒙性痴呆", "lemmaCroppedTitle": "婴儿型黑蒙性痴呆", "lemmaDesc": "婴儿型黑蒙性痴呆是一种常染色体隐性遗传疾病。经典型的黑蒙性痴呆在出生时多正常，在...", "lemmaUrl": "http://baike.baidu.com/item/%E5%A9%B4%E5%84%BF%E5%9E%8B%E9%BB%91%E8%92%99%E6%80%A7%E7%97%B4%E5%91%86/4654038", "lemmaPic": []}, {"lemmaId": 5280665, "lemmaTitle": "化脓性葡萄膜炎", "lemmaCroppedTitle": "化脓性葡萄膜炎", "lemmaDesc": "由于化脓性细菌或真菌进入眼内引起眼内葡萄膜组织的感染称为化脓性葡萄膜炎。因为化脓...", "lemmaUrl": "http://baike.baidu.com/item/%E5%8C%96%E8%84%93%E6%80%A7%E8%91%A1%E8%90%84%E8%86%9C%E7%82%8E/5280665", "lemmaPic": []}, {"lemmaId": 8595774, "lemmaTitle": "经行失眠", "lemmaCroppedTitle": "经行失眠", "lemmaDesc": "经行失眠，中医病证名，是指每遇经前或经行失眠不安，经后睡眠正常者，亦名经行不寐。...", "lemmaUrl": "http://baike.baidu.com/item/%E7%BB%8F%E8%A1%8C%E5%A4%B1%E7%9C%A0/8595774", "lemmaPic": []}, {"lemmaId": 2868319, "lemmaTitle": "肾血管畸形与压迫", "lemmaCroppedTitle": "肾血管畸形与压迫", "lemmaDesc": "肾血管畸形与压迫是指双侧肾脏的动、静脉主干及其分支在起源数量、引流方向上存在异常...", "lemmaUrl": "http://baike.baidu.com/item/%E8%82%BE%E8%A1%80%E7%AE%A1%E7%95%B8%E5%BD%A2%E4%B8%8E%E5%8E%8B%E8%BF%AB/2868319", "lemmaPic": []}, {"lemmaId": 10664020, "lemmaTitle": "多中心性网状组织细胞增生症", "lemmaCroppedTitle": "多中心性网状组织细胞增生症", "lemmaDesc": "多中心网状组织细胞增生症也称网状组织细胞增生症、巨细胞性组织细胞瘤、类脂性皮肤关...", "lemmaUrl": "http://baike.baidu.com/item/%E5%A4%9A%E4%B8%AD%E5%BF%83%E6%80%A7%E7%BD%91%E7%8A%B6%E7%BB%84%E7%BB%87%E7%BB%86%E8%83%9E%E5%A2%9E%E7%94%9F%E7%97%87/10664020", "lemmaPic": []}, {"lemmaId": 3741085, "lemmaTitle": "粒性白细胞缺乏性咽峡炎", "lemmaCroppedTitle": "粒性白细胞缺乏性咽峡炎", "lemmaDesc": "粒性白细胞缺乏症为全身性疾病。该病常并发咽溃疡性病变，称之为粒细胞缺乏性咽峡炎。...", "lemmaUrl": "http://baike.baidu.com/item/%E7%B2%92%E6%80%A7%E7%99%BD%E7%BB%86%E8%83%9E%E7%BC%BA%E4%B9%8F%E6%80%A7%E5%92%BD%E5%B3%A1%E7%82%8E/3741085", "lemmaPic": []}, {"lemmaId": 784598, "lemmaTitle": "立氏立克次体斑疹热", "lemmaCroppedTitle": "立氏立克次体斑疹热", "lemmaDesc": "立氏立克次体斑疹热是由立氏立克次体经蜱传播引起的一种急性地方性传染病，本病也称落...", "lemmaUrl": "http://baike.baidu.com/item/%E7%AB%8B%E6%B0%8F%E7%AB%8B%E5%85%8B%E6%AC%A1%E4%BD%93%E6%96%91%E7%96%B9%E7%83%AD/784598", "lemmaPic": []}, {"lemmaId": 8500673, "lemmaTitle": "克拉伯病", "lemmaCroppedTitle": "克拉伯病", "lemmaDesc": "克拉伯病又称为Krabbe病，由丹麦儿科医师Krabbe于1916年首先报道。依...", "lemmaUrl": "http://baike.baidu.com/item/%E5%85%8B%E6%8B%89%E4%BC%AF%E7%97%85/8500673", "lemmaPic": []}, {"lemmaId": 7482030, "lemmaTitle": "幼年型皮肌炎", "lemmaCroppedTitle": "幼年型皮肌炎", "lemmaDesc": "幼年型皮肌炎（JDM）是一种免疫介导的多系统疾病，特点是横纹肌和皮肤的急性或慢性...", "lemmaUrl": "http://baike.baidu.com/item/%E5%B9%BC%E5%B9%B4%E5%9E%8B%E7%9A%AE%E8%82%8C%E7%82%8E/7482030", "lemmaPic": []}, {"lemmaId": 747639, "lemmaTitle": "暴发性肝功能衰竭", "lemmaCroppedTitle": "暴发性肝功能衰竭", "lemmaDesc": "暴发性肝功能衰竭是指急性发病并在短时间内病情急剧恶化，肝功能严重损害并出现肝性脑...", "lemmaUrl": "http://baike.baidu.com/item/%E6%9A%B4%E5%8F%91%E6%80%A7%E8%82%9D%E5%8A%9F%E8%83%BD%E8%A1%B0%E7%AB%AD/747639", "lemmaPic": []}, {"lemmaId": 11051106, "lemmaTitle": "缺血性肠绞痛", "lemmaCroppedTitle": "缺血性肠绞痛", "lemmaDesc": "缺血性肠绞痛亦称慢性肠系膜缺血，是指反复发作的餐后剧烈阵发性上腹部绞痛或脐周疼痛...", "lemmaUrl": "http://baike.baidu.com/item/%E7%BC%BA%E8%A1%80%E6%80%A7%E8%82%A0%E7%BB%9E%E7%97%9B/11051106", "lemmaPic": []}, {"lemmaId": 2093258, "lemmaTitle": "老年人急性感染后肾炎", "lemmaCroppedTitle": "老年人急性感染后肾炎", "lemmaDesc": "老年人急性感染后肾炎虽发病率不高亦时有发生。只是因老年人常合并有高血压动脉硬化、...", "lemmaUrl": "http://baike.baidu.com/item/%E8%80%81%E5%B9%B4%E4%BA%BA%E6%80%A5%E6%80%A7%E6%84%9F%E6%9F%93%E5%90%8E%E8%82%BE%E7%82%8E/2093258", "lemmaPic": []}, {"lemmaId": 3102465, "lemmaTitle": "念珠状发", "lemmaCroppedTitle": "念珠状发", "lemmaDesc": "念珠状发是指一种先天性毛干角化异常，发干粗细不均，有许多结节，呈念珠状，结节间易...", "lemmaUrl": "http://baike.baidu.com/item/%E5%BF%B5%E7%8F%A0%E7%8A%B6%E5%8F%91/3102465", "lemmaPic": []}, {"lemmaId": 9693621, "lemmaTitle": "恙螨皮炎", "lemmaCroppedTitle": "恙螨皮炎", "lemmaDesc": "恙螨又称“砂螨”、“砂虱”。属蜘蛛纲，螨目，恙螨科，是螨类中最大的一组，我国已经...", "lemmaUrl": "http://baike.baidu.com/item/%E6%81%99%E8%9E%A8%E7%9A%AE%E7%82%8E/9693621", "lemmaPic": []}, {"lemmaId": 264536, "lemmaTitle": "痛风性心肌病", "lemmaCroppedTitle": "痛风性心肌病", "lemmaDesc": "痛风是一种嘌呤代谢长期紊乱导致的尿酸盐在体内蓄积并形成结晶的“结晶病”。痛风患者...", "lemmaUrl": "http://baike.baidu.com/item/%E7%97%9B%E9%A3%8E%E6%80%A7%E5%BF%83%E8%82%8C%E7%97%85/264536", "lemmaPic": []}, {"lemmaId": 8623941, "lemmaTitle": "转移性皮肤钙化病", "lemmaCroppedTitle": "转移性皮肤钙化病", "lemmaDesc": "皮肤钙化病是不溶性钙盐（主要为未定型磷酸钙或少量碳酸钙）沉积于皮肤内或皮下组织产...", "lemmaUrl": "http://baike.baidu.com/item/%E8%BD%AC%E7%A7%BB%E6%80%A7%E7%9A%AE%E8%82%A4%E9%92%99%E5%8C%96%E7%97%85/8623941", "lemmaPic": []}, {"lemmaId": 13883795, "lemmaTitle": "足拇囊炎", "lemmaCroppedTitle": "足拇囊炎", "lemmaDesc": "足拇囊炎是指足拇趾的跖趾关节内侧滑囊的炎症，女性多见。", "lemmaUrl": "http://baike.baidu.com/item/%E8%B6%B3%E6%8B%87%E5%9B%8A%E7%82%8E/13883795", "lemmaPic": []}, {"lemmaId": 8817678, "lemmaTitle": "肺棘球蚴病", "lemmaCroppedTitle": "肺棘球蚴病", "lemmaDesc": "肺棘球蚴病是我国西北牧区较常见的寄生虫病。大多数病例是细粒棘球绦虫的蚴体侵入人体...", "lemmaUrl": "http://baike.baidu.com/item/%E8%82%BA%E6%A3%98%E7%90%83%E8%9A%B4%E7%97%85/8817678", "lemmaPic": []}], "total": 7246, "totalPage": 73, "page": 50, "fromLemma": 0}