{"lemmaList": [{"lemmaId": 7255006, "lemmaTitle": "特发性面神经瘫痪", "lemmaCroppedTitle": "特发性面神经瘫痪", "lemmaDesc": "特发性面神经瘫痪又称特发性面神经麻痹、Bell麻痹、面神经炎，指面神经运动纤维发...", "lemmaUrl": "http://baike.baidu.com/item/%E7%89%B9%E5%8F%91%E6%80%A7%E9%9D%A2%E7%A5%9E%E7%BB%8F%E7%98%AB%E7%97%AA/7255006", "lemmaPic": []}, {"lemmaId": 1974673, "lemmaTitle": "风湿病性贫血", "lemmaCroppedTitle": "风湿病性贫血", "lemmaDesc": "风湿病亦称结缔组织病，临床常见表现之一为贫血，半数患者在病程中出现轻度或中度贫血...", "lemmaUrl": "http://baike.baidu.com/item/%E9%A3%8E%E6%B9%BF%E7%97%85%E6%80%A7%E8%B4%AB%E8%A1%80/1974673", "lemmaPic": []}, {"lemmaId": 10358352, "lemmaTitle": "少年性椎体骨软骨病", "lemmaCroppedTitle": "少年性椎体骨软骨病", "lemmaDesc": "少年性椎体骨软骨病，又称舒尔曼病(Scheuermann&amp;#39;s d...", "lemmaUrl": "http://baike.baidu.com/item/%E5%B0%91%E5%B9%B4%E6%80%A7%E6%A4%8E%E4%BD%93%E9%AA%A8%E8%BD%AF%E9%AA%A8%E7%97%85/10358352", "lemmaPic": []}, {"lemmaId": 3361224, "lemmaTitle": "附睾畸形", "lemmaCroppedTitle": "附睾畸形", "lemmaDesc": "附睾畸形临床上较常见，通常指附睾明显变长或与睾丸附着异常。附睾畸形有附睾缺如、节...", "lemmaUrl": "http://baike.baidu.com/item/%E9%99%84%E7%9D%BE%E7%95%B8%E5%BD%A2/3361224", "lemmaPic": []}, {"lemmaId": 5243906, "lemmaTitle": "妊娠合并皮质醇增多症", "lemmaCroppedTitle": "妊娠合并皮质醇增多症", "lemmaDesc": "皮质醇增多症又称库欣综合征，是肾上腺皮质功能亢进症中最常见的一种。这是由于肾上腺...", "lemmaUrl": "http://baike.baidu.com/item/%E5%A6%8A%E5%A8%A0%E5%90%88%E5%B9%B6%E7%9A%AE%E8%B4%A8%E9%86%87%E5%A2%9E%E5%A4%9A%E7%97%87/5243906", "lemmaPic": []}, {"lemmaId": 3448000, "lemmaTitle": "弯曲菌肠炎", "lemmaCroppedTitle": "弯曲菌肠炎", "lemmaDesc": "弯曲菌肠炎是由弯曲菌感染引起的急性细菌性肠炎。临床以发热、腹痛、腹泻、血便等为主...", "lemmaUrl": "http://baike.baidu.com/item/%E5%BC%AF%E6%9B%B2%E8%8F%8C%E8%82%A0%E7%82%8E/3448000", "lemmaPic": []}, {"lemmaId": 821067, "lemmaTitle": "先天性颈椎齿状突畸形", "lemmaCroppedTitle": "先天性颈椎齿状突畸形", "lemmaDesc": "先天性颈椎齿状突畸形是由于胚胎时期齿状突骨化异常、发育障碍所致的一种先天性疾病，...", "lemmaUrl": "http://baike.baidu.com/item/%E5%85%88%E5%A4%A9%E6%80%A7%E9%A2%88%E6%A4%8E%E9%BD%BF%E7%8A%B6%E7%AA%81%E7%95%B8%E5%BD%A2/821067", "lemmaPic": []}, {"lemmaId": 820929, "lemmaTitle": "先天性肩关节脱位", "lemmaCroppedTitle": "先天性肩关节脱位", "lemmaDesc": "先天性肩关节脱位极其少见，文献上仅有少数个案报告。只有出生时发现肩关节脱位，才属...", "lemmaUrl": "http://baike.baidu.com/item/%E5%85%88%E5%A4%A9%E6%80%A7%E8%82%A9%E5%85%B3%E8%8A%82%E8%84%B1%E4%BD%8D/820929", "lemmaPic": []}, {"lemmaId": 876376, "lemmaTitle": "妊娠合并淋病", "lemmaCroppedTitle": "妊娠合并淋病", "lemmaDesc": "淋病是由革兰染色阴性的淋病奈氏菌（简称淋菌）引起的以泌尿生殖系统化脓性感染为主要...", "lemmaUrl": "http://baike.baidu.com/item/%E5%A6%8A%E5%A8%A0%E5%90%88%E5%B9%B6%E6%B7%8B%E7%97%85/876376", "lemmaPic": []}, {"lemmaId": 6414737, "lemmaTitle": "外源性光感性皮炎", "lemmaCroppedTitle": "外源性光感性皮炎", "lemmaDesc": "光感物质通过局部或系统用药等途径进入机体后，在一定波长的光线照射下，出现相应的临...", "lemmaUrl": "http://baike.baidu.com/item/%E5%A4%96%E6%BA%90%E6%80%A7%E5%85%89%E6%84%9F%E6%80%A7%E7%9A%AE%E7%82%8E/6414737", "lemmaPic": []}, {"lemmaId": 6291341, "lemmaTitle": "埃莱尔-当洛综合征", "lemmaCroppedTitle": "埃莱尔-当洛综合征", "lemmaDesc": "埃莱尔-当洛综合征（EDS），又称皮肤弹性过度综合征，由胶原缺损造成，是一种主要...", "lemmaUrl": "http://baike.baidu.com/item/%E5%9F%83%E8%8E%B1%E5%B0%94-%E5%BD%93%E6%B4%9B%E7%BB%BC%E5%90%88%E5%BE%81/6291341", "lemmaPic": []}, {"lemmaId": 2979139, "lemmaTitle": "颞骨和下颔骨关节异常", "lemmaCroppedTitle": "颞骨和下颔骨关节异常", "lemmaDesc": "颞骨和下颔骨关节异常英文简称TMD，TM指的是颞骨和下颔骨接合的关节处。将手放在...", "lemmaUrl": "http://baike.baidu.com/item/%E9%A2%9E%E9%AA%A8%E5%92%8C%E4%B8%8B%E9%A2%94%E9%AA%A8%E5%85%B3%E8%8A%82%E5%BC%82%E5%B8%B8/2979139", "lemmaPic": []}, {"lemmaId": 10357079, "lemmaTitle": "先天性桡骨小头脱位", "lemmaCroppedTitle": "先天性桡骨小头脱位", "lemmaDesc": "由于桡骨小头发育不全或前、后脱位，正常部位的桡骨小头可见一局部凹陷。先天性桡骨头...", "lemmaUrl": "http://baike.baidu.com/item/%E5%85%88%E5%A4%A9%E6%80%A7%E6%A1%A1%E9%AA%A8%E5%B0%8F%E5%A4%B4%E8%84%B1%E4%BD%8D/10357079", "lemmaPic": []}, {"lemmaId": 7592633, "lemmaTitle": "Poncet综合征", "lemmaCroppedTitle": "Poncet综合征", "lemmaDesc": "Poncet综合征又称结核风湿症、结核变态反应性关节炎等，是由结核杆菌毒素引起的...", "lemmaUrl": "http://baike.baidu.com/item/Poncet%E7%BB%BC%E5%90%88%E5%BE%81/7592633", "lemmaPic": []}, {"lemmaId": 5383691, "lemmaTitle": "布卡综合症", "lemmaCroppedTitle": "布卡综合症", "lemmaDesc": "布卡综合征是因肝静脉及其入口附近的肝段下腔静脉梗阻致使肝血流出道受阻，引起门静脉...", "lemmaUrl": "http://baike.baidu.com/item/%E5%B8%83%E5%8D%A1%E7%BB%BC%E5%90%88%E7%97%87/5383691", "lemmaPic": []}, {"lemmaId": 799813, "lemmaTitle": "下颌下隙感染", "lemmaCroppedTitle": "下颌下隙感染", "lemmaDesc": "下颌下腺及下颌下淋巴结的化脓性炎症，也可引起本病。一般来自下颌第2磨牙以前部位的...", "lemmaUrl": "http://baike.baidu.com/item/%E4%B8%8B%E9%A2%8C%E4%B8%8B%E9%9A%99%E6%84%9F%E6%9F%93/799813", "lemmaPic": []}, {"lemmaId": 9088198, "lemmaTitle": "冬眠瘤", "lemmaCroppedTitle": "冬眠瘤", "lemmaDesc": "冬眠瘤是一种罕见的良性脂肪组织肿瘤，由不同比例的棕色脂肪和白色脂肪混合构成，至少...", "lemmaUrl": "http://baike.baidu.com/item/%E5%86%AC%E7%9C%A0%E7%98%A4/9088198", "lemmaPic": []}, {"lemmaId": 2547019, "lemmaTitle": "小儿糖尿病肾病", "lemmaCroppedTitle": "小儿糖尿病肾病", "lemmaDesc": "糖尿病肾病是常见的糖尿病并发症。由糖尿病引起的微血管病变而导致的肾小球硬化，是糖...", "lemmaUrl": "http://baike.baidu.com/item/%E5%B0%8F%E5%84%BF%E7%B3%96%E5%B0%BF%E7%97%85%E8%82%BE%E7%97%85/2547019", "lemmaPic": []}, {"lemmaId": 3642622, "lemmaTitle": "蓐劳", "lemmaCroppedTitle": "蓐劳", "lemmaDesc": "产后出现疲乏倦怠，伴有寒热时作，喘憋咳嗽，腹痛等病状称“蓐劳”。又名“产后痨”。...", "lemmaUrl": "http://baike.baidu.com/item/%E8%93%90%E5%8A%B3/3642622", "lemmaPic": []}, {"lemmaId": 10980369, "lemmaTitle": "双向性室性心动过速", "lemmaCroppedTitle": "双向性室性心动过速", "lemmaDesc": "双向性室性心动过速（BVT）是一种少见而严重的单形性室性心动过速，发作时同一导联...", "lemmaUrl": "http://baike.baidu.com/item/%E5%8F%8C%E5%90%91%E6%80%A7%E5%AE%A4%E6%80%A7%E5%BF%83%E5%8A%A8%E8%BF%87%E9%80%9F/10980369", "lemmaPic": []}, {"lemmaId": 5562940, "lemmaTitle": "原发性巨球蛋白血症肾损害", "lemmaCroppedTitle": "原发性巨球蛋白血症肾损害", "lemmaDesc": "原发性巨球蛋白血症（WM）为一种单克隆IgM增高伴有淋巴样细胞增生、有时伴有肾小...", "lemmaUrl": "http://baike.baidu.com/item/%E5%8E%9F%E5%8F%91%E6%80%A7%E5%B7%A8%E7%90%83%E8%9B%8B%E7%99%BD%E8%A1%80%E7%97%87%E8%82%BE%E6%8D%9F%E5%AE%B3/5562940", "lemmaPic": []}, {"lemmaId": 9141831, "lemmaTitle": "支气管肺隔离症", "lemmaCroppedTitle": "支气管肺隔离症", "lemmaDesc": "支气管肺隔离症系肺先天发育异常，隔离肺组织与正常肺组织有胸膜将其分离，并接受体循...", "lemmaUrl": "http://baike.baidu.com/item/%E6%94%AF%E6%B0%94%E7%AE%A1%E8%82%BA%E9%9A%94%E7%A6%BB%E7%97%87/9141831", "lemmaPic": []}, {"lemmaId": 8405978, "lemmaTitle": "桡骨茎突骨折", "lemmaCroppedTitle": "桡骨茎突骨折", "lemmaDesc": "桡骨茎突骨折多为跌倒时手掌着地，暴力沿腕舟骨冲击桡骨下端；或被翻转的摇手柄击伤桡...", "lemmaUrl": "http://baike.baidu.com/item/%E6%A1%A1%E9%AA%A8%E8%8C%8E%E7%AA%81%E9%AA%A8%E6%8A%98/8405978", "lemmaPic": []}, {"lemmaId": 12810944, "lemmaTitle": "急性乙型病毒性肝炎", "lemmaCroppedTitle": "急性乙型病毒性肝炎", "lemmaDesc": "急性乙型病毒性肝炎包括：急性黄疸型肝炎和急性无黄疸型肝炎。我国乙肝病毒（HBV）...", "lemmaUrl": "http://baike.baidu.com/item/%E6%80%A5%E6%80%A7%E4%B9%99%E5%9E%8B%E7%97%85%E6%AF%92%E6%80%A7%E8%82%9D%E7%82%8E/12810944", "lemmaPic": []}, {"lemmaId": 8874407, "lemmaTitle": "品他病", "lemmaCroppedTitle": "品他病", "lemmaDesc": "品他病是一种慢性地方流行病，只侵犯皮肤，产生色素沉着及过度角化损害。本病流行于中...", "lemmaUrl": "http://baike.baidu.com/item/%E5%93%81%E4%BB%96%E7%97%85/8874407", "lemmaPic": []}, {"lemmaId": 3096485, "lemmaTitle": "老年人病毒性肝炎", "lemmaCroppedTitle": "老年人病毒性肝炎", "lemmaDesc": "病毒性肝炎是由多种肝炎病毒引起的以肝脏病变为主的一种传染病，临床上以食欲减退、恶...", "lemmaUrl": "http://baike.baidu.com/item/%E8%80%81%E5%B9%B4%E4%BA%BA%E7%97%85%E6%AF%92%E6%80%A7%E8%82%9D%E7%82%8E/3096485", "lemmaPic": []}, {"lemmaId": 6382518, "lemmaTitle": "先天性腹壁肌肉发育不良", "lemmaCroppedTitle": "先天性腹壁肌肉发育不良", "lemmaDesc": "先天性腹壁肌肉发育不良是指前腹壁肌肉的发育不良，是一种罕见的先天性畸形。早在18...", "lemmaUrl": "http://baike.baidu.com/item/%E5%85%88%E5%A4%A9%E6%80%A7%E8%85%B9%E5%A3%81%E8%82%8C%E8%82%89%E5%8F%91%E8%82%B2%E4%B8%8D%E8%89%AF/6382518", "lemmaPic": []}, {"lemmaId": 12715931, "lemmaTitle": "儿童肾病综合征", "lemmaCroppedTitle": "儿童肾病综合征", "lemmaDesc": "儿童肾病综合征（NS）是儿童常见的肾小球肾脏疾病，是一组由于多种原因引起的肾小球...", "lemmaUrl": "http://baike.baidu.com/item/%E5%84%BF%E7%AB%A5%E8%82%BE%E7%97%85%E7%BB%BC%E5%90%88%E5%BE%81/12715931", "lemmaPic": []}, {"lemmaId": 2616131, "lemmaTitle": "急性后部多灶性鳞状色素上皮病变", "lemmaCroppedTitle": "急性后部多灶性鳞状色素上皮病变", "lemmaDesc": "急性后部多灶性鳞状色素上皮病变是指一种主要发生于视网膜色素上皮和脉络膜毛细血管水...", "lemmaUrl": "http://baike.baidu.com/item/%E6%80%A5%E6%80%A7%E5%90%8E%E9%83%A8%E5%A4%9A%E7%81%B6%E6%80%A7%E9%B3%9E%E7%8A%B6%E8%89%B2%E7%B4%A0%E4%B8%8A%E7%9A%AE%E7%97%85%E5%8F%98/2616131", "lemmaPic": []}, {"lemmaId": 2908257, "lemmaTitle": "外阴早期浸润性鳞癌", "lemmaCroppedTitle": "外阴早期浸润性鳞癌", "lemmaDesc": "外阴早期浸润性鳞癌又称外阴早期鳞状上皮浸润癌，一般认为是由上皮内肿瘤（VIN）经...", "lemmaUrl": "http://baike.baidu.com/item/%E5%A4%96%E9%98%B4%E6%97%A9%E6%9C%9F%E6%B5%B8%E6%B6%A6%E6%80%A7%E9%B3%9E%E7%99%8C/2908257", "lemmaPic": []}, {"lemmaId": 8455813, "lemmaTitle": "肠道革兰阴性杆菌脑膜炎", "lemmaCroppedTitle": "肠道革兰阴性杆菌脑膜炎", "lemmaDesc": "肠道革兰阴性杆菌脑膜炎是由肠杆菌科的细菌，包括大肠杆菌沙门菌属、枸橼酸杆菌、产气...", "lemmaUrl": "http://baike.baidu.com/item/%E8%82%A0%E9%81%93%E9%9D%A9%E5%85%B0%E9%98%B4%E6%80%A7%E6%9D%86%E8%8F%8C%E8%84%91%E8%86%9C%E7%82%8E/8455813", "lemmaPic": []}, {"lemmaId": 3914986, "lemmaTitle": "癌肿性关节炎", "lemmaCroppedTitle": "癌肿性关节炎", "lemmaDesc": "癌肿性关节炎与类风湿关节炎相似，常发生在癌症体征前一年，患病关节突发关节疼痛，症...", "lemmaUrl": "http://baike.baidu.com/item/%E7%99%8C%E8%82%BF%E6%80%A7%E5%85%B3%E8%8A%82%E7%82%8E/3914986", "lemmaPic": []}, {"lemmaId": 7609176, "lemmaTitle": "痒点", "lemmaCroppedTitle": "痒点", "lemmaDesc": "痒点是皮肤仅有点状瘙痒而无原发性损害的皮肤病。病因不明，多见于成人。病程慢性。好...", "lemmaUrl": "http://baike.baidu.com/item/%E7%97%92%E7%82%B9/7609176", "lemmaPic": []}, {"lemmaId": 1844605, "lemmaTitle": "外阴象皮肿", "lemmaCroppedTitle": "外阴象皮肿", "lemmaDesc": "外阴象皮肿指外阴皮肤异常肥厚、肿胀、粗糙、皮纹增加、质地坚韧，形如象皮。丝虫病、...", "lemmaUrl": "http://baike.baidu.com/item/%E5%A4%96%E9%98%B4%E8%B1%A1%E7%9A%AE%E8%82%BF/1844605", "lemmaPic": []}, {"lemmaId": 10599773, "lemmaTitle": "持续性交接区折返性心动过速", "lemmaCroppedTitle": "持续性交接区折返性心动过速", "lemmaDesc": "持续性交接区折返性心动过速（PJRT）又名持续性交接性反复性心动过速、持续性交接...", "lemmaUrl": "http://baike.baidu.com/item/%E6%8C%81%E7%BB%AD%E6%80%A7%E4%BA%A4%E6%8E%A5%E5%8C%BA%E6%8A%98%E8%BF%94%E6%80%A7%E5%BF%83%E5%8A%A8%E8%BF%87%E9%80%9F/10599773", "lemmaPic": []}, {"lemmaId": 3850816, "lemmaTitle": "膀胱嗜铬细胞瘤", "lemmaCroppedTitle": "膀胱嗜铬细胞瘤", "lemmaDesc": "膀胱嗜铬细胞瘤为膀胱非上皮性肿瘤，起源于胚胎期遗留在膀胱壁的嗜铬细胞。肿瘤起源于...", "lemmaUrl": "http://baike.baidu.com/item/%E8%86%80%E8%83%B1%E5%97%9C%E9%93%AC%E7%BB%86%E8%83%9E%E7%98%A4/3850816", "lemmaPic": []}, {"lemmaId": 7253940, "lemmaTitle": "大网膜囊肿", "lemmaCroppedTitle": "大网膜囊肿", "lemmaDesc": "大网膜囊肿临床上少见。小囊肿一般无临床症状，大囊肿常由病人自己发现腹内有包块而就...", "lemmaUrl": "http://baike.baidu.com/item/%E5%A4%A7%E7%BD%91%E8%86%9C%E5%9B%8A%E8%82%BF/7253940", "lemmaPic": []}, {"lemmaId": 2897292, "lemmaTitle": "小儿关节过度活动综合征", "lemmaCroppedTitle": "小儿关节过度活动综合征", "lemmaDesc": "关节过度活动综合征又名关节松弛症，1967年由Kirk等最早报道，认为本症是一种...", "lemmaUrl": "http://baike.baidu.com/item/%E5%B0%8F%E5%84%BF%E5%85%B3%E8%8A%82%E8%BF%87%E5%BA%A6%E6%B4%BB%E5%8A%A8%E7%BB%BC%E5%90%88%E5%BE%81/2897292", "lemmaPic": []}, {"lemmaId": 7849437, "lemmaTitle": "拇指掌指关节尺侧侧副韧带损伤", "lemmaCroppedTitle": "拇指掌指关节尺侧侧副韧带损伤", "lemmaDesc": "手部最常见的韧带损伤是拇指掌指关节尺侧侧副韧带损伤，常造成拇指对指力和精细指捏能...", "lemmaUrl": "http://baike.baidu.com/item/%E6%8B%87%E6%8C%87%E6%8E%8C%E6%8C%87%E5%85%B3%E8%8A%82%E5%B0%BA%E4%BE%A7%E4%BE%A7%E5%89%AF%E9%9F%A7%E5%B8%A6%E6%8D%9F%E4%BC%A4/7849437", "lemmaPic": []}, {"lemmaId": 10578137, "lemmaTitle": "毛圆线虫病", "lemmaCroppedTitle": "毛圆线虫病", "lemmaDesc": "毛圆线虫病是由毛圆线虫寄生于人体十二指肠及空肠引起的人畜共患寄生虫病。轻者临床症...", "lemmaUrl": "http://baike.baidu.com/item/%E6%AF%9B%E5%9C%86%E7%BA%BF%E8%99%AB%E7%97%85/10578137", "lemmaPic": []}, {"lemmaId": 9188385, "lemmaTitle": "脊椎结核后突畸形", "lemmaCroppedTitle": "脊椎结核后突畸形", "lemmaDesc": "脊椎结核后突畸形特别是10岁以下儿童患者的严重后遗症之一。不仅影响患儿外表仪容和...", "lemmaUrl": "http://baike.baidu.com/item/%E8%84%8A%E6%A4%8E%E7%BB%93%E6%A0%B8%E5%90%8E%E7%AA%81%E7%95%B8%E5%BD%A2/9188385", "lemmaPic": []}, {"lemmaId": 1651614, "lemmaTitle": "感染性心内膜炎肾损害", "lemmaCroppedTitle": "感染性心内膜炎肾损害", "lemmaDesc": "由于多种病原体（主要是细菌，亦有病毒、支原体、原虫等）进入血液，随血液回流至心腔...", "lemmaUrl": "http://baike.baidu.com/item/%E6%84%9F%E6%9F%93%E6%80%A7%E5%BF%83%E5%86%85%E8%86%9C%E7%82%8E%E8%82%BE%E6%8D%9F%E5%AE%B3/1651614", "lemmaPic": []}, {"lemmaId": 510703, "lemmaTitle": "斑疹伤寒立克次体肺炎", "lemmaCroppedTitle": "斑疹伤寒立克次体肺炎", "lemmaDesc": "斑疹伤寒分为流行性斑疹伤寒和地方性斑疹伤寒。前者系由普氏立克次体通过人虱传播，并...", "lemmaUrl": "http://baike.baidu.com/item/%E6%96%91%E7%96%B9%E4%BC%A4%E5%AF%92%E7%AB%8B%E5%85%8B%E6%AC%A1%E4%BD%93%E8%82%BA%E7%82%8E/510703", "lemmaPic": []}, {"lemmaId": 1857173, "lemmaTitle": "脑动脉硬化伴发的精神障碍", "lemmaCroppedTitle": "脑动脉硬化伴发的精神障碍", "lemmaDesc": "脑动脉硬化伴发的精神障碍属血管病伴发的精神障碍。指由于脂肪代谢，血管壁功能、内分...", "lemmaUrl": "http://baike.baidu.com/item/%E8%84%91%E5%8A%A8%E8%84%89%E7%A1%AC%E5%8C%96%E4%BC%B4%E5%8F%91%E7%9A%84%E7%B2%BE%E7%A5%9E%E9%9A%9C%E7%A2%8D/1857173", "lemmaPic": []}, {"lemmaId": 10455125, "lemmaTitle": "类风湿尘肺", "lemmaCroppedTitle": "类风湿尘肺", "lemmaDesc": "类风湿尘肺，又称卡普兰（Caplan）综合征、类风湿关节炎-尘肺综合征、硅沉着病...", "lemmaUrl": "http://baike.baidu.com/item/%E7%B1%BB%E9%A3%8E%E6%B9%BF%E5%B0%98%E8%82%BA/10455125", "lemmaPic": []}, {"lemmaId": 5563154, "lemmaTitle": "乙型肝炎抗原血症", "lemmaCroppedTitle": "乙型肝炎抗原血症", "lemmaDesc": "乙型肝炎患者可有多种皮肤表现，急性期的皮肤表现与乙肝表面抗原（HBsAg）和抗H...", "lemmaUrl": "http://baike.baidu.com/item/%E4%B9%99%E5%9E%8B%E8%82%9D%E7%82%8E%E6%8A%97%E5%8E%9F%E8%A1%80%E7%97%87/5563154", "lemmaPic": []}, {"lemmaId": 12676635, "lemmaTitle": "小儿肺动脉高压", "lemmaCroppedTitle": "小儿肺动脉高压", "lemmaDesc": "肺动脉高压（PAH）是指肺小动脉病变所导致的肺动脉压力和阻力异常增高，而肺静脉压...", "lemmaUrl": "http://baike.baidu.com/item/%E5%B0%8F%E5%84%BF%E8%82%BA%E5%8A%A8%E8%84%89%E9%AB%98%E5%8E%8B/12676635", "lemmaPic": []}, {"lemmaId": 6217949, "lemmaTitle": "急性脑内血肿", "lemmaCroppedTitle": "急性脑内血肿", "lemmaDesc": "急性脑内血肿是指脑实质内的血肿，可发生在脑组织的任何部位，好发于额叶及颞叶前端，...", "lemmaUrl": "http://baike.baidu.com/item/%E6%80%A5%E6%80%A7%E8%84%91%E5%86%85%E8%A1%80%E8%82%BF/6217949", "lemmaPic": []}, {"lemmaId": 9812707, "lemmaTitle": "特发性高钙尿症", "lemmaCroppedTitle": "特发性高钙尿症", "lemmaDesc": "特发性高钙尿症（IH）是一种病因未完全明了的尿钙增多，并伴有尿路结石而血钙正常的...", "lemmaUrl": "http://baike.baidu.com/item/%E7%89%B9%E5%8F%91%E6%80%A7%E9%AB%98%E9%92%99%E5%B0%BF%E7%97%87/9812707", "lemmaPic": []}, {"lemmaId": 8532246, "lemmaTitle": "鼻窦创伤", "lemmaCroppedTitle": "鼻窦创伤", "lemmaDesc": "根据解剖特点，鼻窦创伤以上颌窦多见，额窦次之，筛窦较少，蝶窦最少。鼻窦创伤时多合...", "lemmaUrl": "http://baike.baidu.com/item/%E9%BC%BB%E7%AA%A6%E5%88%9B%E4%BC%A4/8532246", "lemmaPic": []}, {"lemmaId": 2138171, "lemmaTitle": "先天性心包缺如或缺损", "lemmaCroppedTitle": "先天性心包缺如或缺损", "lemmaDesc": "先天性心包缺如或缺损是一种少见的心脏病。男女均可发病，男性多于女性（3：1），发...", "lemmaUrl": "http://baike.baidu.com/item/%E5%85%88%E5%A4%A9%E6%80%A7%E5%BF%83%E5%8C%85%E7%BC%BA%E5%A6%82%E6%88%96%E7%BC%BA%E6%8D%9F/2138171", "lemmaPic": []}, {"lemmaId": 16746316, "lemmaTitle": "诺如病毒感染性腹泻", "lemmaCroppedTitle": "诺如病毒感染性腹泻", "lemmaDesc": "诺如病毒（Norovirus）是一组杯状病毒属病毒，其原型株诺瓦克病毒（Norw...", "lemmaUrl": "http://baike.baidu.com/item/%E8%AF%BA%E5%A6%82%E7%97%85%E6%AF%92%E6%84%9F%E6%9F%93%E6%80%A7%E8%85%B9%E6%B3%BB/16746316", "lemmaPic": []}, {"lemmaId": 12982204, "lemmaTitle": "非溃疡性消化不良", "lemmaCroppedTitle": "非溃疡性消化不良", "lemmaDesc": "非溃疡性消化不良（NUD）亦称功能性消化不良，是一种常见病，确切的病因和发病机制...", "lemmaUrl": "http://baike.baidu.com/item/%E9%9D%9E%E6%BA%83%E7%96%A1%E6%80%A7%E6%B6%88%E5%8C%96%E4%B8%8D%E8%89%AF/12982204", "lemmaPic": []}, {"lemmaId": 4047076, "lemmaTitle": "光线性角化病", "lemmaCroppedTitle": "光线性角化病", "lemmaDesc": "光线性角化病又称老年角化病或日光性角化病，常发于长期紫外线照射的中年及老年人，放...", "lemmaUrl": "http://baike.baidu.com/item/%E5%85%89%E7%BA%BF%E6%80%A7%E8%A7%92%E5%8C%96%E7%97%85/4047076", "lemmaPic": []}, {"lemmaId": 6814639, "lemmaTitle": "点状内层脉络膜病变", "lemmaCroppedTitle": "点状内层脉络膜病变", "lemmaDesc": "点状内层脉络膜病变是一种少见的多灶性脉络膜视网膜炎症性疾病。典型地发生于青年女性...", "lemmaUrl": "http://baike.baidu.com/item/%E7%82%B9%E7%8A%B6%E5%86%85%E5%B1%82%E8%84%89%E7%BB%9C%E8%86%9C%E7%97%85%E5%8F%98/6814639", "lemmaPic": []}, {"lemmaId": 8383213, "lemmaTitle": "脓窠疮", "lemmaCroppedTitle": "脓窠疮", "lemmaDesc": "脓窠疮是一种皮损部位较深在的化脓性皮肤病，愈合较慢，愈后留有瘢痕，多见于儿童。本...", "lemmaUrl": "http://baike.baidu.com/item/%E8%84%93%E7%AA%A0%E7%96%AE/8383213", "lemmaPic": []}, {"lemmaId": 7254443, "lemmaTitle": "先天性半侧肥大", "lemmaCroppedTitle": "先天性半侧肥大", "lemmaDesc": "先天性半侧肥大的发生率为1/8.6万，绝大多数为散发病例。特点为偏侧肢体的骨和软...", "lemmaUrl": "http://baike.baidu.com/item/%E5%85%88%E5%A4%A9%E6%80%A7%E5%8D%8A%E4%BE%A7%E8%82%A5%E5%A4%A7/7254443", "lemmaPic": []}, {"lemmaId": 10969655, "lemmaTitle": "肠气囊肿病", "lemmaCroppedTitle": "肠气囊肿病", "lemmaDesc": "肠气囊肿病（PCI）又称肠囊样积气症、Duvernoy综合征、肠气肿、腹气囊肿、...", "lemmaUrl": "http://baike.baidu.com/item/%E8%82%A0%E6%B0%94%E5%9B%8A%E8%82%BF%E7%97%85/10969655", "lemmaPic": []}, {"lemmaId": 2919035, "lemmaTitle": "白血病视网膜病变", "lemmaCroppedTitle": "白血病视网膜病变", "lemmaDesc": "白血病所致眼底改变，称为白血病视网膜病变，白血病患者含有大量不成熟的幼稚细胞可以...", "lemmaUrl": "http://baike.baidu.com/item/%E7%99%BD%E8%A1%80%E7%97%85%E8%A7%86%E7%BD%91%E8%86%9C%E7%97%85%E5%8F%98/2919035", "lemmaPic": []}, {"lemmaId": 1844825, "lemmaTitle": "外阴卡波西肉瘤", "lemmaCroppedTitle": "外阴卡波西肉瘤", "lemmaDesc": "外阴卡波西肉瘤即外阴Kaposi肉瘤，又名外阴多发性特发性出血性肉瘤、外阴复发性...", "lemmaUrl": "http://baike.baidu.com/item/%E5%A4%96%E9%98%B4%E5%8D%A1%E6%B3%A2%E8%A5%BF%E8%82%89%E7%98%A4/1844825", "lemmaPic": []}, {"lemmaId": 2775227, "lemmaTitle": "洋葱假单胞菌肺炎", "lemmaCroppedTitle": "洋葱假单胞菌肺炎", "lemmaDesc": "洋葱假单胞菌肺炎是洋葱假单胞菌引起的肺部感染，主要见于免疫机制严重受损的患者（如...", "lemmaUrl": "http://baike.baidu.com/item/%E6%B4%8B%E8%91%B1%E5%81%87%E5%8D%95%E8%83%9E%E8%8F%8C%E8%82%BA%E7%82%8E/2775227", "lemmaPic": []}, {"lemmaId": 4016470, "lemmaTitle": "小肠纤维瘤", "lemmaCroppedTitle": "小肠纤维瘤", "lemmaDesc": "小肠纤维瘤是由小肠黏膜纤维组织发生的良性肿瘤，较少见，River报道1399例小...", "lemmaUrl": "http://baike.baidu.com/item/%E5%B0%8F%E8%82%A0%E7%BA%A4%E7%BB%B4%E7%98%A4/4016470", "lemmaPic": []}, {"lemmaId": 5082620, "lemmaTitle": "遗传性压力易感性周围神经病", "lemmaCroppedTitle": "遗传性压力易感性周围神经病", "lemmaDesc": "遗传性压力易感性周围神经病（hereditary neuropathy with...", "lemmaUrl": "http://baike.baidu.com/item/%E9%81%97%E4%BC%A0%E6%80%A7%E5%8E%8B%E5%8A%9B%E6%98%93%E6%84%9F%E6%80%A7%E5%91%A8%E5%9B%B4%E7%A5%9E%E7%BB%8F%E7%97%85/5082620", "lemmaPic": []}, {"lemmaId": 3236434, "lemmaTitle": "耳郭软骨膜炎", "lemmaCroppedTitle": "耳郭软骨膜炎", "lemmaDesc": "耳郭软骨膜炎可分为浆液性和化脓性两种。病变是在软骨和软骨膜间有血清渗出（浆液性）...", "lemmaUrl": "http://baike.baidu.com/item/%E8%80%B3%E9%83%AD%E8%BD%AF%E9%AA%A8%E8%86%9C%E7%82%8E/3236434", "lemmaPic": []}, {"lemmaId": 10455137, "lemmaTitle": "大疱类天疱疮", "lemmaCroppedTitle": "大疱类天疱疮", "lemmaDesc": "大疱类天疱疮又称老年天疱疮，为一种好发于老年人的慢性大疱性皮肤病，一般认为是自身...", "lemmaUrl": "http://baike.baidu.com/item/%E5%A4%A7%E7%96%B1%E7%B1%BB%E5%A4%A9%E7%96%B1%E7%96%AE/10455137", "lemmaPic": []}, {"lemmaId": 4019182, "lemmaTitle": "小肠过敏性紫癜", "lemmaCroppedTitle": "小肠过敏性紫癜", "lemmaDesc": "过敏性紫癜是临床上较常见的一种变态反应性出血性疾病，病变主要累及毛细血管壁，临床...", "lemmaUrl": "http://baike.baidu.com/item/%E5%B0%8F%E8%82%A0%E8%BF%87%E6%95%8F%E6%80%A7%E7%B4%AB%E7%99%9C/4019182", "lemmaPic": []}, {"lemmaId": 8385608, "lemmaTitle": "毛细淋巴管瘤", "lemmaCroppedTitle": "毛细淋巴管瘤", "lemmaDesc": "毛细淋巴管瘤是由原始淋巴管发育增生形成的肿物，是一种先天性发育畸形，属于错构瘤性...", "lemmaUrl": "http://baike.baidu.com/item/%E6%AF%9B%E7%BB%86%E6%B7%8B%E5%B7%B4%E7%AE%A1%E7%98%A4/8385608", "lemmaPic": []}, {"lemmaId": 8403122, "lemmaTitle": "布氏杆菌性关节炎", "lemmaCroppedTitle": "布氏杆菌性关节炎", "lemmaDesc": "本病是由布氏杆菌引起的急性感染。布氏杆菌为小的革兰阴性菌，通过动物传染给人。患者...", "lemmaUrl": "http://baike.baidu.com/item/%E5%B8%83%E6%B0%8F%E6%9D%86%E8%8F%8C%E6%80%A7%E5%85%B3%E8%8A%82%E7%82%8E/8403122", "lemmaPic": []}, {"lemmaId": 729182, "lemmaTitle": "胃肠道伴癌综合征", "lemmaCroppedTitle": "胃肠道伴癌综合征", "lemmaDesc": "胃肠道伴癌综合征系指由于消化系的某些癌瘤所伴发的一些症候群，如低蛋白血症、水肿、...", "lemmaUrl": "http://baike.baidu.com/item/%E8%83%83%E8%82%A0%E9%81%93%E4%BC%B4%E7%99%8C%E7%BB%BC%E5%90%88%E5%BE%81/729182", "lemmaPic": []}, {"lemmaId": 5086216, "lemmaTitle": "姿态性腰腿痛", "lemmaCroppedTitle": "姿态性腰腿痛", "lemmaDesc": "发生姿态性腰腿痛的原因很多，如各种下肢先天或后天畸形。常见者有髋关节先天或后天性...", "lemmaUrl": "http://baike.baidu.com/item/%E5%A7%BF%E6%80%81%E6%80%A7%E8%85%B0%E8%85%BF%E7%97%9B/5086216", "lemmaPic": []}, {"lemmaId": 2115466, "lemmaTitle": "副肿瘤性边缘系统脑炎", "lemmaCroppedTitle": "副肿瘤性边缘系统脑炎", "lemmaDesc": "副肿瘤性边缘系统脑炎是全身性癌肿在中枢神经系统（CNS）和肌肉系统出现的远隔效应...", "lemmaUrl": "http://baike.baidu.com/item/%E5%89%AF%E8%82%BF%E7%98%A4%E6%80%A7%E8%BE%B9%E7%BC%98%E7%B3%BB%E7%BB%9F%E8%84%91%E7%82%8E/2115466", "lemmaPic": []}, {"lemmaId": 6520587, "lemmaTitle": "浓缩胆汁综合征", "lemmaCroppedTitle": "浓缩胆汁综合征", "lemmaDesc": "浓缩胆汁综合征又称先天性免疫性溶血性肝炎、胆栓综合征、胆汁浓缩综合征。系指新生儿...", "lemmaUrl": "http://baike.baidu.com/item/%E6%B5%93%E7%BC%A9%E8%83%86%E6%B1%81%E7%BB%BC%E5%90%88%E5%BE%81/6520587", "lemmaPic": []}, {"lemmaId": 6297211, "lemmaTitle": "肝-甲状腺综合征", "lemmaCroppedTitle": "肝-甲状腺综合征", "lemmaDesc": "是指同时患有慢性肝炎和慢性甲状腺炎，而且在病因上二者有一定联系的综合征。1960...", "lemmaUrl": "http://baike.baidu.com/item/%E8%82%9D-%E7%94%B2%E7%8A%B6%E8%85%BA%E7%BB%BC%E5%90%88%E5%BE%81/6297211", "lemmaPic": []}, {"lemmaId": 3039145, "lemmaTitle": "婴儿肌纤维瘤病", "lemmaCroppedTitle": "婴儿肌纤维瘤病", "lemmaDesc": "婴儿肌纤维瘤病又称先天性泛发性纤维瘤病不常见，好发于男性婴幼儿。本病特点为多发性...", "lemmaUrl": "http://baike.baidu.com/item/%E5%A9%B4%E5%84%BF%E8%82%8C%E7%BA%A4%E7%BB%B4%E7%98%A4%E7%97%85/3039145", "lemmaPic": []}, {"lemmaId": 1712674, "lemmaTitle": "环状外阴炎", "lemmaCroppedTitle": "环状外阴炎", "lemmaDesc": "环状外阴炎病因不十分明确。真菌培养和镜检通常呈阴性，但抗念珠菌治疗对多数患者有效...", "lemmaUrl": "http://baike.baidu.com/item/%E7%8E%AF%E7%8A%B6%E5%A4%96%E9%98%B4%E7%82%8E/1712674", "lemmaPic": []}, {"lemmaId": 1183078, "lemmaTitle": "加利福尼亚脑炎", "lemmaCroppedTitle": "加利福尼亚脑炎", "lemmaDesc": "加利福尼亚脑炎是由抗原性相关的加利福尼亚病毒群引起的，经蚊虫媒介传播的中枢神经系...", "lemmaUrl": "http://baike.baidu.com/item/%E5%8A%A0%E5%88%A9%E7%A6%8F%E5%B0%BC%E4%BA%9A%E8%84%91%E7%82%8E/1183078", "lemmaPic": []}, {"lemmaId": 8505816, "lemmaTitle": "小儿发作性舞蹈手足徐动症", "lemmaCroppedTitle": "小儿发作性舞蹈手足徐动症", "lemmaDesc": "发作性舞蹈手足徐动症即不自主的运动综合征、发作性舞蹈指划样动作，又称运动诱发性癫...", "lemmaUrl": "http://baike.baidu.com/item/%E5%B0%8F%E5%84%BF%E5%8F%91%E4%BD%9C%E6%80%A7%E8%88%9E%E8%B9%88%E6%89%8B%E8%B6%B3%E5%BE%90%E5%8A%A8%E7%97%87/8505816", "lemmaPic": []}, {"lemmaId": 4850929, "lemmaTitle": "妊娠合并血栓性疾病", "lemmaCroppedTitle": "妊娠合并血栓性疾病", "lemmaDesc": "血栓性疾病（VTE）主要是指下肢静脉系统血栓，主要为下肢深静脉血栓（DVT），其...", "lemmaUrl": "http://baike.baidu.com/item/%E5%A6%8A%E5%A8%A0%E5%90%88%E5%B9%B6%E8%A1%80%E6%A0%93%E6%80%A7%E7%96%BE%E7%97%85/4850929", "lemmaPic": []}, {"lemmaId": 8407811, "lemmaTitle": "沃纳综合征", "lemmaCroppedTitle": "沃纳综合征", "lemmaDesc": "沃纳综合征也称成人早老症、白内障-硬皮病-早老综合征，系一种先天性常染色体隐性遗...", "lemmaUrl": "http://baike.baidu.com/item/%E6%B2%83%E7%BA%B3%E7%BB%BC%E5%90%88%E5%BE%81/8407811", "lemmaPic": []}, {"lemmaId": 743322, "lemmaTitle": "巨膀胱-小结肠-肠蠕动不良综合征", "lemmaCroppedTitle": "巨膀胱-小结肠-肠蠕动不良综合征", "lemmaDesc": "巨膀胱-小结肠-肠蠕动不良综合征可能系神经肌肉功能不够成熟所致，机体能自行纠正，...", "lemmaUrl": "http://baike.baidu.com/item/%E5%B7%A8%E8%86%80%E8%83%B1-%E5%B0%8F%E7%BB%93%E8%82%A0-%E8%82%A0%E8%A0%95%E5%8A%A8%E4%B8%8D%E8%89%AF%E7%BB%BC%E5%90%88%E5%BE%81/743322", "lemmaPic": []}, {"lemmaId": 1212774, "lemmaTitle": "绝经与阿尔茨海默病综合征", "lemmaCroppedTitle": "绝经与阿尔茨海默病综合征", "lemmaDesc": "阿尔茨海默病，虽是一种病因未明的原发性退行性大脑疾病，但其发病机制与雌激素水平降...", "lemmaUrl": "http://baike.baidu.com/item/%E7%BB%9D%E7%BB%8F%E4%B8%8E%E9%98%BF%E5%B0%94%E8%8C%A8%E6%B5%B7%E9%BB%98%E7%97%85%E7%BB%BC%E5%90%88%E5%BE%81/1212774", "lemmaPic": []}, {"lemmaId": 4622673, "lemmaTitle": "唇舌水肿及面瘫综合征", "lemmaCroppedTitle": "唇舌水肿及面瘫综合征", "lemmaDesc": "唇舌水肿及面瘫综合征也称为梅罗综合征。表现为反复出现的面神经瘫痪和面部肿胀，合并...", "lemmaUrl": "http://baike.baidu.com/item/%E5%94%87%E8%88%8C%E6%B0%B4%E8%82%BF%E5%8F%8A%E9%9D%A2%E7%98%AB%E7%BB%BC%E5%90%88%E5%BE%81/4622673", "lemmaPic": []}, {"lemmaId": 1888472, "lemmaTitle": "儿童类风湿病", "lemmaCroppedTitle": "儿童类风湿病", "lemmaDesc": "幼年特发性关节炎（JRA），既往称幼年型类风湿性关节炎，是小儿时期一种常见的结缔...", "lemmaUrl": "http://baike.baidu.com/item/%E5%84%BF%E7%AB%A5%E7%B1%BB%E9%A3%8E%E6%B9%BF%E7%97%85/1888472", "lemmaPic": []}, {"lemmaId": 2838948, "lemmaTitle": "小儿丙型病毒性肝炎", "lemmaCroppedTitle": "小儿丙型病毒性肝炎", "lemmaDesc": "丙型病毒性肝炎（简称丙肝）是由属于黄病毒科的丙型病毒引起，这种病毒对肝细胞造成直...", "lemmaUrl": "http://baike.baidu.com/item/%E5%B0%8F%E5%84%BF%E4%B8%99%E5%9E%8B%E7%97%85%E6%AF%92%E6%80%A7%E8%82%9D%E7%82%8E/2838948", "lemmaPic": []}, {"lemmaId": 9576698, "lemmaTitle": "束支折返性室性心动过速", "lemmaCroppedTitle": "束支折返性室性心动过速", "lemmaDesc": "束支折返型室性心动过速（BBRVT）是一种特殊类型的持续性单形性室性心动过速，由...", "lemmaUrl": "http://baike.baidu.com/item/%E6%9D%9F%E6%94%AF%E6%8A%98%E8%BF%94%E6%80%A7%E5%AE%A4%E6%80%A7%E5%BF%83%E5%8A%A8%E8%BF%87%E9%80%9F/9576698", "lemmaPic": []}, {"lemmaId": 728022, "lemmaTitle": "暴发性肝炎样综合征", "lemmaCroppedTitle": "暴发性肝炎样综合征", "lemmaDesc": "暴发性肝炎样综合征，系指一组非病毒性肝炎而具有暴发性肝炎样表现的综合症。其中包括...", "lemmaUrl": "http://baike.baidu.com/item/%E6%9A%B4%E5%8F%91%E6%80%A7%E8%82%9D%E7%82%8E%E6%A0%B7%E7%BB%BC%E5%90%88%E5%BE%81/728022", "lemmaPic": []}, {"lemmaId": 8404674, "lemmaTitle": "透析性骨关节病", "lemmaCroppedTitle": "透析性骨关节病", "lemmaDesc": "透析性骨关节病是慢性透析患者的重要并发症之一。慢性血透或腹膜透析治疗的患者中，有...", "lemmaUrl": "http://baike.baidu.com/item/%E9%80%8F%E6%9E%90%E6%80%A7%E9%AA%A8%E5%85%B3%E8%8A%82%E7%97%85/8404674", "lemmaPic": []}, {"lemmaId": 820700, "lemmaTitle": "先天性胫骨缺如", "lemmaCroppedTitle": "先天性胫骨缺如", "lemmaDesc": "先天性胫骨缺如病属肢体纵向缺陷，临床罕见。往往伴有同侧股骨近端发育不良、股骨重复...", "lemmaUrl": "http://baike.baidu.com/item/%E5%85%88%E5%A4%A9%E6%80%A7%E8%83%AB%E9%AA%A8%E7%BC%BA%E5%A6%82/820700", "lemmaPic": []}, {"lemmaId": 7253673, "lemmaTitle": "小儿骨软骨瘤", "lemmaCroppedTitle": "小儿骨软骨瘤", "lemmaDesc": "骨软骨瘤又称外生骨疣，是儿童期最常见的良性骨肿瘤。该肿瘤通常位于干骺端的一侧骨皮...", "lemmaUrl": "http://baike.baidu.com/item/%E5%B0%8F%E5%84%BF%E9%AA%A8%E8%BD%AF%E9%AA%A8%E7%98%A4/7253673", "lemmaPic": []}, {"lemmaId": 10017247, "lemmaTitle": "损伤性动静脉瘘", "lemmaCroppedTitle": "损伤性动静脉瘘", "lemmaDesc": "由损伤导致的动脉与静脉之间的异常交通，称为损伤性动静脉瘘。多由贯通伤引起，如刀刺...", "lemmaUrl": "http://baike.baidu.com/item/%E6%8D%9F%E4%BC%A4%E6%80%A7%E5%8A%A8%E9%9D%99%E8%84%89%E7%98%98/10017247", "lemmaPic": []}, {"lemmaId": 579923, "lemmaTitle": "卵巢恶性中胚叶混合瘤", "lemmaCroppedTitle": "卵巢恶性中胚叶混合瘤", "lemmaDesc": "卵巢恶性Mullerian混合瘤（MMMT），又称恶性中胚叶混合瘤、癌肉瘤或化生...", "lemmaUrl": "http://baike.baidu.com/item/%E5%8D%B5%E5%B7%A2%E6%81%B6%E6%80%A7%E4%B8%AD%E8%83%9A%E5%8F%B6%E6%B7%B7%E5%90%88%E7%98%A4/579923", "lemmaPic": []}, {"lemmaId": 7862278, "lemmaTitle": "多形性脂肪瘤", "lemmaCroppedTitle": "多形性脂肪瘤", "lemmaDesc": "多形性脂肪瘤少见，好发于中年以上男性。", "lemmaUrl": "http://baike.baidu.com/item/%E5%A4%9A%E5%BD%A2%E6%80%A7%E8%84%82%E8%82%AA%E7%98%A4/7862278", "lemmaPic": []}, {"lemmaId": 10433987, "lemmaTitle": "小儿韦格纳肉芽肿", "lemmaCroppedTitle": "小儿韦格纳肉芽肿", "lemmaDesc": "韦格纳肉芽肿（WG）是一种以上、下呼吸道坏死性、肉芽肿性血管炎肾小球肾炎和其他器...", "lemmaUrl": "http://baike.baidu.com/item/%E5%B0%8F%E5%84%BF%E9%9F%A6%E6%A0%BC%E7%BA%B3%E8%82%89%E8%8A%BD%E8%82%BF/10433987", "lemmaPic": []}, {"lemmaId": 15156652, "lemmaTitle": "分离（转换）性障碍", "lemmaCroppedTitle": "分离（转换）性障碍", "lemmaDesc": "分离（转换）性障碍是一类由明显精神因素如重大生活事件、内心冲突、情绪激动、暗示或...", "lemmaUrl": "http://baike.baidu.com/item/%E5%88%86%E7%A6%BB%EF%BC%88%E8%BD%AC%E6%8D%A2%EF%BC%89%E6%80%A7%E9%9A%9C%E7%A2%8D/15156652", "lemmaPic": []}, {"lemmaId": 1852020, "lemmaTitle": "肝豆状核变性伴发的精神障碍", "lemmaCroppedTitle": "肝豆状核变性伴发的精神障碍", "lemmaDesc": "肝豆状核变性是一种常染色体隐性遗传性疾病，由血浆中铜蓝蛋白（一种铜结合酶）水平降...", "lemmaUrl": "http://baike.baidu.com/item/%E8%82%9D%E8%B1%86%E7%8A%B6%E6%A0%B8%E5%8F%98%E6%80%A7%E4%BC%B4%E5%8F%91%E7%9A%84%E7%B2%BE%E7%A5%9E%E9%9A%9C%E7%A2%8D/1852020", "lemmaPic": []}, {"lemmaId": 10112691, "lemmaTitle": "结缔组织增生性毛发上皮瘤", "lemmaCroppedTitle": "结缔组织增生性毛发上皮瘤", "lemmaDesc": "结缔组织增生性毛发上皮瘤以往认为本病为单发性毛发上皮瘤，但它具有足够的临床和组织...", "lemmaUrl": "http://baike.baidu.com/item/%E7%BB%93%E7%BC%94%E7%BB%84%E7%BB%87%E5%A2%9E%E7%94%9F%E6%80%A7%E6%AF%9B%E5%8F%91%E4%B8%8A%E7%9A%AE%E7%98%A4/10112691", "lemmaPic": []}, {"lemmaId": 3022360, "lemmaTitle": "月经性哮喘", "lemmaCroppedTitle": "月经性哮喘", "lemmaDesc": "2014&nbsp;GINA&nbsp;指南对哮喘的定义：哮喘为一种异质性疾病，...", "lemmaUrl": "http://baike.baidu.com/item/%E6%9C%88%E7%BB%8F%E6%80%A7%E5%93%AE%E5%96%98/3022360", "lemmaPic": []}, {"lemmaId": 7255037, "lemmaTitle": "神经系统结节病", "lemmaCroppedTitle": "神经系统结节病", "lemmaDesc": "结节病又称肉样瘤病，是一种原因未明的慢性肉芽肿病，可侵犯全身多个器官，以肺和淋巴...", "lemmaUrl": "http://baike.baidu.com/item/%E7%A5%9E%E7%BB%8F%E7%B3%BB%E7%BB%9F%E7%BB%93%E8%8A%82%E7%97%85/7255037", "lemmaPic": []}, {"lemmaId": 10638082, "lemmaTitle": "房室交接区逸搏和逸搏心律", "lemmaCroppedTitle": "房室交接区逸搏和逸搏心律", "lemmaDesc": "当窦房结或心房内的激动，不能按时传到房室交接区，其间歇超过交接区组织内潜在起搏点...", "lemmaUrl": "http://baike.baidu.com/item/%E6%88%BF%E5%AE%A4%E4%BA%A4%E6%8E%A5%E5%8C%BA%E9%80%B8%E6%90%8F%E5%92%8C%E9%80%B8%E6%90%8F%E5%BF%83%E5%BE%8B/10638082", "lemmaPic": []}, {"lemmaId": 820469, "lemmaTitle": "女子颜面黑变病", "lemmaCroppedTitle": "女子颜面黑变病", "lemmaDesc": "本病又称色素性化妆品皮炎，是由化妆品成分所引起的女性面部色素沉着反应。黄种人居多...", "lemmaUrl": "http://baike.baidu.com/item/%E5%A5%B3%E5%AD%90%E9%A2%9C%E9%9D%A2%E9%BB%91%E5%8F%98%E7%97%85/820469", "lemmaPic": []}], "total": 7246, "totalPage": 73, "page": 52, "fromLemma": 0}