{"lemmaList": [{"lemmaId": 13883797, "lemmaTitle": "瘢痕溃疡", "lemmaCroppedTitle": "瘢痕溃疡", "lemmaDesc": "瘢痕溃疡是由于人体创伤后在修复过程中形成的瘢痕组织破溃而造成的创面。瘢痕组织形成...", "lemmaUrl": "http://baike.baidu.com/item/%E7%98%A2%E7%97%95%E6%BA%83%E7%96%A1/13883797", "lemmaPic": []}, {"lemmaId": 12000410, "lemmaTitle": "胸壁深部软组织感染", "lemmaCroppedTitle": "胸壁深部软组织感染", "lemmaDesc": "胸壁深部软组织感染是指因外伤、表皮急性化脓性感染、急性化脓性乳腺炎、脓胸及脓毒血...", "lemmaUrl": "http://baike.baidu.com/item/%E8%83%B8%E5%A3%81%E6%B7%B1%E9%83%A8%E8%BD%AF%E7%BB%84%E7%BB%87%E6%84%9F%E6%9F%93/12000410", "lemmaPic": []}, {"lemmaId": 12676567, "lemmaTitle": "小儿洋地黄中毒", "lemmaCroppedTitle": "小儿洋地黄中毒", "lemmaDesc": "洋地黄是一种强心药，儿科临床以地高辛最为常用，其作为传统的正性肌力药物，用于心衰...", "lemmaUrl": "http://baike.baidu.com/item/%E5%B0%8F%E5%84%BF%E6%B4%8B%E5%9C%B0%E9%BB%84%E4%B8%AD%E6%AF%92/12676567", "lemmaPic": []}, {"lemmaId": 18277535, "lemmaTitle": "腰椎崩裂", "lemmaCroppedTitle": "腰椎崩裂", "lemmaDesc": "腰椎崩裂也称腰椎峡部崩裂、椎弓崩裂等，是指腰椎椎弓上下关节突之间的峡部有缺损失去...", "lemmaUrl": "http://baike.baidu.com/item/%E8%85%B0%E6%A4%8E%E5%B4%A9%E8%A3%82/18277535", "lemmaPic": []}, {"lemmaId": 12677084, "lemmaTitle": "继发性粘连性蛛网膜炎", "lemmaCroppedTitle": "继发性粘连性蛛网膜炎", "lemmaDesc": "继发性粘连性蛛网膜炎既往在临床上很常见，后果严重。近年来继发性粘连性蛛网膜炎已为...", "lemmaUrl": "http://baike.baidu.com/item/%E7%BB%A7%E5%8F%91%E6%80%A7%E7%B2%98%E8%BF%9E%E6%80%A7%E8%9B%9B%E7%BD%91%E8%86%9C%E7%82%8E/12677084", "lemmaPic": []}, {"lemmaId": 16970653, "lemmaTitle": "成神经管细胞瘤", "lemmaCroppedTitle": "成神经管细胞瘤", "lemmaDesc": "髓母细胞瘤是好发于儿童的颅内恶性肿瘤，是中枢神经系统恶性程度最高的神经上皮性肿瘤...", "lemmaUrl": "http://baike.baidu.com/item/%E6%88%90%E7%A5%9E%E7%BB%8F%E7%AE%A1%E7%BB%86%E8%83%9E%E7%98%A4/16970653", "lemmaPic": []}, {"lemmaId": 12677312, "lemmaTitle": "ADH分泌过多综合征", "lemmaCroppedTitle": "ADH分泌过多综合征", "lemmaDesc": "抗利尿激素（ADH）分泌过多综合征是由于多种原因引起的内源性抗利尿激素、类似AD...", "lemmaUrl": "http://baike.baidu.com/item/ADH%E5%88%86%E6%B3%8C%E8%BF%87%E5%A4%9A%E7%BB%BC%E5%90%88%E5%BE%81/12677312", "lemmaPic": []}, {"lemmaId": 308734, "lemmaTitle": "小儿视网膜色素变性-肥胖-多指综合征", "lemmaCroppedTitle": "小儿视网膜色素变性-肥胖-多指综合征", "lemmaDesc": "小儿视网膜色素变性-肥胖-多指综合征，又称视网膜色素变性多指（趾）肥胖生殖器异常...", "lemmaUrl": "http://baike.baidu.com/item/%E5%B0%8F%E5%84%BF%E8%A7%86%E7%BD%91%E8%86%9C%E8%89%B2%E7%B4%A0%E5%8F%98%E6%80%A7-%E8%82%A5%E8%83%96-%E5%A4%9A%E6%8C%87%E7%BB%BC%E5%90%88%E5%BE%81/308734", "lemmaPic": []}, {"lemmaId": 12677124, "lemmaTitle": "先天性跖骨内收畸形", "lemmaCroppedTitle": "先天性跖骨内收畸形", "lemmaDesc": "先天性跖骨内收畸形（congenital metatarsus adductus...", "lemmaUrl": "http://baike.baidu.com/item/%E5%85%88%E5%A4%A9%E6%80%A7%E8%B7%96%E9%AA%A8%E5%86%85%E6%94%B6%E7%95%B8%E5%BD%A2/12677124", "lemmaPic": []}, {"lemmaId": 18277518, "lemmaTitle": "急性髓细胞性白血病", "lemmaCroppedTitle": "急性髓细胞性白血病", "lemmaDesc": "急性髓细胞性白血病（Acute myeloid leukemia，AML）是髓系...", "lemmaUrl": "http://baike.baidu.com/item/%E6%80%A5%E6%80%A7%E9%AB%93%E7%BB%86%E8%83%9E%E6%80%A7%E7%99%BD%E8%A1%80%E7%97%85/18277518", "lemmaPic": []}, {"lemmaId": 7253163, "lemmaTitle": "颅后窝血肿", "lemmaCroppedTitle": "颅后窝血肿", "lemmaDesc": "颅后窝血肿（posterior fossa hematomas）较为少见，约占颅...", "lemmaUrl": "http://baike.baidu.com/item/%E9%A2%85%E5%90%8E%E7%AA%9D%E8%A1%80%E8%82%BF/7253163", "lemmaPic": []}, {"lemmaId": 7253130, "lemmaTitle": "自发性蛛网膜下隙出血", "lemmaCroppedTitle": "自发性蛛网膜下隙出血", "lemmaDesc": "自发性蛛网膜下隙出血，是由于多种原因引起的脑血管突然破裂，使血液进入颅内或椎管内...", "lemmaUrl": "http://baike.baidu.com/item/%E8%87%AA%E5%8F%91%E6%80%A7%E8%9B%9B%E7%BD%91%E8%86%9C%E4%B8%8B%E9%9A%99%E5%87%BA%E8%A1%80/7253130", "lemmaPic": []}, {"lemmaId": 7254410, "lemmaTitle": "上干型胸廓出口综合征", "lemmaCroppedTitle": "上干型胸廓出口综合征", "lemmaDesc": "在解剖上，上干位于前、中斜角肌肌腹之间，无卡压的基础，而颈5、6神经根在出椎间孔...", "lemmaUrl": "http://baike.baidu.com/item/%E4%B8%8A%E5%B9%B2%E5%9E%8B%E8%83%B8%E5%BB%93%E5%87%BA%E5%8F%A3%E7%BB%BC%E5%90%88%E5%BE%81/7254410", "lemmaPic": []}, {"lemmaId": 12093323, "lemmaTitle": "获得性视网膜劈裂症", "lemmaCroppedTitle": "获得性视网膜劈裂症", "lemmaDesc": "获得性视网膜劈裂症或称老年性视网膜劈裂症，但在20岁以后青年人中也有发生。获得性...", "lemmaUrl": "http://baike.baidu.com/item/%E8%8E%B7%E5%BE%97%E6%80%A7%E8%A7%86%E7%BD%91%E8%86%9C%E5%8A%88%E8%A3%82%E7%97%87/12093323", "lemmaPic": []}, {"lemmaId": 18277539, "lemmaTitle": "小儿先天性肾积水", "lemmaCroppedTitle": "小儿先天性肾积水", "lemmaDesc": "小儿先天性肾积水，是由先天性肾盂输尿管连接梗阻（UPJO）引起的。本病可见于胎儿...", "lemmaUrl": "http://baike.baidu.com/item/%E5%B0%8F%E5%84%BF%E5%85%88%E5%A4%A9%E6%80%A7%E8%82%BE%E7%A7%AF%E6%B0%B4/18277539", "lemmaPic": []}, {"lemmaId": 5891055, "lemmaTitle": "Nezelof综合征", "lemmaCroppedTitle": "Nezelof综合征", "lemmaDesc": "Nezelof综合征又称胸腺发育不全综合征，系T淋巴细胞免疫缺陷伴胸腺发育不全，...", "lemmaUrl": "http://baike.baidu.com/item/Nezelof%E7%BB%BC%E5%90%88%E5%BE%81/5891055", "lemmaPic": []}, {"lemmaId": 12428480, "lemmaTitle": "局限性胸膜间皮瘤", "lemmaCroppedTitle": "局限性胸膜间皮瘤", "lemmaDesc": "以往习惯称为良性间皮瘤，目前被称为胸膜局限型纤维瘤，或局限型间皮瘤，但胸膜局限型...", "lemmaUrl": "http://baike.baidu.com/item/%E5%B1%80%E9%99%90%E6%80%A7%E8%83%B8%E8%86%9C%E9%97%B4%E7%9A%AE%E7%98%A4/12428480", "lemmaPic": []}, {"lemmaId": 12676688, "lemmaTitle": "小儿急性中毒性脑病", "lemmaCroppedTitle": "小儿急性中毒性脑病", "lemmaDesc": "急性中毒性脑病是婴幼儿时期比较常见的一种中枢神经系统病变，其主要临床表现是在原发...", "lemmaUrl": "http://baike.baidu.com/item/%E5%B0%8F%E5%84%BF%E6%80%A5%E6%80%A7%E4%B8%AD%E6%AF%92%E6%80%A7%E8%84%91%E7%97%85/12676688", "lemmaPic": []}, {"lemmaId": 12676893, "lemmaTitle": "婴儿期短暂性低丙球蛋白血症", "lemmaCroppedTitle": "婴儿期短暂性低丙球蛋白血症", "lemmaDesc": "婴儿期短暂性低丙球蛋白血症也称新生儿暂时性低γ-球蛋白血症。属于原发性体液免疫缺...", "lemmaUrl": "http://baike.baidu.com/item/%E5%A9%B4%E5%84%BF%E6%9C%9F%E7%9F%AD%E6%9A%82%E6%80%A7%E4%BD%8E%E4%B8%99%E7%90%83%E8%9B%8B%E7%99%BD%E8%A1%80%E7%97%87/12676893", "lemmaPic": []}, {"lemmaId": 12700754, "lemmaTitle": "妊娠期哮喘", "lemmaCroppedTitle": "妊娠期哮喘", "lemmaDesc": "妊娠期哮喘的发生率是1%～4%，其中30%孕妇有鼻炎样症状，出现鼻腔阻塞、鼻出血...", "lemmaUrl": "http://baike.baidu.com/item/%E5%A6%8A%E5%A8%A0%E6%9C%9F%E5%93%AE%E5%96%98/12700754", "lemmaPic": []}, {"lemmaId": 6425254, "lemmaTitle": "遗传性多发脑梗死性痴呆", "lemmaCroppedTitle": "遗传性多发脑梗死性痴呆", "lemmaDesc": "遗传性多发脑梗死性痴呆也称为常染色体显性遗传性脑动脉病伴皮质下梗死和白质脑病。本...", "lemmaUrl": "http://baike.baidu.com/item/%E9%81%97%E4%BC%A0%E6%80%A7%E5%A4%9A%E5%8F%91%E8%84%91%E6%A2%97%E6%AD%BB%E6%80%A7%E7%97%B4%E5%91%86/6425254", "lemmaPic": []}, {"lemmaId": 17659704, "lemmaTitle": "沙门菌属食物中毒", "lemmaCroppedTitle": "沙门菌属食物中毒", "lemmaDesc": "沙门菌属食物中毒是一种常见的细菌性食物中毒，由一群革兰阴性杆菌组成的尤其是对人和...", "lemmaUrl": "http://baike.baidu.com/item/%E6%B2%99%E9%97%A8%E8%8F%8C%E5%B1%9E%E9%A3%9F%E7%89%A9%E4%B8%AD%E6%AF%92/17659704", "lemmaPic": []}, {"lemmaId": 10193345, "lemmaTitle": "火器性颅脑损伤", "lemmaCroppedTitle": "火器性颅脑损伤", "lemmaDesc": "开放性脑损伤分火器伤与非火器伤两类。平时以后者为多见，如刀、斧砍伤等；战时颅脑损...", "lemmaUrl": "http://baike.baidu.com/item/%E7%81%AB%E5%99%A8%E6%80%A7%E9%A2%85%E8%84%91%E6%8D%9F%E4%BC%A4/10193345", "lemmaPic": []}, {"lemmaId": 12428912, "lemmaTitle": "新生儿红细胞增多症-高黏滞度综合征", "lemmaCroppedTitle": "新生儿红细胞增多症-高黏滞度综合征", "lemmaDesc": "新生儿红细胞增多症-高黏滞度综合征是新生儿期常见的问题，其确切的病因、病理生理、...", "lemmaUrl": "http://baike.baidu.com/item/%E6%96%B0%E7%94%9F%E5%84%BF%E7%BA%A2%E7%BB%86%E8%83%9E%E5%A2%9E%E5%A4%9A%E7%97%87-%E9%AB%98%E9%BB%8F%E6%BB%9E%E5%BA%A6%E7%BB%BC%E5%90%88%E5%BE%81/12428912", "lemmaPic": []}, {"lemmaId": 16972800, "lemmaTitle": "大脑脓肿", "lemmaCroppedTitle": "大脑脓肿", "lemmaDesc": "脑脓肿是指化脓性细菌感染引起的化脓性脑炎、慢性肉芽肿及脑脓肿包膜形成，少部分也可...", "lemmaUrl": "http://baike.baidu.com/item/%E5%A4%A7%E8%84%91%E8%84%93%E8%82%BF/16972800", "lemmaPic": []}, {"lemmaId": 7261353, "lemmaTitle": "小儿卡肺囊虫肺炎", "lemmaCroppedTitle": "小儿卡肺囊虫肺炎", "lemmaDesc": "卡氏肺囊虫（PC）目前认为是原虫的一种，有关PC的生活史尚未完全了解，但已知属于...", "lemmaUrl": "http://baike.baidu.com/item/%E5%B0%8F%E5%84%BF%E5%8D%A1%E8%82%BA%E5%9B%8A%E8%99%AB%E8%82%BA%E7%82%8E/7261353", "lemmaPic": []}, {"lemmaId": 7730365, "lemmaTitle": "桡骨颈骨折和桡骨头骨骺分离", "lemmaCroppedTitle": "桡骨颈骨折和桡骨头骨骺分离", "lemmaDesc": "桡骨颈骨折大多发生在骨骺尚未闭合的少年和儿童，因此，为桡骨头骨骺分离。相反儿童极...", "lemmaUrl": "http://baike.baidu.com/item/%E6%A1%A1%E9%AA%A8%E9%A2%88%E9%AA%A8%E6%8A%98%E5%92%8C%E6%A1%A1%E9%AA%A8%E5%A4%B4%E9%AA%A8%E9%AA%BA%E5%88%86%E7%A6%BB/7730365", "lemmaPic": []}, {"lemmaId": 12428726, "lemmaTitle": "小儿脑挫裂伤", "lemmaCroppedTitle": "小儿脑挫裂伤", "lemmaDesc": "脑挫裂伤是严重的闭合性颅脑损伤导致脑组织在颅腔内滑动和碰撞，脑组织的变形和剪切应...", "lemmaUrl": "http://baike.baidu.com/item/%E5%B0%8F%E5%84%BF%E8%84%91%E6%8C%AB%E8%A3%82%E4%BC%A4/12428726", "lemmaPic": []}, {"lemmaId": 10085630, "lemmaTitle": "肩袖间隙分裂", "lemmaCroppedTitle": "肩袖间隙分裂", "lemmaDesc": "喙突外侧、肩胛下肌和冈上肌之间的肌间隙称肩袖间隙。该间隙内有疏松结缔组织，连接冈...", "lemmaUrl": "http://baike.baidu.com/item/%E8%82%A9%E8%A2%96%E9%97%B4%E9%9A%99%E5%88%86%E8%A3%82/10085630", "lemmaPic": []}, {"lemmaId": 12093428, "lemmaTitle": "小儿颅面骨畸形综合征", "lemmaCroppedTitle": "小儿颅面骨畸形综合征", "lemmaDesc": "颅面骨畸形综合征，又名Hallermann-Streiff综合征，H-S综合征，...", "lemmaUrl": "http://baike.baidu.com/item/%E5%B0%8F%E5%84%BF%E9%A2%85%E9%9D%A2%E9%AA%A8%E7%95%B8%E5%BD%A2%E7%BB%BC%E5%90%88%E5%BE%81/12093428", "lemmaPic": []}, {"lemmaId": 12428486, "lemmaTitle": "高脂蛋白血症Ⅰ型", "lemmaCroppedTitle": "高脂蛋白血症Ⅰ型", "lemmaDesc": "高脂蛋白血症Ⅰ型（外源性高三酰甘油血症、家族性脂肪诱发脂血症、高乳糜微粒血症）为...", "lemmaUrl": "http://baike.baidu.com/item/%E9%AB%98%E8%84%82%E8%9B%8B%E7%99%BD%E8%A1%80%E7%97%87%E2%85%A0%E5%9E%8B/12428486", "lemmaPic": []}, {"lemmaId": 2825192, "lemmaTitle": "小儿急进性肾小球肾炎", "lemmaCroppedTitle": "小儿急进性肾小球肾炎", "lemmaDesc": "急进性肾小球肾炎（RPGN），是一组病情发展急骤，由血尿蛋白尿迅速发展为少尿或无...", "lemmaUrl": "http://baike.baidu.com/item/%E5%B0%8F%E5%84%BF%E6%80%A5%E8%BF%9B%E6%80%A7%E8%82%BE%E5%B0%8F%E7%90%83%E8%82%BE%E7%82%8E/2825192", "lemmaPic": []}, {"lemmaId": 6425161, "lemmaTitle": "紫外线性眼炎", "lemmaCroppedTitle": "紫外线性眼炎", "lemmaDesc": "紫外线性眼炎为光损伤所致。是因角膜上皮细胞和结膜吸收大量而强烈的紫外线所引起的急...", "lemmaUrl": "http://baike.baidu.com/item/%E7%B4%AB%E5%A4%96%E7%BA%BF%E6%80%A7%E7%9C%BC%E7%82%8E/6425161", "lemmaPic": []}, {"lemmaId": 7252897, "lemmaTitle": "外阴神经纤维瘤", "lemmaCroppedTitle": "外阴神经纤维瘤", "lemmaDesc": "外阴神经纤维瘤为孤立的肿块，常位于大阴唇。外阴神经纤维瘤常为全身多发性神经纤维瘤...", "lemmaUrl": "http://baike.baidu.com/item/%E5%A4%96%E9%98%B4%E7%A5%9E%E7%BB%8F%E7%BA%A4%E7%BB%B4%E7%98%A4/7252897", "lemmaPic": []}, {"lemmaId": 6424938, "lemmaTitle": "原发性肝脂肪肉瘤", "lemmaCroppedTitle": "原发性肝脂肪肉瘤", "lemmaDesc": "原发性肝脂肪肉瘤极为罕见，是一种恶性软组织肿瘤，起源于脂肪母细胞向脂肪细胞分化的...", "lemmaUrl": "http://baike.baidu.com/item/%E5%8E%9F%E5%8F%91%E6%80%A7%E8%82%9D%E8%84%82%E8%82%AA%E8%82%89%E7%98%A4/6424938", "lemmaPic": []}, {"lemmaId": 12676958, "lemmaTitle": "颅内静脉窦闭塞性颅高压", "lemmaCroppedTitle": "颅内静脉窦闭塞性颅高压", "lemmaDesc": "颅内静脉窦闭塞性颅高压（intracranial hypertension du...", "lemmaUrl": "http://baike.baidu.com/item/%E9%A2%85%E5%86%85%E9%9D%99%E8%84%89%E7%AA%A6%E9%97%AD%E5%A1%9E%E6%80%A7%E9%A2%85%E9%AB%98%E5%8E%8B/12676958", "lemmaPic": []}, {"lemmaId": 10564992, "lemmaTitle": "小儿胱氨酸病", "lemmaCroppedTitle": "小儿胱氨酸病", "lemmaDesc": "胱氨酸尿症是一种家族性遗传性疾病，为常染色体隐性遗传病，是由近端肾小管上皮细胞及...", "lemmaUrl": "http://baike.baidu.com/item/%E5%B0%8F%E5%84%BF%E8%83%B1%E6%B0%A8%E9%85%B8%E7%97%85/10564992", "lemmaPic": []}, {"lemmaId": 12676616, "lemmaTitle": "小儿肺水肿", "lemmaCroppedTitle": "小儿肺水肿", "lemmaDesc": "肺水肿系指肺毛细血管内液体浸入到肺组织所造成的肺气体弥散障碍，引起呼吸困难及泡沫...", "lemmaUrl": "http://baike.baidu.com/item/%E5%B0%8F%E5%84%BF%E8%82%BA%E6%B0%B4%E8%82%BF/12676616", "lemmaPic": []}, {"lemmaId": 12000406, "lemmaTitle": "贝赫切特综合征伴发的精神障碍", "lemmaCroppedTitle": "贝赫切特综合征伴发的精神障碍", "lemmaDesc": "贝赫切特综合征即眼-口腔-生殖器三联症，又称白塞病，是以口腔、生殖器溃疡和虹膜睫...", "lemmaUrl": "http://baike.baidu.com/item/%E8%B4%9D%E8%B5%AB%E5%88%87%E7%89%B9%E7%BB%BC%E5%90%88%E5%BE%81%E4%BC%B4%E5%8F%91%E7%9A%84%E7%B2%BE%E7%A5%9E%E9%9A%9C%E7%A2%8D/12000406", "lemmaPic": []}, {"lemmaId": 10455239, "lemmaTitle": "朗格汉斯细胞肉芽肿病", "lemmaCroppedTitle": "朗格汉斯细胞肉芽肿病", "lemmaDesc": "朗格汉斯细胞肉芽肿病亦称嗜酸肉芽肿或组织细胞增多症X，属于朗格汉斯细胞组织细胞增...", "lemmaUrl": "http://baike.baidu.com/item/%E6%9C%97%E6%A0%BC%E6%B1%89%E6%96%AF%E7%BB%86%E8%83%9E%E8%82%89%E8%8A%BD%E8%82%BF%E7%97%85/10455239", "lemmaPic": []}, {"lemmaId": 8112899, "lemmaTitle": "脊髓刃器伤", "lemmaCroppedTitle": "脊髓刃器伤", "lemmaDesc": "脊髓刃器伤是指由尖锐、锋利的器械戳伤脊髓造成的开放性损伤。脊髓刃器伤多为不完全性...", "lemmaUrl": "http://baike.baidu.com/item/%E8%84%8A%E9%AB%93%E5%88%83%E5%99%A8%E4%BC%A4/8112899", "lemmaPic": []}, {"lemmaId": 2040692, "lemmaTitle": "新生儿肾静脉血栓", "lemmaCroppedTitle": "新生儿肾静脉血栓", "lemmaDesc": "新生儿肾静脉血栓（RVT）即新生儿肾静脉血栓形成，是指肾静脉主干和（或）分支血栓...", "lemmaUrl": "http://baike.baidu.com/item/%E6%96%B0%E7%94%9F%E5%84%BF%E8%82%BE%E9%9D%99%E8%84%89%E8%A1%80%E6%A0%93/2040692", "lemmaPic": []}, {"lemmaId": 19761974, "lemmaTitle": "产后腹直肌分离", "lemmaCroppedTitle": "产后腹直肌分离", "lemmaDesc": "妊娠时，尤其是到了妊娠晚期，增大的子宫会使腹壁扩张延伸，两侧的腹直肌会从腹中线―...", "lemmaUrl": "http://baike.baidu.com/item/%E4%BA%A7%E5%90%8E%E8%85%B9%E7%9B%B4%E8%82%8C%E5%88%86%E7%A6%BB/19761974", "lemmaPic": []}, {"lemmaId": 4016022, "lemmaTitle": "小肠异物", "lemmaCroppedTitle": "小肠异物", "lemmaDesc": "小肠内异物多为误吞或故意吞服的各种物品，前者多见于儿童、精神异常或戴义齿者，后者...", "lemmaUrl": "http://baike.baidu.com/item/%E5%B0%8F%E8%82%A0%E5%BC%82%E7%89%A9/4016022", "lemmaPic": []}, {"lemmaId": 410068, "lemmaTitle": "小儿流感病毒肺炎", "lemmaCroppedTitle": "小儿流感病毒肺炎", "lemmaDesc": "流感病毒肺炎是一种严重的间质性肺炎，有时可侵犯中枢神经系统或循环系统，本病多发生...", "lemmaUrl": "http://baike.baidu.com/item/%E5%B0%8F%E5%84%BF%E6%B5%81%E6%84%9F%E7%97%85%E6%AF%92%E8%82%BA%E7%82%8E/410068", "lemmaPic": []}, {"lemmaId": 7254051, "lemmaTitle": "副神经损伤与卡压", "lemmaCroppedTitle": "副神经损伤与卡压", "lemmaDesc": "副神经损伤绝大多数为手术误伤，一旦损伤，斜方肌即发生麻痹，引起一定的畸形和严重功...", "lemmaUrl": "http://baike.baidu.com/item/%E5%89%AF%E7%A5%9E%E7%BB%8F%E6%8D%9F%E4%BC%A4%E4%B8%8E%E5%8D%A1%E5%8E%8B/7254051", "lemmaPic": []}, {"lemmaId": 12428920, "lemmaTitle": "新生儿获得性免疫缺陷综合征", "lemmaCroppedTitle": "新生儿获得性免疫缺陷综合征", "lemmaDesc": "人类免疫缺陷病毒感染即艾滋病，又称获得性免疫缺陷综合征（AIDS），是由人类免疫...", "lemmaUrl": "http://baike.baidu.com/item/%E6%96%B0%E7%94%9F%E5%84%BF%E8%8E%B7%E5%BE%97%E6%80%A7%E5%85%8D%E7%96%AB%E7%BC%BA%E9%99%B7%E7%BB%BC%E5%90%88%E5%BE%81/12428920", "lemmaPic": []}, {"lemmaId": 12630010, "lemmaTitle": "小儿蛔虫性肠梗阻", "lemmaCroppedTitle": "小儿蛔虫性肠梗阻", "lemmaDesc": "蛔虫是儿童期消化道常见的寄生虫，是儿童期肠梗阻的主要原因之一。蛔虫症是我国人体最...", "lemmaUrl": "http://baike.baidu.com/item/%E5%B0%8F%E5%84%BF%E8%9B%94%E8%99%AB%E6%80%A7%E8%82%A0%E6%A2%97%E9%98%BB/12630010", "lemmaPic": []}, {"lemmaId": 2202166, "lemmaTitle": "单侧关节突关节脱位", "lemmaCroppedTitle": "单侧关节突关节脱位", "lemmaDesc": "单侧关节突关节脱位是较为常见的损伤，通常是由屈曲暴力和旋转暴力协同作用所致。X线...", "lemmaUrl": "http://baike.baidu.com/item/%E5%8D%95%E4%BE%A7%E5%85%B3%E8%8A%82%E7%AA%81%E5%85%B3%E8%8A%82%E8%84%B1%E4%BD%8D/2202166", "lemmaPic": []}, {"lemmaId": 12428474, "lemmaTitle": "语言和语言发育障碍", "lemmaCroppedTitle": "语言和语言发育障碍", "lemmaDesc": "语言和语言发育障碍指各种原因引起的理解表达、和交流过程出现障碍，主要包括表达性语...", "lemmaUrl": "http://baike.baidu.com/item/%E8%AF%AD%E8%A8%80%E5%92%8C%E8%AF%AD%E8%A8%80%E5%8F%91%E8%82%B2%E9%9A%9C%E7%A2%8D/12428474", "lemmaPic": []}, {"lemmaId": 12428466, "lemmaTitle": "血吸虫病与肝胆疾病", "lemmaCroppedTitle": "血吸虫病与肝胆疾病", "lemmaDesc": "血吸虫病是危害人类健康的严重寄生虫病，历史久远且流行广泛。人体因接触疫水而感染，...", "lemmaUrl": "http://baike.baidu.com/item/%E8%A1%80%E5%90%B8%E8%99%AB%E7%97%85%E4%B8%8E%E8%82%9D%E8%83%86%E7%96%BE%E7%97%85/12428466", "lemmaPic": []}, {"lemmaId": 12021739, "lemmaTitle": "口腔鲜红色乳头瘤病", "lemmaCroppedTitle": "口腔鲜红色乳头瘤病", "lemmaDesc": "口腔鲜红色乳头瘤病为好发于口腔黏膜的弥漫性乳头瘤病。口腔鳞状上皮的乳头瘤增殖，可...", "lemmaUrl": "http://baike.baidu.com/item/%E5%8F%A3%E8%85%94%E9%B2%9C%E7%BA%A2%E8%89%B2%E4%B9%B3%E5%A4%B4%E7%98%A4%E7%97%85/12021739", "lemmaPic": []}, {"lemmaId": 12630013, "lemmaTitle": "小儿慢性硬膜下血肿", "lemmaCroppedTitle": "小儿慢性硬膜下血肿", "lemmaDesc": "硬脑膜下血肿是指由于外伤或凝血功能障碍引起硬膜下的出血,血液在蛛网膜和硬脑膜之间...", "lemmaUrl": "http://baike.baidu.com/item/%E5%B0%8F%E5%84%BF%E6%85%A2%E6%80%A7%E7%A1%AC%E8%86%9C%E4%B8%8B%E8%A1%80%E8%82%BF/12630013", "lemmaPic": []}, {"lemmaId": 12428928, "lemmaTitle": "冷球蛋白血症血管炎", "lemmaCroppedTitle": "冷球蛋白血症血管炎", "lemmaDesc": "冷球蛋白是免疫球蛋白，其遇冷沉淀遇温再溶解。已知有三种不同类型的冷球蛋白：Ⅰ型，...", "lemmaUrl": "http://baike.baidu.com/item/%E5%86%B7%E7%90%83%E8%9B%8B%E7%99%BD%E8%A1%80%E7%97%87%E8%A1%80%E7%AE%A1%E7%82%8E/12428928", "lemmaPic": []}, {"lemmaId": 12676558, "lemmaTitle": "小儿神经皮肤综合征", "lemmaCroppedTitle": "小儿神经皮肤综合征", "lemmaDesc": "神经皮肤综合征是一组起源于外胚层的组织和器官的发育异常，特别是皮肤、神经和眼睛的...", "lemmaUrl": "http://baike.baidu.com/item/%E5%B0%8F%E5%84%BF%E7%A5%9E%E7%BB%8F%E7%9A%AE%E8%82%A4%E7%BB%BC%E5%90%88%E5%BE%81/12676558", "lemmaPic": []}, {"lemmaId": 4991356, "lemmaTitle": "老年人肺栓塞", "lemmaCroppedTitle": "老年人肺栓塞", "lemmaDesc": "老年人肺栓塞常见的症状为呼吸困难、胸痛、心动过速和呼吸急促。所有病人至少出现胸痛...", "lemmaUrl": "http://baike.baidu.com/item/%E8%80%81%E5%B9%B4%E4%BA%BA%E8%82%BA%E6%A0%93%E5%A1%9E/4991356", "lemmaPic": []}, {"lemmaId": 7254767, "lemmaTitle": "软骨外胚层发育不全", "lemmaCroppedTitle": "软骨外胚层发育不全", "lemmaDesc": "软骨外胚层发育不全于1940年首先由Ellis和Van Creveld报道，故常...", "lemmaUrl": "http://baike.baidu.com/item/%E8%BD%AF%E9%AA%A8%E5%A4%96%E8%83%9A%E5%B1%82%E5%8F%91%E8%82%B2%E4%B8%8D%E5%85%A8/7254767", "lemmaPic": []}, {"lemmaId": 10681810, "lemmaTitle": "冠状动脉异常起源主动脉", "lemmaCroppedTitle": "冠状动脉异常起源主动脉", "lemmaDesc": "无论是两支或单支冠状动脉的左或右冠状动脉异常起源于不相应的主动脉窦，也就是左冠状...", "lemmaUrl": "http://baike.baidu.com/item/%E5%86%A0%E7%8A%B6%E5%8A%A8%E8%84%89%E5%BC%82%E5%B8%B8%E8%B5%B7%E6%BA%90%E4%B8%BB%E5%8A%A8%E8%84%89/10681810", "lemmaPic": []}, {"lemmaId": 12676630, "lemmaTitle": "小儿单纯肺动脉口狭窄", "lemmaCroppedTitle": "小儿单纯肺动脉口狭窄", "lemmaDesc": "单纯肺动脉口狭窄是指肺动脉瓣或漏斗部狭窄而室间隔完整的先天性畸形。肺动脉狭窄是右...", "lemmaUrl": "http://baike.baidu.com/item/%E5%B0%8F%E5%84%BF%E5%8D%95%E7%BA%AF%E8%82%BA%E5%8A%A8%E8%84%89%E5%8F%A3%E7%8B%AD%E7%AA%84/12676630", "lemmaPic": []}, {"lemmaId": 18277559, "lemmaTitle": "乳腺佩吉特病", "lemmaCroppedTitle": "乳腺佩吉特病", "lemmaDesc": "乳腺佩吉特病是一种特殊类型乳腺癌，又名湿疹样乳腺癌，其特征性的临床表现为乳头乳晕...", "lemmaUrl": "http://baike.baidu.com/item/%E4%B9%B3%E8%85%BA%E4%BD%A9%E5%90%89%E7%89%B9%E7%97%85/18277559", "lemmaPic": []}, {"lemmaId": 13551017, "lemmaTitle": "膀胱副神经节瘤", "lemmaCroppedTitle": "膀胱副神经节瘤", "lemmaDesc": "起源于膀胱壁副交感神经节组织的神经内分泌肿瘤，为膀胱非上皮性肿瘤。因这类细胞可被...", "lemmaUrl": "http://baike.baidu.com/item/%E8%86%80%E8%83%B1%E5%89%AF%E7%A5%9E%E7%BB%8F%E8%8A%82%E7%98%A4/13551017", "lemmaPic": []}, {"lemmaId": 13883808, "lemmaTitle": "高三综合征", "lemmaCroppedTitle": "高三综合征", "lemmaDesc": "是指高三学生面临激烈的高考竞争的压力，以及伴随着青春期成长肌体生化方面的变化，中...", "lemmaUrl": "http://baike.baidu.com/item/%E9%AB%98%E4%B8%89%E7%BB%BC%E5%90%88%E5%BE%81/13883808", "lemmaPic": []}, {"lemmaId": 12676871, "lemmaTitle": "外伤性脂肪坏死", "lemmaCroppedTitle": "外伤性脂肪坏死", "lemmaDesc": "外伤性脂肪坏死系外伤引起皮下脂肪坏死，往往有一段潜伏期。多见于中年女性，以50岁...", "lemmaUrl": "http://baike.baidu.com/item/%E5%A4%96%E4%BC%A4%E6%80%A7%E8%84%82%E8%82%AA%E5%9D%8F%E6%AD%BB/12676871", "lemmaPic": []}, {"lemmaId": 12676731, "lemmaTitle": "葡萄球菌中毒性休克综合征", "lemmaCroppedTitle": "葡萄球菌中毒性休克综合征", "lemmaDesc": "葡萄球菌中毒性休克综合征（STSS）于1978年国外首次报道，近年国内报道逐渐增...", "lemmaUrl": "http://baike.baidu.com/item/%E8%91%A1%E8%90%84%E7%90%83%E8%8F%8C%E4%B8%AD%E6%AF%92%E6%80%A7%E4%BC%91%E5%85%8B%E7%BB%BC%E5%90%88%E5%BE%81/12676731", "lemmaPic": []}, {"lemmaId": 12677372, "lemmaTitle": "小儿流涎症", "lemmaCroppedTitle": "小儿流涎症", "lemmaDesc": "小儿流涎也就是流口水，是指口中唾液不自觉从口内溢出的一种病症。一般而言，1岁以内...", "lemmaUrl": "http://baike.baidu.com/item/%E5%B0%8F%E5%84%BF%E6%B5%81%E6%B6%8E%E7%97%87/12677372", "lemmaPic": []}, {"lemmaId": 5297916, "lemmaTitle": "绝经与心血管疾病", "lemmaCroppedTitle": "绝经与心血管疾病", "lemmaDesc": "绝经前女性与同年龄组的男性相比，冠状动脉粥样硬化性心脏病的发生率与死亡率均明显低...", "lemmaUrl": "http://baike.baidu.com/item/%E7%BB%9D%E7%BB%8F%E4%B8%8E%E5%BF%83%E8%A1%80%E7%AE%A1%E7%96%BE%E7%97%85/5297916", "lemmaPic": []}, {"lemmaId": 7253179, "lemmaTitle": "脑卒中的外科治疗", "lemmaCroppedTitle": "脑卒中的外科治疗", "lemmaDesc": "脑的供应动脉狭窄或闭塞可引起缺血性脑卒中，严重者可引起死亡。缺血性脑卒中的发病率...", "lemmaUrl": "http://baike.baidu.com/item/%E8%84%91%E5%8D%92%E4%B8%AD%E7%9A%84%E5%A4%96%E7%A7%91%E6%B2%BB%E7%96%97/7253179", "lemmaPic": []}, {"lemmaId": 12810949, "lemmaTitle": "小儿蛋白质-能量营养不良", "lemmaCroppedTitle": "小儿蛋白质-能量营养不良", "lemmaDesc": "蛋白质-能量营养不良（protein-energy malnu-trition，...", "lemmaUrl": "http://baike.baidu.com/item/%E5%B0%8F%E5%84%BF%E8%9B%8B%E7%99%BD%E8%B4%A8-%E8%83%BD%E9%87%8F%E8%90%A5%E5%85%BB%E4%B8%8D%E8%89%AF/12810949", "lemmaPic": []}, {"lemmaId": 12630027, "lemmaTitle": "小儿颈椎融合综合征", "lemmaCroppedTitle": "小儿颈椎融合综合征", "lemmaDesc": "颈椎融合综合征系颈椎两节以上的先天性融合，又称Klippel-Feil综合征、短...", "lemmaUrl": "http://baike.baidu.com/item/%E5%B0%8F%E5%84%BF%E9%A2%88%E6%A4%8E%E8%9E%8D%E5%90%88%E7%BB%BC%E5%90%88%E5%BE%81/12630027", "lemmaPic": []}, {"lemmaId": 4241939, "lemmaTitle": "多肾盏畸形", "lemmaCroppedTitle": "多肾盏畸形", "lemmaDesc": "多肾盏畸形是一少见的先天性异常疾病，其主要病变为肾盏和肾盂位于肾实质之外。肾脏常...", "lemmaUrl": "http://baike.baidu.com/item/%E5%A4%9A%E8%82%BE%E7%9B%8F%E7%95%B8%E5%BD%A2/4241939", "lemmaPic": []}, {"lemmaId": 12428703, "lemmaTitle": "小儿尿路梗阻", "lemmaCroppedTitle": "小儿尿路梗阻", "lemmaDesc": "泌尿系统是一个管道系统，管腔通畅才能保持泌尿系统的正常功能，管腔发生梗阻就影响尿...", "lemmaUrl": "http://baike.baidu.com/item/%E5%B0%8F%E5%84%BF%E5%B0%BF%E8%B7%AF%E6%A2%97%E9%98%BB/12428703", "lemmaPic": []}, {"lemmaId": 7253195, "lemmaTitle": "交叉异位肾", "lemmaCroppedTitle": "交叉异位肾", "lemmaDesc": "交叉异位肾是一侧肾脏由原侧跨过中线到对侧，而其输尿管仍位于原侧。属先天性病变。异...", "lemmaUrl": "http://baike.baidu.com/item/%E4%BA%A4%E5%8F%89%E5%BC%82%E4%BD%8D%E8%82%BE/7253195", "lemmaPic": []}, {"lemmaId": 2920400, "lemmaTitle": "小儿肾结核", "lemmaCroppedTitle": "小儿肾结核", "lemmaDesc": "肾结核是指结核杆菌自肺部或其他器官结核灶，经血行播散到肾脏，引起的继发性感染。本...", "lemmaUrl": "http://baike.baidu.com/item/%E5%B0%8F%E5%84%BF%E8%82%BE%E7%BB%93%E6%A0%B8/2920400", "lemmaPic": []}, {"lemmaId": 18277504, "lemmaTitle": "X-连锁无丙种球蛋白血症", "lemmaCroppedTitle": "X-连锁无丙种球蛋白血症", "lemmaDesc": "X-连锁无丙种球蛋白血症为X-连锁隐性遗传病，是由于人类B细胞系列发育障碍引起的...", "lemmaUrl": "http://baike.baidu.com/item/X-%E8%BF%9E%E9%94%81%E6%97%A0%E4%B8%99%E7%A7%8D%E7%90%83%E8%9B%8B%E7%99%BD%E8%A1%80%E7%97%87/18277504", "lemmaPic": []}, {"lemmaId": 13883803, "lemmaTitle": "电损伤", "lemmaCroppedTitle": "电损伤", "lemmaDesc": "俗称触电，是指一定量的电流或电能通过人体，引起的一种全身性和局部性损伤，常发生于...", "lemmaUrl": "http://baike.baidu.com/item/%E7%94%B5%E6%8D%9F%E4%BC%A4/13883803", "lemmaPic": []}, {"lemmaId": 12700741, "lemmaTitle": "重金属沉着症", "lemmaCroppedTitle": "重金属沉着症", "lemmaDesc": "重金属沉着症多由于某些重金属，作为药品长期使用或因职业接触，重金属微粒沉积在真皮...", "lemmaUrl": "http://baike.baidu.com/item/%E9%87%8D%E9%87%91%E5%B1%9E%E6%B2%89%E7%9D%80%E7%97%87/12700741", "lemmaPic": []}, {"lemmaId": 7253369, "lemmaTitle": "老年人心房扑动", "lemmaCroppedTitle": "老年人心房扑动", "lemmaDesc": "心房扑动可以认为是在房性心动过速与心房颤动之间的中间型。当心房异位起搏点频率达到...", "lemmaUrl": "http://baike.baidu.com/item/%E8%80%81%E5%B9%B4%E4%BA%BA%E5%BF%83%E6%88%BF%E6%89%91%E5%8A%A8/7253369", "lemmaPic": []}, {"lemmaId": 12676535, "lemmaTitle": "小儿软组织肉瘤", "lemmaCroppedTitle": "小儿软组织肉瘤", "lemmaDesc": "肉瘤是一组少见的具有不同临床和病理特征的间叶组织来源的恶性肿瘤，分为两大类：软组...", "lemmaUrl": "http://baike.baidu.com/item/%E5%B0%8F%E5%84%BF%E8%BD%AF%E7%BB%84%E7%BB%87%E8%82%89%E7%98%A4/12676535", "lemmaPic": []}, {"lemmaId": 6425127, "lemmaTitle": "眼部淀粉样变性", "lemmaCroppedTitle": "眼部淀粉样变性", "lemmaDesc": "眼部淀粉样变性是由于蛋白代谢障碍出现的一种生理上不存在的均质性蛋白性物质，在眼睑...", "lemmaUrl": "http://baike.baidu.com/item/%E7%9C%BC%E9%83%A8%E6%B7%80%E7%B2%89%E6%A0%B7%E5%8F%98%E6%80%A7/6425127", "lemmaPic": []}, {"lemmaId": 5660961, "lemmaTitle": "泛发性特发性毛细血管扩张", "lemmaCroppedTitle": "泛发性特发性毛细血管扩张", "lemmaDesc": "泛发性特发性毛细血管扩张是以四肢、躯干皮肤大面积的小静脉和毛细血管扩张，不伴其他...", "lemmaUrl": "http://baike.baidu.com/item/%E6%B3%9B%E5%8F%91%E6%80%A7%E7%89%B9%E5%8F%91%E6%80%A7%E6%AF%9B%E7%BB%86%E8%A1%80%E7%AE%A1%E6%89%A9%E5%BC%A0/5660961", "lemmaPic": []}, {"lemmaId": 12677108, "lemmaTitle": "颅骨裂和有关畸形", "lemmaCroppedTitle": "颅骨裂和有关畸形", "lemmaDesc": "颅裂属先天发育异常，表现为颅缝闭合不全而遗留缺损，一般发生在颅盖骨或颅底骨的中线...", "lemmaUrl": "http://baike.baidu.com/item/%E9%A2%85%E9%AA%A8%E8%A3%82%E5%92%8C%E6%9C%89%E5%85%B3%E7%95%B8%E5%BD%A2/12677108", "lemmaPic": []}, {"lemmaId": 12000423, "lemmaTitle": "硬脑膜转移瘤", "lemmaCroppedTitle": "硬脑膜转移瘤", "lemmaDesc": "硬脑膜转移瘤（MM）又称脑膜癌病（MC）、癌性脑膜炎，是由于恶性肿瘤细胞在脑和脊...", "lemmaUrl": "http://baike.baidu.com/item/%E7%A1%AC%E8%84%91%E8%86%9C%E8%BD%AC%E7%A7%BB%E7%98%A4/12000423", "lemmaPic": []}, {"lemmaId": 12428707, "lemmaTitle": "小儿普通易变型免疫缺陷", "lemmaCroppedTitle": "小儿普通易变型免疫缺陷", "lemmaDesc": "普通易变型免疫缺陷即普通常见变异型免疫缺陷病(CVID），是一种常见的低丙种球蛋...", "lemmaUrl": "http://baike.baidu.com/item/%E5%B0%8F%E5%84%BF%E6%99%AE%E9%80%9A%E6%98%93%E5%8F%98%E5%9E%8B%E5%85%8D%E7%96%AB%E7%BC%BA%E9%99%B7/12428707", "lemmaPic": []}, {"lemmaId": 12428701, "lemmaTitle": "小儿尿感", "lemmaCroppedTitle": "小儿尿感", "lemmaDesc": "泌尿系感染简称尿感是由细菌直接侵入尿路而引起的炎症。感染可累及上、下泌尿道因定位...", "lemmaUrl": "http://baike.baidu.com/item/%E5%B0%8F%E5%84%BF%E5%B0%BF%E6%84%9F/12428701", "lemmaPic": []}, {"lemmaId": 12676615, "lemmaTitle": "小儿肺脓肿", "lemmaCroppedTitle": "小儿肺脓肿", "lemmaDesc": "肺脓肿是指由各种细菌感染引起的肺实质炎性病变、坏死、液化形成内含脓液的洞腔。主要...", "lemmaUrl": "http://baike.baidu.com/item/%E5%B0%8F%E5%84%BF%E8%82%BA%E8%84%93%E8%82%BF/12676615", "lemmaPic": []}, {"lemmaId": 12676642, "lemmaTitle": "小儿完全性肺静脉异位连接", "lemmaCroppedTitle": "小儿完全性肺静脉异位连接", "lemmaDesc": "完全性肺静脉异位连接是指所有的肺静脉直接或借道体静脉间接入右心房，占所有心血管畸...", "lemmaUrl": "http://baike.baidu.com/item/%E5%B0%8F%E5%84%BF%E5%AE%8C%E5%85%A8%E6%80%A7%E8%82%BA%E9%9D%99%E8%84%89%E5%BC%82%E4%BD%8D%E8%BF%9E%E6%8E%A5/12676642", "lemmaPic": []}, {"lemmaId": 12000407, "lemmaTitle": "精神活性物质伴发精神障碍", "lemmaCroppedTitle": "精神活性物质伴发精神障碍", "lemmaDesc": "精神活性物质伴发精神障碍包括酒依赖、阿片类物质依赖、镇静安眠药麻醉剂依赖、兴奋剂...", "lemmaUrl": "http://baike.baidu.com/item/%E7%B2%BE%E7%A5%9E%E6%B4%BB%E6%80%A7%E7%89%A9%E8%B4%A8%E4%BC%B4%E5%8F%91%E7%B2%BE%E7%A5%9E%E9%9A%9C%E7%A2%8D/12000407", "lemmaPic": []}, {"lemmaId": 10455227, "lemmaTitle": "缺血性多形性室性心动过速", "lemmaCroppedTitle": "缺血性多形性室性心动过速", "lemmaDesc": "缺血性多形性室性心动过速（IPVT）属Q-T间期正常型多形性室性心动过速中的一种...", "lemmaUrl": "http://baike.baidu.com/item/%E7%BC%BA%E8%A1%80%E6%80%A7%E5%A4%9A%E5%BD%A2%E6%80%A7%E5%AE%A4%E6%80%A7%E5%BF%83%E5%8A%A8%E8%BF%87%E9%80%9F/10455227", "lemmaPic": []}, {"lemmaId": 12428485, "lemmaTitle": "老年人梅毒性心脏病", "lemmaCroppedTitle": "老年人梅毒性心脏病", "lemmaDesc": "老年梅毒性心脏病是指梅毒螺旋体进入主动脉外层，导致主动脉炎，产生主动脉瘤、冠状动...", "lemmaUrl": "http://baike.baidu.com/item/%E8%80%81%E5%B9%B4%E4%BA%BA%E6%A2%85%E6%AF%92%E6%80%A7%E5%BF%83%E8%84%8F%E7%97%85/12428485", "lemmaPic": []}, {"lemmaId": 18277530, "lemmaTitle": "肌腱末端病", "lemmaCroppedTitle": "肌腱末端病", "lemmaDesc": "肌腱末端病是未定型脊柱关节病、强直性脊柱炎、赖特综合征、银屑病关节炎和反应性关节...", "lemmaUrl": "http://baike.baidu.com/item/%E8%82%8C%E8%85%B1%E6%9C%AB%E7%AB%AF%E7%97%85/18277530", "lemmaPic": []}, {"lemmaId": 7253269, "lemmaTitle": "慢性溃疡性非肉芽肿性空肠回肠炎", "lemmaCroppedTitle": "慢性溃疡性非肉芽肿性空肠回肠炎", "lemmaDesc": "本病病因未明。个别的口炎性腹泻的病人经给予免谷胶食品后，症状得以改善，但以后发展...", "lemmaUrl": "http://baike.baidu.com/item/%E6%85%A2%E6%80%A7%E6%BA%83%E7%96%A1%E6%80%A7%E9%9D%9E%E8%82%89%E8%8A%BD%E8%82%BF%E6%80%A7%E7%A9%BA%E8%82%A0%E5%9B%9E%E8%82%A0%E7%82%8E/7253269", "lemmaPic": []}, {"lemmaId": 7254738, "lemmaTitle": "臀上皮神经干痛", "lemmaCroppedTitle": "臀上皮神经干痛", "lemmaDesc": "临床上十分多见，多发于寒冷地区及体力劳动者，坑道作业者发病率尤高。臀上皮神经干系...", "lemmaUrl": "http://baike.baidu.com/item/%E8%87%80%E4%B8%8A%E7%9A%AE%E7%A5%9E%E7%BB%8F%E5%B9%B2%E7%97%9B/7254738", "lemmaPic": []}, {"lemmaId": 12428569, "lemmaTitle": "嗜水气单胞菌胃肠炎", "lemmaCroppedTitle": "嗜水气单胞菌胃肠炎", "lemmaDesc": "嗜水气单胞菌胃肠炎是由嗜水气单胞菌引起的肠道感染性腹泻。气单胞菌属目前共有10个...", "lemmaUrl": "http://baike.baidu.com/item/%E5%97%9C%E6%B0%B4%E6%B0%94%E5%8D%95%E8%83%9E%E8%8F%8C%E8%83%83%E8%82%A0%E7%82%8E/12428569", "lemmaPic": []}, {"lemmaId": 13883829, "lemmaTitle": "小儿轻度烧伤", "lemmaCroppedTitle": "小儿轻度烧伤", "lemmaDesc": "由于小儿在解剖生理上具有自己的特殊性，对于创面、休克、败血症等刺激反应与成人不同...", "lemmaUrl": "http://baike.baidu.com/item/%E5%B0%8F%E5%84%BF%E8%BD%BB%E5%BA%A6%E7%83%A7%E4%BC%A4/13883829", "lemmaPic": []}, {"lemmaId": 6425000, "lemmaTitle": "黏多糖贮积症Ⅳ型", "lemmaCroppedTitle": "黏多糖贮积症Ⅳ型", "lemmaDesc": "又称莫尔奎（Morquio）综合征、骨软骨营养不良、畸形性软骨营养不良、非典型性...", "lemmaUrl": "http://baike.baidu.com/item/%E9%BB%8F%E5%A4%9A%E7%B3%96%E8%B4%AE%E7%A7%AF%E7%97%87%E2%85%A3%E5%9E%8B/6425000", "lemmaPic": []}, {"lemmaId": 881462, "lemmaTitle": "食管其他恶性肿瘤", "lemmaCroppedTitle": "食管其他恶性肿瘤", "lemmaDesc": "食管其他恶性肿瘤中最多见的是鳞状上皮细胞癌（即食管癌），约占全部的95%以上，其...", "lemmaUrl": "http://baike.baidu.com/item/%E9%A3%9F%E7%AE%A1%E5%85%B6%E4%BB%96%E6%81%B6%E6%80%A7%E8%82%BF%E7%98%A4/881462", "lemmaPic": []}, {"lemmaId": 1517685, "lemmaTitle": "老年人扩张型心肌病", "lemmaCroppedTitle": "老年人扩张型心肌病", "lemmaDesc": "老年人扩张性心肌病（DCM）为心肌病的主要类型，占心肌病的70%～80%，既往称...", "lemmaUrl": "http://baike.baidu.com/item/%E8%80%81%E5%B9%B4%E4%BA%BA%E6%89%A9%E5%BC%A0%E5%9E%8B%E5%BF%83%E8%82%8C%E7%97%85/1517685", "lemmaPic": []}, {"lemmaId": 7253705, "lemmaTitle": "小儿假性甲状旁腺功能减低症", "lemmaCroppedTitle": "小儿假性甲状旁腺功能减低症", "lemmaDesc": "假性甲旁低是一种少见的家族性疾病，是靶细胞对PTH不完全或完全的无反应。临床具有...", "lemmaUrl": "http://baike.baidu.com/item/%E5%B0%8F%E5%84%BF%E5%81%87%E6%80%A7%E7%94%B2%E7%8A%B6%E6%97%81%E8%85%BA%E5%8A%9F%E8%83%BD%E5%87%8F%E4%BD%8E%E7%97%87/7253705", "lemmaPic": []}, {"lemmaId": 12676511, "lemmaTitle": "小儿基底细胞痣综合征", "lemmaCroppedTitle": "小儿基底细胞痣综合征", "lemmaDesc": "小儿基底细胞痣综合征为常染色体显性遗传性疾病，累及多种器官。临床包括有皮肤、牙，...", "lemmaUrl": "http://baike.baidu.com/item/%E5%B0%8F%E5%84%BF%E5%9F%BA%E5%BA%95%E7%BB%86%E8%83%9E%E7%97%A3%E7%BB%BC%E5%90%88%E5%BE%81/12676511", "lemmaPic": []}, {"lemmaId": 10226307, "lemmaTitle": "Bazin硬红斑", "lemmaCroppedTitle": "Bazin硬红斑", "lemmaDesc": "亦称Bazin病或结节性血管炎，为发生于双下肢或其他部位的红斑结节，可形成溃疡并...", "lemmaUrl": "http://baike.baidu.com/item/Bazin%E7%A1%AC%E7%BA%A2%E6%96%91/10226307", "lemmaPic": []}], "total": 7246, "totalPage": 73, "page": 66, "fromLemma": 0}