{"lemmaList": [{"lemmaId": 10727998, "lemmaTitle": "催乳素瘤", "lemmaCroppedTitle": "催乳素瘤", "lemmaDesc": "催乳素瘤也称泌乳素瘤,是指垂体分泌泌乳素（PRL）的肿瘤，在垂体功能性（有分泌性...", "lemmaUrl": "http://baike.baidu.com/item/%E5%82%AC%E4%B9%B3%E7%B4%A0%E7%98%A4/10727998", "lemmaPic": []}, {"lemmaId": 12677254, "lemmaTitle": "脑缺血性疾病", "lemmaCroppedTitle": "脑缺血性疾病", "lemmaDesc": "脑缺血性疾病是一组由多种原因导致大脑、小脑或脑干局部或多部位供血不足，从而引起相...", "lemmaUrl": "http://baike.baidu.com/item/%E8%84%91%E7%BC%BA%E8%A1%80%E6%80%A7%E7%96%BE%E7%97%85/12677254", "lemmaPic": []}, {"lemmaId": 7067775, "lemmaTitle": "Alagille综合征", "lemmaCroppedTitle": "Alagille综合征", "lemmaDesc": "Alagille综合征是具有表型特征的慢性胆汁淤积的最常见原因，是一种累及多系统...", "lemmaUrl": "http://baike.baidu.com/item/Alagille%E7%BB%BC%E5%90%88%E5%BE%81/7067775", "lemmaPic": []}, {"lemmaId": 5119701, "lemmaTitle": "肾石症", "lemmaCroppedTitle": "肾石症", "lemmaDesc": "肾石症指发生于肾盏、肾盂及肾盂与输尿管连接部的结石。多数位于肾盂肾盏内，肾实质结...", "lemmaUrl": "http://baike.baidu.com/item/%E8%82%BE%E7%9F%B3%E7%97%87/5119701", "lemmaPic": []}, {"lemmaId": 3293792, "lemmaTitle": "酸碱灼伤", "lemmaCroppedTitle": "酸碱灼伤", "lemmaDesc": "酸灼伤以硫酸、盐酸、硝酸最为多见，此外还有乙酸（冰醋酸）、氢氟酸、高氯酸和铬酸等...", "lemmaUrl": "http://baike.baidu.com/item/%E9%85%B8%E7%A2%B1%E7%81%BC%E4%BC%A4/3293792", "lemmaPic": []}, {"lemmaId": 4925252, "lemmaTitle": "主动脉瓣膜部狭窄", "lemmaCroppedTitle": "主动脉瓣膜部狭窄", "lemmaDesc": "主动脉瓣膜部狭窄，在先天性主动脉出口狭窄中最为常见，占60%。主要病变是主动脉瓣...", "lemmaUrl": "http://baike.baidu.com/item/%E4%B8%BB%E5%8A%A8%E8%84%89%E7%93%A3%E8%86%9C%E9%83%A8%E7%8B%AD%E7%AA%84/4925252", "lemmaPic": []}, {"lemmaId": 1028187, "lemmaTitle": "外阴脂肪瘤", "lemmaCroppedTitle": "外阴脂肪瘤", "lemmaDesc": "外阴脂肪瘤是由成熟脂肪细胞构成的良性肿瘤，生长于阴阜、阴唇或外阴其他脂肪组织处，...", "lemmaUrl": "http://baike.baidu.com/item/%E5%A4%96%E9%98%B4%E8%84%82%E8%82%AA%E7%98%A4/1028187", "lemmaPic": []}, {"lemmaId": 2246026, "lemmaTitle": "异位急性阑尾炎", "lemmaCroppedTitle": "异位急性阑尾炎", "lemmaDesc": "一种极常见的急腹症。阑尾炎分急性和慢性两种。急性阑尾炎可在各种年龄发生，发病率以...", "lemmaUrl": "http://baike.baidu.com/item/%E5%BC%82%E4%BD%8D%E6%80%A5%E6%80%A7%E9%98%91%E5%B0%BE%E7%82%8E/2246026", "lemmaPic": []}, {"lemmaId": 6698936, "lemmaTitle": "小儿原发性肾病综合征", "lemmaCroppedTitle": "小儿原发性肾病综合征", "lemmaDesc": "小儿原发性肾病综合征（NS）是一种常见的儿科肾脏疾病，是由于多种病因造成紧小球基...", "lemmaUrl": "http://baike.baidu.com/item/%E5%B0%8F%E5%84%BF%E5%8E%9F%E5%8F%91%E6%80%A7%E8%82%BE%E7%97%85%E7%BB%BC%E5%90%88%E5%BE%81/6698936", "lemmaPic": []}, {"lemmaId": 4272883, "lemmaTitle": "心脏横纹肌瘤", "lemmaCroppedTitle": "心脏横纹肌瘤", "lemmaDesc": "心脏横纹肌瘤（cardiac rhabdomyoma）是一种少见的伴有骨骼肌分化...", "lemmaUrl": "http://baike.baidu.com/item/%E5%BF%83%E8%84%8F%E6%A8%AA%E7%BA%B9%E8%82%8C%E7%98%A4/4272883", "lemmaPic": []}, {"lemmaId": 9848721, "lemmaTitle": "原发性鼻腔淋巴瘤", "lemmaCroppedTitle": "原发性鼻腔淋巴瘤", "lemmaDesc": "原发性鼻腔淋巴瘤是非霍奇金淋巴瘤的一种淋巴结外受累类型，较少见，在头颈部结外非霍...", "lemmaUrl": "http://baike.baidu.com/item/%E5%8E%9F%E5%8F%91%E6%80%A7%E9%BC%BB%E8%85%94%E6%B7%8B%E5%B7%B4%E7%98%A4/9848721", "lemmaPic": []}, {"lemmaId": 10778225, "lemmaTitle": "自体敏感性湿疹", "lemmaCroppedTitle": "自体敏感性湿疹", "lemmaDesc": "自体敏感性湿疹，又称自身敏感性皮炎。由于患者对自身内部或皮肤组织所产生的某些物质...", "lemmaUrl": "http://baike.baidu.com/item/%E8%87%AA%E4%BD%93%E6%95%8F%E6%84%9F%E6%80%A7%E6%B9%BF%E7%96%B9/10778225", "lemmaPic": []}, {"lemmaId": 1246711, "lemmaTitle": "乳腺肉瘤", "lemmaCroppedTitle": "乳腺肉瘤", "lemmaDesc": "乳腺肉瘤是指发生在乳腺间叶组织的恶性肿瘤。乳腺肉瘤按其来源基本上可分为纤维上皮性...", "lemmaUrl": "http://baike.baidu.com/item/%E4%B9%B3%E8%85%BA%E8%82%89%E7%98%A4/1246711", "lemmaPic": []}, {"lemmaId": 2601066, "lemmaTitle": "硬脑膜外脓肿", "lemmaCroppedTitle": "硬脑膜外脓肿", "lemmaDesc": "硬脑膜外脓肿指脓肿局限于颅骨与硬脑膜之间，临床上较少见。", "lemmaUrl": "http://baike.baidu.com/item/%E7%A1%AC%E8%84%91%E8%86%9C%E5%A4%96%E8%84%93%E8%82%BF/2601066", "lemmaPic": []}, {"lemmaId": 2807405, "lemmaTitle": "肝血管平滑肌脂肪瘤", "lemmaCroppedTitle": "肝血管平滑肌脂肪瘤", "lemmaDesc": "肝血管平滑肌脂肪瘤是一种含脂肪组织的肝脏良性肿瘤，包括平滑肌、血管及成熟型脂肪细...", "lemmaUrl": "http://baike.baidu.com/item/%E8%82%9D%E8%A1%80%E7%AE%A1%E5%B9%B3%E6%BB%91%E8%82%8C%E8%84%82%E8%82%AA%E7%98%A4/2807405", "lemmaPic": []}, {"lemmaId": 5360831, "lemmaTitle": "淋巴细胞脉络丛脑膜炎", "lemmaCroppedTitle": "淋巴细胞脉络丛脑膜炎", "lemmaDesc": "淋巴细胞脉络丛脑膜炎（LCM）系LCM病毒所致的急性传染病。本病的临床经过可有流...", "lemmaUrl": "http://baike.baidu.com/item/%E6%B7%8B%E5%B7%B4%E7%BB%86%E8%83%9E%E8%84%89%E7%BB%9C%E4%B8%9B%E8%84%91%E8%86%9C%E7%82%8E/5360831", "lemmaPic": []}, {"lemmaId": 6519049, "lemmaTitle": "结核性肠系膜淋巴结炎", "lemmaCroppedTitle": "结核性肠系膜淋巴结炎", "lemmaDesc": "结核性肠系膜淋巴结炎是由结核分枝杆菌感染所致。可为原发，也可继发于身体其他部位的...", "lemmaUrl": "http://baike.baidu.com/item/%E7%BB%93%E6%A0%B8%E6%80%A7%E8%82%A0%E7%B3%BB%E8%86%9C%E6%B7%8B%E5%B7%B4%E7%BB%93%E7%82%8E/6519049", "lemmaPic": []}, {"lemmaId": 7390368, "lemmaTitle": "背部弹力纤维瘤", "lemmaCroppedTitle": "背部弹力纤维瘤", "lemmaDesc": "背部弹力纤维瘤为罕见的良性肿瘤，可能与异常外伤有关。好发于老年女性，常在无意中发...", "lemmaUrl": "http://baike.baidu.com/item/%E8%83%8C%E9%83%A8%E5%BC%B9%E5%8A%9B%E7%BA%A4%E7%BB%B4%E7%98%A4/7390368", "lemmaPic": []}, {"lemmaId": 5085230, "lemmaTitle": "新生儿皮下坏疽", "lemmaCroppedTitle": "新生儿皮下坏疽", "lemmaDesc": "新生儿皮下坏疽是新生儿期特有的急性皮下组织的化脓性感染。绝大多数由金黄色葡萄球菌...", "lemmaUrl": "http://baike.baidu.com/item/%E6%96%B0%E7%94%9F%E5%84%BF%E7%9A%AE%E4%B8%8B%E5%9D%8F%E7%96%BD/5085230", "lemmaPic": []}, {"lemmaId": 367874, "lemmaTitle": "强碱类中毒", "lemmaCroppedTitle": "强碱类中毒", "lemmaDesc": "强碱类中毒多为直接溅洒于皮肤、黏膜、眼所致的刺激与强腐蚀、灼伤，误服也可中毒。强...", "lemmaUrl": "http://baike.baidu.com/item/%E5%BC%BA%E7%A2%B1%E7%B1%BB%E4%B8%AD%E6%AF%92/367874", "lemmaPic": []}, {"lemmaId": 1770991, "lemmaTitle": "眼睑血管瘤", "lemmaCroppedTitle": "眼睑血管瘤", "lemmaDesc": "眼睑血管瘤是一种血管组织的先天性发育异常，为常见的良性肿瘤之一。", "lemmaUrl": "http://baike.baidu.com/item/%E7%9C%BC%E7%9D%91%E8%A1%80%E7%AE%A1%E7%98%A4/1770991", "lemmaPic": []}, {"lemmaId": 5085625, "lemmaTitle": "损伤性休克", "lemmaCroppedTitle": "损伤性休克", "lemmaDesc": "严重创伤特别是在伴有一定量出血时常引起休克，称为损伤性休克。损伤性休克多见于一些...", "lemmaUrl": "http://baike.baidu.com/item/%E6%8D%9F%E4%BC%A4%E6%80%A7%E4%BC%91%E5%85%8B/5085625", "lemmaPic": []}, {"lemmaId": 7909477, "lemmaTitle": "幼年性息肉", "lemmaCroppedTitle": "幼年性息肉", "lemmaDesc": "幼年性息肉是病理诊断，显微镜下息肉内为分化良好而大小不规则的腺体，腺上皮分化成熟...", "lemmaUrl": "http://baike.baidu.com/item/%E5%B9%BC%E5%B9%B4%E6%80%A7%E6%81%AF%E8%82%89/7909477", "lemmaPic": []}, {"lemmaId": 3602248, "lemmaTitle": "鼻恶性肉芽肿", "lemmaCroppedTitle": "鼻恶性肉芽肿", "lemmaDesc": "恶性肉芽肿多始于鼻部，之后渐延及面部中线，是一种以进行性坏死性溃疡为临床特征的少...", "lemmaUrl": "http://baike.baidu.com/item/%E9%BC%BB%E6%81%B6%E6%80%A7%E8%82%89%E8%8A%BD%E8%82%BF/3602248", "lemmaPic": []}, {"lemmaId": 2464030, "lemmaTitle": "主动脉瓣闭锁不全", "lemmaCroppedTitle": "主动脉瓣闭锁不全", "lemmaDesc": "主动脉瓣关闭不全主要由风湿性主动脉瓣膜炎造成，也可由感染性主动脉瓣膜炎，以及主动...", "lemmaUrl": "http://baike.baidu.com/item/%E4%B8%BB%E5%8A%A8%E8%84%89%E7%93%A3%E9%97%AD%E9%94%81%E4%B8%8D%E5%85%A8/2464030", "lemmaPic": []}, {"lemmaId": 9887213, "lemmaTitle": "小儿颅内肿瘤", "lemmaCroppedTitle": "小儿颅内肿瘤", "lemmaDesc": "颅内肿瘤是小儿时期比较常见的肿瘤之一，因为小儿颅内肿瘤恶性者多较良性肿瘤位置深在...", "lemmaUrl": "http://baike.baidu.com/item/%E5%B0%8F%E5%84%BF%E9%A2%85%E5%86%85%E8%82%BF%E7%98%A4/9887213", "lemmaPic": []}, {"lemmaId": 7253877, "lemmaTitle": "小儿髓母细胞瘤", "lemmaCroppedTitle": "小儿髓母细胞瘤", "lemmaDesc": "髓母细胞瘤是小儿较常见的颅内肿瘤，是中枢神经系统恶性程度最高的肿瘤之一。本病从新...", "lemmaUrl": "http://baike.baidu.com/item/%E5%B0%8F%E5%84%BF%E9%AB%93%E6%AF%8D%E7%BB%86%E8%83%9E%E7%98%A4/7253877", "lemmaPic": []}, {"lemmaId": 2893646, "lemmaTitle": "胫腓骨骨干骨折", "lemmaCroppedTitle": "胫腓骨骨干骨折", "lemmaDesc": "胫、腓骨骨干骨折，在全身骨折中约占13.7%。10岁以下儿童尤为多见。其中以胫、...", "lemmaUrl": "http://baike.baidu.com/item/%E8%83%AB%E8%85%93%E9%AA%A8%E9%AA%A8%E5%B9%B2%E9%AA%A8%E6%8A%98/2893646", "lemmaPic": []}, {"lemmaId": 10182693, "lemmaTitle": "花粉过敏性哮喘", "lemmaCroppedTitle": "花粉过敏性哮喘", "lemmaDesc": "空气中飘散的各种致敏花粉是引起变应性哮喘的一组重要变应原，目前已知可以引起人类致...", "lemmaUrl": "http://baike.baidu.com/item/%E8%8A%B1%E7%B2%89%E8%BF%87%E6%95%8F%E6%80%A7%E5%93%AE%E5%96%98/10182693", "lemmaPic": []}, {"lemmaId": 4202840, "lemmaTitle": "大脑镰旁脑膜瘤", "lemmaCroppedTitle": "大脑镰旁脑膜瘤", "lemmaDesc": "大脑镰旁脑膜瘤是指位于大脑纵裂并与大脑镰相连的一类临床上常见的脑膜瘤，常突入一侧...", "lemmaUrl": "http://baike.baidu.com/item/%E5%A4%A7%E8%84%91%E9%95%B0%E6%97%81%E8%84%91%E8%86%9C%E7%98%A4/4202840", "lemmaPic": []}, {"lemmaId": 11006808, "lemmaTitle": "煎厥", "lemmaCroppedTitle": "煎厥", "lemmaDesc": "厥证是由多种原因引起的，以气机逆乱，升降失调，气血阴阳不相接续为基本病机，以突然...", "lemmaUrl": "http://baike.baidu.com/item/%E7%85%8E%E5%8E%A5/11006808", "lemmaPic": []}, {"lemmaId": 3667882, "lemmaTitle": "假性甲状旁腺功能减退症", "lemmaCroppedTitle": "假性甲状旁腺功能减退症", "lemmaDesc": "假性甲状旁腺功能减退是一种具有甲状旁腺功能减退症的症状和特征性体征的遗传性疾病。...", "lemmaUrl": "http://baike.baidu.com/item/%E5%81%87%E6%80%A7%E7%94%B2%E7%8A%B6%E6%97%81%E8%85%BA%E5%8A%9F%E8%83%BD%E5%87%8F%E9%80%80%E7%97%87/3667882", "lemmaPic": []}, {"lemmaId": 799754, "lemmaTitle": "基底细胞腺瘤", "lemmaCroppedTitle": "基底细胞腺瘤", "lemmaDesc": "基底细胞腺瘤为涎腺上皮性良性肿瘤。基底细胞腺瘤的组织来源是闰管细胞或储备细胞。基...", "lemmaUrl": "http://baike.baidu.com/item/%E5%9F%BA%E5%BA%95%E7%BB%86%E8%83%9E%E8%85%BA%E7%98%A4/799754", "lemmaPic": []}, {"lemmaId": 2157079, "lemmaTitle": "爆震性耳聋", "lemmaCroppedTitle": "爆震性耳聋", "lemmaDesc": "又名间断脉冲噪音损伤，是由脉冲噪声对听觉器官的伤害造成的。常伴有压力波，往往会造...", "lemmaUrl": "http://baike.baidu.com/item/%E7%88%86%E9%9C%87%E6%80%A7%E8%80%B3%E8%81%8B/2157079", "lemmaPic": []}, {"lemmaId": 12630035, "lemmaTitle": "先天性高弓足", "lemmaCroppedTitle": "先天性高弓足", "lemmaDesc": "先天性高弓足（Congenital Cavus）又称爪形足，是一种以足纵弓较高为...", "lemmaUrl": "http://baike.baidu.com/item/%E5%85%88%E5%A4%A9%E6%80%A7%E9%AB%98%E5%BC%93%E8%B6%B3/12630035", "lemmaPic": []}, {"lemmaId": 13551014, "lemmaTitle": "小儿急性喉、气管、支气管炎", "lemmaCroppedTitle": "小儿急性喉、气管、支气管炎", "lemmaDesc": "急性喉、气管、支气管炎是指由病毒或细菌感染所致。喉、气管、支气管急性弥漫性炎症。...", "lemmaUrl": "http://baike.baidu.com/item/%E5%B0%8F%E5%84%BF%E6%80%A5%E6%80%A7%E5%96%89%E3%80%81%E6%B0%94%E7%AE%A1%E3%80%81%E6%94%AF%E6%B0%94%E7%AE%A1%E7%82%8E/13551014", "lemmaPic": []}, {"lemmaId": 347925, "lemmaTitle": "大网膜粘连综合征", "lemmaCroppedTitle": "大网膜粘连综合征", "lemmaDesc": "大网膜粘连综合征是指大网膜与下腹部切口附近腹膜和脏器发生粘连而引起的一系列特殊症...", "lemmaUrl": "http://baike.baidu.com/item/%E5%A4%A7%E7%BD%91%E8%86%9C%E7%B2%98%E8%BF%9E%E7%BB%BC%E5%90%88%E5%BE%81/347925", "lemmaPic": []}, {"lemmaId": 795588, "lemmaTitle": "青年性驼背", "lemmaCroppedTitle": "青年性驼背", "lemmaDesc": "本病是由于脊椎的负载能力与其承受的负荷的平衡失调引起，又名少年驼背症或休门病。1...", "lemmaUrl": "http://baike.baidu.com/item/%E9%9D%92%E5%B9%B4%E6%80%A7%E9%A9%BC%E8%83%8C/795588", "lemmaPic": []}, {"lemmaId": 11046743, "lemmaTitle": "肾静脉血栓", "lemmaCroppedTitle": "肾静脉血栓", "lemmaDesc": "肾静脉血栓形成（RVT）是指肾静脉主干和（或）分支内血栓形成，导致肾静脉部分或全...", "lemmaUrl": "http://baike.baidu.com/item/%E8%82%BE%E9%9D%99%E8%84%89%E8%A1%80%E6%A0%93/11046743", "lemmaPic": []}, {"lemmaId": 2775343, "lemmaTitle": "非阵发性窦性心动过速", "lemmaCroppedTitle": "非阵发性窦性心动过速", "lemmaDesc": "非阵发性窦性心动过速（NPST），又称特发性窦性心动过速（IST），是一种至今尚...", "lemmaUrl": "http://baike.baidu.com/item/%E9%9D%9E%E9%98%B5%E5%8F%91%E6%80%A7%E7%AA%A6%E6%80%A7%E5%BF%83%E5%8A%A8%E8%BF%87%E9%80%9F/2775343", "lemmaPic": []}, {"lemmaId": 15708594, "lemmaTitle": "18-三体综合征", "lemmaCroppedTitle": "18-三体综合征", "lemmaDesc": "本病又称爱得华斯（Edwards）综合征，发生率为活产新生儿的1/4000～1/...", "lemmaUrl": "http://baike.baidu.com/item/18-%E4%B8%89%E4%BD%93%E7%BB%BC%E5%90%88%E5%BE%81/15708594", "lemmaPic": []}, {"lemmaId": 1354245, "lemmaTitle": "肘内翻畸形", "lemmaCroppedTitle": "肘内翻畸形", "lemmaDesc": "肘内翻畸形是由于先天或后天因素造成尺骨轴线向内侧偏移，携物角&amp;lt;0°...", "lemmaUrl": "http://baike.baidu.com/item/%E8%82%98%E5%86%85%E7%BF%BB%E7%95%B8%E5%BD%A2/1354245", "lemmaPic": []}, {"lemmaId": 4004536, "lemmaTitle": "胸椎黄韧带骨化症", "lemmaCroppedTitle": "胸椎黄韧带骨化症", "lemmaDesc": "胸椎黄韧带骨化症多见于亚洲人，尤其是日本人常见，其发病率为5～25%。该病为一退...", "lemmaUrl": "http://baike.baidu.com/item/%E8%83%B8%E6%A4%8E%E9%BB%84%E9%9F%A7%E5%B8%A6%E9%AA%A8%E5%8C%96%E7%97%87/4004536", "lemmaPic": []}, {"lemmaId": 10502110, "lemmaTitle": "鼻硬结病", "lemmaCroppedTitle": "鼻硬结病", "lemmaDesc": "鼻硬结病是一种慢性进行性肉芽肿病变，常先发生于鼻部，缓慢向上唇、鼻咽、口咽、喉咽...", "lemmaUrl": "http://baike.baidu.com/item/%E9%BC%BB%E7%A1%AC%E7%BB%93%E7%97%85/10502110", "lemmaPic": []}, {"lemmaId": 1000641, "lemmaTitle": "幼年型类风湿性关节炎", "lemmaCroppedTitle": "幼年型类风湿性关节炎", "lemmaDesc": "幼年型类风湿关节炎即幼年型类风湿关节炎（JRA)，是小儿时期一种常见的结缔组织病...", "lemmaUrl": "http://baike.baidu.com/item/%E5%B9%BC%E5%B9%B4%E5%9E%8B%E7%B1%BB%E9%A3%8E%E6%B9%BF%E6%80%A7%E5%85%B3%E8%8A%82%E7%82%8E/1000641", "lemmaPic": []}, {"lemmaId": 2830557, "lemmaTitle": "耳后骨膜下脓肿", "lemmaCroppedTitle": "耳后骨膜下脓肿", "lemmaDesc": "慢性化脓性中耳乳突炎急性发作时，乳突腔内蓄积的脓液经乳突外侧骨皮质破坏处流入耳后...", "lemmaUrl": "http://baike.baidu.com/item/%E8%80%B3%E5%90%8E%E9%AA%A8%E8%86%9C%E4%B8%8B%E8%84%93%E8%82%BF/2830557", "lemmaPic": []}, {"lemmaId": 8480102, "lemmaTitle": "妊娠合并急性肾盂肾炎", "lemmaCroppedTitle": "妊娠合并急性肾盂肾炎", "lemmaDesc": "急性肾盂肾炎是妊娠期最常见而严重的并发症之一。一般是双侧感染，如果是单侧则以右侧...", "lemmaUrl": "http://baike.baidu.com/item/%E5%A6%8A%E5%A8%A0%E5%90%88%E5%B9%B6%E6%80%A5%E6%80%A7%E8%82%BE%E7%9B%82%E8%82%BE%E7%82%8E/8480102", "lemmaPic": []}, {"lemmaId": 8251889, "lemmaTitle": "非典型麻疹综合征", "lemmaCroppedTitle": "非典型麻疹综合征", "lemmaDesc": "非典型麻疹综合征是一种疾病，通常与以前曾接受过麻疹灭活疫苗（现已不再使用）免疫有...", "lemmaUrl": "http://baike.baidu.com/item/%E9%9D%9E%E5%85%B8%E5%9E%8B%E9%BA%BB%E7%96%B9%E7%BB%BC%E5%90%88%E5%BE%81/8251889", "lemmaPic": []}, {"lemmaId": 6900622, "lemmaTitle": "脉络膜脱离", "lemmaCroppedTitle": "脉络膜脱离", "lemmaDesc": "脉络膜脱离是指由于手术、外伤、炎症或眼内肿瘤等原因引起脉络膜上腔液体增多或出血，...", "lemmaUrl": "http://baike.baidu.com/item/%E8%84%89%E7%BB%9C%E8%86%9C%E8%84%B1%E7%A6%BB/6900622", "lemmaPic": []}, {"lemmaId": 9944419, "lemmaTitle": "顶叶肿瘤", "lemmaCroppedTitle": "顶叶肿瘤", "lemmaDesc": "顶叶肿瘤发生率较额、颞叶者低，肿瘤多为胶质瘤；其次为脑膜瘤；再其次为转移瘤。好发...", "lemmaUrl": "http://baike.baidu.com/item/%E9%A1%B6%E5%8F%B6%E8%82%BF%E7%98%A4/9944419", "lemmaPic": []}, {"lemmaId": 367704, "lemmaTitle": "有机氯杀虫剂中毒", "lemmaCroppedTitle": "有机氯杀虫剂中毒", "lemmaDesc": "有机氯杀虫剂可从呼吸道、消化道、皮肤进入体内，主要由肾脏排泄，粪及乳中也可排出少...", "lemmaUrl": "http://baike.baidu.com/item/%E6%9C%89%E6%9C%BA%E6%B0%AF%E6%9D%80%E8%99%AB%E5%89%82%E4%B8%AD%E6%AF%92/367704", "lemmaPic": []}, {"lemmaId": 9561372, "lemmaTitle": "急性中毒性脑炎", "lemmaCroppedTitle": "急性中毒性脑炎", "lemmaDesc": "急性中毒性脑炎亦称感染中毒性脑病，系急性感染毒素引起的一种脑部中毒性反应。多见于...", "lemmaUrl": "http://baike.baidu.com/item/%E6%80%A5%E6%80%A7%E4%B8%AD%E6%AF%92%E6%80%A7%E8%84%91%E7%82%8E/9561372", "lemmaPic": []}, {"lemmaId": 875476, "lemmaTitle": "慢性细菌性膀胱炎", "lemmaCroppedTitle": "慢性细菌性膀胱炎", "lemmaDesc": "慢性细菌性膀胱炎是一种常见的尿路感染性疾病，占尿路感染总数的50%～70%，常因...", "lemmaUrl": "http://baike.baidu.com/item/%E6%85%A2%E6%80%A7%E7%BB%86%E8%8F%8C%E6%80%A7%E8%86%80%E8%83%B1%E7%82%8E/875476", "lemmaPic": []}, {"lemmaId": 5120549, "lemmaTitle": "先天性主动脉瓣下狭窄", "lemmaCroppedTitle": "先天性主动脉瓣下狭窄", "lemmaDesc": "先天性主动脉瓣下狭窄在先天性左室流出道梗阻的病例中占3%～8%，仅次于主动脉瓣狭...", "lemmaUrl": "http://baike.baidu.com/item/%E5%85%88%E5%A4%A9%E6%80%A7%E4%B8%BB%E5%8A%A8%E8%84%89%E7%93%A3%E4%B8%8B%E7%8B%AD%E7%AA%84/5120549", "lemmaPic": []}, {"lemmaId": 8384436, "lemmaTitle": "瓜藤缠", "lemmaCroppedTitle": "瓜藤缠", "lemmaDesc": "瓜藤缠是以小腿起红斑结节，犹如藤系瓜果绕胫，鲜红至紫红色，大小不等，疼痛或压痛，...", "lemmaUrl": "http://baike.baidu.com/item/%E7%93%9C%E8%97%A4%E7%BC%A0/8384436", "lemmaPic": []}, {"lemmaId": 5317095, "lemmaTitle": "葡萄膜恶性黑色素瘤", "lemmaCroppedTitle": "葡萄膜恶性黑色素瘤", "lemmaDesc": "葡萄膜恶性黑色素瘤是成年人中最多见的一种恶性眼内肿瘤，在国外其发病率占眼内肿瘤的...", "lemmaUrl": "http://baike.baidu.com/item/%E8%91%A1%E8%90%84%E8%86%9C%E6%81%B6%E6%80%A7%E9%BB%91%E8%89%B2%E7%B4%A0%E7%98%A4/5317095", "lemmaPic": []}, {"lemmaId": 844473, "lemmaTitle": "肘关节骨化肌炎", "lemmaCroppedTitle": "肘关节骨化肌炎", "lemmaDesc": "创伤性骨化性肌炎指关节骨折或脱位后，在靠近关节的软组织出现骨化块，是关节损伤的严...", "lemmaUrl": "http://baike.baidu.com/item/%E8%82%98%E5%85%B3%E8%8A%82%E9%AA%A8%E5%8C%96%E8%82%8C%E7%82%8E/844473", "lemmaPic": []}, {"lemmaId": 600072, "lemmaTitle": "肩胛背神经卡压症", "lemmaCroppedTitle": "肩胛背神经卡压症", "lemmaDesc": "肩胛背神经是来自颈第5神经根，有的与胸长神经合干。肩胛背神经卡压表现为颈、肩、背...", "lemmaUrl": "http://baike.baidu.com/item/%E8%82%A9%E8%83%9B%E8%83%8C%E7%A5%9E%E7%BB%8F%E5%8D%A1%E5%8E%8B%E7%97%87/600072", "lemmaPic": []}, {"lemmaId": 12428586, "lemmaTitle": "食管黏膜损伤", "lemmaCroppedTitle": "食管黏膜损伤", "lemmaDesc": "食管黏膜损伤是常见的食管创伤之一，大多数因伤情不严重而疏忽。临床上可以自愈，较少...", "lemmaUrl": "http://baike.baidu.com/item/%E9%A3%9F%E7%AE%A1%E9%BB%8F%E8%86%9C%E6%8D%9F%E4%BC%A4/12428586", "lemmaPic": []}, {"lemmaId": 8843499, "lemmaTitle": "局限性骨脓肿", "lemmaCroppedTitle": "局限性骨脓肿", "lemmaDesc": "局限性骨脓肿通常发生于长骨的干骺端，多见于胫骨、股骨与肱骨。产生局限性脓肿的主要...", "lemmaUrl": "http://baike.baidu.com/item/%E5%B1%80%E9%99%90%E6%80%A7%E9%AA%A8%E8%84%93%E8%82%BF/8843499", "lemmaPic": []}, {"lemmaId": 3596694, "lemmaTitle": "阴道嗜血杆菌性阴道炎", "lemmaCroppedTitle": "阴道嗜血杆菌性阴道炎", "lemmaDesc": "过去对阴道炎患者的分泌物检查，未发现特异性病原体如滴虫或霉菌时，往往诊断为非特异...", "lemmaUrl": "http://baike.baidu.com/item/%E9%98%B4%E9%81%93%E5%97%9C%E8%A1%80%E6%9D%86%E8%8F%8C%E6%80%A7%E9%98%B4%E9%81%93%E7%82%8E/3596694", "lemmaPic": []}, {"lemmaId": 6274244, "lemmaTitle": "先天性肠闭锁", "lemmaCroppedTitle": "先天性肠闭锁", "lemmaDesc": "先天性肠闭锁在消化道畸形中不少见，为新生儿时期肠梗阻常见原因之一，占24%～32...", "lemmaUrl": "http://baike.baidu.com/item/%E5%85%88%E5%A4%A9%E6%80%A7%E8%82%A0%E9%97%AD%E9%94%81/6274244", "lemmaPic": []}, {"lemmaId": 241876, "lemmaTitle": "成人硬肿症", "lemmaCroppedTitle": "成人硬肿症", "lemmaDesc": "成人硬肿症是一种以突然发生弥漫性对称性皮肤发硬为特征的少见病，多发生于感染性疾病...", "lemmaUrl": "http://baike.baidu.com/item/%E6%88%90%E4%BA%BA%E7%A1%AC%E8%82%BF%E7%97%87/241876", "lemmaPic": []}, {"lemmaId": 7721447, "lemmaTitle": "梅毒性关节炎", "lemmaCroppedTitle": "梅毒性关节炎", "lemmaDesc": "梅毒性关节炎一般发病于20～40岁。有的患者在感染梅毒后，经过10年以上潜伏期后...", "lemmaUrl": "http://baike.baidu.com/item/%E6%A2%85%E6%AF%92%E6%80%A7%E5%85%B3%E8%8A%82%E7%82%8E/7721447", "lemmaPic": []}, {"lemmaId": 1592427, "lemmaTitle": "闭经溢乳综合征", "lemmaCroppedTitle": "闭经溢乳综合征", "lemmaDesc": "非妊娠及哺乳期妇女，或妇女停止授乳1年后，出现持续性溢乳且伴有闭经者，包括不同的...", "lemmaUrl": "http://baike.baidu.com/item/%E9%97%AD%E7%BB%8F%E6%BA%A2%E4%B9%B3%E7%BB%BC%E5%90%88%E5%BE%81/1592427", "lemmaPic": []}, {"lemmaId": 10017589, "lemmaTitle": "肠系膜血管缺血性疾病", "lemmaCroppedTitle": "肠系膜血管缺血性疾病", "lemmaDesc": "肠系膜血管缺血性疾病是由各种原因引起肠道急性或慢性血流灌注不足、回流受阻所致的肠...", "lemmaUrl": "http://baike.baidu.com/item/%E8%82%A0%E7%B3%BB%E8%86%9C%E8%A1%80%E7%AE%A1%E7%BC%BA%E8%A1%80%E6%80%A7%E7%96%BE%E7%97%85/10017589", "lemmaPic": []}, {"lemmaId": 1027037, "lemmaTitle": "新生儿心肌炎", "lemmaCroppedTitle": "新生儿心肌炎", "lemmaDesc": "新生儿心肌炎是在新生儿期由多种因素引起的心肌损害，导致不同程度的心肌功能障碍和全...", "lemmaUrl": "http://baike.baidu.com/item/%E6%96%B0%E7%94%9F%E5%84%BF%E5%BF%83%E8%82%8C%E7%82%8E/1027037", "lemmaPic": []}, {"lemmaId": 7934420, "lemmaTitle": "沙眼衣原体肺炎", "lemmaCroppedTitle": "沙眼衣原体肺炎", "lemmaDesc": "沙眼衣原体肺炎是由沙眼衣原体引起的肺部炎症。沙眼衣原体主要是人类沙眼和生殖系统感...", "lemmaUrl": "http://baike.baidu.com/item/%E6%B2%99%E7%9C%BC%E8%A1%A3%E5%8E%9F%E4%BD%93%E8%82%BA%E7%82%8E/7934420", "lemmaPic": []}, {"lemmaId": 4012587, "lemmaTitle": "青春期发育迟缓", "lemmaCroppedTitle": "青春期发育迟缓", "lemmaDesc": "青春期发育迟缓在女性中亦称初潮延迟。大约1%的女孩在18岁时尚无月经，而以后又逐...", "lemmaUrl": "http://baike.baidu.com/item/%E9%9D%92%E6%98%A5%E6%9C%9F%E5%8F%91%E8%82%B2%E8%BF%9F%E7%BC%93/4012587", "lemmaPic": []}, {"lemmaId": 5242874, "lemmaTitle": "食管失弛缓症", "lemmaCroppedTitle": "食管失弛缓症", "lemmaDesc": "食管失弛缓症是一种原发性全食管运动功能障碍性疾病，特征是：①食管体部无蠕动；②吞...", "lemmaUrl": "http://baike.baidu.com/item/%E9%A3%9F%E7%AE%A1%E5%A4%B1%E5%BC%9B%E7%BC%93%E7%97%87/5242874", "lemmaPic": []}, {"lemmaId": 5321375, "lemmaTitle": "口腔颌面部软组织损伤", "lemmaCroppedTitle": "口腔颌面部软组织损伤", "lemmaDesc": "口腔颌面部软组织损伤从损伤的类型可分为擦伤、挫伤、刺伤、撕裂伤和撕脱伤等；从损伤...", "lemmaUrl": "http://baike.baidu.com/item/%E5%8F%A3%E8%85%94%E9%A2%8C%E9%9D%A2%E9%83%A8%E8%BD%AF%E7%BB%84%E7%BB%87%E6%8D%9F%E4%BC%A4/5321375", "lemmaPic": []}, {"lemmaId": 2238595, "lemmaTitle": "特发性滴状色素减少症", "lemmaCroppedTitle": "特发性滴状色素减少症", "lemmaDesc": "特发性滴状色素减少症于1966年首先由Cummings及Cottel命名，又称为...", "lemmaUrl": "http://baike.baidu.com/item/%E7%89%B9%E5%8F%91%E6%80%A7%E6%BB%B4%E7%8A%B6%E8%89%B2%E7%B4%A0%E5%87%8F%E5%B0%91%E7%97%87/2238595", "lemmaPic": []}, {"lemmaId": 5121790, "lemmaTitle": "粪类圆线虫病", "lemmaCroppedTitle": "粪类圆线虫病", "lemmaDesc": "粪类圆线虫是一种兼性寄生虫。生活史包括自生世代和寄生世代，自生世代在土壤中进行；...", "lemmaUrl": "http://baike.baidu.com/item/%E7%B2%AA%E7%B1%BB%E5%9C%86%E7%BA%BF%E8%99%AB%E7%97%85/5121790", "lemmaPic": []}, {"lemmaId": 3165663, "lemmaTitle": "老年性舞蹈病", "lemmaCroppedTitle": "老年性舞蹈病", "lemmaDesc": "老年性舞蹈病是指发生于60岁以上老年人，其尾核及壳核大，小神经细胞变性，大脑皮质...", "lemmaUrl": "http://baike.baidu.com/item/%E8%80%81%E5%B9%B4%E6%80%A7%E8%88%9E%E8%B9%88%E7%97%85/3165663", "lemmaPic": []}, {"lemmaId": 7572631, "lemmaTitle": "士的宁中毒", "lemmaCroppedTitle": "士的宁中毒", "lemmaDesc": "士的宁（番木鳖碱）是由马钱子（番木鳖）中提取的一种生物碱，常用者为硝酸士的宁。士...", "lemmaUrl": "http://baike.baidu.com/item/%E5%A3%AB%E7%9A%84%E5%AE%81%E4%B8%AD%E6%AF%92/7572631", "lemmaPic": []}, {"lemmaId": 10268195, "lemmaTitle": "戒酒综合征", "lemmaCroppedTitle": "戒酒综合征", "lemmaDesc": "戒酒综合征发生在长期（2～3周以上）大量饮酒而突然停止饮酒或明显减量时，患者随即...", "lemmaUrl": "http://baike.baidu.com/item/%E6%88%92%E9%85%92%E7%BB%BC%E5%90%88%E5%BE%81/10268195", "lemmaPic": []}, {"lemmaId": 231769, "lemmaTitle": "支气管源性囊肿", "lemmaCroppedTitle": "支气管源性囊肿", "lemmaDesc": "支气管源性囊肿是指先天性的呼吸系统发育异常所引起的一种囊性肿物，又称支气管囊肿。...", "lemmaUrl": "http://baike.baidu.com/item/%E6%94%AF%E6%B0%94%E7%AE%A1%E6%BA%90%E6%80%A7%E5%9B%8A%E8%82%BF/231769", "lemmaPic": []}, {"lemmaId": 5240992, "lemmaTitle": "十二指肠损伤", "lemmaCroppedTitle": "十二指肠损伤", "lemmaDesc": "十二指肠损伤是一种严重的腹内伤，占腹内脏器伤的3%～5%。十二指肠与肝、胆、胰及...", "lemmaUrl": "http://baike.baidu.com/item/%E5%8D%81%E4%BA%8C%E6%8C%87%E8%82%A0%E6%8D%9F%E4%BC%A4/5240992", "lemmaPic": []}, {"lemmaId": 3282563, "lemmaTitle": "脾良性肿瘤", "lemmaCroppedTitle": "脾良性肿瘤", "lemmaDesc": "脾良性肿瘤主要包括脾错构瘤、淋巴管瘤血管瘤、纤维瘤、脂肪瘤等脾良性肿瘤多为单发。...", "lemmaUrl": "http://baike.baidu.com/item/%E8%84%BE%E8%89%AF%E6%80%A7%E8%82%BF%E7%98%A4/3282563", "lemmaPic": []}, {"lemmaId": 6520428, "lemmaTitle": "外伤性脑积水", "lemmaCroppedTitle": "外伤性脑积水", "lemmaDesc": "外伤性脑积水多见于重型脑损伤并伴有脑挫裂伤、蛛网膜下腔出血患者，是造成重型脑损伤...", "lemmaUrl": "http://baike.baidu.com/item/%E5%A4%96%E4%BC%A4%E6%80%A7%E8%84%91%E7%A7%AF%E6%B0%B4/6520428", "lemmaPic": []}, {"lemmaId": 9337746, "lemmaTitle": "钠过多", "lemmaCroppedTitle": "钠过多", "lemmaDesc": "钠过多症又叫高钠血症，血清钠浓度&amp;gt;145mmol/L为高钠血症。高...", "lemmaUrl": "http://baike.baidu.com/item/%E9%92%A0%E8%BF%87%E5%A4%9A/9337746", "lemmaPic": []}, {"lemmaId": 10165843, "lemmaTitle": "恒定性外斜视", "lemmaCroppedTitle": "恒定性外斜视", "lemmaDesc": "外斜视即眼位向外偏斜，一般可分为间歇性外斜视与恒定性外斜视。随着间歇性外斜视病情...", "lemmaUrl": "http://baike.baidu.com/item/%E6%81%92%E5%AE%9A%E6%80%A7%E5%A4%96%E6%96%9C%E8%A7%86/10165843", "lemmaPic": []}, {"lemmaId": 11003844, "lemmaTitle": "肺疝", "lemmaCroppedTitle": "肺疝", "lemmaDesc": "是肺组织通过局部薄弱处突出到胸腔范围以外所形成的一种疾病，其发病原因与先天性发育...", "lemmaUrl": "http://baike.baidu.com/item/%E8%82%BA%E7%96%9D/11003844", "lemmaPic": []}, {"lemmaId": 408323, "lemmaTitle": "静脉曲张综合征", "lemmaCroppedTitle": "静脉曲张综合征", "lemmaDesc": "静脉曲张综合征，也可称为慢性下肢静脉功能不全（CVI）包括静脉曲张、静脉功能不全...", "lemmaUrl": "http://baike.baidu.com/item/%E9%9D%99%E8%84%89%E6%9B%B2%E5%BC%A0%E7%BB%BC%E5%90%88%E5%BE%81/408323", "lemmaPic": []}, {"lemmaId": 3770167, "lemmaTitle": "松果体细胞瘤", "lemmaCroppedTitle": "松果体细胞瘤", "lemmaDesc": "松果体细胞瘤是发生于松果体实质细胞的肿瘤，可见于任何年龄组，但大多发生于25～3...", "lemmaUrl": "http://baike.baidu.com/item/%E6%9D%BE%E6%9E%9C%E4%BD%93%E7%BB%86%E8%83%9E%E7%98%A4/3770167", "lemmaPic": []}, {"lemmaId": 1701069, "lemmaTitle": "眼球后退综合征", "lemmaCroppedTitle": "眼球后退综合征", "lemmaDesc": "眼球后退综合征是一种水平直肌运动障碍性疾病，以眼球内转时伴有眼球后退，同时向内上...", "lemmaUrl": "http://baike.baidu.com/item/%E7%9C%BC%E7%90%83%E5%90%8E%E9%80%80%E7%BB%BC%E5%90%88%E5%BE%81/1701069", "lemmaPic": []}, {"lemmaId": 8049105, "lemmaTitle": "小儿结核性脑膜炎", "lemmaCroppedTitle": "小儿结核性脑膜炎", "lemmaDesc": "结核性脑膜炎简称结脑，是小儿结核病中最严重的类型。常在结核原发感染后1年以内发生...", "lemmaUrl": "http://baike.baidu.com/item/%E5%B0%8F%E5%84%BF%E7%BB%93%E6%A0%B8%E6%80%A7%E8%84%91%E8%86%9C%E7%82%8E/8049105", "lemmaPic": []}, {"lemmaId": 5033197, "lemmaTitle": "特发性息肉样脉络膜血管病变", "lemmaCroppedTitle": "特发性息肉样脉络膜血管病变", "lemmaDesc": "特发性脉络膜息肉样血管病变（IPCV）是LawrenceYanmuzzi在198...", "lemmaUrl": "http://baike.baidu.com/item/%E7%89%B9%E5%8F%91%E6%80%A7%E6%81%AF%E8%82%89%E6%A0%B7%E8%84%89%E7%BB%9C%E8%86%9C%E8%A1%80%E7%AE%A1%E7%97%85%E5%8F%98/5033197", "lemmaPic": []}, {"lemmaId": 359731, "lemmaTitle": "铍中毒", "lemmaCroppedTitle": "铍中毒", "lemmaDesc": "铍中毒是由于铍及其化合物侵袭肺并可累及其他器官的全身性疾病。临床上分为急性铍中毒...", "lemmaUrl": "http://baike.baidu.com/item/%E9%93%8D%E4%B8%AD%E6%AF%92/359731", "lemmaPic": []}, {"lemmaId": 2842825, "lemmaTitle": "阴道斜隔", "lemmaCroppedTitle": "阴道斜隔", "lemmaDesc": "阴道斜隔是一种并非十分罕见的生殖道畸形。但由于认识不足，常造成诊断及治疗的延误。...", "lemmaUrl": "http://baike.baidu.com/item/%E9%98%B4%E9%81%93%E6%96%9C%E9%9A%94/2842825", "lemmaPic": []}, {"lemmaId": 1711185, "lemmaTitle": "外阴黏膜白斑", "lemmaCroppedTitle": "外阴黏膜白斑", "lemmaDesc": "外阴黏膜白斑指外阴黏膜上的角化性白色斑片或板块，不易擦掉。目前趋向于认为外阴部位...", "lemmaUrl": "http://baike.baidu.com/item/%E5%A4%96%E9%98%B4%E9%BB%8F%E8%86%9C%E7%99%BD%E6%96%91/1711185", "lemmaPic": []}, {"lemmaId": 8357701, "lemmaTitle": "复发性风湿症", "lemmaCroppedTitle": "复发性风湿症", "lemmaDesc": "复发性风湿症又名发作性风湿症，Hench-Rosenberg综合征、Hench综...", "lemmaUrl": "http://baike.baidu.com/item/%E5%A4%8D%E5%8F%91%E6%80%A7%E9%A3%8E%E6%B9%BF%E7%97%87/8357701", "lemmaPic": []}, {"lemmaId": 937923, "lemmaTitle": "着色真菌病", "lemmaCroppedTitle": "着色真菌病", "lemmaDesc": "着色真菌病是指由暗色孢科真菌引起的皮肤、皮下组织和内脏的感染性疾病，包括暗色丝孢...", "lemmaUrl": "http://baike.baidu.com/item/%E7%9D%80%E8%89%B2%E7%9C%9F%E8%8F%8C%E7%97%85/937923", "lemmaPic": []}, {"lemmaId": 1926586, "lemmaTitle": "蛲虫性阴道炎", "lemmaCroppedTitle": "蛲虫性阴道炎", "lemmaDesc": "蛲虫性阴道炎是由于蛲虫寄生于人体而引起的一种传染病。在人群中通过间接接触或肛门―...", "lemmaUrl": "http://baike.baidu.com/item/%E8%9B%B2%E8%99%AB%E6%80%A7%E9%98%B4%E9%81%93%E7%82%8E/1926586", "lemmaPic": []}, {"lemmaId": 4609563, "lemmaTitle": "小儿阿姆斯特丹型侏儒", "lemmaCroppedTitle": "小儿阿姆斯特丹型侏儒", "lemmaDesc": "阿姆斯特丹型侏儒即deLangeⅠ综合征，又名Amsterdam综合征、Brac...", "lemmaUrl": "http://baike.baidu.com/item/%E5%B0%8F%E5%84%BF%E9%98%BF%E5%A7%86%E6%96%AF%E7%89%B9%E4%B8%B9%E5%9E%8B%E4%BE%8F%E5%84%92/4609563", "lemmaPic": []}, {"lemmaId": 2838968, "lemmaTitle": "纳尔逊综合征", "lemmaCroppedTitle": "纳尔逊综合征", "lemmaDesc": "纳尔逊综合征(Nelson综合征)是为治疗库欣病行双侧肾上腺切除术后出现的进行性...", "lemmaUrl": "http://baike.baidu.com/item/%E7%BA%B3%E5%B0%94%E9%80%8A%E7%BB%BC%E5%90%88%E5%BE%81/2838968", "lemmaPic": []}, {"lemmaId": 1986626, "lemmaTitle": "腰疝", "lemmaCroppedTitle": "腰疝", "lemmaDesc": "发生在第12肋至髂嵴之间的腹后外侧壁，后腹膜脂肪和（或）腹腔内组织脏器经过此处上...", "lemmaUrl": "http://baike.baidu.com/item/%E8%85%B0%E7%96%9D/1986626", "lemmaPic": []}, {"lemmaId": 5102559, "lemmaTitle": "眼眶假瘤", "lemmaCroppedTitle": "眼眶假瘤", "lemmaDesc": "眼眶假瘤是一种非特异性慢性增殖性炎症，因具有真性眶肿瘤的症状而得名。眼眶假瘤是眼...", "lemmaUrl": "http://baike.baidu.com/item/%E7%9C%BC%E7%9C%B6%E5%81%87%E7%98%A4/5102559", "lemmaPic": []}, {"lemmaId": 529464, "lemmaTitle": "急性细支气管炎", "lemmaCroppedTitle": "急性细支气管炎", "lemmaDesc": "近20余年来对累及小气道的炎症性病变即细支气管炎（伴或不伴闭塞）一类疾病的认识显...", "lemmaUrl": "http://baike.baidu.com/item/%E6%80%A5%E6%80%A7%E7%BB%86%E6%94%AF%E6%B0%94%E7%AE%A1%E7%82%8E/529464", "lemmaPic": []}, {"lemmaId": 9406360, "lemmaTitle": "纵隔间叶源性肿瘤及其他肿瘤", "lemmaCroppedTitle": "纵隔间叶源性肿瘤及其他肿瘤", "lemmaDesc": "几乎所有间叶源性肿瘤均可在纵隔内见到。间叶组织包括纤维、脂肪、平滑肌、骨骼肌、间...", "lemmaUrl": "http://baike.baidu.com/item/%E7%BA%B5%E9%9A%94%E9%97%B4%E5%8F%B6%E6%BA%90%E6%80%A7%E8%82%BF%E7%98%A4%E5%8F%8A%E5%85%B6%E4%BB%96%E8%82%BF%E7%98%A4/9406360", "lemmaPic": []}], "total": 7246, "totalPage": 73, "page": 39, "fromLemma": 0}