{"lemmaList": [{"lemmaId": 8992398, "lemmaTitle": "腕舟状骨骨折", "lemmaCroppedTitle": "腕舟状骨骨折", "lemmaDesc": "腕舟骨骨折比较常见，多发生青壮年，常由间接暴力致伤。舟状骨主要由桡动脉分支经附着...", "lemmaUrl": "http://baike.baidu.com/item/%E8%85%95%E8%88%9F%E7%8A%B6%E9%AA%A8%E9%AA%A8%E6%8A%98/8992398", "lemmaPic": []}, {"lemmaId": 8806942, "lemmaTitle": "遗传性痉挛性截瘫", "lemmaCroppedTitle": "遗传性痉挛性截瘫", "lemmaDesc": "遗传性痉挛性截瘫（HSP）又称家族性痉挛性截瘫，是一种神经系统退行性变性疾病。其...", "lemmaUrl": "http://baike.baidu.com/item/%E9%81%97%E4%BC%A0%E6%80%A7%E7%97%89%E6%8C%9B%E6%80%A7%E6%88%AA%E7%98%AB/8806942", "lemmaPic": []}, {"lemmaId": 116402, "lemmaTitle": "滞气", "lemmaCroppedTitle": "滞气", "lemmaDesc": "滞气，中医病证名，即郁气，指气机淤滞不畅，指人体某一部分或某一脏腑经络的气机阻滞...", "lemmaUrl": "http://baike.baidu.com/item/%E6%BB%9E%E6%B0%94/116402", "lemmaPic": []}, {"lemmaId": 8339922, "lemmaTitle": "憩室病", "lemmaCroppedTitle": "憩室病", "lemmaDesc": "憩室病是指胃肠道任何一部分向外的囊状突起，常发生在大肠，数个憩室同时存在，称为憩...", "lemmaUrl": "http://baike.baidu.com/item/%E6%86%A9%E5%AE%A4%E7%97%85/8339922", "lemmaPic": []}, {"lemmaId": 2830244, "lemmaTitle": "噪声性耳聋", "lemmaCroppedTitle": "噪声性耳聋", "lemmaDesc": "噪声性耳聋系由于听觉长期遭受噪声影响而发生缓慢的进行性的感音性耳聋，早期表现为听...", "lemmaUrl": "http://baike.baidu.com/item/%E5%99%AA%E5%A3%B0%E6%80%A7%E8%80%B3%E8%81%8B/2830244", "lemmaPic": []}, {"lemmaId": 4439810, "lemmaTitle": "非特异性尿道炎", "lemmaCroppedTitle": "非特异性尿道炎", "lemmaDesc": "非特异性尿道炎是尿道炎的一种，是常见的疾病。通常是指在性交后几天或几周内，出现尿...", "lemmaUrl": "http://baike.baidu.com/item/%E9%9D%9E%E7%89%B9%E5%BC%82%E6%80%A7%E5%B0%BF%E9%81%93%E7%82%8E/4439810", "lemmaPic": []}, {"lemmaId": 3305976, "lemmaTitle": "无汗症", "lemmaCroppedTitle": "无汗症", "lemmaDesc": "无汗症是指皮肤表面少汗或完全无汗，也称汗闭，可分为局限性汗闭或全身汗闭。引起无汗...", "lemmaUrl": "http://baike.baidu.com/item/%E6%97%A0%E6%B1%97%E7%97%87/3305976", "lemmaPic": []}, {"lemmaId": 10536880, "lemmaTitle": "结节性硬化", "lemmaCroppedTitle": "结节性硬化", "lemmaDesc": "结节性硬化多为常染色体显性遗传，又称Bourneville病，Epiloia，是...", "lemmaUrl": "http://baike.baidu.com/item/%E7%BB%93%E8%8A%82%E6%80%A7%E7%A1%AC%E5%8C%96/10536880", "lemmaPic": []}, {"lemmaId": 536213, "lemmaTitle": "慢性乳腺炎", "lemmaCroppedTitle": "慢性乳腺炎", "lemmaDesc": "慢性乳腺炎的特点是起病慢，病程长，不易痊愈，经久难消；乳房内可触及肿块，以肿块为...", "lemmaUrl": "http://baike.baidu.com/item/%E6%85%A2%E6%80%A7%E4%B9%B3%E8%85%BA%E7%82%8E/536213", "lemmaPic": []}, {"lemmaId": 4600538, "lemmaTitle": "棘阿米巴角膜炎", "lemmaCroppedTitle": "棘阿米巴角膜炎", "lemmaDesc": "棘阿米巴角膜炎（AK）是由棘阿米巴原虫引起的一种新的感染性角膜病.首先发现于19...", "lemmaUrl": "http://baike.baidu.com/item/%E6%A3%98%E9%98%BF%E7%B1%B3%E5%B7%B4%E8%A7%92%E8%86%9C%E7%82%8E/4600538", "lemmaPic": []}, {"lemmaId": 1051024, "lemmaTitle": "宫颈妊娠", "lemmaCroppedTitle": "宫颈妊娠", "lemmaDesc": "受精卵着床和发育在宫颈管内者称为宫颈妊娠，极罕见，发病率约为1/18000。近年...", "lemmaUrl": "http://baike.baidu.com/item/%E5%AE%AB%E9%A2%88%E5%A6%8A%E5%A8%A0/1051024", "lemmaPic": []}, {"lemmaId": 967918, "lemmaTitle": "弥漫性食管痉挛", "lemmaCroppedTitle": "弥漫性食管痉挛", "lemmaDesc": "弥漫性食管痉挛是以高压型食管蠕动异常为动力学特征的原发性食管运动障碍疾病，病变主...", "lemmaUrl": "http://baike.baidu.com/item/%E5%BC%A5%E6%BC%AB%E6%80%A7%E9%A3%9F%E7%AE%A1%E7%97%89%E6%8C%9B/967918", "lemmaPic": []}, {"lemmaId": 5358462, "lemmaTitle": "糖原累积病", "lemmaCroppedTitle": "糖原累积病", "lemmaDesc": "糖原累积病是一类由于先天性酶缺陷所造成的糖原代谢障碍疾病，多数属常染色体隐性遗传...", "lemmaUrl": "http://baike.baidu.com/item/%E7%B3%96%E5%8E%9F%E7%B4%AF%E7%A7%AF%E7%97%85/5358462", "lemmaPic": []}, {"lemmaId": 2364014, "lemmaTitle": "缺血性结肠炎", "lemmaCroppedTitle": "缺血性结肠炎", "lemmaDesc": "缺血性结肠炎是由于结肠血管闭塞性或非闭塞性疾病所致的、以结肠供血不足为主要症状的...", "lemmaUrl": "http://baike.baidu.com/item/%E7%BC%BA%E8%A1%80%E6%80%A7%E7%BB%93%E8%82%A0%E7%82%8E/2364014", "lemmaPic": []}, {"lemmaId": 2385639, "lemmaTitle": "须疮", "lemmaCroppedTitle": "须疮", "lemmaDesc": "须疮俗称羊胡疮，是一种发生在男性胡须部位毛囊及其周围的由葡萄球菌感染引起的皮肤病...", "lemmaUrl": "http://baike.baidu.com/item/%E9%A1%BB%E7%96%AE/2385639", "lemmaPic": []}, {"lemmaId": 2363164, "lemmaTitle": "吸收不良综合征", "lemmaCroppedTitle": "吸收不良综合征", "lemmaDesc": "由于各种原因引起的营养物尤其是脂肪不能被小肠充分吸收，从而导致腹泻、营养不良、体...", "lemmaUrl": "http://baike.baidu.com/item/%E5%90%B8%E6%94%B6%E4%B8%8D%E8%89%AF%E7%BB%BC%E5%90%88%E5%BE%81/2363164", "lemmaPic": []}, {"lemmaId": 9904307, "lemmaTitle": "睑内翻", "lemmaCroppedTitle": "睑内翻", "lemmaDesc": "睑内翻指眼睑，特别是睑缘向眼球方向卷曲的位置异常。当睑内翻达一定程度时，睫毛也倒...", "lemmaUrl": "http://baike.baidu.com/item/%E7%9D%91%E5%86%85%E7%BF%BB/9904307", "lemmaPic": []}, {"lemmaId": 9768229, "lemmaTitle": "尿道癌", "lemmaCroppedTitle": "尿道癌", "lemmaDesc": "尿道癌属于尿道上皮肿瘤，临床上比较少见。男性尿道癌大多数系40岁以上，女性尿道癌...", "lemmaUrl": "http://baike.baidu.com/item/%E5%B0%BF%E9%81%93%E7%99%8C/9768229", "lemmaPic": []}, {"lemmaId": 4206598, "lemmaTitle": "颈部淋巴结转移癌", "lemmaCroppedTitle": "颈部淋巴结转移癌", "lemmaDesc": "颈部淋巴结转移癌约占颈部恶性肿瘤总数的3/4；在颈部肿块中，发病率仅次于慢性淋巴...", "lemmaUrl": "http://baike.baidu.com/item/%E9%A2%88%E9%83%A8%E6%B7%8B%E5%B7%B4%E7%BB%93%E8%BD%AC%E7%A7%BB%E7%99%8C/4206598", "lemmaPic": []}, {"lemmaId": 5904574, "lemmaTitle": "口蹄病", "lemmaCroppedTitle": "口蹄病", "lemmaDesc": "口蹄病又称阿弗他热，是一种侵犯牛、羊和猪等有蹄类家畜的病毒性烈性传染病，对家畜危...", "lemmaUrl": "http://baike.baidu.com/item/%E5%8F%A3%E8%B9%84%E7%97%85/5904574", "lemmaPic": []}, {"lemmaId": 983059, "lemmaTitle": "主动脉缩窄", "lemmaCroppedTitle": "主动脉缩窄", "lemmaDesc": "主动脉缩窄是指主动脉局限狭窄，管腔缩小，造成血流量减少。病变可以很局限，也可以累...", "lemmaUrl": "http://baike.baidu.com/item/%E4%B8%BB%E5%8A%A8%E8%84%89%E7%BC%A9%E7%AA%84/983059", "lemmaPic": []}, {"lemmaId": 5936529, "lemmaTitle": "蛇头疮", "lemmaCroppedTitle": "蛇头疮", "lemmaDesc": "蛇头疮，即手指末节指腹皮下组织化脓性感染，多为轻微外伤或小刺引起。手指末节指腹远...", "lemmaUrl": "http://baike.baidu.com/item/%E8%9B%87%E5%A4%B4%E7%96%AE/5936529", "lemmaPic": []}, {"lemmaId": 9887391, "lemmaTitle": "Brugada综合征", "lemmaCroppedTitle": "Brugada综合征", "lemmaDesc": "Brugada综合征是由于编码心肌离子通道基因突变引起离子通道功能异常而导致的综...", "lemmaUrl": "http://baike.baidu.com/item/Brugada%E7%BB%BC%E5%90%88%E5%BE%81/9887391", "lemmaPic": []}, {"lemmaId": 10361786, "lemmaTitle": "膝关节脱位", "lemmaCroppedTitle": "膝关节脱位", "lemmaDesc": "膝关节骨性结构虽不稳定，但关节周围和关节内有较坚强的韧带和肌肉保护，故膝关节脱位...", "lemmaUrl": "http://baike.baidu.com/item/%E8%86%9D%E5%85%B3%E8%8A%82%E8%84%B1%E4%BD%8D/10361786", "lemmaPic": []}, {"lemmaId": 7208777, "lemmaTitle": "真两性畸形", "lemmaCroppedTitle": "真两性畸形", "lemmaDesc": "在同一体内既有男性睾丸，又有女性卵巢的畸形。对于两性畸形有不同的定义。另一种名称...", "lemmaUrl": "http://baike.baidu.com/item/%E7%9C%9F%E4%B8%A4%E6%80%A7%E7%95%B8%E5%BD%A2/7208777", "lemmaPic": []}, {"lemmaId": 8817355, "lemmaTitle": "闭合性气胸", "lemmaCroppedTitle": "闭合性气胸", "lemmaDesc": "闭合性气胸为肺裂伤或胸壁穿透伤后，少量空气（从肺内或胸膜外）进入胸膜腔，肺部或胸...", "lemmaUrl": "http://baike.baidu.com/item/%E9%97%AD%E5%90%88%E6%80%A7%E6%B0%94%E8%83%B8/8817355", "lemmaPic": []}, {"lemmaId": 11004005, "lemmaTitle": "骨痹", "lemmaCroppedTitle": "骨痹", "lemmaDesc": "骨痹属于五体痹之一。凡由六淫之邪侵扰人体筋骨关节，闭阻经脉气血，出现肢体沉重、关...", "lemmaUrl": "http://baike.baidu.com/item/%E9%AA%A8%E7%97%B9/11004005", "lemmaPic": []}, {"lemmaId": 5360001, "lemmaTitle": "新生儿呼吸暂停", "lemmaCroppedTitle": "新生儿呼吸暂停", "lemmaDesc": "新生儿呼吸暂停是指早产儿呼吸停止超过20秒，足月小儿呼吸停止超过15秒，或呼吸停...", "lemmaUrl": "http://baike.baidu.com/item/%E6%96%B0%E7%94%9F%E5%84%BF%E5%91%BC%E5%90%B8%E6%9A%82%E5%81%9C/5360001", "lemmaPic": []}, {"lemmaId": 3792132, "lemmaTitle": "门静脉血栓形成", "lemmaCroppedTitle": "门静脉血栓形成", "lemmaDesc": "门静脉血栓形成（PT）是指发生于门静脉主干、肠系膜上静脉、肠系膜下静脉或脾静脉的...", "lemmaUrl": "http://baike.baidu.com/item/%E9%97%A8%E9%9D%99%E8%84%89%E8%A1%80%E6%A0%93%E5%BD%A2%E6%88%90/3792132", "lemmaPic": []}, {"lemmaId": 2664520, "lemmaTitle": "燥湿化痰", "lemmaCroppedTitle": "燥湿化痰", "lemmaDesc": "治疗学术语。中医祛痰法之一。指燥湿药与化痰药同用，以治疗脾虚痰湿的方法。燥湿化痰...", "lemmaUrl": "http://baike.baidu.com/item/%E7%87%A5%E6%B9%BF%E5%8C%96%E7%97%B0/2664520", "lemmaPic": []}, {"lemmaId": 2214492, "lemmaTitle": "原发性开角型青光眼", "lemmaCroppedTitle": "原发性开角型青光眼", "lemmaDesc": "原发性开角型青光眼是最常见的青光眼类型，约占所有青光眼的60%～70%，通常累及...", "lemmaUrl": "http://baike.baidu.com/item/%E5%8E%9F%E5%8F%91%E6%80%A7%E5%BC%80%E8%A7%92%E5%9E%8B%E9%9D%92%E5%85%89%E7%9C%BC/2214492", "lemmaPic": []}, {"lemmaId": 6190394, "lemmaTitle": "言语障碍", "lemmaCroppedTitle": "言语障碍", "lemmaDesc": "言语障碍是指对口语、文字或手势的应用或理解的各种异常。本病在这里指由局限性脑或周...", "lemmaUrl": "http://baike.baidu.com/item/%E8%A8%80%E8%AF%AD%E9%9A%9C%E7%A2%8D/6190394", "lemmaPic": []}, {"lemmaId": 1380378, "lemmaTitle": "剥脱性唇炎", "lemmaCroppedTitle": "剥脱性唇炎", "lemmaDesc": "本病是一种原因不明的唇黏膜的慢性浅表性炎症。多见于年轻女性，本病有时与慢性光线性...", "lemmaUrl": "http://baike.baidu.com/item/%E5%89%A5%E8%84%B1%E6%80%A7%E5%94%87%E7%82%8E/1380378", "lemmaPic": []}, {"lemmaId": 3777275, "lemmaTitle": "小儿慢性支气管炎", "lemmaCroppedTitle": "小儿慢性支气管炎", "lemmaDesc": "慢性支气管炎指反复多次的支气管感染，连续2年以上，每年发作时间超过2月，有咳、喘...", "lemmaUrl": "http://baike.baidu.com/item/%E5%B0%8F%E5%84%BF%E6%85%A2%E6%80%A7%E6%94%AF%E6%B0%94%E7%AE%A1%E7%82%8E/3777275", "lemmaPic": []}, {"lemmaId": 6093298, "lemmaTitle": "肠系膜上动脉栓塞", "lemmaCroppedTitle": "肠系膜上动脉栓塞", "lemmaDesc": "肠系膜上动脉栓塞是由于栓子进入肠系膜上动脉造成阻塞所引起的疾病。肠系膜上动脉主干...", "lemmaUrl": "http://baike.baidu.com/item/%E8%82%A0%E7%B3%BB%E8%86%9C%E4%B8%8A%E5%8A%A8%E8%84%89%E6%A0%93%E5%A1%9E/6093298", "lemmaPic": []}, {"lemmaId": 946111, "lemmaTitle": "食管白斑", "lemmaCroppedTitle": "食管白斑", "lemmaDesc": "黏膜发生角化过度，即出现白色斑块状变化，称为白斑。此种白斑可发生在身体各处黏膜，...", "lemmaUrl": "http://baike.baidu.com/item/%E9%A3%9F%E7%AE%A1%E7%99%BD%E6%96%91/946111", "lemmaPic": []}, {"lemmaId": 5139433, "lemmaTitle": "尼曼-匹克病", "lemmaCroppedTitle": "尼曼-匹克病", "lemmaDesc": "尼曼-匹克病（NPD）又称鞘磷脂沉积病，属先天性糖脂代谢性疾病。其特点是全单核巨...", "lemmaUrl": "http://baike.baidu.com/item/%E5%B0%BC%E6%9B%BC-%E5%8C%B9%E5%85%8B%E7%97%85/5139433", "lemmaPic": []}, {"lemmaId": 1927669, "lemmaTitle": "手足徐动症", "lemmaCroppedTitle": "手足徐动症", "lemmaDesc": "手足徐动症又称指划运动，或易变性痉挛，特点为肢体远端游走性肌张力增高与减低动作，...", "lemmaUrl": "http://baike.baidu.com/item/%E6%89%8B%E8%B6%B3%E5%BE%90%E5%8A%A8%E7%97%87/1927669", "lemmaPic": []}, {"lemmaId": 10361087, "lemmaTitle": "神经卡压综合征", "lemmaCroppedTitle": "神经卡压综合征", "lemmaDesc": "神经卡压综合征是指周围神经受到某周围组织的压迫，而引起疼痛、感觉障碍、运动障碍及...", "lemmaUrl": "http://baike.baidu.com/item/%E7%A5%9E%E7%BB%8F%E5%8D%A1%E5%8E%8B%E7%BB%BC%E5%90%88%E5%BE%81/10361087", "lemmaPic": []}, {"lemmaId": 8711045, "lemmaTitle": "路易体痴呆", "lemmaCroppedTitle": "路易体痴呆", "lemmaDesc": "路易体痴呆（DLB）是一组在临床和病理表现上重叠于帕金森病与Alzheimer病...", "lemmaUrl": "http://baike.baidu.com/item/%E8%B7%AF%E6%98%93%E4%BD%93%E7%97%B4%E5%91%86/8711045", "lemmaPic": []}, {"lemmaId": 5102982, "lemmaTitle": "胸主动脉夹层动脉瘤", "lemmaCroppedTitle": "胸主动脉夹层动脉瘤", "lemmaDesc": "胸主动脉夹层动脉瘤是主动脉血流通过内膜破裂处进入主动脉壁，在主动脉壁内形成血肿，...", "lemmaUrl": "http://baike.baidu.com/item/%E8%83%B8%E4%B8%BB%E5%8A%A8%E8%84%89%E5%A4%B9%E5%B1%82%E5%8A%A8%E8%84%89%E7%98%A4/5102982", "lemmaPic": []}, {"lemmaId": 2849929, "lemmaTitle": "垂体危象", "lemmaCroppedTitle": "垂体危象", "lemmaDesc": "垂体危象即垂体卒中，垂体肿瘤突发瘤内出血、梗塞、坏死，致瘤体膨大，引起的急性神经...", "lemmaUrl": "http://baike.baidu.com/item/%E5%9E%82%E4%BD%93%E5%8D%B1%E8%B1%A1/2849929", "lemmaPic": []}, {"lemmaId": 2065069, "lemmaTitle": "先天性非溶血性黄疸", "lemmaCroppedTitle": "先天性非溶血性黄疸", "lemmaDesc": "先天性非溶血性黄疸（Gilbert综合征），是一组以非结合胆红素升高为特征的病症...", "lemmaUrl": "http://baike.baidu.com/item/%E5%85%88%E5%A4%A9%E6%80%A7%E9%9D%9E%E6%BA%B6%E8%A1%80%E6%80%A7%E9%BB%84%E7%96%B8/2065069", "lemmaPic": []}, {"lemmaId": 11058352, "lemmaTitle": "下巨虚", "lemmaCroppedTitle": "下巨虚", "lemmaDesc": "下，相对于上而言。巨，巨大；虚，空虚。本穴原名“巨虚下廉”，指本穴在胫、腓骨间之...", "lemmaUrl": "http://baike.baidu.com/item/%E4%B8%8B%E5%B7%A8%E8%99%9A/11058352", "lemmaPic": []}, {"lemmaId": 2843035, "lemmaTitle": "幼女性外阴阴道炎", "lemmaCroppedTitle": "幼女性外阴阴道炎", "lemmaDesc": "幼女由于其解剖特点为外阴发育差,不能遮盖尿道口及阴道前庭,细菌容易侵入,雌激素水...", "lemmaUrl": "http://baike.baidu.com/item/%E5%B9%BC%E5%A5%B3%E6%80%A7%E5%A4%96%E9%98%B4%E9%98%B4%E9%81%93%E7%82%8E/2843035", "lemmaPic": []}, {"lemmaId": 4067444, "lemmaTitle": "婴儿猝死综合症", "lemmaCroppedTitle": "婴儿猝死综合症", "lemmaDesc": "婴儿猝死综合征（简称SIDS），也称摇篮死亡，系指外表似乎完全健康的婴儿突然意外...", "lemmaUrl": "http://baike.baidu.com/item/%E5%A9%B4%E5%84%BF%E7%8C%9D%E6%AD%BB%E7%BB%BC%E5%90%88%E7%97%87/4067444", "lemmaPic": []}, {"lemmaId": 5054273, "lemmaTitle": "巨细胞动脉炎", "lemmaCroppedTitle": "巨细胞动脉炎", "lemmaDesc": "巨细胞动脉炎（GCA）过去称颅动脉炎、颞动脉炎、肉芽肿性动脉炎，后认识到体内任何...", "lemmaUrl": "http://baike.baidu.com/item/%E5%B7%A8%E7%BB%86%E8%83%9E%E5%8A%A8%E8%84%89%E7%82%8E/5054273", "lemmaPic": []}, {"lemmaId": 5196202, "lemmaTitle": "韦尼克脑病", "lemmaCroppedTitle": "韦尼克脑病", "lemmaDesc": "韦尼克脑病（WE）或Wernicke-Korsakoff综合征是慢性酒中毒常见的...", "lemmaUrl": "http://baike.baidu.com/item/%E9%9F%A6%E5%B0%BC%E5%85%8B%E8%84%91%E7%97%85/5196202", "lemmaPic": []}, {"lemmaId": 7999020, "lemmaTitle": "镇静催眠药中毒", "lemmaCroppedTitle": "镇静催眠药中毒", "lemmaDesc": "镇静催眠药通常分为三类：苯二氮卓类（地西泮、硝西泮、艾司唑仑、阿普唑仑等）、巴比...", "lemmaUrl": "http://baike.baidu.com/item/%E9%95%87%E9%9D%99%E5%82%AC%E7%9C%A0%E8%8D%AF%E4%B8%AD%E6%AF%92/7999020", "lemmaPic": []}, {"lemmaId": 219371, "lemmaTitle": "血管球瘤", "lemmaCroppedTitle": "血管球瘤", "lemmaDesc": "血管球瘤是一种少见的良性小型血管瘤，很少发生恶变，血管球是正常组织结构，直径约1...", "lemmaUrl": "http://baike.baidu.com/item/%E8%A1%80%E7%AE%A1%E7%90%83%E7%98%A4/219371", "lemmaPic": []}, {"lemmaId": 1590461, "lemmaTitle": "肝阳上亢证", "lemmaCroppedTitle": "肝阳上亢证", "lemmaDesc": "肝阳上亢证是指由于肝肾阴亏，水不涵木，肝阳亢扰于上所表现的上实下虚的证候。", "lemmaUrl": "http://baike.baidu.com/item/%E8%82%9D%E9%98%B3%E4%B8%8A%E4%BA%A2%E8%AF%81/1590461", "lemmaPic": []}, {"lemmaId": 5745377, "lemmaTitle": "小儿脐疝", "lemmaCroppedTitle": "小儿脐疝", "lemmaDesc": "脐疝是肠管/大网膜等从脐孔脱出形成的腹壁疝，是一种先天性脐发育缺陷性疾病，随着年...", "lemmaUrl": "http://baike.baidu.com/item/%E5%B0%8F%E5%84%BF%E8%84%90%E7%96%9D/5745377", "lemmaPic": []}, {"lemmaId": 7540896, "lemmaTitle": "胬肉攀睛", "lemmaCroppedTitle": "胬肉攀睛", "lemmaDesc": "胬肉攀睛指有一三角形脂膜胬起如肉，由眼珠眦角横贯白睛，攀侵黑睛的慢性外障眼病。多...", "lemmaUrl": "http://baike.baidu.com/item/%E8%83%AC%E8%82%89%E6%94%80%E7%9D%9B/7540896", "lemmaPic": []}, {"lemmaId": 1109634, "lemmaTitle": "致死性家族性失眠症", "lemmaCroppedTitle": "致死性家族性失眠症", "lemmaDesc": "致死性家族性失眠症是一种遗传性疾病，病因为朊蛋白基因（PRNP基因）C178和C...", "lemmaUrl": "http://baike.baidu.com/item/%E8%87%B4%E6%AD%BB%E6%80%A7%E5%AE%B6%E6%97%8F%E6%80%A7%E5%A4%B1%E7%9C%A0%E7%97%87/1109634", "lemmaPic": []}, {"lemmaId": 5401046, "lemmaTitle": "十二指肠淤积症", "lemmaCroppedTitle": "十二指肠淤积症", "lemmaDesc": "十二指肠淤积症即十二指肠壅积症是指各种原因引起的十二指肠阻塞，以致十二指肠阻塞部...", "lemmaUrl": "http://baike.baidu.com/item/%E5%8D%81%E4%BA%8C%E6%8C%87%E8%82%A0%E6%B7%A4%E7%A7%AF%E7%97%87/5401046", "lemmaPic": []}, {"lemmaId": 10096380, "lemmaTitle": "股骨转子间骨折", "lemmaCroppedTitle": "股骨转子间骨折", "lemmaDesc": "股骨转子间骨折系指股骨颈基底至小转子水平以上部位所发生的骨折。亦为老年人常见的损...", "lemmaUrl": "http://baike.baidu.com/item/%E8%82%A1%E9%AA%A8%E8%BD%AC%E5%AD%90%E9%97%B4%E9%AA%A8%E6%8A%98/10096380", "lemmaPic": []}, {"lemmaId": 7764176, "lemmaTitle": "幼年特发性关节炎", "lemmaCroppedTitle": "幼年特发性关节炎", "lemmaDesc": "幼年型类风湿关节炎（JRA）是小儿时期一种常见的结缔组织病，以慢性关节炎为其主要...", "lemmaUrl": "http://baike.baidu.com/item/%E5%B9%BC%E5%B9%B4%E7%89%B9%E5%8F%91%E6%80%A7%E5%85%B3%E8%8A%82%E7%82%8E/7764176", "lemmaPic": []}, {"lemmaId": 10059968, "lemmaTitle": "脑结核瘤", "lemmaCroppedTitle": "脑结核瘤", "lemmaDesc": "脑结核瘤是中枢神经系统感染结核杆菌后形成的一种肉芽肿样病变。常继发于身体其他部位...", "lemmaUrl": "http://baike.baidu.com/item/%E8%84%91%E7%BB%93%E6%A0%B8%E7%98%A4/10059968", "lemmaPic": []}, {"lemmaId": 4025529, "lemmaTitle": "甲亢合并妊娠", "lemmaCroppedTitle": "甲亢合并妊娠", "lemmaDesc": "甲状腺是人体最重要的内分泌器官之一，甲状腺激素在生殖、生长发育和各系统器官的代谢...", "lemmaUrl": "http://baike.baidu.com/item/%E7%94%B2%E4%BA%A2%E5%90%88%E5%B9%B6%E5%A6%8A%E5%A8%A0/4025529", "lemmaPic": []}, {"lemmaId": 545422, "lemmaTitle": "电烧伤", "lemmaCroppedTitle": "电烧伤", "lemmaDesc": "指电流通过人体产生热电效应、电生理效应、电化学效应和电弧、电火花等致人体以及皮肤...", "lemmaUrl": "http://baike.baidu.com/item/%E7%94%B5%E7%83%A7%E4%BC%A4/545422", "lemmaPic": []}, {"lemmaId": 5053767, "lemmaTitle": "松果体瘤", "lemmaCroppedTitle": "松果体瘤", "lemmaDesc": "松果体瘤系指松果体肿瘤引起的促性腺激素及性激素分泌增多（松果体的分泌功能上与腺垂...", "lemmaUrl": "http://baike.baidu.com/item/%E6%9D%BE%E6%9E%9C%E4%BD%93%E7%98%A4/5053767", "lemmaPic": []}, {"lemmaId": 5320793, "lemmaTitle": "深覆合", "lemmaCroppedTitle": "深覆合", "lemmaDesc": "深覆合是一种上下颌牙弓的垂直关系的异常。指的是上前牙切缘盖过下前牙牙冠长度1/3...", "lemmaUrl": "http://baike.baidu.com/item/%E6%B7%B1%E8%A6%86%E5%90%88/5320793", "lemmaPic": []}, {"lemmaId": 6711898, "lemmaTitle": "膀胱结核", "lemmaCroppedTitle": "膀胱结核", "lemmaDesc": "膀胱结核继发于肾结核，少数由前列腺结核蔓延而来。膀胱结核多与泌尿生殖系结核同时存...", "lemmaUrl": "http://baike.baidu.com/item/%E8%86%80%E8%83%B1%E7%BB%93%E6%A0%B8/6711898", "lemmaPic": []}, {"lemmaId": 9942123, "lemmaTitle": "视神经病变", "lemmaCroppedTitle": "视神经病变", "lemmaDesc": "由于各种原因导致的视神经变性，失去传导功能，导致视物模糊甚至失明。", "lemmaUrl": "http://baike.baidu.com/item/%E8%A7%86%E7%A5%9E%E7%BB%8F%E7%97%85%E5%8F%98/9942123", "lemmaPic": []}, {"lemmaId": 5084843, "lemmaTitle": "乳腺结核", "lemmaCroppedTitle": "乳腺结核", "lemmaDesc": "乳腺结核，多继发于肺结核、肠结核或肠系膜淋巴结核，是经血行传播至乳房所引起的结核...", "lemmaUrl": "http://baike.baidu.com/item/%E4%B9%B3%E8%85%BA%E7%BB%93%E6%A0%B8/5084843", "lemmaPic": []}, {"lemmaId": 11003882, "lemmaTitle": "肺胀", "lemmaCroppedTitle": "肺胀", "lemmaDesc": "肺胀，属肺病。常继发于肺咳、哮病等之后，因肺气长期壅滞，肺叶恒久膨胀、不能敛降，...", "lemmaUrl": "http://baike.baidu.com/item/%E8%82%BA%E8%83%80/11003882", "lemmaPic": []}, {"lemmaId": 895011, "lemmaTitle": "上颌前突", "lemmaCroppedTitle": "上颌前突", "lemmaDesc": "上颌前突是指下颌在头部的位置正常，上颌向前突出于下颌之前，形成深超牙合。是很常见...", "lemmaUrl": "http://baike.baidu.com/item/%E4%B8%8A%E9%A2%8C%E5%89%8D%E7%AA%81/895011", "lemmaPic": []}, {"lemmaId": 5244948, "lemmaTitle": "阴道横隔", "lemmaCroppedTitle": "阴道横隔", "lemmaDesc": "阴道横隔是指在胚胎期由泌尿生殖窦――阴道球向头端增生、增长演变而成的阴道板，自下...", "lemmaUrl": "http://baike.baidu.com/item/%E9%98%B4%E9%81%93%E6%A8%AA%E9%9A%94/5244948", "lemmaPic": []}, {"lemmaId": 2138991, "lemmaTitle": "多胎", "lemmaCroppedTitle": "多胎", "lemmaDesc": "一次妊娠同时有两个或两个以上的胎儿，称为多胎妊娠。多胎妊娠的妊娠期、分娩期并发症...", "lemmaUrl": "http://baike.baidu.com/item/%E5%A4%9A%E8%83%8E/2138991", "lemmaPic": []}, {"lemmaId": 844201, "lemmaTitle": "骨母细胞瘤", "lemmaCroppedTitle": "骨母细胞瘤", "lemmaDesc": "骨母细胞瘤是一种特殊类型的肿瘤，以往由于各家的观点和出发点不同，对该肿瘤的命名也...", "lemmaUrl": "http://baike.baidu.com/item/%E9%AA%A8%E6%AF%8D%E7%BB%86%E8%83%9E%E7%98%A4/844201", "lemmaPic": []}, {"lemmaId": 352078, "lemmaTitle": "隐球菌病", "lemmaCroppedTitle": "隐球菌病", "lemmaDesc": "隐球菌属包括17个种和18个变种，其中仅新生隐球菌及其变种具有致病性。新生隐球菌...", "lemmaUrl": "http://baike.baidu.com/item/%E9%9A%90%E7%90%83%E8%8F%8C%E7%97%85/352078", "lemmaPic": []}, {"lemmaId": 10456115, "lemmaTitle": "链球菌性咽炎", "lemmaCroppedTitle": "链球菌性咽炎", "lemmaDesc": "链球菌性咽炎是一种常见病，是咽黏膜、黏膜下组织及其淋巴组织的急性炎症，常为上呼吸...", "lemmaUrl": "http://baike.baidu.com/item/%E9%93%BE%E7%90%83%E8%8F%8C%E6%80%A7%E5%92%BD%E7%82%8E/10456115", "lemmaPic": []}, {"lemmaId": 5059888, "lemmaTitle": "胃粘膜脱垂症", "lemmaCroppedTitle": "胃粘膜脱垂症", "lemmaDesc": "胃黏膜脱垂症是由于异常松弛的胃窦部黏膜，逆行突入食管或向前通过幽门管脱入十二指肠...", "lemmaUrl": "http://baike.baidu.com/item/%E8%83%83%E7%B2%98%E8%86%9C%E8%84%B1%E5%9E%82%E7%97%87/5059888", "lemmaPic": []}, {"lemmaId": 10736561, "lemmaTitle": "血管肉瘤", "lemmaCroppedTitle": "血管肉瘤", "lemmaDesc": "血管肉瘤也称恶性血管内皮瘤，是由血管内皮细胞或向血管内皮细胞方向分化的间叶细胞发...", "lemmaUrl": "http://baike.baidu.com/item/%E8%A1%80%E7%AE%A1%E8%82%89%E7%98%A4/10736561", "lemmaPic": []}, {"lemmaId": 5086254, "lemmaTitle": "急性血源性骨髓炎", "lemmaCroppedTitle": "急性血源性骨髓炎", "lemmaDesc": "急性血源性骨髓炎以骨质吸收、破坏为主。慢性骨髓炎以死骨形成和新生骨形成为主。急性...", "lemmaUrl": "http://baike.baidu.com/item/%E6%80%A5%E6%80%A7%E8%A1%80%E6%BA%90%E6%80%A7%E9%AA%A8%E9%AB%93%E7%82%8E/5086254", "lemmaPic": []}, {"lemmaId": 2753035, "lemmaTitle": "单纯性外阴阴道念珠菌病", "lemmaCroppedTitle": "单纯性外阴阴道念珠菌病", "lemmaDesc": "单纯性外阴阴道念珠菌病（simple vulvovaginal candidia...", "lemmaUrl": "http://baike.baidu.com/item/%E5%8D%95%E7%BA%AF%E6%80%A7%E5%A4%96%E9%98%B4%E9%98%B4%E9%81%93%E5%BF%B5%E7%8F%A0%E8%8F%8C%E7%97%85/2753035", "lemmaPic": []}, {"lemmaId": 3326796, "lemmaTitle": "门静脉海绵样变", "lemmaCroppedTitle": "门静脉海绵样变", "lemmaDesc": "门静脉海绵样变（CTPV）是指肝门部或肝内门静脉分支慢性、部分性或完全性阻塞后，...", "lemmaUrl": "http://baike.baidu.com/item/%E9%97%A8%E9%9D%99%E8%84%89%E6%B5%B7%E7%BB%B5%E6%A0%B7%E5%8F%98/3326796", "lemmaPic": []}, {"lemmaId": 2064732, "lemmaTitle": "跟腱后滑囊炎", "lemmaCroppedTitle": "跟腱后滑囊炎", "lemmaDesc": "发生在跟腱上方的滑囊炎症，是足跟位置与功能异常的结果。最多见于青年女性，但男性也...", "lemmaUrl": "http://baike.baidu.com/item/%E8%B7%9F%E8%85%B1%E5%90%8E%E6%BB%91%E5%9B%8A%E7%82%8E/2064732", "lemmaPic": []}, {"lemmaId": 7616992, "lemmaTitle": "角膜病", "lemmaCroppedTitle": "角膜病", "lemmaDesc": "角膜病是引起视力减退的重要原因。使透明的角膜出现灰白色的混浊，可使视力模糊、减退...", "lemmaUrl": "http://baike.baidu.com/item/%E8%A7%92%E8%86%9C%E7%97%85/7616992", "lemmaPic": []}, {"lemmaId": 6390093, "lemmaTitle": "补虚药", "lemmaCroppedTitle": "补虚药", "lemmaDesc": "以提高抵抗疾病能力为目的，具有补充人体气血阴阳之不足、消除机体虚弱证候、改善脏腑...", "lemmaUrl": "http://baike.baidu.com/item/%E8%A1%A5%E8%99%9A%E8%8D%AF/6390093", "lemmaPic": []}, {"lemmaId": 9618687, "lemmaTitle": "造影剂肾病", "lemmaCroppedTitle": "造影剂肾病", "lemmaDesc": "随着现代造影技术的广泛开展，造影剂肾病（CAN）日益受到肾病工作者的关注。CAN...", "lemmaUrl": "http://baike.baidu.com/item/%E9%80%A0%E5%BD%B1%E5%89%82%E8%82%BE%E7%97%85/9618687", "lemmaPic": []}, {"lemmaId": 2093920, "lemmaTitle": "小儿室间隔缺损", "lemmaCroppedTitle": "小儿室间隔缺损", "lemmaDesc": "室间隔缺损（VSD）是小儿先天性心脏病中最常见的类型之一，可单独存在，亦可合并其...", "lemmaUrl": "http://baike.baidu.com/item/%E5%B0%8F%E5%84%BF%E5%AE%A4%E9%97%B4%E9%9A%94%E7%BC%BA%E6%8D%9F/2093920", "lemmaPic": []}, {"lemmaId": 5056395, "lemmaTitle": "腹膜间皮瘤", "lemmaCroppedTitle": "腹膜间皮瘤", "lemmaDesc": "腹膜间皮瘤为原发于腹膜上皮和间皮组织的肿瘤。病理上可将之分为腺瘤样间皮瘤、囊性间...", "lemmaUrl": "http://baike.baidu.com/item/%E8%85%B9%E8%86%9C%E9%97%B4%E7%9A%AE%E7%98%A4/5056395", "lemmaPic": []}, {"lemmaId": 1077638, "lemmaTitle": "先天性眼球震颤", "lemmaCroppedTitle": "先天性眼球震颤", "lemmaDesc": "先天性眼球震颤（CN）是一种原因不详、难以治疗的先天性眼病。有以下特点：发病早：...", "lemmaUrl": "http://baike.baidu.com/item/%E5%85%88%E5%A4%A9%E6%80%A7%E7%9C%BC%E7%90%83%E9%9C%87%E9%A2%A4/1077638", "lemmaPic": []}, {"lemmaId": 2311130, "lemmaTitle": "成人呼吸窘迫综合征", "lemmaCroppedTitle": "成人呼吸窘迫综合征", "lemmaDesc": "成人呼吸窘迫综合征是各种直接和间接对肺的损伤引起显著呼吸频数与呼吸窘迫，X线检查...", "lemmaUrl": "http://baike.baidu.com/item/%E6%88%90%E4%BA%BA%E5%91%BC%E5%90%B8%E7%AA%98%E8%BF%AB%E7%BB%BC%E5%90%88%E5%BE%81/2311130", "lemmaPic": []}, {"lemmaId": 2046377, "lemmaTitle": "高镁血症", "lemmaCroppedTitle": "高镁血症", "lemmaDesc": "血清镁浓度超过正常值时即为高镁血症，指血中Mg2+&amp;gt;1.25 mm...", "lemmaUrl": "http://baike.baidu.com/item/%E9%AB%98%E9%95%81%E8%A1%80%E7%97%87/2046377", "lemmaPic": []}, {"lemmaId": 483850, "lemmaTitle": "进行性核上性麻痹", "lemmaCroppedTitle": "进行性核上性麻痹", "lemmaDesc": "进行性核上性麻痹（Progressive superanuclear palsy...", "lemmaUrl": "http://baike.baidu.com/item/%E8%BF%9B%E8%A1%8C%E6%80%A7%E6%A0%B8%E4%B8%8A%E6%80%A7%E9%BA%BB%E7%97%B9/483850", "lemmaPic": []}, {"lemmaId": 4296433, "lemmaTitle": "胃平滑肌瘤", "lemmaCroppedTitle": "胃平滑肌瘤", "lemmaDesc": "胃平滑肌瘤是起源于平滑肌组织的良性肿瘤，是最常见的间质性良性胃部肿瘤。因直径&a...", "lemmaUrl": "http://baike.baidu.com/item/%E8%83%83%E5%B9%B3%E6%BB%91%E8%82%8C%E7%98%A4/4296433", "lemmaPic": []}, {"lemmaId": 10624025, "lemmaTitle": "白秃疮", "lemmaCroppedTitle": "白秃疮", "lemmaDesc": "白秃疮是多发生在头部的一种癣，以脱白屑，久则毛发折断脱落成秃疮为特征的皮肤癣菌感...", "lemmaUrl": "http://baike.baidu.com/item/%E7%99%BD%E7%A7%83%E7%96%AE/10624025", "lemmaPic": []}, {"lemmaId": 5277854, "lemmaTitle": "交感性眼炎", "lemmaCroppedTitle": "交感性眼炎", "lemmaDesc": "交感性眼炎是指一眼穿通伤或内眼手术后的双侧肉芽肿性葡萄膜炎。受伤眼称为诱发眼，未...", "lemmaUrl": "http://baike.baidu.com/item/%E4%BA%A4%E6%84%9F%E6%80%A7%E7%9C%BC%E7%82%8E/5277854", "lemmaPic": []}, {"lemmaId": 3782390, "lemmaTitle": "阴茎折断", "lemmaCroppedTitle": "阴茎折断", "lemmaDesc": "阴茎折断是指阴茎在勃起状态下，外在暴力招致阴茎海绵体的白膜破裂而言。阴茎海绵体白...", "lemmaUrl": "http://baike.baidu.com/item/%E9%98%B4%E8%8C%8E%E6%8A%98%E6%96%AD/3782390", "lemmaPic": []}, {"lemmaId": 5244988, "lemmaTitle": "子宫发育异常", "lemmaCroppedTitle": "子宫发育异常", "lemmaDesc": "子宫发育异常是生殖器官畸形中最常见的一种，临床意义亦比较大。两侧副中肾管在演化过...", "lemmaUrl": "http://baike.baidu.com/item/%E5%AD%90%E5%AE%AB%E5%8F%91%E8%82%B2%E5%BC%82%E5%B8%B8/5244988", "lemmaPic": []}, {"lemmaId": 5120682, "lemmaTitle": "三尖瓣下移畸形", "lemmaCroppedTitle": "三尖瓣下移畸形", "lemmaDesc": "三尖瓣下移畸形是一种罕见的先天性心脏畸形。1866年Ebstein首先报道一例，...", "lemmaUrl": "http://baike.baidu.com/item/%E4%B8%89%E5%B0%96%E7%93%A3%E4%B8%8B%E7%A7%BB%E7%95%B8%E5%BD%A2/5120682", "lemmaPic": []}, {"lemmaId": 2083821, "lemmaTitle": "抗磷脂综合征", "lemmaCroppedTitle": "抗磷脂综合征", "lemmaDesc": "抗磷脂综合征（APS）为一种以反复动脉或者静脉血栓、病态妊娠和抗磷脂抗体（APL...", "lemmaUrl": "http://baike.baidu.com/item/%E6%8A%97%E7%A3%B7%E8%84%82%E7%BB%BC%E5%90%88%E5%BE%81/2083821", "lemmaPic": []}, {"lemmaId": 917212, "lemmaTitle": "鼻血管瘤", "lemmaCroppedTitle": "鼻血管瘤", "lemmaDesc": "鼻血管瘤为脉管组织良性肿瘤之一，鼻及鼻窦为好发部位。本病可发生于任何年龄，但多见...", "lemmaUrl": "http://baike.baidu.com/item/%E9%BC%BB%E8%A1%80%E7%AE%A1%E7%98%A4/917212", "lemmaPic": []}, {"lemmaId": 2914283, "lemmaTitle": "根尖周病", "lemmaCroppedTitle": "根尖周病", "lemmaDesc": "根尖周病是指发生在牙根尖周围组织，如牙骨质、根尖周围的牙周膜和牙槽骨等的疾病。", "lemmaUrl": "http://baike.baidu.com/item/%E6%A0%B9%E5%B0%96%E5%91%A8%E7%97%85/2914283", "lemmaPic": []}, {"lemmaId": 1051127, "lemmaTitle": "腹腔妊娠", "lemmaCroppedTitle": "腹腔妊娠", "lemmaDesc": "腹腔妊娠是指胚胎或胎儿位于输卵管、卵巢及阔韧带以外的腹腔内，其发生率约为1：15...", "lemmaUrl": "http://baike.baidu.com/item/%E8%85%B9%E8%85%94%E5%A6%8A%E5%A8%A0/1051127", "lemmaPic": []}, {"lemmaId": 13552983, "lemmaTitle": "白细胞减少和粒细胞缺乏症", "lemmaCroppedTitle": "白细胞减少和粒细胞缺乏症", "lemmaDesc": "健康成人血液中白细胞计数一般在4～10×109/A升（4000～10000A立方...", "lemmaUrl": "http://baike.baidu.com/item/%E7%99%BD%E7%BB%86%E8%83%9E%E5%87%8F%E5%B0%91%E5%92%8C%E7%B2%92%E7%BB%86%E8%83%9E%E7%BC%BA%E4%B9%8F%E7%97%87/13552983", "lemmaPic": []}, {"lemmaId": 6879398, "lemmaTitle": "庚型病毒性肝炎", "lemmaCroppedTitle": "庚型病毒性肝炎", "lemmaDesc": "庚型病毒性肝炎是由于感染庚型肝炎病毒（HGV）引起的，传播途径已被证实为肠外途径...", "lemmaUrl": "http://baike.baidu.com/item/%E5%BA%9A%E5%9E%8B%E7%97%85%E6%AF%92%E6%80%A7%E8%82%9D%E7%82%8E/6879398", "lemmaPic": []}, {"lemmaId": 278785, "lemmaTitle": "小棘苔藓", "lemmaCroppedTitle": "小棘苔藓", "lemmaDesc": "小棘苔藓特征为针尖大小的毛囊性角化丘疹，顶端有一角质丝棘突。多见于儿童的颈项、股...", "lemmaUrl": "http://baike.baidu.com/item/%E5%B0%8F%E6%A3%98%E8%8B%94%E8%97%93/278785", "lemmaPic": []}], "total": 7246, "totalPage": 73, "page": 25, "fromLemma": 0}