{"lemmaList": [{"lemmaId": 10439632, "lemmaTitle": "丛集性头痛", "lemmaCroppedTitle": "丛集性头痛", "lemmaDesc": "丛集性头痛是所有头痛中比较严重的一种，属于血管性头痛之一。因头痛在一段时间内密集...", "lemmaUrl": "http://baike.baidu.com/item/%E4%B8%9B%E9%9B%86%E6%80%A7%E5%A4%B4%E7%97%9B/10439632", "lemmaPic": []}, {"lemmaId": 9743975, "lemmaTitle": "多发性脑梗塞", "lemmaCroppedTitle": "多发性脑梗塞", "lemmaDesc": "多发性脑梗塞是指脑梗塞灶在2个以上，脑梗塞是一种缺血性脑血管疾病，主要有脑动脉闭...", "lemmaUrl": "http://baike.baidu.com/item/%E5%A4%9A%E5%8F%91%E6%80%A7%E8%84%91%E6%A2%97%E5%A1%9E/9743975", "lemmaPic": {"width": 492, "height": 365, "url": "https://gss1.bdstatic.com/-vo3dSag_xI4khGkpoWK1HF6hhy/baike/w%3D168/sign=af48a7b711dfa9ecfd2e52115ad1f754/8644ebf81a4c510f846227b16059252dd52aa5f3.jpg"}}, {"lemmaId": 4427887, "lemmaTitle": "碘缺乏病", "lemmaCroppedTitle": "碘缺乏病", "lemmaDesc": "机体因缺碘导致的一系列疾病以前命名为地方性甲状腺肿和地方性克汀病，现在统称为碘缺...", "lemmaUrl": "http://baike.baidu.com/item/%E7%A2%98%E7%BC%BA%E4%B9%8F%E7%97%85/4427887", "lemmaPic": []}, {"lemmaId": 8591187, "lemmaTitle": "银屑病关节炎", "lemmaCroppedTitle": "银屑病关节炎", "lemmaDesc": "银屑病关节炎（PsA）是一种与银屑病相关的炎性关节病，有银屑病皮疹并伴有关节和周...", "lemmaUrl": "http://baike.baidu.com/item/%E9%93%B6%E5%B1%91%E7%97%85%E5%85%B3%E8%8A%82%E7%82%8E/8591187", "lemmaPic": []}, {"lemmaId": 619637, "lemmaTitle": "老视", "lemmaCroppedTitle": "老视", "lemmaDesc": "老视是一种生理现象不是病理状态也不属于屈光不正，是人们步入中老年后必然出现的视觉...", "lemmaUrl": "http://baike.baidu.com/item/%E8%80%81%E8%A7%86/619637", "lemmaPic": []}, {"lemmaId": 5278155, "lemmaTitle": "慢性子宫内膜炎", "lemmaCroppedTitle": "慢性子宫内膜炎", "lemmaDesc": "子宫内膜炎可分为急性子宫内膜炎和慢性子宫内膜炎，即使有很广泛的慢性附件炎症，子宫...", "lemmaUrl": "http://baike.baidu.com/item/%E6%85%A2%E6%80%A7%E5%AD%90%E5%AE%AB%E5%86%85%E8%86%9C%E7%82%8E/5278155", "lemmaPic": []}, {"lemmaId": 8801549, "lemmaTitle": "腺性膀胱炎", "lemmaCroppedTitle": "腺性膀胱炎", "lemmaDesc": "腺性膀胱炎是一种比较少见的非肿瘤性炎性病变，是一种上皮增生与化生同时存在的病变，...", "lemmaUrl": "http://baike.baidu.com/item/%E8%85%BA%E6%80%A7%E8%86%80%E8%83%B1%E7%82%8E/8801549", "lemmaPic": []}, {"lemmaId": 4336595, "lemmaTitle": "毒血症", "lemmaCroppedTitle": "毒血症", "lemmaDesc": "毒血症是全身感染的一种类型，是指病原菌在侵入的局部组织中生长繁殖后，只有其产生的...", "lemmaUrl": "http://baike.baidu.com/item/%E6%AF%92%E8%A1%80%E7%97%87/4336595", "lemmaPic": []}, {"lemmaId": 3413910, "lemmaTitle": "家族性高胆固醇血症", "lemmaCroppedTitle": "家族性高胆固醇血症", "lemmaDesc": "家族性高胆固醇血症（FH）又称家族性高β脂蛋白血症。临床特点是高胆固醇血症、特征...", "lemmaUrl": "http://baike.baidu.com/item/%E5%AE%B6%E6%97%8F%E6%80%A7%E9%AB%98%E8%83%86%E5%9B%BA%E9%86%87%E8%A1%80%E7%97%87/3413910", "lemmaPic": []}, {"lemmaId": 3424579, "lemmaTitle": "先天性胆道闭锁", "lemmaCroppedTitle": "先天性胆道闭锁", "lemmaDesc": "先天性胆道闭锁，胆道闭锁占新生儿长期阻塞性黄疸的半数病例，其发病率为1∶8000...", "lemmaUrl": "http://baike.baidu.com/item/%E5%85%88%E5%A4%A9%E6%80%A7%E8%83%86%E9%81%93%E9%97%AD%E9%94%81/3424579", "lemmaPic": []}, {"lemmaId": 6895703, "lemmaTitle": "巨大儿", "lemmaCroppedTitle": "巨大儿", "lemmaDesc": "新生儿出生后1小时内体重等于或大于4000克者，就可以称为“巨大儿”。在上个世纪...", "lemmaUrl": "http://baike.baidu.com/item/%E5%B7%A8%E5%A4%A7%E5%84%BF/6895703", "lemmaPic": []}, {"lemmaId": 5242143, "lemmaTitle": "肛门直肠周围脓肿", "lemmaCroppedTitle": "肛门直肠周围脓肿", "lemmaDesc": "肛管、直肠周围软组织内或其周围间隙内发生急性化脓性感染，并形成脓肿，称为肛管直肠...", "lemmaUrl": "http://baike.baidu.com/item/%E8%82%9B%E9%97%A8%E7%9B%B4%E8%82%A0%E5%91%A8%E5%9B%B4%E8%84%93%E8%82%BF/5242143", "lemmaPic": []}, {"lemmaId": 10105060, "lemmaTitle": "慢性细菌性前列腺炎", "lemmaCroppedTitle": "慢性细菌性前列腺炎", "lemmaDesc": "慢性细菌性前列腺炎（CBP）是泌尿系常见疾病，临床上以青壮年多见，其病因复杂，临...", "lemmaUrl": "http://baike.baidu.com/item/%E6%85%A2%E6%80%A7%E7%BB%86%E8%8F%8C%E6%80%A7%E5%89%8D%E5%88%97%E8%85%BA%E7%82%8E/10105060", "lemmaPic": []}, {"lemmaId": 2289456, "lemmaTitle": "粒细胞减少症", "lemmaCroppedTitle": "粒细胞减少症", "lemmaDesc": "各种原因导致外周血白细胞数持续低于3.5×109/L，称为白细胞数减少症。外周血...", "lemmaUrl": "http://baike.baidu.com/item/%E7%B2%92%E7%BB%86%E8%83%9E%E5%87%8F%E5%B0%91%E7%97%87/2289456", "lemmaPic": []}, {"lemmaId": 2236679, "lemmaTitle": "急性鼻窦炎", "lemmaCroppedTitle": "急性鼻窦炎", "lemmaDesc": "急性鼻窦炎是鼻窦黏膜的一种急性化脓性炎症，常继发于急性鼻炎。急性鼻窦炎多由上呼吸...", "lemmaUrl": "http://baike.baidu.com/item/%E6%80%A5%E6%80%A7%E9%BC%BB%E7%AA%A6%E7%82%8E/2236679", "lemmaPic": []}, {"lemmaId": 5084930, "lemmaTitle": "雷诺病", "lemmaCroppedTitle": "雷诺病", "lemmaDesc": "雷诺病是一种遇冷或情绪紧张后，以阵发性肢端小动脉强烈收缩引起肢端缺血改变为特征的...", "lemmaUrl": "http://baike.baidu.com/item/%E9%9B%B7%E8%AF%BA%E7%97%85/5084930", "lemmaPic": []}, {"lemmaId": 10788996, "lemmaTitle": "外阴营养不良", "lemmaCroppedTitle": "外阴营养不良", "lemmaDesc": "外阴营养不良包括萎缩型营养障碍及增生型营养障碍。目前趋向于认为女阴部位的良性角化...", "lemmaUrl": "http://baike.baidu.com/item/%E5%A4%96%E9%98%B4%E8%90%A5%E5%85%BB%E4%B8%8D%E8%89%AF/10788996", "lemmaPic": []}, {"lemmaId": 2830641, "lemmaTitle": "慢性化脓性中耳炎", "lemmaCroppedTitle": "慢性化脓性中耳炎", "lemmaDesc": "慢性化脓性中耳炎是指中耳黏膜、骨膜或深达骨质的慢性化脓性炎症。本病在临床上较为常...", "lemmaUrl": "http://baike.baidu.com/item/%E6%85%A2%E6%80%A7%E5%8C%96%E8%84%93%E6%80%A7%E4%B8%AD%E8%80%B3%E7%82%8E/2830641", "lemmaPic": []}, {"lemmaId": 1387781, "lemmaTitle": "绦虫病", "lemmaCroppedTitle": "绦虫病", "lemmaDesc": "肠绦虫病系由寄生在肠道内幼绦虫所引起的疾病。我国所见主要是牛肉绦虫病与猪肉绦虫病...", "lemmaUrl": "http://baike.baidu.com/item/%E7%BB%A6%E8%99%AB%E7%97%85/1387781", "lemmaPic": []}, {"lemmaId": 1786208, "lemmaTitle": "左心衰", "lemmaCroppedTitle": "左心衰", "lemmaDesc": "左心衰指左心室代偿功能不全而发生的心力衰竭，临床上较为常见，以肺循环淤血为特征。...", "lemmaUrl": "http://baike.baidu.com/item/%E5%B7%A6%E5%BF%83%E8%A1%B0/1786208", "lemmaPic": []}, {"lemmaId": 8456208, "lemmaTitle": "原发性血小板增多症", "lemmaCroppedTitle": "原发性血小板增多症", "lemmaDesc": "原发性血小板增多症是一组相对慢性的骨髓增殖性疾病的一种，也称为“出血性”、“真性...", "lemmaUrl": "http://baike.baidu.com/item/%E5%8E%9F%E5%8F%91%E6%80%A7%E8%A1%80%E5%B0%8F%E6%9D%BF%E5%A2%9E%E5%A4%9A%E7%97%87/8456208", "lemmaPic": []}, {"lemmaId": 8464148, "lemmaTitle": "腰椎退行性病变", "lemmaCroppedTitle": "腰椎退行性病变", "lemmaDesc": "腰椎退行性病变是指腰椎自然老化、退化的生理病理过程。腰椎是人体躯干活动的枢纽，而...", "lemmaUrl": "http://baike.baidu.com/item/%E8%85%B0%E6%A4%8E%E9%80%80%E8%A1%8C%E6%80%A7%E7%97%85%E5%8F%98/8464148", "lemmaPic": []}, {"lemmaId": 6390205, "lemmaTitle": "脂肪泻", "lemmaCroppedTitle": "脂肪泻", "lemmaDesc": "脂肪泻是指各种原因引起的小肠消化、吸收功能降低，以致营养物质不能完全吸收，而从粪...", "lemmaUrl": "http://baike.baidu.com/item/%E8%84%82%E8%82%AA%E6%B3%BB/6390205", "lemmaPic": []}, {"lemmaId": 9373882, "lemmaTitle": "小儿便血", "lemmaCroppedTitle": "小儿便血", "lemmaDesc": "肛门排出的大便中带血，不论大便带血或全为血便，颜色是鲜红的、暗红的还是柏油样的，...", "lemmaUrl": "http://baike.baidu.com/item/%E5%B0%8F%E5%84%BF%E4%BE%BF%E8%A1%80/9373882", "lemmaPic": []}, {"lemmaId": 10324818, "lemmaTitle": "慢性淋病", "lemmaCroppedTitle": "慢性淋病", "lemmaDesc": "慢性淋病主要是通过性接触被传染，是淋菌性尿道炎的简称,是由淋球菌引起的泌尿生殖系...", "lemmaUrl": "http://baike.baidu.com/item/%E6%85%A2%E6%80%A7%E6%B7%8B%E7%97%85/10324818", "lemmaPic": []}, {"lemmaId": 8721836, "lemmaTitle": "脑外伤", "lemmaCroppedTitle": "脑外伤", "lemmaDesc": "脑外伤指由于外物造成的、头脑部肉眼可见的伤，一般可引起严重的后果。脑外伤常引起不...", "lemmaUrl": "http://baike.baidu.com/item/%E8%84%91%E5%A4%96%E4%BC%A4/8721836", "lemmaPic": []}, {"lemmaId": 9974358, "lemmaTitle": "毛状白斑", "lemmaCroppedTitle": "毛状白斑", "lemmaDesc": "毛状白斑是指发生在舌侧缘的一种呈毛状的白色斑块状损害，是艾滋病患者常见的口腔黏膜...", "lemmaUrl": "http://baike.baidu.com/item/%E6%AF%9B%E7%8A%B6%E7%99%BD%E6%96%91/9974358", "lemmaPic": []}, {"lemmaId": 9965205, "lemmaTitle": "肾上腺皮质功能减退症", "lemmaCroppedTitle": "肾上腺皮质功能减退症", "lemmaDesc": "肾上腺皮质功能减退症按病因可分为原发性和继发性，按病程可分为急性和慢性。原发性肾...", "lemmaUrl": "http://baike.baidu.com/item/%E8%82%BE%E4%B8%8A%E8%85%BA%E7%9A%AE%E8%B4%A8%E5%8A%9F%E8%83%BD%E5%87%8F%E9%80%80%E7%97%87/9965205", "lemmaPic": []}, {"lemmaId": 4431199, "lemmaTitle": "浮脉", "lemmaCroppedTitle": "浮脉", "lemmaDesc": "浮脉，脉象名。指轻取即得，重按稍减而不空，举之泛泛而有余，如水上漂木的脉象。《脉...", "lemmaUrl": "http://baike.baidu.com/item/%E6%B5%AE%E8%84%89/4431199", "lemmaPic": []}, {"lemmaId": 8746041, "lemmaTitle": "多发性脂肪瘤", "lemmaCroppedTitle": "多发性脂肪瘤", "lemmaDesc": "脂肪瘤由分化良好的脂肪组织构成，多发生于皮下。瘤周有一层薄的结缔组织包囊，内有被...", "lemmaUrl": "http://baike.baidu.com/item/%E5%A4%9A%E5%8F%91%E6%80%A7%E8%84%82%E8%82%AA%E7%98%A4/8746041", "lemmaPic": {"width": 250, "height": 322, "url": "https://gss1.bdstatic.com/9vo3dSag_xI4khGkpoWK1HF6hhy/baike/w%3D168/sign=a703e50db9014a90813e42bb91763971/63d9f2d3572c11df10f8e59c632762d0f703c260.jpg"}}, {"lemmaId": 10852903, "lemmaTitle": "肺阴虚", "lemmaCroppedTitle": "肺阴虚", "lemmaDesc": "肺阴虚证，又称肺阴亏损，是指肺脏的阴津亏损和阴虚火旺所表现的证候。肺居胸中，为五...", "lemmaUrl": "http://baike.baidu.com/item/%E8%82%BA%E9%98%B4%E8%99%9A/10852903", "lemmaPic": []}, {"lemmaId": 8568099, "lemmaTitle": "夜惊", "lemmaCroppedTitle": "夜惊", "lemmaDesc": "小儿夜惊是指1岁以内的哺乳婴儿，因寒、热、受惊等而致的夜间定时啼哭，甚则通宵达旦...", "lemmaUrl": "http://baike.baidu.com/item/%E5%A4%9C%E6%83%8A/8568099", "lemmaPic": []}, {"lemmaId": 7370649, "lemmaTitle": "潜伏梅毒", "lemmaCroppedTitle": "潜伏梅毒", "lemmaDesc": "梅毒（syphilis）是由梅毒螺旋体（Treponema pallidum，T...", "lemmaUrl": "http://baike.baidu.com/item/%E6%BD%9C%E4%BC%8F%E6%A2%85%E6%AF%92/7370649", "lemmaPic": []}, {"lemmaId": 581799, "lemmaTitle": "血脂异常", "lemmaCroppedTitle": "血脂异常", "lemmaDesc": "血脂异常是一类较常见的疾病，是人体内脂蛋白的代谢异常，主要包括总胆固醇和低密度脂...", "lemmaUrl": "http://baike.baidu.com/item/%E8%A1%80%E8%84%82%E5%BC%82%E5%B8%B8/581799", "lemmaPic": []}, {"lemmaId": 9905903, "lemmaTitle": "酒精依赖症", "lemmaCroppedTitle": "酒精依赖症", "lemmaDesc": "饮酒是一种颇为悠久而普遍的生活习惯和社会风俗，如今越来越多成为世界各国重要的公共...", "lemmaUrl": "http://baike.baidu.com/item/%E9%85%92%E7%B2%BE%E4%BE%9D%E8%B5%96%E7%97%87/9905903", "lemmaPic": []}, {"lemmaId": 712496, "lemmaTitle": "腹绞痛综合征", "lemmaCroppedTitle": "腹绞痛综合征", "lemmaDesc": "腹绞痛综合征是指肠道相对缺血引起的餐后上腹或中腹部疼痛的综合征。又称内脏绞痛、肠...", "lemmaUrl": "http://baike.baidu.com/item/%E8%85%B9%E7%BB%9E%E7%97%9B%E7%BB%BC%E5%90%88%E5%BE%81/712496", "lemmaPic": []}, {"lemmaId": 11055330, "lemmaTitle": "坏死性筋膜炎", "lemmaCroppedTitle": "坏死性筋膜炎", "lemmaDesc": "坏死性筋膜炎是一种广泛而迅速的皮下组织和筋膜坏死为特征的软组织感染，常伴有全身中...", "lemmaUrl": "http://baike.baidu.com/item/%E5%9D%8F%E6%AD%BB%E6%80%A7%E7%AD%8B%E8%86%9C%E7%82%8E/11055330", "lemmaPic": []}, {"lemmaId": 1106210, "lemmaTitle": "股外侧皮神经炎", "lemmaCroppedTitle": "股外侧皮神经炎", "lemmaDesc": "股外侧皮神经炎又称感觉异常性股痛、Bernhardt病、Roth病，是临床最常见...", "lemmaUrl": "http://baike.baidu.com/item/%E8%82%A1%E5%A4%96%E4%BE%A7%E7%9A%AE%E7%A5%9E%E7%BB%8F%E7%82%8E/1106210", "lemmaPic": []}, {"lemmaId": 4662079, "lemmaTitle": "痧", "lemmaCroppedTitle": "痧", "lemmaDesc": "感受时令不正之气，或秽浊邪毒及饮食不洁所引起的一种季节性病证。又称痧气、痧胀。临...", "lemmaUrl": "http://baike.baidu.com/item/%E7%97%A7/4662079", "lemmaPic": []}, {"lemmaId": 8905168, "lemmaTitle": "自身免疫性肝病", "lemmaCroppedTitle": "自身免疫性肝病", "lemmaDesc": "自身免疫性肝病（autoimmune liver disease, ALD）是一...", "lemmaUrl": "http://baike.baidu.com/item/%E8%87%AA%E8%BA%AB%E5%85%8D%E7%96%AB%E6%80%A7%E8%82%9D%E7%97%85/8905168", "lemmaPic": []}, {"lemmaId": 1962761, "lemmaTitle": "排卵障碍", "lemmaCroppedTitle": "排卵障碍", "lemmaDesc": "卵母细胞及包绕它的卵丘颗粒细胞一起排出的过程称排卵（Ovulation）。正常的...", "lemmaUrl": "http://baike.baidu.com/item/%E6%8E%92%E5%8D%B5%E9%9A%9C%E7%A2%8D/1962761", "lemmaPic": []}, {"lemmaId": 5086983, "lemmaTitle": "桡骨远端骨折", "lemmaCroppedTitle": "桡骨远端骨折", "lemmaDesc": "桡骨远端骨折非常常见，约占平时骨折的1/10。多见于老年妇女，青壮年发生均为外伤...", "lemmaUrl": "http://baike.baidu.com/item/%E6%A1%A1%E9%AA%A8%E8%BF%9C%E7%AB%AF%E9%AA%A8%E6%8A%98/5086983", "lemmaPic": []}, {"lemmaId": 1485545, "lemmaTitle": "牙隐裂", "lemmaCroppedTitle": "牙隐裂", "lemmaDesc": "牙隐裂又称不全牙裂或牙微裂，指牙冠表面的非生理性细小裂纹，常不易被发现。牙隐裂的...", "lemmaUrl": "http://baike.baidu.com/item/%E7%89%99%E9%9A%90%E8%A3%82/1485545", "lemmaPic": []}, {"lemmaId": 10809497, "lemmaTitle": "乳痈", "lemmaCroppedTitle": "乳痈", "lemmaDesc": "乳痈是以乳房红肿疼痛，乳汁排出不畅，以致结脓成痈的急性化脓性病证。多发于产后哺乳...", "lemmaUrl": "http://baike.baidu.com/item/%E4%B9%B3%E7%97%88/10809497", "lemmaPic": []}, {"lemmaId": 2007459, "lemmaTitle": "厌食", "lemmaCroppedTitle": "厌食", "lemmaDesc": "厌食是指小儿较长时期见食不贪，食欲不振，甚则拒食的一种常见的病证。辨证应辨病在脾...", "lemmaUrl": "http://baike.baidu.com/item/%E5%8E%8C%E9%A3%9F/2007459", "lemmaPic": []}, {"lemmaId": 981606, "lemmaTitle": "痴呆", "lemmaCroppedTitle": "痴呆", "lemmaDesc": "痴呆是指慢性获得性进行性智能障碍综合征。临床上以缓慢出现的智能减退为主要特征，伴...", "lemmaUrl": "http://baike.baidu.com/item/%E7%97%B4%E5%91%86/981606", "lemmaPic": []}, {"lemmaId": 1011488, "lemmaTitle": "血栓性静脉炎", "lemmaCroppedTitle": "血栓性静脉炎", "lemmaDesc": "血栓性静脉炎包括血栓性浅静脉炎及深部血栓形成。常先有静脉内血栓形成以后，发生静脉...", "lemmaUrl": "http://baike.baidu.com/item/%E8%A1%80%E6%A0%93%E6%80%A7%E9%9D%99%E8%84%89%E7%82%8E/1011488", "lemmaPic": []}, {"lemmaId": 5358365, "lemmaTitle": "缺血缺氧性脑病", "lemmaCroppedTitle": "缺血缺氧性脑病", "lemmaDesc": "缺血缺氧性脑病（HIE）是各种原因引起的脑组织缺血缺氧导致的脑部病变，最常见的是...", "lemmaUrl": "http://baike.baidu.com/item/%E7%BC%BA%E8%A1%80%E7%BC%BA%E6%B0%A7%E6%80%A7%E8%84%91%E7%97%85/5358365", "lemmaPic": []}, {"lemmaId": 10863430, "lemmaTitle": "副银屑病", "lemmaCroppedTitle": "副银屑病", "lemmaDesc": "副银屑病是一组较为少见的皮肤病。无明显自觉症状，病期长，无满意的治疗方法。急性苔...", "lemmaUrl": "http://baike.baidu.com/item/%E5%89%AF%E9%93%B6%E5%B1%91%E7%97%85/10863430", "lemmaPic": []}, {"lemmaId": 10975789, "lemmaTitle": "疣状胃炎", "lemmaCroppedTitle": "疣状胃炎", "lemmaDesc": "疣状胃炎（VG）是由Moutler和Corner于1947年报道的一种内镜下形态...", "lemmaUrl": "http://baike.baidu.com/item/%E7%96%A3%E7%8A%B6%E8%83%83%E7%82%8E/10975789", "lemmaPic": []}, {"lemmaId": 156128, "lemmaTitle": "霍纳综合征", "lemmaCroppedTitle": "霍纳综合征", "lemmaDesc": "霍纳综合征（Horner综合征）又称小儿颈交感神经麻痹综合征、Bernard-H...", "lemmaUrl": "http://baike.baidu.com/item/%E9%9C%8D%E7%BA%B3%E7%BB%BC%E5%90%88%E5%BE%81/156128", "lemmaPic": []}, {"lemmaId": 9904096, "lemmaTitle": "浸润性乳腺癌", "lemmaCroppedTitle": "浸润性乳腺癌", "lemmaDesc": "浸润性乳腺癌是指癌细胞已穿破乳腺导管或小叶腺泡的基底膜并侵入间质的一种恶性肿瘤。...", "lemmaUrl": "http://baike.baidu.com/item/%E6%B5%B8%E6%B6%A6%E6%80%A7%E4%B9%B3%E8%85%BA%E7%99%8C/9904096", "lemmaPic": []}, {"lemmaId": 5059709, "lemmaTitle": "应激性溃疡", "lemmaCroppedTitle": "应激性溃疡", "lemmaDesc": "应激性溃疡泛指休克、创伤、手术后和严重全身性感染时发生的急性胃炎，多伴有出血症状...", "lemmaUrl": "http://baike.baidu.com/item/%E5%BA%94%E6%BF%80%E6%80%A7%E6%BA%83%E7%96%A1/5059709", "lemmaPic": []}, {"lemmaId": 896209, "lemmaTitle": "咽鼓管阻塞", "lemmaCroppedTitle": "咽鼓管阻塞", "lemmaDesc": "咽鼓管阻塞时咽鼓管软骨段在解剖上正常，但其机能发生障碍，即咽鼓管咽口被动开放而不...", "lemmaUrl": "http://baike.baidu.com/item/%E5%92%BD%E9%BC%93%E7%AE%A1%E9%98%BB%E5%A1%9E/896209", "lemmaPic": []}, {"lemmaId": 6261659, "lemmaTitle": "糖尿病视网膜病变", "lemmaCroppedTitle": "糖尿病视网膜病变", "lemmaDesc": "糖尿病视网膜病变（DR）是糖尿病最常见的微血管并发症之一，患了糖尿病，是否发生糖...", "lemmaUrl": "http://baike.baidu.com/item/%E7%B3%96%E5%B0%BF%E7%97%85%E8%A7%86%E7%BD%91%E8%86%9C%E7%97%85%E5%8F%98/6261659", "lemmaPic": []}, {"lemmaId": 337511, "lemmaTitle": "低氧血症", "lemmaCroppedTitle": "低氧血症", "lemmaDesc": "低氧血症是指血液中含氧不足，动脉血氧分压（PaO2）低于同龄人的正常下限，主要表...", "lemmaUrl": "http://baike.baidu.com/item/%E4%BD%8E%E6%B0%A7%E8%A1%80%E7%97%87/337511", "lemmaPic": []}, {"lemmaId": 5157487, "lemmaTitle": "急性浅表性包皮龟头炎", "lemmaCroppedTitle": "急性浅表性包皮龟头炎", "lemmaDesc": "包皮龟头炎是包皮与龟头的弥漫性炎症，可以由感染性或非感染性因素所引起。临床上以感...", "lemmaUrl": "http://baike.baidu.com/item/%E6%80%A5%E6%80%A7%E6%B5%85%E8%A1%A8%E6%80%A7%E5%8C%85%E7%9A%AE%E9%BE%9F%E5%A4%B4%E7%82%8E/5157487", "lemmaPic": []}, {"lemmaId": 5119947, "lemmaTitle": "肾母细胞瘤", "lemmaCroppedTitle": "肾母细胞瘤", "lemmaDesc": "肾母细胞瘤是一种胚胎性恶性肿瘤。1814年Rance首先报告此病，1899年Wi...", "lemmaUrl": "http://baike.baidu.com/item/%E8%82%BE%E6%AF%8D%E7%BB%86%E8%83%9E%E7%98%A4/5119947", "lemmaPic": []}, {"lemmaId": 11031290, "lemmaTitle": "位置性眩晕", "lemmaCroppedTitle": "位置性眩晕", "lemmaDesc": "位置性眩晕又名壶腹嵴顶耳石症，多见于40～60岁成人，女性多见。可能是产生重力刺...", "lemmaUrl": "http://baike.baidu.com/item/%E4%BD%8D%E7%BD%AE%E6%80%A7%E7%9C%A9%E6%99%95/11031290", "lemmaPic": []}, {"lemmaId": 5461842, "lemmaTitle": "脐炎", "lemmaCroppedTitle": "脐炎", "lemmaDesc": "脐炎是脐残端的细菌性感染。根据发病年龄，可有成人脐炎和新生儿脐炎之分，分为急性脐...", "lemmaUrl": "http://baike.baidu.com/item/%E8%84%90%E7%82%8E/5461842", "lemmaPic": []}, {"lemmaId": 9955680, "lemmaTitle": "硬膜下血肿", "lemmaCroppedTitle": "硬膜下血肿", "lemmaDesc": "硬膜下血肿是指颅内出血血液积聚在硬脑膜下腔，在颅内血肿中发生率最高。根据伤后血肿...", "lemmaUrl": "http://baike.baidu.com/item/%E7%A1%AC%E8%86%9C%E4%B8%8B%E8%A1%80%E8%82%BF/9955680", "lemmaPic": []}, {"lemmaId": 9452541, "lemmaTitle": "尤文肉瘤", "lemmaCroppedTitle": "尤文肉瘤", "lemmaDesc": "骨尤文肉瘤（ES）是小圆形细胞的低分化的恶性肿瘤。它占所有原发性骨肿瘤的6%～8...", "lemmaUrl": "http://baike.baidu.com/item/%E5%B0%A4%E6%96%87%E8%82%89%E7%98%A4/9452541", "lemmaPic": []}, {"lemmaId": 5617844, "lemmaTitle": "宫颈上皮内瘤变", "lemmaCroppedTitle": "宫颈上皮内瘤变", "lemmaDesc": "宫颈上皮内瘤变（CIN）是一组与宫颈浸润癌密切相关的癌前病变的统称。包括宫颈不典...", "lemmaUrl": "http://baike.baidu.com/item/%E5%AE%AB%E9%A2%88%E4%B8%8A%E7%9A%AE%E5%86%85%E7%98%A4%E5%8F%98/5617844", "lemmaPic": []}, {"lemmaId": 9299589, "lemmaTitle": "盆腔囊肿", "lemmaCroppedTitle": "盆腔囊肿", "lemmaDesc": "常见的盆腔囊肿多见于卵巢肿瘤，在各种年龄均可发病，但肿瘤的组织学类型会有所不同。...", "lemmaUrl": "http://baike.baidu.com/item/%E7%9B%86%E8%85%94%E5%9B%8A%E8%82%BF/9299589", "lemmaPic": []}, {"lemmaId": 8017558, "lemmaTitle": "睑裂斑", "lemmaCroppedTitle": "睑裂斑", "lemmaDesc": "一种黄白色、无定形样沉积的结膜变性性损害，出现在睑裂区近角膜缘的球结膜上皮下。", "lemmaUrl": "http://baike.baidu.com/item/%E7%9D%91%E8%A3%82%E6%96%91/8017558", "lemmaPic": []}, {"lemmaId": 8842933, "lemmaTitle": "尺神经损伤", "lemmaCroppedTitle": "尺神经损伤", "lemmaDesc": "尺神经易在腕部和肘部损伤。尺神经损伤后，手掌的尺侧、小指全部、环指尺侧感觉均消失...", "lemmaUrl": "http://baike.baidu.com/item/%E5%B0%BA%E7%A5%9E%E7%BB%8F%E6%8D%9F%E4%BC%A4/8842933", "lemmaPic": []}, {"lemmaId": 8365602, "lemmaTitle": "血管性痴呆", "lemmaCroppedTitle": "血管性痴呆", "lemmaDesc": "血管性痴呆（VD）是指由缺血性卒中、出血性卒中和造成记忆、认知和行为等脑区低灌注...", "lemmaUrl": "http://baike.baidu.com/item/%E8%A1%80%E7%AE%A1%E6%80%A7%E7%97%B4%E5%91%86/8365602", "lemmaPic": []}, {"lemmaId": 542780, "lemmaTitle": "挤压综合征", "lemmaCroppedTitle": "挤压综合征", "lemmaDesc": "挤压综合征是指人体四肢或躯干等肌肉丰富的部位遭受重物（如，石块、土方等）长时间的...", "lemmaUrl": "http://baike.baidu.com/item/%E6%8C%A4%E5%8E%8B%E7%BB%BC%E5%90%88%E5%BE%81/542780", "lemmaPic": []}, {"lemmaId": 5321393, "lemmaTitle": "鼻骨骨折", "lemmaCroppedTitle": "鼻骨骨折", "lemmaDesc": "鼻是面部最突出的部位，容易受外力所伤，鼻骨骨折是耳鼻喉科常见的外伤，约占耳鼻喉科...", "lemmaUrl": "http://baike.baidu.com/item/%E9%BC%BB%E9%AA%A8%E9%AA%A8%E6%8A%98/5321393", "lemmaPic": []}, {"lemmaId": 9679103, "lemmaTitle": "前庭功能紊乱", "lemmaCroppedTitle": "前庭功能紊乱", "lemmaDesc": "在日常生活中，人体主要依靠前庭、视觉和本体感觉这3个系统的外周感受器感受身体位置...", "lemmaUrl": "http://baike.baidu.com/item/%E5%89%8D%E5%BA%AD%E5%8A%9F%E8%83%BD%E7%B4%8A%E4%B9%B1/9679103", "lemmaPic": []}, {"lemmaId": 11016168, "lemmaTitle": "沙眼衣原体感染", "lemmaCroppedTitle": "沙眼衣原体感染", "lemmaDesc": "沙眼衣原体感染引起沙眼，可致盲。沙眼衣原体由我国汤非凡、张晓楼等于1955年在世...", "lemmaUrl": "http://baike.baidu.com/item/%E6%B2%99%E7%9C%BC%E8%A1%A3%E5%8E%9F%E4%BD%93%E6%84%9F%E6%9F%93/11016168", "lemmaPic": []}, {"lemmaId": 3729578, "lemmaTitle": "感染性腹泻", "lemmaCroppedTitle": "感染性腹泻", "lemmaDesc": "感染性腹泻（也称急性胃肠炎）系指各种病原体肠道感染而引起的腹泻。根据腹泻的持续时...", "lemmaUrl": "http://baike.baidu.com/item/%E6%84%9F%E6%9F%93%E6%80%A7%E8%85%B9%E6%B3%BB/3729578", "lemmaPic": []}, {"lemmaId": 1751074, "lemmaTitle": "腰椎增生", "lemmaCroppedTitle": "腰椎增生", "lemmaDesc": "人类至中年以后，随着年龄的增大，机体各组织细胞的生理功能也逐渐衰退老化。其中，在...", "lemmaUrl": "http://baike.baidu.com/item/%E8%85%B0%E6%A4%8E%E5%A2%9E%E7%94%9F/1751074", "lemmaPic": []}, {"lemmaId": 1470022, "lemmaTitle": "颅咽管瘤", "lemmaCroppedTitle": "颅咽管瘤", "lemmaDesc": "颅咽管瘤是由外胚叶形成的颅咽管残余的上皮细胞发展起来的一种常见的胚胎残余组织肿瘤...", "lemmaUrl": "http://baike.baidu.com/item/%E9%A2%85%E5%92%BD%E7%AE%A1%E7%98%A4/1470022", "lemmaPic": []}, {"lemmaId": 2095898, "lemmaTitle": "胎位异常", "lemmaCroppedTitle": "胎位异常", "lemmaDesc": "胎儿在子宫内的位置叫胎位。正常的胎位应为胎体纵轴与母体纵轴平行，胎头在骨盆入口处...", "lemmaUrl": "http://baike.baidu.com/item/%E8%83%8E%E4%BD%8D%E5%BC%82%E5%B8%B8/2095898", "lemmaPic": []}, {"lemmaId": 2206208, "lemmaTitle": "口腔粘膜病", "lemmaCroppedTitle": "口腔粘膜病", "lemmaDesc": "口腔粘膜病即口腔黏膜病，口腔某一部位黏膜的正常色泽、外形、完整性与功能等发生改变...", "lemmaUrl": "http://baike.baidu.com/item/%E5%8F%A3%E8%85%94%E7%B2%98%E8%86%9C%E7%97%85/2206208", "lemmaPic": []}, {"lemmaId": 7895362, "lemmaTitle": "风湿性疾病", "lemmaCroppedTitle": "风湿性疾病", "lemmaDesc": "风湿性疾病是以关节痛、畏风寒为主症的一组极其常见的临床症候群。风湿病是风湿性疾病...", "lemmaUrl": "http://baike.baidu.com/item/%E9%A3%8E%E6%B9%BF%E6%80%A7%E7%96%BE%E7%97%85/7895362", "lemmaPic": []}, {"lemmaId": 3433744, "lemmaTitle": "小儿过敏性紫癜", "lemmaCroppedTitle": "小儿过敏性紫癜", "lemmaDesc": "过敏性紫癜是儿童时期最常见的血管炎之一，于19世纪30年代和70年代由许兰氏和亨...", "lemmaUrl": "http://baike.baidu.com/item/%E5%B0%8F%E5%84%BF%E8%BF%87%E6%95%8F%E6%80%A7%E7%B4%AB%E7%99%9C/3433744", "lemmaPic": []}, {"lemmaId": 10003259, "lemmaTitle": "良性阵发性位置性眩晕", "lemmaCroppedTitle": "良性阵发性位置性眩晕", "lemmaDesc": "良性阵发性位置性眩晕（BPPV）是一种临床上常见的周围性前庭疾病，是最常见的源于...", "lemmaUrl": "http://baike.baidu.com/item/%E8%89%AF%E6%80%A7%E9%98%B5%E5%8F%91%E6%80%A7%E4%BD%8D%E7%BD%AE%E6%80%A7%E7%9C%A9%E6%99%95/10003259", "lemmaPic": []}, {"lemmaId": 5241064, "lemmaTitle": "脾破裂", "lemmaCroppedTitle": "脾破裂", "lemmaDesc": "脾脏是一个血供丰富而质脆的实质性器官，被与其包膜相连的诸韧带固定在左上腹的后方，...", "lemmaUrl": "http://baike.baidu.com/item/%E8%84%BE%E7%A0%B4%E8%A3%82/5241064", "lemmaPic": []}, {"lemmaId": 371036, "lemmaTitle": "发芽马铃薯中毒", "lemmaCroppedTitle": "发芽马铃薯中毒", "lemmaDesc": "马铃薯其致毒成分为龙葵素，又称马铃薯毒素，是一种弱碱性的生物甙，可溶于水，遇醋酸...", "lemmaUrl": "http://baike.baidu.com/item/%E5%8F%91%E8%8A%BD%E9%A9%AC%E9%93%83%E8%96%AF%E4%B8%AD%E6%AF%92/371036", "lemmaPic": []}, {"lemmaId": 2387230, "lemmaTitle": "小儿抽动秽语综合征", "lemmaCroppedTitle": "小儿抽动秽语综合征", "lemmaDesc": "小儿抽动秽语综合征是一种慢性神经精神障碍的疾病，又称多发性抽动症。是指以不自主的...", "lemmaUrl": "http://baike.baidu.com/item/%E5%B0%8F%E5%84%BF%E6%8A%BD%E5%8A%A8%E7%A7%BD%E8%AF%AD%E7%BB%BC%E5%90%88%E5%BE%81/2387230", "lemmaPic": []}, {"lemmaId": 2892389, "lemmaTitle": "头风病", "lemmaCroppedTitle": "头风病", "lemmaDesc": "头风病是一种以慢性阵发性头痛为主要临床表现的疾病，该病病程较长、缠绵难愈、易于复...", "lemmaUrl": "http://baike.baidu.com/item/%E5%A4%B4%E9%A3%8E%E7%97%85/2892389", "lemmaPic": []}, {"lemmaId": 5870741, "lemmaTitle": "夏季皮炎", "lemmaCroppedTitle": "夏季皮炎", "lemmaDesc": "由于气候炎热引起的一种季节性的炎症性皮肤病，常在6～8月份发病。成人多见。皮损对...", "lemmaUrl": "http://baike.baidu.com/item/%E5%A4%8F%E5%AD%A3%E7%9A%AE%E7%82%8E/5870741", "lemmaPic": []}, {"lemmaId": 10455179, "lemmaTitle": "心室扑动与颤动", "lemmaCroppedTitle": "心室扑动与颤动", "lemmaDesc": "心室扑动与心室颤动是严重的异位心律，心室丧失有效的整体收缩能力，而是被各部心肌快...", "lemmaUrl": "http://baike.baidu.com/item/%E5%BF%83%E5%AE%A4%E6%89%91%E5%8A%A8%E4%B8%8E%E9%A2%A4%E5%8A%A8/10455179", "lemmaPic": []}, {"lemmaId": 4510908, "lemmaTitle": "小儿扁桃体炎", "lemmaCroppedTitle": "小儿扁桃体炎", "lemmaDesc": "扁桃体位于扁桃体隐窝内，是人体呼吸道的第一道免疫器官，抵制和消灭自口鼻进入的致病...", "lemmaUrl": "http://baike.baidu.com/item/%E5%B0%8F%E5%84%BF%E6%89%81%E6%A1%83%E4%BD%93%E7%82%8E/4510908", "lemmaPic": []}, {"lemmaId": 3584307, "lemmaTitle": "胫骨平台骨折", "lemmaCroppedTitle": "胫骨平台骨折", "lemmaDesc": "胫骨上端与股骨下端形成膝关节。胫骨与股骨下端接触的面为胫骨平台。胫骨平台是膝关节...", "lemmaUrl": "http://baike.baidu.com/item/%E8%83%AB%E9%AA%A8%E5%B9%B3%E5%8F%B0%E9%AA%A8%E6%8A%98/3584307", "lemmaPic": []}, {"lemmaId": 5085400, "lemmaTitle": "高渗性脱水", "lemmaCroppedTitle": "高渗性脱水", "lemmaDesc": "高渗性脱水即水和钠同时丧失，但缺水多于缺钠，故血清钠高于正常范围，细胞外液呈高渗...", "lemmaUrl": "http://baike.baidu.com/item/%E9%AB%98%E6%B8%97%E6%80%A7%E8%84%B1%E6%B0%B4/5085400", "lemmaPic": []}, {"lemmaId": 4359854, "lemmaTitle": "脾阴虚", "lemmaCroppedTitle": "脾阴虚", "lemmaDesc": "脾阴虚，病证名。指脾精不足。脾胃为后天之本，人体各部的濡养，有赖脾气散精输布。若...", "lemmaUrl": "http://baike.baidu.com/item/%E8%84%BE%E9%98%B4%E8%99%9A/4359854", "lemmaPic": []}, {"lemmaId": 354673, "lemmaTitle": "噬血细胞综合征", "lemmaCroppedTitle": "噬血细胞综合征", "lemmaDesc": "噬血细胞综合征（HLH）被认为是一种单核巨噬系统反应性增生的组织细胞病，主要是由...", "lemmaUrl": "http://baike.baidu.com/item/%E5%99%AC%E8%A1%80%E7%BB%86%E8%83%9E%E7%BB%BC%E5%90%88%E5%BE%81/354673", "lemmaPic": []}, {"lemmaId": 905893, "lemmaTitle": "宫角妊娠", "lemmaCroppedTitle": "宫角妊娠", "lemmaDesc": "宫角妊娠是一种胚胎种植在接近子宫与输卵管开口交界处的宫角部的子宫腔内的妊娠，从严...", "lemmaUrl": "http://baike.baidu.com/item/%E5%AE%AB%E8%A7%92%E5%A6%8A%E5%A8%A0/905893", "lemmaPic": []}, {"lemmaId": 1077578, "lemmaTitle": "心脏神经症", "lemmaCroppedTitle": "心脏神经症", "lemmaDesc": "心脏神经症亦称心脏神经官能症或心血管神经症，是神经症的一种特殊类型，以心血管系统...", "lemmaUrl": "http://baike.baidu.com/item/%E5%BF%83%E8%84%8F%E7%A5%9E%E7%BB%8F%E7%97%87/1077578", "lemmaPic": []}, {"lemmaId": 5338460, "lemmaTitle": "嵌顿包茎", "lemmaCroppedTitle": "嵌顿包茎", "lemmaDesc": "嵌顿包茎是因包皮口下翻至冠状沟时，位置固定而引起，又称为包皮嵌顿。常发生于包皮过...", "lemmaUrl": "http://baike.baidu.com/item/%E5%B5%8C%E9%A1%BF%E5%8C%85%E8%8C%8E/5338460", "lemmaPic": []}, {"lemmaId": 8093574, "lemmaTitle": "飞蛇病", "lemmaCroppedTitle": "飞蛇病", "lemmaDesc": "“飞蛇病”是一种民间称谓，其本质是医学上的带状疱疹，因疱疹常成串发生于躯干，形如...", "lemmaUrl": "http://baike.baidu.com/item/%E9%A3%9E%E8%9B%87%E7%97%85/8093574", "lemmaPic": []}, {"lemmaId": 2321804, "lemmaTitle": "主动脉瓣狭窄", "lemmaCroppedTitle": "主动脉瓣狭窄", "lemmaDesc": "主动脉瓣狭窄主要由风湿热的后遗症、先天性主动脉瓣结构异常或老年性主动脉瓣钙化所致...", "lemmaUrl": "http://baike.baidu.com/item/%E4%B8%BB%E5%8A%A8%E8%84%89%E7%93%A3%E7%8B%AD%E7%AA%84/2321804", "lemmaPic": []}, {"lemmaId": 730989, "lemmaTitle": "急性心力衰竭", "lemmaCroppedTitle": "急性心力衰竭", "lemmaDesc": "急性心力衰竭（AHF）是指急性发作或加重的左心功能异常所致的心肌收缩力降低、心脏...", "lemmaUrl": "http://baike.baidu.com/item/%E6%80%A5%E6%80%A7%E5%BF%83%E5%8A%9B%E8%A1%B0%E7%AB%AD/730989", "lemmaPic": []}, {"lemmaId": 10546502, "lemmaTitle": "左前分支传导阻滞", "lemmaCroppedTitle": "左前分支传导阻滞", "lemmaDesc": "左前分支传导阻滞又称左前半阻滞。左前分支是左束支较细长的分支，在室间隔的位置表浅...", "lemmaUrl": "http://baike.baidu.com/item/%E5%B7%A6%E5%89%8D%E5%88%86%E6%94%AF%E4%BC%A0%E5%AF%BC%E9%98%BB%E6%BB%9E/10546502", "lemmaPic": []}, {"lemmaId": 5321015, "lemmaTitle": "口腔白斑病", "lemmaCroppedTitle": "口腔白斑病", "lemmaDesc": "口腔白斑病是指仅仅发生在口腔黏膜上的白色或灰白色角化性病变的斑块状损害，是一种常...", "lemmaUrl": "http://baike.baidu.com/item/%E5%8F%A3%E8%85%94%E7%99%BD%E6%96%91%E7%97%85/5321015", "lemmaPic": []}, {"lemmaId": 5278059, "lemmaTitle": "子宫破裂", "lemmaCroppedTitle": "子宫破裂", "lemmaDesc": "子宫破裂是指子宫体部或子宫下段于分娩期或妊娠期发生裂伤，为产科严重并发症，威胁母...", "lemmaUrl": "http://baike.baidu.com/item/%E5%AD%90%E5%AE%AB%E7%A0%B4%E8%A3%82/5278059", "lemmaPic": []}, {"lemmaId": 9903924, "lemmaTitle": "糖尿病性视网膜病变", "lemmaCroppedTitle": "糖尿病性视网膜病变", "lemmaDesc": "糖尿病性视网膜病变（DR）是糖尿病性微血管病变中最重要的表现，是一种具有特异性改...", "lemmaUrl": "http://baike.baidu.com/item/%E7%B3%96%E5%B0%BF%E7%97%85%E6%80%A7%E8%A7%86%E7%BD%91%E8%86%9C%E7%97%85%E5%8F%98/9903924", "lemmaPic": []}], "total": 7246, "totalPage": 73, "page": 15, "fromLemma": 0}