{"lemmaList": [{"lemmaId": 1662449, "lemmaTitle": "鼻衄", "lemmaCroppedTitle": "鼻衄", "lemmaDesc": "鼻衄是临床常见的症状之一，俗称鼻出血。可由鼻部疾病引起，也可由全身疾病所致。鼻出...", "lemmaUrl": "http://baike.baidu.com/item/%E9%BC%BB%E8%A1%84/1662449", "lemmaPic": []}, {"lemmaId": 8724835, "lemmaTitle": "珠蛋白生成障碍性贫血", "lemmaCroppedTitle": "珠蛋白生成障碍性贫血", "lemmaDesc": "珠蛋白生成障碍性贫血原名地中海贫血又称海洋性贫血，是一组遗传性溶血性贫血疾病。由...", "lemmaUrl": "http://baike.baidu.com/item/%E7%8F%A0%E8%9B%8B%E7%99%BD%E7%94%9F%E6%88%90%E9%9A%9C%E7%A2%8D%E6%80%A7%E8%B4%AB%E8%A1%80/8724835", "lemmaPic": []}, {"lemmaId": 28971, "lemmaTitle": "过敏", "lemmaCroppedTitle": "过敏", "lemmaDesc": "正常的情况下，当外来物质进入人体后大都面临两种命运，如果被机体识别为有用或无害物...", "lemmaUrl": "http://baike.baidu.com/item/%E8%BF%87%E6%95%8F/28971", "lemmaPic": []}, {"lemmaId": 2464079, "lemmaTitle": "窦性心动过缓", "lemmaCroppedTitle": "窦性心动过缓", "lemmaDesc": "窦性心律慢于每分钟60次称为窦性心动过缓。可见于健康的成人，尤其是运动员、老年人...", "lemmaUrl": "http://baike.baidu.com/item/%E7%AA%A6%E6%80%A7%E5%BF%83%E5%8A%A8%E8%BF%87%E7%BC%93/2464079", "lemmaPic": []}, {"lemmaId": 545691, "lemmaTitle": "闭经", "lemmaCroppedTitle": "闭经", "lemmaDesc": "闭经（amenorrhea）是多种疾病导致的女性体内病理生理变化的外在表现，是一...", "lemmaUrl": "http://baike.baidu.com/item/%E9%97%AD%E7%BB%8F/545691", "lemmaPic": []}, {"lemmaId": 795145, "lemmaTitle": "分娩", "lemmaCroppedTitle": "分娩", "lemmaDesc": "分娩，特指胎儿脱离母体成为独立存在的个体的这段时期和过程。分娩的全过程共分为3期...", "lemmaUrl": "http://baike.baidu.com/item/%E5%88%86%E5%A8%A9/795145", "lemmaPic": []}, {"lemmaId": 5456844, "lemmaTitle": "密集物体恐惧症", "lemmaCroppedTitle": "密集物体恐惧症", "lemmaDesc": "密集物体恐惧症其真正恐惧的原因是因为人们会对密集物体发生本能的恐惧心理，所谓的莲...", "lemmaUrl": "http://baike.baidu.com/item/%E5%AF%86%E9%9B%86%E7%89%A9%E4%BD%93%E6%81%90%E6%83%A7%E7%97%87/5456844", "lemmaPic": []}, {"lemmaId": 3399936, "lemmaTitle": "血热", "lemmaCroppedTitle": "血热", "lemmaDesc": "血热（heat in blood），是指外感热邪入血中，血行加速而异常，表现为出...", "lemmaUrl": "http://baike.baidu.com/item/%E8%A1%80%E7%83%AD/3399936", "lemmaPic": []}, {"lemmaId": 5372831, "lemmaTitle": "2型糖尿病", "lemmaCroppedTitle": "2型糖尿病", "lemmaDesc": "2型糖尿病原名叫成人发病型糖尿病，多在35～40岁之后发病，占糖尿病患者90%以...", "lemmaUrl": "http://baike.baidu.com/item/2%E5%9E%8B%E7%B3%96%E5%B0%BF%E7%97%85/5372831", "lemmaPic": []}, {"lemmaId": 1441397, "lemmaTitle": "心脑血管疾病", "lemmaCroppedTitle": "心脑血管疾病", "lemmaDesc": "心脑血管疾病是心脏血管和脑血管疾病的统称，泛指由于高脂血症、血液黏稠、动脉粥样硬...", "lemmaUrl": "http://baike.baidu.com/item/%E5%BF%83%E8%84%91%E8%A1%80%E7%AE%A1%E7%96%BE%E7%97%85/1441397", "lemmaPic": {"width": 599, "height": 435, "url": "https://gss3.bdstatic.com/-Po3dSag_xI4khGkpoWK1HF6hhy/baike/w%3D168/sign=c76b13d35edf8db1bc2e78623123dddb/71cf3bc79f3df8dc4a0b9ddacd11728b47102842.jpg"}}, {"lemmaId": 1938853, "lemmaTitle": "呃逆", "lemmaCroppedTitle": "呃逆", "lemmaDesc": "呃逆即打嗝，指气从胃中上逆，喉间频频作声，声音急而短促。是一个生理上常见的现象，...", "lemmaUrl": "http://baike.baidu.com/item/%E5%91%83%E9%80%86/1938853", "lemmaPic": []}, {"lemmaId": 841372, "lemmaTitle": "牙齿矫正", "lemmaCroppedTitle": "牙齿矫正", "lemmaDesc": "牙齿矫正包括范围较广，通常是指通过口腔技术手段，修整牙齿排列不齐、牙齿形态异常、...", "lemmaUrl": "http://baike.baidu.com/item/%E7%89%99%E9%BD%BF%E7%9F%AB%E6%AD%A3/841372", "lemmaPic": []}, {"lemmaId": 3155010, "lemmaTitle": "胃痉挛", "lemmaCroppedTitle": "胃痉挛", "lemmaDesc": "胃痉挛（gastrospasm）即胃部肌肉抽搐，是胃呈现的一种强烈收缩状态。多由...", "lemmaUrl": "http://baike.baidu.com/item/%E8%83%83%E7%97%89%E6%8C%9B/3155010", "lemmaPic": []}, {"lemmaId": 1309798, "lemmaTitle": "美尼尔氏综合症", "lemmaCroppedTitle": "美尼尔氏综合症", "lemmaDesc": "美尼尔氏综合症又称迷路积水，是由于内耳的膜迷路发生积水，以致出现发作性眩晕、耳鸣...", "lemmaUrl": "http://baike.baidu.com/item/%E7%BE%8E%E5%B0%BC%E5%B0%94%E6%B0%8F%E7%BB%BC%E5%90%88%E7%97%87/1309798", "lemmaPic": []}, {"lemmaId": 1793528, "lemmaTitle": "包皮龟头炎", "lemmaCroppedTitle": "包皮龟头炎", "lemmaDesc": "包皮龟头炎是指包皮内板与阴茎头的炎症。正常包皮腔内分泌的一种类脂物质，在包皮过长...", "lemmaUrl": "http://baike.baidu.com/item/%E5%8C%85%E7%9A%AE%E9%BE%9F%E5%A4%B4%E7%82%8E/1793528", "lemmaPic": []}, {"lemmaId": 9755205, "lemmaTitle": "巧克力囊肿", "lemmaCroppedTitle": "巧克力囊肿", "lemmaDesc": "卵巢巧克力囊肿（chocolate cyst of ovary）又名卵巢子宫内膜...", "lemmaUrl": "http://baike.baidu.com/item/%E5%B7%A7%E5%85%8B%E5%8A%9B%E5%9B%8A%E8%82%BF/9755205", "lemmaPic": []}, {"lemmaId": 8657236, "lemmaTitle": "艾滋病潜伏期", "lemmaCroppedTitle": "艾滋病潜伏期", "lemmaDesc": "艾滋病潜伏期指的是从感染艾滋病病毒（HIV）开始，到出现艾滋病症状和体征的时间。...", "lemmaUrl": "http://baike.baidu.com/item/%E8%89%BE%E6%BB%8B%E7%97%85%E6%BD%9C%E4%BC%8F%E6%9C%9F/8657236", "lemmaPic": []}, {"lemmaId": 5093341, "lemmaTitle": "空调病", "lemmaCroppedTitle": "空调病", "lemmaDesc": "长期处在空调环境中而出现头晕、头痛、食欲不振、上呼吸道感染、关节酸痛等症状称为空...", "lemmaUrl": "http://baike.baidu.com/item/%E7%A9%BA%E8%B0%83%E7%97%85/5093341", "lemmaPic": []}, {"lemmaId": 2422893, "lemmaTitle": "附睾炎", "lemmaCroppedTitle": "附睾炎", "lemmaDesc": "附睾炎是青壮年人的常见疾病，当身体抵抗力低下时，大肠杆菌、葡萄球菌、链球菌等致病...", "lemmaUrl": "http://baike.baidu.com/item/%E9%99%84%E7%9D%BE%E7%82%8E/2422893", "lemmaPic": []}, {"lemmaId": 1465543, "lemmaTitle": "急性胃肠炎", "lemmaCroppedTitle": "急性胃肠炎", "lemmaDesc": "急性胃肠炎是胃肠黏膜的急性炎症，临床表现主要为恶心、呕吐、腹痛、腹泻、发热等。本...", "lemmaUrl": "http://baike.baidu.com/item/%E6%80%A5%E6%80%A7%E8%83%83%E8%82%A0%E7%82%8E/1465543", "lemmaPic": []}, {"lemmaId": 2248748, "lemmaTitle": "先天性心脏病", "lemmaCroppedTitle": "先天性心脏病", "lemmaDesc": "先天性心脏病是先天性畸形中最常见的一类，约占各种先天畸形的28%，指在胚胎发育时...", "lemmaUrl": "http://baike.baidu.com/item/%E5%85%88%E5%A4%A9%E6%80%A7%E5%BF%83%E8%84%8F%E7%97%85/2248748", "lemmaPic": []}, {"lemmaId": 1385689, "lemmaTitle": "大肠癌", "lemmaCroppedTitle": "大肠癌", "lemmaDesc": "大肠癌是常见的恶性肿瘤，包括结肠癌和直肠癌。大肠癌的发病率从高到低依次为直肠、乙...", "lemmaUrl": "http://baike.baidu.com/item/%E5%A4%A7%E8%82%A0%E7%99%8C/1385689", "lemmaPic": []}, {"lemmaId": 1200655, "lemmaTitle": "宫颈息肉", "lemmaCroppedTitle": "宫颈息肉", "lemmaDesc": "宫颈息肉（cervical polyp）是慢性宫颈炎表现的一种，在已婚妇女中比较...", "lemmaUrl": "http://baike.baidu.com/item/%E5%AE%AB%E9%A2%88%E6%81%AF%E8%82%89/1200655", "lemmaPic": []}, {"lemmaId": 6532492, "lemmaTitle": "牙龈萎缩", "lemmaCroppedTitle": "牙龈萎缩", "lemmaDesc": "牙龈萎缩是一种常见病，因牙周疾病所引起，在牙龈低部有牙结石，牙结石可以造成牙龈萎...", "lemmaUrl": "http://baike.baidu.com/item/%E7%89%99%E9%BE%88%E8%90%8E%E7%BC%A9/6532492", "lemmaPic": []}, {"lemmaId": 3335414, "lemmaTitle": "牙痛", "lemmaCroppedTitle": "牙痛", "lemmaDesc": "牙痛是指牙齿因各种原因引起的疼痛，为口腔疾患中常见的症状之一，可见于龋齿、牙髓炎...", "lemmaUrl": "http://baike.baidu.com/item/%E7%89%99%E7%97%9B/3335414", "lemmaPic": []}, {"lemmaId": 3201309, "lemmaTitle": "乳腺纤维腺瘤", "lemmaCroppedTitle": "乳腺纤维腺瘤", "lemmaDesc": "乳腺纤维腺瘤是由腺上皮和纤维组织两种成分混合组成的良性肿瘤，好发于青年女性，与患...", "lemmaUrl": "http://baike.baidu.com/item/%E4%B9%B3%E8%85%BA%E7%BA%A4%E7%BB%B4%E8%85%BA%E7%98%A4/3201309", "lemmaPic": []}, {"lemmaId": 857263, "lemmaTitle": "脑萎缩", "lemmaCroppedTitle": "脑萎缩", "lemmaDesc": "脑萎缩（brain atrophy）是指由各种原因导致脑组织本身发生器质性病变而...", "lemmaUrl": "http://baike.baidu.com/item/%E8%84%91%E8%90%8E%E7%BC%A9/857263", "lemmaPic": []}, {"lemmaId": 865233, "lemmaTitle": "干眼症", "lemmaCroppedTitle": "干眼症", "lemmaDesc": "干眼症是指任何原因造成的泪液质或量异常或动力学异常，导致泪膜稳定性下降，并伴有眼...", "lemmaUrl": "http://baike.baidu.com/item/%E5%B9%B2%E7%9C%BC%E7%97%87/865233", "lemmaPic": []}, {"lemmaId": 1203975, "lemmaTitle": "眩晕", "lemmaCroppedTitle": "眩晕", "lemmaDesc": "眩晕是因机体对空间定位障碍而产生的一种动性或位置性错觉，它涉及多个学科。绝大多数...", "lemmaUrl": "http://baike.baidu.com/item/%E7%9C%A9%E6%99%95/1203975", "lemmaPic": []}, {"lemmaId": 765840, "lemmaTitle": "再生障碍性贫血", "lemmaCroppedTitle": "再生障碍性贫血", "lemmaDesc": "再生障碍性贫血简称再障，是一组由多种病因所致的骨髓造血功能衰竭性综合征，以骨髓造...", "lemmaUrl": "http://baike.baidu.com/item/%E5%86%8D%E7%94%9F%E9%9A%9C%E7%A2%8D%E6%80%A7%E8%B4%AB%E8%A1%80/765840", "lemmaPic": []}, {"lemmaId": 949431, "lemmaTitle": "化疗", "lemmaCroppedTitle": "化疗", "lemmaDesc": "化疗是化学药物治疗的简称，通过使用化学治疗药物杀灭癌细胞达到治疗目的。化疗是目前...", "lemmaUrl": "http://baike.baidu.com/item/%E5%8C%96%E7%96%97/949431", "lemmaPic": []}, {"lemmaId": 886293, "lemmaTitle": "淋巴结炎", "lemmaCroppedTitle": "淋巴结炎", "lemmaDesc": "淋巴结炎是由淋巴结所属引流区域的急、慢性炎症累及淋巴结所引起的非特异性炎症，如上...", "lemmaUrl": "http://baike.baidu.com/item/%E6%B7%8B%E5%B7%B4%E7%BB%93%E7%82%8E/886293", "lemmaPic": []}, {"lemmaId": 100251, "lemmaTitle": "高原反应", "lemmaCroppedTitle": "高原反应", "lemmaDesc": "高原反应（high altitude reaction），亦称高原病、高山病，严...", "lemmaUrl": "http://baike.baidu.com/item/%E9%AB%98%E5%8E%9F%E5%8F%8D%E5%BA%94/100251", "lemmaPic": []}, {"lemmaId": 952849, "lemmaTitle": "鼻息肉", "lemmaCroppedTitle": "鼻息肉", "lemmaDesc": "鼻息肉（nasal polyp）是赘生于鼻腔或鼻窦黏膜上突出于鼻腔黏膜表面的增生...", "lemmaUrl": "http://baike.baidu.com/item/%E9%BC%BB%E6%81%AF%E8%82%89/952849", "lemmaPic": []}, {"lemmaId": 253990, "lemmaTitle": "水肿", "lemmaCroppedTitle": "水肿", "lemmaDesc": "组织间隙过量的体液潴留称为水肿（edema），通常指皮肤及皮下组织液体潴留，体腔...", "lemmaUrl": "http://baike.baidu.com/item/%E6%B0%B4%E8%82%BF/253990", "lemmaPic": []}, {"lemmaId": 9831813, "lemmaTitle": "儿童孤独症", "lemmaCroppedTitle": "儿童孤独症", "lemmaDesc": "儿童孤独症是广泛性发育障碍的一种亚型，以男性多见，起病于婴幼儿期，主要表现为不同...", "lemmaUrl": "http://baike.baidu.com/item/%E5%84%BF%E7%AB%A5%E5%AD%A4%E7%8B%AC%E7%97%87/9831813", "lemmaPic": []}, {"lemmaId": 4823096, "lemmaTitle": "尿蛋白", "lemmaCroppedTitle": "尿蛋白", "lemmaDesc": "尿内出现蛋白称为蛋白尿，也即尿蛋白。正常尿液中含少量小分子蛋白，普通尿常规检查测...", "lemmaUrl": "http://baike.baidu.com/item/%E5%B0%BF%E8%9B%8B%E7%99%BD/4823096", "lemmaPic": []}, {"lemmaId": 2248862, "lemmaTitle": "皮肤癌", "lemmaCroppedTitle": "皮肤癌", "lemmaDesc": "皮肤癌即皮肤恶性肿瘤，根据肿瘤细胞的来源不同而有不同的命名，包括表皮、皮肤附属器...", "lemmaUrl": "http://baike.baidu.com/item/%E7%9A%AE%E8%82%A4%E7%99%8C/2248862", "lemmaPic": []}, {"lemmaId": 5869824, "lemmaTitle": "丘疹性荨麻疹", "lemmaCroppedTitle": "丘疹性荨麻疹", "lemmaDesc": "丘疹性荨麻疹又称荨麻疹性苔藓、婴儿苔藓。是婴幼儿及儿童常见的过敏性皮肤病，但成人...", "lemmaUrl": "http://baike.baidu.com/item/%E4%B8%98%E7%96%B9%E6%80%A7%E8%8D%A8%E9%BA%BB%E7%96%B9/5869824", "lemmaPic": []}, {"lemmaId": 2348255, "lemmaTitle": "早搏", "lemmaCroppedTitle": "早搏", "lemmaDesc": "过早搏动简称早搏。是指异位起搏点发出的过早冲动引起的心脏搏动，为最常见的心律失常...", "lemmaUrl": "http://baike.baidu.com/item/%E6%97%A9%E6%90%8F/2348255", "lemmaPic": []}, {"lemmaId": 1020625, "lemmaTitle": "食物中毒", "lemmaCroppedTitle": "食物中毒", "lemmaDesc": "食物中毒是指患者所进食物被细菌或细菌毒素污染，或食物含有毒素而引起的急性中毒性疾...", "lemmaUrl": "http://baike.baidu.com/item/%E9%A3%9F%E7%89%A9%E4%B8%AD%E6%AF%92/1020625", "lemmaPic": []}, {"lemmaId": 909051, "lemmaTitle": "皮炎", "lemmaCroppedTitle": "皮炎", "lemmaDesc": "皮炎（dermatitis）是指由各种内、外部感染或非感染性因素导致的皮肤炎症性...", "lemmaUrl": "http://baike.baidu.com/item/%E7%9A%AE%E7%82%8E/909051", "lemmaPic": []}, {"lemmaId": 3549507, "lemmaTitle": "慢性荨麻疹", "lemmaCroppedTitle": "慢性荨麻疹", "lemmaDesc": "慢性荨麻疹是指由各种因素致使皮肤、黏膜、血管发生暂时性炎性充血与组织内水肿，病程...", "lemmaUrl": "http://baike.baidu.com/item/%E6%85%A2%E6%80%A7%E8%8D%A8%E9%BA%BB%E7%96%B9/3549507", "lemmaPic": []}, {"lemmaId": 4245026, "lemmaTitle": "人感染禽流感", "lemmaCroppedTitle": "人感染禽流感", "lemmaDesc": "人感染禽流感，是由禽流感病毒引起的人类疾病。禽流感病毒，属于甲型流感病毒，根据禽...", "lemmaUrl": "http://baike.baidu.com/item/%E4%BA%BA%E6%84%9F%E6%9F%93%E7%A6%BD%E6%B5%81%E6%84%9F/4245026", "lemmaPic": []}, {"lemmaId": 6331291, "lemmaTitle": "骨癌", "lemmaCroppedTitle": "骨癌", "lemmaDesc": "骨肿瘤是发生于骨骼或其附属组织的肿瘤。有良性，恶性之分。恶性骨肿瘤，就是老百姓常...", "lemmaUrl": "http://baike.baidu.com/item/%E9%AA%A8%E7%99%8C/6331291", "lemmaPic": []}, {"lemmaId": 2261826, "lemmaTitle": "脑炎", "lemmaCroppedTitle": "脑炎", "lemmaDesc": "脑炎（encephalitis）是指脑实质受病原体侵袭导致的炎症性病变。根据病因...", "lemmaUrl": "http://baike.baidu.com/item/%E8%84%91%E7%82%8E/2261826", "lemmaPic": []}, {"lemmaId": 9387046, "lemmaTitle": "碱性磷酸酶", "lemmaCroppedTitle": "碱性磷酸酶", "lemmaDesc": "碱性磷酸酶（ALP或AKP）是广泛分布于人体肝脏、骨骼、肠、肾和胎盘等组织经肝脏...", "lemmaUrl": "http://baike.baidu.com/item/%E7%A2%B1%E6%80%A7%E7%A3%B7%E9%85%B8%E9%85%B6/9387046", "lemmaPic": []}, {"lemmaId": 8777985, "lemmaTitle": "斯德哥尔摩综合征", "lemmaCroppedTitle": "斯德哥尔摩综合征", "lemmaDesc": "斯德哥尔摩综合征，斯德哥尔摩效应，又称斯德哥尔摩症候群或者称为人质情结或人质综合...", "lemmaUrl": "http://baike.baidu.com/item/%E6%96%AF%E5%BE%B7%E5%93%A5%E5%B0%94%E6%91%A9%E7%BB%BC%E5%90%88%E5%BE%81/8777985", "lemmaPic": []}, {"lemmaId": 4652647, "lemmaTitle": "萎缩性胃炎", "lemmaCroppedTitle": "萎缩性胃炎", "lemmaDesc": "萎缩性胃炎也称慢性萎缩性胃炎，以胃黏膜上皮和腺体萎缩，数目减少，胃黏膜变薄，黏膜...", "lemmaUrl": "http://baike.baidu.com/item/%E8%90%8E%E7%BC%A9%E6%80%A7%E8%83%83%E7%82%8E/4652647", "lemmaPic": []}, {"lemmaId": 7705604, "lemmaTitle": "乳腺增生症", "lemmaCroppedTitle": "乳腺增生症", "lemmaDesc": "乳腺增生症，既不是肿瘤,也不属于炎症,从组织学表现看：是乳腺组织增生及退行性变，...", "lemmaUrl": "http://baike.baidu.com/item/%E4%B9%B3%E8%85%BA%E5%A2%9E%E7%94%9F%E7%97%87/7705604", "lemmaPic": []}, {"lemmaId": 2813064, "lemmaTitle": "睾丸炎", "lemmaCroppedTitle": "睾丸炎", "lemmaDesc": "睾丸炎通常由细菌和病毒引起。睾丸本身很少发生细菌性感染，由于睾丸有丰富的血液和淋...", "lemmaUrl": "http://baike.baidu.com/item/%E7%9D%BE%E4%B8%B8%E7%82%8E/2813064", "lemmaPic": []}, {"lemmaId": 1373927, "lemmaTitle": "心力衰竭", "lemmaCroppedTitle": "心力衰竭", "lemmaDesc": "心力衰竭（heart failure）简称心衰，是指由于心脏的收缩功能和（或）舒...", "lemmaUrl": "http://baike.baidu.com/item/%E5%BF%83%E5%8A%9B%E8%A1%B0%E7%AB%AD/1373927", "lemmaPic": []}, {"lemmaId": 273256, "lemmaTitle": "流行性感冒", "lemmaCroppedTitle": "流行性感冒", "lemmaDesc": "流行性感冒（简称流感）是流感病毒引起的急性呼吸道感染，也是一种传染性强、传播速度...", "lemmaUrl": "http://baike.baidu.com/item/%E6%B5%81%E8%A1%8C%E6%80%A7%E6%84%9F%E5%86%92/273256", "lemmaPic": []}, {"lemmaId": 8622327, "lemmaTitle": "敏感性皮肤", "lemmaCroppedTitle": "敏感性皮肤", "lemmaDesc": "敏感性皮肤的确切含义尚未达成一致。一般认为敏感性皮肤是一种高度不耐受的皮肤状态，...", "lemmaUrl": "http://baike.baidu.com/item/%E6%95%8F%E6%84%9F%E6%80%A7%E7%9A%AE%E8%82%A4/8622327", "lemmaPic": []}, {"lemmaId": 5560309, "lemmaTitle": "输卵管堵塞", "lemmaCroppedTitle": "输卵管堵塞", "lemmaDesc": "输卵管堵塞主要导致女性不孕，占女性不孕的25%至35%，而导致输卵管损伤的主要原...", "lemmaUrl": "http://baike.baidu.com/item/%E8%BE%93%E5%8D%B5%E7%AE%A1%E5%A0%B5%E5%A1%9E/5560309", "lemmaPic": []}, {"lemmaId": 3155649, "lemmaTitle": "胆汁反流性胃炎", "lemmaCroppedTitle": "胆汁反流性胃炎", "lemmaDesc": "胆汁反流性胃炎（bile reflux gastritis）亦称碱性反流性胃炎，...", "lemmaUrl": "http://baike.baidu.com/item/%E8%83%86%E6%B1%81%E5%8F%8D%E6%B5%81%E6%80%A7%E8%83%83%E7%82%8E/3155649", "lemmaPic": []}, {"lemmaId": 10456140, "lemmaTitle": "慢性单纯性咽炎", "lemmaCroppedTitle": "慢性单纯性咽炎", "lemmaDesc": "慢性单纯性咽炎又称慢性咽炎，较多见。病变主要在黏膜层，表现为咽部黏膜慢性充血，其...", "lemmaUrl": "http://baike.baidu.com/item/%E6%85%A2%E6%80%A7%E5%8D%95%E7%BA%AF%E6%80%A7%E5%92%BD%E7%82%8E/10456140", "lemmaPic": []}, {"lemmaId": 4894857, "lemmaTitle": "中东呼吸综合征", "lemmaCroppedTitle": "中东呼吸综合征", "lemmaDesc": "根据国家卫生和计划生育委员会通报，广东省惠州市出现首例输入性中东呼吸综合症确认病...", "lemmaUrl": "http://baike.baidu.com/item/%E4%B8%AD%E4%B8%9C%E5%91%BC%E5%90%B8%E7%BB%BC%E5%90%88%E5%BE%81/4894857", "lemmaPic": []}, {"lemmaId": 4418419, "lemmaTitle": "食管炎", "lemmaCroppedTitle": "食管炎", "lemmaDesc": "食管炎即食道炎，泛指食管黏膜浅层或深层组织由于受到刺激或损伤，食管黏膜发生水肿和...", "lemmaUrl": "http://baike.baidu.com/item/%E9%A3%9F%E7%AE%A1%E7%82%8E/4418419", "lemmaPic": []}, {"lemmaId": 251524, "lemmaTitle": "血尿", "lemmaCroppedTitle": "血尿", "lemmaDesc": "血尿是指离心沉淀尿中每高倍镜视野≥3个红细胞，或非离心尿液超过1个或1小时尿红细...", "lemmaUrl": "http://baike.baidu.com/item/%E8%A1%80%E5%B0%BF/251524", "lemmaPic": []}, {"lemmaId": 6796725, "lemmaTitle": "耵聍", "lemmaCroppedTitle": "耵聍", "lemmaDesc": "外耳道软骨部皮肤具有耵聍腺，其淡黄色黏稠的分泌物称耵聍，俗称耳屎。耵聍在空气中干...", "lemmaUrl": "http://baike.baidu.com/item/%E8%80%B5%E8%81%8D/6796725", "lemmaPic": []}, {"lemmaId": 1008985, "lemmaTitle": "胃酸过多", "lemmaCroppedTitle": "胃酸过多", "lemmaDesc": "胃酸过多（hyperchlorhydria）又称作胃酸过高，是胃肠疾病的常见症状...", "lemmaUrl": "http://baike.baidu.com/item/%E8%83%83%E9%85%B8%E8%BF%87%E5%A4%9A/1008985", "lemmaPic": []}, {"lemmaId": 1301590, "lemmaTitle": "寻常型银屑病", "lemmaCroppedTitle": "寻常型银屑病", "lemmaDesc": "俗称牛皮癣，是一种常见的具有特征性皮损的慢性易于复发的炎症性皮肤病。初起为炎性红...", "lemmaUrl": "http://baike.baidu.com/item/%E5%AF%BB%E5%B8%B8%E5%9E%8B%E9%93%B6%E5%B1%91%E7%97%85/1301590", "lemmaPic": []}, {"lemmaId": 5278041, "lemmaTitle": "羊水栓塞", "lemmaCroppedTitle": "羊水栓塞", "lemmaDesc": "羊水栓塞是指在分娩过程中羊水突然进入母体血液循环引起急性肺栓塞，过敏性休克，弥散...", "lemmaUrl": "http://baike.baidu.com/item/%E7%BE%8A%E6%B0%B4%E6%A0%93%E5%A1%9E/5278041", "lemmaPic": []}, {"lemmaId": 4467465, "lemmaTitle": "女性生殖系统", "lemmaCroppedTitle": "女性生殖系统", "lemmaDesc": "女性生殖系统包括内、外生殖器官及其相关组织。女性内生殖器，包括阴道、子宫、输卵管...", "lemmaUrl": "http://baike.baidu.com/item/%E5%A5%B3%E6%80%A7%E7%94%9F%E6%AE%96%E7%B3%BB%E7%BB%9F/4467465", "lemmaPic": []}, {"lemmaId": 8656493, "lemmaTitle": "艾滋病窗口期", "lemmaCroppedTitle": "艾滋病窗口期", "lemmaDesc": "从艾滋病病毒进入人体到血液中产生足够量的、能用检测方法查出艾滋病病毒抗体之间的这...", "lemmaUrl": "http://baike.baidu.com/item/%E8%89%BE%E6%BB%8B%E7%97%85%E7%AA%97%E5%8F%A3%E6%9C%9F/8656493", "lemmaPic": []}, {"lemmaId": 382339, "lemmaTitle": "人工流产", "lemmaCroppedTitle": "人工流产", "lemmaDesc": "妊娠3个月内用人工或药物方法终止妊娠称为早期妊娠终止，也可称为人工流产。用来作为...", "lemmaUrl": "http://baike.baidu.com/item/%E4%BA%BA%E5%B7%A5%E6%B5%81%E4%BA%A7/382339", "lemmaPic": []}, {"lemmaId": 7104132, "lemmaTitle": "腱鞘囊肿", "lemmaCroppedTitle": "腱鞘囊肿", "lemmaDesc": "腱鞘囊肿（thecal cyst）是发生于关节部腱鞘内的囊性肿物，是由于关节囊、...", "lemmaUrl": "http://baike.baidu.com/item/%E8%85%B1%E9%9E%98%E5%9B%8A%E8%82%BF/7104132", "lemmaPic": []}, {"lemmaId": 871486, "lemmaTitle": "副乳", "lemmaCroppedTitle": "副乳", "lemmaDesc": "副乳是指人体除了正常的一对乳房之外出现的多余乳房，一般在腋前或者腋下，也有发生在...", "lemmaUrl": "http://baike.baidu.com/item/%E5%89%AF%E4%B9%B3/871486", "lemmaPic": []}, {"lemmaId": 2048250, "lemmaTitle": "房颤", "lemmaCroppedTitle": "房颤", "lemmaDesc": "心房颤动（简称房颤）是最常见的持续性心律失常。随着年龄增长房颤的发生率不断增加，...", "lemmaUrl": "http://baike.baidu.com/item/%E6%88%BF%E9%A2%A4/2048250", "lemmaPic": []}, {"lemmaId": 9265138, "lemmaTitle": "膀胱癌", "lemmaCroppedTitle": "膀胱癌", "lemmaDesc": "膀胱癌是指发生在膀胱黏膜上的恶性肿瘤。是泌尿系统最常见的恶性肿瘤，也是全身十大常...", "lemmaUrl": "http://baike.baidu.com/item/%E8%86%80%E8%83%B1%E7%99%8C/9265138", "lemmaPic": []}, {"lemmaId": 3569953, "lemmaTitle": "上消化道出血", "lemmaCroppedTitle": "上消化道出血", "lemmaDesc": "上消化道出血是指屈氏韧带以上的消化道，包括食管、胃、十二指肠或胰胆等病变引起的出...", "lemmaUrl": "http://baike.baidu.com/item/%E4%B8%8A%E6%B6%88%E5%8C%96%E9%81%93%E5%87%BA%E8%A1%80/3569953", "lemmaPic": []}, {"lemmaId": 1867654, "lemmaTitle": "非淋菌性尿道炎", "lemmaCroppedTitle": "非淋菌性尿道炎", "lemmaDesc": "非淋菌性尿道炎（Non-gonococcal Urethritis）是指由淋菌以...", "lemmaUrl": "http://baike.baidu.com/item/%E9%9D%9E%E6%B7%8B%E8%8F%8C%E6%80%A7%E5%B0%BF%E9%81%93%E7%82%8E/1867654", "lemmaPic": []}, {"lemmaId": 684504, "lemmaTitle": "烤瓷牙", "lemmaCroppedTitle": "烤瓷牙", "lemmaDesc": "烤瓷牙是恢复牙齿缺损及达到功能和美观要求的修复牙冠。从结构上分内冠和釉面瓷层，从...", "lemmaUrl": "http://baike.baidu.com/item/%E7%83%A4%E7%93%B7%E7%89%99/684504", "lemmaPic": []}, {"lemmaId": 4801401, "lemmaTitle": "免疫球蛋白", "lemmaCroppedTitle": "免疫球蛋白", "lemmaDesc": "免疫球蛋白（Ig）指具有抗体（Ab）活性或化学结构，与抗体分子相似的球蛋白。免疫...", "lemmaUrl": "http://baike.baidu.com/item/%E5%85%8D%E7%96%AB%E7%90%83%E8%9B%8B%E7%99%BD/4801401", "lemmaPic": []}, {"lemmaId": 10906142, "lemmaTitle": "吐奶", "lemmaCroppedTitle": "吐奶", "lemmaDesc": "吐奶或溢奶是新生儿和婴儿很常见的现象，大多数情况下吐奶是生理性的，较严重的吐奶有...", "lemmaUrl": "http://baike.baidu.com/item/%E5%90%90%E5%A5%B6/10906142", "lemmaPic": []}, {"lemmaId": 1559662, "lemmaTitle": "胃酸", "lemmaCroppedTitle": "胃酸", "lemmaDesc": "胃酸（gastric acid）指胃液中的分泌盐酸。人胃是持续分泌胃酸的，其基础...", "lemmaUrl": "http://baike.baidu.com/item/%E8%83%83%E9%85%B8/1559662", "lemmaPic": []}, {"lemmaId": 2224589, "lemmaTitle": "蚕豆病", "lemmaCroppedTitle": "蚕豆病", "lemmaDesc": "蚕豆病是葡萄糖-6-磷酸脱氢酶（G6PD）缺乏症的一个类型，表现为进食蚕豆后引起...", "lemmaUrl": "http://baike.baidu.com/item/%E8%9A%95%E8%B1%86%E7%97%85/2224589", "lemmaPic": []}, {"lemmaId": 9191287, "lemmaTitle": "白头粉刺", "lemmaCroppedTitle": "白头粉刺", "lemmaDesc": "粉刺又称“痤疮”、“酒刺”、“暗疮”等，是发生在毛囊皮脂腺的慢性皮肤病，多因毛孔...", "lemmaUrl": "http://baike.baidu.com/item/%E7%99%BD%E5%A4%B4%E7%B2%89%E5%88%BA/9191287", "lemmaPic": []}, {"lemmaId": 5320483, "lemmaTitle": "龋病", "lemmaCroppedTitle": "龋病", "lemmaDesc": "龋病俗称虫牙、蛀牙，是细菌性疾病，可以继发牙髓炎和根尖周炎，甚至能引起牙槽骨和颌...", "lemmaUrl": "http://baike.baidu.com/item/%E9%BE%8B%E7%97%85/5320483", "lemmaPic": []}, {"lemmaId": 811938, "lemmaTitle": "慢性结肠炎", "lemmaCroppedTitle": "慢性结肠炎", "lemmaDesc": "广义而言，凡是导致结肠的慢性炎症均可称为慢性结肠炎（chronic coliti...", "lemmaUrl": "http://baike.baidu.com/item/%E6%85%A2%E6%80%A7%E7%BB%93%E8%82%A0%E7%82%8E/811938", "lemmaPic": []}, {"lemmaId": 544561, "lemmaTitle": "烫伤", "lemmaCroppedTitle": "烫伤", "lemmaDesc": "烫伤（scald）是由无火焰的高温液体（沸水、热油、钢水）、高温固体（烧热的金属...", "lemmaUrl": "http://baike.baidu.com/item/%E7%83%AB%E4%BC%A4/544561", "lemmaPic": []}, {"lemmaId": 1487921, "lemmaTitle": "慢性阑尾炎", "lemmaCroppedTitle": "慢性阑尾炎", "lemmaDesc": "慢性阑尾炎是指阑尾急性炎症消退后而遗留的阑尾慢性炎症病变，如管壁纤维结缔组织增生...", "lemmaUrl": "http://baike.baidu.com/item/%E6%85%A2%E6%80%A7%E9%98%91%E5%B0%BE%E7%82%8E/1487921", "lemmaPic": []}, {"lemmaId": 532129, "lemmaTitle": "胃下垂", "lemmaCroppedTitle": "胃下垂", "lemmaDesc": "胃下垂是由于膈肌悬力不足，支撑内脏器官韧带松弛，或腹内压降低，腹肌松弛，导致站立...", "lemmaUrl": "http://baike.baidu.com/item/%E8%83%83%E4%B8%8B%E5%9E%82/532129", "lemmaPic": []}, {"lemmaId": 1381181, "lemmaTitle": "寻常疣", "lemmaCroppedTitle": "寻常疣", "lemmaDesc": "疣是由人类乳头状瘤病毒（HPV）引起的表皮良性赘生物。临床上常见的有寻常疣、跖疣...", "lemmaUrl": "http://baike.baidu.com/item/%E5%AF%BB%E5%B8%B8%E7%96%A3/1381181", "lemmaPic": []}, {"lemmaId": 546442, "lemmaTitle": "猝死", "lemmaCroppedTitle": "猝死", "lemmaDesc": "猝死（Sudden death，SD）是人类的最严重的疾病。不同的文献关于猝死的...", "lemmaUrl": "http://baike.baidu.com/item/%E7%8C%9D%E6%AD%BB/546442", "lemmaPic": []}, {"lemmaId": 3778575, "lemmaTitle": "气血不足", "lemmaCroppedTitle": "气血不足", "lemmaDesc": "气血不足（insufficiency of qi and blood）即中医学中...", "lemmaUrl": "http://baike.baidu.com/item/%E6%B0%94%E8%A1%80%E4%B8%8D%E8%B6%B3/3778575", "lemmaPic": []}, {"lemmaId": 350401, "lemmaTitle": "单纯疱疹", "lemmaCroppedTitle": "单纯疱疹", "lemmaDesc": "本病系由人类单纯疱疹病毒（HSV）所致，多侵犯皮肤黏膜交界处，皮疹为限局性簇集性...", "lemmaUrl": "http://baike.baidu.com/item/%E5%8D%95%E7%BA%AF%E7%96%B1%E7%96%B9/350401", "lemmaPic": []}, {"lemmaId": 10199985, "lemmaTitle": "口腔癌", "lemmaCroppedTitle": "口腔癌", "lemmaDesc": "口腔癌是发生在口腔的恶性肿瘤之总称，大部分属于鳞状上皮细胞癌，即所谓的黏膜发生变...", "lemmaUrl": "http://baike.baidu.com/item/%E5%8F%A3%E8%85%94%E7%99%8C/10199985", "lemmaPic": []}, {"lemmaId": 2255475, "lemmaTitle": "心脏神经官能症", "lemmaCroppedTitle": "心脏神经官能症", "lemmaDesc": "心脏神经官能症（cardiac neurosis）又称功能性心脏不适、神经血循环...", "lemmaUrl": "http://baike.baidu.com/item/%E5%BF%83%E8%84%8F%E7%A5%9E%E7%BB%8F%E5%AE%98%E8%83%BD%E7%97%87/2255475", "lemmaPic": []}, {"lemmaId": 2859393, "lemmaTitle": "莱姆病", "lemmaCroppedTitle": "莱姆病", "lemmaDesc": "莱姆病是一种以蜱为媒介的螺旋体感染性疾病，是由伯氏疏螺旋体所致的自然疫源性疾病。...", "lemmaUrl": "http://baike.baidu.com/item/%E8%8E%B1%E5%A7%86%E7%97%85/2859393", "lemmaPic": []}, {"lemmaId": 4427798, "lemmaTitle": "肾衰竭", "lemmaCroppedTitle": "肾衰竭", "lemmaDesc": "肾衰竭是各种慢性肾脏疾病发展到后期引起的肾功能部分或者全部丧失的一种病理状态。肾...", "lemmaUrl": "http://baike.baidu.com/item/%E8%82%BE%E8%A1%B0%E7%AB%AD/4427798", "lemmaPic": []}, {"lemmaId": 88212, "lemmaTitle": "膳食纤维", "lemmaCroppedTitle": "膳食纤维", "lemmaDesc": "膳食纤维是一种多糖，它既不能被胃肠道消化吸收，也不能产生能量。因此，曾一度被认为...", "lemmaUrl": "http://baike.baidu.com/item/%E8%86%B3%E9%A3%9F%E7%BA%A4%E7%BB%B4/88212", "lemmaPic": []}, {"lemmaId": 2320294, "lemmaTitle": "支气管扩张", "lemmaCroppedTitle": "支气管扩张", "lemmaDesc": "支气管扩张是由于支气管及其周围肺组织慢性化脓性炎症和纤维化，使支气管壁的肌肉和弹...", "lemmaUrl": "http://baike.baidu.com/item/%E6%94%AF%E6%B0%94%E7%AE%A1%E6%89%A9%E5%BC%A0/2320294", "lemmaPic": []}, {"lemmaId": 2843375, "lemmaTitle": "慢性宫颈炎", "lemmaCroppedTitle": "慢性宫颈炎", "lemmaDesc": "慢性宫颈炎是妇科疾病中最为常见的一种疾病。经产妇女较为多见。临床主要表现为白带增...", "lemmaUrl": "http://baike.baidu.com/item/%E6%85%A2%E6%80%A7%E5%AE%AB%E9%A2%88%E7%82%8E/2843375", "lemmaPic": []}, {"lemmaId": 4430543, "lemmaTitle": "血虚", "lemmaCroppedTitle": "血虚", "lemmaDesc": "指血液亏虚，脏腑、经络、形体失养，以面色淡白或萎黄，唇舌爪甲色淡，头晕眼花，心悸...", "lemmaUrl": "http://baike.baidu.com/item/%E8%A1%80%E8%99%9A/4430543", "lemmaPic": []}, {"lemmaId": 2533266, "lemmaTitle": "喉癌", "lemmaCroppedTitle": "喉癌", "lemmaDesc": "喉癌分原发性和继发性两种。原发性喉癌指原发部位在喉部的肿瘤，以鳞状细胞癌最为常见...", "lemmaUrl": "http://baike.baidu.com/item/%E5%96%89%E7%99%8C/2533266", "lemmaPic": []}, {"lemmaId": 2997280, "lemmaTitle": "网球肘", "lemmaCroppedTitle": "网球肘", "lemmaDesc": "网球肘（肱骨外上髁炎）时肘关节外侧前臂伸肌起点处肌腱发炎疼痛。疼痛的产生是由于前...", "lemmaUrl": "http://baike.baidu.com/item/%E7%BD%91%E7%90%83%E8%82%98/2997280", "lemmaPic": []}, {"lemmaId": 101582, "lemmaTitle": "肛瘘", "lemmaCroppedTitle": "肛瘘", "lemmaDesc": "肛瘘是肛门直肠瘘的简称，是发生在肛门直肠周围的脓肿溃破或切口引流的后遗病变。肛瘘...", "lemmaUrl": "http://baike.baidu.com/item/%E8%82%9B%E7%98%98/101582", "lemmaPic": []}, {"lemmaId": 8834160, "lemmaTitle": "羊水穿刺", "lemmaCroppedTitle": "羊水穿刺", "lemmaDesc": "羊水穿刺又叫“羊膜穿刺术”，是产前检查项目之一。它通过抽取孕妇的羊水标本，来获得...", "lemmaUrl": "http://baike.baidu.com/item/%E7%BE%8A%E6%B0%B4%E7%A9%BF%E5%88%BA/8834160", "lemmaPic": []}], "total": 7246, "totalPage": 73, "page": 3, "fromLemma": 0}