{"lemmaList": [{"lemmaId": 7604941, "lemmaTitle": "脚气病性心脏病", "lemmaCroppedTitle": "脚气病性心脏病", "lemmaDesc": "脚气病性心脏病为维生素B1（硫胺素）严重且长时间缺乏而引起的一种高排量型心脏病。...", "lemmaUrl": "http://baike.baidu.com/item/%E8%84%9A%E6%B0%94%E7%97%85%E6%80%A7%E5%BF%83%E8%84%8F%E7%97%85/7604941", "lemmaPic": []}, {"lemmaId": 5120399, "lemmaTitle": "单心室", "lemmaCroppedTitle": "单心室", "lemmaDesc": "单心室（也称为总心室或单室心）是一种较少见的先天性畸形。其发病率在活婴中约为1∶...", "lemmaUrl": "http://baike.baidu.com/item/%E5%8D%95%E5%BF%83%E5%AE%A4/5120399", "lemmaPic": []}, {"lemmaId": 7134019, "lemmaTitle": "心脏电复律和电除颤", "lemmaCroppedTitle": "心脏电复律和电除颤", "lemmaDesc": "心脏电复律（cardioversion）和电除颤（defibrillation）...", "lemmaUrl": "http://baike.baidu.com/item/%E5%BF%83%E8%84%8F%E7%94%B5%E5%A4%8D%E5%BE%8B%E5%92%8C%E7%94%B5%E9%99%A4%E9%A2%A4/7134019", "lemmaPic": []}, {"lemmaId": 5359235, "lemmaTitle": "小儿高血压", "lemmaCroppedTitle": "小儿高血压", "lemmaDesc": "小儿血压正常值因年龄不同而异，年龄愈小血压愈低。目前认为血压高于相同年龄段收缩压...", "lemmaUrl": "http://baike.baidu.com/item/%E5%B0%8F%E5%84%BF%E9%AB%98%E8%A1%80%E5%8E%8B/5359235", "lemmaPic": []}, {"lemmaId": 5277818, "lemmaTitle": "角膜擦伤", "lemmaCroppedTitle": "角膜擦伤", "lemmaDesc": "角膜擦伤是一些外界物体特别是表面较粗糙的固体物接触角膜或擦过角膜表面时，均可造成...", "lemmaUrl": "http://baike.baidu.com/item/%E8%A7%92%E8%86%9C%E6%93%A6%E4%BC%A4/5277818", "lemmaPic": []}, {"lemmaId": 8455550, "lemmaTitle": "重叠综合征", "lemmaCroppedTitle": "重叠综合征", "lemmaDesc": "重叠综合征指的是患有两种或两种以上结缔组织病的重叠，亦称为重叠结缔组织病。结缔组...", "lemmaUrl": "http://baike.baidu.com/item/%E9%87%8D%E5%8F%A0%E7%BB%BC%E5%90%88%E5%BE%81/8455550", "lemmaPic": []}, {"lemmaId": 6397681, "lemmaTitle": "隐斜视", "lemmaCroppedTitle": "隐斜视", "lemmaDesc": "隐斜视的规范名称是隐斜，隐斜是一种潜在性眼位偏斜，但能在融合反射控制下保持双眼单...", "lemmaUrl": "http://baike.baidu.com/item/%E9%9A%90%E6%96%9C%E8%A7%86/6397681", "lemmaPic": []}, {"lemmaId": 4428921, "lemmaTitle": "地方性砷中毒", "lemmaCroppedTitle": "地方性砷中毒", "lemmaDesc": "地方性砷中毒简称地砷病，是一种生物地球化学性疾病，是居住在特定地理环境条件下的居...", "lemmaUrl": "http://baike.baidu.com/item/%E5%9C%B0%E6%96%B9%E6%80%A7%E7%A0%B7%E4%B8%AD%E6%AF%92/4428921", "lemmaPic": []}, {"lemmaId": 3352811, "lemmaTitle": "特发性股骨头坏死", "lemmaCroppedTitle": "特发性股骨头坏死", "lemmaDesc": "特发性股骨头坏死又称为缺血性股骨头坏死，是一种常见病，股骨头坏死的病因多种多样，...", "lemmaUrl": "http://baike.baidu.com/item/%E7%89%B9%E5%8F%91%E6%80%A7%E8%82%A1%E9%AA%A8%E5%A4%B4%E5%9D%8F%E6%AD%BB/3352811", "lemmaPic": []}, {"lemmaId": 573381, "lemmaTitle": "开放性颅脑损伤", "lemmaCroppedTitle": "开放性颅脑损伤", "lemmaDesc": "开放性颅脑损伤是指钝器、锐器或火器造成头皮、颅骨、硬脑膜破损，致使脑组织直接或间...", "lemmaUrl": "http://baike.baidu.com/item/%E5%BC%80%E6%94%BE%E6%80%A7%E9%A2%85%E8%84%91%E6%8D%9F%E4%BC%A4/573381", "lemmaPic": []}, {"lemmaId": 4941216, "lemmaTitle": "阳明头痛", "lemmaCroppedTitle": "阳明头痛", "lemmaDesc": "阳明头痛，指邪气侵犯阳明经而引起的头痛。头为诸阳之会，手足三阳经均上行于头面，由...", "lemmaUrl": "http://baike.baidu.com/item/%E9%98%B3%E6%98%8E%E5%A4%B4%E7%97%9B/4941216", "lemmaPic": []}, {"lemmaId": 4356765, "lemmaTitle": "十二指肠良性肿瘤", "lemmaCroppedTitle": "十二指肠良性肿瘤", "lemmaDesc": "十二指肠良性肿瘤较恶性肿瘤少见，良、恶性比例为1∶2.6～1∶6.8。十二指肠良...", "lemmaUrl": "http://baike.baidu.com/item/%E5%8D%81%E4%BA%8C%E6%8C%87%E8%82%A0%E8%89%AF%E6%80%A7%E8%82%BF%E7%98%A4/4356765", "lemmaPic": []}, {"lemmaId": 5241237, "lemmaTitle": "成人脐疝", "lemmaCroppedTitle": "成人脐疝", "lemmaDesc": "发生于脐部的腹外疝统称为脐疝，根据疝的形态可分为脐正中疝和脐旁疝，根据发病年龄可...", "lemmaUrl": "http://baike.baidu.com/item/%E6%88%90%E4%BA%BA%E8%84%90%E7%96%9D/5241237", "lemmaPic": []}, {"lemmaId": 1848709, "lemmaTitle": "吸入性损伤", "lemmaCroppedTitle": "吸入性损伤", "lemmaDesc": "吸入性损伤俗称呼吸道烧伤，之所以改称为吸入性损伤是因为这一部位损伤并不单纯由于热...", "lemmaUrl": "http://baike.baidu.com/item/%E5%90%B8%E5%85%A5%E6%80%A7%E6%8D%9F%E4%BC%A4/1848709", "lemmaPic": []}, {"lemmaId": 1981574, "lemmaTitle": "痰火", "lemmaCroppedTitle": "痰火", "lemmaDesc": "痰火是指无形之火与有形之痰煎熬胶结贮积于肺的病证，即所谓&amp;quot;窠囊...", "lemmaUrl": "http://baike.baidu.com/item/%E7%97%B0%E7%81%AB/1981574", "lemmaPic": []}, {"lemmaId": 105022, "lemmaTitle": "糖尿病心肌病", "lemmaCroppedTitle": "糖尿病心肌病", "lemmaDesc": "糖尿病性心肌病是指发生于糖尿病患者，不能用高血压性心脏病、冠状动脉粥样硬化性心脏...", "lemmaUrl": "http://baike.baidu.com/item/%E7%B3%96%E5%B0%BF%E7%97%85%E5%BF%83%E8%82%8C%E7%97%85/105022", "lemmaPic": []}, {"lemmaId": 4517500, "lemmaTitle": "急性化脓性脑膜炎", "lemmaCroppedTitle": "急性化脓性脑膜炎", "lemmaDesc": "急性化脓性脑膜炎又称脑膜炎，是化脓性细菌所致的软脑膜、蛛网膜、脑脊液及脑室的急性...", "lemmaUrl": "http://baike.baidu.com/item/%E6%80%A5%E6%80%A7%E5%8C%96%E8%84%93%E6%80%A7%E8%84%91%E8%86%9C%E7%82%8E/4517500", "lemmaPic": []}, {"lemmaId": 1409746, "lemmaTitle": "呼吸道异物", "lemmaCroppedTitle": "呼吸道异物", "lemmaDesc": "呼吸道异物是生活中常见急症之一。若有异物吸入史，或疑有异物吸入史，虽无体征，或X...", "lemmaUrl": "http://baike.baidu.com/item/%E5%91%BC%E5%90%B8%E9%81%93%E5%BC%82%E7%89%A9/1409746", "lemmaPic": []}, {"lemmaId": 5242589, "lemmaTitle": "结核性脓胸", "lemmaCroppedTitle": "结核性脓胸", "lemmaDesc": "结核性脓胸常因肺结核空洞或胸膜下干酪样病灶破裂，感染胸膜引起，也可因脊椎结核的椎...", "lemmaUrl": "http://baike.baidu.com/item/%E7%BB%93%E6%A0%B8%E6%80%A7%E8%84%93%E8%83%B8/5242589", "lemmaPic": []}, {"lemmaId": 5121297, "lemmaTitle": "心肌梗塞并发左心室室壁瘤", "lemmaCroppedTitle": "心肌梗塞并发左心室室壁瘤", "lemmaDesc": "左心室心肌梗死后，心室壁心肌全层坏死。10～38%的病例坏死的心肌逐渐被纤维瘢痕...", "lemmaUrl": "http://baike.baidu.com/item/%E5%BF%83%E8%82%8C%E6%A2%97%E5%A1%9E%E5%B9%B6%E5%8F%91%E5%B7%A6%E5%BF%83%E5%AE%A4%E5%AE%A4%E5%A3%81%E7%98%A4/5121297", "lemmaPic": []}, {"lemmaId": 5242571, "lemmaTitle": "慢性脓胸", "lemmaCroppedTitle": "慢性脓胸", "lemmaDesc": "根据脓胸的病程，可分为急性脓胸和慢性脓胸，除某些特殊感染，如结核杆菌和真菌感染外...", "lemmaUrl": "http://baike.baidu.com/item/%E6%85%A2%E6%80%A7%E8%84%93%E8%83%B8/5242571", "lemmaPic": []}, {"lemmaId": 3507339, "lemmaTitle": "下丘脑错构瘤", "lemmaCroppedTitle": "下丘脑错构瘤", "lemmaDesc": "下丘脑错构瘤（HH） 又称灰结节错构瘤、下丘脑神经元错构瘤，是临床极为罕见的先天...", "lemmaUrl": "http://baike.baidu.com/item/%E4%B8%8B%E4%B8%98%E8%84%91%E9%94%99%E6%9E%84%E7%98%A4/3507339", "lemmaPic": []}, {"lemmaId": 6519523, "lemmaTitle": "局部麻醉药中毒", "lemmaCroppedTitle": "局部麻醉药中毒", "lemmaDesc": "局部麻醉药物（简称局麻药）分为脂类局麻药和酰胺类局麻药。属于脂类局麻药的有普鲁卡...", "lemmaUrl": "http://baike.baidu.com/item/%E5%B1%80%E9%83%A8%E9%BA%BB%E9%86%89%E8%8D%AF%E4%B8%AD%E6%AF%92/6519523", "lemmaPic": []}, {"lemmaId": 844736, "lemmaTitle": "腺泡状软组织肉瘤", "lemmaCroppedTitle": "腺泡状软组织肉瘤", "lemmaDesc": "腺泡状软组织肉瘤是指组织来源不明、细胞呈腺泡样或器官样排列的软组织恶性肿瘤。Ch...", "lemmaUrl": "http://baike.baidu.com/item/%E8%85%BA%E6%B3%A1%E7%8A%B6%E8%BD%AF%E7%BB%84%E7%BB%87%E8%82%89%E7%98%A4/844736", "lemmaPic": []}, {"lemmaId": 945760, "lemmaTitle": "急性腮腺炎性睾丸炎", "lemmaCroppedTitle": "急性腮腺炎性睾丸炎", "lemmaDesc": "病毒性睾丸炎多由腮腺炎病毒引起，主要由血行传播，是流行性腮腺炎的常见并发症，能引...", "lemmaUrl": "http://baike.baidu.com/item/%E6%80%A5%E6%80%A7%E8%85%AE%E8%85%BA%E7%82%8E%E6%80%A7%E7%9D%BE%E4%B8%B8%E7%82%8E/945760", "lemmaPic": []}, {"lemmaId": 7441555, "lemmaTitle": "颈静脉球瘤", "lemmaCroppedTitle": "颈静脉球瘤", "lemmaDesc": "颈静脉球瘤是指起源于颈静脉球体外膜以及沿迷走神经耳支和舌咽神经鼓室支等部位分布的...", "lemmaUrl": "http://baike.baidu.com/item/%E9%A2%88%E9%9D%99%E8%84%89%E7%90%83%E7%98%A4/7441555", "lemmaPic": []}, {"lemmaId": 15181319, "lemmaTitle": "子宫黏膜下肌瘤", "lemmaCroppedTitle": "子宫黏膜下肌瘤", "lemmaDesc": "子宫肌瘤是最常见的妇科良性肿瘤，多见于30～50岁的妇女。子宫黏膜下肌瘤是突向子...", "lemmaUrl": "http://baike.baidu.com/item/%E5%AD%90%E5%AE%AB%E9%BB%8F%E8%86%9C%E4%B8%8B%E8%82%8C%E7%98%A4/15181319", "lemmaPic": []}, {"lemmaId": 8991235, "lemmaTitle": "颈椎骨折脱位", "lemmaCroppedTitle": "颈椎骨折脱位", "lemmaDesc": "颈椎骨折脱位指颈椎椎体骨折与椎节脱位同时发生，这种典型的完全性损伤在临床上并不少...", "lemmaUrl": "http://baike.baidu.com/item/%E9%A2%88%E6%A4%8E%E9%AA%A8%E6%8A%98%E8%84%B1%E4%BD%8D/8991235", "lemmaPic": []}, {"lemmaId": 9902975, "lemmaTitle": "并发性白内障", "lemmaCroppedTitle": "并发性白内障", "lemmaDesc": "并发性白内障是由于眼部的炎症或退行性病变，使晶状体发生营养或代谢障碍而变混浊。多...", "lemmaUrl": "http://baike.baidu.com/item/%E5%B9%B6%E5%8F%91%E6%80%A7%E7%99%BD%E5%86%85%E9%9A%9C/9902975", "lemmaPic": []}, {"lemmaId": 5086443, "lemmaTitle": "颈肋", "lemmaCroppedTitle": "颈肋", "lemmaDesc": "颈肋是指第7颈椎上生发肋骨，是一种先天性畸形。文献报道，颈肋发生率为0.6%。5...", "lemmaUrl": "http://baike.baidu.com/item/%E9%A2%88%E8%82%8B/5086443", "lemmaPic": []}, {"lemmaId": 4836681, "lemmaTitle": "纵隔炎", "lemmaCroppedTitle": "纵隔炎", "lemmaDesc": "纵隔炎是指纵隔内的细菌感染，临床上分为急性和慢性。急性纵隔炎多形成脓肿，病情严重...", "lemmaUrl": "http://baike.baidu.com/item/%E7%BA%B5%E9%9A%94%E7%82%8E/4836681", "lemmaPic": []}, {"lemmaId": 7909832, "lemmaTitle": "温脾固肠散", "lemmaCroppedTitle": "温脾固肠散", "lemmaDesc": "本品为中药处方药，散剂剂型。方剂出处《中国药典》、《金匮要略》、《伤寒论》，执行...", "lemmaUrl": "http://baike.baidu.com/item/%E6%B8%A9%E8%84%BE%E5%9B%BA%E8%82%A0%E6%95%A3/7909832", "lemmaPic": []}, {"lemmaId": 5578606, "lemmaTitle": "多系统器官功能衰竭", "lemmaCroppedTitle": "多系统器官功能衰竭", "lemmaDesc": "多系统器官功能衰竭(multiple systemic organ failur...", "lemmaUrl": "http://baike.baidu.com/item/%E5%A4%9A%E7%B3%BB%E7%BB%9F%E5%99%A8%E5%AE%98%E5%8A%9F%E8%83%BD%E8%A1%B0%E7%AB%AD/5578606", "lemmaPic": []}, {"lemmaId": 9948727, "lemmaTitle": "颈椎结核", "lemmaCroppedTitle": "颈椎结核", "lemmaDesc": "在颈椎炎症性疾患中颈椎结核最为常见。脊柱结核在骨与关节结核发病率中居于首位。脊柱...", "lemmaUrl": "http://baike.baidu.com/item/%E9%A2%88%E6%A4%8E%E7%BB%93%E6%A0%B8/9948727", "lemmaPic": []}, {"lemmaId": 475634, "lemmaTitle": "颅内脂肪瘤", "lemmaCroppedTitle": "颅内脂肪瘤", "lemmaDesc": "颅内脂肪瘤，是中枢神经组织胚胎发育异常所致的脂肪组织肿瘤，很少引起临床症状，是临...", "lemmaUrl": "http://baike.baidu.com/item/%E9%A2%85%E5%86%85%E8%84%82%E8%82%AA%E7%98%A4/475634", "lemmaPic": []}, {"lemmaId": 3806008, "lemmaTitle": "朗格汉斯组织细胞增多症", "lemmaCroppedTitle": "朗格汉斯组织细胞增多症", "lemmaDesc": "朗格汉斯组织细胞增多症（LCH），原名组织细胞增多症X，又称朗格汉斯组织细胞增多...", "lemmaUrl": "http://baike.baidu.com/item/%E6%9C%97%E6%A0%BC%E6%B1%89%E6%96%AF%E7%BB%84%E7%BB%87%E7%BB%86%E8%83%9E%E5%A2%9E%E5%A4%9A%E7%97%87/3806008", "lemmaPic": []}, {"lemmaId": 4518561, "lemmaTitle": "克里米亚-刚果出血热", "lemmaCroppedTitle": "克里米亚-刚果出血热", "lemmaDesc": "克里米亚-刚果出血热是欧、亚、非三大洲都有分布的蜱媒自然疫源性病毒疾病。人群普遍...", "lemmaUrl": "http://baike.baidu.com/item/%E5%85%8B%E9%87%8C%E7%B1%B3%E4%BA%9A-%E5%88%9A%E6%9E%9C%E5%87%BA%E8%A1%80%E7%83%AD/4518561", "lemmaPic": []}, {"lemmaId": 5087747, "lemmaTitle": "股骨髁骨折", "lemmaCroppedTitle": "股骨髁骨折", "lemmaDesc": "股骨髁骨折不易复位也不易维持复位。股骨髁骨折可并发N动脉、神经及其周围软组织的广...", "lemmaUrl": "http://baike.baidu.com/item/%E8%82%A1%E9%AA%A8%E9%AB%81%E9%AA%A8%E6%8A%98/5087747", "lemmaPic": []}, {"lemmaId": 8009182, "lemmaTitle": "男性青春期乳房发育", "lemmaCroppedTitle": "男性青春期乳房发育", "lemmaDesc": "男性青春期乳房发育是指男性在青春发育时，乳腺组织良性增生所导致的一侧或两侧乳腺的...", "lemmaUrl": "http://baike.baidu.com/item/%E7%94%B7%E6%80%A7%E9%9D%92%E6%98%A5%E6%9C%9F%E4%B9%B3%E6%88%BF%E5%8F%91%E8%82%B2/8009182", "lemmaPic": []}, {"lemmaId": 7933622, "lemmaTitle": "婴儿手足搐搦症", "lemmaCroppedTitle": "婴儿手足搐搦症", "lemmaDesc": "婴儿手足搐搦症多见于6个月以下小婴儿，冬春季多见。主要由于维生素D缺乏、甲状旁腺...", "lemmaUrl": "http://baike.baidu.com/item/%E5%A9%B4%E5%84%BF%E6%89%8B%E8%B6%B3%E6%90%90%E6%90%A6%E7%97%87/7933622", "lemmaPic": []}, {"lemmaId": 5056380, "lemmaTitle": "肠系膜淋巴结结核", "lemmaCroppedTitle": "肠系膜淋巴结结核", "lemmaDesc": "肠系膜淋巴结结核又称结核性肠系膜淋巴结炎，是由结核分枝杆菌感染所致。可为原发，亦...", "lemmaUrl": "http://baike.baidu.com/item/%E8%82%A0%E7%B3%BB%E8%86%9C%E6%B7%8B%E5%B7%B4%E7%BB%93%E7%BB%93%E6%A0%B8/5056380", "lemmaPic": []}, {"lemmaId": 883663, "lemmaTitle": "卵巢巧克力囊肿破裂", "lemmaCroppedTitle": "卵巢巧克力囊肿破裂", "lemmaDesc": "盆腔子宫内膜异位症极易累及卵巢，异位的子宫内膜在卵巢组织中周期性出血使卵巢不断增...", "lemmaUrl": "http://baike.baidu.com/item/%E5%8D%B5%E5%B7%A2%E5%B7%A7%E5%85%8B%E5%8A%9B%E5%9B%8A%E8%82%BF%E7%A0%B4%E8%A3%82/883663", "lemmaPic": []}, {"lemmaId": 3169569, "lemmaTitle": "烧伤休克", "lemmaCroppedTitle": "烧伤休克", "lemmaDesc": "烧伤休克绝大多数为继发性休克，通常发生在烧伤后最初数小时或十多个小时，属于低血容...", "lemmaUrl": "http://baike.baidu.com/item/%E7%83%A7%E4%BC%A4%E4%BC%91%E5%85%8B/3169569", "lemmaPic": []}, {"lemmaId": 8531284, "lemmaTitle": "脊神经根炎", "lemmaCroppedTitle": "脊神经根炎", "lemmaDesc": "脊神经根炎为多种原因所致的脊神经根的炎性或变性病变的总称。病变可侵及颈、胸、腰、...", "lemmaUrl": "http://baike.baidu.com/item/%E8%84%8A%E7%A5%9E%E7%BB%8F%E6%A0%B9%E7%82%8E/8531284", "lemmaPic": []}, {"lemmaId": 9887819, "lemmaTitle": "迪格奥尔格综合征", "lemmaCroppedTitle": "迪格奥尔格综合征", "lemmaDesc": "迪格奥尔格综合征即先天性无胸腺或发育不全，属于原发性细胞免疫缺陷病。由于胚胎期第...", "lemmaUrl": "http://baike.baidu.com/item/%E8%BF%AA%E6%A0%BC%E5%A5%A5%E5%B0%94%E6%A0%BC%E7%BB%BC%E5%90%88%E5%BE%81/9887819", "lemmaPic": []}, {"lemmaId": 3172485, "lemmaTitle": "腹腔脓肿", "lemmaCroppedTitle": "腹腔脓肿", "lemmaDesc": "腹腔脓肿是指腹腔内某一间隙或部位因组织坏死液化，被肠曲、内脏、腹壁、网膜或肠系膜...", "lemmaUrl": "http://baike.baidu.com/item/%E8%85%B9%E8%85%94%E8%84%93%E8%82%BF/3172485", "lemmaPic": []}, {"lemmaId": 12093246, "lemmaTitle": "小儿先天性胆管扩张症", "lemmaCroppedTitle": "小儿先天性胆管扩张症", "lemmaDesc": "小儿先天性胆管扩张症为临床上最常见的一种先天性胆道畸形。其病变主要是指胆总管的一...", "lemmaUrl": "http://baike.baidu.com/item/%E5%B0%8F%E5%84%BF%E5%85%88%E5%A4%A9%E6%80%A7%E8%83%86%E7%AE%A1%E6%89%A9%E5%BC%A0%E7%97%87/12093246", "lemmaPic": []}, {"lemmaId": 3858520, "lemmaTitle": "嗅觉障碍", "lemmaCroppedTitle": "嗅觉障碍", "lemmaDesc": "嗅觉障碍是指部分或全部嗅觉功能下降、丧失或异常。嗅神经为嗅觉上皮穿过筛板到嗅球的...", "lemmaUrl": "http://baike.baidu.com/item/%E5%97%85%E8%A7%89%E9%9A%9C%E7%A2%8D/3858520", "lemmaPic": []}, {"lemmaId": 4926439, "lemmaTitle": "酒精所致精神障碍", "lemmaCroppedTitle": "酒精所致精神障碍", "lemmaDesc": "精神活性物质是指摄入后会产生明显的精神效应，而且长期使用会对健康造成不利影响的物...", "lemmaUrl": "http://baike.baidu.com/item/%E9%85%92%E7%B2%BE%E6%89%80%E8%87%B4%E7%B2%BE%E7%A5%9E%E9%9A%9C%E7%A2%8D/4926439", "lemmaPic": []}, {"lemmaId": 979494, "lemmaTitle": "皮脂腺癌", "lemmaCroppedTitle": "皮脂腺癌", "lemmaDesc": "皮脂腺癌是指向皮脂腺分化的腺癌，可分为眼眶型和眶外型。一般认为眶外型皮脂腺癌预后...", "lemmaUrl": "http://baike.baidu.com/item/%E7%9A%AE%E8%84%82%E8%85%BA%E7%99%8C/979494", "lemmaPic": []}, {"lemmaId": 1928436, "lemmaTitle": "骨纤维异样增殖症", "lemmaCroppedTitle": "骨纤维异样增殖症", "lemmaDesc": "骨纤维异样增殖症是指骨的纤维组织的增生、变性，通过化生而形成的骨为幼稚的交织骨。...", "lemmaUrl": "http://baike.baidu.com/item/%E9%AA%A8%E7%BA%A4%E7%BB%B4%E5%BC%82%E6%A0%B7%E5%A2%9E%E6%AE%96%E7%97%87/1928436", "lemmaPic": []}, {"lemmaId": 9903244, "lemmaTitle": "眼睑闭合不全", "lemmaCroppedTitle": "眼睑闭合不全", "lemmaDesc": "眼睑闭合不全指上下眼睑不能完全闭合，导致部分眼球暴露，又称兔眼。导致眼睑闭合不全...", "lemmaUrl": "http://baike.baidu.com/item/%E7%9C%BC%E7%9D%91%E9%97%AD%E5%90%88%E4%B8%8D%E5%85%A8/9903244", "lemmaPic": []}, {"lemmaId": 4851968, "lemmaTitle": "非性病性梅毒", "lemmaCroppedTitle": "非性病性梅毒", "lemmaDesc": "非性病性梅毒（地方性梅毒）是由螺旋体引起的地方流行性疾病，非性传播引起。人与人间...", "lemmaUrl": "http://baike.baidu.com/item/%E9%9D%9E%E6%80%A7%E7%97%85%E6%80%A7%E6%A2%85%E6%AF%92/4851968", "lemmaPic": []}, {"lemmaId": 7938001, "lemmaTitle": "脑桥中央髓鞘溶解症", "lemmaCroppedTitle": "脑桥中央髓鞘溶解症", "lemmaDesc": "脑桥中央髓鞘溶解症（CPM）是临床罕见的代谢性脱髓鞘疾病。CPM由Adams首次...", "lemmaUrl": "http://baike.baidu.com/item/%E8%84%91%E6%A1%A5%E4%B8%AD%E5%A4%AE%E9%AB%93%E9%9E%98%E6%BA%B6%E8%A7%A3%E7%97%87/7938001", "lemmaPic": []}, {"lemmaId": 9944377, "lemmaTitle": "颞叶肿瘤", "lemmaCroppedTitle": "颞叶肿瘤", "lemmaDesc": "颞叶肿瘤的发生率在大脑半球肿瘤中居第二位，仅次于额叶肿瘤的发生率。常见肿瘤为胶质...", "lemmaUrl": "http://baike.baidu.com/item/%E9%A2%9E%E5%8F%B6%E8%82%BF%E7%98%A4/9944377", "lemmaPic": []}, {"lemmaId": 1549983, "lemmaTitle": "急性输卵管炎", "lemmaCroppedTitle": "急性输卵管炎", "lemmaDesc": "急性输卵管炎一般由化脓菌引起，病变以黏膜炎症为主，可有输卵管等组织充血渗出，腔内...", "lemmaUrl": "http://baike.baidu.com/item/%E6%80%A5%E6%80%A7%E8%BE%93%E5%8D%B5%E7%AE%A1%E7%82%8E/1549983", "lemmaPic": []}, {"lemmaId": 10973965, "lemmaTitle": "急性肺脓肿", "lemmaCroppedTitle": "急性肺脓肿", "lemmaDesc": "肺脓肿是指微生物引起肺实质坏死性病变，形成包含坏死物或液化坏死物的脓腔，常出现气...", "lemmaUrl": "http://baike.baidu.com/item/%E6%80%A5%E6%80%A7%E8%82%BA%E8%84%93%E8%82%BF/10973965", "lemmaPic": []}, {"lemmaId": 4581244, "lemmaTitle": "阴道白斑", "lemmaCroppedTitle": "阴道白斑", "lemmaDesc": "阴道白斑的病程长短不一，部分病例病损扩散迅速而广泛，也有病损保持数年不变者。女阴...", "lemmaUrl": "http://baike.baidu.com/item/%E9%98%B4%E9%81%93%E7%99%BD%E6%96%91/4581244", "lemmaPic": []}, {"lemmaId": 1617294, "lemmaTitle": "乳头肌功能不全", "lemmaCroppedTitle": "乳头肌功能不全", "lemmaDesc": "乳头肌功能不全指房室瓣腱索所附着的乳头肌由于缺血、坏死、纤维化或其他原因，收缩功...", "lemmaUrl": "http://baike.baidu.com/item/%E4%B9%B3%E5%A4%B4%E8%82%8C%E5%8A%9F%E8%83%BD%E4%B8%8D%E5%85%A8/1617294", "lemmaPic": []}, {"lemmaId": 5278561, "lemmaTitle": "恶性青光眼", "lemmaCroppedTitle": "恶性青光眼", "lemmaDesc": "恶性青光眼又称睫状环阻滞性闭角型青光眼。其特点是术后眼压升高，晶体虹膜隔向前移，...", "lemmaUrl": "http://baike.baidu.com/item/%E6%81%B6%E6%80%A7%E9%9D%92%E5%85%89%E7%9C%BC/5278561", "lemmaPic": []}, {"lemmaId": 7727551, "lemmaTitle": "儿童抽动障碍", "lemmaCroppedTitle": "儿童抽动障碍", "lemmaDesc": "抽动障碍是一种起病于儿童和青少年期，以快速、不自主、突发、重复、非节律性、刻板、...", "lemmaUrl": "http://baike.baidu.com/item/%E5%84%BF%E7%AB%A5%E6%8A%BD%E5%8A%A8%E9%9A%9C%E7%A2%8D/7727551", "lemmaPic": []}, {"lemmaId": 3626212, "lemmaTitle": "猩红热样红斑", "lemmaCroppedTitle": "猩红热样红斑", "lemmaDesc": "猩红热样红斑为一种急性全身性或限局性发疹性红斑，发病前有发热，咽喉痛等前驱症状。...", "lemmaUrl": "http://baike.baidu.com/item/%E7%8C%A9%E7%BA%A2%E7%83%AD%E6%A0%B7%E7%BA%A2%E6%96%91/3626212", "lemmaPic": []}, {"lemmaId": 5241179, "lemmaTitle": "腹壁切口疝", "lemmaCroppedTitle": "腹壁切口疝", "lemmaDesc": "腹壁切口疝是腹部手术后、腹壁起主要支持作用的肌腱膜层愈合不良而产生的腹壁疝，发生...", "lemmaUrl": "http://baike.baidu.com/item/%E8%85%B9%E5%A3%81%E5%88%87%E5%8F%A3%E7%96%9D/5241179", "lemmaPic": []}, {"lemmaId": 5124847, "lemmaTitle": "结肠憩室病", "lemmaCroppedTitle": "结肠憩室病", "lemmaDesc": "结肠憩室病是指结肠的黏膜和黏膜下层经肌层向外突出的袋状结构，其形态学特点是位于结...", "lemmaUrl": "http://baike.baidu.com/item/%E7%BB%93%E8%82%A0%E6%86%A9%E5%AE%A4%E7%97%85/5124847", "lemmaPic": []}, {"lemmaId": 5281185, "lemmaTitle": "淋菌性结膜炎", "lemmaCroppedTitle": "淋菌性结膜炎", "lemmaDesc": "淋菌性结膜炎也称淋病眼或淋菌性脓漏眼，是一种极为剧烈的急性化脓性结膜炎。本病的特...", "lemmaUrl": "http://baike.baidu.com/item/%E6%B7%8B%E8%8F%8C%E6%80%A7%E7%BB%93%E8%86%9C%E7%82%8E/5281185", "lemmaPic": []}, {"lemmaId": 3740186, "lemmaTitle": "咽囊炎", "lemmaCroppedTitle": "咽囊炎", "lemmaDesc": "咽囊炎，又名咽黏液囊炎、鼻咽部正中瘘或鼻咽囊肿。又称桑汶地病。主要症状为鼻腔后部...", "lemmaUrl": "http://baike.baidu.com/item/%E5%92%BD%E5%9B%8A%E7%82%8E/3740186", "lemmaPic": []}, {"lemmaId": 2559406, "lemmaTitle": "宫腔积脓", "lemmaCroppedTitle": "宫腔积脓", "lemmaDesc": "宫腔积脓可见于老年妇女或子宫内膜癌患者、宫腔放射治疗后以及宫颈和宫腔手术后。患者...", "lemmaUrl": "http://baike.baidu.com/item/%E5%AE%AB%E8%85%94%E7%A7%AF%E8%84%93/2559406", "lemmaPic": []}, {"lemmaId": 10537070, "lemmaTitle": "先天性睾丸发育不全", "lemmaCroppedTitle": "先天性睾丸发育不全", "lemmaDesc": "先天性睾丸发育不全又称曲细精管发育不全或原发小睾丸症或Klinefelter综合...", "lemmaUrl": "http://baike.baidu.com/item/%E5%85%88%E5%A4%A9%E6%80%A7%E7%9D%BE%E4%B8%B8%E5%8F%91%E8%82%B2%E4%B8%8D%E5%85%A8/10537070", "lemmaPic": []}, {"lemmaId": 5603950, "lemmaTitle": "过敏性阴道炎", "lemmaCroppedTitle": "过敏性阴道炎", "lemmaDesc": "阴道黏膜能够出现类似于鼻、眼、肺及皮肤过敏反应的表现。阴道和外阴是能引起局部或甚...", "lemmaUrl": "http://baike.baidu.com/item/%E8%BF%87%E6%95%8F%E6%80%A7%E9%98%B4%E9%81%93%E7%82%8E/5603950", "lemmaPic": []}, {"lemmaId": 9905700, "lemmaTitle": "急性视网膜坏死综合征", "lemmaCroppedTitle": "急性视网膜坏死综合征", "lemmaDesc": "急性视网膜坏死综合征（ARN）是一种由病毒感染（主要为水痘-带状疱疹病毒和单纯疱...", "lemmaUrl": "http://baike.baidu.com/item/%E6%80%A5%E6%80%A7%E8%A7%86%E7%BD%91%E8%86%9C%E5%9D%8F%E6%AD%BB%E7%BB%BC%E5%90%88%E5%BE%81/9905700", "lemmaPic": []}, {"lemmaId": 4206339, "lemmaTitle": "腮腺恶性肿瘤", "lemmaCroppedTitle": "腮腺恶性肿瘤", "lemmaDesc": "腮腺恶性肿瘤多来源于腮腺腺体或腺管上皮细胞，以黏液表皮样癌、恶性混合瘤、腺样囊性...", "lemmaUrl": "http://baike.baidu.com/item/%E8%85%AE%E8%85%BA%E6%81%B6%E6%80%A7%E8%82%BF%E7%98%A4/4206339", "lemmaPic": []}, {"lemmaId": 1289952, "lemmaTitle": "经脉不通", "lemmaCroppedTitle": "经脉不通", "lemmaDesc": "经脉不通，病名。见《寿世保元》卷七。即闭经，闭经之名出自《妇人大全良方》卷一，亦...", "lemmaUrl": "http://baike.baidu.com/item/%E7%BB%8F%E8%84%89%E4%B8%8D%E9%80%9A/1289952", "lemmaPic": []}, {"lemmaId": 5086905, "lemmaTitle": "肱骨外髁骨折", "lemmaCroppedTitle": "肱骨外髁骨折", "lemmaDesc": "肱骨外髁骨折主要是指肱骨外髁带肱骨小头或肱骨外髁带肱骨小头和部分滑车骨骺的关节内...", "lemmaUrl": "http://baike.baidu.com/item/%E8%82%B1%E9%AA%A8%E5%A4%96%E9%AB%81%E9%AA%A8%E6%8A%98/5086905", "lemmaPic": []}, {"lemmaId": 2062408, "lemmaTitle": "内生性软骨瘤", "lemmaCroppedTitle": "内生性软骨瘤", "lemmaDesc": "内生性软骨瘤若发生在骨内称为中心型，发生在骨表面称为边缘型（骨膜软骨瘤）。本病可...", "lemmaUrl": "http://baike.baidu.com/item/%E5%86%85%E7%94%9F%E6%80%A7%E8%BD%AF%E9%AA%A8%E7%98%A4/2062408", "lemmaPic": []}, {"lemmaId": 13485781, "lemmaTitle": "恰加斯病", "lemmaCroppedTitle": "恰加斯病", "lemmaDesc": "恰加斯病由克鲁斯锥虫引起，主要传播媒介为吸血猎蝽虫，于1908年由Chagas医...", "lemmaUrl": "http://baike.baidu.com/item/%E6%81%B0%E5%8A%A0%E6%96%AF%E7%97%85/13485781", "lemmaPic": []}, {"lemmaId": 5804103, "lemmaTitle": "边缘性龈炎", "lemmaCroppedTitle": "边缘性龈炎", "lemmaDesc": "边缘性龈炎又称慢性龈缘炎、单纯性龈炎，病损位于龈乳头和游离龈，为最常见的牙龈疾病...", "lemmaUrl": "http://baike.baidu.com/item/%E8%BE%B9%E7%BC%98%E6%80%A7%E9%BE%88%E7%82%8E/5804103", "lemmaPic": []}, {"lemmaId": 9902497, "lemmaTitle": "原发性青光眼", "lemmaCroppedTitle": "原发性青光眼", "lemmaDesc": "原发性青光眼是一种慢性眼病，而且多数病人需长期治疗，如不坚持治疗，也可导致不可逆...", "lemmaUrl": "http://baike.baidu.com/item/%E5%8E%9F%E5%8F%91%E6%80%A7%E9%9D%92%E5%85%89%E7%9C%BC/9902497", "lemmaPic": []}, {"lemmaId": 10361000, "lemmaTitle": "前斜角肌综合征", "lemmaCroppedTitle": "前斜角肌综合征", "lemmaDesc": "前斜角肌位于颈椎外侧的深部，起于颈椎3～6横突的前结节，止于第一肋骨内缘斜角肌结...", "lemmaUrl": "http://baike.baidu.com/item/%E5%89%8D%E6%96%9C%E8%A7%92%E8%82%8C%E7%BB%BC%E5%90%88%E5%BE%81/10361000", "lemmaPic": []}, {"lemmaId": 488504, "lemmaTitle": "五迟", "lemmaCroppedTitle": "五迟", "lemmaDesc": "五迟是指立迟、行迟、发迟、齿迟和语迟，为小儿生长发育迟缓的疾病。《医宗金鉴・幼科...", "lemmaUrl": "http://baike.baidu.com/item/%E4%BA%94%E8%BF%9F/488504", "lemmaPic": {"width": 374, "height": 274, "url": "https://gss0.bdstatic.com/-4o3dSag_xI4khGkpoWK1HF6hhy/baike/w%3D168/sign=5ee095e6f2d3572c66e298dab2136352/6a600c338744ebf84e7da630d9f9d72a6059a7b5.jpg"}}, {"lemmaId": 6711016, "lemmaTitle": "尿道肿瘤", "lemmaCroppedTitle": "尿道肿瘤", "lemmaDesc": "尿道肿瘤包括男性尿道癌及女性尿道癌。男性尿道癌根据原发性部位有所不同，大多见于移...", "lemmaUrl": "http://baike.baidu.com/item/%E5%B0%BF%E9%81%93%E8%82%BF%E7%98%A4/6711016", "lemmaPic": []}, {"lemmaId": 4622360, "lemmaTitle": "小儿脊髓性肌萎缩", "lemmaCroppedTitle": "小儿脊髓性肌萎缩", "lemmaDesc": "脊髓性肌萎缩（SMA）又称进行性脊髓性肌萎缩症、脊肌萎缩症，是一类由脊髓前角运动...", "lemmaUrl": "http://baike.baidu.com/item/%E5%B0%8F%E5%84%BF%E8%84%8A%E9%AB%93%E6%80%A7%E8%82%8C%E8%90%8E%E7%BC%A9/4622360", "lemmaPic": []}, {"lemmaId": 10974035, "lemmaTitle": "特发性肺含铁血黄素沉着症", "lemmaCroppedTitle": "特发性肺含铁血黄素沉着症", "lemmaDesc": "特发性肺含铁血黄素沉着症（IPH），是一种较少见的铁代谢异常疾病，特点为广泛的肺...", "lemmaUrl": "http://baike.baidu.com/item/%E7%89%B9%E5%8F%91%E6%80%A7%E8%82%BA%E5%90%AB%E9%93%81%E8%A1%80%E9%BB%84%E7%B4%A0%E6%B2%89%E7%9D%80%E7%97%87/10974035", "lemmaPic": []}, {"lemmaId": 4456220, "lemmaTitle": "脾气虚证", "lemmaCroppedTitle": "脾气虚证", "lemmaDesc": "脾气不足，运化水谷精微及运化水湿功能减弱所引起，临床以纳少腹胀，便溏，疲乏为主要...", "lemmaUrl": "http://baike.baidu.com/item/%E8%84%BE%E6%B0%94%E8%99%9A%E8%AF%81/4456220", "lemmaPic": []}, {"lemmaId": 1144057, "lemmaTitle": "化妆品皮炎", "lemmaCroppedTitle": "化妆品皮炎", "lemmaDesc": "化妆品皮炎是指人们在日常生活中使用化妆品引起的皮肤及其附属器的病变，是一组有不同...", "lemmaUrl": "http://baike.baidu.com/item/%E5%8C%96%E5%A6%86%E5%93%81%E7%9A%AE%E7%82%8E/1144057", "lemmaPic": []}, {"lemmaId": 5277631, "lemmaTitle": "单纯性外阴炎", "lemmaCroppedTitle": "单纯性外阴炎", "lemmaDesc": "单纯性外阴炎属于非特异性外阴炎，是单纯的细菌感染。常见的病原菌有葡萄球菌、乙型溶...", "lemmaUrl": "http://baike.baidu.com/item/%E5%8D%95%E7%BA%AF%E6%80%A7%E5%A4%96%E9%98%B4%E7%82%8E/5277631", "lemmaPic": []}, {"lemmaId": 9919687, "lemmaTitle": "急性胆源性胰腺炎", "lemmaCroppedTitle": "急性胆源性胰腺炎", "lemmaDesc": "胆道结石、炎症等可引起胰管梗阻、胰黏膜屏障受损、胰液外溢、胰腺组织自我消化，形成...", "lemmaUrl": "http://baike.baidu.com/item/%E6%80%A5%E6%80%A7%E8%83%86%E6%BA%90%E6%80%A7%E8%83%B0%E8%85%BA%E7%82%8E/9919687", "lemmaPic": []}, {"lemmaId": 4227476, "lemmaTitle": "多指畸形", "lemmaCroppedTitle": "多指畸形", "lemmaDesc": "又称重复指，是指正常手指以外的手指、手指的指骨单纯软组织成分或掌骨等的赘生，是临...", "lemmaUrl": "http://baike.baidu.com/item/%E5%A4%9A%E6%8C%87%E7%95%B8%E5%BD%A2/4227476", "lemmaPic": []}, {"lemmaId": 4277365, "lemmaTitle": "巨乳头性结膜炎", "lemmaCroppedTitle": "巨乳头性结膜炎", "lemmaDesc": "巨乳头性结膜炎是由于长期配戴角膜接触镜或义眼而引起的一种变应性结膜炎。其病因是由...", "lemmaUrl": "http://baike.baidu.com/item/%E5%B7%A8%E4%B9%B3%E5%A4%B4%E6%80%A7%E7%BB%93%E8%86%9C%E7%82%8E/4277365", "lemmaPic": []}, {"lemmaId": 5588402, "lemmaTitle": "痉挛性脑瘫", "lemmaCroppedTitle": "痉挛性脑瘫", "lemmaDesc": "痉挛性脑瘫（以下简称脑瘫）即大脑瘫痪，是指因未成熟大脑在各种原因作用下发育不全，...", "lemmaUrl": "http://baike.baidu.com/item/%E7%97%89%E6%8C%9B%E6%80%A7%E8%84%91%E7%98%AB/5588402", "lemmaPic": []}, {"lemmaId": 7106968, "lemmaTitle": "绝经后子宫内膜癌", "lemmaCroppedTitle": "绝经后子宫内膜癌", "lemmaDesc": "子宫内膜癌又称子宫体癌是指原发于子宫内膜的恶性肿瘤其绝大多数是腺癌。绝经后妇女卵...", "lemmaUrl": "http://baike.baidu.com/item/%E7%BB%9D%E7%BB%8F%E5%90%8E%E5%AD%90%E5%AE%AB%E5%86%85%E8%86%9C%E7%99%8C/7106968", "lemmaPic": []}, {"lemmaId": 469156, "lemmaTitle": "新生儿低体温", "lemmaCroppedTitle": "新生儿低体温", "lemmaDesc": "新生儿体表面积相对较大，皮下脂肪薄，血管多，易于散热，保温能力差。体温调节中枢发...", "lemmaUrl": "http://baike.baidu.com/item/%E6%96%B0%E7%94%9F%E5%84%BF%E4%BD%8E%E4%BD%93%E6%B8%A9/469156", "lemmaPic": []}, {"lemmaId": 7231343, "lemmaTitle": "鳞状毛囊角化病", "lemmaCroppedTitle": "鳞状毛囊角化病", "lemmaDesc": "鳞状毛囊角化病原因尚不明了，少数病例可有家族史。皮损特征为褐色圆片形鳞屑性斑疹，...", "lemmaUrl": "http://baike.baidu.com/item/%E9%B3%9E%E7%8A%B6%E6%AF%9B%E5%9B%8A%E8%A7%92%E5%8C%96%E7%97%85/7231343", "lemmaPic": []}, {"lemmaId": 3573673, "lemmaTitle": "鳃裂瘘管", "lemmaCroppedTitle": "鳃裂瘘管", "lemmaDesc": "鳃裂瘘管为鳃囊、鳃沟相通或鳃沟不消失而生成鳃裂瘘管的外瘘口及全程，因瘘管位于颈部...", "lemmaUrl": "http://baike.baidu.com/item/%E9%B3%83%E8%A3%82%E7%98%98%E7%AE%A1/3573673", "lemmaPic": []}, {"lemmaId": 5119532, "lemmaTitle": "输尿管损伤", "lemmaCroppedTitle": "输尿管损伤", "lemmaDesc": "输尿管为一细长而有肌肉黏膜构成的管形器官，位于腹膜后间隙，周围的保护良好并有相当...", "lemmaUrl": "http://baike.baidu.com/item/%E8%BE%93%E5%B0%BF%E7%AE%A1%E6%8D%9F%E4%BC%A4/5119532", "lemmaPic": []}, {"lemmaId": 5281203, "lemmaTitle": "泡性角结膜炎", "lemmaCroppedTitle": "泡性角结膜炎", "lemmaDesc": "泡性角结膜炎是有微生物蛋白质引起的角结膜迟发型免疫反应性疾病。多见于女性、青少年...", "lemmaUrl": "http://baike.baidu.com/item/%E6%B3%A1%E6%80%A7%E8%A7%92%E7%BB%93%E8%86%9C%E7%82%8E/5281203", "lemmaPic": []}, {"lemmaId": 12731650, "lemmaTitle": "美尼尔病", "lemmaCroppedTitle": "美尼尔病", "lemmaDesc": "美尼尔病是梅尼埃病的旧称，也曾称作梅尼埃尔病，是因膜迷路积水引起阵发性眩晕、耳聋...", "lemmaUrl": "http://baike.baidu.com/item/%E7%BE%8E%E5%B0%BC%E5%B0%94%E7%97%85/12731650", "lemmaPic": []}, {"lemmaId": 5119840, "lemmaTitle": "女性尿道癌", "lemmaCroppedTitle": "女性尿道癌", "lemmaDesc": "原发性尿道肿瘤临床上较少见，女性较男性多发。恶性肿瘤包括鳞状上皮细胞癌、移行上皮...", "lemmaUrl": "http://baike.baidu.com/item/%E5%A5%B3%E6%80%A7%E5%B0%BF%E9%81%93%E7%99%8C/5119840", "lemmaPic": []}, {"lemmaId": 134040, "lemmaTitle": "阑尾类癌", "lemmaCroppedTitle": "阑尾类癌", "lemmaDesc": "阑尾类癌位于阑尾的黏膜下层，是常见的胃肠道类癌中的一种，大部分阑尾类癌小于1厘米...", "lemmaUrl": "http://baike.baidu.com/item/%E9%98%91%E5%B0%BE%E7%B1%BB%E7%99%8C/134040", "lemmaPic": []}, {"lemmaId": 9992683, "lemmaTitle": "急性脑疝", "lemmaCroppedTitle": "急性脑疝", "lemmaDesc": "当颅腔内某一分腔有占位性病变时，该分腔的压力比邻近分腔的压力高，脑组织从高压区向...", "lemmaUrl": "http://baike.baidu.com/item/%E6%80%A5%E6%80%A7%E8%84%91%E7%96%9D/9992683", "lemmaPic": []}, {"lemmaId": 1288098, "lemmaTitle": "流行性角结膜炎", "lemmaCroppedTitle": "流行性角结膜炎", "lemmaDesc": "一种常见的结膜炎，可由多种病毒引起，临床上可归纳为两组。一组以急性滤泡性结膜炎为...", "lemmaUrl": "http://baike.baidu.com/item/%E6%B5%81%E8%A1%8C%E6%80%A7%E8%A7%92%E7%BB%93%E8%86%9C%E7%82%8E/1288098", "lemmaPic": []}], "total": 7246, "totalPage": 73, "page": 30, "fromLemma": 0}