{"lemmaList": [{"lemmaId": 12372673, "lemmaTitle": "中学德语教程3 （平装）", "lemmaCroppedTitle": "中学德语教程3 （平装）", "lemmaDesc": "内容介绍《中学德语教程3》第三册借助青少年喜闻乐见的话题，完善青少年学习者对德语...", "lemmaUrl": "http://baike.baidu.com/item/%E4%B8%AD%E5%AD%A6%E5%BE%B7%E8%AF%AD%E6%95%99%E7%A8%8B3%20%EF%BC%88%E5%B9%B3%E8%A3%85%EF%BC%89/12372673", "lemmaPic": []}, {"lemmaId": 17659709, "lemmaTitle": "半侧颜面痉挛", "lemmaCroppedTitle": "半侧颜面痉挛", "lemmaDesc": "半侧颜面痉挛又称面肌抽搐或面肌痉挛，是指一侧面部肌肉阵发性、不规则的不自主抽搐、...", "lemmaUrl": "http://baike.baidu.com/item/%E5%8D%8A%E4%BE%A7%E9%A2%9C%E9%9D%A2%E7%97%89%E6%8C%9B/17659709", "lemmaPic": []}, {"lemmaId": 12428567, "lemmaTitle": "先天性输尿管瓣膜症", "lemmaCroppedTitle": "先天性输尿管瓣膜症", "lemmaDesc": "先天性输尿管瓣膜症是指有一横行黏膜皱褶突出于输尿管腔内，大多位于膀胱输尿管交界处...", "lemmaUrl": "http://baike.baidu.com/item/%E5%85%88%E5%A4%A9%E6%80%A7%E8%BE%93%E5%B0%BF%E7%AE%A1%E7%93%A3%E8%86%9C%E7%97%87/12428567", "lemmaPic": []}, {"lemmaId": 17659694, "lemmaTitle": "艾滋病伴发肺结核", "lemmaCroppedTitle": "艾滋病伴发肺结核", "lemmaDesc": "人类免疫缺陷病毒感染艾滋病（HIV/AIDS）患者由于受到HIV病毒的攻击其免疫...", "lemmaUrl": "http://baike.baidu.com/item/%E8%89%BE%E6%BB%8B%E7%97%85%E4%BC%B4%E5%8F%91%E8%82%BA%E7%BB%93%E6%A0%B8/17659694", "lemmaPic": []}, {"lemmaId": 12676525, "lemmaTitle": "小儿片吸虫病", "lemmaCroppedTitle": "小儿片吸虫病", "lemmaDesc": "小儿片吸虫病是由肝片形吸虫和巨片形吸虫寄生于草食性哺乳动物的肝胆管内，或人体而引...", "lemmaUrl": "http://baike.baidu.com/item/%E5%B0%8F%E5%84%BF%E7%89%87%E5%90%B8%E8%99%AB%E7%97%85/12676525", "lemmaPic": []}, {"lemmaId": 13883813, "lemmaTitle": "烧伤后关节僵硬", "lemmaCroppedTitle": "烧伤后关节僵硬", "lemmaDesc": "烧伤后瘢痕挛缩限制活动、骨质代谢异常等原因引起的关节主动、被动活动度和活动能力下...", "lemmaUrl": "http://baike.baidu.com/item/%E7%83%A7%E4%BC%A4%E5%90%8E%E5%85%B3%E8%8A%82%E5%83%B5%E7%A1%AC/13883813", "lemmaPic": []}, {"lemmaId": 17659765, "lemmaTitle": "小儿支气管异物", "lemmaCroppedTitle": "小儿支气管异物", "lemmaDesc": "呼吸道异物是最常见的儿童意外伤害之一，也是一种完全可以预防的疾病，应加强宣传教育...", "lemmaUrl": "http://baike.baidu.com/item/%E5%B0%8F%E5%84%BF%E6%94%AF%E6%B0%94%E7%AE%A1%E5%BC%82%E7%89%A9/17659765", "lemmaPic": []}, {"lemmaId": 18277542, "lemmaTitle": "先天性眼球萎缩", "lemmaCroppedTitle": "先天性眼球萎缩", "lemmaDesc": "先天性眼球萎缩是指出生后眼球萎缩不再生长，并导致同侧眼眶颜面部发育障碍。对于此病...", "lemmaUrl": "http://baike.baidu.com/item/%E5%85%88%E5%A4%A9%E6%80%A7%E7%9C%BC%E7%90%83%E8%90%8E%E7%BC%A9/18277542", "lemmaPic": []}, {"lemmaId": 16972628, "lemmaTitle": "颅内静脉系统血栓形成", "lemmaCroppedTitle": "颅内静脉系统血栓形成", "lemmaDesc": "颅内静脉血栓形成是脑血管病中的一种特殊临床类型，按病因可分为特发性和继发性两类。...", "lemmaUrl": "http://baike.baidu.com/item/%E9%A2%85%E5%86%85%E9%9D%99%E8%84%89%E7%B3%BB%E7%BB%9F%E8%A1%80%E6%A0%93%E5%BD%A2%E6%88%90/16972628", "lemmaPic": []}, {"lemmaId": 18277618, "lemmaTitle": "乌头碱类中毒", "lemmaCroppedTitle": "乌头碱类中毒", "lemmaDesc": "乌头为毛茛科、多年生直立草本植物。主根为乌头，侧根即为附子。乌头的有毒成分主要为...", "lemmaUrl": "http://baike.baidu.com/item/%E4%B9%8C%E5%A4%B4%E7%A2%B1%E7%B1%BB%E4%B8%AD%E6%AF%92/18277618", "lemmaPic": []}, {"lemmaId": 17659685, "lemmaTitle": "波伦综合征", "lemmaCroppedTitle": "波伦综合征", "lemmaDesc": "波伦综合征（Poland Syndrome）是一种特征为单侧胸肌先天发育不良或缺...", "lemmaUrl": "http://baike.baidu.com/item/%E6%B3%A2%E4%BC%A6%E7%BB%BC%E5%90%88%E5%BE%81/17659685", "lemmaPic": []}, {"lemmaId": 17659716, "lemmaTitle": "疱性角结膜炎", "lemmaCroppedTitle": "疱性角结膜炎", "lemmaDesc": "疱性角结膜炎是由微生物蛋白质引起的迟发型变态反应性疾病，是疱疹性眼炎的一种表现类...", "lemmaUrl": "http://baike.baidu.com/item/%E7%96%B1%E6%80%A7%E8%A7%92%E7%BB%93%E8%86%9C%E7%82%8E/17659716", "lemmaPic": []}, {"lemmaId": 1438545, "lemmaTitle": "老年人心脑综合征", "lemmaCroppedTitle": "老年人心脑综合征", "lemmaDesc": "老年人心脑综合征因各类心脏疾病引起心排血量减少、系统血压下降，导致突发性晕厥、抽...", "lemmaUrl": "http://baike.baidu.com/item/%E8%80%81%E5%B9%B4%E4%BA%BA%E5%BF%83%E8%84%91%E7%BB%BC%E5%90%88%E5%BE%81/1438545", "lemmaPic": []}, {"lemmaId": 13883830, "lemmaTitle": "微波烧伤", "lemmaCroppedTitle": "微波烧伤", "lemmaDesc": "近年来，微波已经被广泛地应用于科学实验、工业、农业和医学领域，如用于理疗等，如果...", "lemmaUrl": "http://baike.baidu.com/item/%E5%BE%AE%E6%B3%A2%E7%83%A7%E4%BC%A4/13883830", "lemmaPic": []}, {"lemmaId": 18277496, "lemmaTitle": "输尿管口异位", "lemmaCroppedTitle": "输尿管口异位", "lemmaDesc": "如输尿管口不开口于膀胱三角区上角，而开口于膀胱内或膀胱外，均称输尿管口异位。输尿...", "lemmaUrl": "http://baike.baidu.com/item/%E8%BE%93%E5%B0%BF%E7%AE%A1%E5%8F%A3%E5%BC%82%E4%BD%8D/18277496", "lemmaPic": []}, {"lemmaId": 18277528, "lemmaTitle": "幼年型关节强直性脊椎炎", "lemmaCroppedTitle": "幼年型关节强直性脊椎炎", "lemmaDesc": "幼年强直性脊柱炎（JAS）是指16岁以前起病，以骶髂和脊柱等关节的慢性炎症为特征...", "lemmaUrl": "http://baike.baidu.com/item/%E5%B9%BC%E5%B9%B4%E5%9E%8B%E5%85%B3%E8%8A%82%E5%BC%BA%E7%9B%B4%E6%80%A7%E8%84%8A%E6%A4%8E%E7%82%8E/18277528", "lemmaPic": []}, {"lemmaId": 12093313, "lemmaTitle": "肺粪类圆线虫病", "lemmaCroppedTitle": "肺粪类圆线虫病", "lemmaDesc": "粪类圆线虫一般寄生于人体小肠黏膜下层，在严重感染或免疫功能低下者亦可引起肺及其他...", "lemmaUrl": "http://baike.baidu.com/item/%E8%82%BA%E7%B2%AA%E7%B1%BB%E5%9C%86%E7%BA%BF%E8%99%AB%E7%97%85/12093313", "lemmaPic": []}, {"lemmaId": 13883796, "lemmaTitle": "小儿中度烧伤", "lemmaCroppedTitle": "小儿中度烧伤", "lemmaDesc": "由于小儿在解剖生理上具有自己的特殊性，对于创面、休克、败血症等刺激反应与成人不同...", "lemmaUrl": "http://baike.baidu.com/item/%E5%B0%8F%E5%84%BF%E4%B8%AD%E5%BA%A6%E7%83%A7%E4%BC%A4/13883796", "lemmaPic": []}, {"lemmaId": 7330729, "lemmaTitle": "小儿黄水疮", "lemmaCroppedTitle": "小儿黄水疮", "lemmaDesc": "小儿黄水疮是一种常见的浅表性化脓性皮肤病，因其脓疱破后有黄水渗出而名，古医籍又称...", "lemmaUrl": "http://baike.baidu.com/item/%E5%B0%8F%E5%84%BF%E9%BB%84%E6%B0%B4%E7%96%AE/7330729", "lemmaPic": []}, {"lemmaId": 15620191, "lemmaTitle": "胃饮", "lemmaCroppedTitle": "胃饮", "lemmaDesc": "胃饮即胃肠积液。胃饮是是古代所指的狭义痰饮。《金匮要略・痰饮咳嗽病脉证并治》：“...", "lemmaUrl": "http://baike.baidu.com/item/%E8%83%83%E9%A5%AE/15620191", "lemmaPic": []}, {"lemmaId": 16746312, "lemmaTitle": "颅内先天性肿瘤", "lemmaCroppedTitle": "颅内先天性肿瘤", "lemmaDesc": "先天性肿瘤可分颅咽管瘤、上皮样瘤和生殖细胞瘤，其中颅咽管瘤是最常见的先天性颅内肿...", "lemmaUrl": "http://baike.baidu.com/item/%E9%A2%85%E5%86%85%E5%85%88%E5%A4%A9%E6%80%A7%E8%82%BF%E7%98%A4/16746312", "lemmaPic": []}, {"lemmaId": 18277548, "lemmaTitle": "儿童生殖细胞瘤", "lemmaCroppedTitle": "儿童生殖细胞瘤", "lemmaDesc": "颅内生殖细胞瘤主要发生在松果体区、鞍上区和基底节区，在性别比例、病程、临床症状及...", "lemmaUrl": "http://baike.baidu.com/item/%E5%84%BF%E7%AB%A5%E7%94%9F%E6%AE%96%E7%BB%86%E8%83%9E%E7%98%A4/18277548", "lemmaPic": []}, {"lemmaId": 12677110, "lemmaTitle": "老年急性动脉栓塞", "lemmaCroppedTitle": "老年急性动脉栓塞", "lemmaDesc": "老年急性动脉栓塞，来自心脏的血栓栓子或动脉管壁脱落的粥样硬化斑块，顺血流阻塞大或...", "lemmaUrl": "http://baike.baidu.com/item/%E8%80%81%E5%B9%B4%E6%80%A5%E6%80%A7%E5%8A%A8%E8%84%89%E6%A0%93%E5%A1%9E/12677110", "lemmaPic": []}, {"lemmaId": 17659728, "lemmaTitle": "附睾慢性炎症", "lemmaCroppedTitle": "附睾慢性炎症", "lemmaDesc": "附睾慢性炎症即慢性附睾炎，是严重急性附睾炎不可逆的终末期表现，多由急性附睾炎治疗...", "lemmaUrl": "http://baike.baidu.com/item/%E9%99%84%E7%9D%BE%E6%85%A2%E6%80%A7%E7%82%8E%E7%97%87/17659728", "lemmaPic": []}, {"lemmaId": 17659748, "lemmaTitle": "儿童狼疮性肾炎", "lemmaCroppedTitle": "儿童狼疮性肾炎", "lemmaDesc": "系统性红斑狼疮（SLE）是一种累及多系统、多器官的具有多种自身抗体的自身免疫性疾...", "lemmaUrl": "http://baike.baidu.com/item/%E5%84%BF%E7%AB%A5%E7%8B%BC%E7%96%AE%E6%80%A7%E8%82%BE%E7%82%8E/17659748", "lemmaPic": []}, {"lemmaId": 16746318, "lemmaTitle": "婴幼儿巨幼细胞性贫血", "lemmaCroppedTitle": "婴幼儿巨幼细胞性贫血", "lemmaDesc": "巨幼细胞性贫血是由于维生素B12和（或）叶酸缺乏所致的一种大细胞性贫血。主要特点...", "lemmaUrl": "http://baike.baidu.com/item/%E5%A9%B4%E5%B9%BC%E5%84%BF%E5%B7%A8%E5%B9%BC%E7%BB%86%E8%83%9E%E6%80%A7%E8%B4%AB%E8%A1%80/16746318", "lemmaPic": []}, {"lemmaId": 12428585, "lemmaTitle": "食管化学性烧伤", "lemmaCroppedTitle": "食管化学性烧伤", "lemmaDesc": "食管化学性烧伤又称急性腐蚀性食管炎系因吞服了强酸、强碱等化学腐蚀剂而造成食管严重...", "lemmaUrl": "http://baike.baidu.com/item/%E9%A3%9F%E7%AE%A1%E5%8C%96%E5%AD%A6%E6%80%A7%E7%83%A7%E4%BC%A4/12428585", "lemmaPic": []}, {"lemmaId": 7254215, "lemmaTitle": "滑膜炎、痤疮、脓疱病、骨肥厚、骨髓炎综合征", "lemmaCroppedTitle": "滑膜炎、痤疮、脓疱病、骨肥厚、骨髓炎综合征", "lemmaDesc": "滑膜炎、痤疮、脓疱病、骨肥厚、骨髓炎综合征，简称SAPHO综合征。SAPHO为下...", "lemmaUrl": "http://baike.baidu.com/item/%E6%BB%91%E8%86%9C%E7%82%8E%E3%80%81%E7%97%A4%E7%96%AE%E3%80%81%E8%84%93%E7%96%B1%E7%97%85%E3%80%81%E9%AA%A8%E8%82%A5%E5%8E%9A%E3%80%81%E9%AA%A8%E9%AB%93%E7%82%8E%E7%BB%BC%E5%90%88%E5%BE%81/7254215", "lemmaPic": []}, {"lemmaId": 12372575, "lemmaTitle": "泰迪英语（高一上）", "lemmaCroppedTitle": "泰迪英语（高一上）", "lemmaDesc": "内容介绍《英语读写调计划(高1)(上)》内容简介为：首次实现阅读与写作紧密结合，...", "lemmaUrl": "http://baike.baidu.com/item/%E6%B3%B0%E8%BF%AA%E8%8B%B1%E8%AF%AD%EF%BC%88%E9%AB%98%E4%B8%80%E4%B8%8A%EF%BC%89/12372575", "lemmaPic": []}, {"lemmaId": 12810943, "lemmaTitle": "第Ⅱ-Ⅲ型脊髓血管畸形", "lemmaCroppedTitle": "第Ⅱ-Ⅲ型脊髓血管畸形", "lemmaDesc": "为髓内动静脉畸形，属脊髓血管畸形的一种，分为Ⅱ型（球状血管畸形）和Ⅲ型（未成熟型...", "lemmaUrl": "http://baike.baidu.com/item/%E7%AC%AC%E2%85%A1-%E2%85%A2%E5%9E%8B%E8%84%8A%E9%AB%93%E8%A1%80%E7%AE%A1%E7%95%B8%E5%BD%A2/12810943", "lemmaPic": []}, {"lemmaId": 16972630, "lemmaTitle": "异染性白质脑病", "lemmaCroppedTitle": "异染性白质脑病", "lemmaDesc": "异染性脑白质营养不良（MLD）又称为脑硫脂沉积病，常染色体隐性遗传，是芳基硫酸脂...", "lemmaUrl": "http://baike.baidu.com/item/%E5%BC%82%E6%9F%93%E6%80%A7%E7%99%BD%E8%B4%A8%E8%84%91%E7%97%85/16972630", "lemmaPic": []}, {"lemmaId": 12676549, "lemmaTitle": "小儿出血性休克和脑病综合征", "lemmaCroppedTitle": "小儿出血性休克和脑病综合征", "lemmaDesc": "小儿出血性休克和脑病综合征（HSES）是近年来初步认识的一种新的临床综合征，其主...", "lemmaUrl": "http://baike.baidu.com/item/%E5%B0%8F%E5%84%BF%E5%87%BA%E8%A1%80%E6%80%A7%E4%BC%91%E5%85%8B%E5%92%8C%E8%84%91%E7%97%85%E7%BB%BC%E5%90%88%E5%BE%81/12676549", "lemmaPic": []}, {"lemmaId": 18277525, "lemmaTitle": "小儿糖吸收不良综合征", "lemmaCroppedTitle": "小儿糖吸收不良综合征", "lemmaDesc": "小儿糖吸收不良综合征，又称糖不耐受症，主要是小肠黏膜缺乏特异性的双糖酶，使食物中...", "lemmaUrl": "http://baike.baidu.com/item/%E5%B0%8F%E5%84%BF%E7%B3%96%E5%90%B8%E6%94%B6%E4%B8%8D%E8%89%AF%E7%BB%BC%E5%90%88%E5%BE%81/18277525", "lemmaPic": []}, {"lemmaId": 18277549, "lemmaTitle": "子宫颈炎症", "lemmaCroppedTitle": "子宫颈炎症", "lemmaDesc": "在长期慢性炎症的刺激下，子宫颈管增生而来的柱状上皮可发生非典型增生，如不及时治疗...", "lemmaUrl": "http://baike.baidu.com/item/%E5%AD%90%E5%AE%AB%E9%A2%88%E7%82%8E%E7%97%87/18277549", "lemmaPic": []}, {"lemmaId": 19499459, "lemmaTitle": "肛周汗腺炎", "lemmaCroppedTitle": "肛周汗腺炎", "lemmaDesc": "大汗腺感染后在皮内和皮下组织反复发作，广泛蔓延，形成范围较广的慢性炎症、小脓肿、...", "lemmaUrl": "http://baike.baidu.com/item/%E8%82%9B%E5%91%A8%E6%B1%97%E8%85%BA%E7%82%8E/19499459", "lemmaPic": []}, {"lemmaId": 17659730, "lemmaTitle": "儿童急性肾衰竭", "lemmaCroppedTitle": "儿童急性肾衰竭", "lemmaDesc": "急性肾衰竭是由于肾脏自身和（或）肾外因素在短时间内引起肾脏生理功能急剧下降，导致...", "lemmaUrl": "http://baike.baidu.com/item/%E5%84%BF%E7%AB%A5%E6%80%A5%E6%80%A7%E8%82%BE%E8%A1%B0%E7%AB%AD/17659730", "lemmaPic": []}, {"lemmaId": 17659706, "lemmaTitle": "产后风瘫", "lemmaCroppedTitle": "产后风瘫", "lemmaDesc": "产后风瘫是指妇女产后出现肢体筋脉弛缓、软弱无力，不能随意运动或伴有肌肉萎缩的一种...", "lemmaUrl": "http://baike.baidu.com/item/%E4%BA%A7%E5%90%8E%E9%A3%8E%E7%98%AB/17659706", "lemmaPic": []}, {"lemmaId": 9458956, "lemmaTitle": "小儿家族性嗅神经-性发育不全综合征", "lemmaCroppedTitle": "小儿家族性嗅神经-性发育不全综合征", "lemmaDesc": "小儿家族性嗅神经-性发育不全综合征即嗅神经-性发育不全综合征又称Kallmann...", "lemmaUrl": "http://baike.baidu.com/item/%E5%B0%8F%E5%84%BF%E5%AE%B6%E6%97%8F%E6%80%A7%E5%97%85%E7%A5%9E%E7%BB%8F-%E6%80%A7%E5%8F%91%E8%82%B2%E4%B8%8D%E5%85%A8%E7%BB%BC%E5%90%88%E5%BE%81/9458956", "lemmaPic": []}, {"lemmaId": 12676619, "lemmaTitle": "小儿先天性肺囊肿", "lemmaCroppedTitle": "小儿先天性肺囊肿", "lemmaDesc": "先天性肺囊肿是一种较为常见的肺发育异常症。病变的肺组织出现单个或多个囊肿，可累及...", "lemmaUrl": "http://baike.baidu.com/item/%E5%B0%8F%E5%84%BF%E5%85%88%E5%A4%A9%E6%80%A7%E8%82%BA%E5%9B%8A%E8%82%BF/12676619", "lemmaPic": []}, {"lemmaId": 13883812, "lemmaTitle": "烧伤感染脾", "lemmaCroppedTitle": "烧伤感染脾", "lemmaDesc": "即烧伤后急性脾肿大。其为在烧伤基础上继发感染的表现，属于感染脾一类。这种感染脾有...", "lemmaUrl": "http://baike.baidu.com/item/%E7%83%A7%E4%BC%A4%E6%84%9F%E6%9F%93%E8%84%BE/13883812", "lemmaPic": []}, {"lemmaId": 13883828, "lemmaTitle": "小儿特重度烧伤", "lemmaCroppedTitle": "小儿特重度烧伤", "lemmaDesc": "由于小儿在解剖生理上具有自己的特殊性，对于创面、休克、败血症等刺激反应与成人不同...", "lemmaUrl": "http://baike.baidu.com/item/%E5%B0%8F%E5%84%BF%E7%89%B9%E9%87%8D%E5%BA%A6%E7%83%A7%E4%BC%A4/13883828", "lemmaPic": []}, {"lemmaId": 13883804, "lemmaTitle": "烧伤内毒素血症", "lemmaCroppedTitle": "烧伤内毒素血症", "lemmaDesc": "内毒素是革兰阴性菌胞壁上的特有结构，主要化学成分为脂多糖中的类脂A，为外源性致热...", "lemmaUrl": "http://baike.baidu.com/item/%E7%83%A7%E4%BC%A4%E5%86%85%E6%AF%92%E7%B4%A0%E8%A1%80%E7%97%87/13883804", "lemmaPic": []}, {"lemmaId": 17659689, "lemmaTitle": "颞间隙和颞下间隙感染", "lemmaCroppedTitle": "颞间隙和颞下间隙感染", "lemmaDesc": "颞间隙感染是指颞间隙的急性化脓性炎症，主要临床表现为：范围局限于颞部的肿胀或同时...", "lemmaUrl": "http://baike.baidu.com/item/%E9%A2%9E%E9%97%B4%E9%9A%99%E5%92%8C%E9%A2%9E%E4%B8%8B%E9%97%B4%E9%9A%99%E6%84%9F%E6%9F%93/17659689", "lemmaPic": []}, {"lemmaId": 18277508, "lemmaTitle": "儿童巴特综合征", "lemmaCroppedTitle": "儿童巴特综合征", "lemmaDesc": "巴特综合征以低血钾性碱中毒，血肾素、醛固酮增高但血压正常，肾小球旁器增生和肥大为...", "lemmaUrl": "http://baike.baidu.com/item/%E5%84%BF%E7%AB%A5%E5%B7%B4%E7%89%B9%E7%BB%BC%E5%90%88%E5%BE%81/18277508", "lemmaPic": []}, {"lemmaId": 17659736, "lemmaTitle": "儿童肾小管性酸中毒", "lemmaCroppedTitle": "儿童肾小管性酸中毒", "lemmaDesc": "肾小管性酸中毒（RTA）是由于远端肾小管上皮细胞排泌氢离子和（或）近端肾小管上皮...", "lemmaUrl": "http://baike.baidu.com/item/%E5%84%BF%E7%AB%A5%E8%82%BE%E5%B0%8F%E7%AE%A1%E6%80%A7%E9%85%B8%E4%B8%AD%E6%AF%92/17659736", "lemmaPic": []}, {"lemmaId": 18277495, "lemmaTitle": "外伤后颈动脉闭塞", "lemmaCroppedTitle": "外伤后颈动脉闭塞", "lemmaDesc": "外伤性颈动脉闭塞，亦称为颈动脉闭合性损伤。外伤性颈内动脉闭塞临床少见，但可以导致...", "lemmaUrl": "http://baike.baidu.com/item/%E5%A4%96%E4%BC%A4%E5%90%8E%E9%A2%88%E5%8A%A8%E8%84%89%E9%97%AD%E5%A1%9E/18277495", "lemmaPic": []}, {"lemmaId": 12111995, "lemmaTitle": "精通AutoCAD2002", "lemmaCroppedTitle": "精通AutoCAD2002", "lemmaDesc": "内容介绍本书全面介绍了绘图软件AutoCAD 2002几乎所有的功能，内容包括计...", "lemmaUrl": "http://baike.baidu.com/item/%E7%B2%BE%E9%80%9AAutoCAD2002/12111995", "lemmaPic": {"width": 155, "height": 217, "url": "https://gss2.bdstatic.com/-fo3dSag_xI4khGkpoWK1HF6hhy/baike/w%3D168/sign=325cb760e9f81a4c2632e8cfef2b6029/ac345982b2b7d0a2329b0189c9ef76094b369a57.jpg"}}, {"lemmaId": 12428722, "lemmaTitle": "小儿脊髓前动脉综合征", "lemmaCroppedTitle": "小儿脊髓前动脉综合征", "lemmaDesc": "脊髓前动脉综合征又称beck综合征、davison综合征、脊髓前动脉闭塞综合征等...", "lemmaUrl": "http://baike.baidu.com/item/%E5%B0%8F%E5%84%BF%E8%84%8A%E9%AB%93%E5%89%8D%E5%8A%A8%E8%84%89%E7%BB%BC%E5%90%88%E5%BE%81/12428722", "lemmaPic": []}, {"lemmaId": 19811307, "lemmaTitle": "肛门肿物脱出", "lemmaCroppedTitle": "肛门肿物脱出", "lemmaDesc": "肛门肿物脱出是指直肠或直肠肛管内的突起物、赘生物经肛门脱出。可见于痔核、直肠脱垂...", "lemmaUrl": "http://baike.baidu.com/item/%E8%82%9B%E9%97%A8%E8%82%BF%E7%89%A9%E8%84%B1%E5%87%BA/19811307", "lemmaPic": []}, {"lemmaId": 2775100, "lemmaTitle": "老年人乳头肌功能不全和断裂", "lemmaCroppedTitle": "老年人乳头肌功能不全和断裂", "lemmaDesc": "乳头肌功能不全是指乳头肌病变引起其收缩功能障碍或乳头肌方位改变而不能维持二尖瓣的...", "lemmaUrl": "http://baike.baidu.com/item/%E8%80%81%E5%B9%B4%E4%BA%BA%E4%B9%B3%E5%A4%B4%E8%82%8C%E5%8A%9F%E8%83%BD%E4%B8%8D%E5%85%A8%E5%92%8C%E6%96%AD%E8%A3%82/2775100", "lemmaPic": []}, {"lemmaId": 11292378, "lemmaTitle": "Devic病", "lemmaCroppedTitle": "Devic病", "lemmaDesc": "Devic病即视神经脊髓炎（NOM），是视神经与脊髓同时或相继受累的急性或亚急性...", "lemmaUrl": "http://baike.baidu.com/item/Devic%E7%97%85/11292378", "lemmaPic": []}, {"lemmaId": 12810958, "lemmaTitle": "小儿卡斯钦-贝克病", "lemmaCroppedTitle": "小儿卡斯钦-贝克病", "lemmaDesc": "小儿卡斯钦-贝克病即大骨节病，是一种地方性软骨骨关节畸形病，是以软骨坏死为主的变...", "lemmaUrl": "http://baike.baidu.com/item/%E5%B0%8F%E5%84%BF%E5%8D%A1%E6%96%AF%E9%92%A6-%E8%B4%9D%E5%85%8B%E7%97%85/12810958", "lemmaPic": []}, {"lemmaId": 13883802, "lemmaTitle": "烧伤后胰腺炎", "lemmaCroppedTitle": "烧伤后胰腺炎", "lemmaDesc": "烧伤后由于休克缺血、缺氧、细胞变性或合并败血症而致的胰腺炎症反应。", "lemmaUrl": "http://baike.baidu.com/item/%E7%83%A7%E4%BC%A4%E5%90%8E%E8%83%B0%E8%85%BA%E7%82%8E/13883802", "lemmaPic": []}, {"lemmaId": 13883827, "lemmaTitle": "烧伤复合放射损伤", "lemmaCroppedTitle": "烧伤复合放射损伤", "lemmaDesc": "人员同时或相继受到两种以上（含两种）不同性质致伤因素的作用而发生两种以上的损伤，...", "lemmaUrl": "http://baike.baidu.com/item/%E7%83%A7%E4%BC%A4%E5%A4%8D%E5%90%88%E6%94%BE%E5%B0%84%E6%8D%9F%E4%BC%A4/13883827", "lemmaPic": []}, {"lemmaId": 17659684, "lemmaTitle": "假性麦格综合征", "lemmaCroppedTitle": "假性麦格综合征", "lemmaDesc": "假性麦格综合征系指由于盆腔肿瘤伴发腹水和胸腔积液，并且肿瘤切除后腹水及胸腔积液仍...", "lemmaUrl": "http://baike.baidu.com/item/%E5%81%87%E6%80%A7%E9%BA%A6%E6%A0%BC%E7%BB%BC%E5%90%88%E5%BE%81/17659684", "lemmaPic": []}, {"lemmaId": 17659742, "lemmaTitle": "儿童功能性遗粪症", "lemmaCroppedTitle": "儿童功能性遗粪症", "lemmaDesc": "儿童功能性遗粪症，又称功能性大便失禁，属排泄功能障碍。本症是指4岁或4岁以上儿童...", "lemmaUrl": "http://baike.baidu.com/item/%E5%84%BF%E7%AB%A5%E5%8A%9F%E8%83%BD%E6%80%A7%E9%81%97%E7%B2%AA%E7%97%87/17659742", "lemmaPic": []}, {"lemmaId": 18277509, "lemmaTitle": "儿童多器官功能障碍综合征", "lemmaCroppedTitle": "儿童多器官功能障碍综合征", "lemmaDesc": "儿童多器官功能障碍综合征（multiple organ dysfunction ...", "lemmaUrl": "http://baike.baidu.com/item/%E5%84%BF%E7%AB%A5%E5%A4%9A%E5%99%A8%E5%AE%98%E5%8A%9F%E8%83%BD%E9%9A%9C%E7%A2%8D%E7%BB%BC%E5%90%88%E5%BE%81/18277509", "lemmaPic": []}, {"lemmaId": 17659686, "lemmaTitle": "耳郭化脓性软骨膜炎", "lemmaCroppedTitle": "耳郭化脓性软骨膜炎", "lemmaDesc": "耳郭化脓性软骨膜炎是耳郭软骨膜的急性化脓性炎症，软骨因血供障碍而逐渐坏死。病情发...", "lemmaUrl": "http://baike.baidu.com/item/%E8%80%B3%E9%83%AD%E5%8C%96%E8%84%93%E6%80%A7%E8%BD%AF%E9%AA%A8%E8%86%9C%E7%82%8E/17659686", "lemmaPic": []}, {"lemmaId": 18277510, "lemmaTitle": "儿童大动脉炎", "lemmaCroppedTitle": "儿童大动脉炎", "lemmaDesc": "大动脉炎是指主动脉及其主要分支及肺动脉的慢性进行性非特异性炎症，以引起不同部位的...", "lemmaUrl": "http://baike.baidu.com/item/%E5%84%BF%E7%AB%A5%E5%A4%A7%E5%8A%A8%E8%84%89%E7%82%8E/18277510", "lemmaPic": []}, {"lemmaId": 6411029, "lemmaTitle": "特发性身材矮小", "lemmaCroppedTitle": "特发性身材矮小", "lemmaDesc": "特发性矮小（idiopathic short stature，ISS）是一种暂时...", "lemmaUrl": "http://baike.baidu.com/item/%E7%89%B9%E5%8F%91%E6%80%A7%E8%BA%AB%E6%9D%90%E7%9F%AE%E5%B0%8F/6411029", "lemmaPic": []}, {"lemmaId": 13883825, "lemmaTitle": "烧伤外毒素血症", "lemmaCroppedTitle": "烧伤外毒素血症", "lemmaDesc": "细菌在生长过程中分泌到菌体外的一种代谢产物。多为革兰阳性细菌所产生。其组成为蛋白...", "lemmaUrl": "http://baike.baidu.com/item/%E7%83%A7%E4%BC%A4%E5%A4%96%E6%AF%92%E7%B4%A0%E8%A1%80%E7%97%87/13883825", "lemmaPic": []}, {"lemmaId": 17659769, "lemmaTitle": "外伤性基底节区血肿", "lemmaCroppedTitle": "外伤性基底节区血肿", "lemmaDesc": "外伤性基底节区血肿是在CT广泛应用之后才发现的特殊部位血肿。其发生率占颅脑损伤的...", "lemmaUrl": "http://baike.baidu.com/item/%E5%A4%96%E4%BC%A4%E6%80%A7%E5%9F%BA%E5%BA%95%E8%8A%82%E5%8C%BA%E8%A1%80%E8%82%BF/17659769", "lemmaPic": []}, {"lemmaId": 18277538, "lemmaTitle": "小儿特发性间质性肺炎", "lemmaCroppedTitle": "小儿特发性间质性肺炎", "lemmaDesc": "特发性间质性肺炎是一组原因不明的间质性疾病，主要表现为弥漫性的肺泡炎、最终可导致...", "lemmaUrl": "http://baike.baidu.com/item/%E5%B0%8F%E5%84%BF%E7%89%B9%E5%8F%91%E6%80%A7%E9%97%B4%E8%B4%A8%E6%80%A7%E8%82%BA%E7%82%8E/18277538", "lemmaPic": []}, {"lemmaId": 13883791, "lemmaTitle": "小儿烧伤创面脓毒症", "lemmaCroppedTitle": "小儿烧伤创面脓毒症", "lemmaDesc": "烧伤脓毒症是深度烧伤后的常见并发症。可为单细菌或多数细菌的混合感染，偶亦可由真菌...", "lemmaUrl": "http://baike.baidu.com/item/%E5%B0%8F%E5%84%BF%E7%83%A7%E4%BC%A4%E5%88%9B%E9%9D%A2%E8%84%93%E6%AF%92%E7%97%87/13883791", "lemmaPic": []}, {"lemmaId": 18277570, "lemmaTitle": "单光子发射计算机化断层显像", "lemmaCroppedTitle": "单光子发射计算机化断层显像", "lemmaDesc": "核医学分子影像技术主要包括单光子发射计算机化断层显像（SPECT）和正电子发射断...", "lemmaUrl": "http://baike.baidu.com/item/%E5%8D%95%E5%85%89%E5%AD%90%E5%8F%91%E5%B0%84%E8%AE%A1%E7%AE%97%E6%9C%BA%E5%8C%96%E6%96%AD%E5%B1%82%E6%98%BE%E5%83%8F/18277570", "lemmaPic": []}, {"lemmaId": 18277487, "lemmaTitle": "儿童混合性结缔组织病", "lemmaCroppedTitle": "儿童混合性结缔组织病", "lemmaDesc": "混合性结缔组织病（MCTD）是一类综合征，其特点是临床上具有系统性红斑狼疮（SL...", "lemmaUrl": "http://baike.baidu.com/item/%E5%84%BF%E7%AB%A5%E6%B7%B7%E5%90%88%E6%80%A7%E7%BB%93%E7%BC%94%E7%BB%84%E7%BB%87%E7%97%85/18277487", "lemmaPic": []}, {"lemmaId": 18277513, "lemmaTitle": "儿童肺出血-肾炎综合征", "lemmaCroppedTitle": "儿童肺出血-肾炎综合征", "lemmaDesc": "肺出血-肾炎综合征，又称Goodpasture综合征，其临床表现以快速肾炎综合征...", "lemmaUrl": "http://baike.baidu.com/item/%E5%84%BF%E7%AB%A5%E8%82%BA%E5%87%BA%E8%A1%80-%E8%82%BE%E7%82%8E%E7%BB%BC%E5%90%88%E5%BE%81/18277513", "lemmaPic": []}, {"lemmaId": 16972574, "lemmaTitle": "神经系梅毒", "lemmaCroppedTitle": "神经系梅毒", "lemmaDesc": "神经梅毒为苍白密螺旋体（梅毒螺旋体）感染神经系统所引起的疾病。分为先天性与后天性...", "lemmaUrl": "http://baike.baidu.com/item/%E7%A5%9E%E7%BB%8F%E7%B3%BB%E6%A2%85%E6%AF%92/16972574", "lemmaPic": []}, {"lemmaId": 18277520, "lemmaTitle": "儿童抗磷脂综合征", "lemmaCroppedTitle": "儿童抗磷脂综合征", "lemmaDesc": "抗磷脂综合征（APS）是由抗磷脂抗体（aPL）引起的一组临床征象，是一种非炎性反...", "lemmaUrl": "http://baike.baidu.com/item/%E5%84%BF%E7%AB%A5%E6%8A%97%E7%A3%B7%E8%84%82%E7%BB%BC%E5%90%88%E5%BE%81/18277520", "lemmaPic": []}, {"lemmaId": 17659703, "lemmaTitle": "发绀-杵状指-肝病综合征", "lemmaCroppedTitle": "发绀-杵状指-肝病综合征", "lemmaDesc": "发绀-杵状指-肝病综合征又名Fluckiger综合征、紫绀-杵状指-肝病综合征。...", "lemmaUrl": "http://baike.baidu.com/item/%E5%8F%91%E7%BB%80-%E6%9D%B5%E7%8A%B6%E6%8C%87-%E8%82%9D%E7%97%85%E7%BB%BC%E5%90%88%E5%BE%81/17659703", "lemmaPic": []}, {"lemmaId": 18277564, "lemmaTitle": "婴幼儿钙缺乏", "lemmaCroppedTitle": "婴幼儿钙缺乏", "lemmaDesc": "出生时小儿表现为易惊、睡眠不安、颅骨软、前囟门大，有的甚至出现喉喘鸣和惊厥，此为...", "lemmaUrl": "http://baike.baidu.com/item/%E5%A9%B4%E5%B9%BC%E5%84%BF%E9%92%99%E7%BC%BA%E4%B9%8F/18277564", "lemmaPic": []}, {"lemmaId": 13883798, "lemmaTitle": "飞石伤", "lemmaCroppedTitle": "飞石伤", "lemmaDesc": "在烧伤复合创伤时，烧伤创面常伴发其他损伤。如：核爆炸或其他强大爆炸时，强大的冲击...", "lemmaUrl": "http://baike.baidu.com/item/%E9%A3%9E%E7%9F%B3%E4%BC%A4/13883798", "lemmaPic": []}, {"lemmaId": 18277505, "lemmaTitle": "儿童X连锁无丙种球蛋白血症", "lemmaCroppedTitle": "儿童X连锁无丙种球蛋白血症", "lemmaDesc": "X连锁无丙种球蛋白血症（XLA）又称Bruton病，是由于人类B细胞系列发育障碍...", "lemmaUrl": "http://baike.baidu.com/item/%E5%84%BF%E7%AB%A5X%E8%BF%9E%E9%94%81%E6%97%A0%E4%B8%99%E7%A7%8D%E7%90%83%E8%9B%8B%E7%99%BD%E8%A1%80%E7%97%87/18277505", "lemmaPic": []}, {"lemmaId": 12428573, "lemmaTitle": "残胃淋巴瘤", "lemmaCroppedTitle": "残胃淋巴瘤", "lemmaDesc": "良性胃十二指肠溃疡，初次胃部分切除术后5～10年以上发生的恶性肿瘤，称为残胃癌。...", "lemmaUrl": "http://baike.baidu.com/item/%E6%AE%8B%E8%83%83%E6%B7%8B%E5%B7%B4%E7%98%A4/12428573", "lemmaPic": []}, {"lemmaId": 17659768, "lemmaTitle": "痢疾后综合征", "lemmaCroppedTitle": "痢疾后综合征", "lemmaDesc": "痢疾后综合征也称Reiter综合征、肠病后类风湿、眼尿道关节炎综合征，其病因及发...", "lemmaUrl": "http://baike.baidu.com/item/%E7%97%A2%E7%96%BE%E5%90%8E%E7%BB%BC%E5%90%88%E5%BE%81/17659768", "lemmaPic": []}, {"lemmaId": 17659714, "lemmaTitle": "内脏血吸虫病", "lemmaCroppedTitle": "内脏血吸虫病", "lemmaDesc": "内脏血吸虫病是由裂体吸虫属血吸虫引起的一种慢性寄生虫病，主要流行于亚、非、拉美地...", "lemmaUrl": "http://baike.baidu.com/item/%E5%86%85%E8%84%8F%E8%A1%80%E5%90%B8%E8%99%AB%E7%97%85/17659714", "lemmaPic": []}, {"lemmaId": 18277526, "lemmaTitle": "小儿腺苷脱氨酶缺乏症", "lemmaCroppedTitle": "小儿腺苷脱氨酶缺乏症", "lemmaDesc": "小儿腺苷脱氨酶缺乏症为常染色体隐性遗传性疾病。由于腺苷脱氨酶缺陷，导致核苷酸代谢...", "lemmaUrl": "http://baike.baidu.com/item/%E5%B0%8F%E5%84%BF%E8%85%BA%E8%8B%B7%E8%84%B1%E6%B0%A8%E9%85%B6%E7%BC%BA%E4%B9%8F%E7%97%87/18277526", "lemmaPic": []}, {"lemmaId": 12372698, "lemmaTitle": "2009年序列之一要点精编（任汝芬教授考研政治）", "lemmaCroppedTitle": "2009年序列之一要点精编（任汝芬教授考研政治）", "lemmaDesc": "内容介绍本序列政治理论复习辅导教材，坚持“学马列要精，要管用的”原则，力求体现考...", "lemmaUrl": "http://baike.baidu.com/item/2009%E5%B9%B4%E5%BA%8F%E5%88%97%E4%B9%8B%E4%B8%80%E8%A6%81%E7%82%B9%E7%B2%BE%E7%BC%96%EF%BC%88%E4%BB%BB%E6%B1%9D%E8%8A%AC%E6%95%99%E6%8E%88%E8%80%83%E7%A0%94%E6%94%BF%E6%B2%BB%EF%BC%89/12372698", "lemmaPic": {"width": 306, "height": 432, "url": "https://gss3.bdstatic.com/-Po3dSag_xI4khGkpoWK1HF6hhy/baike/w%3D168/sign=92457dbeab014c08193b2ca3327b025b/730e0cf3d7ca7bcb71273738bc096b63f624a84d.jpg"}}, {"lemmaId": 17659717, "lemmaTitle": "先天性拇趾内翻", "lemmaCroppedTitle": "先天性拇趾内翻", "lemmaDesc": "先天性拇趾内翻，与拇趾外翻相反，表现为拇趾在跖趾关节处向内侧倾斜成角，导致拇趾与...", "lemmaUrl": "http://baike.baidu.com/item/%E5%85%88%E5%A4%A9%E6%80%A7%E6%8B%87%E8%B6%BE%E5%86%85%E7%BF%BB/17659717", "lemmaPic": {"width": 415, "height": 201, "url": "https://gss1.bdstatic.com/-vo3dSag_xI4khGkpoWK1HF6hhy/baike/w%3D168/sign=9cb39e79642762d0803ea0b998ed0849/500fd9f9d72a60591072c0402f34349b033bba0d.jpg"}}, {"lemmaId": 19811247, "lemmaTitle": "小睑裂综合征", "lemmaCroppedTitle": "小睑裂综合征", "lemmaDesc": "先天小睑裂综合征（Congenital blepharophimosis syn...", "lemmaUrl": "http://baike.baidu.com/item/%E5%B0%8F%E7%9D%91%E8%A3%82%E7%BB%BC%E5%90%88%E5%BE%81/19811247", "lemmaPic": []}, {"lemmaId": 18277560, "lemmaTitle": "乳腺神经鞘瘤", "lemmaCroppedTitle": "乳腺神经鞘瘤", "lemmaDesc": "神经鞘瘤属于周围神经组织肿瘤，又名雪旺细胞瘤，少数患者可伴发神经纤维瘤病。发生在...", "lemmaUrl": "http://baike.baidu.com/item/%E4%B9%B3%E8%85%BA%E7%A5%9E%E7%BB%8F%E9%9E%98%E7%98%A4/18277560", "lemmaPic": []}, {"lemmaId": 17659693, "lemmaTitle": "眼睑热病性疱疹", "lemmaCroppedTitle": "眼睑热病性疱疹", "lemmaDesc": "眼睑热病性疱疹，即眼睑单纯疱疹，又称眼睑热性疱疹。由单纯疱疹病毒（herpes ...", "lemmaUrl": "http://baike.baidu.com/item/%E7%9C%BC%E7%9D%91%E7%83%AD%E7%97%85%E6%80%A7%E7%96%B1%E7%96%B9/17659693", "lemmaPic": []}, {"lemmaId": 18277493, "lemmaTitle": "获得性穿通性足部溃疡", "lemmaCroppedTitle": "获得性穿通性足部溃疡", "lemmaDesc": "又称Bureau-Barrière综合征、获得性感觉神经根病，是发生于足部的一种...", "lemmaUrl": "http://baike.baidu.com/item/%E8%8E%B7%E5%BE%97%E6%80%A7%E7%A9%BF%E9%80%9A%E6%80%A7%E8%B6%B3%E9%83%A8%E6%BA%83%E7%96%A1/18277493", "lemmaPic": []}, {"lemmaId": 16972799, "lemmaTitle": "硬脑膜肉瘤", "lemmaCroppedTitle": "硬脑膜肉瘤", "lemmaDesc": "脑膜瘤分为颅内脑膜瘤和异位脑膜瘤，前者由颅内蛛网膜细胞形成，后者指无脑膜覆盖的组...", "lemmaUrl": "http://baike.baidu.com/item/%E7%A1%AC%E8%84%91%E8%86%9C%E8%82%89%E7%98%A4/16972799", "lemmaPic": []}, {"lemmaId": 19802955, "lemmaTitle": "马蹄形脓肿", "lemmaCroppedTitle": "马蹄形脓肿", "lemmaDesc": "马蹄形脓肿又称全马蹄形肛周脓肿，较为少见，男性多见，多数为20～40岁的青壮年。...", "lemmaUrl": "http://baike.baidu.com/item/%E9%A9%AC%E8%B9%84%E5%BD%A2%E8%84%93%E8%82%BF/19802955", "lemmaPic": []}, {"lemmaId": 17659751, "lemmaTitle": "儿童肾性氨基酸尿症", "lemmaCroppedTitle": "儿童肾性氨基酸尿症", "lemmaDesc": "肾性氨基酸尿是一组以近端肾小管对氨基酸转运障碍导致尿中氨基酸过多为特征的一种肾小...", "lemmaUrl": "http://baike.baidu.com/item/%E5%84%BF%E7%AB%A5%E8%82%BE%E6%80%A7%E6%B0%A8%E5%9F%BA%E9%85%B8%E5%B0%BF%E7%97%87/17659751", "lemmaPic": []}, {"lemmaId": 18277485, "lemmaTitle": "儿童X-连锁严重联合免疫缺陷病", "lemmaCroppedTitle": "儿童X-连锁严重联合免疫缺陷病", "lemmaDesc": "严重联合免疫缺陷病（SCID）包括一组遗传性疾病，是指T细胞和B细胞功能联合缺陷...", "lemmaUrl": "http://baike.baidu.com/item/%E5%84%BF%E7%AB%A5X-%E8%BF%9E%E9%94%81%E4%B8%A5%E9%87%8D%E8%81%94%E5%90%88%E5%85%8D%E7%96%AB%E7%BC%BA%E9%99%B7%E7%97%85/18277485", "lemmaPic": []}, {"lemmaId": 18277524, "lemmaTitle": "小儿黏多糖贮积症Ⅳ型", "lemmaCroppedTitle": "小儿黏多糖贮积症Ⅳ型", "lemmaDesc": "黏多糖贮积病Ⅳ型为黏多糖贮积病中其中的一种类型，又称莫基奥（Morquio）综合...", "lemmaUrl": "http://baike.baidu.com/item/%E5%B0%8F%E5%84%BF%E9%BB%8F%E5%A4%9A%E7%B3%96%E8%B4%AE%E7%A7%AF%E7%97%87%E2%85%A3%E5%9E%8B/18277524", "lemmaPic": []}, {"lemmaId": 18277536, "lemmaTitle": "肥大性瘢痕", "lemmaCroppedTitle": "肥大性瘢痕", "lemmaDesc": "肥大性瘢痕是皮肤结缔组织对创伤的反应超过正常范围的表现。是由于大量结缔组织增殖和...", "lemmaUrl": "http://baike.baidu.com/item/%E8%82%A5%E5%A4%A7%E6%80%A7%E7%98%A2%E7%97%95/18277536", "lemmaPic": []}, {"lemmaId": 17659681, "lemmaTitle": "外伤性眼眶骨折", "lemmaCroppedTitle": "外伤性眼眶骨折", "lemmaDesc": "眼眶骨折可单独发生，或与其他颌面骨骨折同时发生，如颧骨骨折、额骨骨折或上颌骨Le...", "lemmaUrl": "http://baike.baidu.com/item/%E5%A4%96%E4%BC%A4%E6%80%A7%E7%9C%BC%E7%9C%B6%E9%AA%A8%E6%8A%98/17659681", "lemmaPic": []}, {"lemmaId": 12677266, "lemmaTitle": "胰石病", "lemmaCroppedTitle": "胰石病", "lemmaDesc": "胰石病是一种较少见的疾病，有报道其占尸检材料的0.09%～0.13%，近年来有增...", "lemmaUrl": "http://baike.baidu.com/item/%E8%83%B0%E7%9F%B3%E7%97%85/12677266", "lemmaPic": []}, {"lemmaId": 18277492, "lemmaTitle": "儿童获得性免疫缺陷综合征", "lemmaCroppedTitle": "儿童获得性免疫缺陷综合征", "lemmaDesc": "儿童时期的获得性免疫缺陷综合征（AIDS）即儿童艾滋病，是由人类免疫缺陷病毒（H...", "lemmaUrl": "http://baike.baidu.com/item/%E5%84%BF%E7%AB%A5%E8%8E%B7%E5%BE%97%E6%80%A7%E5%85%8D%E7%96%AB%E7%BC%BA%E9%99%B7%E7%BB%BC%E5%90%88%E5%BE%81/18277492", "lemmaPic": []}, {"lemmaId": 17659707, "lemmaTitle": "僵[", "lemmaCroppedTitle": "僵[", "lemmaDesc": "僵[是第1跖趾关节的骨关节炎，此病极为常见。常由于第1跖骨位置变异引起，偶尔外伤...", "lemmaUrl": "http://baike.baidu.com/item/%E5%83%B5%E8%B8%87/17659707", "lemmaPic": []}, {"lemmaId": 18277543, "lemmaTitle": "泌尿生殖系包虫病", "lemmaCroppedTitle": "泌尿生殖系包虫病", "lemmaDesc": "棘球蚴病，也称包虫病，是由寄生于犬、狼、狐狸等动物小肠的棘球蚴感染人而引起的一种...", "lemmaUrl": "http://baike.baidu.com/item/%E6%B3%8C%E5%B0%BF%E7%94%9F%E6%AE%96%E7%B3%BB%E5%8C%85%E8%99%AB%E7%97%85/18277543", "lemmaPic": []}, {"lemmaId": 18277595, "lemmaTitle": "突发性特发性感音神经性聋", "lemmaCroppedTitle": "突发性特发性感音神经性聋", "lemmaDesc": "突发性特发性感音神经性聋（SSNHL）简称突聋，是指突然发生的性听力损失，发病诱...", "lemmaUrl": "http://baike.baidu.com/item/%E7%AA%81%E5%8F%91%E6%80%A7%E7%89%B9%E5%8F%91%E6%80%A7%E6%84%9F%E9%9F%B3%E7%A5%9E%E7%BB%8F%E6%80%A7%E8%81%8B/18277595", "lemmaPic": []}, {"lemmaId": 18277499, "lemmaTitle": "棉子油中毒", "lemmaCroppedTitle": "棉子油中毒", "lemmaDesc": "棉子油是由棉子榨出的富有营养的植物食用油，但是它和芝麻香油、花生油、大豆油不同，...", "lemmaUrl": "http://baike.baidu.com/item/%E6%A3%89%E5%AD%90%E6%B2%B9%E4%B8%AD%E6%AF%92/18277499", "lemmaPic": []}, {"lemmaId": 17659749, "lemmaTitle": "儿童肾小管-间质肾炎", "lemmaCroppedTitle": "儿童肾小管-间质肾炎", "lemmaDesc": "肾小管-间质肾炎（TIN）是指一种主要累及肾小管和肾间质的一组非化脓性炎症反应，...", "lemmaUrl": "http://baike.baidu.com/item/%E5%84%BF%E7%AB%A5%E8%82%BE%E5%B0%8F%E7%AE%A1-%E9%97%B4%E8%B4%A8%E8%82%BE%E7%82%8E/17659749", "lemmaPic": []}, {"lemmaId": 17659762, "lemmaTitle": "乳溢-闭经综合征", "lemmaCroppedTitle": "乳溢-闭经综合征", "lemmaDesc": "非妊娠及哺乳期妇女，或妇女停止哺乳1年后，出现持续性溢乳且伴有闭经者，包括不同的...", "lemmaUrl": "http://baike.baidu.com/item/%E4%B9%B3%E6%BA%A2-%E9%97%AD%E7%BB%8F%E7%BB%BC%E5%90%88%E5%BE%81/17659762", "lemmaPic": []}, {"lemmaId": 18277486, "lemmaTitle": "小儿变应性亚败血症", "lemmaCroppedTitle": "小儿变应性亚败血症", "lemmaDesc": "变应性亚败血症又称Wissler-Fanconi综合征、亚急性变应性热等。是一种...", "lemmaUrl": "http://baike.baidu.com/item/%E5%B0%8F%E5%84%BF%E5%8F%98%E5%BA%94%E6%80%A7%E4%BA%9A%E8%B4%A5%E8%A1%80%E7%97%87/18277486", "lemmaPic": []}, {"lemmaId": 15959928, "lemmaTitle": "弹性纤维性假黄瘤", "lemmaCroppedTitle": "弹性纤维性假黄瘤", "lemmaDesc": "弹性纤维性假黄瘤早期曾称为弥漫性黄色斑瘤，以后又有非典型黄色瘤、营养不良性弹力纤...", "lemmaUrl": "http://baike.baidu.com/item/%E5%BC%B9%E6%80%A7%E7%BA%A4%E7%BB%B4%E6%80%A7%E5%81%87%E9%BB%84%E7%98%A4/15959928", "lemmaPic": []}], "total": 7246, "totalPage": 73, "page": 71, "fromLemma": 0}