{"lemmaList": [{"lemmaId": 4532364, "lemmaTitle": "立克次体病", "lemmaCroppedTitle": "立克次体病", "lemmaDesc": "立克次体病是立克次体目中某些致病微生物所引起的多种急性感染的统称，呈世界性或地方...", "lemmaUrl": "http://baike.baidu.com/item/%E7%AB%8B%E5%85%8B%E6%AC%A1%E4%BD%93%E7%97%85/4532364", "lemmaPic": []}, {"lemmaId": 6433387, "lemmaTitle": "胆管良性狭窄", "lemmaCroppedTitle": "胆管良性狭窄", "lemmaDesc": "胆管良性狭窄是指胆管损伤和复发性胆管炎所致的胆管腔瘢痕性缩窄。可由医源性损伤、腹...", "lemmaUrl": "http://baike.baidu.com/item/%E8%83%86%E7%AE%A1%E8%89%AF%E6%80%A7%E7%8B%AD%E7%AA%84/6433387", "lemmaPic": []}, {"lemmaId": 5054746, "lemmaTitle": "选择性IgA缺乏症", "lemmaCroppedTitle": "选择性IgA缺乏症", "lemmaDesc": "本病是指血清IgA低于0.05g/L，而IgG和IgM含量正常；它是免疫缺陷中最...", "lemmaUrl": "http://baike.baidu.com/item/%E9%80%89%E6%8B%A9%E6%80%A7IgA%E7%BC%BA%E4%B9%8F%E7%97%87/5054746", "lemmaPic": []}, {"lemmaId": 5803090, "lemmaTitle": "肺寄生虫病", "lemmaCroppedTitle": "肺寄生虫病", "lemmaDesc": "许多经血循环传播到人体各处的寄生虫，常在肺脏内停留，并引起病变，即肺部寄生虫病。...", "lemmaUrl": "http://baike.baidu.com/item/%E8%82%BA%E5%AF%84%E7%94%9F%E8%99%AB%E7%97%85/5803090", "lemmaPic": []}, {"lemmaId": 1051968, "lemmaTitle": "外阴恶性黑色素瘤", "lemmaCroppedTitle": "外阴恶性黑色素瘤", "lemmaDesc": "外阴恶性黑色素瘤与其他部位的黑色素瘤生物学行为方面显著不同，预后也显著差于后者。...", "lemmaUrl": "http://baike.baidu.com/item/%E5%A4%96%E9%98%B4%E6%81%B6%E6%80%A7%E9%BB%91%E8%89%B2%E7%B4%A0%E7%98%A4/1051968", "lemmaPic": []}, {"lemmaId": 8950962, "lemmaTitle": "类鼻疽", "lemmaCroppedTitle": "类鼻疽", "lemmaDesc": "类鼻疽是由类鼻疽伯克霍尔德菌引起的人类与动物的共患疾病。临床表现多样化，可为急性...", "lemmaUrl": "http://baike.baidu.com/item/%E7%B1%BB%E9%BC%BB%E7%96%BD/8950962", "lemmaPic": []}, {"lemmaId": 221423, "lemmaTitle": "全身化脓性感染", "lemmaCroppedTitle": "全身化脓性感染", "lemmaDesc": "病原菌侵入人体血液，并在其内生长繁殖或产生毒素，引起严重的全身感染症状和中毒症状...", "lemmaUrl": "http://baike.baidu.com/item/%E5%85%A8%E8%BA%AB%E5%8C%96%E8%84%93%E6%80%A7%E6%84%9F%E6%9F%93/221423", "lemmaPic": []}, {"lemmaId": 7820763, "lemmaTitle": "鼻孢子虫病", "lemmaCroppedTitle": "鼻孢子虫病", "lemmaDesc": "鼻孢子虫病是由Seeber（希伯）鼻孢子菌引起的主要侵犯鼻及鼻黏膜的良性、慢性肉...", "lemmaUrl": "http://baike.baidu.com/item/%E9%BC%BB%E5%AD%A2%E5%AD%90%E8%99%AB%E7%97%85/7820763", "lemmaPic": []}, {"lemmaId": 3639601, "lemmaTitle": "脉络膜血管瘤", "lemmaCroppedTitle": "脉络膜血管瘤", "lemmaDesc": "脉络膜血管瘤，属于良性、血管性、错构瘤性病变。大多数为海绵状血管瘤，而毛细血管型...", "lemmaUrl": "http://baike.baidu.com/item/%E8%84%89%E7%BB%9C%E8%86%9C%E8%A1%80%E7%AE%A1%E7%98%A4/3639601", "lemmaPic": []}, {"lemmaId": 7252864, "lemmaTitle": "围绝经期功能失调性子宫出血", "lemmaCroppedTitle": "围绝经期功能失调性子宫出血", "lemmaDesc": "围绝经期功能失调性子宫出血简称围绝经期功血，围绝经期指妇女绝经前后的一段时期，也...", "lemmaUrl": "http://baike.baidu.com/item/%E5%9B%B4%E7%BB%9D%E7%BB%8F%E6%9C%9F%E5%8A%9F%E8%83%BD%E5%A4%B1%E8%B0%83%E6%80%A7%E5%AD%90%E5%AE%AB%E5%87%BA%E8%A1%80/7252864", "lemmaPic": []}, {"lemmaId": 10456216, "lemmaTitle": "咽部异感症", "lemmaCroppedTitle": "咽部异感症", "lemmaDesc": "咽异感症是耳鼻喉门诊很常见的主诉之一，中医称为梅核气，犹如梅核阻塞咽喉，咳不出，...", "lemmaUrl": "http://baike.baidu.com/item/%E5%92%BD%E9%83%A8%E5%BC%82%E6%84%9F%E7%97%87/10456216", "lemmaPic": []}, {"lemmaId": 1957300, "lemmaTitle": "原发性直立性低血压", "lemmaCroppedTitle": "原发性直立性低血压", "lemmaDesc": "原发性直立性低血压属少见病，其临床特征为直立性低血压（即从卧位或蹲位突然起立时血...", "lemmaUrl": "http://baike.baidu.com/item/%E5%8E%9F%E5%8F%91%E6%80%A7%E7%9B%B4%E7%AB%8B%E6%80%A7%E4%BD%8E%E8%A1%80%E5%8E%8B/1957300", "lemmaPic": []}, {"lemmaId": 3685034, "lemmaTitle": "小儿紫癜性肾炎", "lemmaCroppedTitle": "小儿紫癜性肾炎", "lemmaDesc": "根据不同的分型标准，对儿童紫癜性肾炎有三种分型方法：①包括儿童紫癜性肾炎的临床分...", "lemmaUrl": "http://baike.baidu.com/item/%E5%B0%8F%E5%84%BF%E7%B4%AB%E7%99%9C%E6%80%A7%E8%82%BE%E7%82%8E/3685034", "lemmaPic": []}, {"lemmaId": 1525573, "lemmaTitle": "先天性巨输尿管", "lemmaCroppedTitle": "先天性巨输尿管", "lemmaDesc": "先天性巨输尿管是由于输尿管末端肌肉结构发育异常（环形肌增多、纵形肌缺乏），导致输...", "lemmaUrl": "http://baike.baidu.com/item/%E5%85%88%E5%A4%A9%E6%80%A7%E5%B7%A8%E8%BE%93%E5%B0%BF%E7%AE%A1/1525573", "lemmaPic": []}, {"lemmaId": 12428733, "lemmaTitle": "小儿脑震荡", "lemmaCroppedTitle": "小儿脑震荡", "lemmaDesc": "脑震荡是指伤后立即发生的短暂性可逆的、不伴有脑组织结构可察觉损伤的脑功能丧失，虽...", "lemmaUrl": "http://baike.baidu.com/item/%E5%B0%8F%E5%84%BF%E8%84%91%E9%9C%87%E8%8D%A1/12428733", "lemmaPic": []}, {"lemmaId": 941868, "lemmaTitle": "肠病性肢端皮炎", "lemmaCroppedTitle": "肠病性肢端皮炎", "lemmaDesc": "是一种罕见的遗传性锌缺乏症，临床表现为“肢端皮炎、脱发、腹泻”三联征。皮疹好发于...", "lemmaUrl": "http://baike.baidu.com/item/%E8%82%A0%E7%97%85%E6%80%A7%E8%82%A2%E7%AB%AF%E7%9A%AE%E7%82%8E/941868", "lemmaPic": []}, {"lemmaId": 2774898, "lemmaTitle": "阴部神经干痛", "lemmaCroppedTitle": "阴部神经干痛", "lemmaDesc": "阴部神经来自阴部神经丛，神经纤维由骶2、3、4神经前支组成，内含许多副交感神经纤...", "lemmaUrl": "http://baike.baidu.com/item/%E9%98%B4%E9%83%A8%E7%A5%9E%E7%BB%8F%E5%B9%B2%E7%97%9B/2774898", "lemmaPic": []}, {"lemmaId": 9916355, "lemmaTitle": "妊娠合并急性胆囊炎", "lemmaCroppedTitle": "妊娠合并急性胆囊炎", "lemmaDesc": "急性胆囊炎是外科的常见病种，仅次于阑尾炎，占第2位。妊娠合并急性胆囊炎可发生于妊...", "lemmaUrl": "http://baike.baidu.com/item/%E5%A6%8A%E5%A8%A0%E5%90%88%E5%B9%B6%E6%80%A5%E6%80%A7%E8%83%86%E5%9B%8A%E7%82%8E/9916355", "lemmaPic": []}, {"lemmaId": 5086061, "lemmaTitle": "肩-手综合征", "lemmaCroppedTitle": "肩-手综合征", "lemmaDesc": "肩手综合征（RSD）是指患者患手突然水肿疼痛及肩关节疼痛，并使手功能受限。因疼痛...", "lemmaUrl": "http://baike.baidu.com/item/%E8%82%A9-%E6%89%8B%E7%BB%BC%E5%90%88%E5%BE%81/5086061", "lemmaPic": []}, {"lemmaId": 2787344, "lemmaTitle": "尤因肉瘤", "lemmaCroppedTitle": "尤因肉瘤", "lemmaDesc": "传统的概念认为尤因肉瘤起源于骨髓的间充质结缔组织，以小圆细胞为主要结构的原发恶性...", "lemmaUrl": "http://baike.baidu.com/item/%E5%B0%A4%E5%9B%A0%E8%82%89%E7%98%A4/2787344", "lemmaPic": []}, {"lemmaId": 1766089, "lemmaTitle": "眼睑基底细胞癌", "lemmaCroppedTitle": "眼睑基底细胞癌", "lemmaDesc": "眼睑基底细胞癌又称侵蚀性溃疡、基底细胞恶性变、蚕食性溃疡(rodent ulce...", "lemmaUrl": "http://baike.baidu.com/item/%E7%9C%BC%E7%9D%91%E5%9F%BA%E5%BA%95%E7%BB%86%E8%83%9E%E7%99%8C/1766089", "lemmaPic": []}, {"lemmaId": 4737057, "lemmaTitle": "囊性肾病", "lemmaCroppedTitle": "囊性肾病", "lemmaDesc": "囊性肾病是指在肾脏出现单个或多个内含液体的良性囊肿性肾脏疾病。自B超和CT应用以...", "lemmaUrl": "http://baike.baidu.com/item/%E5%9B%8A%E6%80%A7%E8%82%BE%E7%97%85/4737057", "lemmaPic": []}, {"lemmaId": 943892, "lemmaTitle": "胃切除后吸收不良综合征", "lemmaCroppedTitle": "胃切除后吸收不良综合征", "lemmaDesc": "吸收不良综合征是指多种病变引起的一种或多种营养素，包括脂肪、碳水化合物、蛋白质、...", "lemmaUrl": "http://baike.baidu.com/item/%E8%83%83%E5%88%87%E9%99%A4%E5%90%8E%E5%90%B8%E6%94%B6%E4%B8%8D%E8%89%AF%E7%BB%BC%E5%90%88%E5%BE%81/943892", "lemmaPic": []}, {"lemmaId": 869494, "lemmaTitle": "胰腺脓肿", "lemmaCroppedTitle": "胰腺脓肿", "lemmaDesc": "胰腺脓肿由急性胰腺炎的坏死组织或并发假性囊肿继发感染所致，可发生在胰腺任何部位，...", "lemmaUrl": "http://baike.baidu.com/item/%E8%83%B0%E8%85%BA%E8%84%93%E8%82%BF/869494", "lemmaPic": []}, {"lemmaId": 7252642, "lemmaTitle": "脊柱、脊髓损伤", "lemmaCroppedTitle": "脊柱、脊髓损伤", "lemmaDesc": "脊柱、脊髓损伤常发生于工矿、交通事故，战时和自然灾害时可成批发生。伤情严重复杂，...", "lemmaUrl": "http://baike.baidu.com/item/%E8%84%8A%E6%9F%B1%E3%80%81%E8%84%8A%E9%AB%93%E6%8D%9F%E4%BC%A4/7252642", "lemmaPic": []}, {"lemmaId": 10857779, "lemmaTitle": "亚临床甲状腺功能亢进症", "lemmaCroppedTitle": "亚临床甲状腺功能亢进症", "lemmaDesc": "一、概述亚临床甲状腺功能亢进简称亚临床甲亢，是指没有临床症状，或症状不确切、不特...", "lemmaUrl": "http://baike.baidu.com/item/%E4%BA%9A%E4%B8%B4%E5%BA%8A%E7%94%B2%E7%8A%B6%E8%85%BA%E5%8A%9F%E8%83%BD%E4%BA%A2%E8%BF%9B%E7%97%87/10857779", "lemmaPic": []}, {"lemmaId": 12810947, "lemmaTitle": "小儿急性淋巴细胞性白血病", "lemmaCroppedTitle": "小儿急性淋巴细胞性白血病", "lemmaDesc": "小儿急性淋巴细胞性白血病是最常见的儿童肿瘤性疾病，是指前体B、T或成熟B淋巴细胞...", "lemmaUrl": "http://baike.baidu.com/item/%E5%B0%8F%E5%84%BF%E6%80%A5%E6%80%A7%E6%B7%8B%E5%B7%B4%E7%BB%86%E8%83%9E%E6%80%A7%E7%99%BD%E8%A1%80%E7%97%85/12810947", "lemmaPic": []}, {"lemmaId": 2075563, "lemmaTitle": "铝尘肺", "lemmaCroppedTitle": "铝尘肺", "lemmaDesc": "铝尘肺是长期吸入金属铝粉或氧化铝粉尘引起的一种尘肺。在生产环境和过程中，长期吸人...", "lemmaUrl": "http://baike.baidu.com/item/%E9%93%9D%E5%B0%98%E8%82%BA/2075563", "lemmaPic": []}, {"lemmaId": 875857, "lemmaTitle": "纵隔霍奇金淋巴瘤", "lemmaCroppedTitle": "纵隔霍奇金淋巴瘤", "lemmaDesc": "霍奇金病又名淋巴网状细胞肉瘤，是一种慢性进行性、无痛的淋巴组织肿瘤，其原发瘤多呈...", "lemmaUrl": "http://baike.baidu.com/item/%E7%BA%B5%E9%9A%94%E9%9C%8D%E5%A5%87%E9%87%91%E6%B7%8B%E5%B7%B4%E7%98%A4/875857", "lemmaPic": []}, {"lemmaId": 923078, "lemmaTitle": "溃疡病出血", "lemmaCroppedTitle": "溃疡病出血", "lemmaDesc": "溃疡病出血，出血的量与速度取决于被侵袭的血管的种类和内径、血管的舒缩状态，以及患...", "lemmaUrl": "http://baike.baidu.com/item/%E6%BA%83%E7%96%A1%E7%97%85%E5%87%BA%E8%A1%80/923078", "lemmaPic": []}, {"lemmaId": 5280533, "lemmaTitle": "表层巩膜炎", "lemmaCroppedTitle": "表层巩膜炎", "lemmaDesc": "表层巩膜炎是巩膜表层组织的炎症，多位于角膜缘至直肌附着线之间的赤道前部。有周期发...", "lemmaUrl": "http://baike.baidu.com/item/%E8%A1%A8%E5%B1%82%E5%B7%A9%E8%86%9C%E7%82%8E/5280533", "lemmaPic": []}, {"lemmaId": 10067604, "lemmaTitle": "角膜基质炎", "lemmaCroppedTitle": "角膜基质炎", "lemmaDesc": "角膜基质炎是发生在角膜基质内的一种炎症，以胎传性梅毒感染引起的最为典型，常波及双...", "lemmaUrl": "http://baike.baidu.com/item/%E8%A7%92%E8%86%9C%E5%9F%BA%E8%B4%A8%E7%82%8E/10067604", "lemmaPic": []}, {"lemmaId": 5059825, "lemmaTitle": "餐后血糖过低症", "lemmaCroppedTitle": "餐后血糖过低症", "lemmaDesc": "餐后血糖过低症又称餐后迟发型倾倒综合征。是指胃切除后胃排空过速，葡萄糖迅速被肠黏...", "lemmaUrl": "http://baike.baidu.com/item/%E9%A4%90%E5%90%8E%E8%A1%80%E7%B3%96%E8%BF%87%E4%BD%8E%E7%97%87/5059825", "lemmaPic": []}, {"lemmaId": 315658, "lemmaTitle": "耳真菌病", "lemmaCroppedTitle": "耳真菌病", "lemmaDesc": "耳真菌病是真菌侵入外耳道或外耳道内的条件致病性真菌，在适宜的条件下繁殖引起的外耳...", "lemmaUrl": "http://baike.baidu.com/item/%E8%80%B3%E7%9C%9F%E8%8F%8C%E7%97%85/315658", "lemmaPic": []}, {"lemmaId": 1304273, "lemmaTitle": "肾盂输尿管连接部梗阻", "lemmaCroppedTitle": "肾盂输尿管连接部梗阻", "lemmaDesc": "肾盂输尿管连接部梗阻（UPJO）是引起肾积水的一种常见的尿路梗阻性疾病。由于肾盂...", "lemmaUrl": "http://baike.baidu.com/item/%E8%82%BE%E7%9B%82%E8%BE%93%E5%B0%BF%E7%AE%A1%E8%BF%9E%E6%8E%A5%E9%83%A8%E6%A2%97%E9%98%BB/1304273", "lemmaPic": []}, {"lemmaId": 8670221, "lemmaTitle": "急性肺源性心脏病", "lemmaCroppedTitle": "急性肺源性心脏病", "lemmaDesc": "急性肺源性心脏病（Acute CorPulmonale，ACP）是指由于急性肺动...", "lemmaUrl": "http://baike.baidu.com/item/%E6%80%A5%E6%80%A7%E8%82%BA%E6%BA%90%E6%80%A7%E5%BF%83%E8%84%8F%E7%97%85/8670221", "lemmaPic": []}, {"lemmaId": 1695677, "lemmaTitle": "多发性肌炎和皮肌炎", "lemmaCroppedTitle": "多发性肌炎和皮肌炎", "lemmaDesc": "多发性肌炎和皮肌炎是一组多种病因引起的弥漫性骨骼肌炎症性疾病，发病与细胞和体液免...", "lemmaUrl": "http://baike.baidu.com/item/%E5%A4%9A%E5%8F%91%E6%80%A7%E8%82%8C%E7%82%8E%E5%92%8C%E7%9A%AE%E8%82%8C%E7%82%8E/1695677", "lemmaPic": []}, {"lemmaId": 1670915, "lemmaTitle": "起搏器综合征", "lemmaCroppedTitle": "起搏器综合征", "lemmaDesc": "起搏器综合征是指起搏器植入后由于血流动力学及电生理学方面的异常而引起的一组临床综...", "lemmaUrl": "http://baike.baidu.com/item/%E8%B5%B7%E6%90%8F%E5%99%A8%E7%BB%BC%E5%90%88%E5%BE%81/1670915", "lemmaPic": []}, {"lemmaId": 10461874, "lemmaTitle": "Caroli病", "lemmaCroppedTitle": "Caroli病", "lemmaDesc": "Caroli病又称先天性肝内胆管扩张症，是一种较为少见的先天性胆道疾病，1958...", "lemmaUrl": "http://baike.baidu.com/item/Caroli%E7%97%85/10461874", "lemmaPic": []}, {"lemmaId": 4951465, "lemmaTitle": "脊柱转移性肿瘤", "lemmaCroppedTitle": "脊柱转移性肿瘤", "lemmaDesc": "脊柱转移性肿瘤是脊柱最常见的肿瘤。同时，脊柱也是肿瘤最常见的骨转移部位。死于肿瘤...", "lemmaUrl": "http://baike.baidu.com/item/%E8%84%8A%E6%9F%B1%E8%BD%AC%E7%A7%BB%E6%80%A7%E8%82%BF%E7%98%A4/4951465", "lemmaPic": []}, {"lemmaId": 768445, "lemmaTitle": "寰椎骨折", "lemmaCroppedTitle": "寰椎骨折", "lemmaDesc": "寰椎骨折脱位是上颈椎损伤中较常见的一种，约占50%。临床上见到的寰椎骨折脱位神经...", "lemmaUrl": "http://baike.baidu.com/item/%E5%AF%B0%E6%A4%8E%E9%AA%A8%E6%8A%98/768445", "lemmaPic": []}, {"lemmaId": 1120871, "lemmaTitle": "闭孔疝", "lemmaCroppedTitle": "闭孔疝", "lemmaDesc": "腹腔脏器经髋骨闭孔向股三角区（由腹股沟韧带、内收长肌内缘和缝匠肌内缘组成）突出的...", "lemmaUrl": "http://baike.baidu.com/item/%E9%97%AD%E5%AD%94%E7%96%9D/1120871", "lemmaPic": []}, {"lemmaId": 1361735, "lemmaTitle": "共同性内斜视", "lemmaCroppedTitle": "共同性内斜视", "lemmaDesc": "共同性内斜视是指双眼视轴分离，眼外肌其神经支配的无器质性病变，在各个方向，不论何...", "lemmaUrl": "http://baike.baidu.com/item/%E5%85%B1%E5%90%8C%E6%80%A7%E5%86%85%E6%96%9C%E8%A7%86/1361735", "lemmaPic": []}, {"lemmaId": 4876700, "lemmaTitle": "Plummer-Vinson综合征", "lemmaCroppedTitle": "Plummer-Vinson综合征", "lemmaDesc": "Plummer-Vinson综合征即缺铁性吞咽困难。缺铁性吞咽困难是由于食管腔内...", "lemmaUrl": "http://baike.baidu.com/item/Plummer-Vinson%E7%BB%BC%E5%90%88%E5%BE%81/4876700", "lemmaPic": []}, {"lemmaId": 2066392, "lemmaTitle": "卵巢功能异常综合征", "lemmaCroppedTitle": "卵巢功能异常综合征", "lemmaDesc": "卵巢功能异常综合征是由于卵泡成熟异常和类固醇激素的分泌量减少，导致下丘脑-垂体-...", "lemmaUrl": "http://baike.baidu.com/item/%E5%8D%B5%E5%B7%A2%E5%8A%9F%E8%83%BD%E5%BC%82%E5%B8%B8%E7%BB%BC%E5%90%88%E5%BE%81/2066392", "lemmaPic": []}, {"lemmaId": 2955785, "lemmaTitle": "肠系膜肿瘤", "lemmaCroppedTitle": "肠系膜肿瘤", "lemmaDesc": "肠系膜肿瘤多为实性肿物，而恶性肿瘤约占实性肿物的60%,以恶性淋巴瘤最多见，其他...", "lemmaUrl": "http://baike.baidu.com/item/%E8%82%A0%E7%B3%BB%E8%86%9C%E8%82%BF%E7%98%A4/2955785", "lemmaPic": []}, {"lemmaId": 2529673, "lemmaTitle": "妊娠合并急性胰腺炎", "lemmaCroppedTitle": "妊娠合并急性胰腺炎", "lemmaDesc": "急性胰腺炎是由于胰腺消化酶被激活对胰腺组织自身消化所致的急性化学性炎症。它不仅是...", "lemmaUrl": "http://baike.baidu.com/item/%E5%A6%8A%E5%A8%A0%E5%90%88%E5%B9%B6%E6%80%A5%E6%80%A7%E8%83%B0%E8%85%BA%E7%82%8E/2529673", "lemmaPic": []}, {"lemmaId": 8531336, "lemmaTitle": "丘脑下部损伤", "lemmaCroppedTitle": "丘脑下部损伤", "lemmaDesc": "丘脑下部损伤系指颅脑损伤过程中，由于颅底骨折或头颅受暴力打击，直接伤及丘脑下部而...", "lemmaUrl": "http://baike.baidu.com/item/%E4%B8%98%E8%84%91%E4%B8%8B%E9%83%A8%E6%8D%9F%E4%BC%A4/8531336", "lemmaPic": []}, {"lemmaId": 1137338, "lemmaTitle": "肾上腺意外瘤", "lemmaCroppedTitle": "肾上腺意外瘤", "lemmaDesc": "肾上腺意外瘤是指在体格检查或检查非肾上腺疾病时经由腹部影像检查意外发现的肾上腺占...", "lemmaUrl": "http://baike.baidu.com/item/%E8%82%BE%E4%B8%8A%E8%85%BA%E6%84%8F%E5%A4%96%E7%98%A4/1137338", "lemmaPic": []}, {"lemmaId": 1267141, "lemmaTitle": "颅内生殖细胞瘤", "lemmaCroppedTitle": "颅内生殖细胞瘤", "lemmaDesc": "生殖细胞肿瘤（GCT）WHO病理分类将颅内GCT分为6个亚型：生殖细胞瘤、畸胎瘤...", "lemmaUrl": "http://baike.baidu.com/item/%E9%A2%85%E5%86%85%E7%94%9F%E6%AE%96%E7%BB%86%E8%83%9E%E7%98%A4/1267141", "lemmaPic": []}, {"lemmaId": 2068508, "lemmaTitle": "外阴前庭炎", "lemmaCroppedTitle": "外阴前庭炎", "lemmaDesc": "外阴前庭炎也被称为外阴前庭综合征，是一种慢性持续性临床综合征。性交时外阴疼痛，多...", "lemmaUrl": "http://baike.baidu.com/item/%E5%A4%96%E9%98%B4%E5%89%8D%E5%BA%AD%E7%82%8E/2068508", "lemmaPic": []}, {"lemmaId": 10727754, "lemmaTitle": "急性横贯性脊髓炎", "lemmaCroppedTitle": "急性横贯性脊髓炎", "lemmaDesc": "急性横贯性脊髓炎是指各种原因所致、以累及数个节段的脊髓横贯性损害为主的急性脊髓病...", "lemmaUrl": "http://baike.baidu.com/item/%E6%80%A5%E6%80%A7%E6%A8%AA%E8%B4%AF%E6%80%A7%E8%84%8A%E9%AB%93%E7%82%8E/10727754", "lemmaPic": []}, {"lemmaId": 6998366, "lemmaTitle": "疱疹样脓疱病", "lemmaCroppedTitle": "疱疹样脓疱病", "lemmaDesc": "疱疹性脓疱病是一种好发于孕妇的严重性皮肤病。基本损害是在红斑基础上出现无菌性脓疱...", "lemmaUrl": "http://baike.baidu.com/item/%E7%96%B1%E7%96%B9%E6%A0%B7%E8%84%93%E7%96%B1%E7%97%85/6998366", "lemmaPic": []}, {"lemmaId": 1138352, "lemmaTitle": "支气管扩张剂", "lemmaCroppedTitle": "支气管扩张剂", "lemmaDesc": "支气管扩张剂可松弛支气管平滑肌、扩张支气管、缓解气流受限，是控制慢阻肺症状的主要...", "lemmaUrl": "http://baike.baidu.com/item/%E6%94%AF%E6%B0%94%E7%AE%A1%E6%89%A9%E5%BC%A0%E5%89%82/1138352", "lemmaPic": []}, {"lemmaId": 3905469, "lemmaTitle": "造口旁疝", "lemmaCroppedTitle": "造口旁疝", "lemmaDesc": "在一些肠道和膀胱手术后，有时候医生需要在腹壁上做一个造口，来实现大便的临时性或者...", "lemmaUrl": "http://baike.baidu.com/item/%E9%80%A0%E5%8F%A3%E6%97%81%E7%96%9D/3905469", "lemmaPic": []}, {"lemmaId": 5243774, "lemmaTitle": "妊娠合并肺结核", "lemmaCroppedTitle": "妊娠合并肺结核", "lemmaDesc": "肺结核是由结核杆菌引起的呼吸系统慢性传染病，通常侵害生育年龄妇女。据统计，妊娠合...", "lemmaUrl": "http://baike.baidu.com/item/%E5%A6%8A%E5%A8%A0%E5%90%88%E5%B9%B6%E8%82%BA%E7%BB%93%E6%A0%B8/5243774", "lemmaPic": []}, {"lemmaId": 5053860, "lemmaTitle": "原发性甲状旁腺功能亢进症", "lemmaCroppedTitle": "原发性甲状旁腺功能亢进症", "lemmaDesc": "原发性甲状旁腺功能亢进，在临床上极易被忽略，但当出现不明原因的骨痛、病理性骨折、...", "lemmaUrl": "http://baike.baidu.com/item/%E5%8E%9F%E5%8F%91%E6%80%A7%E7%94%B2%E7%8A%B6%E6%97%81%E8%85%BA%E5%8A%9F%E8%83%BD%E4%BA%A2%E8%BF%9B%E7%97%87/5053860", "lemmaPic": []}, {"lemmaId": 895608, "lemmaTitle": "感染性肋软骨炎", "lemmaCroppedTitle": "感染性肋软骨炎", "lemmaDesc": "软骨本身是无血管组织，它的血供主要来自软骨膜，因而一旦软骨膜感染，软骨因无血液供...", "lemmaUrl": "http://baike.baidu.com/item/%E6%84%9F%E6%9F%93%E6%80%A7%E8%82%8B%E8%BD%AF%E9%AA%A8%E7%82%8E/895608", "lemmaPic": []}, {"lemmaId": 2775175, "lemmaTitle": "肾髓质囊性病", "lemmaCroppedTitle": "肾髓质囊性病", "lemmaDesc": "肾髓质囊性病又名髓质海绵肾、肾小管特发性扩张、非尿毒症性髓质囊性病等。多为双侧发...", "lemmaUrl": "http://baike.baidu.com/item/%E8%82%BE%E9%AB%93%E8%B4%A8%E5%9B%8A%E6%80%A7%E7%97%85/2775175", "lemmaPic": []}, {"lemmaId": 5087150, "lemmaTitle": "掌指关节脱位", "lemmaCroppedTitle": "掌指关节脱位", "lemmaDesc": "掌指关节是由近节指骨基底、掌骨头、掌板、侧副韧带、副侧副韧带及关节囊所组成的双轴...", "lemmaUrl": "http://baike.baidu.com/item/%E6%8E%8C%E6%8C%87%E5%85%B3%E8%8A%82%E8%84%B1%E4%BD%8D/5087150", "lemmaPic": []}, {"lemmaId": 768579, "lemmaTitle": "侧脑室肿瘤", "lemmaCroppedTitle": "侧脑室肿瘤", "lemmaDesc": "侧脑室肿瘤（lateral ventricular tumors）是指位于侧脑室...", "lemmaUrl": "http://baike.baidu.com/item/%E4%BE%A7%E8%84%91%E5%AE%A4%E8%82%BF%E7%98%A4/768579", "lemmaPic": []}, {"lemmaId": 7940720, "lemmaTitle": "营养不良性肝硬化", "lemmaCroppedTitle": "营养不良性肝硬化", "lemmaDesc": "营养不良性肝硬化是由于长期营养缺乏引起的。导致营养不良的原因，除个别患者由于摄入...", "lemmaUrl": "http://baike.baidu.com/item/%E8%90%A5%E5%85%BB%E4%B8%8D%E8%89%AF%E6%80%A7%E8%82%9D%E7%A1%AC%E5%8C%96/7940720", "lemmaPic": []}, {"lemmaId": 1495025, "lemmaTitle": "成骨细胞瘤", "lemmaCroppedTitle": "成骨细胞瘤", "lemmaDesc": "成骨细胞瘤是一种特殊类型肿瘤，在组织学上无恶性表现，但有侵袭性，甚至出现肺转移或...", "lemmaUrl": "http://baike.baidu.com/item/%E6%88%90%E9%AA%A8%E7%BB%86%E8%83%9E%E7%98%A4/1495025", "lemmaPic": []}, {"lemmaId": 7647167, "lemmaTitle": "股神经损伤", "lemmaCroppedTitle": "股神经损伤", "lemmaDesc": "股神经起自腰丛，由腰2、腰3、腰4神经前支后股组成。它由腰大肌外缘穿出，向下斜行...", "lemmaUrl": "http://baike.baidu.com/item/%E8%82%A1%E7%A5%9E%E7%BB%8F%E6%8D%9F%E4%BC%A4/7647167", "lemmaPic": []}, {"lemmaId": 5102325, "lemmaTitle": "急性单纯疱疹病毒性脑炎", "lemmaCroppedTitle": "急性单纯疱疹病毒性脑炎", "lemmaDesc": "急性单纯疱疹病毒性脑炎系疱疹病毒感染引起的脑实质炎性反应，大多数病例由Ⅰ型单纯疱...", "lemmaUrl": "http://baike.baidu.com/item/%E6%80%A5%E6%80%A7%E5%8D%95%E7%BA%AF%E7%96%B1%E7%96%B9%E7%97%85%E6%AF%92%E6%80%A7%E8%84%91%E7%82%8E/5102325", "lemmaPic": []}, {"lemmaId": 10600755, "lemmaTitle": "淀粉样变心肌病", "lemmaCroppedTitle": "淀粉样变心肌病", "lemmaDesc": "淀粉样变心肌病是一种心肌功能紊乱的疾病，在心肌组织内沉积有能被苏木紫-伊红均匀染...", "lemmaUrl": "http://baike.baidu.com/item/%E6%B7%80%E7%B2%89%E6%A0%B7%E5%8F%98%E5%BF%83%E8%82%8C%E7%97%85/10600755", "lemmaPic": []}, {"lemmaId": 743468, "lemmaTitle": "肝炎后综合征", "lemmaCroppedTitle": "肝炎后综合征", "lemmaDesc": "肝炎后综合征系由病毒性肝炎愈合后所出现的以植物神经紊乱为特点的综合病症，也称恢复...", "lemmaUrl": "http://baike.baidu.com/item/%E8%82%9D%E7%82%8E%E5%90%8E%E7%BB%BC%E5%90%88%E5%BE%81/743468", "lemmaPic": []}, {"lemmaId": 5280515, "lemmaTitle": "干燥性角结膜炎", "lemmaCroppedTitle": "干燥性角结膜炎", "lemmaDesc": "原发性泪液分泌不足临床上称之为Sjogren’s综合征。分广义和狭义两类，广义的...", "lemmaUrl": "http://baike.baidu.com/item/%E5%B9%B2%E7%87%A5%E6%80%A7%E8%A7%92%E7%BB%93%E8%86%9C%E7%82%8E/5280515", "lemmaPic": []}, {"lemmaId": 10681032, "lemmaTitle": "冠状动脉瘤", "lemmaCroppedTitle": "冠状动脉瘤", "lemmaDesc": "冠状动脉发生局部性或弥漫性扩张，超过局部原来直径的两倍以上，呈单发性或多发性的瘤...", "lemmaUrl": "http://baike.baidu.com/item/%E5%86%A0%E7%8A%B6%E5%8A%A8%E8%84%89%E7%98%A4/10681032", "lemmaPic": []}, {"lemmaId": 865650, "lemmaTitle": "原发性甲状腺恶性淋巴瘤", "lemmaCroppedTitle": "原发性甲状腺恶性淋巴瘤", "lemmaDesc": "原发性甲状腺恶性淋巴瘤（PTML）是指原发于甲状腺的淋巴瘤，为少见的甲状腺恶性肿...", "lemmaUrl": "http://baike.baidu.com/item/%E5%8E%9F%E5%8F%91%E6%80%A7%E7%94%B2%E7%8A%B6%E8%85%BA%E6%81%B6%E6%80%A7%E6%B7%8B%E5%B7%B4%E7%98%A4/865650", "lemmaPic": []}, {"lemmaId": 546695, "lemmaTitle": "婴儿猝死综合征", "lemmaCroppedTitle": "婴儿猝死综合征", "lemmaDesc": "婴儿猝死综合征（简称SIDS），系指引起婴幼儿突然死亡的症候群，本病根据患儿健康...", "lemmaUrl": "http://baike.baidu.com/item/%E5%A9%B4%E5%84%BF%E7%8C%9D%E6%AD%BB%E7%BB%BC%E5%90%88%E5%BE%81/546695", "lemmaPic": []}, {"lemmaId": 4161038, "lemmaTitle": "气疝", "lemmaCroppedTitle": "气疝", "lemmaDesc": "病名。指因气郁而发疝者。其证约有三，一见《诸病源候论》卷二十，该书所论五疝、七疝...", "lemmaUrl": "http://baike.baidu.com/item/%E6%B0%94%E7%96%9D/4161038", "lemmaPic": []}, {"lemmaId": 2331701, "lemmaTitle": "上腔静脉受压综合征", "lemmaCroppedTitle": "上腔静脉受压综合征", "lemmaDesc": "上腔静脉受压综合征（SVCS）是一种亚急性症候群，真正急性者比较少见。SVCS是...", "lemmaUrl": "http://baike.baidu.com/item/%E4%B8%8A%E8%85%94%E9%9D%99%E8%84%89%E5%8F%97%E5%8E%8B%E7%BB%BC%E5%90%88%E5%BE%81/2331701", "lemmaPic": []}, {"lemmaId": 8381208, "lemmaTitle": "脾动脉瘤", "lemmaCroppedTitle": "脾动脉瘤", "lemmaDesc": "脾动脉瘤是脾动脉扩张形成的动脉瘤。根据瘤体部位可分为3型：瘤体位于脾动脉主干、距...", "lemmaUrl": "http://baike.baidu.com/item/%E8%84%BE%E5%8A%A8%E8%84%89%E7%98%A4/8381208", "lemmaPic": []}, {"lemmaId": 6489156, "lemmaTitle": "股四头肌肌腱断裂", "lemmaCroppedTitle": "股四头肌肌腱断裂", "lemmaDesc": "伸膝装置由股四头肌、髌骨、髌腱构成。股四头肌组成即股直肌、股中肌、股外肌和股内肌...", "lemmaUrl": "http://baike.baidu.com/item/%E8%82%A1%E5%9B%9B%E5%A4%B4%E8%82%8C%E8%82%8C%E8%85%B1%E6%96%AD%E8%A3%82/6489156", "lemmaPic": []}, {"lemmaId": 10966342, "lemmaTitle": "卡氏肺囊虫病", "lemmaCroppedTitle": "卡氏肺囊虫病", "lemmaDesc": "卡氏肺囊虫病是卡氏肺囊虫感染所引起的一种原虫病。其病原特征为间质性肺炎，亦可称为...", "lemmaUrl": "http://baike.baidu.com/item/%E5%8D%A1%E6%B0%8F%E8%82%BA%E5%9B%8A%E8%99%AB%E7%97%85/10966342", "lemmaPic": []}, {"lemmaId": 7364030, "lemmaTitle": "阴道内胚窦瘤", "lemmaCroppedTitle": "阴道内胚窦瘤", "lemmaDesc": "阴道内胚窦瘤是主要发生于婴幼儿阴道，内胚窦瘤可发生在卵巢、外阴、阴道和宫颈，阴道...", "lemmaUrl": "http://baike.baidu.com/item/%E9%98%B4%E9%81%93%E5%86%85%E8%83%9A%E7%AA%A6%E7%98%A4/7364030", "lemmaPic": []}, {"lemmaId": 4445536, "lemmaTitle": "上皮样血管内皮细胞瘤", "lemmaCroppedTitle": "上皮样血管内皮细胞瘤", "lemmaDesc": "上皮样血管内皮细胞瘤又称组织细胞样血管瘤，该病为临床和组织学上介于血管肉瘤和血管...", "lemmaUrl": "http://baike.baidu.com/item/%E4%B8%8A%E7%9A%AE%E6%A0%B7%E8%A1%80%E7%AE%A1%E5%86%85%E7%9A%AE%E7%BB%86%E8%83%9E%E7%98%A4/4445536", "lemmaPic": []}, {"lemmaId": 1949848, "lemmaTitle": "盆腔脏器脱垂", "lemmaCroppedTitle": "盆腔脏器脱垂", "lemmaDesc": "盆腔脏器脱垂（POP）是一类由各种原因导致的盆底支持组织薄弱，造成盆腔器官下降移...", "lemmaUrl": "http://baike.baidu.com/item/%E7%9B%86%E8%85%94%E8%84%8F%E5%99%A8%E8%84%B1%E5%9E%82/1949848", "lemmaPic": []}, {"lemmaId": 3326273, "lemmaTitle": "妊娠合并偏头痛", "lemmaCroppedTitle": "妊娠合并偏头痛", "lemmaDesc": "妊娠合并偏头痛是一组常见的头痛类型为发作性神经-血管功能障碍。以反复发生的偏侧或...", "lemmaUrl": "http://baike.baidu.com/item/%E5%A6%8A%E5%A8%A0%E5%90%88%E5%B9%B6%E5%81%8F%E5%A4%B4%E7%97%9B/3326273", "lemmaPic": []}, {"lemmaId": 820751, "lemmaTitle": "先天性髋内翻", "lemmaCroppedTitle": "先天性髋内翻", "lemmaDesc": "小儿先天性髋内翻，又称发育性髋内翻。在幼儿时发病，股骨颈的颈干角呈进行性减小，表...", "lemmaUrl": "http://baike.baidu.com/item/%E5%85%88%E5%A4%A9%E6%80%A7%E9%AB%8B%E5%86%85%E7%BF%BB/820751", "lemmaPic": []}, {"lemmaId": 844515, "lemmaTitle": "创伤性肘关节炎", "lemmaCroppedTitle": "创伤性肘关节炎", "lemmaDesc": "创伤性肘关节炎是肘关节创伤后的继发性病变，主要表现为肘关节疼痛和活动受限，其改变...", "lemmaUrl": "http://baike.baidu.com/item/%E5%88%9B%E4%BC%A4%E6%80%A7%E8%82%98%E5%85%B3%E8%8A%82%E7%82%8E/844515", "lemmaPic": []}, {"lemmaId": 5280443, "lemmaTitle": "大泡性角膜病变", "lemmaCroppedTitle": "大泡性角膜病变", "lemmaDesc": "大泡性角膜病变是指角膜上皮或上皮下形成水疱的状态，是由角膜内皮细胞的异常或破坏引...", "lemmaUrl": "http://baike.baidu.com/item/%E5%A4%A7%E6%B3%A1%E6%80%A7%E8%A7%92%E8%86%9C%E7%97%85%E5%8F%98/5280443", "lemmaPic": []}, {"lemmaId": 1674159, "lemmaTitle": "胆囊-结肠肝曲粘连综合征", "lemmaCroppedTitle": "胆囊-结肠肝曲粘连综合征", "lemmaDesc": "本征系因胆囊底部与大肠肝曲粘连，形成锐角，肠内容物通过困难，引起大肠肝曲积气。胆...", "lemmaUrl": "http://baike.baidu.com/item/%E8%83%86%E5%9B%8A-%E7%BB%93%E8%82%A0%E8%82%9D%E6%9B%B2%E7%B2%98%E8%BF%9E%E7%BB%BC%E5%90%88%E5%BE%81/1674159", "lemmaPic": []}, {"lemmaId": 931751, "lemmaTitle": "登革出血热", "lemmaCroppedTitle": "登革出血热", "lemmaDesc": "登革出血热（DHF）是由登革病毒引起，经蚊传播的急性传染病。以发热、皮疹、出血、...", "lemmaUrl": "http://baike.baidu.com/item/%E7%99%BB%E9%9D%A9%E5%87%BA%E8%A1%80%E7%83%AD/931751", "lemmaPic": []}, {"lemmaId": 5121022, "lemmaTitle": "先天性主动脉弓畸形", "lemmaCroppedTitle": "先天性主动脉弓畸形", "lemmaDesc": "先天性主动脉弓畸形指主动脉弓及分支发育异常，引致气管及/或食管受压迫。Gross...", "lemmaUrl": "http://baike.baidu.com/item/%E5%85%88%E5%A4%A9%E6%80%A7%E4%B8%BB%E5%8A%A8%E8%84%89%E5%BC%93%E7%95%B8%E5%BD%A2/5121022", "lemmaPic": []}, {"lemmaId": 9264897, "lemmaTitle": "棘上韧带损伤", "lemmaCroppedTitle": "棘上韧带损伤", "lemmaDesc": "自枕外粗隆至腰部，在棘突后方均有棘上韧带相连。其纤维长，在颈段为较粗厚的项韧带，...", "lemmaUrl": "http://baike.baidu.com/item/%E6%A3%98%E4%B8%8A%E9%9F%A7%E5%B8%A6%E6%8D%9F%E4%BC%A4/9264897", "lemmaPic": []}, {"lemmaId": 1495194, "lemmaTitle": "软骨粘液样纤维瘤", "lemmaCroppedTitle": "软骨粘液样纤维瘤", "lemmaDesc": "软骨黏液样纤维瘤是一种少见的以分叶状生长的黏液样和软骨样分化的良性骨肿瘤，占原发...", "lemmaUrl": "http://baike.baidu.com/item/%E8%BD%AF%E9%AA%A8%E7%B2%98%E6%B6%B2%E6%A0%B7%E7%BA%A4%E7%BB%B4%E7%98%A4/1495194", "lemmaPic": []}, {"lemmaId": 9426056, "lemmaTitle": "慢性纤维性甲状腺炎", "lemmaCroppedTitle": "慢性纤维性甲状腺炎", "lemmaDesc": "慢性纤维性甲状腺炎是较为罕见的甲状腺炎症，以正常的甲状腺组织被大量、致密的纤维组...", "lemmaUrl": "http://baike.baidu.com/item/%E6%85%A2%E6%80%A7%E7%BA%A4%E7%BB%B4%E6%80%A7%E7%94%B2%E7%8A%B6%E8%85%BA%E7%82%8E/9426056", "lemmaPic": []}, {"lemmaId": 4872601, "lemmaTitle": "血管活性肠肽瘤", "lemmaCroppedTitle": "血管活性肠肽瘤", "lemmaDesc": "血管活性肠肽瘤又称Verner-Morrison综合征，绝大多数表现为内分泌肿瘤...", "lemmaUrl": "http://baike.baidu.com/item/%E8%A1%80%E7%AE%A1%E6%B4%BB%E6%80%A7%E8%82%A0%E8%82%BD%E7%98%A4/4872601", "lemmaPic": []}, {"lemmaId": 4872811, "lemmaTitle": "胰石症", "lemmaCroppedTitle": "胰石症", "lemmaDesc": "胰石症又称胰腺结石，近些年来由于慢性胰腺炎发病率增多以及各种影像检查手段的增加，...", "lemmaUrl": "http://baike.baidu.com/item/%E8%83%B0%E7%9F%B3%E7%97%87/4872811", "lemmaPic": []}, {"lemmaId": 2547056, "lemmaTitle": "老年人糖尿病肾病", "lemmaCroppedTitle": "老年人糖尿病肾病", "lemmaDesc": "糖尿病肾病（DN）为糖尿病性微血管病变所引起，早期表现为尿中排出微量白蛋白。继之...", "lemmaUrl": "http://baike.baidu.com/item/%E8%80%81%E5%B9%B4%E4%BA%BA%E7%B3%96%E5%B0%BF%E7%97%85%E8%82%BE%E7%97%85/2547056", "lemmaPic": []}, {"lemmaId": 1295525, "lemmaTitle": "肾动脉栓塞", "lemmaCroppedTitle": "肾动脉栓塞", "lemmaDesc": "肾动脉栓塞是指肾动脉或其分支被栓子堵塞，导致肾脏组织缺血、坏死。由于其比较罕见，...", "lemmaUrl": "http://baike.baidu.com/item/%E8%82%BE%E5%8A%A8%E8%84%89%E6%A0%93%E5%A1%9E/1295525", "lemmaPic": []}, {"lemmaId": 5120327, "lemmaTitle": "血管网织细胞瘤", "lemmaCroppedTitle": "血管网织细胞瘤", "lemmaDesc": "血管网织细胞瘤称之为血管母细胞瘤，为良性肿瘤，占颅内肿瘤的1.3%～2.4%。男...", "lemmaUrl": "http://baike.baidu.com/item/%E8%A1%80%E7%AE%A1%E7%BD%91%E7%BB%87%E7%BB%86%E8%83%9E%E7%98%A4/5120327", "lemmaPic": []}, {"lemmaId": 2811828, "lemmaTitle": "肾发育不全", "lemmaCroppedTitle": "肾发育不全", "lemmaDesc": "肾发育不全是指肾脏体积小于正常50%以上，但肾单位及分化正常。由于胚胎时期血液供...", "lemmaUrl": "http://baike.baidu.com/item/%E8%82%BE%E5%8F%91%E8%82%B2%E4%B8%8D%E5%85%A8/2811828", "lemmaPic": []}, {"lemmaId": 7992174, "lemmaTitle": "先天性弓形虫感染", "lemmaCroppedTitle": "先天性弓形虫感染", "lemmaDesc": "弓形虫病是由刚地弓形虫引起的人畜共患寄生虫病，广泛分布于世界各地。先天性弓形虫感...", "lemmaUrl": "http://baike.baidu.com/item/%E5%85%88%E5%A4%A9%E6%80%A7%E5%BC%93%E5%BD%A2%E8%99%AB%E6%84%9F%E6%9F%93/7992174", "lemmaPic": []}, {"lemmaId": 4544540, "lemmaTitle": "先天性肺囊肿", "lemmaCroppedTitle": "先天性肺囊肿", "lemmaDesc": "先天性肺囊肿是一种肺部先天性畸形，在小儿并不少见，也可见于新生儿。其病理分类和命...", "lemmaUrl": "http://baike.baidu.com/item/%E5%85%88%E5%A4%A9%E6%80%A7%E8%82%BA%E5%9B%8A%E8%82%BF/4544540", "lemmaPic": []}, {"lemmaId": 2261234, "lemmaTitle": "土风疮", "lemmaCroppedTitle": "土风疮", "lemmaDesc": "土风疮指因肌腠虚疏，复感风邪所致，以状如风疹而头破，乍发乍瘥为特征的皮肤病。证见...", "lemmaUrl": "http://baike.baidu.com/item/%E5%9C%9F%E9%A3%8E%E7%96%AE/2261234", "lemmaPic": []}, {"lemmaId": 768524, "lemmaTitle": "第三脑室肿瘤", "lemmaCroppedTitle": "第三脑室肿瘤", "lemmaDesc": "第三脑室肿瘤指原发于第三脑室内或由第三脑室外突入第三脑室内生长的肿瘤两部分。原发...", "lemmaUrl": "http://baike.baidu.com/item/%E7%AC%AC%E4%B8%89%E8%84%91%E5%AE%A4%E8%82%BF%E7%98%A4/768524", "lemmaPic": []}, {"lemmaId": 7110572, "lemmaTitle": "先天性风疹", "lemmaCroppedTitle": "先天性风疹", "lemmaDesc": "孕妇在妊娠早期若患风疹，风疹病毒可以通过胎盘感染胎儿，所生的新生儿可为未成熟儿，...", "lemmaUrl": "http://baike.baidu.com/item/%E5%85%88%E5%A4%A9%E6%80%A7%E9%A3%8E%E7%96%B9/7110572", "lemmaPic": []}], "total": 7246, "totalPage": 73, "page": 37, "fromLemma": 0}