{"lemmaList": [{"lemmaId": 1198398, "lemmaTitle": "骨髓穿刺", "lemmaCroppedTitle": "骨髓穿刺", "lemmaDesc": "骨髓穿刺是诊断大多数白血病必不可少的手段，但不少患者及家属仍对骨髓穿刺心存疑虑，...", "lemmaUrl": "http://baike.baidu.com/item/%E9%AA%A8%E9%AB%93%E7%A9%BF%E5%88%BA/1198398", "lemmaPic": []}, {"lemmaId": 129284, "lemmaTitle": "头皮糠疹", "lemmaCroppedTitle": "头皮糠疹", "lemmaDesc": "头皮糠疹（头皮屑）是一种由马拉色菌（真菌中的一种）引起的皮肤病。马拉色菌在头皮上...", "lemmaUrl": "http://baike.baidu.com/item/%E5%A4%B4%E7%9A%AE%E7%B3%A0%E7%96%B9/129284", "lemmaPic": []}, {"lemmaId": 5102907, "lemmaTitle": "股骨颈骨折", "lemmaCroppedTitle": "股骨颈骨折", "lemmaDesc": "股骨颈骨折常发生于老年人，随着人的寿命延长，其发病率日渐增高，尤其随着人口老龄化...", "lemmaUrl": "http://baike.baidu.com/item/%E8%82%A1%E9%AA%A8%E9%A2%88%E9%AA%A8%E6%8A%98/5102907", "lemmaPic": []}, {"lemmaId": 3895405, "lemmaTitle": "骶髂关节炎", "lemmaCroppedTitle": "骶髂关节炎", "lemmaDesc": "大多数的骶髂关节炎并不是单独的一个疾病，而是由其他疾病引起的，原发性骶髂关节炎的...", "lemmaUrl": "http://baike.baidu.com/item/%E9%AA%B6%E9%AB%82%E5%85%B3%E8%8A%82%E7%82%8E/3895405", "lemmaPic": {"width": 317, "height": 249, "url": "https://gss3.bdstatic.com/7Po3dSag_xI4khGkpoWK1HF6hhy/baike/w%3D168/sign=5a9f0a2602087bf47dec53efcad3575e/f31fbe096b63f6242c6a0c6e8744ebf81a4ca3a3.jpg"}}, {"lemmaId": 12000416, "lemmaTitle": "皮肤癣菌病", "lemmaCroppedTitle": "皮肤癣菌病", "lemmaDesc": "主要指亲角质蛋白的皮肤癣菌，主要包括毛癣菌属、小孢子菌属和表皮癣菌属，侵犯人和动...", "lemmaUrl": "http://baike.baidu.com/item/%E7%9A%AE%E8%82%A4%E7%99%A3%E8%8F%8C%E7%97%85/12000416", "lemmaPic": []}, {"lemmaId": 7909417, "lemmaTitle": "肝纤维化", "lemmaCroppedTitle": "肝纤维化", "lemmaDesc": "肝纤维化是一个病理生理过程，是指由各种致病因子所致肝内结缔组织异常增生。任何肝脏...", "lemmaUrl": "http://baike.baidu.com/item/%E8%82%9D%E7%BA%A4%E7%BB%B4%E5%8C%96/7909417", "lemmaPic": []}, {"lemmaId": 1842238, "lemmaTitle": "非小细胞肺癌", "lemmaCroppedTitle": "非小细胞肺癌", "lemmaDesc": "肺癌是世界上最常见的恶性肿瘤之一,已成为我国城市人口恶性肿瘤死亡原因的第1位。非...", "lemmaUrl": "http://baike.baidu.com/item/%E9%9D%9E%E5%B0%8F%E7%BB%86%E8%83%9E%E8%82%BA%E7%99%8C/1842238", "lemmaPic": []}, {"lemmaId": 5085044, "lemmaTitle": "纤维瘤病", "lemmaCroppedTitle": "纤维瘤病", "lemmaDesc": "根据发病年龄和部位的不同主要包括幼年性纤维瘤病、颈纤维瘤病、婴幼儿纤维瘤病、婴幼...", "lemmaUrl": "http://baike.baidu.com/item/%E7%BA%A4%E7%BB%B4%E7%98%A4%E7%97%85/5085044", "lemmaPic": []}, {"lemmaId": 2829198, "lemmaTitle": "神经纤维瘤", "lemmaCroppedTitle": "神经纤维瘤", "lemmaDesc": "神经纤维瘤病为常染色体显性遗传病，是基因缺陷使神经嵴细胞发育异常导致多系统损害。...", "lemmaUrl": "http://baike.baidu.com/item/%E7%A5%9E%E7%BB%8F%E7%BA%A4%E7%BB%B4%E7%98%A4/2829198", "lemmaPic": []}, {"lemmaId": 2916804, "lemmaTitle": "单纯疱疹病毒感染", "lemmaCroppedTitle": "单纯疱疹病毒感染", "lemmaDesc": "单纯疱疹病毒（HSV）是最早发现的人类疱疹病毒，也是人类病毒性疾病中较为常见感染...", "lemmaUrl": "http://baike.baidu.com/item/%E5%8D%95%E7%BA%AF%E7%96%B1%E7%96%B9%E7%97%85%E6%AF%92%E6%84%9F%E6%9F%93/2916804", "lemmaPic": []}, {"lemmaId": 2450029, "lemmaTitle": "肉瘤", "lemmaCroppedTitle": "肉瘤", "lemmaDesc": "来源于间叶组织（包括结缔组织和肌肉）的恶性肿瘤称为“肉瘤”，多发生于皮肤、皮下、...", "lemmaUrl": "http://baike.baidu.com/item/%E8%82%89%E7%98%A4/2450029", "lemmaPic": []}, {"lemmaId": 703788, "lemmaTitle": "慢性肾功能衰竭", "lemmaCroppedTitle": "慢性肾功能衰竭", "lemmaDesc": "慢性肾功能衰竭（CRF）又称慢性肾功能不全，是指各种原因造成的慢性进行性肾实质损...", "lemmaUrl": "http://baike.baidu.com/item/%E6%85%A2%E6%80%A7%E8%82%BE%E5%8A%9F%E8%83%BD%E8%A1%B0%E7%AB%AD/703788", "lemmaPic": []}, {"lemmaId": 2831044, "lemmaTitle": "耵聍栓塞", "lemmaCroppedTitle": "耵聍栓塞", "lemmaDesc": "耵聍，为外耳道软骨部皮肤的耵聍腺所分泌的淡黄色黏稠液体，耵聍腺是一种特殊的汗腺，...", "lemmaUrl": "http://baike.baidu.com/item/%E8%80%B5%E8%81%8D%E6%A0%93%E5%A1%9E/2831044", "lemmaPic": []}, {"lemmaId": 5825492, "lemmaTitle": "脊椎炎", "lemmaCroppedTitle": "脊椎炎", "lemmaDesc": "脊椎炎主要多发青年人，初期表现为下腰部疼痛，因脊椎炎首先侵袭骶髂关节、逐渐向上蔓...", "lemmaUrl": "http://baike.baidu.com/item/%E8%84%8A%E6%A4%8E%E7%82%8E/5825492", "lemmaPic": []}, {"lemmaId": 3370686, "lemmaTitle": "急性腰扭伤", "lemmaCroppedTitle": "急性腰扭伤", "lemmaDesc": "急性腰扭伤是腰部肌肉、筋膜、韧带等软组织因外力作用突然受到过度牵拉而引起的急性撕...", "lemmaUrl": "http://baike.baidu.com/item/%E6%80%A5%E6%80%A7%E8%85%B0%E6%89%AD%E4%BC%A4/3370686", "lemmaPic": []}, {"lemmaId": 8481871, "lemmaTitle": "贝赫切特综合征", "lemmaCroppedTitle": "贝赫切特综合征", "lemmaDesc": "贝赫切特综合征又称白塞病，是一种全身性免疫系统疾病，属于血管炎的一种。其可侵害人...", "lemmaUrl": "http://baike.baidu.com/item/%E8%B4%9D%E8%B5%AB%E5%88%87%E7%89%B9%E7%BB%BC%E5%90%88%E5%BE%81/8481871", "lemmaPic": []}, {"lemmaId": 3054881, "lemmaTitle": "性病性淋巴肉芽肿", "lemmaCroppedTitle": "性病性淋巴肉芽肿", "lemmaDesc": "性病性淋巴肉芽肿又名第四性病，是经典的性病之一，其病原体是沙眼衣原体，主要通过性...", "lemmaUrl": "http://baike.baidu.com/item/%E6%80%A7%E7%97%85%E6%80%A7%E6%B7%8B%E5%B7%B4%E8%82%89%E8%8A%BD%E8%82%BF/3054881", "lemmaPic": []}, {"lemmaId": 10890577, "lemmaTitle": "根尖周炎", "lemmaCroppedTitle": "根尖周炎", "lemmaDesc": "牙根尖周组织的急性或慢性炎症称为根尖周炎。牙髓炎发展到晚期，牙髓组织大部或全部坏...", "lemmaUrl": "http://baike.baidu.com/item/%E6%A0%B9%E5%B0%96%E5%91%A8%E7%82%8E/10890577", "lemmaPic": []}, {"lemmaId": 4693666, "lemmaTitle": "萎缩纹", "lemmaCroppedTitle": "萎缩纹", "lemmaDesc": "萎缩纹又叫膨胀纹、白线，因妊娠发生者成为妊娠纹。是皮肤出现原发性条纹状萎缩，初期...", "lemmaUrl": "http://baike.baidu.com/item/%E8%90%8E%E7%BC%A9%E7%BA%B9/4693666", "lemmaPic": []}, {"lemmaId": 2792863, "lemmaTitle": "翼状胬肉", "lemmaCroppedTitle": "翼状胬肉", "lemmaDesc": "翼状胬肉是眼科常见病和多发病，中医称“胬肉攀睛”，俗称“鱼肉”。一般认为它是受外...", "lemmaUrl": "http://baike.baidu.com/item/%E7%BF%BC%E7%8A%B6%E8%83%AC%E8%82%89/2792863", "lemmaPic": []}, {"lemmaId": 10993924, "lemmaTitle": "房室传导阻滞", "lemmaCroppedTitle": "房室传导阻滞", "lemmaDesc": "心脏电激动传导过程中，发生在心房和心室之间的电激动传导异常，可导致心律失常，使心...", "lemmaUrl": "http://baike.baidu.com/item/%E6%88%BF%E5%AE%A4%E4%BC%A0%E5%AF%BC%E9%98%BB%E6%BB%9E/10993924", "lemmaPic": []}, {"lemmaId": 7155308, "lemmaTitle": "青霉素过敏", "lemmaCroppedTitle": "青霉素过敏", "lemmaDesc": "青霉素属于β-内酰胺族抗生素，其疗效显著、应用广泛。但青霉素易导致药物不良反应，...", "lemmaUrl": "http://baike.baidu.com/item/%E9%9D%92%E9%9C%89%E7%B4%A0%E8%BF%87%E6%95%8F/7155308", "lemmaPic": []}, {"lemmaId": 10973196, "lemmaTitle": "瘢痕疙瘩", "lemmaCroppedTitle": "瘢痕疙瘩", "lemmaDesc": "瘢痕疙瘩，俗称疤痕疙瘩，是皮肤伤口愈合或不明原因所致皮肤损伤愈合后所形成的过度生...", "lemmaUrl": "http://baike.baidu.com/item/%E7%98%A2%E7%97%95%E7%96%99%E7%98%A9/10973196", "lemmaPic": []}, {"lemmaId": 940916, "lemmaTitle": "心肌病", "lemmaCroppedTitle": "心肌病", "lemmaDesc": "老年心肌病是指老年人在老化过程中，心肌不明原因地退行性的疾病，是老年人心力衰竭的...", "lemmaUrl": "http://baike.baidu.com/item/%E5%BF%83%E8%82%8C%E7%97%85/940916", "lemmaPic": []}, {"lemmaId": 2948305, "lemmaTitle": "瘰疬", "lemmaCroppedTitle": "瘰疬", "lemmaDesc": "瘰疬又称老鼠疮，生于颈部的一种感染性外科疾病。在颈部皮肉间可扪及大小不等的核块，...", "lemmaUrl": "http://baike.baidu.com/item/%E7%98%B0%E7%96%AC/2948305", "lemmaPic": []}, {"lemmaId": 3110957, "lemmaTitle": "幽门梗阻", "lemmaCroppedTitle": "幽门梗阻", "lemmaDesc": "幽门是消化道最狭窄的部位，正常直径约1.5cm，因此容易发生梗阻。由于幽门通过障...", "lemmaUrl": "http://baike.baidu.com/item/%E5%B9%BD%E9%97%A8%E6%A2%97%E9%98%BB/3110957", "lemmaPic": []}, {"lemmaId": 338838, "lemmaTitle": "耳聋", "lemmaCroppedTitle": "耳聋", "lemmaDesc": "听觉系统中传音、感音及其听觉传导通路中的听神经和各级中枢发生病变，引起听功能障碍...", "lemmaUrl": "http://baike.baidu.com/item/%E8%80%B3%E8%81%8B/338838", "lemmaPic": []}, {"lemmaId": 1533278, "lemmaTitle": "室间隔缺损", "lemmaCroppedTitle": "室间隔缺损", "lemmaDesc": "室间隔缺损指室间隔在胚胎时期发育不全，形成异常交通，在心室水平产生左向右分流。室...", "lemmaUrl": "http://baike.baidu.com/item/%E5%AE%A4%E9%97%B4%E9%9A%94%E7%BC%BA%E6%8D%9F/1533278", "lemmaPic": []}, {"lemmaId": 10336408, "lemmaTitle": "脊柱侧凸", "lemmaCroppedTitle": "脊柱侧凸", "lemmaDesc": "脊柱侧凸俗称脊柱侧弯，它是一种脊柱的三维畸形，包括冠状位、矢状位和轴位上的序列异...", "lemmaUrl": "http://baike.baidu.com/item/%E8%84%8A%E6%9F%B1%E4%BE%A7%E5%87%B8/10336408", "lemmaPic": []}, {"lemmaId": 2405033, "lemmaTitle": "脂溢性角化病", "lemmaCroppedTitle": "脂溢性角化病", "lemmaDesc": "脂溢性角化病（SK）又称为老年疣、老年斑、基底细胞乳头瘤，是一种临床最常见的良性...", "lemmaUrl": "http://baike.baidu.com/item/%E8%84%82%E6%BA%A2%E6%80%A7%E8%A7%92%E5%8C%96%E7%97%85/2405033", "lemmaPic": []}, {"lemmaId": 2232524, "lemmaTitle": "男性不育症", "lemmaCroppedTitle": "男性不育症", "lemmaDesc": "男性不育症发生率为10%左右。其中单纯女方因素约为50%，单纯男方因素约为30%...", "lemmaUrl": "http://baike.baidu.com/item/%E7%94%B7%E6%80%A7%E4%B8%8D%E8%82%B2%E7%97%87/2232524", "lemmaPic": []}, {"lemmaId": 9025628, "lemmaTitle": "日照性皮炎", "lemmaCroppedTitle": "日照性皮炎", "lemmaDesc": "日照性皮炎即日光性皮炎，又称日晒伤或晒斑，为正常皮肤经暴晒后产生的一种急性炎症反...", "lemmaUrl": "http://baike.baidu.com/item/%E6%97%A5%E7%85%A7%E6%80%A7%E7%9A%AE%E7%82%8E/9025628", "lemmaPic": []}, {"lemmaId": 5029314, "lemmaTitle": "颈椎间盘突出症", "lemmaCroppedTitle": "颈椎间盘突出症", "lemmaDesc": "颈椎间盘突出是椎间盘退变的一种病理过程，退变一开始就预示该节段稳定程度减弱。退变...", "lemmaUrl": "http://baike.baidu.com/item/%E9%A2%88%E6%A4%8E%E9%97%B4%E7%9B%98%E7%AA%81%E5%87%BA%E7%97%87/5029314", "lemmaPic": []}, {"lemmaId": 10758466, "lemmaTitle": "牙龈癌", "lemmaCroppedTitle": "牙龈癌", "lemmaDesc": "牙龈癌发病仅次于舌癌居第二位或第三位。牙龈癌在唇癌、口腔癌中的比例呈逐年下降趋势...", "lemmaUrl": "http://baike.baidu.com/item/%E7%89%99%E9%BE%88%E7%99%8C/10758466", "lemmaPic": []}, {"lemmaId": 1526538, "lemmaTitle": "泪囊炎", "lemmaCroppedTitle": "泪囊炎", "lemmaDesc": "泪囊炎一般表现为慢性和急性两种，而以慢性最常见。急性泪囊炎常是慢性泪囊炎的急性发...", "lemmaUrl": "http://baike.baidu.com/item/%E6%B3%AA%E5%9B%8A%E7%82%8E/1526538", "lemmaPic": []}, {"lemmaId": 9947450, "lemmaTitle": "瘫痪", "lemmaCroppedTitle": "瘫痪", "lemmaDesc": "瘫痪（paralysis）是随意运动功能的减低或丧失，是神经系统常见的症状，是神...", "lemmaUrl": "http://baike.baidu.com/item/%E7%98%AB%E7%97%AA/9947450", "lemmaPic": []}, {"lemmaId": 674711, "lemmaTitle": "克山病", "lemmaCroppedTitle": "克山病", "lemmaDesc": "克山病亦称地方性心肌病，于1935年在我国黑龙江省克山县发现，由此得名。据资料调...", "lemmaUrl": "http://baike.baidu.com/item/%E5%85%8B%E5%B1%B1%E7%97%85/674711", "lemmaPic": []}, {"lemmaId": 1702626, "lemmaTitle": "心理障碍", "lemmaCroppedTitle": "心理障碍", "lemmaDesc": "心理障碍是指一个人由于生理、心理或社会原因而导致的各种异常心理过程、异常人格特征...", "lemmaUrl": "http://baike.baidu.com/item/%E5%BF%83%E7%90%86%E9%9A%9C%E7%A2%8D/1702626", "lemmaPic": []}, {"lemmaId": 1768770, "lemmaTitle": "麻醉", "lemmaCroppedTitle": "麻醉", "lemmaDesc": "一般认为，麻醉是由药物或其他方法产生的一种中枢神经和（或）周围神经系统的可逆性功...", "lemmaUrl": "http://baike.baidu.com/item/%E9%BA%BB%E9%86%89/1768770", "lemmaPic": []}, {"lemmaId": 1915302, "lemmaTitle": "慢性糜烂性胃炎", "lemmaCroppedTitle": "慢性糜烂性胃炎", "lemmaDesc": "慢性糜烂性胃炎，一般仅见饭后饱胀、泛酸、嗳气、无规律性腹痛等消化不良症状。本病常...", "lemmaUrl": "http://baike.baidu.com/item/%E6%85%A2%E6%80%A7%E7%B3%9C%E7%83%82%E6%80%A7%E8%83%83%E7%82%8E/1915302", "lemmaPic": []}, {"lemmaId": 2074984, "lemmaTitle": "妊娠高血压疾病", "lemmaCroppedTitle": "妊娠高血压疾病", "lemmaDesc": "妊娠期高血压疾病是妊娠期特有的疾病，包括妊娠期高血压、子痫前期、子痫、慢性高血压...", "lemmaUrl": "http://baike.baidu.com/item/%E5%A6%8A%E5%A8%A0%E9%AB%98%E8%A1%80%E5%8E%8B%E7%96%BE%E7%97%85/2074984", "lemmaPic": []}, {"lemmaId": 6403625, "lemmaTitle": "镶牙", "lemmaCroppedTitle": "镶牙", "lemmaDesc": "几乎每个老年人都患有不同程度的口腔疾病，年轻时的“虫牙”到老年往往因龋坏严重而拔...", "lemmaUrl": "http://baike.baidu.com/item/%E9%95%B6%E7%89%99/6403625", "lemmaPic": []}, {"lemmaId": 7789736, "lemmaTitle": "心慌气短", "lemmaCroppedTitle": "心慌气短", "lemmaDesc": "心慌气短是自觉心中跳动不安的一种症状，俗称“心慌”、“心跳”，即心悸。中医又称之...", "lemmaUrl": "http://baike.baidu.com/item/%E5%BF%83%E6%85%8C%E6%B0%94%E7%9F%AD/7789736", "lemmaPic": []}, {"lemmaId": 10230314, "lemmaTitle": "肛门潮湿", "lemmaCroppedTitle": "肛门潮湿", "lemmaDesc": "肛门潮湿是指肛门周围以潮湿为主的一种症状，是临床诊疗中比较棘手的问题，容易给患者...", "lemmaUrl": "http://baike.baidu.com/item/%E8%82%9B%E9%97%A8%E6%BD%AE%E6%B9%BF/10230314", "lemmaPic": []}, {"lemmaId": 1589676, "lemmaTitle": "肝郁气滞证", "lemmaCroppedTitle": "肝郁气滞证", "lemmaDesc": "肝郁气滞证是指由于肝的疏泄功能异常，疏泄不及而致气机瘀滞所表现的情志抑郁，胸胁或...", "lemmaUrl": "http://baike.baidu.com/item/%E8%82%9D%E9%83%81%E6%B0%94%E6%BB%9E%E8%AF%81/1589676", "lemmaPic": []}, {"lemmaId": 4495085, "lemmaTitle": "脑性瘫痪", "lemmaCroppedTitle": "脑性瘫痪", "lemmaDesc": "脑性瘫痪是自受孕开始至婴儿期非进行性脑损伤和发育缺陷所导致的综合征，主要表现为运...", "lemmaUrl": "http://baike.baidu.com/item/%E8%84%91%E6%80%A7%E7%98%AB%E7%97%AA/4495085", "lemmaPic": []}, {"lemmaId": 10704239, "lemmaTitle": "左室高电压", "lemmaCroppedTitle": "左室高电压", "lemmaDesc": "左室高电压的诊断意义是很不确切的，它虽多见于左室扩张或肥大，是左室肥大或扩张诊断...", "lemmaUrl": "http://baike.baidu.com/item/%E5%B7%A6%E5%AE%A4%E9%AB%98%E7%94%B5%E5%8E%8B/10704239", "lemmaPic": []}, {"lemmaId": 2086260, "lemmaTitle": "太田痣", "lemmaCroppedTitle": "太田痣", "lemmaDesc": "太田痣又称上腭部褐青色痣、眼皮肤黑素细胞增生病，是太田于1938年首次描述的一种...", "lemmaUrl": "http://baike.baidu.com/item/%E5%A4%AA%E7%94%B0%E7%97%A3/2086260", "lemmaPic": []}, {"lemmaId": 177324, "lemmaTitle": "多发性硬化症", "lemmaCroppedTitle": "多发性硬化症", "lemmaDesc": "多发性硬化症（MS）是最常见的一种中枢神经脱髓鞘疾病。本病急性活动期中枢神经白质...", "lemmaUrl": "http://baike.baidu.com/item/%E5%A4%9A%E5%8F%91%E6%80%A7%E7%A1%AC%E5%8C%96%E7%97%87/177324", "lemmaPic": []}, {"lemmaId": 7789482, "lemmaTitle": "甲紫", "lemmaCroppedTitle": "甲紫", "lemmaDesc": "甲紫，（异名：龙胆紫、结晶紫，英文名：Methylrosanilnium Chl...", "lemmaUrl": "http://baike.baidu.com/item/%E7%94%B2%E7%B4%AB/7789482", "lemmaPic": []}, {"lemmaId": 10547358, "lemmaTitle": "妊娠斑", "lemmaCroppedTitle": "妊娠斑", "lemmaDesc": "妊娠斑，也称黄褐斑，为颜面部对称而局限性淡褐色至深褐色斑片（通常对称分布于前额、...", "lemmaUrl": "http://baike.baidu.com/item/%E5%A6%8A%E5%A8%A0%E6%96%91/10547358", "lemmaPic": []}, {"lemmaId": 9172129, "lemmaTitle": "痒疹", "lemmaCroppedTitle": "痒疹", "lemmaDesc": "痒疹是急性或慢性炎症性皮肤病的总称，包括一组皮损相似的瘙痒性疾病，好发于四肢伸侧...", "lemmaUrl": "http://baike.baidu.com/item/%E7%97%92%E7%96%B9/9172129", "lemmaPic": []}, {"lemmaId": 934398, "lemmaTitle": "臆想症", "lemmaCroppedTitle": "臆想症", "lemmaDesc": "由不同病因（生物学、心理学和社会环境因素）作用于大脑，破坏了大脑在一定范围内相对...", "lemmaUrl": "http://baike.baidu.com/item/%E8%87%86%E6%83%B3%E7%97%87/934398", "lemmaPic": []}, {"lemmaId": 6700858, "lemmaTitle": "房间隔缺损", "lemmaCroppedTitle": "房间隔缺损", "lemmaDesc": "房间隔缺损（ASD）为临床上常见的先天性心脏畸形，是原始房间隔在胚胎发育过程中出...", "lemmaUrl": "http://baike.baidu.com/item/%E6%88%BF%E9%97%B4%E9%9A%94%E7%BC%BA%E6%8D%9F/6700858", "lemmaPic": []}, {"lemmaId": 2750834, "lemmaTitle": "亚硝酸盐中毒", "lemmaCroppedTitle": "亚硝酸盐中毒", "lemmaDesc": "因误食亚硝酸盐而引起的中毒。也可因胃肠功能紊乱时，胃肠道内硝酸盐还原菌大量繁殖，...", "lemmaUrl": "http://baike.baidu.com/item/%E4%BA%9A%E7%A1%9D%E9%85%B8%E7%9B%90%E4%B8%AD%E6%AF%92/2750834", "lemmaPic": []}, {"lemmaId": 2995924, "lemmaTitle": "拇外翻", "lemmaCroppedTitle": "拇外翻", "lemmaDesc": "拇外翻畸形是指拇趾在第一跖趾关节处向外侧偏斜移位。拇外翻是一种复杂的解剖畸形，并...", "lemmaUrl": "http://baike.baidu.com/item/%E6%8B%87%E5%A4%96%E7%BF%BB/2995924", "lemmaPic": []}, {"lemmaId": 839285, "lemmaTitle": "阻生牙", "lemmaCroppedTitle": "阻生牙", "lemmaDesc": "牙在颌骨内由于位置不当，不能萌出到正常咬合位置，被称为阻生牙或阻生齿。最常见的阻...", "lemmaUrl": "http://baike.baidu.com/item/%E9%98%BB%E7%94%9F%E7%89%99/839285", "lemmaPic": []}, {"lemmaId": 8353616, "lemmaTitle": "输卵管阻塞", "lemmaCroppedTitle": "输卵管阻塞", "lemmaDesc": "输卵管阻塞多为感染引起，常见细菌感染，特殊的病原体感染，诸如结核菌、沙眼衣原体、...", "lemmaUrl": "http://baike.baidu.com/item/%E8%BE%93%E5%8D%B5%E7%AE%A1%E9%98%BB%E5%A1%9E/8353616", "lemmaPic": []}, {"lemmaId": 1133273, "lemmaTitle": "髋关节滑膜炎", "lemmaCroppedTitle": "髋关节滑膜炎", "lemmaDesc": "髋关节滑膜炎又叫暂时性滑膜炎。是造成3～10岁儿童急性髋关节疼痛的最常见原因。男...", "lemmaUrl": "http://baike.baidu.com/item/%E9%AB%8B%E5%85%B3%E8%8A%82%E6%BB%91%E8%86%9C%E7%82%8E/1133273", "lemmaPic": []}, {"lemmaId": 165028, "lemmaTitle": "乙型肝炎表面抗体", "lemmaCroppedTitle": "乙型肝炎表面抗体", "lemmaDesc": "乙型肝炎表面抗体，是机体受HBsAg刺激而产生的相应抗体，它可以与HBsAg相结...", "lemmaUrl": "http://baike.baidu.com/item/%E4%B9%99%E5%9E%8B%E8%82%9D%E7%82%8E%E8%A1%A8%E9%9D%A2%E6%8A%97%E4%BD%93/165028", "lemmaPic": []}, {"lemmaId": 5519880, "lemmaTitle": "中心静脉压", "lemmaCroppedTitle": "中心静脉压", "lemmaDesc": "中心静脉压（CVP）是上、下腔静脉进入右心房处的压力，通过上、下腔静脉或右心房内...", "lemmaUrl": "http://baike.baidu.com/item/%E4%B8%AD%E5%BF%83%E9%9D%99%E8%84%89%E5%8E%8B/5519880", "lemmaPic": []}, {"lemmaId": 2259772, "lemmaTitle": "无菌性前列腺炎", "lemmaCroppedTitle": "无菌性前列腺炎", "lemmaDesc": "慢性前列腺炎的病因、发病机制、病理生理学改变还不十分清楚。目前认为，慢性前列腺炎...", "lemmaUrl": "http://baike.baidu.com/item/%E6%97%A0%E8%8F%8C%E6%80%A7%E5%89%8D%E5%88%97%E8%85%BA%E7%82%8E/2259772", "lemmaPic": []}, {"lemmaId": 893199, "lemmaTitle": "功能失调性子宫出血病", "lemmaCroppedTitle": "功能失调性子宫出血病", "lemmaDesc": "功能失调性子宫出血病简称功能性子宫出血或功血，由神经内分泌失调引起，而不是由妊娠...", "lemmaUrl": "http://baike.baidu.com/item/%E5%8A%9F%E8%83%BD%E5%A4%B1%E8%B0%83%E6%80%A7%E5%AD%90%E5%AE%AB%E5%87%BA%E8%A1%80%E7%97%85/893199", "lemmaPic": []}, {"lemmaId": 2253259, "lemmaTitle": "扩张型心肌病", "lemmaCroppedTitle": "扩张型心肌病", "lemmaDesc": "扩张型心肌病（DCM）是一种原因未明的原发性心肌疾病。本病的特征为左或右心室或双...", "lemmaUrl": "http://baike.baidu.com/item/%E6%89%A9%E5%BC%A0%E5%9E%8B%E5%BF%83%E8%82%8C%E7%97%85/2253259", "lemmaPic": []}, {"lemmaId": 8256966, "lemmaTitle": "小儿呕吐", "lemmaCroppedTitle": "小儿呕吐", "lemmaDesc": "呕吐是小儿时期常见的临床症状，不同年龄不同种疾病均可引起呕吐。由于食管、胃或肠道...", "lemmaUrl": "http://baike.baidu.com/item/%E5%B0%8F%E5%84%BF%E5%91%95%E5%90%90/8256966", "lemmaPic": []}, {"lemmaId": 8831660, "lemmaTitle": "酸中毒", "lemmaCroppedTitle": "酸中毒", "lemmaDesc": "酸中毒是指体内血液和组织中酸性物质的堆积，其本质是血液中氢离子浓度上升、PH值下...", "lemmaUrl": "http://baike.baidu.com/item/%E9%85%B8%E4%B8%AD%E6%AF%92/8831660", "lemmaPic": []}, {"lemmaId": 7924976, "lemmaTitle": "鼓膜穿孔", "lemmaCroppedTitle": "鼓膜穿孔", "lemmaDesc": "鼓膜又称耳膜，为一椭圆形半透明状薄膜，由上皮层、纤维层和黏膜层构成，位于中耳鼓室...", "lemmaUrl": "http://baike.baidu.com/item/%E9%BC%93%E8%86%9C%E7%A9%BF%E5%AD%94/7924976", "lemmaPic": []}, {"lemmaId": 10788210, "lemmaTitle": "低分化腺癌", "lemmaCroppedTitle": "低分化腺癌", "lemmaDesc": "腺癌是一类具有腺样结构或黏液分泌功能的恶性上皮性肿瘤，主要发生于胃肠道、肝内胆管...", "lemmaUrl": "http://baike.baidu.com/item/%E4%BD%8E%E5%88%86%E5%8C%96%E8%85%BA%E7%99%8C/10788210", "lemmaPic": {"width": 155, "height": 200, "url": "https://gss3.bdstatic.com/-Po3dSag_xI4khGkpoWK1HF6hhy/baike/w%3D168/sign=cf9d760b349b033b2c88f8dc2dcf3620/adaf2edda3cc7cd996a75fd63901213fb80e9132.jpg"}}, {"lemmaId": 10852501, "lemmaTitle": "低血压病", "lemmaCroppedTitle": "低血压病", "lemmaDesc": "低血压是指体循环动脉压力低于正常的状态。由于高血压在临床上常常引起心、脑、肾等重...", "lemmaUrl": "http://baike.baidu.com/item/%E4%BD%8E%E8%A1%80%E5%8E%8B%E7%97%85/10852501", "lemmaPic": []}, {"lemmaId": 3572120, "lemmaTitle": "药疹", "lemmaCroppedTitle": "药疹", "lemmaDesc": "药疹又称药物性皮炎，是药物通过口服、外用和注射等途径进入人体而引起的皮肤黏膜炎症...", "lemmaUrl": "http://baike.baidu.com/item/%E8%8D%AF%E7%96%B9/3572120", "lemmaPic": []}, {"lemmaId": 7862369, "lemmaTitle": "继发性高血压", "lemmaCroppedTitle": "继发性高血压", "lemmaDesc": "继发性高血压是病因明确的高血压，当查出病因并有效去除或控制病因后，作为继发症状的...", "lemmaUrl": "http://baike.baidu.com/item/%E7%BB%A7%E5%8F%91%E6%80%A7%E9%AB%98%E8%A1%80%E5%8E%8B/7862369", "lemmaPic": []}, {"lemmaId": 1124757, "lemmaTitle": "流行性脑脊髓膜炎", "lemmaCroppedTitle": "流行性脑脊髓膜炎", "lemmaDesc": "流行性脑脊髓膜炎简称流脑，是由脑膜炎双球菌引起的化脓性脑膜炎。致病菌由鼻咽部侵入...", "lemmaUrl": "http://baike.baidu.com/item/%E6%B5%81%E8%A1%8C%E6%80%A7%E8%84%91%E8%84%8A%E9%AB%93%E8%86%9C%E7%82%8E/1124757", "lemmaPic": []}, {"lemmaId": 1073972, "lemmaTitle": "妊娠期高血压疾病", "lemmaCroppedTitle": "妊娠期高血压疾病", "lemmaDesc": "妊娠期高血压疾病是产科常见疾患，占全部妊娠的5%～10%，所造成的孕产妇死亡约占...", "lemmaUrl": "http://baike.baidu.com/item/%E5%A6%8A%E5%A8%A0%E6%9C%9F%E9%AB%98%E8%A1%80%E5%8E%8B%E7%96%BE%E7%97%85/1073972", "lemmaPic": []}, {"lemmaId": 2291012, "lemmaTitle": "肠结核", "lemmaCroppedTitle": "肠结核", "lemmaDesc": "肠结核是结核分枝杆菌（TMB）引起的肠道慢性特异性感染。主要由人型结核分枝杆菌引...", "lemmaUrl": "http://baike.baidu.com/item/%E8%82%A0%E7%BB%93%E6%A0%B8/2291012", "lemmaPic": []}, {"lemmaId": 6114183, "lemmaTitle": "新生儿疾病筛查", "lemmaCroppedTitle": "新生儿疾病筛查", "lemmaDesc": "新生儿疾病筛查是指通过血液检查对某些危害严重的先天性代谢病及内分泌病进行群体过筛...", "lemmaUrl": "http://baike.baidu.com/item/%E6%96%B0%E7%94%9F%E5%84%BF%E7%96%BE%E7%97%85%E7%AD%9B%E6%9F%A5/6114183", "lemmaPic": []}, {"lemmaId": 1626513, "lemmaTitle": "天疱疮", "lemmaCroppedTitle": "天疱疮", "lemmaDesc": "天疱疮是一种慢性、复发性、严重的表皮内棘刺松解性大疱性皮肤病。患者体内存在针对C...", "lemmaUrl": "http://baike.baidu.com/item/%E5%A4%A9%E7%96%B1%E7%96%AE/1626513", "lemmaPic": []}, {"lemmaId": 1211014, "lemmaTitle": "黄热病", "lemmaCroppedTitle": "黄热病", "lemmaDesc": "黄热病是由黄热病毒引起，主要通过伊蚊叮咬传播的急性传染病。临床以高热、头痛、黄疸...", "lemmaUrl": "http://baike.baidu.com/item/%E9%BB%84%E7%83%AD%E7%97%85/1211014", "lemmaPic": []}, {"lemmaId": 1370676, "lemmaTitle": "昏迷", "lemmaCroppedTitle": "昏迷", "lemmaDesc": "昏迷是完全意识丧失的一种类型，是临床上的危重症。昏迷的发生，提示患者的脑皮质功能...", "lemmaUrl": "http://baike.baidu.com/item/%E6%98%8F%E8%BF%B7/1370676", "lemmaPic": []}, {"lemmaId": 10511118, "lemmaTitle": "偏瘫", "lemmaCroppedTitle": "偏瘫", "lemmaDesc": "偏瘫（hemiplegia）又叫半身不遂，是指同一侧上下肢、面肌和舌肌下部的运动...", "lemmaUrl": "http://baike.baidu.com/item/%E5%81%8F%E7%98%AB/10511118", "lemmaPic": []}, {"lemmaId": 7710339, "lemmaTitle": "产后风", "lemmaCroppedTitle": "产后风", "lemmaDesc": "产妇在产褥期内，出现肢体或关节酸楚、疼痛、麻木，称为“产后身痛”，俗称“产后风”...", "lemmaUrl": "http://baike.baidu.com/item/%E4%BA%A7%E5%90%8E%E9%A3%8E/7710339", "lemmaPic": []}, {"lemmaId": 7103171, "lemmaTitle": "痹症", "lemmaCroppedTitle": "痹症", "lemmaDesc": "痹，即痹阻不通。痹症是指人体机表、经络因感受风、寒、湿、热等引起的以肢体关节及肌...", "lemmaUrl": "http://baike.baidu.com/item/%E7%97%B9%E7%97%87/7103171", "lemmaPic": []}, {"lemmaId": 981682, "lemmaTitle": "链球菌感染", "lemmaCroppedTitle": "链球菌感染", "lemmaDesc": "链球菌属细菌侵入人体引起的疾病。分为两类：一类是感染性疾病，如急性扁桃体炎、脓皮...", "lemmaUrl": "http://baike.baidu.com/item/%E9%93%BE%E7%90%83%E8%8F%8C%E6%84%9F%E6%9F%93/981682", "lemmaPic": []}, {"lemmaId": 2228576, "lemmaTitle": "上颌窦炎", "lemmaCroppedTitle": "上颌窦炎", "lemmaDesc": "上颌窦炎是上颌窦的炎性病变。可单发，但常见于多窦受累。分为急性上颌窦炎和慢性上颌...", "lemmaUrl": "http://baike.baidu.com/item/%E4%B8%8A%E9%A2%8C%E7%AA%A6%E7%82%8E/2228576", "lemmaPic": []}, {"lemmaId": 9589201, "lemmaTitle": "胰头癌", "lemmaCroppedTitle": "胰头癌", "lemmaDesc": "胰头癌是起源于胰腺头部的恶性程度极高的消化系统肿瘤。胰腺恶性肿瘤中我们通常所说的...", "lemmaUrl": "http://baike.baidu.com/item/%E8%83%B0%E5%A4%B4%E7%99%8C/9589201", "lemmaPic": []}, {"lemmaId": 2625129, "lemmaTitle": "脊髓小脑变性症", "lemmaCroppedTitle": "脊髓小脑变性症", "lemmaDesc": "脊髓小脑变性症是以运动失调为主要症状，病理学上是以小脑及其传入、传出途径的变性为...", "lemmaUrl": "http://baike.baidu.com/item/%E8%84%8A%E9%AB%93%E5%B0%8F%E8%84%91%E5%8F%98%E6%80%A7%E7%97%87/2625129", "lemmaPic": []}, {"lemmaId": 5525565, "lemmaTitle": "不射精症", "lemmaCroppedTitle": "不射精症", "lemmaDesc": "不射精症是指阴茎能正常勃起和性交，但是不能射出精液，或是在其他情况下可射出精液，...", "lemmaUrl": "http://baike.baidu.com/item/%E4%B8%8D%E5%B0%84%E7%B2%BE%E7%97%87/5525565", "lemmaPic": []}, {"lemmaId": 1108727, "lemmaTitle": "小儿惊厥", "lemmaCroppedTitle": "小儿惊厥", "lemmaDesc": "惊厥是小儿常见的急症，尤多见于婴幼儿。由于多种原因使脑神经功能紊乱所致。表现为突...", "lemmaUrl": "http://baike.baidu.com/item/%E5%B0%8F%E5%84%BF%E6%83%8A%E5%8E%A5/1108727", "lemmaPic": []}, {"lemmaId": 1329634, "lemmaTitle": "甲状腺腺瘤", "lemmaCroppedTitle": "甲状腺腺瘤", "lemmaDesc": "甲状腺腺瘤是起源于甲状腺滤泡细胞的良性肿瘤，是甲状腺最常见的良性肿瘤。好发于甲状...", "lemmaUrl": "http://baike.baidu.com/item/%E7%94%B2%E7%8A%B6%E8%85%BA%E8%85%BA%E7%98%A4/1329634", "lemmaPic": []}, {"lemmaId": 1992291, "lemmaTitle": "肺火", "lemmaCroppedTitle": "肺火", "lemmaDesc": "肺火是中医病机的概念，是指机体感受外邪或因七情内伤，影响了肺的正常生理功能后出现...", "lemmaUrl": "http://baike.baidu.com/item/%E8%82%BA%E7%81%AB/1992291", "lemmaPic": []}, {"lemmaId": 7760803, "lemmaTitle": "包皮嵌顿", "lemmaCroppedTitle": "包皮嵌顿", "lemmaDesc": "    包茎或包皮外口狭小的包皮过长者，如将包皮强行上翻而又不及时复位时，狭小的...", "lemmaUrl": "http://baike.baidu.com/item/%E5%8C%85%E7%9A%AE%E5%B5%8C%E9%A1%BF/7760803", "lemmaPic": {"width": 346, "height": 355, "url": "https://gss2.bdstatic.com/9fo3dSag_xI4khGkpoWK1HF6hhy/baike/w%3D168/sign=e72db0c84710b912bfc1f2f8fbfdfcb5/d833c895d143ad4bfb2fb1b382025aafa40f06bb.jpg"}}, {"lemmaId": 9493180, "lemmaTitle": "健忘症", "lemmaCroppedTitle": "健忘症", "lemmaDesc": "简单讲健忘症就是大脑的思考能力（检索能力）暂时出现了障碍。因此症状随着时间的发展...", "lemmaUrl": "http://baike.baidu.com/item/%E5%81%A5%E5%BF%98%E7%97%87/9493180", "lemmaPic": []}, {"lemmaId": 1612329, "lemmaTitle": "二期梅毒", "lemmaCroppedTitle": "二期梅毒", "lemmaDesc": "梅毒是由梅毒螺旋体感染引起的一种慢性全身性性传播疾病。主要通过性交传染。本病表现...", "lemmaUrl": "http://baike.baidu.com/item/%E4%BA%8C%E6%9C%9F%E6%A2%85%E6%AF%92/1612329", "lemmaPic": []}, {"lemmaId": 871879, "lemmaTitle": "肛门瘙痒症", "lemmaCroppedTitle": "肛门瘙痒症", "lemmaDesc": "肛门瘙痒症（Pruritus Ani）是指肛门周围皮肤无任何原发皮肤损害而仅有瘙...", "lemmaUrl": "http://baike.baidu.com/item/%E8%82%9B%E9%97%A8%E7%98%99%E7%97%92%E7%97%87/871879", "lemmaPic": []}, {"lemmaId": 5399128, "lemmaTitle": "轮状病毒性肠炎", "lemmaCroppedTitle": "轮状病毒性肠炎", "lemmaDesc": "轮状病毒（ rotavirus ）肠炎是由轮状病毒所致的急性消化道传染病。病原体...", "lemmaUrl": "http://baike.baidu.com/item/%E8%BD%AE%E7%8A%B6%E7%97%85%E6%AF%92%E6%80%A7%E8%82%A0%E7%82%8E/5399128", "lemmaPic": []}, {"lemmaId": 8599424, "lemmaTitle": "紧张性头痛", "lemmaCroppedTitle": "紧张性头痛", "lemmaDesc": "紧张性头痛又称为肌收缩性头痛，是一种最为常见的原发性头痛，约占头痛患者的70%～...", "lemmaUrl": "http://baike.baidu.com/item/%E7%B4%A7%E5%BC%A0%E6%80%A7%E5%A4%B4%E7%97%9B/8599424", "lemmaPic": []}, {"lemmaId": 2601635, "lemmaTitle": "急性喉炎", "lemmaCroppedTitle": "急性喉炎", "lemmaDesc": "急性喉炎是指喉黏膜及声带的急性非特异性炎症，病程通常在1个月以内，为呼吸道常见的...", "lemmaUrl": "http://baike.baidu.com/item/%E6%80%A5%E6%80%A7%E5%96%89%E7%82%8E/2601635", "lemmaPic": []}, {"lemmaId": 2844565, "lemmaTitle": "产后出血", "lemmaCroppedTitle": "产后出血", "lemmaDesc": "胎儿娩出后24小时内出血量超过500mL者称为产后出血，80%发生在产后2小时内...", "lemmaUrl": "http://baike.baidu.com/item/%E4%BA%A7%E5%90%8E%E5%87%BA%E8%A1%80/2844565", "lemmaPic": []}, {"lemmaId": 3517279, "lemmaTitle": "腭裂", "lemmaCroppedTitle": "腭裂", "lemmaDesc": "腭裂较为常见，可单独发生，也可并发唇裂。腭裂不仅有软组织畸形，大部分腭裂患者还可...", "lemmaUrl": "http://baike.baidu.com/item/%E8%85%AD%E8%A3%82/3517279", "lemmaPic": []}, {"lemmaId": 2424542, "lemmaTitle": "痔疮便血", "lemmaCroppedTitle": "痔疮便血", "lemmaDesc": "痔疮是人体直肠末端黏膜下和皮肤下静脉丛发生扩张过曲所形成的柔软静脉团块。很多痔疮...", "lemmaUrl": "http://baike.baidu.com/item/%E7%97%94%E7%96%AE%E4%BE%BF%E8%A1%80/2424542", "lemmaPic": []}, {"lemmaId": 5417891, "lemmaTitle": "低钠血症", "lemmaCroppedTitle": "低钠血症", "lemmaDesc": "血清钠&amp;lt;135mmol/L，称为低钠血症。血清钠仅反映钠在血浆中浓...", "lemmaUrl": "http://baike.baidu.com/item/%E4%BD%8E%E9%92%A0%E8%A1%80%E7%97%87/5417891", "lemmaPic": []}], "total": 7246, "totalPage": 73, "page": 9, "fromLemma": 0}