{"lemmaList": [{"lemmaId": 9005358, "lemmaTitle": "糖尿病性神经病", "lemmaCroppedTitle": "糖尿病性神经病", "lemmaDesc": "糖尿病性神经病是糖尿病的代谢障碍及血管病变所致的周围及中枢神经系统损害。病变主要...", "lemmaUrl": "http://baike.baidu.com/item/%E7%B3%96%E5%B0%BF%E7%97%85%E6%80%A7%E7%A5%9E%E7%BB%8F%E7%97%85/9005358", "lemmaPic": []}, {"lemmaId": 2638033, "lemmaTitle": "眼眶脑膜瘤", "lemmaCroppedTitle": "眼眶脑膜瘤", "lemmaDesc": "该瘤可原发于眼眶，也可与颅内脑膜瘤互相蔓延。前者多来自视神经外的蛛网膜及眶内异位...", "lemmaUrl": "http://baike.baidu.com/item/%E7%9C%BC%E7%9C%B6%E8%84%91%E8%86%9C%E7%98%A4/2638033", "lemmaPic": []}, {"lemmaId": 5374554, "lemmaTitle": "流行性角膜结膜炎", "lemmaCroppedTitle": "流行性角膜结膜炎", "lemmaDesc": "流行性角膜结膜炎（EKC）是由病毒感染所致的传染性眼病。其临床特点是发病急骤，结...", "lemmaUrl": "http://baike.baidu.com/item/%E6%B5%81%E8%A1%8C%E6%80%A7%E8%A7%92%E8%86%9C%E7%BB%93%E8%86%9C%E7%82%8E/5374554", "lemmaPic": []}, {"lemmaId": 9937368, "lemmaTitle": "原发性中枢神经系统淋巴瘤", "lemmaCroppedTitle": "原发性中枢神经系统淋巴瘤", "lemmaDesc": "原发性中枢神经系统淋巴瘤（PCNSL）是一种少见的高度恶性非霍奇金淋巴瘤，其在人...", "lemmaUrl": "http://baike.baidu.com/item/%E5%8E%9F%E5%8F%91%E6%80%A7%E4%B8%AD%E6%9E%A2%E7%A5%9E%E7%BB%8F%E7%B3%BB%E7%BB%9F%E6%B7%8B%E5%B7%B4%E7%98%A4/9937368", "lemmaPic": []}, {"lemmaId": 2354437, "lemmaTitle": "创伤性骨化性肌炎", "lemmaCroppedTitle": "创伤性骨化性肌炎", "lemmaDesc": "是一种以纤维性、软骨或骨性化生为特征的局部反应性病变。常发于靠近骨或骨膜的软组织...", "lemmaUrl": "http://baike.baidu.com/item/%E5%88%9B%E4%BC%A4%E6%80%A7%E9%AA%A8%E5%8C%96%E6%80%A7%E8%82%8C%E7%82%8E/2354437", "lemmaPic": []}, {"lemmaId": 729268, "lemmaTitle": "网膜炎", "lemmaCroppedTitle": "网膜炎", "lemmaDesc": "网膜炎是一类常见的腹膜感染性疾病，多急性发病，可由细菌感染化学性刺激或损伤所致。...", "lemmaUrl": "http://baike.baidu.com/item/%E7%BD%91%E8%86%9C%E7%82%8E/729268", "lemmaPic": []}, {"lemmaId": 12810937, "lemmaTitle": "细菌感染性腹泻", "lemmaCroppedTitle": "细菌感染性腹泻", "lemmaDesc": "细菌感染性腹泻在广义上是指由各种细菌引起，以腹泻为主要表现的一组常见肠道传染病。...", "lemmaUrl": "http://baike.baidu.com/item/%E7%BB%86%E8%8F%8C%E6%84%9F%E6%9F%93%E6%80%A7%E8%85%B9%E6%B3%BB/12810937", "lemmaPic": []}, {"lemmaId": 10456175, "lemmaTitle": "慢性舌扁桃体炎", "lemmaCroppedTitle": "慢性舌扁桃体炎", "lemmaDesc": "慢性舌扁桃体炎或称舌扁桃体肥大，多由急性舌扁桃体炎反复发作转为慢性。多与上呼吸道...", "lemmaUrl": "http://baike.baidu.com/item/%E6%85%A2%E6%80%A7%E8%88%8C%E6%89%81%E6%A1%83%E4%BD%93%E7%82%8E/10456175", "lemmaPic": []}, {"lemmaId": 1484178, "lemmaTitle": "结肠破裂", "lemmaCroppedTitle": "结肠破裂", "lemmaDesc": "外力的作用致结肠穿孔称为结肠破裂。临床上主要表现为腹痛、腹胀及细菌性腹膜炎。发病...", "lemmaUrl": "http://baike.baidu.com/item/%E7%BB%93%E8%82%A0%E7%A0%B4%E8%A3%82/1484178", "lemmaPic": []}, {"lemmaId": 5431213, "lemmaTitle": "眼肌麻痹性偏头痛", "lemmaCroppedTitle": "眼肌麻痹性偏头痛", "lemmaDesc": "眼肌麻痹性偏头痛是一种以反复发作以眼外肌麻痹和偏头痛为主要特征的综合征。眼肌麻痹...", "lemmaUrl": "http://baike.baidu.com/item/%E7%9C%BC%E8%82%8C%E9%BA%BB%E7%97%B9%E6%80%A7%E5%81%8F%E5%A4%B4%E7%97%9B/5431213", "lemmaPic": []}, {"lemmaId": 7553793, "lemmaTitle": "毒性结节性甲状腺肿", "lemmaCroppedTitle": "毒性结节性甲状腺肿", "lemmaDesc": "毒性结节性甲状腺肿是Plummer于1913年报道的一种不同于Graves病的甲...", "lemmaUrl": "http://baike.baidu.com/item/%E6%AF%92%E6%80%A7%E7%BB%93%E8%8A%82%E6%80%A7%E7%94%B2%E7%8A%B6%E8%85%BA%E8%82%BF/7553793", "lemmaPic": []}, {"lemmaId": 7907251, "lemmaTitle": "肺炎杆菌肺炎", "lemmaCroppedTitle": "肺炎杆菌肺炎", "lemmaDesc": "肺炎杆菌肺炎（克雷白杆菌肺炎）,克雷白杆菌肺炎是由肺炎克雷白杆菌引起的急性肺部炎...", "lemmaUrl": "http://baike.baidu.com/item/%E8%82%BA%E7%82%8E%E6%9D%86%E8%8F%8C%E8%82%BA%E7%82%8E/7907251", "lemmaPic": []}, {"lemmaId": 5084979, "lemmaTitle": "先天性动静脉瘘", "lemmaCroppedTitle": "先天性动静脉瘘", "lemmaDesc": "先天性动静脉瘘又称先天性动静脉畸形，是由胚胎原基在演变过程中，动静脉间形成异常交...", "lemmaUrl": "http://baike.baidu.com/item/%E5%85%88%E5%A4%A9%E6%80%A7%E5%8A%A8%E9%9D%99%E8%84%89%E7%98%98/5084979", "lemmaPic": []}, {"lemmaId": 9341025, "lemmaTitle": "HIV相关呼吸道感染", "lemmaCroppedTitle": "HIV相关呼吸道感染", "lemmaDesc": "人类免疫缺陷病毒（HIV）又称艾滋病毒。HIV主要侵犯破坏CD4+T细胞，导致机...", "lemmaUrl": "http://baike.baidu.com/item/HIV%E7%9B%B8%E5%85%B3%E5%91%BC%E5%90%B8%E9%81%93%E6%84%9F%E6%9F%93/9341025", "lemmaPic": []}, {"lemmaId": 2288573, "lemmaTitle": "食管源性胸痛", "lemmaCroppedTitle": "食管源性胸痛", "lemmaDesc": "食管源性胸痛是指由食管疾病或食管功能障碍引起的胸痛。其典型症状为烧心伴有胸骨后或...", "lemmaUrl": "http://baike.baidu.com/item/%E9%A3%9F%E7%AE%A1%E6%BA%90%E6%80%A7%E8%83%B8%E7%97%9B/2288573", "lemmaPic": []}, {"lemmaId": 10140396, "lemmaTitle": "家族性渗出性玻璃体视网膜病变", "lemmaCroppedTitle": "家族性渗出性玻璃体视网膜病变", "lemmaDesc": "家族性渗出性玻璃体视网膜病变（familial exudative vitreo...", "lemmaUrl": "http://baike.baidu.com/item/%E5%AE%B6%E6%97%8F%E6%80%A7%E6%B8%97%E5%87%BA%E6%80%A7%E7%8E%BB%E7%92%83%E4%BD%93%E8%A7%86%E7%BD%91%E8%86%9C%E7%97%85%E5%8F%98/10140396", "lemmaPic": []}, {"lemmaId": 2830206, "lemmaTitle": "中耳气压伤", "lemmaCroppedTitle": "中耳气压伤", "lemmaDesc": "飞行中由于高度的变化或潜水时深度的变化，大气压力也随之产生变化，咽鼓管功能不良，...", "lemmaUrl": "http://baike.baidu.com/item/%E4%B8%AD%E8%80%B3%E6%B0%94%E5%8E%8B%E4%BC%A4/2830206", "lemmaPic": []}, {"lemmaId": 359552, "lemmaTitle": "汉坦病毒肺综合征", "lemmaCroppedTitle": "汉坦病毒肺综合征", "lemmaDesc": "汉坦病毒肺综合征（HPS）是由辛诺柏病毒（SNV）及其相关的汉坦病毒感染引起的。...", "lemmaUrl": "http://baike.baidu.com/item/%E6%B1%89%E5%9D%A6%E7%97%85%E6%AF%92%E8%82%BA%E7%BB%BC%E5%90%88%E5%BE%81/359552", "lemmaPic": []}, {"lemmaId": 12630006, "lemmaTitle": "小儿先天性胆总管囊肿", "lemmaCroppedTitle": "小儿先天性胆总管囊肿", "lemmaDesc": "先天性胆总管囊肿又称胆总管扩张症，是以胆总管囊肿或梭状扩张，伴有或不伴有肝内胆管...", "lemmaUrl": "http://baike.baidu.com/item/%E5%B0%8F%E5%84%BF%E5%85%88%E5%A4%A9%E6%80%A7%E8%83%86%E6%80%BB%E7%AE%A1%E5%9B%8A%E8%82%BF/12630006", "lemmaPic": []}, {"lemmaId": 8252864, "lemmaTitle": "胶样粟丘疹", "lemmaCroppedTitle": "胶样粟丘疹", "lemmaDesc": "胶样粟丘疹又称胶样假性粟丘疹或皮肤胶样变性。表现为淡黄色或棕黄色的多发、质韧、孤...", "lemmaUrl": "http://baike.baidu.com/item/%E8%83%B6%E6%A0%B7%E7%B2%9F%E4%B8%98%E7%96%B9/8252864", "lemmaPic": []}, {"lemmaId": 8382656, "lemmaTitle": "阑尾腺癌", "lemmaCroppedTitle": "阑尾腺癌", "lemmaDesc": "Berger在1882年首次报道了阑尾腺癌这一罕见阑尾疾病。阑尾腺癌发病率低，多...", "lemmaUrl": "http://baike.baidu.com/item/%E9%98%91%E5%B0%BE%E8%85%BA%E7%99%8C/8382656", "lemmaPic": []}, {"lemmaId": 3195368, "lemmaTitle": "胰腺外伤", "lemmaCroppedTitle": "胰腺外伤", "lemmaDesc": "胰腺损伤常合并有其他脏器损伤，临床症状常被掩盖，易造成漏诊。胰腺损伤大体可分为开...", "lemmaUrl": "http://baike.baidu.com/item/%E8%83%B0%E8%85%BA%E5%A4%96%E4%BC%A4/3195368", "lemmaPic": []}, {"lemmaId": 2252175, "lemmaTitle": "肺放线菌病", "lemmaCroppedTitle": "肺放线菌病", "lemmaDesc": "肺放线菌病系由厌氧的以色列放线菌感染肺部引起的慢性化脓性肉芽肿性疾病。这菌为正常...", "lemmaUrl": "http://baike.baidu.com/item/%E8%82%BA%E6%94%BE%E7%BA%BF%E8%8F%8C%E7%97%85/2252175", "lemmaPic": []}, {"lemmaId": 1838621, "lemmaTitle": "耳", "lemmaCroppedTitle": "耳", "lemmaDesc": "发生于中耳部的急性或慢性化脓性耳病。因有耳窍流脓，所以又叫耳脓。相当于西医的化脓...", "lemmaUrl": "http://baike.baidu.com/item/%E8%81%A4%E8%80%B3/1838621", "lemmaPic": []}, {"lemmaId": 6784348, "lemmaTitle": "食物不耐受症", "lemmaCroppedTitle": "食物不耐受症", "lemmaDesc": "食物不耐受是一种对特定食物或食物成分所产生的具有可重复性的由IgG介导的免疫反应...", "lemmaUrl": "http://baike.baidu.com/item/%E9%A3%9F%E7%89%A9%E4%B8%8D%E8%80%90%E5%8F%97%E7%97%87/6784348", "lemmaPic": []}, {"lemmaId": 10017197, "lemmaTitle": "骨纤维肉瘤", "lemmaCroppedTitle": "骨纤维肉瘤", "lemmaDesc": "骨纤维肉瘤是起源于非成骨性纤维结缔组织的一种少见恶性骨肉瘤，也是纤维源性恶性肿瘤...", "lemmaUrl": "http://baike.baidu.com/item/%E9%AA%A8%E7%BA%A4%E7%BB%B4%E8%82%89%E7%98%A4/10017197", "lemmaPic": []}, {"lemmaId": 6519538, "lemmaTitle": "结肠瘘", "lemmaCroppedTitle": "结肠瘘", "lemmaDesc": "结肠瘘是一种常见的外科病理状态，因各种原因所形成胃肠道之间的异常通道，肠管与其他...", "lemmaUrl": "http://baike.baidu.com/item/%E7%BB%93%E8%82%A0%E7%98%98/6519538", "lemmaPic": []}, {"lemmaId": 7133838, "lemmaTitle": "维生素B6依赖综合征", "lemmaCroppedTitle": "维生素B6依赖综合征", "lemmaDesc": "维生素B6依赖综合征是一种先天代谢酶-犬尿氨酶的结构及功能缺陷，其活性仅为正常的...", "lemmaUrl": "http://baike.baidu.com/item/%E7%BB%B4%E7%94%9F%E7%B4%A0B6%E4%BE%9D%E8%B5%96%E7%BB%BC%E5%90%88%E5%BE%81/7133838", "lemmaPic": []}, {"lemmaId": 2698636, "lemmaTitle": "反流性肾病", "lemmaCroppedTitle": "反流性肾病", "lemmaDesc": "反流性肾病是间质性肾病的一种，以肾表面的不规则粗大瘢痕、受累肾盏杵状肥大和扩张变...", "lemmaUrl": "http://baike.baidu.com/item/%E5%8F%8D%E6%B5%81%E6%80%A7%E8%82%BE%E7%97%85/2698636", "lemmaPic": []}, {"lemmaId": 6949513, "lemmaTitle": "肩胛上神经卡压症", "lemmaCroppedTitle": "肩胛上神经卡压症", "lemmaDesc": "肩胛上神经卡压症是肩部疼痛最常见的原因之一。国外有学者认为本病占所有肩痛患者的1...", "lemmaUrl": "http://baike.baidu.com/item/%E8%82%A9%E8%83%9B%E4%B8%8A%E7%A5%9E%E7%BB%8F%E5%8D%A1%E5%8E%8B%E7%97%87/6949513", "lemmaPic": []}, {"lemmaId": 471088, "lemmaTitle": "海绵窦血栓", "lemmaCroppedTitle": "海绵窦血栓", "lemmaDesc": "海绵窦血栓（cavernous sinus thrombosis）是海绵窦内血栓...", "lemmaUrl": "http://baike.baidu.com/item/%E6%B5%B7%E7%BB%B5%E7%AA%A6%E8%A1%80%E6%A0%93/471088", "lemmaPic": []}, {"lemmaId": 10361800, "lemmaTitle": "髋关节前脱位", "lemmaCroppedTitle": "髋关节前脱位", "lemmaDesc": "髋关节前脱位多因髋关节极度外展外旋时，大转子顶于髋臼缘形成的杠杆作用，使股骨头自...", "lemmaUrl": "http://baike.baidu.com/item/%E9%AB%8B%E5%85%B3%E8%8A%82%E5%89%8D%E8%84%B1%E4%BD%8D/10361800", "lemmaPic": []}, {"lemmaId": 11032349, "lemmaTitle": "散发性甲状腺肿", "lemmaCroppedTitle": "散发性甲状腺肿", "lemmaDesc": "散发性甲状腺肿是单纯性甲状腺肿的一个类型，是以缺碘、致甲状腺肿物质或相关酶缺陷等...", "lemmaUrl": "http://baike.baidu.com/item/%E6%95%A3%E5%8F%91%E6%80%A7%E7%94%B2%E7%8A%B6%E8%85%BA%E8%82%BF/11032349", "lemmaPic": []}, {"lemmaId": 1514515, "lemmaTitle": "胆汁性腹膜炎", "lemmaCroppedTitle": "胆汁性腹膜炎", "lemmaDesc": "胆汁性腹膜炎是由各种病因导致胆汁直接流入或外渗入腹膜腔内引起急性或慢性继发性腹膜...", "lemmaUrl": "http://baike.baidu.com/item/%E8%83%86%E6%B1%81%E6%80%A7%E8%85%B9%E8%86%9C%E7%82%8E/1514515", "lemmaPic": []}, {"lemmaId": 8408370, "lemmaTitle": "龙线虫病", "lemmaCroppedTitle": "龙线虫病", "lemmaDesc": "龙线虫病又称几内亚虫感染，是由麦地那龙线虫成虫寄生于人体所引起的一种寄生虫病，成...", "lemmaUrl": "http://baike.baidu.com/item/%E9%BE%99%E7%BA%BF%E8%99%AB%E7%97%85/8408370", "lemmaPic": []}, {"lemmaId": 5087728, "lemmaTitle": "腓骨近端骨折", "lemmaCroppedTitle": "腓骨近端骨折", "lemmaDesc": "大多数骨折常与胫骨上端或胫骨干骨折合并发生。但直接外力，可使腓骨头或颈骨折。骨折...", "lemmaUrl": "http://baike.baidu.com/item/%E8%85%93%E9%AA%A8%E8%BF%91%E7%AB%AF%E9%AA%A8%E6%8A%98/5087728", "lemmaPic": []}, {"lemmaId": 2234766, "lemmaTitle": "涎腺囊肿", "lemmaCroppedTitle": "涎腺囊肿", "lemmaDesc": "涎腺囊肿多见于腮腺，是由于胚胎发育时期遗留于深部组织内的上皮成分发展而成。涎腺囊...", "lemmaUrl": "http://baike.baidu.com/item/%E6%B6%8E%E8%85%BA%E5%9B%8A%E8%82%BF/2234766", "lemmaPic": []}, {"lemmaId": 7253101, "lemmaTitle": "老年人脑出血", "lemmaCroppedTitle": "老年人脑出血", "lemmaDesc": "脑出血是指脑动脉、静脉或毛细血管破裂导致脑实质内的出血。脑出血分为外伤性和非外伤...", "lemmaUrl": "http://baike.baidu.com/item/%E8%80%81%E5%B9%B4%E4%BA%BA%E8%84%91%E5%87%BA%E8%A1%80/7253101", "lemmaPic": []}, {"lemmaId": 2601956, "lemmaTitle": "咽角化症", "lemmaCroppedTitle": "咽角化症", "lemmaDesc": "咽角化症为咽部淋巴组织异常角化，多发生于腭扁桃体及舌扁桃体，咽部其他部位的角化病...", "lemmaUrl": "http://baike.baidu.com/item/%E5%92%BD%E8%A7%92%E5%8C%96%E7%97%87/2601956", "lemmaPic": []}, {"lemmaId": 8410262, "lemmaTitle": "大肠埃希杆菌肺炎", "lemmaCroppedTitle": "大肠埃希杆菌肺炎", "lemmaDesc": "大肠埃希杆菌（又称大肠杆菌）肺炎近年来明显增加，是引起社区获得性革兰阴性杆菌肺炎...", "lemmaUrl": "http://baike.baidu.com/item/%E5%A4%A7%E8%82%A0%E5%9F%83%E5%B8%8C%E6%9D%86%E8%8F%8C%E8%82%BA%E7%82%8E/8410262", "lemmaPic": []}, {"lemmaId": 7827743, "lemmaTitle": "耳部恶性肿瘤", "lemmaCroppedTitle": "耳部恶性肿瘤", "lemmaDesc": "早期表现为屑状斑丘疹，有痒感，搔抓易引起出血，逐步发展为硬结，之后表面糜烂、溃烂...", "lemmaUrl": "http://baike.baidu.com/item/%E8%80%B3%E9%83%A8%E6%81%B6%E6%80%A7%E8%82%BF%E7%98%A4/7827743", "lemmaPic": []}, {"lemmaId": 2001739, "lemmaTitle": "血管损伤", "lemmaCroppedTitle": "血管损伤", "lemmaDesc": "血管损伤不仅战时常见，由于工农业和交通事业迅速发展，以及医源性血管插管、造影等检...", "lemmaUrl": "http://baike.baidu.com/item/%E8%A1%80%E7%AE%A1%E6%8D%9F%E4%BC%A4/2001739", "lemmaPic": []}, {"lemmaId": 1162368, "lemmaTitle": "皮肤白血病", "lemmaCroppedTitle": "皮肤白血病", "lemmaDesc": "皮肤白血病是白细胞的皮肤表现，其特点为不成熟的白细胞弥漫浸润骨髓、肝脏、脾脏和淋...", "lemmaUrl": "http://baike.baidu.com/item/%E7%9A%AE%E8%82%A4%E7%99%BD%E8%A1%80%E7%97%85/1162368", "lemmaPic": []}, {"lemmaId": 5358613, "lemmaTitle": "小儿过敏性紫瘢", "lemmaCroppedTitle": "小儿过敏性紫瘢", "lemmaDesc": "过敏性紫癜属过敏性血管炎范围，于19世纪30年代和70年代由许兰氏和亨变压诺氏先...", "lemmaUrl": "http://baike.baidu.com/item/%E5%B0%8F%E5%84%BF%E8%BF%87%E6%95%8F%E6%80%A7%E7%B4%AB%E7%98%A2/5358613", "lemmaPic": []}, {"lemmaId": 7253289, "lemmaTitle": "胃、十二指肠溃疡穿孔", "lemmaCroppedTitle": "胃、十二指肠溃疡穿孔", "lemmaDesc": "胃、十二指肠溃疡向深部发展，可穿通胃或十二指肠壁，引起穿孔。为常见并发症，占位胃...", "lemmaUrl": "http://baike.baidu.com/item/%E8%83%83%E3%80%81%E5%8D%81%E4%BA%8C%E6%8C%87%E8%82%A0%E6%BA%83%E7%96%A1%E7%A9%BF%E5%AD%94/7253289", "lemmaPic": []}, {"lemmaId": 12810925, "lemmaTitle": "气管、支气管狭窄", "lemmaCroppedTitle": "气管、支气管狭窄", "lemmaDesc": "气管、支气管狭窄是气道梗阻引致气急和呼吸困难，体力活动和呼吸道内分泌物增多时加重...", "lemmaUrl": "http://baike.baidu.com/item/%E6%B0%94%E7%AE%A1%E3%80%81%E6%94%AF%E6%B0%94%E7%AE%A1%E7%8B%AD%E7%AA%84/12810925", "lemmaPic": []}, {"lemmaId": 5280388, "lemmaTitle": "蚕蚀性角膜溃疡", "lemmaCroppedTitle": "蚕蚀性角膜溃疡", "lemmaDesc": "蚕蚀性角膜溃疡是指一种病因不清，病情顽固，迄今仍被视为严重的致盲性眼病。也称Mo...", "lemmaUrl": "http://baike.baidu.com/item/%E8%9A%95%E8%9A%80%E6%80%A7%E8%A7%92%E8%86%9C%E6%BA%83%E7%96%A1/5280388", "lemmaPic": []}, {"lemmaId": 4008762, "lemmaTitle": "泌尿生殖系滴虫病", "lemmaCroppedTitle": "泌尿生殖系滴虫病", "lemmaDesc": "泌尿生殖系滴虫病是由人阴道毛滴虫引起的泌尿生殖系统的原虫感染，也是一种常见的女性...", "lemmaUrl": "http://baike.baidu.com/item/%E6%B3%8C%E5%B0%BF%E7%94%9F%E6%AE%96%E7%B3%BB%E6%BB%B4%E8%99%AB%E7%97%85/4008762", "lemmaPic": []}, {"lemmaId": 6425389, "lemmaTitle": "额颞叶痴呆", "lemmaCroppedTitle": "额颞叶痴呆", "lemmaDesc": "是指中老年患者缓慢出现人格改变、言语障碍及行为异常的痴呆综合征。神经影像学显示额...", "lemmaUrl": "http://baike.baidu.com/item/%E9%A2%9D%E9%A2%9E%E5%8F%B6%E7%97%B4%E5%91%86/6425389", "lemmaPic": []}, {"lemmaId": 4251446, "lemmaTitle": "低钾血症肾病", "lemmaCroppedTitle": "低钾血症肾病", "lemmaDesc": "低钾血症肾病是由慢性低钾血症所致的失钾性肾病。各种原因引起的尿钾排出增多是导致低...", "lemmaUrl": "http://baike.baidu.com/item/%E4%BD%8E%E9%92%BE%E8%A1%80%E7%97%87%E8%82%BE%E7%97%85/4251446", "lemmaPic": []}, {"lemmaId": 10690853, "lemmaTitle": "加速性房性逸搏心律", "lemmaCroppedTitle": "加速性房性逸搏心律", "lemmaDesc": "加速性房性逸搏心律引常见于累及心房的器质性心脏病，例如风湿性心脏病、慢性肺源性心...", "lemmaUrl": "http://baike.baidu.com/item/%E5%8A%A0%E9%80%9F%E6%80%A7%E6%88%BF%E6%80%A7%E9%80%B8%E6%90%8F%E5%BF%83%E5%BE%8B/10690853", "lemmaPic": []}, {"lemmaId": 906074, "lemmaTitle": "多睾症", "lemmaCroppedTitle": "多睾症", "lemmaDesc": "多睾症十分罕见，系指阴囊内除有两个正常睾丸外，还有一个或一个以上额外睾丸在一侧阴...", "lemmaUrl": "http://baike.baidu.com/item/%E5%A4%9A%E7%9D%BE%E7%97%87/906074", "lemmaPic": []}, {"lemmaId": 5957139, "lemmaTitle": "胸内甲状腺肿", "lemmaCroppedTitle": "胸内甲状腺肿", "lemmaDesc": "胸内甲状腺肿是指胸骨后或纵隔单纯甲状腺肿大或甲状腺肿瘤。因其位于胸骨后或纵隔内不...", "lemmaUrl": "http://baike.baidu.com/item/%E8%83%B8%E5%86%85%E7%94%B2%E7%8A%B6%E8%85%BA%E8%82%BF/5957139", "lemmaPic": []}, {"lemmaId": 7445100, "lemmaTitle": "皮痹", "lemmaCroppedTitle": "皮痹", "lemmaDesc": "皮痹，名中医病证。以局部或全身皮肤进行性肿硬、萎缩，严重者可累及脏腑为主要表现的...", "lemmaUrl": "http://baike.baidu.com/item/%E7%9A%AE%E7%97%B9/7445100", "lemmaPic": []}, {"lemmaId": 5120379, "lemmaTitle": "单心房", "lemmaCroppedTitle": "单心房", "lemmaDesc": "单心房是一种罕见的先天性心脏病，系胚胎发育期房间隔的第1隔和第2隔均未发育所致。...", "lemmaUrl": "http://baike.baidu.com/item/%E5%8D%95%E5%BF%83%E6%88%BF/5120379", "lemmaPic": []}, {"lemmaId": 7265108, "lemmaTitle": "直肠子宫内膜异位症", "lemmaCroppedTitle": "直肠子宫内膜异位症", "lemmaDesc": "子宫内膜异位症是指具有生长活力的子宫内膜组织在子宫腔以外部位的异常生长，侵犯直肠...", "lemmaUrl": "http://baike.baidu.com/item/%E7%9B%B4%E8%82%A0%E5%AD%90%E5%AE%AB%E5%86%85%E8%86%9C%E5%BC%82%E4%BD%8D%E7%97%87/7265108", "lemmaPic": []}, {"lemmaId": 10647579, "lemmaTitle": "弓形体脑病", "lemmaCroppedTitle": "弓形体脑病", "lemmaDesc": "弓形体脑病是由刚地弓形体原虫引起的一种脑部寄生虫病，是弓形体病致死的主要原因。因...", "lemmaUrl": "http://baike.baidu.com/item/%E5%BC%93%E5%BD%A2%E4%BD%93%E8%84%91%E7%97%85/10647579", "lemmaPic": []}, {"lemmaId": 541892, "lemmaTitle": "溢泪症", "lemmaCroppedTitle": "溢泪症", "lemmaDesc": "溢泪症是指因泪道发生功能障碍，导致泪液外溢。人的眼泪来自于泪腺，泪腺由细管状腺和...", "lemmaUrl": "http://baike.baidu.com/item/%E6%BA%A2%E6%B3%AA%E7%97%87/541892", "lemmaPic": []}, {"lemmaId": 8532173, "lemmaTitle": "先天性后鼻孔闭锁", "lemmaCroppedTitle": "先天性后鼻孔闭锁", "lemmaDesc": "先天性后鼻孔闭锁是一种少见的鼻部畸形，可以为单侧或双侧，属家族遗传性疾病。此病容...", "lemmaUrl": "http://baike.baidu.com/item/%E5%85%88%E5%A4%A9%E6%80%A7%E5%90%8E%E9%BC%BB%E5%AD%94%E9%97%AD%E9%94%81/8532173", "lemmaPic": []}, {"lemmaId": 1963936, "lemmaTitle": "外阴乳头状瘤", "lemmaCroppedTitle": "外阴乳头状瘤", "lemmaDesc": "外阴乳头状瘤为上皮来源的肿瘤。病变多发生在大阴唇，也可见于阴阜、阴蒂和肛门周围。...", "lemmaUrl": "http://baike.baidu.com/item/%E5%A4%96%E9%98%B4%E4%B9%B3%E5%A4%B4%E7%8A%B6%E7%98%A4/1963936", "lemmaPic": []}, {"lemmaId": 4841331, "lemmaTitle": "穿凿脓肿性头部毛囊炎及毛囊周围炎", "lemmaCroppedTitle": "穿凿脓肿性头部毛囊炎及毛囊周围炎", "lemmaDesc": "穿凿脓肿性头部毛囊炎及毛囊周围炎系多数聚集的毛囊炎及毛囊周围炎在深部融合，相互贯...", "lemmaUrl": "http://baike.baidu.com/item/%E7%A9%BF%E5%87%BF%E8%84%93%E8%82%BF%E6%80%A7%E5%A4%B4%E9%83%A8%E6%AF%9B%E5%9B%8A%E7%82%8E%E5%8F%8A%E6%AF%9B%E5%9B%8A%E5%91%A8%E5%9B%B4%E7%82%8E/4841331", "lemmaPic": []}, {"lemmaId": 5120251, "lemmaTitle": "先天性肿瘤", "lemmaCroppedTitle": "先天性肿瘤", "lemmaDesc": "一些肿瘤的发生与胚胎发育异常有一定的关系，称为先天性肿瘤。本文重点讲述颅内先天性...", "lemmaUrl": "http://baike.baidu.com/item/%E5%85%88%E5%A4%A9%E6%80%A7%E8%82%BF%E7%98%A4/5120251", "lemmaPic": []}, {"lemmaId": 3675977, "lemmaTitle": "无痛性甲状腺炎", "lemmaCroppedTitle": "无痛性甲状腺炎", "lemmaDesc": "无痛性甲状腺炎（PT）又称为静息型甲状腺炎（ST），是甲状腺炎的一种特殊类型。P...", "lemmaUrl": "http://baike.baidu.com/item/%E6%97%A0%E7%97%9B%E6%80%A7%E7%94%B2%E7%8A%B6%E8%85%BA%E7%82%8E/3675977", "lemmaPic": []}, {"lemmaId": 9902175, "lemmaTitle": "虹膜角膜内皮综合征", "lemmaCroppedTitle": "虹膜角膜内皮综合征", "lemmaDesc": "本病是由角膜内皮异常所引起的一组疾病，其病变包括角膜水肿、角膜内皮膜增生、房角粘...", "lemmaUrl": "http://baike.baidu.com/item/%E8%99%B9%E8%86%9C%E8%A7%92%E8%86%9C%E5%86%85%E7%9A%AE%E7%BB%BC%E5%90%88%E5%BE%81/9902175", "lemmaPic": []}, {"lemmaId": 3824085, "lemmaTitle": "呼吸性细支气管相关的间质性肺疾病", "lemmaCroppedTitle": "呼吸性细支气管相关的间质性肺疾病", "lemmaDesc": "间质性肺疾病（ILD）是以弥漫性肺实质、肺泡炎症和间质纤维化为病理基本病变，以活...", "lemmaUrl": "http://baike.baidu.com/item/%E5%91%BC%E5%90%B8%E6%80%A7%E7%BB%86%E6%94%AF%E6%B0%94%E7%AE%A1%E7%9B%B8%E5%85%B3%E7%9A%84%E9%97%B4%E8%B4%A8%E6%80%A7%E8%82%BA%E7%96%BE%E7%97%85/3824085", "lemmaPic": []}, {"lemmaId": 9826893, "lemmaTitle": "泪腺混合瘤", "lemmaCroppedTitle": "泪腺混合瘤", "lemmaDesc": "泪腺肿瘤在眶原发性肿瘤中发病率最高，而泪腺混合瘤又是其中最常见者，有良性及恶性二...", "lemmaUrl": "http://baike.baidu.com/item/%E6%B3%AA%E8%85%BA%E6%B7%B7%E5%90%88%E7%98%A4/9826893", "lemmaPic": []}, {"lemmaId": 1051703, "lemmaTitle": "外阴纤维瘤", "lemmaCroppedTitle": "外阴纤维瘤", "lemmaDesc": "外阴纤维瘤是发生于外阴纤维组织的肿瘤，多见于育龄期妇女，生长缓慢，一般不恶变。一...", "lemmaUrl": "http://baike.baidu.com/item/%E5%A4%96%E9%98%B4%E7%BA%A4%E7%BB%B4%E7%98%A4/1051703", "lemmaPic": []}, {"lemmaId": 6521531, "lemmaTitle": "脑静脉畸形", "lemmaCroppedTitle": "脑静脉畸形", "lemmaDesc": "脑静脉畸形又称脑静脉血管瘤、脑静脉瘤，是较少见的血管畸形。由于其外形异常，但仍为...", "lemmaUrl": "http://baike.baidu.com/item/%E8%84%91%E9%9D%99%E8%84%89%E7%95%B8%E5%BD%A2/6521531", "lemmaPic": []}, {"lemmaId": 996858, "lemmaTitle": "外阴黑色素瘤", "lemmaCroppedTitle": "外阴黑色素瘤", "lemmaDesc": "外阴恶性黑色素瘤与其他部位的黑色素瘤生物学行为方面显著不同，预后也显著差于后者。...", "lemmaUrl": "http://baike.baidu.com/item/%E5%A4%96%E9%98%B4%E9%BB%91%E8%89%B2%E7%B4%A0%E7%98%A4/996858", "lemmaPic": []}, {"lemmaId": 10981590, "lemmaTitle": "新生儿心律失常", "lemmaCroppedTitle": "新生儿心律失常", "lemmaDesc": "新生儿心律失常是指由于心肌自律性、兴奋性和传导性改变而引起的不同于正常心脏搏动节...", "lemmaUrl": "http://baike.baidu.com/item/%E6%96%B0%E7%94%9F%E5%84%BF%E5%BF%83%E5%BE%8B%E5%A4%B1%E5%B8%B8/10981590", "lemmaPic": []}, {"lemmaId": 4612677, "lemmaTitle": "小儿爱德华兹综合征", "lemmaCroppedTitle": "小儿爱德华兹综合征", "lemmaDesc": "爱德华兹综合征即18-三体综合征是一种遗传基因失调病，胎儿或婴儿的细胞内第十八组...", "lemmaUrl": "http://baike.baidu.com/item/%E5%B0%8F%E5%84%BF%E7%88%B1%E5%BE%B7%E5%8D%8E%E5%85%B9%E7%BB%BC%E5%90%88%E5%BE%81/4612677", "lemmaPic": []}, {"lemmaId": 4478691, "lemmaTitle": "厌氧菌肺炎", "lemmaCroppedTitle": "厌氧菌肺炎", "lemmaDesc": "厌氧菌是下呼吸道感染中较为常见的病原体，通常所致肺部感染主要为吸入性肺炎，继而呈...", "lemmaUrl": "http://baike.baidu.com/item/%E5%8E%8C%E6%B0%A7%E8%8F%8C%E8%82%BA%E7%82%8E/4478691", "lemmaPic": []}, {"lemmaId": 6516576, "lemmaTitle": "Stargardt病", "lemmaCroppedTitle": "Stargardt病", "lemmaDesc": "Stargardt病是指黄斑萎缩性损害合并视网膜黄色斑点沉着。本病具有两种特殊征...", "lemmaUrl": "http://baike.baidu.com/item/Stargardt%E7%97%85/6516576", "lemmaPic": []}, {"lemmaId": 9526986, "lemmaTitle": "半椎体畸形", "lemmaCroppedTitle": "半椎体畸形", "lemmaDesc": "此为椎体畸形中最为常见者，易单发，亦可多发。椎体畸形在胸椎多见，腰段亦可遇到。又...", "lemmaUrl": "http://baike.baidu.com/item/%E5%8D%8A%E6%A4%8E%E4%BD%93%E7%95%B8%E5%BD%A2/9526986", "lemmaPic": []}, {"lemmaId": 963131, "lemmaTitle": "圆翳内障", "lemmaCroppedTitle": "圆翳内障", "lemmaDesc": "圆翳内障主要是指因高龄体弱，精气日衰，目失涵养所致晶珠混浊，视力渐降，最终瞳神内...", "lemmaUrl": "http://baike.baidu.com/item/%E5%9C%86%E7%BF%B3%E5%86%85%E9%9A%9C/963131", "lemmaPic": []}, {"lemmaId": 526931, "lemmaTitle": "遗传性乳腺癌", "lemmaCroppedTitle": "遗传性乳腺癌", "lemmaDesc": "乳腺是由皮肤、纤维组织、乳腺腺体和脂肪组成的，乳腺癌是发生在乳腺腺上皮组织的恶性...", "lemmaUrl": "http://baike.baidu.com/item/%E9%81%97%E4%BC%A0%E6%80%A7%E4%B9%B3%E8%85%BA%E7%99%8C/526931", "lemmaPic": []}, {"lemmaId": 6984975, "lemmaTitle": "乳房单纯囊肿", "lemmaCroppedTitle": "乳房单纯囊肿", "lemmaDesc": "乳房单纯囊肿是指囊肿壁内衬一层扁平上皮，而无明显增生表现的肿块，是一种常见的乳房...", "lemmaUrl": "http://baike.baidu.com/item/%E4%B9%B3%E6%88%BF%E5%8D%95%E7%BA%AF%E5%9B%8A%E8%82%BF/6984975", "lemmaPic": []}, {"lemmaId": 6955662, "lemmaTitle": "肉芽肿性前列腺炎", "lemmaCroppedTitle": "肉芽肿性前列腺炎", "lemmaDesc": "肉芽肿性前列腺炎是一种非特异性的、多种组织模式的炎症。与局部强烈的异物反应有关。...", "lemmaUrl": "http://baike.baidu.com/item/%E8%82%89%E8%8A%BD%E8%82%BF%E6%80%A7%E5%89%8D%E5%88%97%E8%85%BA%E7%82%8E/6955662", "lemmaPic": []}, {"lemmaId": 3874377, "lemmaTitle": "油漆皮炎", "lemmaCroppedTitle": "油漆皮炎", "lemmaDesc": "又称生漆皮炎，因接触漆树、漆液、漆器，或仅嗅及漆气而引起的常见皮肤病。多发生在头...", "lemmaUrl": "http://baike.baidu.com/item/%E6%B2%B9%E6%BC%86%E7%9A%AE%E7%82%8E/3874377", "lemmaPic": []}, {"lemmaId": 1708996, "lemmaTitle": "足菌肿", "lemmaCroppedTitle": "足菌肿", "lemmaDesc": "足菌肿通常是由于外伤感染，由多种真菌或细菌引起的，皮肤和皮下组织的一种慢性化脓性...", "lemmaUrl": "http://baike.baidu.com/item/%E8%B6%B3%E8%8F%8C%E8%82%BF/1708996", "lemmaPic": []}, {"lemmaId": 2352288, "lemmaTitle": "肝血管肉瘤", "lemmaCroppedTitle": "肝血管肉瘤", "lemmaDesc": "肝血管肉瘤又称血管内皮细胞肉瘤或恶性血管内皮瘤，是由肝窦细胞异形增生所造成的原发...", "lemmaUrl": "http://baike.baidu.com/item/%E8%82%9D%E8%A1%80%E7%AE%A1%E8%82%89%E7%98%A4/2352288", "lemmaPic": []}, {"lemmaId": 16893095, "lemmaTitle": "溺水急救", "lemmaCroppedTitle": "溺水急救", "lemmaDesc": "抢救溺水的患者包括现场抢救与医院内抢救两部分，为了便于记忆与实施，将其合在一起进...", "lemmaUrl": "http://baike.baidu.com/item/%E6%BA%BA%E6%B0%B4%E6%80%A5%E6%95%91/16893095", "lemmaPic": []}, {"lemmaId": 4015535, "lemmaTitle": "小肠扭转", "lemmaCroppedTitle": "小肠扭转", "lemmaDesc": "小肠扭转是指小肠袢沿其肠系膜纵轴顺时针或逆时针方向扭转超过180°，使扭转肠袢的...", "lemmaUrl": "http://baike.baidu.com/item/%E5%B0%8F%E8%82%A0%E6%89%AD%E8%BD%AC/4015535", "lemmaPic": []}, {"lemmaId": 3606906, "lemmaTitle": "精囊结石", "lemmaCroppedTitle": "精囊结石", "lemmaDesc": "精囊结石，发生在精囊内的结石称为精囊结石，临床上罕见。由于精囊的慢性炎症，射精管...", "lemmaUrl": "http://baike.baidu.com/item/%E7%B2%BE%E5%9B%8A%E7%BB%93%E7%9F%B3/3606906", "lemmaPic": []}, {"lemmaId": 8078933, "lemmaTitle": "骶尾部藏毛窦", "lemmaCroppedTitle": "骶尾部藏毛窦", "lemmaDesc": "骶尾部藏毛窦是指发生于骶尾部含有毛发的窦道或囊肿。该病好发于20～30岁青年男性...", "lemmaUrl": "http://baike.baidu.com/item/%E9%AA%B6%E5%B0%BE%E9%83%A8%E8%97%8F%E6%AF%9B%E7%AA%A6/8078933", "lemmaPic": {"width": 347, "height": 206, "url": "https://gss0.bdstatic.com/94o3dSag_xI4khGkpoWK1HF6hhy/baike/w%3D168/sign=b2aa16098dd4b31cf03c90bdbfd7276f/58ee3d6d55fbb2fbbb515558494a20a44623dc06.jpg"}}, {"lemmaId": 1993205, "lemmaTitle": "着色芽生菌病", "lemmaCroppedTitle": "着色芽生菌病", "lemmaDesc": "着色芽生菌病又称为着色霉菌病，是指由多种暗色孢科真菌引起的皮肤以及皮下组织和内脏...", "lemmaUrl": "http://baike.baidu.com/item/%E7%9D%80%E8%89%B2%E8%8A%BD%E7%94%9F%E8%8F%8C%E7%97%85/1993205", "lemmaPic": []}, {"lemmaId": 768372, "lemmaTitle": "胰腺脑病综合征", "lemmaCroppedTitle": "胰腺脑病综合征", "lemmaDesc": "胰腺脑病综合征又名胰性脑病，是指急性或反复发作的慢性胰腺炎伴发脑病表现的诸症状。...", "lemmaUrl": "http://baike.baidu.com/item/%E8%83%B0%E8%85%BA%E8%84%91%E7%97%85%E7%BB%BC%E5%90%88%E5%BE%81/768372", "lemmaPic": []}, {"lemmaId": 10361160, "lemmaTitle": "灼性神经痛", "lemmaCroppedTitle": "灼性神经痛", "lemmaDesc": "灼性神经痛指在明确的神经损伤后，与损伤神经支配范围相一致的区域内出现的以剧烈灼样...", "lemmaUrl": "http://baike.baidu.com/item/%E7%81%BC%E6%80%A7%E7%A5%9E%E7%BB%8F%E7%97%9B/10361160", "lemmaPic": []}, {"lemmaId": 806429, "lemmaTitle": "鼻疔", "lemmaCroppedTitle": "鼻疔", "lemmaDesc": "鼻疔是指发生在鼻尖、鼻翼、鼻前庭部位的疗疮疖肿，即鼻疖肿。", "lemmaUrl": "http://baike.baidu.com/item/%E9%BC%BB%E7%96%94/806429", "lemmaPic": []}, {"lemmaId": 5120477, "lemmaTitle": "先天性二尖瓣畸形", "lemmaCroppedTitle": "先天性二尖瓣畸形", "lemmaDesc": "先天性二尖瓣畸形可引致二尖瓣狭窄和（或）关闭不全。先天性二尖瓣畸形常与房室管畸形...", "lemmaUrl": "http://baike.baidu.com/item/%E5%85%88%E5%A4%A9%E6%80%A7%E4%BA%8C%E5%B0%96%E7%93%A3%E7%95%B8%E5%BD%A2/5120477", "lemmaPic": []}, {"lemmaId": 768593, "lemmaTitle": "头皮感染", "lemmaCroppedTitle": "头皮感染", "lemmaDesc": "头皮感染多为伤后初期处理不当所致，常在皮下组织层发生感染。若处理不善，病人头皮可...", "lemmaUrl": "http://baike.baidu.com/item/%E5%A4%B4%E7%9A%AE%E6%84%9F%E6%9F%93/768593", "lemmaPic": []}, {"lemmaId": 10258184, "lemmaTitle": "早期婴儿型癫痫性脑病", "lemmaCroppedTitle": "早期婴儿型癫痫性脑病", "lemmaDesc": "早期婴儿型癫痫性脑病又称大田原综合征，是一种恶性癫痫。本病征以发病年龄早、脑电图...", "lemmaUrl": "http://baike.baidu.com/item/%E6%97%A9%E6%9C%9F%E5%A9%B4%E5%84%BF%E5%9E%8B%E7%99%AB%E7%97%AB%E6%80%A7%E8%84%91%E7%97%85/10258184", "lemmaPic": []}, {"lemmaId": 944187, "lemmaTitle": "药物性食管炎", "lemmaCroppedTitle": "药物性食管炎", "lemmaDesc": "正常情况下经口腔服药时，药物从口腔经过食管很快到达胃，很少引起食管的不良反应。但...", "lemmaUrl": "http://baike.baidu.com/item/%E8%8D%AF%E7%89%A9%E6%80%A7%E9%A3%9F%E7%AE%A1%E7%82%8E/944187", "lemmaPic": []}, {"lemmaId": 3599452, "lemmaTitle": "腰椎小关节不稳症", "lemmaCroppedTitle": "腰椎小关节不稳症", "lemmaDesc": "腰椎小关节不稳症指因外伤退行性改变及先天发育等因素造成腰椎小关节不稳（又称为小关...", "lemmaUrl": "http://baike.baidu.com/item/%E8%85%B0%E6%A4%8E%E5%B0%8F%E5%85%B3%E8%8A%82%E4%B8%8D%E7%A8%B3%E7%97%87/3599452", "lemmaPic": []}, {"lemmaId": 8816751, "lemmaTitle": "纹状体黑质变性", "lemmaCroppedTitle": "纹状体黑质变性", "lemmaDesc": "纹状体黑质变性临床较少见。中年起病，男性多见。主要表现进行性肌强直、运动迟缓和步...", "lemmaUrl": "http://baike.baidu.com/item/%E7%BA%B9%E7%8A%B6%E4%BD%93%E9%BB%91%E8%B4%A8%E5%8F%98%E6%80%A7/8816751", "lemmaPic": []}, {"lemmaId": 5102654, "lemmaTitle": "尺桡骨干双骨折", "lemmaCroppedTitle": "尺桡骨干双骨折", "lemmaDesc": "此种骨折在前臂骨折中居第二位，仅次于桡骨远端骨折，可发生侧方移位、重叠、旋转、成...", "lemmaUrl": "http://baike.baidu.com/item/%E5%B0%BA%E6%A1%A1%E9%AA%A8%E5%B9%B2%E5%8F%8C%E9%AA%A8%E6%8A%98/5102654", "lemmaPic": []}, {"lemmaId": 10501985, "lemmaTitle": "鼓膜外伤", "lemmaCroppedTitle": "鼓膜外伤", "lemmaDesc": "因直接或间接的外力作用于鼓膜形成的创伤叫做鼓膜外伤。表现为鼓膜破裂，耳痛、听力减...", "lemmaUrl": "http://baike.baidu.com/item/%E9%BC%93%E8%86%9C%E5%A4%96%E4%BC%A4/10501985", "lemmaPic": []}, {"lemmaId": 5803306, "lemmaTitle": "帽状腱膜下脓肿", "lemmaCroppedTitle": "帽状腱膜下脓肿", "lemmaDesc": "帽状腱膜下脓肿（subgaleal abscess）是各种原因引起的帽状腱膜下化...", "lemmaUrl": "http://baike.baidu.com/item/%E5%B8%BD%E7%8A%B6%E8%85%B1%E8%86%9C%E4%B8%8B%E8%84%93%E8%82%BF/5803306", "lemmaPic": []}, {"lemmaId": 1301840, "lemmaTitle": "肾嗜酸细胞瘤", "lemmaCroppedTitle": "肾嗜酸细胞瘤", "lemmaDesc": "肾嗜酸细胞瘤是良性上皮性肿瘤。1942年Zippel首先报道此病，1962年由H...", "lemmaUrl": "http://baike.baidu.com/item/%E8%82%BE%E5%97%9C%E9%85%B8%E7%BB%86%E8%83%9E%E7%98%A4/1301840", "lemmaPic": []}, {"lemmaId": 1673672, "lemmaTitle": "多发性消化道息肉综合征", "lemmaCroppedTitle": "多发性消化道息肉综合征", "lemmaDesc": "多发性消化道息肉综合征是指发生在中老年的，具有消化道多发性息肉（为青年型错构瘤性...", "lemmaUrl": "http://baike.baidu.com/item/%E5%A4%9A%E5%8F%91%E6%80%A7%E6%B6%88%E5%8C%96%E9%81%93%E6%81%AF%E8%82%89%E7%BB%BC%E5%90%88%E5%BE%81/1673672", "lemmaPic": []}], "total": 7246, "totalPage": 73, "page": 38, "fromLemma": 0}