{"lemmaList": [{"lemmaId": 4427815, "lemmaTitle": "肾下垂", "lemmaCroppedTitle": "肾下垂", "lemmaDesc": "肾下垂是指肾脏随呼吸活动所移动的位置超出正常范围，并由此引起泌尿系统与其他方面症...", "lemmaUrl": "http://baike.baidu.com/item/%E8%82%BE%E4%B8%8B%E5%9E%82/4427815", "lemmaPic": []}, {"lemmaId": 2737889, "lemmaTitle": "未分化结缔组织病", "lemmaCroppedTitle": "未分化结缔组织病", "lemmaDesc": "未分化结缔组织病（UCTD）具有某些结缔组织病的临床表现，但又不符合任何一种特定...", "lemmaUrl": "http://baike.baidu.com/item/%E6%9C%AA%E5%88%86%E5%8C%96%E7%BB%93%E7%BC%94%E7%BB%84%E7%BB%87%E7%97%85/2737889", "lemmaPic": []}, {"lemmaId": 858156, "lemmaTitle": "体外循环", "lemmaCroppedTitle": "体外循环", "lemmaDesc": "体外循环是利用一系列特殊人工装置将回信静脉血引流到体外，经人工方法进行气体交换，...", "lemmaUrl": "http://baike.baidu.com/item/%E4%BD%93%E5%A4%96%E5%BE%AA%E7%8E%AF/858156", "lemmaPic": []}, {"lemmaId": 7827251, "lemmaTitle": "余光恐惧症", "lemmaCroppedTitle": "余光恐惧症", "lemmaDesc": "余光恐惧症属于社交恐惧症中的一种。一个人在注视某人或者某物时，觉得自己控制不住地...", "lemmaUrl": "http://baike.baidu.com/item/%E4%BD%99%E5%85%89%E6%81%90%E6%83%A7%E7%97%87/7827251", "lemmaPic": []}, {"lemmaId": 3521532, "lemmaTitle": "炎症性肠病", "lemmaCroppedTitle": "炎症性肠病", "lemmaDesc": "炎症性肠病（IBD）为累及回肠、直肠、结肠的一种特发性肠道炎症性疾病。临床表现腹...", "lemmaUrl": "http://baike.baidu.com/item/%E7%82%8E%E7%97%87%E6%80%A7%E8%82%A0%E7%97%85/3521532", "lemmaPic": []}, {"lemmaId": 3371159, "lemmaTitle": "脑损伤", "lemmaCroppedTitle": "脑损伤", "lemmaDesc": "脑损伤是指暴力作用于头部造成脑组织器质性损伤。根据伤后脑组织与外界相同与否分为开...", "lemmaUrl": "http://baike.baidu.com/item/%E8%84%91%E6%8D%9F%E4%BC%A4/3371159", "lemmaPic": []}, {"lemmaId": 5085029, "lemmaTitle": "淋巴水肿", "lemmaCroppedTitle": "淋巴水肿", "lemmaDesc": "是指机体某些部位淋巴液回流受阻引起的软组织液在体表反复感染后皮下纤维结缔组织增生...", "lemmaUrl": "http://baike.baidu.com/item/%E6%B7%8B%E5%B7%B4%E6%B0%B4%E8%82%BF/5085029", "lemmaPic": []}, {"lemmaId": 401543, "lemmaTitle": "血色病", "lemmaCroppedTitle": "血色病", "lemmaDesc": "血色病（HC）又叫遗传性血色病（HHC，HH），属于常见的慢性铁负荷过多疾病，是...", "lemmaUrl": "http://baike.baidu.com/item/%E8%A1%80%E8%89%B2%E7%97%85/401543", "lemmaPic": []}, {"lemmaId": 239791, "lemmaTitle": "妊娠期急性脂肪肝", "lemmaCroppedTitle": "妊娠期急性脂肪肝", "lemmaDesc": "妊娠期急性脂肪肝（AFLP）又称”产科急性假性黄色肝萎缩”、“妊娠特发性脂肪肝“...", "lemmaUrl": "http://baike.baidu.com/item/%E5%A6%8A%E5%A8%A0%E6%9C%9F%E6%80%A5%E6%80%A7%E8%84%82%E8%82%AA%E8%82%9D/239791", "lemmaPic": []}, {"lemmaId": 1928192, "lemmaTitle": "卵巢囊肿蒂扭转", "lemmaCroppedTitle": "卵巢囊肿蒂扭转", "lemmaDesc": "蒂扭转为常见的妇科急腹症。约10%卵巢肿瘤并发蒂扭转。好发于瘤蒂长、中等大、活动...", "lemmaUrl": "http://baike.baidu.com/item/%E5%8D%B5%E5%B7%A2%E5%9B%8A%E8%82%BF%E8%92%82%E6%89%AD%E8%BD%AC/1928192", "lemmaPic": []}, {"lemmaId": 2251693, "lemmaTitle": "放射性肺炎", "lemmaCroppedTitle": "放射性肺炎", "lemmaDesc": "放射性肺炎是由于肺癌、乳腺癌、食管癌、恶性淋巴瘤或胸部其他恶性肿瘤经放射治疗后，...", "lemmaUrl": "http://baike.baidu.com/item/%E6%94%BE%E5%B0%84%E6%80%A7%E8%82%BA%E7%82%8E/2251693", "lemmaPic": []}, {"lemmaId": 2321975, "lemmaTitle": "主动脉瘤", "lemmaCroppedTitle": "主动脉瘤", "lemmaDesc": "主动脉病理性的扩张，超过正常血管直径的50%，称之为主动脉瘤。主动脉瘤分为真性主...", "lemmaUrl": "http://baike.baidu.com/item/%E4%B8%BB%E5%8A%A8%E8%84%89%E7%98%A4/2321975", "lemmaPic": []}, {"lemmaId": 4625478, "lemmaTitle": "席汉综合征", "lemmaCroppedTitle": "席汉综合征", "lemmaDesc": "由于产后大出血，尤其是伴有长时间的失血性休克，使垂体前叶组织缺氧、变性坏死，继而...", "lemmaUrl": "http://baike.baidu.com/item/%E5%B8%AD%E6%B1%89%E7%BB%BC%E5%90%88%E5%BE%81/4625478", "lemmaPic": []}, {"lemmaId": 11012299, "lemmaTitle": "脉络丛囊肿", "lemmaCroppedTitle": "脉络丛囊肿", "lemmaDesc": "脉络丛囊肿是指于孕龄在14～24周胎儿发育中超声检查发现的侧脑室脉络丛散在的、直...", "lemmaUrl": "http://baike.baidu.com/item/%E8%84%89%E7%BB%9C%E4%B8%9B%E5%9B%8A%E8%82%BF/11012299", "lemmaPic": []}, {"lemmaId": 10464232, "lemmaTitle": "骨化性肌炎", "lemmaCroppedTitle": "骨化性肌炎", "lemmaDesc": "骨化性肌炎为进行性骨质结构于肌肉、结缔组织内沉积所引起的肌肉硬化的一种疾病。病因...", "lemmaUrl": "http://baike.baidu.com/item/%E9%AA%A8%E5%8C%96%E6%80%A7%E8%82%8C%E7%82%8E/10464232", "lemmaPic": []}, {"lemmaId": 2288271, "lemmaTitle": "缺血性脑卒中", "lemmaCroppedTitle": "缺血性脑卒中", "lemmaDesc": "缺血性脑卒中是指由于脑的供血动脉（颈动脉和椎动脉）狭窄或闭塞、脑供血不足导致的脑...", "lemmaUrl": "http://baike.baidu.com/item/%E7%BC%BA%E8%A1%80%E6%80%A7%E8%84%91%E5%8D%92%E4%B8%AD/2288271", "lemmaPic": []}, {"lemmaId": 832325, "lemmaTitle": "尿布皮炎", "lemmaCroppedTitle": "尿布皮炎", "lemmaDesc": "尿布皮炎是指在新生儿的肛门附近、臀部、会阴部等处皮肤发红，有散在斑丘疹或疱疹，又...", "lemmaUrl": "http://baike.baidu.com/item/%E5%B0%BF%E5%B8%83%E7%9A%AE%E7%82%8E/832325", "lemmaPic": []}, {"lemmaId": 10729051, "lemmaTitle": "肺动脉瓣狭窄", "lemmaCroppedTitle": "肺动脉瓣狭窄", "lemmaDesc": "肺动脉瓣狭窄发病率约占先天性心脏病的8%～10%，肺动脉狭窄以单纯肺动脉瓣狭窄最...", "lemmaUrl": "http://baike.baidu.com/item/%E8%82%BA%E5%8A%A8%E8%84%89%E7%93%A3%E7%8B%AD%E7%AA%84/10729051", "lemmaPic": []}, {"lemmaId": 1959134, "lemmaTitle": "类癌综合征", "lemmaCroppedTitle": "类癌综合征", "lemmaDesc": "除食管外，消化道的任何部位都可发生类癌，位于阑尾者占1/3,多见于女性，很少转移...", "lemmaUrl": "http://baike.baidu.com/item/%E7%B1%BB%E7%99%8C%E7%BB%BC%E5%90%88%E5%BE%81/1959134", "lemmaPic": []}, {"lemmaId": 9943811, "lemmaTitle": "恶性纤维组织细胞瘤", "lemmaCroppedTitle": "恶性纤维组织细胞瘤", "lemmaDesc": "在最近的文献报道中被列为最常见的软组织肉瘤类型，包含有多种不同类型的肉瘤，具有某...", "lemmaUrl": "http://baike.baidu.com/item/%E6%81%B6%E6%80%A7%E7%BA%A4%E7%BB%B4%E7%BB%84%E7%BB%87%E7%BB%86%E8%83%9E%E7%98%A4/9943811", "lemmaPic": []}, {"lemmaId": 4769919, "lemmaTitle": "绞肠痧", "lemmaCroppedTitle": "绞肠痧", "lemmaDesc": "属胃气虚，猝中天地邪恶秽污之气。一种说法为痧证之一，病名。以心腹绞痛为主证。一名...", "lemmaUrl": "http://baike.baidu.com/item/%E7%BB%9E%E8%82%A0%E7%97%A7/4769919", "lemmaPic": []}, {"lemmaId": 10779037, "lemmaTitle": "小便不利", "lemmaCroppedTitle": "小便不利", "lemmaDesc": "小便不利，证名。小便量减少、排尿困难及小便完全闭寒不通。出《伤寒论・辨太阳病脉证...", "lemmaUrl": "http://baike.baidu.com/item/%E5%B0%8F%E4%BE%BF%E4%B8%8D%E5%88%A9/10779037", "lemmaPic": []}, {"lemmaId": 7323961, "lemmaTitle": "人群恐惧症", "lemmaCroppedTitle": "人群恐惧症", "lemmaDesc": "人群恐惧症又叫社交恐惧症、见人恐怖症，是恐惧症中最常见的一种，约占恐惧症患者的一...", "lemmaUrl": "http://baike.baidu.com/item/%E4%BA%BA%E7%BE%A4%E6%81%90%E6%83%A7%E7%97%87/7323961", "lemmaPic": []}, {"lemmaId": 5087858, "lemmaTitle": "跟骨骨折", "lemmaCroppedTitle": "跟骨骨折", "lemmaDesc": "跟骨骨折以足跟部剧烈疼痛，肿胀和淤斑明显，足跟不能着地行走，跟骨压痛为主要表现。...", "lemmaUrl": "http://baike.baidu.com/item/%E8%B7%9F%E9%AA%A8%E9%AA%A8%E6%8A%98/5087858", "lemmaPic": []}, {"lemmaId": 8110918, "lemmaTitle": "药物性鼻炎", "lemmaCroppedTitle": "药物性鼻炎", "lemmaDesc": "药物性鼻炎是不恰当的鼻腔用药长期持续作用以及因治疗其他疾病而出现得药物副作用的结...", "lemmaUrl": "http://baike.baidu.com/item/%E8%8D%AF%E7%89%A9%E6%80%A7%E9%BC%BB%E7%82%8E/8110918", "lemmaPic": []}, {"lemmaId": 5086290, "lemmaTitle": "慢性骨髓炎", "lemmaCroppedTitle": "慢性骨髓炎", "lemmaDesc": "慢性骨髓炎是急性化脓性骨髓炎的延续，往往全身症状大多消失，只有在局部引流不畅时，...", "lemmaUrl": "http://baike.baidu.com/item/%E6%85%A2%E6%80%A7%E9%AA%A8%E9%AB%93%E7%82%8E/5086290", "lemmaPic": []}, {"lemmaId": 10188736, "lemmaTitle": "皮肤饥渴症", "lemmaCroppedTitle": "皮肤饥渴症", "lemmaDesc": "在幼年时期，双亲的抚爱，特别是母亲的抚爱，不仅对身体的发育，皮肤的健康，由触觉所...", "lemmaUrl": "http://baike.baidu.com/item/%E7%9A%AE%E8%82%A4%E9%A5%A5%E6%B8%B4%E7%97%87/10188736", "lemmaPic": []}, {"lemmaId": 4541882, "lemmaTitle": "多发性脂囊瘤", "lemmaCroppedTitle": "多发性脂囊瘤", "lemmaDesc": "本病是一种错构瘤，为皮脂腺开口处受阻而形成的潴留性囊肿。部分多发性脂囊瘤有家族史...", "lemmaUrl": "http://baike.baidu.com/item/%E5%A4%9A%E5%8F%91%E6%80%A7%E8%84%82%E5%9B%8A%E7%98%A4/4541882", "lemmaPic": []}, {"lemmaId": 2825255, "lemmaTitle": "眶上神经痛", "lemmaCroppedTitle": "眶上神经痛", "lemmaDesc": "眶上神经是三叉神经第一支的末梢支，较表浅。眶上神经痛是指眶上神经分布范围内（前额...", "lemmaUrl": "http://baike.baidu.com/item/%E7%9C%B6%E4%B8%8A%E7%A5%9E%E7%BB%8F%E7%97%9B/2825255", "lemmaPic": []}, {"lemmaId": 3582853, "lemmaTitle": "脊柱结核", "lemmaCroppedTitle": "脊柱结核", "lemmaDesc": "脊柱结核占全身骨关节结核的首位，其中以椎体结核占大多数，附件结核十分罕见。在整个...", "lemmaUrl": "http://baike.baidu.com/item/%E8%84%8A%E6%9F%B1%E7%BB%93%E6%A0%B8/3582853", "lemmaPic": []}, {"lemmaId": 5320544, "lemmaTitle": "楔状缺损", "lemmaCroppedTitle": "楔状缺损", "lemmaDesc": "楔状缺损是牙齿唇颊侧颈部硬组织发生缓慢消耗所致的缺损，由于这种缺损常呈楔形因而得...", "lemmaUrl": "http://baike.baidu.com/item/%E6%A5%94%E7%8A%B6%E7%BC%BA%E6%8D%9F/5320544", "lemmaPic": []}, {"lemmaId": 8013819, "lemmaTitle": "甲状舌管囊肿", "lemmaCroppedTitle": "甲状舌管囊肿", "lemmaDesc": "甲状舌管囊肿是指在胚胎早期甲状腺发育过程中甲状舌管退化不全、不消失而在颈部遗留形...", "lemmaUrl": "http://baike.baidu.com/item/%E7%94%B2%E7%8A%B6%E8%88%8C%E7%AE%A1%E5%9B%8A%E8%82%BF/8013819", "lemmaPic": []}, {"lemmaId": 10389227, "lemmaTitle": "舌扁桃体炎", "lemmaCroppedTitle": "舌扁桃体炎", "lemmaDesc": "舌扁桃体炎为舌根部淋巴组织团块的炎症性病变。分为急性舌扁桃体炎和慢性舌扁桃体炎。...", "lemmaUrl": "http://baike.baidu.com/item/%E8%88%8C%E6%89%81%E6%A1%83%E4%BD%93%E7%82%8E/10389227", "lemmaPic": []}, {"lemmaId": 1153169, "lemmaTitle": "肛门括约肌", "lemmaCroppedTitle": "肛门括约肌", "lemmaDesc": "肛管被肛门括约肌复合体围绕，肛门括约肌复合体由互相重叠的两层肌肉构成。其外层为肛...", "lemmaUrl": "http://baike.baidu.com/item/%E8%82%9B%E9%97%A8%E6%8B%AC%E7%BA%A6%E8%82%8C/1153169", "lemmaPic": {"width": 882, "height": 586, "url": "https://gss1.bdstatic.com/-vo3dSag_xI4khGkpoWK1HF6hhy/baike/w%3D168/sign=7fcf5bede2fe9925cb0c6d560ca95ee4/a686c9177f3e67098cdb06d739c79f3df8dc553a.jpg"}}, {"lemmaId": 10183945, "lemmaTitle": "老年高血压", "lemmaCroppedTitle": "老年高血压", "lemmaDesc": "老年指年龄≥65岁，我国老年人群高血压患病率高达49%。早期人们认为老年高血压是...", "lemmaUrl": "http://baike.baidu.com/item/%E8%80%81%E5%B9%B4%E9%AB%98%E8%A1%80%E5%8E%8B/10183945", "lemmaPic": []}, {"lemmaId": 10664656, "lemmaTitle": "神经性贪食症", "lemmaCroppedTitle": "神经性贪食症", "lemmaDesc": "神经性贪食症（BN），又名贪食症，是以反复发作性暴食，并伴随防止体重增加的补偿性...", "lemmaUrl": "http://baike.baidu.com/item/%E7%A5%9E%E7%BB%8F%E6%80%A7%E8%B4%AA%E9%A3%9F%E7%97%87/10664656", "lemmaPic": []}, {"lemmaId": 1710124, "lemmaTitle": "外阴毛囊炎", "lemmaCroppedTitle": "外阴毛囊炎", "lemmaDesc": "外阴毛囊炎以毛囊或毛囊周围感染为主。外阴为皮肤组织，有丰富的毛囊，当机体抵抗力低...", "lemmaUrl": "http://baike.baidu.com/item/%E5%A4%96%E9%98%B4%E6%AF%9B%E5%9B%8A%E7%82%8E/1710124", "lemmaPic": []}, {"lemmaId": 10485314, "lemmaTitle": "屈光参差", "lemmaCroppedTitle": "屈光参差", "lemmaDesc": "两眼的屈光状态不相一致者，称为屈光参差。一般来说，人的两眼屈光状态普遍存在轻度的...", "lemmaUrl": "http://baike.baidu.com/item/%E5%B1%88%E5%85%89%E5%8F%82%E5%B7%AE/10485314", "lemmaPic": []}, {"lemmaId": 2282054, "lemmaTitle": "产褥感染", "lemmaCroppedTitle": "产褥感染", "lemmaDesc": "产褥感染是指分娩时及产褥期生殖道受病原体感染，引起局部和全身的炎性应化。发病率为...", "lemmaUrl": "http://baike.baidu.com/item/%E4%BA%A7%E8%A4%A5%E6%84%9F%E6%9F%93/2282054", "lemmaPic": []}, {"lemmaId": 4654113, "lemmaTitle": "老年性耳聋", "lemmaCroppedTitle": "老年性耳聋", "lemmaDesc": "临床上将老年开始出现的，双耳对称的，渐进性的神经性耳聋称为老年性耳聋，人体随着年...", "lemmaUrl": "http://baike.baidu.com/item/%E8%80%81%E5%B9%B4%E6%80%A7%E8%80%B3%E8%81%8B/4654113", "lemmaPic": []}, {"lemmaId": 5058648, "lemmaTitle": "结直肠癌", "lemmaCroppedTitle": "结直肠癌", "lemmaDesc": "结、直肠癌是我国常见的恶性肿瘤。占我国恶性肿瘤的第四位，并有上升的趋势。中国人结...", "lemmaUrl": "http://baike.baidu.com/item/%E7%BB%93%E7%9B%B4%E8%82%A0%E7%99%8C/5058648", "lemmaPic": []}, {"lemmaId": 5277724, "lemmaTitle": "慢性输卵管卵巢炎", "lemmaCroppedTitle": "慢性输卵管卵巢炎", "lemmaDesc": "卵巢炎与输卵管炎合并发生者，称为输卵管卵巢炎或附件炎。输卵管卵巢炎的急性期，若治...", "lemmaUrl": "http://baike.baidu.com/item/%E6%85%A2%E6%80%A7%E8%BE%93%E5%8D%B5%E7%AE%A1%E5%8D%B5%E5%B7%A2%E7%82%8E/5277724", "lemmaPic": []}, {"lemmaId": 10047745, "lemmaTitle": "精神强迫症", "lemmaCroppedTitle": "精神强迫症", "lemmaDesc": "精神强迫症是一种神经官能症，简称强迫症，以反复出现强迫观念和强迫动作为基本特征的...", "lemmaUrl": "http://baike.baidu.com/item/%E7%B2%BE%E7%A5%9E%E5%BC%BA%E8%BF%AB%E7%97%87/10047745", "lemmaPic": []}, {"lemmaId": 7684576, "lemmaTitle": "肘管综合征", "lemmaCroppedTitle": "肘管综合征", "lemmaDesc": "因肘部创伤性关节炎而出现尺神经受压，在尺侧腕屈肌两头之间有一增厚的纤维带，压迫尺...", "lemmaUrl": "http://baike.baidu.com/item/%E8%82%98%E7%AE%A1%E7%BB%BC%E5%90%88%E5%BE%81/7684576", "lemmaPic": []}, {"lemmaId": 2360638, "lemmaTitle": "巨细胞病毒感染症", "lemmaCroppedTitle": "巨细胞病毒感染症", "lemmaDesc": "巨细胞病毒感染症是由巨细胞病毒（CMV）引起的先天性或后天性感染。感染巨细胞病毒...", "lemmaUrl": "http://baike.baidu.com/item/%E5%B7%A8%E7%BB%86%E8%83%9E%E7%97%85%E6%AF%92%E6%84%9F%E6%9F%93%E7%97%87/2360638", "lemmaPic": []}, {"lemmaId": 4586133, "lemmaTitle": "结节性血管炎", "lemmaCroppedTitle": "结节性血管炎", "lemmaDesc": "结节性血管炎是以淋巴细胞浸润为主的皮肤小血管炎。临床特点为好发于中年女性,偶发于...", "lemmaUrl": "http://baike.baidu.com/item/%E7%BB%93%E8%8A%82%E6%80%A7%E8%A1%80%E7%AE%A1%E7%82%8E/4586133", "lemmaPic": []}, {"lemmaId": 10008574, "lemmaTitle": "子宫内膜结核", "lemmaCroppedTitle": "子宫内膜结核", "lemmaDesc": "子宫内膜结核是由结核杆菌引起的子宫内膜炎症，多为盆腔结核的一部分，也是全身结核的...", "lemmaUrl": "http://baike.baidu.com/item/%E5%AD%90%E5%AE%AB%E5%86%85%E8%86%9C%E7%BB%93%E6%A0%B8/10008574", "lemmaPic": []}, {"lemmaId": 10031516, "lemmaTitle": "脾俞", "lemmaCroppedTitle": "脾俞", "lemmaDesc": "脾，脾脏；俞，输注；本穴为脾之背俞穴，故名。本穴归属于足太阳膀胱经，为足太阳膀胱...", "lemmaUrl": "http://baike.baidu.com/item/%E8%84%BE%E4%BF%9E/10031516", "lemmaPic": []}, {"lemmaId": 1604281, "lemmaTitle": "经络按摩", "lemmaCroppedTitle": "经络按摩", "lemmaDesc": "经络按摩是严格依据中医经络学原理进行诊疗的按摩医术。医生通过经络辨证，进行诊断，...", "lemmaUrl": "http://baike.baidu.com/item/%E7%BB%8F%E7%BB%9C%E6%8C%89%E6%91%A9/1604281", "lemmaPic": []}, {"lemmaId": 2410025, "lemmaTitle": "慢性非细菌性前列腺炎", "lemmaCroppedTitle": "慢性非细菌性前列腺炎", "lemmaDesc": "慢性非细菌性前列腺炎主要表现为骨盆区域疼痛，可见于会阴、阴茎、肛周部、尿道、耻骨...", "lemmaUrl": "http://baike.baidu.com/item/%E6%85%A2%E6%80%A7%E9%9D%9E%E7%BB%86%E8%8F%8C%E6%80%A7%E5%89%8D%E5%88%97%E8%85%BA%E7%82%8E/2410025", "lemmaPic": []}, {"lemmaId": 1420943, "lemmaTitle": "胎漏", "lemmaCroppedTitle": "胎漏", "lemmaDesc": "妊娠期间出现的阴道少量出血，时出时止，或淋漓不断，而无腰酸、腹痛、小腹下坠者，称...", "lemmaUrl": "http://baike.baidu.com/item/%E8%83%8E%E6%BC%8F/1420943", "lemmaPic": []}, {"lemmaId": 8596943, "lemmaTitle": "甲醇中毒", "lemmaCroppedTitle": "甲醇中毒", "lemmaDesc": "甲醇对人体的毒性作用是由甲醇及其代谢产物甲醛和甲酸引起，以中枢神经系统损害、眼部...", "lemmaUrl": "http://baike.baidu.com/item/%E7%94%B2%E9%86%87%E4%B8%AD%E6%AF%92/8596943", "lemmaPic": []}, {"lemmaId": 3625387, "lemmaTitle": "瘢痕子宫", "lemmaCroppedTitle": "瘢痕子宫", "lemmaDesc": "瘢痕子宫是指剖宫产手术或肌壁间肌瘤剥除术后的子宫。瘢痕子宫对再次妊娠的孕期和分娩...", "lemmaUrl": "http://baike.baidu.com/item/%E7%98%A2%E7%97%95%E5%AD%90%E5%AE%AB/3625387", "lemmaPic": []}, {"lemmaId": 2251922, "lemmaTitle": "肥厚型心肌病", "lemmaCroppedTitle": "肥厚型心肌病", "lemmaDesc": "肥厚型心肌病（HCM）是一种原因不明的心肌疾病，特征为心室壁呈不对称性肥厚，常侵...", "lemmaUrl": "http://baike.baidu.com/item/%E8%82%A5%E5%8E%9A%E5%9E%8B%E5%BF%83%E8%82%8C%E7%97%85/2251922", "lemmaPic": []}, {"lemmaId": 1365345, "lemmaTitle": "上腔静脉综合征", "lemmaCroppedTitle": "上腔静脉综合征", "lemmaDesc": "上腔静脉综合征（SVCS）是一组由于通过上腔静脉回流到右心房的血流部分或完全受阻...", "lemmaUrl": "http://baike.baidu.com/item/%E4%B8%8A%E8%85%94%E9%9D%99%E8%84%89%E7%BB%BC%E5%90%88%E5%BE%81/1365345", "lemmaPic": []}, {"lemmaId": 10614234, "lemmaTitle": "二度房室传导阻滞", "lemmaCroppedTitle": "二度房室传导阻滞", "lemmaDesc": "二度房室传导阻滞是电激动自心房传至心室过程中有部分传导中断，即有心室脱漏现象，可...", "lemmaUrl": "http://baike.baidu.com/item/%E4%BA%8C%E5%BA%A6%E6%88%BF%E5%AE%A4%E4%BC%A0%E5%AF%BC%E9%98%BB%E6%BB%9E/10614234", "lemmaPic": []}, {"lemmaId": 3783120, "lemmaTitle": "隐匿阴茎", "lemmaCroppedTitle": "隐匿阴茎", "lemmaDesc": "隐匿阴茎是一种常见的先天发育异常和畸形性疾病，也称埋藏式阴茎。阴茎隐匿者，其阴茎...", "lemmaUrl": "http://baike.baidu.com/item/%E9%9A%90%E5%8C%BF%E9%98%B4%E8%8C%8E/3783120", "lemmaPic": []}, {"lemmaId": 2664591, "lemmaTitle": "记忆障碍", "lemmaCroppedTitle": "记忆障碍", "lemmaDesc": "记忆障碍指个人处于一种不能记住或回忆信息或技能的状态，有可能是由于病理生理性的或...", "lemmaUrl": "http://baike.baidu.com/item/%E8%AE%B0%E5%BF%86%E9%9A%9C%E7%A2%8D/2664591", "lemmaPic": []}, {"lemmaId": 3966228, "lemmaTitle": "颈性眩晕", "lemmaCroppedTitle": "颈性眩晕", "lemmaDesc": "眩晕是指患者感觉周围物体或自身在旋转、升降和倾斜的运动幻觉。颈性眩晕指由于颈部病...", "lemmaUrl": "http://baike.baidu.com/item/%E9%A2%88%E6%80%A7%E7%9C%A9%E6%99%95/3966228", "lemmaPic": []}, {"lemmaId": 8017731, "lemmaTitle": "急性附睾炎", "lemmaCroppedTitle": "急性附睾炎", "lemmaDesc": "急性附睾炎为附睾的非特异性感染，是阴囊内最常见的感染性疾病。多由于后尿道炎、前列...", "lemmaUrl": "http://baike.baidu.com/item/%E6%80%A5%E6%80%A7%E9%99%84%E7%9D%BE%E7%82%8E/8017731", "lemmaPic": []}, {"lemmaId": 5885694, "lemmaTitle": "高脂蛋白血症", "lemmaCroppedTitle": "高脂蛋白血症", "lemmaDesc": "高脂蛋白血症是指血浆中胆固醇（TC）和（或）三酰甘油（TG）水平升高。实际上是血...", "lemmaUrl": "http://baike.baidu.com/item/%E9%AB%98%E8%84%82%E8%9B%8B%E7%99%BD%E8%A1%80%E7%97%87/5885694", "lemmaPic": []}, {"lemmaId": 8414436, "lemmaTitle": "阴挺", "lemmaCroppedTitle": "阴挺", "lemmaDesc": "妇女子宫下脱，甚则脱出阴户之外，或者阴道壁膨出，称为阴挺，又称阴脱、阴菌、阴痔、...", "lemmaUrl": "http://baike.baidu.com/item/%E9%98%B4%E6%8C%BA/8414436", "lemmaPic": []}, {"lemmaId": 5278094, "lemmaTitle": "婴幼儿阴道炎", "lemmaCroppedTitle": "婴幼儿阴道炎", "lemmaDesc": "婴幼儿阴道炎即婴幼儿外阴阴道炎，外阴阴道炎是女性婴幼儿非常常见的疾患，因婴幼儿自...", "lemmaUrl": "http://baike.baidu.com/item/%E5%A9%B4%E5%B9%BC%E5%84%BF%E9%98%B4%E9%81%93%E7%82%8E/5278094", "lemmaPic": []}, {"lemmaId": 5278675, "lemmaTitle": "中心性浆液性脉络膜视网膜病变", "lemmaCroppedTitle": "中心性浆液性脉络膜视网膜病变", "lemmaDesc": "中心性浆液性脉络膜视网膜病变（CSC）简称“中浆病”，是指黄斑区或者后极部由于色...", "lemmaUrl": "http://baike.baidu.com/item/%E4%B8%AD%E5%BF%83%E6%80%A7%E6%B5%86%E6%B6%B2%E6%80%A7%E8%84%89%E7%BB%9C%E8%86%9C%E8%A7%86%E7%BD%91%E8%86%9C%E7%97%85%E5%8F%98/5278675", "lemmaPic": []}, {"lemmaId": 10642408, "lemmaTitle": "泪道阻塞", "lemmaCroppedTitle": "泪道阻塞", "lemmaDesc": "泪道阻塞是眼科常见病、多发病，是一种常发生在泪点、泪小管、泪囊与鼻泪管交界处以及...", "lemmaUrl": "http://baike.baidu.com/item/%E6%B3%AA%E9%81%93%E9%98%BB%E5%A1%9E/10642408", "lemmaPic": []}, {"lemmaId": 8089958, "lemmaTitle": "髌骨软骨软化症", "lemmaCroppedTitle": "髌骨软骨软化症", "lemmaDesc": "髌骨软骨软化症即髌骨软化症，又称髌骨软骨炎，是膝关节常见病，好发于青壮年，在运动...", "lemmaUrl": "http://baike.baidu.com/item/%E9%AB%8C%E9%AA%A8%E8%BD%AF%E9%AA%A8%E8%BD%AF%E5%8C%96%E7%97%87/8089958", "lemmaPic": []}, {"lemmaId": 768436, "lemmaTitle": "颈椎管狭窄症", "lemmaCroppedTitle": "颈椎管狭窄症", "lemmaDesc": "颈椎管狭窄的概念顾名思义为颈椎管各个方向径线减小，或者说容积减小。颈椎管狭窄可减...", "lemmaUrl": "http://baike.baidu.com/item/%E9%A2%88%E6%A4%8E%E7%AE%A1%E7%8B%AD%E7%AA%84%E7%97%87/768436", "lemmaPic": []}, {"lemmaId": 7769209, "lemmaTitle": "骨纤维异常增殖症", "lemmaCroppedTitle": "骨纤维异常增殖症", "lemmaDesc": "骨纤维异常增殖症是一种病因不明、缓慢进展的自限性良性骨纤维组织疾病。正常骨组织被...", "lemmaUrl": "http://baike.baidu.com/item/%E9%AA%A8%E7%BA%A4%E7%BB%B4%E5%BC%82%E5%B8%B8%E5%A2%9E%E6%AE%96%E7%97%87/7769209", "lemmaPic": []}, {"lemmaId": 1073693, "lemmaTitle": "肌纤维组织炎", "lemmaCroppedTitle": "肌纤维组织炎", "lemmaDesc": "肌纤维组织炎是指因寒冷、潮湿以及慢性劳损等引起的肌筋膜或肌肉组织水肿、渗出及纤维...", "lemmaUrl": "http://baike.baidu.com/item/%E8%82%8C%E7%BA%A4%E7%BB%B4%E7%BB%84%E7%BB%87%E7%82%8E/1073693", "lemmaPic": []}, {"lemmaId": 9473351, "lemmaTitle": "先天性曲细精管发育不全综合征", "lemmaCroppedTitle": "先天性曲细精管发育不全综合征", "lemmaDesc": "先天性曲细精管发育不全综合征又称为克兰费尔特综合征（Klinefelter综合征...", "lemmaUrl": "http://baike.baidu.com/item/%E5%85%88%E5%A4%A9%E6%80%A7%E6%9B%B2%E7%BB%86%E7%B2%BE%E7%AE%A1%E5%8F%91%E8%82%B2%E4%B8%8D%E5%85%A8%E7%BB%BC%E5%90%88%E5%BE%81/9473351", "lemmaPic": []}, {"lemmaId": 2478917, "lemmaTitle": "胶质母细胞瘤", "lemmaCroppedTitle": "胶质母细胞瘤", "lemmaDesc": "胶质母细胞瘤是星形细胞肿瘤中恶性程度最高的胶质瘤。肿瘤位于皮质下，多数生长于幕上...", "lemmaUrl": "http://baike.baidu.com/item/%E8%83%B6%E8%B4%A8%E6%AF%8D%E7%BB%86%E8%83%9E%E7%98%A4/2478917", "lemmaPic": []}, {"lemmaId": 732032, "lemmaTitle": "房性心动过速", "lemmaCroppedTitle": "房性心动过速", "lemmaDesc": "房性心动过速简称房速。根据发生机制与心电图表现的不同，可分为自律性房性心动过速、...", "lemmaUrl": "http://baike.baidu.com/item/%E6%88%BF%E6%80%A7%E5%BF%83%E5%8A%A8%E8%BF%87%E9%80%9F/732032", "lemmaPic": []}, {"lemmaId": 2249699, "lemmaTitle": "脓胸", "lemmaCroppedTitle": "脓胸", "lemmaDesc": "病菌侵入胸膜腔，产生脓性渗出液积聚于胸膜腔内的化脓性感染，称为脓胸。脓胸根据病程...", "lemmaUrl": "http://baike.baidu.com/item/%E8%84%93%E8%83%B8/2249699", "lemmaPic": []}, {"lemmaId": 1341474, "lemmaTitle": "软骨发育不全", "lemmaCroppedTitle": "软骨发育不全", "lemmaDesc": "软骨发育不全又称胎儿型软骨营养障碍、软骨营养障碍性侏儒等。是一种由于软骨内骨化缺...", "lemmaUrl": "http://baike.baidu.com/item/%E8%BD%AF%E9%AA%A8%E5%8F%91%E8%82%B2%E4%B8%8D%E5%85%A8/1341474", "lemmaPic": []}, {"lemmaId": 10869481, "lemmaTitle": "纤维肌痛综合征", "lemmaCroppedTitle": "纤维肌痛综合征", "lemmaDesc": "纤维肌痛综合征属于风湿病的一种，特征是弥漫性肌肉疼痛，常伴有多种非特异性症状；典...", "lemmaUrl": "http://baike.baidu.com/item/%E7%BA%A4%E7%BB%B4%E8%82%8C%E7%97%9B%E7%BB%BC%E5%90%88%E5%BE%81/10869481", "lemmaPic": []}, {"lemmaId": 3568332, "lemmaTitle": "腹外疝", "lemmaCroppedTitle": "腹外疝", "lemmaDesc": "腹外疝是腹部外科最常见的疾病之一，其中以腹股沟疝发生率最高，占90%以上，股疝次...", "lemmaUrl": "http://baike.baidu.com/item/%E8%85%B9%E5%A4%96%E7%96%9D/3568332", "lemmaPic": []}, {"lemmaId": 8825674, "lemmaTitle": "高分化鳞癌", "lemmaCroppedTitle": "高分化鳞癌", "lemmaDesc": "所谓分化，简单地说就是瘤组织的成熟程度，恶性肿瘤或多或少都有向正常细胞分化的特点...", "lemmaUrl": "http://baike.baidu.com/item/%E9%AB%98%E5%88%86%E5%8C%96%E9%B3%9E%E7%99%8C/8825674", "lemmaPic": {"width": 725, "height": 472, "url": "https://gss0.bdstatic.com/94o3dSag_xI4khGkpoWK1HF6hhy/baike/w%3D168/sign=24383bf4a3cc7cd9fa2d30df01002104/bd315c6034a85edf0526de3a49540923dd547504.jpg"}}, {"lemmaId": 2154644, "lemmaTitle": "反流性咽喉炎", "lemmaCroppedTitle": "反流性咽喉炎", "lemmaDesc": "反流性咽喉炎又被称作咽喉反流（LPR），是一种近年来才被耳鼻咽喉科医师广泛认识的...", "lemmaUrl": "http://baike.baidu.com/item/%E5%8F%8D%E6%B5%81%E6%80%A7%E5%92%BD%E5%96%89%E7%82%8E/2154644", "lemmaPic": []}, {"lemmaId": 5811834, "lemmaTitle": "胸腺癌", "lemmaCroppedTitle": "胸腺癌", "lemmaDesc": "胸腺癌是一种少见的纵隔恶性肿瘤，来源于胸腺上皮细胞，最常见的组织类型是鳞状细胞癌...", "lemmaUrl": "http://baike.baidu.com/item/%E8%83%B8%E8%85%BA%E7%99%8C/5811834", "lemmaPic": []}, {"lemmaId": 1125077, "lemmaTitle": "急性化脓性腭扁桃体炎", "lemmaCroppedTitle": "急性化脓性腭扁桃体炎", "lemmaDesc": "急性化脓性腭扁桃体炎，是腭扁桃体发生的急性非特异性化脓性炎症。腭扁桃体，即老百姓...", "lemmaUrl": "http://baike.baidu.com/item/%E6%80%A5%E6%80%A7%E5%8C%96%E8%84%93%E6%80%A7%E8%85%AD%E6%89%81%E6%A1%83%E4%BD%93%E7%82%8E/1125077", "lemmaPic": []}, {"lemmaId": 5244930, "lemmaTitle": "先天性无阴道", "lemmaCroppedTitle": "先天性无阴道", "lemmaDesc": "本病系胚胎在发育期间受到内在或外界因素阻扰，亦可能由于基因突变（可能有家庭史）引...", "lemmaUrl": "http://baike.baidu.com/item/%E5%85%88%E5%A4%A9%E6%80%A7%E6%97%A0%E9%98%B4%E9%81%93/5244930", "lemmaPic": []}, {"lemmaId": 1550056, "lemmaTitle": "慢性输卵管炎", "lemmaCroppedTitle": "慢性输卵管炎", "lemmaDesc": "慢性输卵管炎引起的输卵管肥大和输卵管积脓、积水是造成女性不孕的重要原因之一。引起...", "lemmaUrl": "http://baike.baidu.com/item/%E6%85%A2%E6%80%A7%E8%BE%93%E5%8D%B5%E7%AE%A1%E7%82%8E/1550056", "lemmaPic": []}, {"lemmaId": 2039550, "lemmaTitle": "外阴痛", "lemmaCroppedTitle": "外阴痛", "lemmaDesc": "外阴灼痛、刺痛、触痛或刺激为特征的慢性外阴不适，统称为外阴痛，包括外阴前庭炎、环...", "lemmaUrl": "http://baike.baidu.com/item/%E5%A4%96%E9%98%B4%E7%97%9B/2039550", "lemmaPic": []}, {"lemmaId": 5922733, "lemmaTitle": "小儿猫叫综合征", "lemmaCroppedTitle": "小儿猫叫综合征", "lemmaDesc": "猫叫综合征，患者第5号染色体短臂缺失，故又名5p―综合征，为最常见的缺失综合征，...", "lemmaUrl": "http://baike.baidu.com/item/%E5%B0%8F%E5%84%BF%E7%8C%AB%E5%8F%AB%E7%BB%BC%E5%90%88%E5%BE%81/5922733", "lemmaPic": []}, {"lemmaId": 5823081, "lemmaTitle": "先天性马蹄内翻足", "lemmaCroppedTitle": "先天性马蹄内翻足", "lemmaDesc": "先天性马蹄内翻足是常见的先天性足畸形。由足下垂、内翻、内收三个主要畸形综合而成。...", "lemmaUrl": "http://baike.baidu.com/item/%E5%85%88%E5%A4%A9%E6%80%A7%E9%A9%AC%E8%B9%84%E5%86%85%E7%BF%BB%E8%B6%B3/5823081", "lemmaPic": []}, {"lemmaId": 7866850, "lemmaTitle": "痉挛性斜颈", "lemmaCroppedTitle": "痉挛性斜颈", "lemmaDesc": "痉挛性斜颈是肌张力障碍疾病中的一种，局限于颈部肌肉。由于颈部肌肉间断或持续的不自...", "lemmaUrl": "http://baike.baidu.com/item/%E7%97%89%E6%8C%9B%E6%80%A7%E6%96%9C%E9%A2%88/7866850", "lemmaPic": []}, {"lemmaId": 638891, "lemmaTitle": "胃轻瘫综合征", "lemmaCroppedTitle": "胃轻瘫综合征", "lemmaDesc": "胃轻瘫综合征是指以胃排空延缓为特征的临床症状群，主要表现为早饱，餐后上腹胞胀、恶...", "lemmaUrl": "http://baike.baidu.com/item/%E8%83%83%E8%BD%BB%E7%98%AB%E7%BB%BC%E5%90%88%E5%BE%81/638891", "lemmaPic": []}, {"lemmaId": 7276198, "lemmaTitle": "皲裂性湿疹", "lemmaCroppedTitle": "皲裂性湿疹", "lemmaDesc": "皲裂性湿疹与过敏有关，由日常生活中接触清洁剂、肥皂、染料、油漆及日光等刺激物所致...", "lemmaUrl": "http://baike.baidu.com/item/%E7%9A%B2%E8%A3%82%E6%80%A7%E6%B9%BF%E7%96%B9/7276198", "lemmaPic": []}, {"lemmaId": 5359982, "lemmaTitle": "新生儿硬肿症", "lemmaCroppedTitle": "新生儿硬肿症", "lemmaDesc": "新生儿由寒冷损伤、感染或早产引起的一种综合征，其中以寒冷损伤为最多见，称寒冷损伤...", "lemmaUrl": "http://baike.baidu.com/item/%E6%96%B0%E7%94%9F%E5%84%BF%E7%A1%AC%E8%82%BF%E7%97%87/5359982", "lemmaPic": []}, {"lemmaId": 7909027, "lemmaTitle": "溃疡病", "lemmaCroppedTitle": "溃疡病", "lemmaDesc": "溃疡病是胃溃疡和十二指肠溃疡的俗称，因溃疡形成与胃酸/胃蛋白酶的消化作用有关而得...", "lemmaUrl": "http://baike.baidu.com/item/%E6%BA%83%E7%96%A1%E7%97%85/7909027", "lemmaPic": []}, {"lemmaId": 467163, "lemmaTitle": "心房扑动", "lemmaCroppedTitle": "心房扑动", "lemmaDesc": "心房扑动可以认为是在房性心动过速与心房颤动之间的中间型。当心房异位起搏点频率达到...", "lemmaUrl": "http://baike.baidu.com/item/%E5%BF%83%E6%88%BF%E6%89%91%E5%8A%A8/467163", "lemmaPic": []}, {"lemmaId": 3638224, "lemmaTitle": "肾细胞癌", "lemmaCroppedTitle": "肾细胞癌", "lemmaDesc": "肾细胞癌（简称肾癌）是泌尿系统中恶性度较高的肿瘤，也是最常见的肿瘤之一，是起源于...", "lemmaUrl": "http://baike.baidu.com/item/%E8%82%BE%E7%BB%86%E8%83%9E%E7%99%8C/3638224", "lemmaPic": []}, {"lemmaId": 9129747, "lemmaTitle": "人工肛门", "lemmaCroppedTitle": "人工肛门", "lemmaDesc": "人工肛门，又称人造肛门，或肠造口，肠造瘘，即通过手术使大便改道，不再从肛门排出。...", "lemmaUrl": "http://baike.baidu.com/item/%E4%BA%BA%E5%B7%A5%E8%82%9B%E9%97%A8/9129747", "lemmaPic": []}, {"lemmaId": 1216557, "lemmaTitle": "颧骨整形", "lemmaCroppedTitle": "颧骨整形", "lemmaDesc": "颧骨整形是指用外科手段对颧骨进行整形，以达到整复畸形或改善面容的目的。颧骨整形又...", "lemmaUrl": "http://baike.baidu.com/item/%E9%A2%A7%E9%AA%A8%E6%95%B4%E5%BD%A2/1216557", "lemmaPic": {"width": 527, "height": 224, "url": "https://gss1.bdstatic.com/-vo3dSag_xI4khGkpoWK1HF6hhy/baike/w%3D168/sign=bc2e63376e061d957d46333e43f40a5d/d6ca7bcb0a46f21fab26445cf6246b600c33aeaa.jpg"}}, {"lemmaId": 2568442, "lemmaTitle": "小阴茎", "lemmaCroppedTitle": "小阴茎", "lemmaDesc": "小阴茎是指阴茎伸展长度小于相同年龄或相同性发育正常状态人群的阴茎长度平均值2.5...", "lemmaUrl": "http://baike.baidu.com/item/%E5%B0%8F%E9%98%B4%E8%8C%8E/2568442", "lemmaPic": []}, {"lemmaId": 10968949, "lemmaTitle": "淀粉样变性", "lemmaCroppedTitle": "淀粉样变性", "lemmaDesc": "淀粉样变性是由多种原因造成的淀粉样物在体内各脏器细胞间的沉积，致使受累脏器功能逐...", "lemmaUrl": "http://baike.baidu.com/item/%E6%B7%80%E7%B2%89%E6%A0%B7%E5%8F%98%E6%80%A7/10968949", "lemmaPic": []}, {"lemmaId": 2104235, "lemmaTitle": "动静脉瘘", "lemmaCroppedTitle": "动静脉瘘", "lemmaDesc": "动脉和静脉之间存在异常通道，称为动静脉瘘。由于动脉的血液正常孔道流入伴行的静脉，...", "lemmaUrl": "http://baike.baidu.com/item/%E5%8A%A8%E9%9D%99%E8%84%89%E7%98%98/2104235", "lemmaPic": []}, {"lemmaId": 466258, "lemmaTitle": "支气管肺癌", "lemmaCroppedTitle": "支气管肺癌", "lemmaDesc": "支气管肺癌是起源于支气管黏膜或腺体的恶性肿瘤，发病率和死亡率已居所有恶性肿瘤之首...", "lemmaUrl": "http://baike.baidu.com/item/%E6%94%AF%E6%B0%94%E7%AE%A1%E8%82%BA%E7%99%8C/466258", "lemmaPic": {"width": 541, "height": 653, "url": "https://gss3.bdstatic.com/7Po3dSag_xI4khGkpoWK1HF6hhy/baike/w%3D168/sign=6d457d94a40f4bfb8cd09a523b4f788f/8601a18b87d6277f7168203328381f30e924fc47.jpg"}}, {"lemmaId": 3782955, "lemmaTitle": "阴茎畸形", "lemmaCroppedTitle": "阴茎畸形", "lemmaDesc": "阴茎畸形是由于胚胎发育期间，生殖结节及形成外阴的泌尿生殖窦发育异常所致，目前尚无...", "lemmaUrl": "http://baike.baidu.com/item/%E9%98%B4%E8%8C%8E%E7%95%B8%E5%BD%A2/3782955", "lemmaPic": {"width": 320, "height": 270, "url": "https://gss2.bdstatic.com/9fo3dSag_xI4khGkpoWK1HF6hhy/baike/w%3D168/sign=bd00c6a976c6a7efb926ac20c5faafe9/bd3eb13533fa828bfc0ffe95fd1f4134970a5a93.jpg"}}, {"lemmaId": 2827981, "lemmaTitle": "新生儿胆红素脑病", "lemmaCroppedTitle": "新生儿胆红素脑病", "lemmaDesc": "新生儿胆红素脑病是指出生一周内的新生儿由于胆红素毒性作用所致的急性脑损伤。由于胆...", "lemmaUrl": "http://baike.baidu.com/item/%E6%96%B0%E7%94%9F%E5%84%BF%E8%83%86%E7%BA%A2%E7%B4%A0%E8%84%91%E7%97%85/2827981", "lemmaPic": []}], "total": 7246, "totalPage": 73, "page": 18, "fromLemma": 0}