{"lemmaList": [{"lemmaId": 8464240, "lemmaTitle": "儿童厌食", "lemmaCroppedTitle": "儿童厌食", "lemmaDesc": "儿童厌食症是儿童摄食行为异常的一种疾病，多发于1～6岁儿童，常表现为较长时间食欲...", "lemmaUrl": "http://baike.baidu.com/item/%E5%84%BF%E7%AB%A5%E5%8E%8C%E9%A3%9F/8464240", "lemmaPic": []}, {"lemmaId": 5317284, "lemmaTitle": "舌咽神经痛", "lemmaCroppedTitle": "舌咽神经痛", "lemmaDesc": "舌咽神经痛是一种出现于舌咽神经分部区域的阵发性剧痛。疼痛性质与三叉神经痛很相似，...", "lemmaUrl": "http://baike.baidu.com/item/%E8%88%8C%E5%92%BD%E7%A5%9E%E7%BB%8F%E7%97%9B/5317284", "lemmaPic": []}, {"lemmaId": 5243473, "lemmaTitle": "间歇性外斜视", "lemmaCroppedTitle": "间歇性外斜视", "lemmaDesc": "间歇性外斜视是介于外隐斜与恒定性外斜视之间的一种斜视，视轴常常分开，当看远时，融...", "lemmaUrl": "http://baike.baidu.com/item/%E9%97%B4%E6%AD%87%E6%80%A7%E5%A4%96%E6%96%9C%E8%A7%86/5243473", "lemmaPic": []}, {"lemmaId": 9114224, "lemmaTitle": "脊髓栓系综合征", "lemmaCroppedTitle": "脊髓栓系综合征", "lemmaDesc": "脊髓位于脊椎管中，人在生长发育过程中，脊椎管的生长速度大于脊髓，因此脊髓下端相对...", "lemmaUrl": "http://baike.baidu.com/item/%E8%84%8A%E9%AB%93%E6%A0%93%E7%B3%BB%E7%BB%BC%E5%90%88%E5%BE%81/9114224", "lemmaPic": []}, {"lemmaId": 8095711, "lemmaTitle": "病毒性出血热", "lemmaCroppedTitle": "病毒性出血热", "lemmaDesc": "病毒性出血热是一组由虫媒病毒所引起的自然疫源性疾病，以发热、出血和休克为主要临床...", "lemmaUrl": "http://baike.baidu.com/item/%E7%97%85%E6%AF%92%E6%80%A7%E5%87%BA%E8%A1%80%E7%83%AD/8095711", "lemmaPic": []}, {"lemmaId": 5716245, "lemmaTitle": "三阴性乳腺癌", "lemmaCroppedTitle": "三阴性乳腺癌", "lemmaDesc": "三阴性乳腺癌是指癌组织免疫组织化学检查结果为雌激素受体（ER）、孕激素受体（PR...", "lemmaUrl": "http://baike.baidu.com/item/%E4%B8%89%E9%98%B4%E6%80%A7%E4%B9%B3%E8%85%BA%E7%99%8C/5716245", "lemmaPic": []}, {"lemmaId": 1145809, "lemmaTitle": "皮角", "lemmaCroppedTitle": "皮角", "lemmaDesc": "皮角是一种临床病名，多发生在某些皮肤病的基础上，由于病损处角质物异常增多而形成突...", "lemmaUrl": "http://baike.baidu.com/item/%E7%9A%AE%E8%A7%92/1145809", "lemmaPic": []}, {"lemmaId": 5240894, "lemmaTitle": "细菌性肝脓肿", "lemmaCroppedTitle": "细菌性肝脓肿", "lemmaDesc": "细菌性肝脓肿是指由化脓性细菌侵入肝脏形成的肝内化脓性感染病灶。临床上主要以寒战、...", "lemmaUrl": "http://baike.baidu.com/item/%E7%BB%86%E8%8F%8C%E6%80%A7%E8%82%9D%E8%84%93%E8%82%BF/5240894", "lemmaPic": []}, {"lemmaId": 8742519, "lemmaTitle": "少阴病", "lemmaCroppedTitle": "少阴病", "lemmaDesc": "病证名，六经病之一。是指以心肾两脏虚衰为特征的病变。可从三阳病传变而来，也可以因...", "lemmaUrl": "http://baike.baidu.com/item/%E5%B0%91%E9%98%B4%E7%97%85/8742519", "lemmaPic": []}, {"lemmaId": 5417200, "lemmaTitle": "胸廓出口综合征", "lemmaCroppedTitle": "胸廓出口综合征", "lemmaDesc": "胸廓出口综合征是指锁骨下动、静脉和臂丛神经在胸廓上口受压迫而产生的一系列症状。", "lemmaUrl": "http://baike.baidu.com/item/%E8%83%B8%E5%BB%93%E5%87%BA%E5%8F%A3%E7%BB%BC%E5%90%88%E5%BE%81/5417200", "lemmaPic": []}, {"lemmaId": 8469788, "lemmaTitle": "巨细胞包涵体病", "lemmaCroppedTitle": "巨细胞包涵体病", "lemmaDesc": "巨细胞包涵体病又称巨细胞病毒感染，是由人巨细胞病毒感染所导致的一种先天性或后天性...", "lemmaUrl": "http://baike.baidu.com/item/%E5%B7%A8%E7%BB%86%E8%83%9E%E5%8C%85%E6%B6%B5%E4%BD%93%E7%97%85/8469788", "lemmaPic": []}, {"lemmaId": 1299269, "lemmaTitle": "羊痘", "lemmaCroppedTitle": "羊痘", "lemmaDesc": "羊痘（Qrf）是羊感染一种病毒后，皮肤上发生化脓性炎症，再传染给人，使人发生羊痘...", "lemmaUrl": "http://baike.baidu.com/item/%E7%BE%8A%E7%97%98/1299269", "lemmaPic": []}, {"lemmaId": 5280257, "lemmaTitle": "单纯疱疹病毒性角膜炎", "lemmaCroppedTitle": "单纯疱疹病毒性角膜炎", "lemmaDesc": "单纯疱疹病毒性角膜炎是目前最严重的常见角膜病，近几年有明显上升和加剧趋势。由于反...", "lemmaUrl": "http://baike.baidu.com/item/%E5%8D%95%E7%BA%AF%E7%96%B1%E7%96%B9%E7%97%85%E6%AF%92%E6%80%A7%E8%A7%92%E8%86%9C%E7%82%8E/5280257", "lemmaPic": []}, {"lemmaId": 1286845, "lemmaTitle": "牙髓病", "lemmaCroppedTitle": "牙髓病", "lemmaDesc": "牙髓病是牙髓组织的疾病，包括牙髓炎、牙髓坏死和牙髓退变。牙髓组织处于牙体硬组织之...", "lemmaUrl": "http://baike.baidu.com/item/%E7%89%99%E9%AB%93%E7%97%85/1286845", "lemmaPic": []}, {"lemmaId": 9622676, "lemmaTitle": "低温症", "lemmaCroppedTitle": "低温症", "lemmaDesc": "低温症是指人体深部温度（直肠、食管、鼓室）低于35℃的状态，低温症可直接或间接地...", "lemmaUrl": "http://baike.baidu.com/item/%E4%BD%8E%E6%B8%A9%E7%97%87/9622676", "lemmaPic": []}, {"lemmaId": 1073336, "lemmaTitle": "滋养细胞肿瘤", "lemmaCroppedTitle": "滋养细胞肿瘤", "lemmaDesc": "滋养细胞肿瘤，别名：滋养层细胞疾病；滋养层细胞瘤；滋养叶肿瘤；滋养层肿瘤；致溃疡...", "lemmaUrl": "http://baike.baidu.com/item/%E6%BB%8B%E5%85%BB%E7%BB%86%E8%83%9E%E8%82%BF%E7%98%A4/1073336", "lemmaPic": []}, {"lemmaId": 10095528, "lemmaTitle": "急性梗阻性化脓性胆管炎", "lemmaCroppedTitle": "急性梗阻性化脓性胆管炎", "lemmaDesc": "急性梗阻性化脓性胆管炎（AOSC）是由于胆管梗阻和细菌感染，胆管内压升高，肝脏胆...", "lemmaUrl": "http://baike.baidu.com/item/%E6%80%A5%E6%80%A7%E6%A2%97%E9%98%BB%E6%80%A7%E5%8C%96%E8%84%93%E6%80%A7%E8%83%86%E7%AE%A1%E7%82%8E/10095528", "lemmaPic": []}, {"lemmaId": 1630009, "lemmaTitle": "乳腺导管内乳头状瘤", "lemmaCroppedTitle": "乳腺导管内乳头状瘤", "lemmaDesc": "女性乳腺有15～20个乳腺导管，开口于乳头。乳腺导管内乳头状瘤是指发生在导管上皮...", "lemmaUrl": "http://baike.baidu.com/item/%E4%B9%B3%E8%85%BA%E5%AF%BC%E7%AE%A1%E5%86%85%E4%B9%B3%E5%A4%B4%E7%8A%B6%E7%98%A4/1630009", "lemmaPic": []}, {"lemmaId": 6420878, "lemmaTitle": "弓形体病", "lemmaCroppedTitle": "弓形体病", "lemmaDesc": "弓形体病是由弓形体引起的人畜共患性原虫病，本病为全身性疾病，呈世界性分布，人群普...", "lemmaUrl": "http://baike.baidu.com/item/%E5%BC%93%E5%BD%A2%E4%BD%93%E7%97%85/6420878", "lemmaPic": []}, {"lemmaId": 3695563, "lemmaTitle": "先天性肌性斜颈", "lemmaCroppedTitle": "先天性肌性斜颈", "lemmaDesc": "先天性肌性斜颈俗称“歪脖”。先天性肌性斜颈由胸锁乳突肌内的纤维瘤病所致，在出生时...", "lemmaUrl": "http://baike.baidu.com/item/%E5%85%88%E5%A4%A9%E6%80%A7%E8%82%8C%E6%80%A7%E6%96%9C%E9%A2%88/3695563", "lemmaPic": []}, {"lemmaId": 425367, "lemmaTitle": "五更泄泻", "lemmaCroppedTitle": "五更泄泻", "lemmaDesc": "五更泄泻又称晨泻、肾泻、鸡鸣泻，最早出现于《丹溪心法》“有每日五更处洞泻……,随...", "lemmaUrl": "http://baike.baidu.com/item/%E4%BA%94%E6%9B%B4%E6%B3%84%E6%B3%BB/425367", "lemmaPic": []}, {"lemmaId": 1074601, "lemmaTitle": "双胎妊娠", "lemmaCroppedTitle": "双胎妊娠", "lemmaDesc": "一次妊娠同时有两个胎儿称双胎妊娠，其发生率在不同国家、地区、人种之间有一定差异。...", "lemmaUrl": "http://baike.baidu.com/item/%E5%8F%8C%E8%83%8E%E5%A6%8A%E5%A8%A0/1074601", "lemmaPic": []}, {"lemmaId": 12428401, "lemmaTitle": "白细胞减少症和（或）粒细胞减少症", "lemmaCroppedTitle": "白细胞减少症和（或）粒细胞减少症", "lemmaDesc": "成人外周血白细胞计数持续&amp;lt;4×109/L称白细胞减少症，成人外周血...", "lemmaUrl": "http://baike.baidu.com/item/%E7%99%BD%E7%BB%86%E8%83%9E%E5%87%8F%E5%B0%91%E7%97%87%E5%92%8C%EF%BC%88%E6%88%96%EF%BC%89%E7%B2%92%E7%BB%86%E8%83%9E%E5%87%8F%E5%B0%91%E7%97%87/12428401", "lemmaPic": []}, {"lemmaId": 1124480, "lemmaTitle": "流行性出血性结膜炎", "lemmaCroppedTitle": "流行性出血性结膜炎", "lemmaDesc": "一种常见的结膜炎，可由多种病毒引起，临床上可归纳为两组。一组以急性滤泡性结膜炎为...", "lemmaUrl": "http://baike.baidu.com/item/%E6%B5%81%E8%A1%8C%E6%80%A7%E5%87%BA%E8%A1%80%E6%80%A7%E7%BB%93%E8%86%9C%E7%82%8E/1124480", "lemmaPic": []}, {"lemmaId": 8044166, "lemmaTitle": "肺孢子菌肺炎", "lemmaCroppedTitle": "肺孢子菌肺炎", "lemmaDesc": "肺孢子菌肺炎，又称卡氏肺孢子虫肺炎，卡氏肺囊虫肺炎，是由肺孢子菌引起的间质性浆细...", "lemmaUrl": "http://baike.baidu.com/item/%E8%82%BA%E5%AD%A2%E5%AD%90%E8%8F%8C%E8%82%BA%E7%82%8E/8044166", "lemmaPic": []}, {"lemmaId": 5086700, "lemmaTitle": "断指再植", "lemmaCroppedTitle": "断指再植", "lemmaDesc": "断肢再植是将完全或不完全断离的指体，在光学显微镜的助视下，将断离的血管重新吻合，...", "lemmaUrl": "http://baike.baidu.com/item/%E6%96%AD%E6%8C%87%E5%86%8D%E6%A4%8D/5086700", "lemmaPic": []}, {"lemmaId": 5982702, "lemmaTitle": "肝阳虚", "lemmaCroppedTitle": "肝阳虚", "lemmaDesc": "历代文献“论述肝阳虚者甚少”。一般认为，肝为刚脏,体阴用阳；肝阴（血）易损易虚，...", "lemmaUrl": "http://baike.baidu.com/item/%E8%82%9D%E9%98%B3%E8%99%9A/5982702", "lemmaPic": []}, {"lemmaId": 2827942, "lemmaTitle": "垂体前叶功能减退症", "lemmaCroppedTitle": "垂体前叶功能减退症", "lemmaDesc": "任何原因引起的垂体前叶激素分泌不足所导致的一系列临床表现称为垂体前叶功能减退症，...", "lemmaUrl": "http://baike.baidu.com/item/%E5%9E%82%E4%BD%93%E5%89%8D%E5%8F%B6%E5%8A%9F%E8%83%BD%E5%87%8F%E9%80%80%E7%97%87/2827942", "lemmaPic": []}, {"lemmaId": 2150085, "lemmaTitle": "广泛性焦虑障碍", "lemmaCroppedTitle": "广泛性焦虑障碍", "lemmaDesc": "广泛性焦虑障碍（GAD）简称广泛焦虑症，是以持续的显著紧张不安，伴有自主神经功能...", "lemmaUrl": "http://baike.baidu.com/item/%E5%B9%BF%E6%B3%9B%E6%80%A7%E7%84%A6%E8%99%91%E9%9A%9C%E7%A2%8D/2150085", "lemmaPic": []}, {"lemmaId": 2830429, "lemmaTitle": "中耳癌", "lemmaCroppedTitle": "中耳癌", "lemmaDesc": "中耳癌为发生于中耳的少见恶性癌肿，多为原发。中耳癌的诱因，很可能是中耳的长期感染...", "lemmaUrl": "http://baike.baidu.com/item/%E4%B8%AD%E8%80%B3%E7%99%8C/2830429", "lemmaPic": []}, {"lemmaId": 5241332, "lemmaTitle": "先天性肥厚性幽门狭窄", "lemmaCroppedTitle": "先天性肥厚性幽门狭窄", "lemmaDesc": "先天性肥厚性幽门狭窄（CHPS）是由于幽门肌肥厚和水肿引起的输出道梗阻。本病多见...", "lemmaUrl": "http://baike.baidu.com/item/%E5%85%88%E5%A4%A9%E6%80%A7%E8%82%A5%E5%8E%9A%E6%80%A7%E5%B9%BD%E9%97%A8%E7%8B%AD%E7%AA%84/5241332", "lemmaPic": []}, {"lemmaId": 2924874, "lemmaTitle": "腺病毒感染", "lemmaCroppedTitle": "腺病毒感染", "lemmaDesc": "腺病毒引起的急性传染病，易侵犯呼吸道及消化道黏膜、眼结膜、泌尿道和淋巴结。主要表...", "lemmaUrl": "http://baike.baidu.com/item/%E8%85%BA%E7%97%85%E6%AF%92%E6%84%9F%E6%9F%93/2924874", "lemmaPic": []}, {"lemmaId": 10096300, "lemmaTitle": "脊柱骨折", "lemmaCroppedTitle": "脊柱骨折", "lemmaDesc": "脊柱骨折是骨科常见创伤。其发生率占骨折的5%～6%，以胸腰段骨折发生率最高，其次...", "lemmaUrl": "http://baike.baidu.com/item/%E8%84%8A%E6%9F%B1%E9%AA%A8%E6%8A%98/10096300", "lemmaPic": []}, {"lemmaId": 4275606, "lemmaTitle": "雀斑样痣", "lemmaCroppedTitle": "雀斑样痣", "lemmaDesc": "雀斑样痣是指皮肤或黏膜上的褐色或黑色斑点。皮肤黏膜交界处或眼结结膜均可发生。本病...", "lemmaUrl": "http://baike.baidu.com/item/%E9%9B%80%E6%96%91%E6%A0%B7%E7%97%A3/4275606", "lemmaPic": []}, {"lemmaId": 1777627, "lemmaTitle": "软组织肉瘤", "lemmaCroppedTitle": "软组织肉瘤", "lemmaDesc": "软组织肉瘤来源于脂肪、筋膜、肌肉、纤维、淋巴及血管，每种都有不同的组织学、生物学...", "lemmaUrl": "http://baike.baidu.com/item/%E8%BD%AF%E7%BB%84%E7%BB%87%E8%82%89%E7%98%A4/1777627", "lemmaPic": []}, {"lemmaId": 2169174, "lemmaTitle": "铜中毒", "lemmaCroppedTitle": "铜中毒", "lemmaDesc": "铜属有色金属，呈棕红色，是人体必需的微量元素。铜导电性和导热性良好，有光泽和延展...", "lemmaUrl": "http://baike.baidu.com/item/%E9%93%9C%E4%B8%AD%E6%AF%92/2169174", "lemmaPic": {"width": 147, "height": 99, "url": "https://gss1.bdstatic.com/-vo3dSag_xI4khGkpoWK1HF6hhy/baike/w%3D168/sign=4c3422016709c93d07f20af1a73df8bb/aa18972bd40735fa63ee26b69e510fb30f2408a6.jpg"}}, {"lemmaId": 10467210, "lemmaTitle": "poems综合征", "lemmaCroppedTitle": "poems综合征", "lemmaDesc": "POEMS综合征是一种与浆细胞病有关的多系统病变，临床上以多发性周围神经病（po...", "lemmaUrl": "http://baike.baidu.com/item/poems%E7%BB%BC%E5%90%88%E5%BE%81/10467210", "lemmaPic": []}, {"lemmaId": 443613, "lemmaTitle": "急性肠系膜淋巴结炎", "lemmaCroppedTitle": "急性肠系膜淋巴结炎", "lemmaDesc": "急性肠系膜淋巴结炎又称非特异性肠系膜淋巴结炎，由Brenneman（1921）首...", "lemmaUrl": "http://baike.baidu.com/item/%E6%80%A5%E6%80%A7%E8%82%A0%E7%B3%BB%E8%86%9C%E6%B7%8B%E5%B7%B4%E7%BB%93%E7%82%8E/443613", "lemmaPic": []}, {"lemmaId": 6507888, "lemmaTitle": "壶腹周围癌", "lemmaCroppedTitle": "壶腹周围癌", "lemmaDesc": "壶腹周围癌（VPC）是生长在乏特壶腹、十二指肠乳头、胆总管下端、胰管开口处、十二...", "lemmaUrl": "http://baike.baidu.com/item/%E5%A3%B6%E8%85%B9%E5%91%A8%E5%9B%B4%E7%99%8C/6507888", "lemmaPic": []}, {"lemmaId": 8379615, "lemmaTitle": "椎管内麻醉", "lemmaCroppedTitle": "椎管内麻醉", "lemmaDesc": "将麻醉药物注入椎管的蛛网膜下腔或硬膜外腔，脊神经根受到阻滞使该神经根支配的相应区...", "lemmaUrl": "http://baike.baidu.com/item/%E6%A4%8E%E7%AE%A1%E5%86%85%E9%BA%BB%E9%86%89/8379615", "lemmaPic": []}, {"lemmaId": 6459902, "lemmaTitle": "糖尿病合并低血糖", "lemmaCroppedTitle": "糖尿病合并低血糖", "lemmaDesc": "糖尿病合并低血糖是指因为治疗不当而致的血糖持续性过低的现象。糖尿病低血糖的原因可...", "lemmaUrl": "http://baike.baidu.com/item/%E7%B3%96%E5%B0%BF%E7%97%85%E5%90%88%E5%B9%B6%E4%BD%8E%E8%A1%80%E7%B3%96/6459902", "lemmaPic": []}, {"lemmaId": 2405234, "lemmaTitle": "脂肪栓塞综合征", "lemmaCroppedTitle": "脂肪栓塞综合征", "lemmaDesc": "脂肪栓塞综合征（FES）是指骨盆或长骨骨折后24～48小时出现呼吸困难、意识障碍...", "lemmaUrl": "http://baike.baidu.com/item/%E8%84%82%E8%82%AA%E6%A0%93%E5%A1%9E%E7%BB%BC%E5%90%88%E5%BE%81/2405234", "lemmaPic": []}, {"lemmaId": 467216, "lemmaTitle": "窦房传导阻滞", "lemmaCroppedTitle": "窦房传导阻滞", "lemmaDesc": "窦房传导阻滞简称窦房阻滞，系因窦房结周围组织病变，使窦房结发出的激动传出到达心房...", "lemmaUrl": "http://baike.baidu.com/item/%E7%AA%A6%E6%88%BF%E4%BC%A0%E5%AF%BC%E9%98%BB%E6%BB%9E/467216", "lemmaPic": []}, {"lemmaId": 149690, "lemmaTitle": "肺炎性假瘤", "lemmaCroppedTitle": "肺炎性假瘤", "lemmaDesc": "肺炎性假瘤是一种肺实质非特异性炎性增生性肿瘤样病变，是由肺内慢性炎症产生的肉芽肿...", "lemmaUrl": "http://baike.baidu.com/item/%E8%82%BA%E7%82%8E%E6%80%A7%E5%81%87%E7%98%A4/149690", "lemmaPic": []}, {"lemmaId": 1745571, "lemmaTitle": "牙槽脓肿", "lemmaCroppedTitle": "牙槽脓肿", "lemmaDesc": "牙槽脓肿又称根尖周脓肿，是根尖周病的一种类型，根尖周病是指发生于牙根周围组织的炎...", "lemmaUrl": "http://baike.baidu.com/item/%E7%89%99%E6%A7%BD%E8%84%93%E8%82%BF/1745571", "lemmaPic": []}, {"lemmaId": 7862335, "lemmaTitle": "白大衣高血压", "lemmaCroppedTitle": "白大衣高血压", "lemmaDesc": "白大衣高血压（WCH）是指有些患者在医生诊室测量血压时血压升高，但在家中自测血压...", "lemmaUrl": "http://baike.baidu.com/item/%E7%99%BD%E5%A4%A7%E8%A1%A3%E9%AB%98%E8%A1%80%E5%8E%8B/7862335", "lemmaPic": []}, {"lemmaId": 9992377, "lemmaTitle": "自发性蛛网膜下腔出血", "lemmaCroppedTitle": "自发性蛛网膜下腔出血", "lemmaDesc": "蛛网膜下腔出血（subarachnoid hemorrhage，SAH），是多种...", "lemmaUrl": "http://baike.baidu.com/item/%E8%87%AA%E5%8F%91%E6%80%A7%E8%9B%9B%E7%BD%91%E8%86%9C%E4%B8%8B%E8%85%94%E5%87%BA%E8%A1%80/9992377", "lemmaPic": []}, {"lemmaId": 4445330, "lemmaTitle": "隆突性皮肤纤维肉瘤", "lemmaCroppedTitle": "隆突性皮肤纤维肉瘤", "lemmaDesc": "隆突性皮肤纤维肉瘤（DSFP）系源于成纤维细胞或组织细胞，起源于真皮，缓慢生长的...", "lemmaUrl": "http://baike.baidu.com/item/%E9%9A%86%E7%AA%81%E6%80%A7%E7%9A%AE%E8%82%A4%E7%BA%A4%E7%BB%B4%E8%82%89%E7%98%A4/4445330", "lemmaPic": []}, {"lemmaId": 3565800, "lemmaTitle": "疣状表皮发育不良", "lemmaCroppedTitle": "疣状表皮发育不良", "lemmaDesc": "疣状表皮发育不良由Lewandowsky及Lutz于1922年首先报道其特点为全...", "lemmaUrl": "http://baike.baidu.com/item/%E7%96%A3%E7%8A%B6%E8%A1%A8%E7%9A%AE%E5%8F%91%E8%82%B2%E4%B8%8D%E8%89%AF/3565800", "lemmaPic": []}, {"lemmaId": 164958, "lemmaTitle": "乙型肝炎E抗原", "lemmaCroppedTitle": "乙型肝炎E抗原", "lemmaDesc": "乙型肝炎E抗原，英文缩写为HBeAg，是乙肝病毒核心颗粒中的一种可溶性蛋白质。在...", "lemmaUrl": "http://baike.baidu.com/item/%E4%B9%99%E5%9E%8B%E8%82%9D%E7%82%8EE%E6%8A%97%E5%8E%9F/164958", "lemmaPic": []}, {"lemmaId": 220933, "lemmaTitle": "切口疝", "lemmaCroppedTitle": "切口疝", "lemmaDesc": "切口疝是手术切口深处的筋膜层裂开或未愈合所致，可视为迟发的切口裂开或表面愈合的深...", "lemmaUrl": "http://baike.baidu.com/item/%E5%88%87%E5%8F%A3%E7%96%9D/220933", "lemmaPic": []}, {"lemmaId": 2245706, "lemmaTitle": "小儿急性阑尾炎", "lemmaCroppedTitle": "小儿急性阑尾炎", "lemmaDesc": "急性阑尾炎是儿童常见的急腹症，以5岁以上的儿童多见；发病率虽较成人低，但病势较成...", "lemmaUrl": "http://baike.baidu.com/item/%E5%B0%8F%E5%84%BF%E6%80%A5%E6%80%A7%E9%98%91%E5%B0%BE%E7%82%8E/2245706", "lemmaPic": []}, {"lemmaId": 5198927, "lemmaTitle": "适应障碍", "lemmaCroppedTitle": "适应障碍", "lemmaDesc": "适应障碍是指在明显的生活改变或环境变化时所产生的短期和轻度的烦恼状态和情绪失调，...", "lemmaUrl": "http://baike.baidu.com/item/%E9%80%82%E5%BA%94%E9%9A%9C%E7%A2%8D/5198927", "lemmaPic": []}, {"lemmaId": 5241643, "lemmaTitle": "假膜性肠炎", "lemmaCroppedTitle": "假膜性肠炎", "lemmaDesc": "假膜性肠炎是一种急性肠道炎症，多发生在50～60岁的中年人，女性多于男性。因在小...", "lemmaUrl": "http://baike.baidu.com/item/%E5%81%87%E8%86%9C%E6%80%A7%E8%82%A0%E7%82%8E/5241643", "lemmaPic": []}, {"lemmaId": 5653035, "lemmaTitle": "新生儿化脓性脑膜炎", "lemmaCroppedTitle": "新生儿化脓性脑膜炎", "lemmaDesc": "新生儿化脓性脑膜炎是指出生后4周内化脓菌引起的脑膜炎症，是常见的危及新生儿生命的...", "lemmaUrl": "http://baike.baidu.com/item/%E6%96%B0%E7%94%9F%E5%84%BF%E5%8C%96%E8%84%93%E6%80%A7%E8%84%91%E8%86%9C%E7%82%8E/5653035", "lemmaPic": []}, {"lemmaId": 8537728, "lemmaTitle": "旋毛虫病", "lemmaCroppedTitle": "旋毛虫病", "lemmaDesc": "旋毛虫病是旋毛形线虫引起的人畜共患病。人因生食或未煮熟含有活的旋毛虫幼虫而感染。...", "lemmaUrl": "http://baike.baidu.com/item/%E6%97%8B%E6%AF%9B%E8%99%AB%E7%97%85/8537728", "lemmaPic": []}, {"lemmaId": 5059769, "lemmaTitle": "急性胃扩张", "lemmaCroppedTitle": "急性胃扩张", "lemmaDesc": "急性胃扩张是指胃及十二指肠在短期内有大量内容物不能排出，而发生的极度扩张，导致反...", "lemmaUrl": "http://baike.baidu.com/item/%E6%80%A5%E6%80%A7%E8%83%83%E6%89%A9%E5%BC%A0/5059769", "lemmaPic": []}, {"lemmaId": 9852210, "lemmaTitle": "创伤性休克", "lemmaCroppedTitle": "创伤性休克", "lemmaDesc": "创伤性休克是由于机体遭受暴力作用后，发生了重要脏器损伤、严重出血等情况，使患者有...", "lemmaUrl": "http://baike.baidu.com/item/%E5%88%9B%E4%BC%A4%E6%80%A7%E4%BC%91%E5%85%8B/9852210", "lemmaPic": []}, {"lemmaId": 3490308, "lemmaTitle": "卵巢颗粒细胞瘤", "lemmaCroppedTitle": "卵巢颗粒细胞瘤", "lemmaDesc": "卵巢颗粒细胞瘤为最常见的一种具有内分泌（以雌激素为主）功能的卵巢肿瘤。可发生于任...", "lemmaUrl": "http://baike.baidu.com/item/%E5%8D%B5%E5%B7%A2%E9%A2%97%E7%B2%92%E7%BB%86%E8%83%9E%E7%98%A4/3490308", "lemmaPic": []}, {"lemmaId": 8466668, "lemmaTitle": "线粒体病", "lemmaCroppedTitle": "线粒体病", "lemmaDesc": "线粒体病是遗传缺损引起线粒体代谢酶缺陷，致使ATP合成障碍、能量来源不足导致的一...", "lemmaUrl": "http://baike.baidu.com/item/%E7%BA%BF%E7%B2%92%E4%BD%93%E7%97%85/8466668", "lemmaPic": []}, {"lemmaId": 10872692, "lemmaTitle": "肥厚性咽炎", "lemmaCroppedTitle": "肥厚性咽炎", "lemmaDesc": "肥厚性咽炎，又名增生性咽炎或粒型咽炎，是慢性咽炎的一种重要类型。该病症很常见，多...", "lemmaUrl": "http://baike.baidu.com/item/%E8%82%A5%E5%8E%9A%E6%80%A7%E5%92%BD%E7%82%8E/10872692", "lemmaPic": []}, {"lemmaId": 1374331, "lemmaTitle": "多发性大动脉炎", "lemmaCroppedTitle": "多发性大动脉炎", "lemmaDesc": "多发性大动脉炎是一种原因未明，发生在主动脉和（或）其主要分支的慢性非特异性炎症性...", "lemmaUrl": "http://baike.baidu.com/item/%E5%A4%9A%E5%8F%91%E6%80%A7%E5%A4%A7%E5%8A%A8%E8%84%89%E7%82%8E/1374331", "lemmaPic": []}, {"lemmaId": 2398828, "lemmaTitle": "动脉硬化闭塞症", "lemmaCroppedTitle": "动脉硬化闭塞症", "lemmaDesc": "动脉硬化闭塞症是全身性动脉粥样硬化在肢体局部的表现，是全身性动脉内膜及其中层呈退...", "lemmaUrl": "http://baike.baidu.com/item/%E5%8A%A8%E8%84%89%E7%A1%AC%E5%8C%96%E9%97%AD%E5%A1%9E%E7%97%87/2398828", "lemmaPic": []}, {"lemmaId": 9275131, "lemmaTitle": "痈疮", "lemmaCroppedTitle": "痈疮", "lemmaDesc": "痈疮，即痈疽恶疮，是溃疡的一种，指葡萄球菌侵害多个毛囊和皮脂腺而发生的感染。常发...", "lemmaUrl": "http://baike.baidu.com/item/%E7%97%88%E7%96%AE/9275131", "lemmaPic": []}, {"lemmaId": 3290226, "lemmaTitle": "窦性停搏", "lemmaCroppedTitle": "窦性停搏", "lemmaDesc": "窦性停搏又称窦性静止、窦性间歇、窦性暂停等。窦性停搏是指窦房结在一个或多个心动周...", "lemmaUrl": "http://baike.baidu.com/item/%E7%AA%A6%E6%80%A7%E5%81%9C%E6%90%8F/3290226", "lemmaPic": []}, {"lemmaId": 2254473, "lemmaTitle": "特发性肺纤维化", "lemmaCroppedTitle": "特发性肺纤维化", "lemmaDesc": "特发性肺纤维化（IPF）是一种慢性、进行性、纤维化性间质性肺疾病，病变局限在肺脏...", "lemmaUrl": "http://baike.baidu.com/item/%E7%89%B9%E5%8F%91%E6%80%A7%E8%82%BA%E7%BA%A4%E7%BB%B4%E5%8C%96/2254473", "lemmaPic": []}, {"lemmaId": 922917, "lemmaTitle": "糖尿病性胃轻瘫", "lemmaCroppedTitle": "糖尿病性胃轻瘫", "lemmaDesc": "糖尿病性胃轻瘫是糖尿病胃肠植物神经病变常见的症状。典型症状为腹胀、早饱、厌食、嗳...", "lemmaUrl": "http://baike.baidu.com/item/%E7%B3%96%E5%B0%BF%E7%97%85%E6%80%A7%E8%83%83%E8%BD%BB%E7%98%AB/922917", "lemmaPic": []}, {"lemmaId": 8928420, "lemmaTitle": "新生儿破伤风", "lemmaCroppedTitle": "新生儿破伤风", "lemmaDesc": "新生儿破伤风又称“四六风”、“脐风”、“七日风”等，系由破伤风梭状杆菌侵入脐部，...", "lemmaUrl": "http://baike.baidu.com/item/%E6%96%B0%E7%94%9F%E5%84%BF%E7%A0%B4%E4%BC%A4%E9%A3%8E/8928420", "lemmaPic": []}, {"lemmaId": 5520572, "lemmaTitle": "丁型病毒性肝炎", "lemmaCroppedTitle": "丁型病毒性肝炎", "lemmaDesc": "丁型病毒性肝炎是由丁型肝炎病毒（HDV）与乙型肝炎病毒等嗜肝DNA病毒共同引起的...", "lemmaUrl": "http://baike.baidu.com/item/%E4%B8%81%E5%9E%8B%E7%97%85%E6%AF%92%E6%80%A7%E8%82%9D%E7%82%8E/5520572", "lemmaPic": []}, {"lemmaId": 6842887, "lemmaTitle": "前庭神经炎", "lemmaCroppedTitle": "前庭神经炎", "lemmaDesc": "前庭神经炎亦称流行性眩晕、流行性神经迷路炎、急性迷路炎或前庭麻痹症。该炎症仅限局...", "lemmaUrl": "http://baike.baidu.com/item/%E5%89%8D%E5%BA%AD%E7%A5%9E%E7%BB%8F%E7%82%8E/6842887", "lemmaPic": []}, {"lemmaId": 5602512, "lemmaTitle": "清热药", "lemmaCroppedTitle": "清热药", "lemmaDesc": "凡药性寒凉，以清泄里热为主要作用的药物，称为清热药。", "lemmaUrl": "http://baike.baidu.com/item/%E6%B8%85%E7%83%AD%E8%8D%AF/5602512", "lemmaPic": []}, {"lemmaId": 7323643, "lemmaTitle": "无排卵型功能失调性子宫出血", "lemmaCroppedTitle": "无排卵型功能失调性子宫出血", "lemmaDesc": "功能失调性子宫出血简称功血，是非全身及生殖系统的各种器质性疾病所引起的异常子宫出...", "lemmaUrl": "http://baike.baidu.com/item/%E6%97%A0%E6%8E%92%E5%8D%B5%E5%9E%8B%E5%8A%9F%E8%83%BD%E5%A4%B1%E8%B0%83%E6%80%A7%E5%AD%90%E5%AE%AB%E5%87%BA%E8%A1%80/7323643", "lemmaPic": []}, {"lemmaId": 5317893, "lemmaTitle": "脊髓亚急性联合变性", "lemmaCroppedTitle": "脊髓亚急性联合变性", "lemmaDesc": "脊髓亚急性联合变性简称亚急性联合变性（SCD），是由于维生素B12的摄入、吸收、...", "lemmaUrl": "http://baike.baidu.com/item/%E8%84%8A%E9%AB%93%E4%BA%9A%E6%80%A5%E6%80%A7%E8%81%94%E5%90%88%E5%8F%98%E6%80%A7/5317893", "lemmaPic": []}, {"lemmaId": 5245334, "lemmaTitle": "缺血性视神经病变", "lemmaCroppedTitle": "缺血性视神经病变", "lemmaDesc": "缺血性视神经病变为供应视神经的动脉血供急性障碍引起视神经缺血、缺氧，造成视神经的...", "lemmaUrl": "http://baike.baidu.com/item/%E7%BC%BA%E8%A1%80%E6%80%A7%E8%A7%86%E7%A5%9E%E7%BB%8F%E7%97%85%E5%8F%98/5245334", "lemmaPic": []}, {"lemmaId": 3072938, "lemmaTitle": "食管胃底静脉曲张", "lemmaCroppedTitle": "食管胃底静脉曲张", "lemmaDesc": "急性消化道出血是消化系统疾病中常见的并发症，其中肝硬变失代偿导致的食管或胃底静脉...", "lemmaUrl": "http://baike.baidu.com/item/%E9%A3%9F%E7%AE%A1%E8%83%83%E5%BA%95%E9%9D%99%E8%84%89%E6%9B%B2%E5%BC%A0/3072938", "lemmaPic": []}, {"lemmaId": 2830501, "lemmaTitle": "迷路炎", "lemmaCroppedTitle": "迷路炎", "lemmaDesc": "迷路炎即内耳炎，为耳部感染侵入内耳骨迷路或膜迷路所致，是化脓性中耳乳突炎较常见的...", "lemmaUrl": "http://baike.baidu.com/item/%E8%BF%B7%E8%B7%AF%E7%82%8E/2830501", "lemmaPic": []}, {"lemmaId": 5359064, "lemmaTitle": "腺病毒肺炎", "lemmaCroppedTitle": "腺病毒肺炎", "lemmaDesc": "腺病毒除引起上呼吸道感染外，还可引致小儿肺炎，多见于6个月至2岁的婴幼儿腺病毒肺...", "lemmaUrl": "http://baike.baidu.com/item/%E8%85%BA%E7%97%85%E6%AF%92%E8%82%BA%E7%82%8E/5359064", "lemmaPic": []}, {"lemmaId": 5937712, "lemmaTitle": "利什曼病", "lemmaCroppedTitle": "利什曼病", "lemmaDesc": "利什曼病是由利什曼原虫引起的人畜共患病，可引起人类皮肤及内脏黑热病。临床特征主要...", "lemmaUrl": "http://baike.baidu.com/item/%E5%88%A9%E4%BB%80%E6%9B%BC%E7%97%85/5937712", "lemmaPic": []}, {"lemmaId": 483583, "lemmaTitle": "急性呼吸衰竭", "lemmaCroppedTitle": "急性呼吸衰竭", "lemmaDesc": "急性呼吸衰竭是指患者由于某种原因在短期内呼吸功能迅速失去代偿，出现严重缺氧和（或...", "lemmaUrl": "http://baike.baidu.com/item/%E6%80%A5%E6%80%A7%E5%91%BC%E5%90%B8%E8%A1%B0%E7%AB%AD/483583", "lemmaPic": []}, {"lemmaId": 5359729, "lemmaTitle": "胃气胀", "lemmaCroppedTitle": "胃气胀", "lemmaDesc": "胃气胀是一种很多人都会患上的消化系y问题，胃忍多的气体积存会让人感到胀痛、压力...", "lemmaUrl": "http://baike.baidu.com/item/%E8%83%83%E6%B0%94%E8%83%80/5359729", "lemmaPic": []}, {"lemmaId": 10974126, "lemmaTitle": "军团菌肺炎", "lemmaCroppedTitle": "军团菌肺炎", "lemmaDesc": "军团菌肺炎是嗜肺军团菌引起的以肺炎表现为主，可能合并肺外其他系统损害的感染性疾病...", "lemmaUrl": "http://baike.baidu.com/item/%E5%86%9B%E5%9B%A2%E8%8F%8C%E8%82%BA%E7%82%8E/10974126", "lemmaPic": []}, {"lemmaId": 8807191, "lemmaTitle": "锁骨下动脉盗血综合征", "lemmaCroppedTitle": "锁骨下动脉盗血综合征", "lemmaDesc": "锁骨下动脉盗血综合征是指在锁骨下动脉或头臂干的椎动脉起始处的近心段有部分的或完全...", "lemmaUrl": "http://baike.baidu.com/item/%E9%94%81%E9%AA%A8%E4%B8%8B%E5%8A%A8%E8%84%89%E7%9B%97%E8%A1%80%E7%BB%BC%E5%90%88%E5%BE%81/8807191", "lemmaPic": []}, {"lemmaId": 10490993, "lemmaTitle": "急性闭角型青光眼", "lemmaCroppedTitle": "急性闭角型青光眼", "lemmaDesc": "急性闭角型青光眼是由于前房角突然关闭而引起眼压（IOP）急剧升高的眼病，发病机制...", "lemmaUrl": "http://baike.baidu.com/item/%E6%80%A5%E6%80%A7%E9%97%AD%E8%A7%92%E5%9E%8B%E9%9D%92%E5%85%89%E7%9C%BC/10490993", "lemmaPic": []}, {"lemmaId": 7995502, "lemmaTitle": "变异型心绞痛", "lemmaCroppedTitle": "变异型心绞痛", "lemmaDesc": "变异型心绞痛为自发性心绞痛的一种。1959年，Prinzmetal等将冠状动脉痉...", "lemmaUrl": "http://baike.baidu.com/item/%E5%8F%98%E5%BC%82%E5%9E%8B%E5%BF%83%E7%BB%9E%E7%97%9B/7995502", "lemmaPic": []}, {"lemmaId": 806277, "lemmaTitle": "奔豚气", "lemmaCroppedTitle": "奔豚气", "lemmaDesc": "奔豚气属内科病证，是指患者自觉有气从少腹上冲胸咽的一种病证。由于气冲如豚之奔突，...", "lemmaUrl": "http://baike.baidu.com/item/%E5%A5%94%E8%B1%9A%E6%B0%94/806277", "lemmaPic": []}, {"lemmaId": 2591036, "lemmaTitle": "耳针", "lemmaCroppedTitle": "耳针", "lemmaDesc": "耳针是指使用短毫针针刺或其他方法刺激耳穴，以诊治疾病的一种方法。耳郭与人体各部存...", "lemmaUrl": "http://baike.baidu.com/item/%E8%80%B3%E9%92%88/2591036", "lemmaPic": []}, {"lemmaId": 10843354, "lemmaTitle": "噎膈", "lemmaCroppedTitle": "噎膈", "lemmaDesc": "中医病名，噎膈是指食物吞咽受阻，或食入即吐的一种疾病。多见于高龄男性。噎与膈有轻...", "lemmaUrl": "http://baike.baidu.com/item/%E5%99%8E%E8%86%88/10843354", "lemmaPic": []}, {"lemmaId": 9048652, "lemmaTitle": "泪腺炎", "lemmaCroppedTitle": "泪腺炎", "lemmaDesc": "泪腺炎是由于感染或特发性炎症使泪腺在短期内出现急性红肿、增大等。常并发于麻疹、流...", "lemmaUrl": "http://baike.baidu.com/item/%E6%B3%AA%E8%85%BA%E7%82%8E/9048652", "lemmaPic": []}, {"lemmaId": 2067023, "lemmaTitle": "宫颈浸润癌", "lemmaCroppedTitle": "宫颈浸润癌", "lemmaDesc": "宫颈浸润癌是发生于子宫颈上皮的恶性肿瘤。我国宫颈浸润癌死亡率居恶性肿瘤死亡的第7...", "lemmaUrl": "http://baike.baidu.com/item/%E5%AE%AB%E9%A2%88%E6%B5%B8%E6%B6%A6%E7%99%8C/2067023", "lemmaPic": []}, {"lemmaId": 10219853, "lemmaTitle": "军团菌病", "lemmaCroppedTitle": "军团菌病", "lemmaDesc": "军团菌病是由军团菌属细菌引起的临床综合征。1976年美国费城召开退伍军人大会时暴...", "lemmaUrl": "http://baike.baidu.com/item/%E5%86%9B%E5%9B%A2%E8%8F%8C%E7%97%85/10219853", "lemmaPic": []}, {"lemmaId": 2252988, "lemmaTitle": "急性心包炎", "lemmaCroppedTitle": "急性心包炎", "lemmaDesc": "急性心包炎是由心包脏层和壁层急性炎症引起的综合征。临床特征包括胸痛、心包摩擦音和...", "lemmaUrl": "http://baike.baidu.com/item/%E6%80%A5%E6%80%A7%E5%BF%83%E5%8C%85%E7%82%8E/2252988", "lemmaPic": []}, {"lemmaId": 2843205, "lemmaTitle": "会阴裂伤", "lemmaCroppedTitle": "会阴裂伤", "lemmaDesc": "会阴裂伤分为三度。其中I度、Ⅱ度会阴裂伤比较表浅，出血较少，经正确缝合后，大都愈...", "lemmaUrl": "http://baike.baidu.com/item/%E4%BC%9A%E9%98%B4%E8%A3%82%E4%BC%A4/2843205", "lemmaPic": []}, {"lemmaId": 3416193, "lemmaTitle": "出生缺陷", "lemmaCroppedTitle": "出生缺陷", "lemmaDesc": "“出生缺陷”，即通俗所言之“先天性畸形”，是指婴儿出生前发生的身体结构、功能或代...", "lemmaUrl": "http://baike.baidu.com/item/%E5%87%BA%E7%94%9F%E7%BC%BA%E9%99%B7/3416193", "lemmaPic": []}, {"lemmaId": 8379291, "lemmaTitle": "十二指肠类癌", "lemmaCroppedTitle": "十二指肠类癌", "lemmaDesc": "十二指肠类癌起源于肠道的Kultschitzsky细胞（肠嗜铬细胞）,能产生多种...", "lemmaUrl": "http://baike.baidu.com/item/%E5%8D%81%E4%BA%8C%E6%8C%87%E8%82%A0%E7%B1%BB%E7%99%8C/8379291", "lemmaPic": []}, {"lemmaId": 1120941, "lemmaTitle": "小儿肛裂", "lemmaCroppedTitle": "小儿肛裂", "lemmaDesc": "肛裂可发生于任何年龄，是肛管齿状线以下深及全层的皮肤裂。大多数位于肛管后方正中线...", "lemmaUrl": "http://baike.baidu.com/item/%E5%B0%8F%E5%84%BF%E8%82%9B%E8%A3%82/1120941", "lemmaPic": []}, {"lemmaId": 268071, "lemmaTitle": "风瘫", "lemmaCroppedTitle": "风瘫", "lemmaDesc": "病名。江天览《妇女病自疗法》：“（风瘫）一名产痿，系冲任血虚，心脾失养，故宗筋放...", "lemmaUrl": "http://baike.baidu.com/item/%E9%A3%8E%E7%98%AB/268071", "lemmaPic": []}, {"lemmaId": 8372544, "lemmaTitle": "肠痈", "lemmaCroppedTitle": "肠痈", "lemmaDesc": "肠痈，疾病名。痈疽之发肠部者。出《素问・厥论》。肠痈为外科常见急腹症，属急腹症范...", "lemmaUrl": "http://baike.baidu.com/item/%E8%82%A0%E7%97%88/8372544", "lemmaPic": []}, {"lemmaId": 2049313, "lemmaTitle": "耳带状疱疹", "lemmaCroppedTitle": "耳带状疱疹", "lemmaDesc": "耳带状疱疹因在1907年由Ramsey Hunt首先描述，故又称为Ramsey ...", "lemmaUrl": "http://baike.baidu.com/item/%E8%80%B3%E5%B8%A6%E7%8A%B6%E7%96%B1%E7%96%B9/2049313", "lemmaPic": []}, {"lemmaId": 10724737, "lemmaTitle": "脊髓压迫症", "lemmaCroppedTitle": "脊髓压迫症", "lemmaDesc": "脊髓压迫症是一组具有占位效应的椎管内病变。脊髓受压后的变化与受压迫的部位、外界压...", "lemmaUrl": "http://baike.baidu.com/item/%E8%84%8A%E9%AB%93%E5%8E%8B%E8%BF%AB%E7%97%87/10724737", "lemmaPic": []}, {"lemmaId": 5359177, "lemmaTitle": "过敏性肺炎", "lemmaCroppedTitle": "过敏性肺炎", "lemmaDesc": "过敏性肺炎（外源性过敏性肺泡炎）是易感人群反复吸入各种具有抗原性的有机粉尘、低分...", "lemmaUrl": "http://baike.baidu.com/item/%E8%BF%87%E6%95%8F%E6%80%A7%E8%82%BA%E7%82%8E/5359177", "lemmaPic": []}], "total": 7246, "totalPage": 73, "page": 21, "fromLemma": 0}