{"lemmaList": [{"lemmaId": 796832, "lemmaTitle": "肺血吸虫病", "lemmaCroppedTitle": "肺血吸虫病", "lemmaDesc": "肺血吸虫病是由于血吸虫的幼虫或成虫在肺内移行、发育、寄生，或其虫卵在肺组织内沉着...", "lemmaUrl": "http://baike.baidu.com/item/%E8%82%BA%E8%A1%80%E5%90%B8%E8%99%AB%E7%97%85/796832", "lemmaPic": []}, {"lemmaId": 515608, "lemmaTitle": "锡尘肺", "lemmaCroppedTitle": "锡尘肺", "lemmaDesc": "锡尘肺主要是由于金属粉尘是指较长时间悬浮在空气中的金属及其化合物的微小固体颗粒，...", "lemmaUrl": "http://baike.baidu.com/item/%E9%94%A1%E5%B0%98%E8%82%BA/515608", "lemmaPic": []}, {"lemmaId": 4670861, "lemmaTitle": "肠侵袭性大肠埃希杆菌感染", "lemmaCroppedTitle": "肠侵袭性大肠埃希杆菌感染", "lemmaDesc": "肠侵袭性大肠埃希杆菌（EIEC）首先于1967年日本报告自患痢疾样腹泻的年长儿童...", "lemmaUrl": "http://baike.baidu.com/item/%E8%82%A0%E4%BE%B5%E8%A2%AD%E6%80%A7%E5%A4%A7%E8%82%A0%E5%9F%83%E5%B8%8C%E6%9D%86%E8%8F%8C%E6%84%9F%E6%9F%93/4670861", "lemmaPic": []}, {"lemmaId": 895856, "lemmaTitle": "耳源性脑积水", "lemmaCroppedTitle": "耳源性脑积水", "lemmaDesc": "耳源性脑积水大多属于交通性脑积水，为脑室―蛛网膜下腔通路内脑脊液增多。临床上以颅...", "lemmaUrl": "http://baike.baidu.com/item/%E8%80%B3%E6%BA%90%E6%80%A7%E8%84%91%E7%A7%AF%E6%B0%B4/895856", "lemmaPic": []}, {"lemmaId": 1023979, "lemmaTitle": "酒精中毒性肌病", "lemmaCroppedTitle": "酒精中毒性肌病", "lemmaDesc": "酒精中毒性肌病是指由酒精中毒引起的发病机制不明的一种肌肉病变，又称酒精性肌病。临...", "lemmaUrl": "http://baike.baidu.com/item/%E9%85%92%E7%B2%BE%E4%B8%AD%E6%AF%92%E6%80%A7%E8%82%8C%E7%97%85/1023979", "lemmaPic": []}, {"lemmaId": 2591300, "lemmaTitle": "眼异物伤", "lemmaCroppedTitle": "眼异物伤", "lemmaDesc": "眼的异物伤比较常见，根据异物的性质可分为金属异物和非金属异物两类。大多数异物为铁...", "lemmaUrl": "http://baike.baidu.com/item/%E7%9C%BC%E5%BC%82%E7%89%A9%E4%BC%A4/2591300", "lemmaPic": []}, {"lemmaId": 2732630, "lemmaTitle": "阴道上皮内瘤样变", "lemmaCroppedTitle": "阴道上皮内瘤样变", "lemmaDesc": "阴道上皮内瘤样变（VAIN）是指局限于阴道上皮层内的不同程度的不典型增生病灶，是...", "lemmaUrl": "http://baike.baidu.com/item/%E9%98%B4%E9%81%93%E4%B8%8A%E7%9A%AE%E5%86%85%E7%98%A4%E6%A0%B7%E5%8F%98/2732630", "lemmaPic": []}, {"lemmaId": 6473404, "lemmaTitle": "HUGHES-STOVIN综合征", "lemmaCroppedTitle": "HUGHES-STOVIN综合征", "lemmaDesc": "Hughes-Stovin综合征又称肺动脉栓塞综合征，系指在肺动脉瘤的基础上，尚...", "lemmaUrl": "http://baike.baidu.com/item/HUGHES-STOVIN%E7%BB%BC%E5%90%88%E5%BE%81/6473404", "lemmaPic": []}, {"lemmaId": 4538720, "lemmaTitle": "先天性冠状动脉瘘", "lemmaCroppedTitle": "先天性冠状动脉瘘", "lemmaDesc": "先天性冠状动脉瘘为冠状动脉与心腔或管腔间存在异常交通形成的短路。由于心导管和选择...", "lemmaUrl": "http://baike.baidu.com/item/%E5%85%88%E5%A4%A9%E6%80%A7%E5%86%A0%E7%8A%B6%E5%8A%A8%E8%84%89%E7%98%98/4538720", "lemmaPic": []}, {"lemmaId": 8713877, "lemmaTitle": "心室静止", "lemmaCroppedTitle": "心室静止", "lemmaDesc": "心室静止亦称心室停搏，是指房室交接区停搏合并室性停搏。此时心房有收缩，两心室的机...", "lemmaUrl": "http://baike.baidu.com/item/%E5%BF%83%E5%AE%A4%E9%9D%99%E6%AD%A2/8713877", "lemmaPic": []}, {"lemmaId": 1008885, "lemmaTitle": "紫绀-杵状指-肝病综合征", "lemmaCroppedTitle": "紫绀-杵状指-肝病综合征", "lemmaDesc": "发绀-杵状指-肝病综合征又名Fluckiger综合征、紫绀-杵状指-肝病综合征。...", "lemmaUrl": "http://baike.baidu.com/item/%E7%B4%AB%E7%BB%80-%E6%9D%B5%E7%8A%B6%E6%8C%87-%E8%82%9D%E7%97%85%E7%BB%BC%E5%90%88%E5%BE%81/1008885", "lemmaPic": []}, {"lemmaId": 9634071, "lemmaTitle": "多发性骨骺发育异常", "lemmaCroppedTitle": "多发性骨骺发育异常", "lemmaDesc": "多发性骨骺发育异常，亦称Fairbank病或多发性骨骺成骨不全，是一种少见的遗传...", "lemmaUrl": "http://baike.baidu.com/item/%E5%A4%9A%E5%8F%91%E6%80%A7%E9%AA%A8%E9%AA%BA%E5%8F%91%E8%82%B2%E5%BC%82%E5%B8%B8/9634071", "lemmaPic": []}, {"lemmaId": 5487648, "lemmaTitle": "老年人甲状腺癌", "lemmaCroppedTitle": "老年人甲状腺癌", "lemmaDesc": "甲状腺癌是头颈部比较常见的恶性肿瘤，占全身恶性肿瘤的1%～2%。甲状腺癌的预后比...", "lemmaUrl": "http://baike.baidu.com/item/%E8%80%81%E5%B9%B4%E4%BA%BA%E7%94%B2%E7%8A%B6%E8%85%BA%E7%99%8C/5487648", "lemmaPic": []}, {"lemmaId": 429654, "lemmaTitle": "后牙反牙合", "lemmaCroppedTitle": "后牙反牙合", "lemmaDesc": "后牙反牙合可发生在乳牙期或恒牙期，有个别后牙反牙合，也有多数后牙反牙合；可发生在...", "lemmaUrl": "http://baike.baidu.com/item/%E5%90%8E%E7%89%99%E5%8F%8D%E7%89%99%E5%90%88/429654", "lemmaPic": []}, {"lemmaId": 5214705, "lemmaTitle": "小儿自身免疫性溶血性贫血", "lemmaCroppedTitle": "小儿自身免疫性溶血性贫血", "lemmaDesc": "小儿自身免疫性溶血性贫血是临床上比较常见的一种疾病，自身免疫性溶血性贫血（AIH...", "lemmaUrl": "http://baike.baidu.com/item/%E5%B0%8F%E5%84%BF%E8%87%AA%E8%BA%AB%E5%85%8D%E7%96%AB%E6%80%A7%E6%BA%B6%E8%A1%80%E6%80%A7%E8%B4%AB%E8%A1%80/5214705", "lemmaPic": []}, {"lemmaId": 474713, "lemmaTitle": "小肠结肠炎耶尔森氏菌肺炎", "lemmaCroppedTitle": "小肠结肠炎耶尔森氏菌肺炎", "lemmaDesc": "由小肠结肠炎耶尔森菌引起的感染，大部分累及胃肠道，引起自限性胃肠炎或肠系膜和末端...", "lemmaUrl": "http://baike.baidu.com/item/%E5%B0%8F%E8%82%A0%E7%BB%93%E8%82%A0%E7%82%8E%E8%80%B6%E5%B0%94%E6%A3%AE%E6%B0%8F%E8%8F%8C%E8%82%BA%E7%82%8E/474713", "lemmaPic": []}, {"lemmaId": 9327660, "lemmaTitle": "皲裂疮", "lemmaCroppedTitle": "皲裂疮", "lemmaDesc": "皲裂疮是发生于手足部的皮肤干燥粗糙，继而出现裂口的一种病症，多发于冬季，常见于成...", "lemmaUrl": "http://baike.baidu.com/item/%E7%9A%B2%E8%A3%82%E7%96%AE/9327660", "lemmaPic": []}, {"lemmaId": 1987644, "lemmaTitle": "亚临床型克汀病", "lemmaCroppedTitle": "亚临床型克汀病", "lemmaDesc": "亚临床型克汀病（亚克汀）是一种由缺碘引起的极轻型的疾病，常以轻度智力落后为主要特...", "lemmaUrl": "http://baike.baidu.com/item/%E4%BA%9A%E4%B8%B4%E5%BA%8A%E5%9E%8B%E5%85%8B%E6%B1%80%E7%97%85/1987644", "lemmaPic": []}, {"lemmaId": 10110696, "lemmaTitle": "闭合性脊髓损伤", "lemmaCroppedTitle": "闭合性脊髓损伤", "lemmaDesc": "闭合性脊髓损伤系指脊柱骨折或脱位造成的脊髓或马尾神经受压、水肿、出血、挫伤或断裂...", "lemmaUrl": "http://baike.baidu.com/item/%E9%97%AD%E5%90%88%E6%80%A7%E8%84%8A%E9%AB%93%E6%8D%9F%E4%BC%A4/10110696", "lemmaPic": []}, {"lemmaId": 5895717, "lemmaTitle": "恶性高血压性小动脉性肾硬化", "lemmaCroppedTitle": "恶性高血压性小动脉性肾硬化", "lemmaDesc": "恶性高血压性小动脉性肾硬化主要表现在肾小动脉坏死，增生性动脉内膜炎和肾小球纤维蛋...", "lemmaUrl": "http://baike.baidu.com/item/%E6%81%B6%E6%80%A7%E9%AB%98%E8%A1%80%E5%8E%8B%E6%80%A7%E5%B0%8F%E5%8A%A8%E8%84%89%E6%80%A7%E8%82%BE%E7%A1%AC%E5%8C%96/5895717", "lemmaPic": []}, {"lemmaId": 8531732, "lemmaTitle": "外伤后低颅压综合征", "lemmaCroppedTitle": "外伤后低颅压综合征", "lemmaDesc": "正常颅内压的范围，由腰椎穿刺测定应在7.84～11.8kPa（80～120mmH...", "lemmaUrl": "http://baike.baidu.com/item/%E5%A4%96%E4%BC%A4%E5%90%8E%E4%BD%8E%E9%A2%85%E5%8E%8B%E7%BB%BC%E5%90%88%E5%BE%81/8531732", "lemmaPic": []}, {"lemmaId": 2017663, "lemmaTitle": "弹性假黄瘤", "lemmaCroppedTitle": "弹性假黄瘤", "lemmaDesc": "\t\t\t   \t\t\t弹性假黄瘤是ABCC6基因突变导致结缔组织中弹性纤维断裂、钙化...", "lemmaUrl": "http://baike.baidu.com/item/%E5%BC%B9%E6%80%A7%E5%81%87%E9%BB%84%E7%98%A4/2017663", "lemmaPic": []}, {"lemmaId": 4539645, "lemmaTitle": "进行性面偏侧萎缩症", "lemmaCroppedTitle": "进行性面偏侧萎缩症", "lemmaDesc": "进行性面偏侧萎缩症，有时简称偏侧萎缩症，又称Pary\Romberg综合征，为一...", "lemmaUrl": "http://baike.baidu.com/item/%E8%BF%9B%E8%A1%8C%E6%80%A7%E9%9D%A2%E5%81%8F%E4%BE%A7%E8%90%8E%E7%BC%A9%E7%97%87/4539645", "lemmaPic": []}, {"lemmaId": 13883815, "lemmaTitle": "烧伤与烫伤", "lemmaCroppedTitle": "烧伤与烫伤", "lemmaDesc": "烧伤和烫伤是生活中比较常见的情况，它们随时都可以发生在人们身边。轻者给患者带来痛...", "lemmaUrl": "http://baike.baidu.com/item/%E7%83%A7%E4%BC%A4%E4%B8%8E%E7%83%AB%E4%BC%A4/13883815", "lemmaPic": []}, {"lemmaId": 7254658, "lemmaTitle": "移行脊椎", "lemmaCroppedTitle": "移行脊椎", "lemmaDesc": "移行脊椎系脊柱先天性发育变异，各段脊柱交界处互有移行现象，出现部分或全部具有邻近...", "lemmaUrl": "http://baike.baidu.com/item/%E7%A7%BB%E8%A1%8C%E8%84%8A%E6%A4%8E/7254658", "lemmaPic": []}, {"lemmaId": 3498251, "lemmaTitle": "眼眶非霍奇金恶性淋巴瘤", "lemmaCroppedTitle": "眼眶非霍奇金恶性淋巴瘤", "lemmaDesc": "非霍奇金淋巴瘤是一组恶性程度不等的淋巴细胞肿瘤。按细胞形态分化和分布可分为十余个...", "lemmaUrl": "http://baike.baidu.com/item/%E7%9C%BC%E7%9C%B6%E9%9D%9E%E9%9C%8D%E5%A5%87%E9%87%91%E6%81%B6%E6%80%A7%E6%B7%8B%E5%B7%B4%E7%98%A4/3498251", "lemmaPic": []}, {"lemmaId": 5102399, "lemmaTitle": "眼眶肉瘤", "lemmaCroppedTitle": "眼眶肉瘤", "lemmaDesc": "眼眶肉瘤在眼眶肿瘤中的发病率居第四位。儿童患者中以横纹肌肉瘤为最多见，成年患者则...", "lemmaUrl": "http://baike.baidu.com/item/%E7%9C%BC%E7%9C%B6%E8%82%89%E7%98%A4/5102399", "lemmaPic": []}, {"lemmaId": 9916487, "lemmaTitle": "肝棘球蚴病", "lemmaCroppedTitle": "肝棘球蚴病", "lemmaDesc": "肝棘球蚴病是牧区较常见的寄生虫，也称肝包虫病。在中国主要流行于畜牧业发达的新疆、...", "lemmaUrl": "http://baike.baidu.com/item/%E8%82%9D%E6%A3%98%E7%90%83%E8%9A%B4%E7%97%85/9916487", "lemmaPic": []}, {"lemmaId": 843634, "lemmaTitle": "脊椎结核并发窦道", "lemmaCroppedTitle": "脊椎结核并发窦道", "lemmaDesc": "脊椎结核并发窦道是脊椎结核严重而常见的并发症之一,常见于髂窝，其次为腰上三角。", "lemmaUrl": "http://baike.baidu.com/item/%E8%84%8A%E6%A4%8E%E7%BB%93%E6%A0%B8%E5%B9%B6%E5%8F%91%E7%AA%A6%E9%81%93/843634", "lemmaPic": []}, {"lemmaId": 2637846, "lemmaTitle": "眼眶骨瘤", "lemmaCroppedTitle": "眼眶骨瘤", "lemmaDesc": "眼眶骨瘤多发于鼻窦软骨和膜状骨交界的骨缝处，肿瘤生长侵入眼眶。青少年时期骨瘤生长...", "lemmaUrl": "http://baike.baidu.com/item/%E7%9C%BC%E7%9C%B6%E9%AA%A8%E7%98%A4/2637846", "lemmaPic": []}, {"lemmaId": 4468691, "lemmaTitle": "脊髓内脓肿", "lemmaCroppedTitle": "脊髓内脓肿", "lemmaDesc": "脊髓内脓肿是少见的腔隙性、化脓性中枢神经系统感染，其成因与脑脓肿相似，感染性渗出...", "lemmaUrl": "http://baike.baidu.com/item/%E8%84%8A%E9%AB%93%E5%86%85%E8%84%93%E8%82%BF/4468691", "lemmaPic": []}, {"lemmaId": 895749, "lemmaTitle": "硬脑膜下脓肿", "lemmaCroppedTitle": "硬脑膜下脓肿", "lemmaDesc": "硬脑膜下脓肿是指颅内发生化脓性感染后脓液聚积于硬脑膜和蛛网膜之间的硬脑膜下腔，由...", "lemmaUrl": "http://baike.baidu.com/item/%E7%A1%AC%E8%84%91%E8%86%9C%E4%B8%8B%E8%84%93%E8%82%BF/895749", "lemmaPic": []}, {"lemmaId": 6000579, "lemmaTitle": "狂病", "lemmaCroppedTitle": "狂病", "lemmaDesc": "狂病多因五志过极，或先天遗传所致，以痰火瘀血，闭塞心窍，神机错乱为基本病机，临床...", "lemmaUrl": "http://baike.baidu.com/item/%E7%8B%82%E7%97%85/6000579", "lemmaPic": []}, {"lemmaId": 1163543, "lemmaTitle": "皮肤丝虫病", "lemmaCroppedTitle": "皮肤丝虫病", "lemmaDesc": "丝虫病是由于丝虫寄生于人体淋巴系统而引起的一种慢性传染病。通过蚊虫传播，蚊是中间...", "lemmaUrl": "http://baike.baidu.com/item/%E7%9A%AE%E8%82%A4%E4%B8%9D%E8%99%AB%E7%97%85/1163543", "lemmaPic": []}, {"lemmaId": 3071590, "lemmaTitle": "委内瑞拉马脑炎", "lemmaCroppedTitle": "委内瑞拉马脑炎", "lemmaDesc": "委内瑞拉马脑炎（Venezuelan equine encephalitis）是...", "lemmaUrl": "http://baike.baidu.com/item/%E5%A7%94%E5%86%85%E7%91%9E%E6%8B%89%E9%A9%AC%E8%84%91%E7%82%8E/3071590", "lemmaPic": []}, {"lemmaId": 4347910, "lemmaTitle": "小螺菌感染", "lemmaCroppedTitle": "小螺菌感染", "lemmaDesc": "鼠咬热小螺菌是1887年Carter氏在印度于家鼠血液中发现，命名为小螺旋菌。1...", "lemmaUrl": "http://baike.baidu.com/item/%E5%B0%8F%E8%9E%BA%E8%8F%8C%E6%84%9F%E6%9F%93/4347910", "lemmaPic": []}, {"lemmaId": 4537356, "lemmaTitle": "羰基镍中毒", "lemmaCroppedTitle": "羰基镍中毒", "lemmaDesc": "羰基镍中毒是吸入高浓度羰基镍引起以呼吸系统损害为主的疾病。患者首先出现头痛、眩晕...", "lemmaUrl": "http://baike.baidu.com/item/%E7%BE%B0%E5%9F%BA%E9%95%8D%E4%B8%AD%E6%AF%92/4537356", "lemmaPic": []}, {"lemmaId": 7253085, "lemmaTitle": "老年人正常压力脑积水", "lemmaCroppedTitle": "老年人正常压力脑积水", "lemmaDesc": "正常颅压脑积水(SNPH)是发生在成人的一种慢性脑积水，脑室扩大但脑压正常&am...", "lemmaUrl": "http://baike.baidu.com/item/%E8%80%81%E5%B9%B4%E4%BA%BA%E6%AD%A3%E5%B8%B8%E5%8E%8B%E5%8A%9B%E8%84%91%E7%A7%AF%E6%B0%B4/7253085", "lemmaPic": []}, {"lemmaId": 9277527, "lemmaTitle": "贝赫切特病", "lemmaCroppedTitle": "贝赫切特病", "lemmaDesc": "贝赫切特病于1937年土耳其眼科医师Behcet首先报道的一组以口腔溃疡、生殖器...", "lemmaUrl": "http://baike.baidu.com/item/%E8%B4%9D%E8%B5%AB%E5%88%87%E7%89%B9%E7%97%85/9277527", "lemmaPic": []}, {"lemmaId": 2937964, "lemmaTitle": "恶性小汗腺汗孔瘤", "lemmaCroppedTitle": "恶性小汗腺汗孔瘤", "lemmaDesc": "恶性小汗腺汗孔瘤又称汗孔癌，发生于长期存在的小汗腺汗孔瘤（50%），但亦可原发。...", "lemmaUrl": "http://baike.baidu.com/item/%E6%81%B6%E6%80%A7%E5%B0%8F%E6%B1%97%E8%85%BA%E6%B1%97%E5%AD%94%E7%98%A4/2937964", "lemmaPic": []}, {"lemmaId": 4660872, "lemmaTitle": "常染色体隐性遗传性脑动脉病及动脉硬化伴皮质下梗死及白质脑病", "lemmaCroppedTitle": "常染色体隐性遗传性脑动脉病及动脉硬化伴皮质下梗死及白质脑病", "lemmaDesc": "常染色体隐性遗传性脑动脉病及动脉硬化伴皮质下梗死及白质脑病(CARASIL)或称...", "lemmaUrl": "http://baike.baidu.com/item/%E5%B8%B8%E6%9F%93%E8%89%B2%E4%BD%93%E9%9A%90%E6%80%A7%E9%81%97%E4%BC%A0%E6%80%A7%E8%84%91%E5%8A%A8%E8%84%89%E7%97%85%E5%8F%8A%E5%8A%A8%E8%84%89%E7%A1%AC%E5%8C%96%E4%BC%B4%E7%9A%AE%E8%B4%A8%E4%B8%8B%E6%A2%97%E6%AD%BB%E5%8F%8A%E7%99%BD%E8%B4%A8%E8%84%91%E7%97%85/4660872", "lemmaPic": []}, {"lemmaId": 4664120, "lemmaTitle": "瘰疬性皮肤结核病", "lemmaCroppedTitle": "瘰疬性皮肤结核病", "lemmaDesc": "又称液化性皮肤结核或皮肤腺病，是结核杆菌所致的皮肤病变。多由淋巴结结核、骨和关节...", "lemmaUrl": "http://baike.baidu.com/item/%E7%98%B0%E7%96%AC%E6%80%A7%E7%9A%AE%E8%82%A4%E7%BB%93%E6%A0%B8%E7%97%85/4664120", "lemmaPic": []}, {"lemmaId": 4657157, "lemmaTitle": "卵巢恶性腹膜间皮瘤", "lemmaCroppedTitle": "卵巢恶性腹膜间皮瘤", "lemmaDesc": "卵巢恶性腹膜间皮瘤是比较罕见的肿瘤，它起源于间皮细胞或间皮下一种比较原始的先驱细...", "lemmaUrl": "http://baike.baidu.com/item/%E5%8D%B5%E5%B7%A2%E6%81%B6%E6%80%A7%E8%85%B9%E8%86%9C%E9%97%B4%E7%9A%AE%E7%98%A4/4657157", "lemmaPic": []}, {"lemmaId": 9472832, "lemmaTitle": "特发性低促性腺激素性性腺功能减退症", "lemmaCroppedTitle": "特发性低促性腺激素性性腺功能减退症", "lemmaDesc": "特发性低促性腺激素性性腺功能减退（IHH）是下丘脑促性腺激素释放激素（GnRH）...", "lemmaUrl": "http://baike.baidu.com/item/%E7%89%B9%E5%8F%91%E6%80%A7%E4%BD%8E%E4%BF%83%E6%80%A7%E8%85%BA%E6%BF%80%E7%B4%A0%E6%80%A7%E6%80%A7%E8%85%BA%E5%8A%9F%E8%83%BD%E5%87%8F%E9%80%80%E7%97%87/9472832", "lemmaPic": []}, {"lemmaId": 221701, "lemmaTitle": "胃肠道外瘘", "lemmaCroppedTitle": "胃肠道外瘘", "lemmaDesc": "胃肠道外瘘是腹部外科严重并发症之一，由于创伤、手术损伤、严重腹腔感染，慢性肠道炎...", "lemmaUrl": "http://baike.baidu.com/item/%E8%83%83%E8%82%A0%E9%81%93%E5%A4%96%E7%98%98/221701", "lemmaPic": []}, {"lemmaId": 3044634, "lemmaTitle": "小儿肌阵挛性癫痫", "lemmaCroppedTitle": "小儿肌阵挛性癫痫", "lemmaDesc": "小儿肌阵挛性癫痫即Lennox综合征，是一种与年龄有关的隐源性或症状性全身性癫痫...", "lemmaUrl": "http://baike.baidu.com/item/%E5%B0%8F%E5%84%BF%E8%82%8C%E9%98%B5%E6%8C%9B%E6%80%A7%E7%99%AB%E7%97%AB/3044634", "lemmaPic": []}, {"lemmaId": 8605576, "lemmaTitle": "婴幼儿上颌骨骨髓炎", "lemmaCroppedTitle": "婴幼儿上颌骨骨髓炎", "lemmaDesc": "婴幼儿的上颌骨血运丰富，血管分支细，血流缓慢，细菌易于停留。在各种致病因素的作用...", "lemmaUrl": "http://baike.baidu.com/item/%E5%A9%B4%E5%B9%BC%E5%84%BF%E4%B8%8A%E9%A2%8C%E9%AA%A8%E9%AA%A8%E9%AB%93%E7%82%8E/8605576", "lemmaPic": []}, {"lemmaId": 6066357, "lemmaTitle": "静止性淋巴细胞性甲状腺炎", "lemmaCroppedTitle": "静止性淋巴细胞性甲状腺炎", "lemmaDesc": "静止性淋巴细胞性甲状腺炎是亚急性病变，多发生于产后期妇女。产后甲状腺功能紊乱多数...", "lemmaUrl": "http://baike.baidu.com/item/%E9%9D%99%E6%AD%A2%E6%80%A7%E6%B7%8B%E5%B7%B4%E7%BB%86%E8%83%9E%E6%80%A7%E7%94%B2%E7%8A%B6%E8%85%BA%E7%82%8E/6066357", "lemmaPic": []}, {"lemmaId": 4955595, "lemmaTitle": "宾斯旺格病", "lemmaCroppedTitle": "宾斯旺格病", "lemmaDesc": "宾斯旺格病又称皮质下动脉硬化性脑病，是一种较为常见的小血管性痴呆，有明显的高血压...", "lemmaUrl": "http://baike.baidu.com/item/%E5%AE%BE%E6%96%AF%E6%97%BA%E6%A0%BC%E7%97%85/4955595", "lemmaPic": []}, {"lemmaId": 3366143, "lemmaTitle": "黄杆菌肺炎", "lemmaCroppedTitle": "黄杆菌肺炎", "lemmaDesc": "黄杆菌（flavobacterium）引起的肺炎称黄杆菌肺炎。黄杆菌也可导致脑膜...", "lemmaUrl": "http://baike.baidu.com/item/%E9%BB%84%E6%9D%86%E8%8F%8C%E8%82%BA%E7%82%8E/3366143", "lemmaPic": []}, {"lemmaId": 12676777, "lemmaTitle": "老年人椎基底动脉供血不足", "lemmaCroppedTitle": "老年人椎基底动脉供血不足", "lemmaDesc": "本病常见于中老年人，由于小脑及脑干依靠椎-基底动脉的供血，当椎-基动脉发生病变时...", "lemmaUrl": "http://baike.baidu.com/item/%E8%80%81%E5%B9%B4%E4%BA%BA%E6%A4%8E%E5%9F%BA%E5%BA%95%E5%8A%A8%E8%84%89%E4%BE%9B%E8%A1%80%E4%B8%8D%E8%B6%B3/12676777", "lemmaPic": []}, {"lemmaId": 12428934, "lemmaTitle": "小儿系统性红斑狼疮", "lemmaCroppedTitle": "小儿系统性红斑狼疮", "lemmaDesc": "系统性红斑狼疮（SLE）是一种累及多系统的自身免疫性疾病，特征为广泛的血管炎和结...", "lemmaUrl": "http://baike.baidu.com/item/%E5%B0%8F%E5%84%BF%E7%B3%BB%E7%BB%9F%E6%80%A7%E7%BA%A2%E6%96%91%E7%8B%BC%E7%96%AE/12428934", "lemmaPic": []}, {"lemmaId": 2095789, "lemmaTitle": "老年人肺脓肿", "lemmaCroppedTitle": "老年人肺脓肿", "lemmaDesc": "肺脓肿是中央含有空腔的、局限的肺化脓性及坏死性病变，可由多种化脓性细菌引起，临床...", "lemmaUrl": "http://baike.baidu.com/item/%E8%80%81%E5%B9%B4%E4%BA%BA%E8%82%BA%E8%84%93%E8%82%BF/2095789", "lemmaPic": []}, {"lemmaId": 8410182, "lemmaTitle": "表皮葡萄球菌肺炎", "lemmaCroppedTitle": "表皮葡萄球菌肺炎", "lemmaDesc": "表皮葡萄球菌（SE）是凝固酶阴性葡萄球菌中的一种，它可以引致肺炎。可致菌血症合并...", "lemmaUrl": "http://baike.baidu.com/item/%E8%A1%A8%E7%9A%AE%E8%91%A1%E8%90%84%E7%90%83%E8%8F%8C%E8%82%BA%E7%82%8E/8410182", "lemmaPic": []}, {"lemmaId": 768569, "lemmaTitle": "无脊髓损伤的颈椎骨折脱位", "lemmaCroppedTitle": "无脊髓损伤的颈椎骨折脱位", "lemmaDesc": "各种暴力作用造成颈椎骨折脱位，通常合并不同程度和类型的脊髓损伤。但是，某些十分严...", "lemmaUrl": "http://baike.baidu.com/item/%E6%97%A0%E8%84%8A%E9%AB%93%E6%8D%9F%E4%BC%A4%E7%9A%84%E9%A2%88%E6%A4%8E%E9%AA%A8%E6%8A%98%E8%84%B1%E4%BD%8D/768569", "lemmaPic": []}, {"lemmaId": 2523336, "lemmaTitle": "肝紫癜病", "lemmaCroppedTitle": "肝紫癜病", "lemmaDesc": "肝紫癜病是一种较少见的肝脏良性病变，表现为肝脏多发的大小不等的充满血液的囊腔。本...", "lemmaUrl": "http://baike.baidu.com/item/%E8%82%9D%E7%B4%AB%E7%99%9C%E7%97%85/2523336", "lemmaPic": []}, {"lemmaId": 844070, "lemmaTitle": "周围性软骨肉瘤", "lemmaCroppedTitle": "周围性软骨肉瘤", "lemmaDesc": "周围性软骨肉瘤指来源于骨的外面又侵犯到骨的软骨肉瘤。发病率较中心性软骨肉瘤少。好...", "lemmaUrl": "http://baike.baidu.com/item/%E5%91%A8%E5%9B%B4%E6%80%A7%E8%BD%AF%E9%AA%A8%E8%82%89%E7%98%A4/844070", "lemmaPic": []}, {"lemmaId": 4142092, "lemmaTitle": "眼睑热性疱疹", "lemmaCroppedTitle": "眼睑热性疱疹", "lemmaDesc": "眼睑热性疱疹由单纯疱疹病毒I型引起。常见于6个月至15岁儿童。多发生于流行性感冒...", "lemmaUrl": "http://baike.baidu.com/item/%E7%9C%BC%E7%9D%91%E7%83%AD%E6%80%A7%E7%96%B1%E7%96%B9/4142092", "lemmaPic": []}, {"lemmaId": 4443669, "lemmaTitle": "梭形细胞脂肪瘤", "lemmaCroppedTitle": "梭形细胞脂肪瘤", "lemmaDesc": "梭形细胞脂肪瘤又称多形性脂肪瘤，典型病变常见于老年男性，表现为无症状的活动性真皮...", "lemmaUrl": "http://baike.baidu.com/item/%E6%A2%AD%E5%BD%A2%E7%BB%86%E8%83%9E%E8%84%82%E8%82%AA%E7%98%A4/4443669", "lemmaPic": []}, {"lemmaId": 1052012, "lemmaTitle": "外阴基底细胞癌", "lemmaCroppedTitle": "外阴基底细胞癌", "lemmaDesc": "外阴基底细胞癌很少见。多见于55岁以上妇女。可能来源于表皮的原始基底细胞或毛囊。...", "lemmaUrl": "http://baike.baidu.com/item/%E5%A4%96%E9%98%B4%E5%9F%BA%E5%BA%95%E7%BB%86%E8%83%9E%E7%99%8C/1052012", "lemmaPic": []}, {"lemmaId": 5662530, "lemmaTitle": "黏液癌", "lemmaCroppedTitle": "黏液癌", "lemmaDesc": "黏液癌又称为胶样癌，常见于胃和大肠。其病因目前尚不明确，可发生呕血、便血等症状，...", "lemmaUrl": "http://baike.baidu.com/item/%E9%BB%8F%E6%B6%B2%E7%99%8C/5662530", "lemmaPic": []}, {"lemmaId": 7860878, "lemmaTitle": "小儿视网膜母细胞瘤", "lemmaCroppedTitle": "小儿视网膜母细胞瘤", "lemmaDesc": "视网膜母细胞瘤是小儿最常见的眼内肿瘤，多见于婴幼儿，2/3在3岁以下，5岁以上者...", "lemmaUrl": "http://baike.baidu.com/item/%E5%B0%8F%E5%84%BF%E8%A7%86%E7%BD%91%E8%86%9C%E6%AF%8D%E7%BB%86%E8%83%9E%E7%98%A4/7860878", "lemmaPic": []}, {"lemmaId": 7993742, "lemmaTitle": "皮肤幼虫移行症", "lemmaCroppedTitle": "皮肤幼虫移行症", "lemmaDesc": "1952年由Beaver等提出本病，当时主要指弓首线虫病（toxocariasi...", "lemmaUrl": "http://baike.baidu.com/item/%E7%9A%AE%E8%82%A4%E5%B9%BC%E8%99%AB%E7%A7%BB%E8%A1%8C%E7%97%87/7993742", "lemmaPic": []}, {"lemmaId": 12677369, "lemmaTitle": "项痹", "lemmaCroppedTitle": "项痹", "lemmaDesc": "项痹，中医病证名，正虚劳损，筋脉失养，或风寒湿热等邪气闭阻经络，影响气血运行，以...", "lemmaUrl": "http://baike.baidu.com/item/%E9%A1%B9%E7%97%B9/12677369", "lemmaPic": []}, {"lemmaId": 3899161, "lemmaTitle": "镇痛剂肾病", "lemmaCroppedTitle": "镇痛剂肾病", "lemmaDesc": "镇痛剂肾病是由于长期滥用镇痛药物，其累积量超过1～2kg时引起的慢性小管间质损害...", "lemmaUrl": "http://baike.baidu.com/item/%E9%95%87%E7%97%9B%E5%89%82%E8%82%BE%E7%97%85/3899161", "lemmaPic": []}, {"lemmaId": 2458778, "lemmaTitle": "小儿肝衰竭", "lemmaCroppedTitle": "小儿肝衰竭", "lemmaDesc": "小儿肝衰竭又称暴发型肝炎及重型肝炎，是各种原因（在我国以病毒性肝炎最为常见）导致...", "lemmaUrl": "http://baike.baidu.com/item/%E5%B0%8F%E5%84%BF%E8%82%9D%E8%A1%B0%E7%AB%AD/2458778", "lemmaPic": []}, {"lemmaId": 2637619, "lemmaTitle": "眼眶神经鞘瘤", "lemmaCroppedTitle": "眼眶神经鞘瘤", "lemmaDesc": "神经鞘瘤是由周围神经的鞘膜细胞形成的良性肿瘤，又称雪旺细胞瘤。眶内分布有第Ⅲ、Ⅳ...", "lemmaUrl": "http://baike.baidu.com/item/%E7%9C%BC%E7%9C%B6%E7%A5%9E%E7%BB%8F%E9%9E%98%E7%98%A4/2637619", "lemmaPic": []}, {"lemmaId": 6275091, "lemmaTitle": "功能性呕吐", "lemmaCroppedTitle": "功能性呕吐", "lemmaDesc": "功能性呕吐是由腹部肌肉的非随意性收缩，胃底和下食管括约肌的松弛所致的胃内容物被用...", "lemmaUrl": "http://baike.baidu.com/item/%E5%8A%9F%E8%83%BD%E6%80%A7%E5%91%95%E5%90%90/6275091", "lemmaPic": []}, {"lemmaId": 2251996, "lemmaTitle": "肺、胸膜阿米巴病", "lemmaCroppedTitle": "肺、胸膜阿米巴病", "lemmaDesc": "肺、胸膜阿米巴病是溶组织阿米巴原虫感染所致的肺及胸膜化脓性炎症，肝原性病变多发生...", "lemmaUrl": "http://baike.baidu.com/item/%E8%82%BA%E3%80%81%E8%83%B8%E8%86%9C%E9%98%BF%E7%B1%B3%E5%B7%B4%E7%97%85/2251996", "lemmaPic": []}, {"lemmaId": 4727641, "lemmaTitle": "血灌瞳神", "lemmaCroppedTitle": "血灌瞳神", "lemmaDesc": "血灌瞳神病证名。首见《证治准绳・七窍门》,又名血灌瞳仁《世医得效方》,亦有血灌瞳...", "lemmaUrl": "http://baike.baidu.com/item/%E8%A1%80%E7%81%8C%E7%9E%B3%E7%A5%9E/4727641", "lemmaPic": []}, {"lemmaId": 844121, "lemmaTitle": "骨膜性软骨瘤", "lemmaCroppedTitle": "骨膜性软骨瘤", "lemmaDesc": "骨膜性软骨瘤为软骨瘤的一种，发生于骨表面、骨膜下、肌腱和韧带附着处，多位于长骨的...", "lemmaUrl": "http://baike.baidu.com/item/%E9%AA%A8%E8%86%9C%E6%80%A7%E8%BD%AF%E9%AA%A8%E7%98%A4/844121", "lemmaPic": []}, {"lemmaId": 2839302, "lemmaTitle": "少枝胶质细胞瘤及间变少枝胶质细胞瘤", "lemmaCroppedTitle": "少枝胶质细胞瘤及间变少枝胶质细胞瘤", "lemmaDesc": "少枝胶质细胞瘤约占颅内胶质瘤的2%～4%，在神经上皮性肿瘤中占3%～12%。成人...", "lemmaUrl": "http://baike.baidu.com/item/%E5%B0%91%E6%9E%9D%E8%83%B6%E8%B4%A8%E7%BB%86%E8%83%9E%E7%98%A4%E5%8F%8A%E9%97%B4%E5%8F%98%E5%B0%91%E6%9E%9D%E8%83%B6%E8%B4%A8%E7%BB%86%E8%83%9E%E7%98%A4/2839302", "lemmaPic": []}, {"lemmaId": 4986256, "lemmaTitle": "单发脑梗死性痴呆", "lemmaCroppedTitle": "单发脑梗死性痴呆", "lemmaDesc": "单发脑梗死性痴呆是脑组织大面积梗死和某些重要的脑功能部位单发性梗死，在临床上可出...", "lemmaUrl": "http://baike.baidu.com/item/%E5%8D%95%E5%8F%91%E8%84%91%E6%A2%97%E6%AD%BB%E6%80%A7%E7%97%B4%E5%91%86/4986256", "lemmaPic": []}, {"lemmaId": 11040145, "lemmaTitle": "消中", "lemmaCroppedTitle": "消中", "lemmaDesc": "消中，病名。即中消，是消渴病根据病位、病机及症状之不同之称谓，消中属胃热而名中消...", "lemmaUrl": "http://baike.baidu.com/item/%E6%B6%88%E4%B8%AD/11040145", "lemmaPic": []}, {"lemmaId": 3282652, "lemmaTitle": "精索恶性肿瘤", "lemmaCroppedTitle": "精索恶性肿瘤", "lemmaDesc": "精索肿瘤包括由输精管、血管、淋巴管、结缔组织、脂肪组织、平滑肌和神经组织所发生的...", "lemmaUrl": "http://baike.baidu.com/item/%E7%B2%BE%E7%B4%A2%E6%81%B6%E6%80%A7%E8%82%BF%E7%98%A4/3282652", "lemmaPic": []}, {"lemmaId": 6095470, "lemmaTitle": "Fuchs角膜内皮营养不良", "lemmaCroppedTitle": "Fuchs角膜内皮营养不良", "lemmaDesc": "Fuchs角膜内皮营养不良，又叫滴状角膜是一种常见现象。随年龄其发生率显著增加，...", "lemmaUrl": "http://baike.baidu.com/item/Fuchs%E8%A7%92%E8%86%9C%E5%86%85%E7%9A%AE%E8%90%A5%E5%85%BB%E4%B8%8D%E8%89%AF/6095470", "lemmaPic": []}, {"lemmaId": 12266855, "lemmaTitle": "绝经后骨质疏松症", "lemmaCroppedTitle": "绝经后骨质疏松症", "lemmaDesc": "绝经后骨质疏松症（PMO）是一种与衰老有关的常见病，主要发生在绝经后妇女，由于雌...", "lemmaUrl": "http://baike.baidu.com/item/%E7%BB%9D%E7%BB%8F%E5%90%8E%E9%AA%A8%E8%B4%A8%E7%96%8F%E6%9D%BE%E7%97%87/12266855", "lemmaPic": []}, {"lemmaId": 10057851, "lemmaTitle": "颅中窝脑膜瘤", "lemmaCroppedTitle": "颅中窝脑膜瘤", "lemmaDesc": "颅中窝脑膜瘤（meningioma of middle cranial foss...", "lemmaUrl": "http://baike.baidu.com/item/%E9%A2%85%E4%B8%AD%E7%AA%9D%E8%84%91%E8%86%9C%E7%98%A4/10057851", "lemmaPic": []}, {"lemmaId": 3754288, "lemmaTitle": "距骨骨折脱位", "lemmaCroppedTitle": "距骨骨折脱位", "lemmaDesc": "距骨仅由滑膜、关节囊和韧带相连，血管经由这些组织进入骨内。当距骨发生骨折、脱位时...", "lemmaUrl": "http://baike.baidu.com/item/%E8%B7%9D%E9%AA%A8%E9%AA%A8%E6%8A%98%E8%84%B1%E4%BD%8D/3754288", "lemmaPic": []}, {"lemmaId": 5758833, "lemmaTitle": "小儿雄激素不敏感综合征", "lemmaCroppedTitle": "小儿雄激素不敏感综合征", "lemmaDesc": "小儿雄激素不敏感综合征（AIS）是一种临床较为常见的单基因性发育异常疾病。由于雄...", "lemmaUrl": "http://baike.baidu.com/item/%E5%B0%8F%E5%84%BF%E9%9B%84%E6%BF%80%E7%B4%A0%E4%B8%8D%E6%95%8F%E6%84%9F%E7%BB%BC%E5%90%88%E5%BE%81/5758833", "lemmaPic": []}, {"lemmaId": 325240, "lemmaTitle": "锁牙合", "lemmaCroppedTitle": "锁牙合", "lemmaDesc": "锁牙合是后牙的一种错牙合畸形，上颌个别后牙或多数后牙被锁结在下颌后牙的颊侧，或是...", "lemmaUrl": "http://baike.baidu.com/item/%E9%94%81%E7%89%99%E5%90%88/325240", "lemmaPic": []}, {"lemmaId": 2238484, "lemmaTitle": "小儿吉兰-巴雷综合征", "lemmaCroppedTitle": "小儿吉兰-巴雷综合征", "lemmaDesc": "小儿吉兰-巴雷综合征（GBS）是一种与感染及（或）自身免疫等因素有关的多发性神经...", "lemmaUrl": "http://baike.baidu.com/item/%E5%B0%8F%E5%84%BF%E5%90%89%E5%85%B0-%E5%B7%B4%E9%9B%B7%E7%BB%BC%E5%90%88%E5%BE%81/2238484", "lemmaPic": []}, {"lemmaId": 6633052, "lemmaTitle": "三尖瓣闭锁不全", "lemmaCroppedTitle": "三尖瓣闭锁不全", "lemmaDesc": "三尖瓣关闭不全或称三尖瓣反流，大多数是继发于二尖瓣病变的功能性三尖瓣关闭不全，少...", "lemmaUrl": "http://baike.baidu.com/item/%E4%B8%89%E5%B0%96%E7%93%A3%E9%97%AD%E9%94%81%E4%B8%8D%E5%85%A8/6633052", "lemmaPic": []}, {"lemmaId": 3425738, "lemmaTitle": "眼烧伤", "lemmaCroppedTitle": "眼烧伤", "lemmaDesc": "当眼遇到高热或化学物质时，眼睑会迅速反射性闭合，以避免烧伤。但是，极高的温度仍可...", "lemmaUrl": "http://baike.baidu.com/item/%E7%9C%BC%E7%83%A7%E4%BC%A4/3425738", "lemmaPic": []}, {"lemmaId": 8470413, "lemmaTitle": "梭状芽胞杆菌伤口感染", "lemmaCroppedTitle": "梭状芽胞杆菌伤口感染", "lemmaDesc": "梭状芽胞杆菌伤口感染可表现为局灶性蜂窝织炎，局部或扩散性肌炎，或最为严重的进行性...", "lemmaUrl": "http://baike.baidu.com/item/%E6%A2%AD%E7%8A%B6%E8%8A%BD%E8%83%9E%E6%9D%86%E8%8F%8C%E4%BC%A4%E5%8F%A3%E6%84%9F%E6%9F%93/8470413", "lemmaPic": []}, {"lemmaId": 6525421, "lemmaTitle": "脑蛛网膜炎", "lemmaCroppedTitle": "脑蛛网膜炎", "lemmaDesc": "脑蛛网膜炎又称浆液性脑膜炎、局灶性粘连性蛛网膜炎，是一种由于感染、外伤、异物刺激...", "lemmaUrl": "http://baike.baidu.com/item/%E8%84%91%E8%9B%9B%E7%BD%91%E8%86%9C%E7%82%8E/6525421", "lemmaPic": []}, {"lemmaId": 1619854, "lemmaTitle": "小肠类癌", "lemmaCroppedTitle": "小肠类癌", "lemmaDesc": "小肠类癌是起源于肠道黏膜Kulchitsky细胞的肿瘤，Kulchitsky细胞...", "lemmaUrl": "http://baike.baidu.com/item/%E5%B0%8F%E8%82%A0%E7%B1%BB%E7%99%8C/1619854", "lemmaPic": []}, {"lemmaId": 10608842, "lemmaTitle": "窦房折返性心动过速", "lemmaCroppedTitle": "窦房折返性心动过速", "lemmaDesc": "窦房折返性心动过速（SNRT）亦称窦房结折返性心动过速是指折返激动发生在窦房结内...", "lemmaUrl": "http://baike.baidu.com/item/%E7%AA%A6%E6%88%BF%E6%8A%98%E8%BF%94%E6%80%A7%E5%BF%83%E5%8A%A8%E8%BF%87%E9%80%9F/10608842", "lemmaPic": []}, {"lemmaId": 2095052, "lemmaTitle": "小儿伯-韦综合征", "lemmaCroppedTitle": "小儿伯-韦综合征", "lemmaDesc": "伯-韦综合征即突脐，巨舌、巨体综合征，亦称EMG综合征，WiedemannⅡ型综...", "lemmaUrl": "http://baike.baidu.com/item/%E5%B0%8F%E5%84%BF%E4%BC%AF-%E9%9F%A6%E7%BB%BC%E5%90%88%E5%BE%81/2095052", "lemmaPic": []}, {"lemmaId": 991654, "lemmaTitle": "脉络膜转移癌", "lemmaCroppedTitle": "脉络膜转移癌", "lemmaDesc": "脉络膜转移癌是一种较为少见的眼内继发性恶性病变。脉络膜血管丰富，血流缓慢，全身性...", "lemmaUrl": "http://baike.baidu.com/item/%E8%84%89%E7%BB%9C%E8%86%9C%E8%BD%AC%E7%A7%BB%E7%99%8C/991654", "lemmaPic": []}, {"lemmaId": 5080882, "lemmaTitle": "家族性抗维生素D佝偻病", "lemmaCroppedTitle": "家族性抗维生素D佝偻病", "lemmaDesc": "家族性抗维生素D佝偻病或骨软化症，又称原发性低磷酸盐血症性佝偻病，低磷酸盐血症性...", "lemmaUrl": "http://baike.baidu.com/item/%E5%AE%B6%E6%97%8F%E6%80%A7%E6%8A%97%E7%BB%B4%E7%94%9F%E7%B4%A0D%E4%BD%9D%E5%81%BB%E7%97%85/5080882", "lemmaPic": []}, {"lemmaId": 728262, "lemmaTitle": "胃节律紊乱综合征", "lemmaCroppedTitle": "胃节律紊乱综合征", "lemmaDesc": "有明显胃病临床症状的患者，具有胃功能性和（或）器质性疾病以及其他能够导致胃节律紊...", "lemmaUrl": "http://baike.baidu.com/item/%E8%83%83%E8%8A%82%E5%BE%8B%E7%B4%8A%E4%B9%B1%E7%BB%BC%E5%90%88%E5%BE%81/728262", "lemmaPic": []}, {"lemmaId": 2908446, "lemmaTitle": "呼吸系统疾病伴发的精神障碍", "lemmaCroppedTitle": "呼吸系统疾病伴发的精神障碍", "lemmaDesc": "呼吸系统疾病常伴发程度不等的精神障碍，如抑郁、焦虑、紧张、恐惧等，这些心理障碍长...", "lemmaUrl": "http://baike.baidu.com/item/%E5%91%BC%E5%90%B8%E7%B3%BB%E7%BB%9F%E7%96%BE%E7%97%85%E4%BC%B4%E5%8F%91%E7%9A%84%E7%B2%BE%E7%A5%9E%E9%9A%9C%E7%A2%8D/2908446", "lemmaPic": []}, {"lemmaId": 765233, "lemmaTitle": "血劳", "lemmaCroppedTitle": "血劳", "lemmaDesc": "血劳指因先后天亏损，血液生化不足，或因失血、溶血等耗伤血液，以致营血亏少，脏器失...", "lemmaUrl": "http://baike.baidu.com/item/%E8%A1%80%E5%8A%B3/765233", "lemmaPic": []}, {"lemmaId": 5318803, "lemmaTitle": "延迟性应激反应", "lemmaCroppedTitle": "延迟性应激反应", "lemmaDesc": "延迟性应激反应是由应激性事件或处境引起的延迟性精神障碍又称创伤后应激障碍。应激源...", "lemmaUrl": "http://baike.baidu.com/item/%E5%BB%B6%E8%BF%9F%E6%80%A7%E5%BA%94%E6%BF%80%E5%8F%8D%E5%BA%94/5318803", "lemmaPic": []}, {"lemmaId": 1052701, "lemmaTitle": "膈肌破裂", "lemmaCroppedTitle": "膈肌破裂", "lemmaDesc": "膈肌破裂并不少见，闭合伤或开放伤均可引起。由枪弹或锐器刺入引起的膈肌损伤多为胸腹...", "lemmaUrl": "http://baike.baidu.com/item/%E8%86%88%E8%82%8C%E7%A0%B4%E8%A3%82/1052701", "lemmaPic": []}, {"lemmaId": 1796773, "lemmaTitle": "胃真菌病", "lemmaCroppedTitle": "胃真菌病", "lemmaDesc": "真菌在自然界的存在极为广泛，人类的口腔、胃及肠道中也常见。平时通常为一种无害的寄...", "lemmaUrl": "http://baike.baidu.com/item/%E8%83%83%E7%9C%9F%E8%8F%8C%E7%97%85/1796773", "lemmaPic": []}, {"lemmaId": 5430736, "lemmaTitle": "眼眶肌炎", "lemmaCroppedTitle": "眼眶肌炎", "lemmaDesc": "眼眶肌炎是属于局部型非特异性眼眶炎性假瘤的一种亚型，常见症状为急性发作性头疼、眼...", "lemmaUrl": "http://baike.baidu.com/item/%E7%9C%BC%E7%9C%B6%E8%82%8C%E7%82%8E/5430736", "lemmaPic": []}, {"lemmaId": 5558192, "lemmaTitle": "毛细血管扩张性共济失调综合征", "lemmaCroppedTitle": "毛细血管扩张性共济失调综合征", "lemmaDesc": "毛细血管扩张性共济失调综合征是指一种罕见的、复杂的及预后不佳的神经皮肤综合征，又...", "lemmaUrl": "http://baike.baidu.com/item/%E6%AF%9B%E7%BB%86%E8%A1%80%E7%AE%A1%E6%89%A9%E5%BC%A0%E6%80%A7%E5%85%B1%E6%B5%8E%E5%A4%B1%E8%B0%83%E7%BB%BC%E5%90%88%E5%BE%81/5558192", "lemmaPic": []}, {"lemmaId": 11030362, "lemmaTitle": "小儿疳眼", "lemmaCroppedTitle": "小儿疳眼", "lemmaDesc": "病证名，见《秘传眼科龙木论》。又名疳眼、疳毒眼、疳疾上目。小儿疳眼外障、疳病攻眼...", "lemmaUrl": "http://baike.baidu.com/item/%E5%B0%8F%E5%84%BF%E7%96%B3%E7%9C%BC/11030362", "lemmaPic": []}], "total": 7246, "totalPage": 73, "page": 49, "fromLemma": 0}