{"lemmaList": [{"lemmaId": 100969, "lemmaTitle": "糖尿病", "lemmaCroppedTitle": "糖尿病", "lemmaDesc": "糖尿病是一组以高血糖为特征的代谢性疾病。高血糖则是由于胰岛素分泌缺陷或其生物作用...", "lemmaUrl": "http://baike.baidu.com/item/%E7%B3%96%E5%B0%BF%E7%97%85/100969", "lemmaPic": []}, {"lemmaId": 236590, "lemmaTitle": "艾滋病", "lemmaCroppedTitle": "艾滋病", "lemmaDesc": "艾滋病是一种危害性极大的传染病，由感染艾滋病病毒（HIV病毒）引起。HIV是一种...", "lemmaUrl": "http://baike.baidu.com/item/%E8%89%BE%E6%BB%8B%E7%97%85/236590", "lemmaPic": []}, {"lemmaId": 976672, "lemmaTitle": "自慰", "lemmaCroppedTitle": "自慰", "lemmaDesc": "自慰就是靠自己的能力来解决性胀满、宣泄性能量，满足自己对性的要求，并从性方面获得...", "lemmaUrl": "http://baike.baidu.com/item/%E8%87%AA%E6%85%B0/976672", "lemmaPic": []}, {"lemmaId": 102213, "lemmaTitle": "湿疹", "lemmaCroppedTitle": "湿疹", "lemmaDesc": "湿疹是由多种内外因素引起的瘙痒剧烈的一种皮肤炎症反应。分急性、亚急性、慢性三期。...", "lemmaUrl": "http://baike.baidu.com/item/%E6%B9%BF%E7%96%B9/102213", "lemmaPic": []}, {"lemmaId": 337976, "lemmaTitle": "荨麻疹", "lemmaCroppedTitle": "荨麻疹", "lemmaDesc": "荨麻疹俗称风疹块。是由于皮肤、黏膜小血管扩张及渗透性增加而出现的一种局限性水肿反...", "lemmaUrl": "http://baike.baidu.com/item/%E8%8D%A8%E9%BA%BB%E7%96%B9/337976", "lemmaPic": []}, {"lemmaId": 5155710, "lemmaTitle": "手足口病", "lemmaCroppedTitle": "手足口病", "lemmaDesc": "手足口病是由肠道病毒引起的传染病，引发手足口病的肠道病毒有20多种（型），其中以...", "lemmaUrl": "http://baike.baidu.com/item/%E6%89%8B%E8%B6%B3%E5%8F%A3%E7%97%85/5155710", "lemmaPic": []}, {"lemmaId": 195863, "lemmaTitle": "高血压", "lemmaCroppedTitle": "高血压", "lemmaDesc": "高血压（hypertension）是指以体循环动脉血压（收缩压和/或舒张压）增高...", "lemmaUrl": "http://baike.baidu.com/item/%E9%AB%98%E8%A1%80%E5%8E%8B/195863", "lemmaPic": []}, {"lemmaId": 102147, "lemmaTitle": "前列腺炎", "lemmaCroppedTitle": "前列腺炎", "lemmaDesc": "前列腺炎（prostatitis）是指由多种复杂原因引起的，以尿道刺激症状和慢性...", "lemmaUrl": "http://baike.baidu.com/item/%E5%89%8D%E5%88%97%E8%85%BA%E7%82%8E/102147", "lemmaPic": []}, {"lemmaId": 531305, "lemmaTitle": "尖锐湿疣", "lemmaCroppedTitle": "尖锐湿疣", "lemmaDesc": "尖锐湿疣是由人乳头瘤病毒（HPV）感染所致的以肛门生殖器部位增生性损害为主要表现...", "lemmaUrl": "http://baike.baidu.com/item/%E5%B0%96%E9%94%90%E6%B9%BF%E7%96%A3/531305", "lemmaPic": []}, {"lemmaId": 90924, "lemmaTitle": "抑郁症", "lemmaCroppedTitle": "抑郁症", "lemmaDesc": "抑郁症又称抑郁障碍，以显著而持久的心境低落为主要临床特征，是心境障碍的主要类型。...", "lemmaUrl": "http://baike.baidu.com/item/%E6%8A%91%E9%83%81%E7%97%87/90924", "lemmaPic": {"width": 681, "height": 640, "url": "https://gss1.bdstatic.com/9vo3dSag_xI4khGkpoWK1HF6hhy/baike/w%3D168/sign=07af747e366d55fbc5c6722055234f40/5ab5c9ea15ce36d3f4019b9031f33a87e950b10c.jpg"}}, {"lemmaId": 456145, "lemmaTitle": "梅毒", "lemmaCroppedTitle": "梅毒", "lemmaDesc": "梅毒是由苍白（梅毒）螺旋体引起的慢性、系统性性传播疾病。主要通过性途径传播，临床...", "lemmaUrl": "http://baike.baidu.com/item/%E6%A2%85%E6%AF%92/456145", "lemmaPic": []}, {"lemmaId": 421435, "lemmaTitle": "痛风", "lemmaCroppedTitle": "痛风", "lemmaDesc": "痛风是由单钠尿酸盐（MSU）沉积所致的晶体相关性关节病，与嘌呤代谢紊乱和（或）尿...", "lemmaUrl": "http://baike.baidu.com/item/%E7%97%9B%E9%A3%8E/421435", "lemmaPic": []}, {"lemmaId": 552392, "lemmaTitle": "早泄", "lemmaCroppedTitle": "早泄", "lemmaDesc": "早泄（prospermia）是最常见的射精功能障碍，以性交之始即行排精，甚至性交...", "lemmaUrl": "http://baike.baidu.com/item/%E6%97%A9%E6%B3%84/552392", "lemmaPic": []}, {"lemmaId": 261033, "lemmaTitle": "颈椎病", "lemmaCroppedTitle": "颈椎病", "lemmaDesc": "颈椎病又称颈椎综合征，是颈椎骨关节炎、增生性颈椎炎、颈神经根综合征、颈椎间盘脱出...", "lemmaUrl": "http://baike.baidu.com/item/%E9%A2%88%E6%A4%8E%E7%97%85/261033", "lemmaPic": []}, {"lemmaId": 101306, "lemmaTitle": "肺结核", "lemmaCroppedTitle": "肺结核", "lemmaDesc": "结核病是由结核分枝杆菌引起的慢性传染病，可侵及许多脏器，以肺部结核感染最为常见。...", "lemmaUrl": "http://baike.baidu.com/item/%E8%82%BA%E7%BB%93%E6%A0%B8/101306", "lemmaPic": []}, {"lemmaId": 257557, "lemmaTitle": "肾结石", "lemmaCroppedTitle": "肾结石", "lemmaDesc": "肾结石（renal calculi）是一些晶体物质（如钙、草酸、尿酸、胱氨酸等）...", "lemmaUrl": "http://baike.baidu.com/item/%E8%82%BE%E7%BB%93%E7%9F%B3/257557", "lemmaPic": []}, {"lemmaId": 119, "lemmaTitle": "口腔溃疡", "lemmaCroppedTitle": "口腔溃疡", "lemmaDesc": "口腔溃疡俗称“口疮”，是一种常见的发生于口腔黏膜的溃疡性损伤病症，多见于唇内侧、...", "lemmaUrl": "http://baike.baidu.com/item/%E5%8F%A3%E8%85%94%E6%BA%83%E7%96%A1/119", "lemmaPic": []}, {"lemmaId": 101228, "lemmaTitle": "白血病", "lemmaCroppedTitle": "白血病", "lemmaDesc": "白血病是一类造血干细胞恶性克隆性疾病。克隆性白血病细胞因为增殖失控、分化障碍、凋...", "lemmaUrl": "http://baike.baidu.com/item/%E7%99%BD%E8%A1%80%E7%97%85/101228", "lemmaPic": []}, {"lemmaId": 1802515, "lemmaTitle": "子宫肌瘤", "lemmaCroppedTitle": "子宫肌瘤", "lemmaDesc": "子宫肌瘤是女性生殖器官中最常见的一种良性肿瘤，也是人体中最常见的肿瘤之一，又称为...", "lemmaUrl": "http://baike.baidu.com/item/%E5%AD%90%E5%AE%AB%E8%82%8C%E7%98%A4/1802515", "lemmaPic": []}, {"lemmaId": 1382537, "lemmaTitle": "带状疱疹", "lemmaCroppedTitle": "带状疱疹", "lemmaDesc": "带状疱疹是由水痘-带状疱疹病毒引起的急性感染性皮肤病。对此病毒无免疫力的儿童被感...", "lemmaUrl": "http://baike.baidu.com/item/%E5%B8%A6%E7%8A%B6%E7%96%B1%E7%96%B9/1382537", "lemmaPic": []}, {"lemmaId": 332148, "lemmaTitle": "便秘", "lemmaCroppedTitle": "便秘", "lemmaDesc": "老年人便秘是指排便次数减少，同时排便困难、粪便干结。正常人每日排便1～2次或1～...", "lemmaUrl": "http://baike.baidu.com/item/%E4%BE%BF%E7%A7%98/332148", "lemmaPic": []}, {"lemmaId": 19157, "lemmaTitle": "智齿", "lemmaCroppedTitle": "智齿", "lemmaDesc": "智齿是指人类口腔内牙槽骨上最里面的第三颗磨牙，从正中的门牙往里数刚好是第八颗牙齿...", "lemmaUrl": "http://baike.baidu.com/item/%E6%99%BA%E9%BD%BF/19157", "lemmaPic": []}, {"lemmaId": 772829, "lemmaTitle": "痤疮", "lemmaCroppedTitle": "痤疮", "lemmaDesc": "痤疮是毛囊皮脂腺单位的一种慢性炎症性皮肤病，主要好发于青少年，对青少年的心理和社...", "lemmaUrl": "http://baike.baidu.com/item/%E7%97%A4%E7%96%AE/772829", "lemmaPic": []}, {"lemmaId": 351559, "lemmaTitle": "脂肪肝", "lemmaCroppedTitle": "脂肪肝", "lemmaDesc": "脂肪肝（fatty liver）是指由于各种原因引起的肝细胞内脂肪堆积过多的病变...", "lemmaUrl": "http://baike.baidu.com/item/%E8%84%82%E8%82%AA%E8%82%9D/351559", "lemmaPic": []}], "total": 7246, "totalPage": 302, "page": 0, "fromLemma": 0}