{"lemmaList": [{"lemmaId": 100969, "lemmaTitle": "糖尿病", "lemmaCroppedTitle": "糖尿病", "lemmaDesc": "糖尿病是一组以高血糖为特征的代谢性疾病。高血糖则是由于胰岛素分泌缺陷或其生物作用...", "lemmaUrl": "http://baike.baidu.com/item/%E7%B3%96%E5%B0%BF%E7%97%85/100969", "lemmaPic": []}, {"lemmaId": 236590, "lemmaTitle": "艾滋病", "lemmaCroppedTitle": "艾滋病", "lemmaDesc": "艾滋病是一种危害性极大的传染病，由感染艾滋病病毒（HIV病毒）引起。HIV是一种...", "lemmaUrl": "http://baike.baidu.com/item/%E8%89%BE%E6%BB%8B%E7%97%85/236590", "lemmaPic": []}, {"lemmaId": 976672, "lemmaTitle": "自慰", "lemmaCroppedTitle": "自慰", "lemmaDesc": "自慰就是靠自己的能力来解决性胀满、宣泄性能量，满足自己对性的要求，并从性方面获得...", "lemmaUrl": "http://baike.baidu.com/item/%E8%87%AA%E6%85%B0/976672", "lemmaPic": []}, {"lemmaId": 102213, "lemmaTitle": "湿疹", "lemmaCroppedTitle": "湿疹", "lemmaDesc": "湿疹是由多种内外因素引起的瘙痒剧烈的一种皮肤炎症反应。分急性、亚急性、慢性三期。...", "lemmaUrl": "http://baike.baidu.com/item/%E6%B9%BF%E7%96%B9/102213", "lemmaPic": []}, {"lemmaId": 337976, "lemmaTitle": "荨麻疹", "lemmaCroppedTitle": "荨麻疹", "lemmaDesc": "荨麻疹俗称风疹块。是由于皮肤、黏膜小血管扩张及渗透性增加而出现的一种局限性水肿反...", "lemmaUrl": "http://baike.baidu.com/item/%E8%8D%A8%E9%BA%BB%E7%96%B9/337976", "lemmaPic": []}, {"lemmaId": 5155710, "lemmaTitle": "手足口病", "lemmaCroppedTitle": "手足口病", "lemmaDesc": "手足口病是由肠道病毒引起的传染病，引发手足口病的肠道病毒有20多种（型），其中以...", "lemmaUrl": "http://baike.baidu.com/item/%E6%89%8B%E8%B6%B3%E5%8F%A3%E7%97%85/5155710", "lemmaPic": []}, {"lemmaId": 195863, "lemmaTitle": "高血压", "lemmaCroppedTitle": "高血压", "lemmaDesc": "高血压（hypertension）是指以体循环动脉血压（收缩压和/或舒张压）增高...", "lemmaUrl": "http://baike.baidu.com/item/%E9%AB%98%E8%A1%80%E5%8E%8B/195863", "lemmaPic": []}, {"lemmaId": 102147, "lemmaTitle": "前列腺炎", "lemmaCroppedTitle": "前列腺炎", "lemmaDesc": "前列腺炎（prostatitis）是指由多种复杂原因引起的，以尿道刺激症状和慢性...", "lemmaUrl": "http://baike.baidu.com/item/%E5%89%8D%E5%88%97%E8%85%BA%E7%82%8E/102147", "lemmaPic": []}, {"lemmaId": 531305, "lemmaTitle": "尖锐湿疣", "lemmaCroppedTitle": "尖锐湿疣", "lemmaDesc": "尖锐湿疣是由人乳头瘤病毒（HPV）感染所致的以肛门生殖器部位增生性损害为主要表现...", "lemmaUrl": "http://baike.baidu.com/item/%E5%B0%96%E9%94%90%E6%B9%BF%E7%96%A3/531305", "lemmaPic": []}, {"lemmaId": 90924, "lemmaTitle": "抑郁症", "lemmaCroppedTitle": "抑郁症", "lemmaDesc": "抑郁症又称抑郁障碍，以显著而持久的心境低落为主要临床特征，是心境障碍的主要类型。...", "lemmaUrl": "http://baike.baidu.com/item/%E6%8A%91%E9%83%81%E7%97%87/90924", "lemmaPic": {"width": 681, "height": 640, "url": "https://gss1.bdstatic.com/9vo3dSag_xI4khGkpoWK1HF6hhy/baike/w%3D168/sign=07af747e366d55fbc5c6722055234f40/5ab5c9ea15ce36d3f4019b9031f33a87e950b10c.jpg"}}, {"lemmaId": 456145, "lemmaTitle": "梅毒", "lemmaCroppedTitle": "梅毒", "lemmaDesc": "梅毒是由苍白（梅毒）螺旋体引起的慢性、系统性性传播疾病。主要通过性途径传播，临床...", "lemmaUrl": "http://baike.baidu.com/item/%E6%A2%85%E6%AF%92/456145", "lemmaPic": []}, {"lemmaId": 421435, "lemmaTitle": "痛风", "lemmaCroppedTitle": "痛风", "lemmaDesc": "痛风是由单钠尿酸盐（MSU）沉积所致的晶体相关性关节病，与嘌呤代谢紊乱和（或）尿...", "lemmaUrl": "http://baike.baidu.com/item/%E7%97%9B%E9%A3%8E/421435", "lemmaPic": []}, {"lemmaId": 552392, "lemmaTitle": "早泄", "lemmaCroppedTitle": "早泄", "lemmaDesc": "早泄（prospermia）是最常见的射精功能障碍，以性交之始即行排精，甚至性交...", "lemmaUrl": "http://baike.baidu.com/item/%E6%97%A9%E6%B3%84/552392", "lemmaPic": []}, {"lemmaId": 261033, "lemmaTitle": "颈椎病", "lemmaCroppedTitle": "颈椎病", "lemmaDesc": "颈椎病又称颈椎综合征，是颈椎骨关节炎、增生性颈椎炎、颈神经根综合征、颈椎间盘脱出...", "lemmaUrl": "http://baike.baidu.com/item/%E9%A2%88%E6%A4%8E%E7%97%85/261033", "lemmaPic": []}, {"lemmaId": 101306, "lemmaTitle": "肺结核", "lemmaCroppedTitle": "肺结核", "lemmaDesc": "结核病是由结核分枝杆菌引起的慢性传染病，可侵及许多脏器，以肺部结核感染最为常见。...", "lemmaUrl": "http://baike.baidu.com/item/%E8%82%BA%E7%BB%93%E6%A0%B8/101306", "lemmaPic": []}, {"lemmaId": 257557, "lemmaTitle": "肾结石", "lemmaCroppedTitle": "肾结石", "lemmaDesc": "肾结石（renal calculi）是一些晶体物质（如钙、草酸、尿酸、胱氨酸等）...", "lemmaUrl": "http://baike.baidu.com/item/%E8%82%BE%E7%BB%93%E7%9F%B3/257557", "lemmaPic": []}, {"lemmaId": 119, "lemmaTitle": "口腔溃疡", "lemmaCroppedTitle": "口腔溃疡", "lemmaDesc": "口腔溃疡俗称“口疮”，是一种常见的发生于口腔黏膜的溃疡性损伤病症，多见于唇内侧、...", "lemmaUrl": "http://baike.baidu.com/item/%E5%8F%A3%E8%85%94%E6%BA%83%E7%96%A1/119", "lemmaPic": []}, {"lemmaId": 101228, "lemmaTitle": "白血病", "lemmaCroppedTitle": "白血病", "lemmaDesc": "白血病是一类造血干细胞恶性克隆性疾病。克隆性白血病细胞因为增殖失控、分化障碍、凋...", "lemmaUrl": "http://baike.baidu.com/item/%E7%99%BD%E8%A1%80%E7%97%85/101228", "lemmaPic": []}, {"lemmaId": 1802515, "lemmaTitle": "子宫肌瘤", "lemmaCroppedTitle": "子宫肌瘤", "lemmaDesc": "子宫肌瘤是女性生殖器官中最常见的一种良性肿瘤，也是人体中最常见的肿瘤之一，又称为...", "lemmaUrl": "http://baike.baidu.com/item/%E5%AD%90%E5%AE%AB%E8%82%8C%E7%98%A4/1802515", "lemmaPic": []}, {"lemmaId": 1382537, "lemmaTitle": "带状疱疹", "lemmaCroppedTitle": "带状疱疹", "lemmaDesc": "带状疱疹是由水痘-带状疱疹病毒引起的急性感染性皮肤病。对此病毒无免疫力的儿童被感...", "lemmaUrl": "http://baike.baidu.com/item/%E5%B8%A6%E7%8A%B6%E7%96%B1%E7%96%B9/1382537", "lemmaPic": []}, {"lemmaId": 332148, "lemmaTitle": "便秘", "lemmaCroppedTitle": "便秘", "lemmaDesc": "老年人便秘是指排便次数减少，同时排便困难、粪便干结。正常人每日排便1～2次或1～...", "lemmaUrl": "http://baike.baidu.com/item/%E4%BE%BF%E7%A7%98/332148", "lemmaPic": []}, {"lemmaId": 19157, "lemmaTitle": "智齿", "lemmaCroppedTitle": "智齿", "lemmaDesc": "智齿是指人类口腔内牙槽骨上最里面的第三颗磨牙，从正中的门牙往里数刚好是第八颗牙齿...", "lemmaUrl": "http://baike.baidu.com/item/%E6%99%BA%E9%BD%BF/19157", "lemmaPic": []}, {"lemmaId": 772829, "lemmaTitle": "痤疮", "lemmaCroppedTitle": "痤疮", "lemmaDesc": "痤疮是毛囊皮脂腺单位的一种慢性炎症性皮肤病，主要好发于青少年，对青少年的心理和社...", "lemmaUrl": "http://baike.baidu.com/item/%E7%97%A4%E7%96%AE/772829", "lemmaPic": []}, {"lemmaId": 351559, "lemmaTitle": "脂肪肝", "lemmaCroppedTitle": "脂肪肝", "lemmaDesc": "脂肪肝（fatty liver）是指由于各种原因引起的肝细胞内脂肪堆积过多的病变...", "lemmaUrl": "http://baike.baidu.com/item/%E8%84%82%E8%82%AA%E8%82%9D/351559", "lemmaPic": []}, {"lemmaId": 821595, "lemmaTitle": "乳腺癌", "lemmaCroppedTitle": "乳腺癌", "lemmaDesc": "女性乳腺是由皮肤、纤维组织、乳腺腺体和脂肪组成的，乳腺癌是发生在乳腺腺上皮组织的...", "lemmaUrl": "http://baike.baidu.com/item/%E4%B9%B3%E8%85%BA%E7%99%8C/821595", "lemmaPic": []}, {"lemmaId": 190075, "lemmaTitle": "鼻炎", "lemmaCroppedTitle": "鼻炎", "lemmaDesc": "鼻炎即鼻腔炎性疾病，是病毒、细菌、变应原、各种理化因子以及某些全身性疾病引起的鼻...", "lemmaUrl": "http://baike.baidu.com/item/%E9%BC%BB%E7%82%8E/190075", "lemmaPic": []}, {"lemmaId": 1845139, "lemmaTitle": "阴道炎", "lemmaCroppedTitle": "阴道炎", "lemmaDesc": "阴道炎（vaginitis）即阴道炎症，是导致外阴阴道症状如瘙痒、灼痛、刺激和异...", "lemmaUrl": "http://baike.baidu.com/item/%E9%98%B4%E9%81%93%E7%82%8E/1845139", "lemmaPic": []}, {"lemmaId": 1085, "lemmaTitle": "白癜风", "lemmaCroppedTitle": "白癜风", "lemmaDesc": "白癜风是一种常见的后天性限局性或泛发性皮肤色素脱失病。由于皮肤的黑素细胞功能消失...", "lemmaUrl": "http://baike.baidu.com/item/%E7%99%BD%E7%99%9C%E9%A3%8E/1085", "lemmaPic": []}, {"lemmaId": 263588, "lemmaTitle": "狂犬病", "lemmaCroppedTitle": "狂犬病", "lemmaDesc": "狂犬病（rabies）是狂犬病毒所致的急性传染病，人兽共患，多见于犬、狼、猫等肉...", "lemmaUrl": "http://baike.baidu.com/item/%E7%8B%82%E7%8A%AC%E7%97%85/263588", "lemmaPic": []}, {"lemmaId": 807868, "lemmaTitle": "胃癌", "lemmaCroppedTitle": "胃癌", "lemmaDesc": "胃癌（gastric carcinoma）是起源于胃黏膜上皮的恶性肿瘤，在我国各...", "lemmaUrl": "http://baike.baidu.com/item/%E8%83%83%E7%99%8C/807868", "lemmaPic": []}, {"lemmaId": 708708, "lemmaTitle": "红斑狼疮", "lemmaCroppedTitle": "红斑狼疮", "lemmaDesc": "红斑狼疮（LE）是一种典型的自身免疫性结缔组织病，多见于15～40岁女性。红斑狼...", "lemmaUrl": "http://baike.baidu.com/item/%E7%BA%A2%E6%96%91%E7%8B%BC%E7%96%AE/708708", "lemmaPic": []}, {"lemmaId": 428115, "lemmaTitle": "肺癌", "lemmaCroppedTitle": "肺癌", "lemmaDesc": "肺癌是发病率和死亡率增长最快，对人群健康和生命威胁最大的恶性肿瘤之一。近50年来...", "lemmaUrl": "http://baike.baidu.com/item/%E8%82%BA%E7%99%8C/428115", "lemmaPic": []}, {"lemmaId": 292397, "lemmaTitle": "性病", "lemmaCroppedTitle": "性病", "lemmaDesc": "性病（venereal disease）传统观念是指通过性交行为传染的疾病，主要...", "lemmaUrl": "http://baike.baidu.com/item/%E6%80%A7%E7%97%85/292397", "lemmaPic": []}, {"lemmaId": 2996107, "lemmaTitle": "腰椎间盘突出症", "lemmaCroppedTitle": "腰椎间盘突出症", "lemmaDesc": "腰椎间盘突出症是较为常见的疾患之一，主要是因为腰椎间盘各部分（髓核、纤维环及软骨...", "lemmaUrl": "http://baike.baidu.com/item/%E8%85%B0%E6%A4%8E%E9%97%B4%E7%9B%98%E7%AA%81%E5%87%BA%E7%97%87/2996107", "lemmaPic": []}, {"lemmaId": 706752, "lemmaTitle": "胆囊炎", "lemmaCroppedTitle": "胆囊炎", "lemmaDesc": "胆囊炎是较常见的疾病，发病率较高。根据其临床表现和临床经过，又可分为急性和慢性两...", "lemmaUrl": "http://baike.baidu.com/item/%E8%83%86%E5%9B%8A%E7%82%8E/706752", "lemmaPic": []}, {"lemmaId": 87914, "lemmaTitle": "内分泌失调", "lemmaCroppedTitle": "内分泌失调", "lemmaDesc": "健康的人体通过内分泌系统中各种激素（荷尔蒙）和神经系统共同调节人体的代谢和生理功...", "lemmaUrl": "http://baike.baidu.com/item/%E5%86%85%E5%88%86%E6%B3%8C%E5%A4%B1%E8%B0%83/87914", "lemmaPic": []}, {"lemmaId": 1108002, "lemmaTitle": "盆腔炎", "lemmaCroppedTitle": "盆腔炎", "lemmaDesc": "盆腔炎是指女性生殖器官、子宫周围结缔组织及盆腔腹膜的炎症。慢性盆腔炎症往往是急性...", "lemmaUrl": "http://baike.baidu.com/item/%E7%9B%86%E8%85%94%E7%82%8E/1108002", "lemmaPic": []}, {"lemmaId": 1772945, "lemmaTitle": "低血压", "lemmaCroppedTitle": "低血压", "lemmaDesc": "低血压是指体循环动脉压力低于正常的状态。由于高血压在临床上常常引起心、脑、肾等重...", "lemmaUrl": "http://baike.baidu.com/item/%E4%BD%8E%E8%A1%80%E5%8E%8B/1772945", "lemmaPic": []}, {"lemmaId": 529724, "lemmaTitle": "痛经", "lemmaCroppedTitle": "痛经", "lemmaDesc": "痛经（dysmenorrhea）为最常见的妇科症状之一，指行经前后或月经期出现下...", "lemmaUrl": "http://baike.baidu.com/item/%E7%97%9B%E7%BB%8F/529724", "lemmaPic": []}, {"lemmaId": 101618, "lemmaTitle": "宫外孕", "lemmaCroppedTitle": "宫外孕", "lemmaDesc": "凡孕卵在子宫腔以外的任何部位着床者，统称为异位妊娠，习称为宫外孕。根据着床部位不...", "lemmaUrl": "http://baike.baidu.com/item/%E5%AE%AB%E5%A4%96%E5%AD%95/101618", "lemmaPic": []}, {"lemmaId": 90900, "lemmaTitle": "强迫症", "lemmaCroppedTitle": "强迫症", "lemmaDesc": "强迫症（OCD）属于焦虑障碍的一种类型，是一组以强迫思维和强迫行为为主要临床表现...", "lemmaUrl": "http://baike.baidu.com/item/%E5%BC%BA%E8%BF%AB%E7%97%87/90900", "lemmaPic": []}, {"lemmaId": 408503, "lemmaTitle": "甲亢", "lemmaCroppedTitle": "甲亢", "lemmaDesc": "甲状腺功能亢进症（简称甲亢），是由多种原因引起的甲状腺功能亢进和（或）血循环中甲...", "lemmaUrl": "http://baike.baidu.com/item/%E7%94%B2%E4%BA%A2/408503", "lemmaPic": []}, {"lemmaId": 1704755, "lemmaTitle": "卵巢囊肿", "lemmaCroppedTitle": "卵巢囊肿", "lemmaDesc": "卵巢肿瘤是女性生殖器常见肿瘤，有各种不同的性质和形态，即一侧性或双侧性、囊性或实...", "lemmaUrl": "http://baike.baidu.com/item/%E5%8D%B5%E5%B7%A2%E5%9B%8A%E8%82%BF/1704755", "lemmaPic": []}, {"lemmaId": 875116, "lemmaTitle": "肾阳虚", "lemmaCroppedTitle": "肾阳虚", "lemmaDesc": "肾阳虚，为中医名词术语。由于肾阳虚衰，温煦失职，气化失权所表现的一类虚寒证候，称...", "lemmaUrl": "http://baike.baidu.com/item/%E8%82%BE%E9%98%B3%E8%99%9A/875116", "lemmaPic": []}, {"lemmaId": 1083485, "lemmaTitle": "肺炎", "lemmaCroppedTitle": "肺炎", "lemmaDesc": "老年肺炎常缺乏明显呼吸系症状，症状多不典型，病情进展快，易发生漏诊、错诊。首发症...", "lemmaUrl": "http://baike.baidu.com/item/%E8%82%BA%E7%82%8E/1083485", "lemmaPic": []}, {"lemmaId": 808398, "lemmaTitle": "胃溃疡", "lemmaCroppedTitle": "胃溃疡", "lemmaDesc": "溃疡病或消化性溃疡是一种常见的消化道疾病，可发生于食管、胃或十二指肠，也可发生于...", "lemmaUrl": "http://baike.baidu.com/item/%E8%83%83%E6%BA%83%E7%96%A1/808398", "lemmaPic": []}, {"lemmaId": 255767, "lemmaTitle": "水痘", "lemmaCroppedTitle": "水痘", "lemmaDesc": "水痘（varicella，chickenpox）是由水痘-带状疱疹病毒初次感染引...", "lemmaUrl": "http://baike.baidu.com/item/%E6%B0%B4%E7%97%98/255767", "lemmaPic": []}, {"lemmaId": 982703, "lemmaTitle": "支气管炎", "lemmaCroppedTitle": "支气管炎", "lemmaDesc": "支气管炎是指气管、支气管黏膜及其周围组织的慢性非特异性炎症。支气管炎主要原因为病...", "lemmaUrl": "http://baike.baidu.com/item/%E6%94%AF%E6%B0%94%E7%AE%A1%E7%82%8E/982703", "lemmaPic": []}, {"lemmaId": 875192, "lemmaTitle": "肾阴虚", "lemmaCroppedTitle": "肾阴虚", "lemmaDesc": "肾阴虚（asthenia of renal yin），肾虚的一种类型，为中医名词...", "lemmaUrl": "http://baike.baidu.com/item/%E8%82%BE%E9%98%B4%E8%99%9A/875192", "lemmaPic": []}, {"lemmaId": 10441055, "lemmaTitle": "甲状腺结节", "lemmaCroppedTitle": "甲状腺结节", "lemmaDesc": "甲状腺结节是指在甲状腺内的肿块，可随吞咽动作随甲状腺而上下移动，是临床常见的病症...", "lemmaUrl": "http://baike.baidu.com/item/%E7%94%B2%E7%8A%B6%E8%85%BA%E7%BB%93%E8%8A%82/10441055", "lemmaPic": []}, {"lemmaId": 1122468, "lemmaTitle": "甲状腺功能亢进症", "lemmaCroppedTitle": "甲状腺功能亢进症", "lemmaDesc": "甲状腺功能亢进症简称“甲亢”，是由于甲状腺合成释放过多的甲状腺激素，造成机体代谢...", "lemmaUrl": "http://baike.baidu.com/item/%E7%94%B2%E7%8A%B6%E8%85%BA%E5%8A%9F%E8%83%BD%E4%BA%A2%E8%BF%9B%E7%97%87/1122468", "lemmaPic": []}, {"lemmaId": 5278224, "lemmaTitle": "霉菌性阴道炎", "lemmaCroppedTitle": "霉菌性阴道炎", "lemmaDesc": "霉菌性阴道炎或念珠菌性阴道炎即外阴阴道假丝念珠菌病（VVC），是由念珠菌引起的一...", "lemmaUrl": "http://baike.baidu.com/item/%E9%9C%89%E8%8F%8C%E6%80%A7%E9%98%B4%E9%81%93%E7%82%8E/5278224", "lemmaPic": []}, {"lemmaId": 717398, "lemmaTitle": "宫颈癌", "lemmaCroppedTitle": "宫颈癌", "lemmaDesc": "宫颈癌是最常见的妇科恶性肿瘤。原位癌高发年龄为30～35岁，浸润癌为45～55岁...", "lemmaUrl": "http://baike.baidu.com/item/%E5%AE%AB%E9%A2%88%E7%99%8C/717398", "lemmaPic": []}, {"lemmaId": 411582, "lemmaTitle": "阳痿", "lemmaCroppedTitle": "阳痿", "lemmaDesc": "“阳萎”是“勃起功能障碍（ED）”的曾用名。1992年，经有关专家讨论，美国国立...", "lemmaUrl": "http://baike.baidu.com/item/%E9%98%B3%E7%97%BF/411582", "lemmaPic": []}, {"lemmaId": 5241794, "lemmaTitle": "痔", "lemmaCroppedTitle": "痔", "lemmaDesc": "痔（俗称痔疮）是一种位于肛门部位的常见疾病，任何年龄都可发病，但随着年龄增长，发...", "lemmaUrl": "http://baike.baidu.com/item/%E7%97%94/5241794", "lemmaPic": []}, {"lemmaId": 102197, "lemmaTitle": "疝气", "lemmaCroppedTitle": "疝气", "lemmaDesc": "疝气，即人体内某个脏器或组织离开其正常解剖位置，通过先天或后天形成的薄弱点、缺损...", "lemmaUrl": "http://baike.baidu.com/item/%E7%96%9D%E6%B0%94/102197", "lemmaPic": []}, {"lemmaId": 980830, "lemmaTitle": "尿路感染", "lemmaCroppedTitle": "尿路感染", "lemmaDesc": "尿路感染又称泌尿系统感染，是尿路上皮对细菌侵入导致的炎症反应，通常伴随有菌尿和脓...", "lemmaUrl": "http://baike.baidu.com/item/%E5%B0%BF%E8%B7%AF%E6%84%9F%E6%9F%93/980830", "lemmaPic": []}, {"lemmaId": 1226672, "lemmaTitle": "幽门螺杆菌", "lemmaCroppedTitle": "幽门螺杆菌", "lemmaDesc": "幽门螺杆菌病是一种螺旋形、微厌氧、对生长条件要求十分苛刻的细菌。1983年首次从...", "lemmaUrl": "http://baike.baidu.com/item/%E5%B9%BD%E9%97%A8%E8%9E%BA%E6%9D%86%E8%8F%8C/1226672", "lemmaPic": []}, {"lemmaId": 2997226, "lemmaTitle": "肩周炎", "lemmaCroppedTitle": "肩周炎", "lemmaDesc": "肩周炎又称肩关节周围炎，俗称凝肩、五十肩。以肩部逐渐产生疼痛，夜间为甚，逐渐加重...", "lemmaUrl": "http://baike.baidu.com/item/%E8%82%A9%E5%91%A8%E7%82%8E/2997226", "lemmaPic": []}, {"lemmaId": 1080, "lemmaTitle": "贫血", "lemmaCroppedTitle": "贫血", "lemmaDesc": "贫血(anemia)是指人体外周血红细胞容量减少，低于正常范围下限的一种常见的临...", "lemmaUrl": "http://baike.baidu.com/item/%E8%B4%AB%E8%A1%80/1080", "lemmaPic": []}, {"lemmaId": 101775, "lemmaTitle": "鸡眼", "lemmaCroppedTitle": "鸡眼", "lemmaDesc": "系足部皮肤局部长期受压和摩擦引起的局限性、圆锥状角质增生。俗称“肉刺”。长久站立...", "lemmaUrl": "http://baike.baidu.com/item/%E9%B8%A1%E7%9C%BC/101775", "lemmaPic": []}, {"lemmaId": 493671, "lemmaTitle": "淋病", "lemmaCroppedTitle": "淋病", "lemmaDesc": "淋病是淋病奈瑟菌（简称淋球菌）引起的以泌尿生殖系统化脓性感染为主要表现的性传播疾...", "lemmaUrl": "http://baike.baidu.com/item/%E6%B7%8B%E7%97%85/493671", "lemmaPic": []}, {"lemmaId": 466028, "lemmaTitle": "阑尾炎", "lemmaCroppedTitle": "阑尾炎", "lemmaDesc": "阑尾炎是因多种因素而形成的炎性改变，为外科常见病，以青年最为多见，男性多于女性。...", "lemmaUrl": "http://baike.baidu.com/item/%E9%98%91%E5%B0%BE%E7%82%8E/466028", "lemmaPic": []}, {"lemmaId": 600302, "lemmaTitle": "慢性咽炎", "lemmaCroppedTitle": "慢性咽炎", "lemmaDesc": "慢性咽炎为咽黏膜、黏膜下及淋巴组织的慢性炎症。弥漫性咽部炎症常为上呼吸道慢性炎症...", "lemmaUrl": "http://baike.baidu.com/item/%E6%85%A2%E6%80%A7%E5%92%BD%E7%82%8E/600302", "lemmaPic": []}, {"lemmaId": 228549, "lemmaTitle": "静脉曲张", "lemmaCroppedTitle": "静脉曲张", "lemmaDesc": "静脉曲张是指由于血液淤滞、静脉管壁薄弱等因素，导致的静脉迂曲、扩张。身体多个部位...", "lemmaUrl": "http://baike.baidu.com/item/%E9%9D%99%E8%84%89%E6%9B%B2%E5%BC%A0/228549", "lemmaPic": []}, {"lemmaId": 86577, "lemmaTitle": "过敏性鼻炎", "lemmaCroppedTitle": "过敏性鼻炎", "lemmaDesc": "过敏性鼻炎即变应性鼻炎，是指特应性个体接触变应原后，主要由IgE介导的介质（主要...", "lemmaUrl": "http://baike.baidu.com/item/%E8%BF%87%E6%95%8F%E6%80%A7%E9%BC%BB%E7%82%8E/86577", "lemmaPic": []}, {"lemmaId": 3370702, "lemmaTitle": "腰肌劳损", "lemmaCroppedTitle": "腰肌劳损", "lemmaDesc": "腰肌劳损，又称功能性腰痛、慢性下腰损伤、腰臀肌筋膜炎等，实为腰部肌肉及其附着点筋...", "lemmaUrl": "http://baike.baidu.com/item/%E8%85%B0%E8%82%8C%E5%8A%B3%E6%8D%9F/3370702", "lemmaPic": []}, {"lemmaId": 670784, "lemmaTitle": "破伤风", "lemmaCroppedTitle": "破伤风", "lemmaDesc": "破伤风（tetanus）是破伤风梭菌经由皮肤或黏膜伤口侵入人体，在缺氧环境下生长...", "lemmaUrl": "http://baike.baidu.com/item/%E7%A0%B4%E4%BC%A4%E9%A3%8E/670784", "lemmaPic": []}, {"lemmaId": 217759, "lemmaTitle": "耳鸣", "lemmaCroppedTitle": "耳鸣", "lemmaDesc": "耳鸣是累及听觉系统的许多疾病不同病理变化的结果，病因复杂，机制不清，主要表现为无...", "lemmaUrl": "http://baike.baidu.com/item/%E8%80%B3%E9%B8%A3/217759", "lemmaPic": []}, {"lemmaId": 5055167, "lemmaTitle": "强直性脊柱炎", "lemmaCroppedTitle": "强直性脊柱炎", "lemmaDesc": "强直性脊柱炎（AS）是以骶髂关节和脊柱附着点炎症为主要症状的疾病。与HLA-B2...", "lemmaUrl": "http://baike.baidu.com/item/%E5%BC%BA%E7%9B%B4%E6%80%A7%E8%84%8A%E6%9F%B1%E7%82%8E/5055167", "lemmaPic": []}, {"lemmaId": 383302, "lemmaTitle": "毛囊炎", "lemmaCroppedTitle": "毛囊炎", "lemmaDesc": "本症为整个毛囊细菌感染发生化脓性炎症。初起为红色丘疹，逐渐演变成丘疹性脓疱，孤立...", "lemmaUrl": "http://baike.baidu.com/item/%E6%AF%9B%E5%9B%8A%E7%82%8E/383302", "lemmaPic": []}, {"lemmaId": 2864018, "lemmaTitle": "淋巴结肿大", "lemmaCroppedTitle": "淋巴结肿大", "lemmaDesc": "淋巴结分布全身，是人体重要的免疫器官，按其位置可分为浅表淋巴结和深部淋巴结。正常...", "lemmaUrl": "http://baike.baidu.com/item/%E6%B7%8B%E5%B7%B4%E7%BB%93%E8%82%BF%E5%A4%A7/2864018", "lemmaPic": []}, {"lemmaId": 870664, "lemmaTitle": "神经衰弱", "lemmaCroppedTitle": "神经衰弱", "lemmaDesc": "神经衰弱（neurasthenia）在中国属于神经症的诊断之一。是由于长期处于紧...", "lemmaUrl": "http://baike.baidu.com/item/%E7%A5%9E%E7%BB%8F%E8%A1%B0%E5%BC%B1/870664", "lemmaPic": []}, {"lemmaId": 151056, "lemmaTitle": "癌症", "lemmaCroppedTitle": "癌症", "lemmaDesc": "在医学上，癌（cancer）是指起源于上皮组织的恶性肿瘤，是恶性肿瘤中最常见的一...", "lemmaUrl": "http://baike.baidu.com/item/%E7%99%8C%E7%97%87/151056", "lemmaPic": []}, {"lemmaId": 534586, "lemmaTitle": "咽炎", "lemmaCroppedTitle": "咽炎", "lemmaDesc": "咽炎（pharyngitis）为咽部的非特异性炎症，是各种微生物感染咽部而产生炎...", "lemmaUrl": "http://baike.baidu.com/item/%E5%92%BD%E7%82%8E/534586", "lemmaPic": []}, {"lemmaId": 8928211, "lemmaTitle": "新生儿黄疸", "lemmaCroppedTitle": "新生儿黄疸", "lemmaDesc": "医学上把未满月（出生28天内）新生儿的黄疸，称之为新生儿黄疸（neonatal ...", "lemmaUrl": "http://baike.baidu.com/item/%E6%96%B0%E7%94%9F%E5%84%BF%E9%BB%84%E7%96%B8/8928211", "lemmaPic": []}, {"lemmaId": 833095, "lemmaTitle": "肝癌", "lemmaCroppedTitle": "肝癌", "lemmaDesc": "肝癌即肝脏恶性肿瘤，可分为原发性和继发性两大类。原发性肝脏恶性肿瘤起源于肝脏的上...", "lemmaUrl": "http://baike.baidu.com/item/%E8%82%9D%E7%99%8C/833095", "lemmaPic": []}, {"lemmaId": 107789, "lemmaTitle": "脑梗塞", "lemmaCroppedTitle": "脑梗塞", "lemmaDesc": "脑梗死旧称脑梗塞，又称缺血性脑卒中（cerebral ischemic stro...", "lemmaUrl": "http://baike.baidu.com/item/%E8%84%91%E6%A2%97%E5%A1%9E/107789", "lemmaPic": []}, {"lemmaId": 1441350, "lemmaTitle": "心脏病", "lemmaCroppedTitle": "心脏病", "lemmaDesc": "心脏病是一类比较常见的循环系统疾病。循环系统由心脏、血管和调节血液循环的神经体液...", "lemmaUrl": "http://baike.baidu.com/item/%E5%BF%83%E8%84%8F%E7%97%85/1441350", "lemmaPic": []}, {"lemmaId": 8421024, "lemmaTitle": "疱疹", "lemmaCroppedTitle": "疱疹", "lemmaDesc": "疱疹是指疱疹病毒科病毒所致疾病。目前已知在疱疹病毒科中有八种病毒（单纯疱疹病毒1...", "lemmaUrl": "http://baike.baidu.com/item/%E7%96%B1%E7%96%B9/8421024", "lemmaPic": []}, {"lemmaId": 2456805, "lemmaTitle": "黄疸", "lemmaCroppedTitle": "黄疸", "lemmaDesc": "黄疸是常见症状与体征，其发生是由于胆红素代谢障碍而引起血清内胆红素浓度升高所致。...", "lemmaUrl": "http://baike.baidu.com/item/%E9%BB%84%E7%96%B8/2456805", "lemmaPic": []}, {"lemmaId": 529233, "lemmaTitle": "月经不调", "lemmaCroppedTitle": "月经不调", "lemmaDesc": "月经失调也称月经不调，妇科常见病。表现为月经周期或出血量的异常，或是月经前、经期...", "lemmaUrl": "http://baike.baidu.com/item/%E6%9C%88%E7%BB%8F%E4%B8%8D%E8%B0%83/529233", "lemmaPic": []}, {"lemmaId": 692180, "lemmaTitle": "腮腺炎", "lemmaCroppedTitle": "腮腺炎", "lemmaDesc": "腮腺是涎液腺中最大的腺体，位于两侧面颊近耳垂处，腮腺肿大以耳垂为中心，可以一侧或...", "lemmaUrl": "http://baike.baidu.com/item/%E8%85%AE%E8%85%BA%E7%82%8E/692180", "lemmaPic": []}, {"lemmaId": 2721378, "lemmaTitle": "低血糖", "lemmaCroppedTitle": "低血糖", "lemmaDesc": "低血糖是指成年人空腹血糖浓度低于2.8mmol/L。糖尿病患者血糖值≤3.9 m...", "lemmaUrl": "http://baike.baidu.com/item/%E4%BD%8E%E8%A1%80%E7%B3%96/2721378", "lemmaPic": {"width": 426, "height": 392, "url": "https://gss0.bdstatic.com/-4o3dSag_xI4khGkpoWK1HF6hhy/baike/w%3D168/sign=0a8c22984aed2e73fce9822abf00a16d/503d269759ee3d6d690d4ad743166d224e4adee7.jpg"}}, {"lemmaId": 5731, "lemmaTitle": "刮痧", "lemmaCroppedTitle": "刮痧", "lemmaDesc": "刮痧是以中医经络腧穴理论为指导，通过特制的刮痧器具和相应的手法，蘸取一定的介质，...", "lemmaUrl": "http://baike.baidu.com/item/%E5%88%AE%E7%97%A7/5731", "lemmaPic": []}, {"lemmaId": 1133228, "lemmaTitle": "直肠癌", "lemmaCroppedTitle": "直肠癌", "lemmaDesc": "直肠癌是指从齿状线至直肠乙状结肠交界处之间的癌，是消化道最常见的恶性肿瘤之一。直...", "lemmaUrl": "http://baike.baidu.com/item/%E7%9B%B4%E8%82%A0%E7%99%8C/1133228", "lemmaPic": []}, {"lemmaId": 102377, "lemmaTitle": "银屑病", "lemmaCroppedTitle": "银屑病", "lemmaDesc": "银屑病俗称牛皮癣，是一种慢性炎症性皮肤病，病程较长，有易复发倾向，有的病例几乎终...", "lemmaUrl": "http://baike.baidu.com/item/%E9%93%B6%E5%B1%91%E7%97%85/102377", "lemmaPic": []}, {"lemmaId": 229887, "lemmaTitle": "坐骨神经痛", "lemmaCroppedTitle": "坐骨神经痛", "lemmaDesc": "坐骨神经痛是以坐骨神经径路及分布区域疼痛为主的综合征。坐骨神经痛的绝大多数病例是...", "lemmaUrl": "http://baike.baidu.com/item/%E5%9D%90%E9%AA%A8%E7%A5%9E%E7%BB%8F%E7%97%9B/229887", "lemmaPic": []}, {"lemmaId": 2981779, "lemmaTitle": "肾炎", "lemmaCroppedTitle": "肾炎", "lemmaDesc": "肾脏的生理功能主要是排泄代谢产物及调节水、电解质和酸碱平衡，分泌多种活性物质，维...", "lemmaUrl": "http://baike.baidu.com/item/%E8%82%BE%E7%82%8E/2981779", "lemmaPic": []}, {"lemmaId": 860909, "lemmaTitle": "扁平疣", "lemmaCroppedTitle": "扁平疣", "lemmaDesc": "本病是由人乳头状瘤病毒（HPV）感染引起的，好发于青少年的病毒感染性疾病。临床表...", "lemmaUrl": "http://baike.baidu.com/item/%E6%89%81%E5%B9%B3%E7%96%A3/860909", "lemmaPic": []}, {"lemmaId": 137895, "lemmaTitle": "中耳炎", "lemmaCroppedTitle": "中耳炎", "lemmaDesc": "中耳炎是累及中耳（包括咽鼓管、鼓室、鼓窦及乳突气房）全部或部分结构的炎性病变，好...", "lemmaUrl": "http://baike.baidu.com/item/%E4%B8%AD%E8%80%B3%E7%82%8E/137895", "lemmaPic": []}, {"lemmaId": 506886, "lemmaTitle": "胃炎", "lemmaCroppedTitle": "胃炎", "lemmaDesc": "胃炎（gastritis）是各种原因引起的胃黏膜炎症，为最常见的消化系统疾病之一...", "lemmaUrl": "http://baike.baidu.com/item/%E8%83%83%E7%82%8E/506886", "lemmaPic": []}, {"lemmaId": 33032, "lemmaTitle": "精神分裂症", "lemmaCroppedTitle": "精神分裂症", "lemmaDesc": "精神分裂症是一组病因未明的重性精神病，多在青壮年缓慢或亚急性起病，临床上往往表现...", "lemmaUrl": "http://baike.baidu.com/item/%E7%B2%BE%E7%A5%9E%E5%88%86%E8%A3%82%E7%97%87/33032", "lemmaPic": []}, {"lemmaId": 184621, "lemmaTitle": "肝硬化", "lemmaCroppedTitle": "肝硬化", "lemmaDesc": "肝硬化是临床常见的慢性进行性肝病，由一种或多种病因长期或反复作用形成的弥漫性肝损...", "lemmaUrl": "http://baike.baidu.com/item/%E8%82%9D%E7%A1%AC%E5%8C%96/184621", "lemmaPic": []}, {"lemmaId": 6335367, "lemmaTitle": "脾虚", "lemmaCroppedTitle": "脾虚", "lemmaDesc": "脾虚，为中医名词术语。泛指因脾气虚损引起的一系列脾脏生理功能失常的病理现象及病证...", "lemmaUrl": "http://baike.baidu.com/item/%E8%84%BE%E8%99%9A/6335367", "lemmaPic": []}, {"lemmaId": 653012, "lemmaTitle": "脱发", "lemmaCroppedTitle": "脱发", "lemmaDesc": "脱发是指头发脱落的现象。正常脱落的头发都是处于退行期及休止期的毛发，由于进入退行...", "lemmaUrl": "http://baike.baidu.com/item/%E8%84%B1%E5%8F%91/653012", "lemmaPic": []}, {"lemmaId": 1036217, "lemmaTitle": "青光眼", "lemmaCroppedTitle": "青光眼", "lemmaDesc": "青光眼（glaucoma）是一组以视乳头萎缩及凹陷、视野缺损及视力下降为共同特征...", "lemmaUrl": "http://baike.baidu.com/item/%E9%9D%92%E5%85%89%E7%9C%BC/1036217", "lemmaPic": []}, {"lemmaId": 967699, "lemmaTitle": "胰腺炎", "lemmaCroppedTitle": "胰腺炎", "lemmaDesc": "胰腺炎是胰腺因胰蛋白酶的自身消化作用而引起的疾病。胰腺有水肿、充血，或出血、坏死...", "lemmaUrl": "http://baike.baidu.com/item/%E8%83%B0%E8%85%BA%E7%82%8E/967699", "lemmaPic": []}, {"lemmaId": 1470407, "lemmaTitle": "淋巴瘤", "lemmaCroppedTitle": "淋巴瘤", "lemmaDesc": "淋巴瘤是起源于淋巴造血系统的恶性肿瘤，主要表现为无痛性淋巴结肿大，肝脾肿大，全身...", "lemmaUrl": "http://baike.baidu.com/item/%E6%B7%8B%E5%B7%B4%E7%98%A4/1470407", "lemmaPic": []}, {"lemmaId": 639773, "lemmaTitle": "生殖器疱疹", "lemmaCroppedTitle": "生殖器疱疹", "lemmaDesc": "生殖器疱疹是由单纯疱疹病毒（HSV）引起的性传播疾病，主要是HSV-2型，少数为...", "lemmaUrl": "http://baike.baidu.com/item/%E7%94%9F%E6%AE%96%E5%99%A8%E7%96%B1%E7%96%B9/639773", "lemmaPic": []}], "total": 7246, "totalPage": 73, "page": 0, "fromLemma": 0}